,frame,x1,y1
0,1,,
1,2,,
2,3,,
3,4,,
4,5,,
5,6,,
6,7,,
7,8,,
8,9,,
9,10,,
10,11,,
11,12,,
12,13,,
13,14,,
14,15,,
15,16,,
16,17,,
17,18,,
18,19,,
19,20,,
20,21,,
21,22,,
22,23,,
23,24,,
24,25,,
25,26,,
26,27,,
27,28,,
28,29,,
29,30,,
30,31,,
31,32,,
32,33,,
33,34,,
34,35,,
35,36,,
36,37,,
37,38,,
38,39,,
39,40,,
40,41,,
41,42,,
42,43,,
43,44,,
44,45,,
45,46,,
46,47,,
47,48,,
48,49,,
49,50,,
50,51,,
51,52,,
52,53,,
53,54,,
54,55,,
55,56,,
56,57,,
57,58,,
58,59,,
59,60,,
60,61,,
61,62,,
62,63,,
63,64,,
64,65,,
65,66,,
66,67,,
67,68,,
68,69,,
69,70,,
70,71,,
71,72,,
72,73,,
73,74,,
74,75,,
75,76,,
76,77,,
77,78,,
78,79,,
79,80,,
80,81,,
81,82,,
82,83,,
83,84,,
84,85,,
85,86,,
86,87,,
87,88,,
88,89,,
89,90,,
90,91,,
91,92,,
92,93,,
93,94,,
94,95,,
95,96,,
96,97,8.22287498817217,32.8914999526887
97,98,8.41865772598579,34.0009354669659
98,99,8.41865772598579,34.9145882434294
99,100,,
100,101,,
101,102,,
102,103,,
103,104,,
104,105,9.78913689068115,39.6133739509564
105,106,,
106,107,9.52809324026299,42.4848541055562
107,108,9.85439780328569,43.6595505324379
108,109,10.3112241915175,44.1816378332743
109,110,10.7680505797493,44.3774205710879
110,111,10.7027896671447,44.4426814836924
111,112,10.7680505797493,44.4426814836924
112,113,10.7680505797493,44.4426814836924
113,114,,
114,115,,
115,116,,
116,117,16.9025763645761,51.2950773071692
117,118,21.2750575090804,55.1454711508372
118,119,24.4075813140983,57.0380376163689
119,120,26.6264523426527,58.0822122180415
120,121,30.998933487157,58.3432558684597
121,122,33.413587253525,58.5390386062733
122,123,35.8935019324976,58.4737776936688
123,124,38.242894786261,57.5601249172052
124,125,40.7880703778381,56.9075157911598
125,126,43.5290287072289,56.1896457525098
126,127,46.2699870366196,54.5581229373963
127,128,49.1414671912194,53.1876437727009
128,129,51.8824255206101,50.9687727441465
129,130,53.9055138113509,48.4235971525694
130,131,56.3201675777189,46.3352479492241
131,132,58.016951305437,44.7689860467151
132,133,58.9958649945051,43.5290287072289
133,134,59.1263868197142,43.3332459694152
134,135,59.1916477323187,43.3332459694152
135,136,59.1916477323187,43.3332459694152
136,137,59.1916477323187,43.3332459694152
137,138,59.1916477323187,43.3332459694152
138,139,59.1916477323187,43.3332459694152
139,140,59.583213207946,43.1374632316016
140,141,61.1494751104549,41.1143749408608
141,142,61.9326060617094,38.3081556988656
142,143,62.846258838173,35.5019364568703
143,144,63.0420415759866,31.9778471762251
144,145,63.4336070516139,28.714801545998
145,146,63.694650702032,25.3212340905619
146,147,62.4546933625458,21.8624057225212
147,148,61.6063014986867,19.2519692183396
148,149,60.431605071805,17.2941418402034
149,150,58.865343169296,15.5973581124853
150,151,57.6253858298097,13.8353134721627
151,152,55.9286021020917,11.8122251814219
152,153,53.6444701609327,10.1154414537039
153,154,51.621381870192,7.83130951254492
154,155,49.7288154046603,6.26504761003594
155,156,46.2699870366196,4.37248114450425
156,157,43.8553332702516,2.74095832939072
157,158,41.8322449795108,2.02308829074077
158,159,40.1354612517927,1.69678372771807
159,160,39.6133739509564,1.76204464032261
160,161,39.6133739509564,1.69678372771807
161,162,39.6133739509564,1.76204464032261
162,163,39.2218084753292,1.63152281511353
163,164,37.5250247476111,1.23995733948628
164,165,34.7188055056158,1.17469642688174
165,166,32.8262390400841,1.69678372771807
166,167,27.866409682139,1.95782737813623
167,168,25.1254513527483,2.41465376636802
168,169,21.3403184216849,3.58935019324976
169,170,17.8162291410397,4.43774205710879
170,171,14.1616180351854,6.72187399826773
171,172,12.7258779578855,8.28813590077671
172,173,11.6817033562128,9.26704958984483
173,174,,
174,175,,
175,176,,
176,177,,
177,178,,
178,179,,
179,180,,
180,181,,
181,182,,
182,183,,
183,184,,
184,185,,
185,186,,
186,187,,
187,188,,
188,189,11.2248769679811,9.39757141505391
189,190,11.2248769679811,9.39757141505391
190,191,11.2248769679811,9.39757141505391
191,192,11.2248769679811,9.39757141505391
192,193,11.2248769679811,9.39757141505391
193,194,11.2248769679811,9.39757141505391
194,195,11.2248769679811,9.39757141505391
195,196,11.2248769679811,9.39757141505391
196,197,11.2248769679811,9.39757141505391
197,198,10.8985724049584,9.46283232765845
198,199,10.6375287545402,11.2248769679811
199,200,11.1596160553765,12.79113887049
200,201,8.94074502682212,19.904578344385
201,202,8.87548411421758,21.4055793342894
202,203,7.70078768733584,26.0391041292119
203,204,5.48191665878145,31.1947162249706
204,205,3.45882836804067,35.828241019893
205,206,2.41465376636802,37.7860683980292
206,207,2.74095832939072,42.4195931929517
207,208,3.71987201845884,44.3774205710879
208,209,4.63352479492241,46.204726124015
209,210,5.48191665878145,48.1625535021513
210,211,6.98291764868589,49.9898590550784
211,212,8.7449622890085,51.4255991323783
212,213,10.1807023663084,53.31816559791
213,214,13.7700525595582,55.732819364278
214,215,16.1194454133216,57.1685594415779
215,216,19.1214473931305,59.5179522953414
216,217,23.4286676250302,61.0842141978504
217,218,25.9738432166073,62.0631278869185
218,219,29.8242370602752,63.6293897894275
219,220,32.3041517392478,63.564128876823
220,221,34.261979117384,63.4336070516139
221,222,35.4366755442658,63.4336070516139
222,223,36.0240237577066,63.564128876823
223,224,36.0892846703112,63.564128876823
224,225,36.7418937963566,63.4336070516139
225,226,38.5691993492837,62.5852151877548
226,227,40.6575485526291,61.9326060617094
227,228,44.1816378332743,61.5410405860822
228,229,48.0320316769422,59.5179522953414
229,230,50.6424681811238,57.8864294802279
230,231,53.3834265105146,56.1243848399053
231,232,54.884427500419,54.4276011121872
232,233,57.1032985289734,51.6866427827965
233,234,58.6695604314824,50.1203808802875
234,235,59.713735033155,48.488858065174
235,236,60.1705614213868,46.5310306870378
236,237,61.0842141978504,44.0511160080652
237,238,61.8673451491049,41.4406795038835
238,239,62.0631278869185,38.1776338736565
239,240,62.5852151877548,35.2408928064521
240,241,63.564128876823,30.6726289241343
241,242,63.2378243138002,26.8874959930709
242,243,62.9767806633821,23.4286676250302
243,244,62.4546933625458,20.9487529460577
244,245,61.279996935664,19.1867083057351
245,246,60.1705614213868,17.8162291410397
246,247,59.4526913827369,16.1194454133216
247,248,58.3432558684597,14.2268789477899
248,249,56.3201675777189,12.5300952200719
249,250,55.1454711508372,10.9638333175629
250,251,54.2318183743736,9.59335415286753
251,252,54.1012965491645,9.26704958984483
252,253,54.1012965491645,9.26704958984483
253,254,54.1012965491645,9.26704958984483
254,255,54.1012965491645,9.26704958984483
255,256,53.5139483357236,8.67970137640396
256,257,51.621381870192,7.70078768733584
257,258,49.8593372298693,6.78713491087227
258,259,45.6826388231787,3.980915668877
259,260,43.0069414063925,3.32830654283159
260,261,40.5922876400245,2.5451755915771
261,262,36.546111058543,1.50100098990444
262,263,32.8262390400841,1.56626190250898
263,264,28.9758451964162,1.04417460167266
264,265,25.3864950031665,1.69678372771807
265,266,21.8624057225212,3.19778471762251
266,267,19.5130128687578,3.6546111058543
267,268,16.4457499763443,5.93874304701323
268,269,14.1616180351854,7.57026586212676
269,270,,
270,271,8.48391863859033,12.8563997830946
271,272,6.1997866974314,15.7931408502989
272,273,,
273,274,,
274,275,,
275,276,,
276,277,,
277,278,,
278,279,,
279,280,,
280,281,,
281,282,,
282,283,5.02509027054966,47.8362489391286
283,284,5.02509027054966,47.8362489391286
284,285,5.02509027054966,47.8362489391286
285,286,5.02509027054966,47.8362489391286
286,287,5.02509027054966,47.8362489391286
287,288,5.02509027054966,47.8362489391286
288,289,5.15561209575874,47.9015098517331
289,290,6.26504761003594,49.0762062786149
290,291,7.6355267747313,50.8382509189375
291,292,9.98491962849478,53.2529046853055
292,293,12.1385297444446,55.2107320634417
293,294,14.4879225982081,58.016951305437
294,295,17.3594027528079,60.1053005087823
295,296,19.9698392569896,61.0189532852459
296,297,22.1887102855439,61.8673451491049
297,298,24.2117985762847,62.7157370129639
298,299,26.4306696048391,62.9115197507776
299,300,28.8453233712071,63.1725634011957
300,301,31.1947162249706,63.4336070516139
301,302,33.1525436031068,63.8251725272411
302,303,34.9145882434294,63.6293897894275
303,304,36.1545455829157,63.1725634011957
304,305,36.4155892333339,62.846258838173
305,306,36.4808501459384,62.846258838173
306,307,36.4155892333339,62.846258838173
307,308,36.4155892333339,62.846258838173
308,309,37.1334592719838,63.0420415759866
309,310,39.6133739509564,62.3894324499412
310,311,41.7017231543017,60.9536923726413
311,312,45.356334260156,60.0400395961777
312,313,49.1414671912194,57.8864294802279
313,314,50.9687727441465,56.8422548785552
314,315,54.2970792869781,55.1454711508372
315,316,56.9075157911598,52.469773734051
316,317,58.0822122180415,50.3161636181011
317,318,59.1263868197142,48.8151626281967
318,319,60.1705614213868,47.6404662013149
319,320,60.6926487222231,46.2699870366196
320,321,60.9536923726413,44.8995078719242
321,322,61.4105187608731,43.7248114450425
322,323,61.6715624112913,43.2679850568107
323,324,61.6715624112913,43.2027241442062
324,325,61.7368233238958,43.2679850568107
325,326,61.7368233238958,43.2679850568107
326,327,61.7368233238958,43.2679850568107
327,328,61.8673451491049,43.0722023189971
328,329,62.5852151877548,41.6364622416972
329,330,62.3241715373367,38.8302429997019
330,331,62.7809979255685,36.0892846703112
331,332,63.0420415759866,31.7820644384115
332,333,63.0420415759866,28.714801545998
333,334,63.2378243138002,25.8433213913982
334,335,62.7809979255685,22.5802757611712
335,336,60.6926487222231,18.6646210048987
336,337,59.3874304701323,16.1194454133216
337,338,58.5390386062733,14.0310962099763
338,339,56.7769939659507,12.3995733948628
339,340,55.1454711508372,10.7680505797493
340,341,53.5139483357236,8.61444046379942
341,342,51.6866427827965,6.85239582347681
342,343,49.4025108416376,6.00400395961777
343,344,47.770988026524,5.28613392096782
344,345,44.7689860467151,3.32830654283159
345,346,41.6364622416972,2.61043650418164
346,347,38.8955039123064,1.95782737813623
347,348,35.8935019324976,0.913652776463574
348,349,32.7609781274796,0.913652776463574
349,350,29.7589761476707,1.50100098990444
350,351,27.3443223813027,1.69678372771807
351,352,25.3212340905619,1.76204464032261
352,353,23.2981457998211,2.61043650418164
353,354,21.470840246894,3.52408928064521
354,355,19.5130128687578,3.91565475627246
355,356,18.1425337040624,4.24195931929517
356,357,16.7067936267625,5.54717757138599
357,358,15.4015753746717,6.78713491087227
358,359,13.50900890914,7.89657042514946
359,360,12.0080079192355,8.7449622890085
360,361,,
361,362,,
362,363,,
363,364,,
364,365,,
365,366,,
366,367,,
367,368,,
368,369,,
369,370,,
370,371,,
371,372,,
372,373,,
373,374,,
374,375,2.61043650418164,23.1676239746121
375,376,1.82730555292715,25.3212340905619
376,377,1.89256646553169,27.6053660317209
377,378,2.28413194115894,28.2579751577663
378,379,2.21887102855439,28.2579751577663
379,380,2.21887102855439,28.2579751577663
380,381,2.21887102855439,28.2579751577663
381,382,2.15361011594985,28.3232360703708
382,383,1.69678372771807,30.6726289241343
383,384,2.67569741678618,34.3925009425931
384,385,2.80621924199526,38.6344602618883
385,386,3.13252380501797,41.5712013290926
386,387,4.95982935794512,45.4215951727606
387,388,6.06926487222231,48.0320316769422
388,389,7.961831337754,50.1203808802875
389,390,9.91965871589023,52.7308173844691
390,391,11.4206597057947,55.6675584516735
391,392,13.7700525595582,57.7559076550188
392,393,16.0541845007171,58.6695604314824
393,394,18.9256646553169,60.3663441592004
394,395,20.5571874704304,61.6063014986867
395,396,22.5802757611712,62.0631278869185
396,397,24.9949295275392,62.2589106247321
397,398,27.2138005560936,63.0420415759866
398,399,29.432671584648,63.4988679642184
399,400,31.9125862636206,63.1073024885912
400,401,34.4577618551977,62.9767806633821
401,402,37.1334592719838,63.1073024885912
402,403,39.6786348635609,62.3894324499412
403,404,42.1585495425335,61.8673451491049
404,405,44.3121596584834,61.4105187608731
405,406,45.9436824735969,61.0189532852459
406,407,47.3141616382922,60.1705614213868
407,408,48.3583362399649,59.0611259071096
408,409,49.5330326668466,58.0822122180415
409,410,50.7729900063329,57.4296030919961
410,411,51.9476864332147,57.2338203541825
411,412,52.8613392096782,56.5159503155325
412,413,53.4486874231191,55.4717757138599
413,414,54.3623401995827,54.2970792869781
414,415,55.732819364278,53.1223828600964
415,416,56.9727767037643,51.751903695401
416,417,57.6253858298097,50.4466854433102
417,418,58.5390386062733,49.2067281038239
418,419,59.7789959457596,47.7057271139195
419,420,60.6273878096186,46.6615525122468
420,421,60.8884314600368,46.074204298806
421,422,60.8231705474322,45.7478997357833
422,423,60.8231705474322,45.7478997357833
423,424,60.8231705474322,45.7478997357833
424,425,60.8231705474322,45.7478997357833
425,426,60.8231705474322,45.7478997357833
426,427,60.9536923726413,45.356334260156
427,428,61.4757796734776,43.7248114450425
428,429,62.5199542751503,41.3101576786745
429,430,63.3030852264048,39.1565475627246
430,431,63.3030852264048,36.7418937963566
431,432,63.7599116146366,32.8914999526887
432,433,64.1514770902638,30.8031507493434
433,434,63.694650702032,27.9316705947436
434,435,62.846258838173,25.3212340905619
435,436,62.7809979255685,23.037102149403
436,437,62.3241715373367,21.1445356838713
437,438,61.279996935664,19.3824910435487
438,439,60.1705614213868,17.7509682284352
439,440,59.583213207946,16.1194454133216
440,441,58.865343169296,14.6837053360217
441,442,57.7559076550188,13.4437479965355
442,443,56.7117330533461,12.4648343074673
443,444,55.6675584516735,11.2901378805856
444,445,55.0802102382326,10.3112241915175
445,446,54.884427500419,10.1807023663084
446,447,54.884427500419,10.1807023663084
447,448,54.884427500419,10.2459632789129
448,449,54.884427500419,10.2459632789129
449,450,54.7539056752099,9.85439780328569
450,451,53.2529046853055,8.54917955119487
451,452,50.8382509189375,6.98291764868589
452,453,48.6846408029876,5.35139483357236
453,454,46.8573352500605,3.980915668877
454,455,44.507942396297,3.39356745543613
455,456,41.9627668047199,2.67569741678618
456,457,39.80915668877,1.82730555292715
457,458,37.5250247476111,1.17469642688174
458,459,34.9145882434294,1.4357400772999
459,460,32.565195389666,1.56626190250898
460,461,30.281063448507,0.913652776463574
461,462,27.5401051191163,1.50100098990444
462,463,24.8644077023301,2.41465376636802
463,464,22.4497539359621,2.67569741678618
464,465,20.1656219948032,3.52408928064521
465,466,18.1425337040624,4.89456844534058
466,467,16.1847063259262,5.93874304701323
467,468,14.0310962099763,6.98291764868589
468,469,12.1385297444446,8.41865772598579
469,470,10.7680505797493,10.1807023663084
470,471,9.39757141505391,11.5511815310038
471,472,,
472,473,,
473,474,,
474,475,,
475,476,,
476,477,,
477,478,,
478,479,,
479,480,,
480,481,,
481,482,,
482,483,1.23995733948628,31.6515426132024
483,484,1.23995733948628,31.7168035258069
484,485,1.23995733948628,31.7168035258069
485,486,1.23995733948628,31.7168035258069
486,487,1.23995733948628,31.7168035258069
487,488,1.17469642688174,31.7168035258069
488,489,1.17469642688174,31.7168035258069
489,490,1.4357400772999,32.4346735644569
490,491,1.95782737813623,34.261979117384
491,492,2.02308829074077,38.8302429997019
492,493,3.45882836804067,41.3101576786745
493,494,4.56826388231787,44.8995078719242
494,495,5.80822122180415,48.8151626281967
495,496,7.961831337754,51.4255991323783
496,497,9.72387597807661,53.4486874231191
497,498,11.8122251814219,55.7980802768826
498,499,13.4437479965355,57.299081266787
499,500,15.2710535494626,58.016951305437
500,501,17.0983591023897,58.9958649945051
501,502,18.338316441876,60.431605071805
502,503,19.9698392569896,61.2147360230595
503,504,21.6013620721031,61.4757796734776
504,505,23.8202331006575,62.3241715373367
505,506,25.8433213913982,62.846258838173
506,507,27.7358878569299,63.8251725272411
507,508,29.7589761476707,63.6293897894275
508,509,31.847325351016,63.3030852264048
509,510,33.8704136417568,63.1725634011957
510,511,36.0240237577066,63.564128876823
511,512,38.3081556988656,63.1725634011957
512,513,40.5922876400245,62.2589106247321
513,514,42.7458977559744,61.5410405860822
514,515,44.6384642215061,61.4105187608731
515,516,46.4005088618287,60.6273878096186
516,517,48.0972925895467,59.1263868197142
517,518,50.055119967683,57.6253858298097
518,519,52.2739909962374,56.9075157911598
519,520,53.7097310735373,55.7980802768826
520,521,54.8191665878145,54.2318183743736
521,522,55.7980802768826,52.7308173844691
522,523,56.8422548785552,51.4908600449829
523,524,58.016951305437,50.8382509189375
524,525,58.9306040819005,49.6635544920557
525,526,59.2569086449232,48.2278144147558
526,527,59.713735033155,46.6615525122468
527,528,60.4968659844095,44.9647687845288
528,529,61.4757796734776,43.9205941828561
529,530,62.1283887995231,43.1374632316016
530,531,62.3241715373367,42.4195931929517
531,532,62.3241715373367,42.223810455138
532,533,62.2589106247321,42.223810455138
533,534,62.2589106247321,42.223810455138
534,535,62.3241715373367,42.223810455138
535,536,62.2589106247321,42.223810455138
536,537,62.3241715373367,42.1585495425335
537,538,62.2589106247321,40.9838531156518
538,539,62.7809979255685,38.7649820870974
539,540,63.9556943524502,36.546111058543
540,541,64.1514770902638,34.1967182047795
541,542,63.9556943524502,32.1083690014342
542,543,63.8251725272411,30.1505416232979
543,544,63.9556943524502,28.3232360703708
544,545,63.4336070516139,26.4959305174437
545,546,62.7809979255685,24.7991467897256
546,547,62.2589106247321,22.9718412367984
547,548,62.0631278869185,21.2097965964758
548,549,61.2147360230595,19.1867083057351
549,550,60.0400395961777,17.7509682284352
550,551,59.0611259071096,16.3152281511353
551,552,58.7348213440869,14.8142271612308
552,553,58.0822122180415,13.50900890914
553,554,57.2338203541825,12.3343124822583
554,555,56.6464721407416,11.8122251814219
555,556,56.450689402928,11.7469642688174
556,557,56.3854284903234,11.6817033562128
557,558,56.3854284903234,11.6817033562128
558,559,55.8633411894871,11.4206597057947
559,560,54.6886447626054,10.2459632789129
560,561,53.3834265105146,8.28813590077671
561,562,51.0340336567511,7.11343947389497
562,563,49.0109453660103,6.13452578482686
563,564,46.6615525122468,4.43774205710879
564,565,43.3332459694152,2.61043650418164
565,566,40.6575485526291,2.08834920334531
566,567,38.4386775240747,1.4357400772999
567,568,36.676632883752,0.848391863859033
568,569,34.979849156034,0.848391863859033
569,570,33.3483263409205,1.1094355142772
570,571,31.3904989627842,1.37047916469536
571,572,29.4979324972525,1.17469642688174
572,573,28.1274533325572,0.978913689068115
573,574,26.4959305174437,1.56626190250898
574,575,25.0601904401437,2.15361011594985
575,576,23.4286676250302,2.93674106720435
576,577,21.8624057225212,3.19778471762251
577,578,20.5571874704304,3.13252380501797
578,579,19.3172301309441,3.6546111058543
579,580,,
580,581,,
581,582,,
582,583,,
583,584,,
584,585,,
585,586,,
586,587,,
587,588,,
588,589,12.2690515696537,44.1816378332743
589,590,12.1385297444446,43.790072357647
590,591,,
591,592,,
592,593,,
593,594,,
594,595,,
595,596,,
596,597,1.89256646553169,29.0411061090208
597,598,1.56626190250898,29.4979324972525
598,599,1.50100098990444,29.5631934098571
599,600,1.50100098990444,29.5631934098571
600,601,1.50100098990444,29.5631934098571
601,602,1.50100098990444,29.5631934098571
602,603,1.50100098990444,29.6284543224616
603,604,1.4357400772999,30.4768461863207
604,605,1.95782737813623,31.9778471762251
605,606,2.80621924199526,33.8051527291522
606,607,3.19778471762251,36.546111058543
607,608,3.6546111058543,38.8955039123064
608,609,4.89456844534058,41.375418591279
609,610,5.54717757138599,43.9205941828561
610,611,5.67769939659507,46.3352479492241
611,612,6.59135217305864,48.3583362399649
612,613,7.50500494952222,50.055119967683
613,614,8.28813590077671,51.3603382197738
614,615,8.54917955119487,52.0129473458192
615,616,8.54917955119487,52.2087300836328
616,617,8.54917955119487,52.2087300836328
617,618,8.54917955119487,52.2087300836328
618,619,8.54917955119487,52.2087300836328
619,620,8.7449622890085,52.9266001222828
620,621,10.1154414537039,54.1012965491645
621,622,11.8122251814219,55.1454711508372
622,623,13.6395307343491,56.7769939659507
623,624,15.9889235881126,58.0822122180415
624,625,18.9256646553169,59.1263868197142
625,626,21.5361011594985,60.9536923726413
626,627,23.4939285376348,62.7157370129639
627,628,25.7127995661892,63.0420415759866
628,629,27.9969315073481,62.6504761003594
629,630,30.0852807106934,62.7157370129639
630,631,31.7820644384115,63.6293897894275
631,632,33.2830654283159,63.694650702032
632,633,34.3925009425931,63.1725634011957
633,634,35.5671973694749,62.6504761003594
634,635,36.676632883752,62.3894324499412
635,636,37.5250247476111,62.1283887995231
636,637,37.8513293106338,62.2589106247321
637,638,38.6997211744928,62.9115197507776
638,639,40.2659830770018,63.0420415759866
639,640,41.7017231543017,62.1936497121276
640,641,44.1163769206697,60.7579096348277
641,642,46.4657697744332,59.8442568583641
642,643,48.6193798903831,59.3874304701323
643,644,49.9898590550784,58.1474731306461
644,645,50.903511831542,56.5159503155325
645,646,52.3392519088419,54.9496884130235
646,647,54.1665574617691,53.5139483357236
647,648,55.6675584516735,51.621381870192
648,649,57.0380376163689,49.4677717542421
649,650,58.865343169296,47.9667707643377
650,651,60.5621268970141,46.7920743374559
651,652,61.279996935664,45.0952906097379
652,653,61.4757796734776,43.2679850568107
653,654,61.8673451491049,41.4406795038835
654,655,62.7157370129639,40.0049394265836
655,656,63.1725634011957,38.5691993492837
656,657,62.9767806633821,36.9376765341702
657,658,62.9767806633821,35.3714146316612
658,659,63.2378243138002,33.413587253525
659,660,63.6293897894275,31.5210207879933
660,661,63.3030852264048,29.3674106720435
661,662,63.0420415759866,27.1485396434891
662,663,63.1725634011957,24.9296686149347
663,664,63.1725634011957,23.4939285376348
664,665,62.6504761003594,22.2539711981485
665,666,61.8673451491049,21.0140138586622
666,667,60.9536923726413,19.7087956065714
667,668,60.1705614213868,18.338316441876
668,669,60.1053005087823,16.9678372771807
669,670,59.3874304701323,15.5973581124853
670,671,58.2779949558551,14.357400772999
671,672,57.1032985289734,13.0521825209082
672,673,55.8633411894871,11.7469642688174
673,674,55.2107320634417,10.4417460167266
674,675,54.3623401995827,9.26704958984483
675,676,52.9918610348873,8.28813590077671
676,677,51.621381870192,7.83130951254492
677,678,50.055119967683,6.78713491087227
678,679,48.9456844534058,5.54717757138599
679,680,47.8362489391286,4.63352479492241
680,681,46.0089433862014,3.980915668877
681,682,43.9858550954606,3.52408928064521
682,683,42.0280277173244,3.00200197980889
683,684,40.6575485526291,2.15361011594985
684,685,39.2218084753292,1.50100098990444
685,686,37.9818511358429,1.23995733948628
686,687,37.4597638350065,1.4357400772999
687,688,37.3292420097975,1.4357400772999
688,689,37.3292420097975,1.4357400772999
689,690,37.3292420097975,1.4357400772999
690,691,37.3292420097975,1.4357400772999
691,692,37.3292420097975,1.4357400772999
692,693,37.3292420097975,1.4357400772999
693,694,37.3292420097975,1.4357400772999
694,695,37.3292420097975,1.4357400772999
695,696,36.4808501459384,1.4357400772999
696,697,34.9145882434294,1.30521825209082
697,698,34.1314572921749,1.23995733948628
698,699,34.0009354669659,1.17469642688174
699,700,34.0009354669659,1.17469642688174
700,701,33.413587253525,0.913652776463574
701,702,31.1947162249706,1.37047916469536
702,703,28.7800624586026,1.95782737813623
703,704,26.1696259544209,2.02308829074077
704,705,23.5591894502393,2.28413194115894
705,706,,
706,707,,
707,708,14.0310962099763,46.5310306870378
708,709,,
709,710,,
710,711,,
711,712,,
712,713,,
713,714,,
714,715,,
715,716,,
716,717,,
717,718,,
718,719,,
719,720,,
720,721,11.0290942301674,43.9858550954606
721,722,10.9638333175629,43.9858550954606
722,723,10.8985724049584,43.8553332702516
723,724,10.9638333175629,44.0511160080652
724,725,4.17669840669063,20.4919265578259
725,726,4.17669840669063,21.0792747712668
726,727,3.6546111058543,22.1234493729394
727,728,3.13252380501797,23.1023630620075
728,729,2.61043650418164,27.01801781828
729,730,1.82730555292715,29.8894979728798
730,731,0.978913689068115,32.4999344770614
731,732,1.30521825209082,35.828241019893
732,733,2.28413194115894,37.5902856602156
733,734,2.74095832939072,39.2218084753292
734,735,2.61043650418164,40.7880703778381
735,736,2.80621924199526,42.4195931929517
736,737,3.71987201845884,43.9858550954606
737,738,5.02509027054966,45.6826388231787
738,739,5.93874304701323,47.5099443761059
739,740,6.26504761003594,49.1414671912194
740,741,6.65661308566318,50.3814245307057
741,742,7.50500494952222,51.4255991323783
742,743,8.54917955119487,52.2739909962374
743,744,9.78913689068115,53.4486874231191
744,745,10.7027896671447,54.8191665878145
745,746,11.6817033562128,55.9286021020917
746,747,13.3784870839309,56.9075157911598
747,748,14.8794880738354,57.8211685676233
748,749,16.2499672385307,58.6042995188778
749,750,17.3594027528079,59.5179522953414
750,751,18.4035773544806,60.5621268970141
751,752,19.904578344385,61.3452578482686
752,753,21.0792747712668,61.6063014986867
753,754,22.3844930233576,61.5410405860822
754,755,23.7549721880529,61.6715624112913
755,756,24.8644077023301,62.0631278869185
756,757,25.7127995661892,62.7157370129639
757,758,27.01801781828,63.0420415759866
758,759,28.4537578955799,63.1073024885912
759,760,29.8242370602752,62.846258838173
760,761,31.2599771375751,63.0420415759866
761,762,31.9778471762251,63.1725634011957
762,763,32.1736299140387,63.3683461390093
763,764,32.1736299140387,63.3683461390093
764,765,32.1736299140387,63.3683461390093
765,766,32.1736299140387,63.3683461390093
766,767,32.1736299140387,63.3683461390093
767,768,32.4999344770614,63.564128876823
768,769,34.1967182047795,63.7599116146366
769,770,36.1545455829157,62.9767806633821
770,771,38.1776338736565,62.5852151877548
771,772,40.4617658148154,62.4546933625458
772,773,42.4195931929517,62.2589106247321
773,774,44.1163769206697,61.3452578482686
774,775,45.6173779105742,60.3663441592004
775,776,46.7920743374559,59.6484741205505
776,777,47.9667707643377,59.583213207946
777,778,49.1414671912194,59.1263868197142
778,779,50.055119967683,58.4085167810642
779,780,50.7729900063329,57.5601249172052
780,781,51.6866427827965,56.5812112281371
781,782,52.6002955592601,56.0591239273007
782,783,53.5792092483282,55.602297539069
783,784,54.6233838500008,54.6886447626054
784,785,55.4065148012553,53.5139483357236
785,786,56.1243848399053,52.0782082584237
786,787,57.0380376163689,51.0992945693556
787,788,57.6906467424143,50.6424681811238
788,789,58.0822122180415,50.3814245307057
789,790,58.2127340432506,50.3161636181011
790,791,58.2127340432506,50.3161636181011
791,792,58.2127340432506,50.3161636181011
792,793,58.2127340432506,50.2509027054966
793,794,58.2779949558551,50.3161636181011
794,795,58.9306040819005,49.4025108416376
795,796,59.1263868197142,47.1836398130832
796,797,59.6484741205505,45.1605515223424
797,798,60.5621268970141,42.6153759307653
798,799,61.0842141978504,40.2007221643973
799,800,61.1494751104549,37.7208074854247
800,801,61.8020842365003,35.2408928064521
801,802,62.7809979255685,33.0872826905023
802,803,62.9115197507776,30.8031507493434
803,804,63.0420415759866,28.7800624586026
804,805,63.3683461390093,26.8222350804664
805,806,63.2378243138002,25.3212340905619
806,807,62.7809979255685,23.885494013262
807,808,62.0631278869185,22.7107975863803
808,809,61.6063014986867,21.470840246894
809,810,61.3452578482686,20.5571874704304
810,811,61.4757796734776,19.7087956065714
811,812,60.9536923726413,18.7298819175033
812,813,60.0400395961777,17.8162291410397
813,814,59.1916477323187,16.772054539367
814,815,58.2779949558551,14.9447489864399
815,816,57.299081266787,12.9216606956991
816,817,56.0591239273007,11.094355142772
817,818,54.4928620247917,9.91965871589023
818,819,53.0571219474919,9.13652776463574
819,820,52.0129473458192,8.15761407556763
820,821,51.3603382197738,7.17870038649951
821,822,50.185641792892,6.1997866974314
822,823,48.6193798903831,5.74296030919961
823,824,47.2489007256877,5.28613392096782
824,825,45.8784215609923,4.56826388231787
825,826,44.9647687845288,3.78513293106338
826,827,44.2468987458788,3.00200197980889
827,828,43.0722023189971,2.61043650418164
828,829,42.1585495425335,2.47991467897256
829,830,41.0491140282563,2.47991467897256
830,831,39.80915668877,2.41465376636802
831,832,38.6344602618883,2.28413194115894
832,833,38.112372961052,2.28413194115894
833,834,37.9818511358429,2.08834920334531
834,835,37.9165902232383,2.02308829074077
835,836,37.9165902232383,1.95782737813623
836,837,37.9165902232383,1.95782737813623
837,838,37.9165902232383,1.95782737813623
838,839,37.9165902232383,1.95782737813623
839,840,37.9165902232383,1.95782737813623
840,841,37.4597638350065,1.37047916469536
841,842,35.1103709812431,1.04417460167266
842,843,32.3694126518523,2.02308829074077
843,844,29.7589761476707,2.08834920334531
844,845,27.1485396434891,2.21887102855439
845,846,24.9949295275392,3.06726289241343
846,847,22.9065803241939,3.6546111058543
847,848,20.8834920334531,3.71987201845884
848,849,18.9909255679214,4.24195931929517
849,850,17.489924578017,5.28613392096782
850,851,16.3152281511353,6.46083034784956
851,852,15.075270811649,7.04817856129043
852,853,14.0310962099763,7.17870038649951
853,854,,
854,855,,
855,856,,
856,857,,
857,858,,
858,859,,
859,860,10.9638333175629,43.6595505324379
860,861,10.9638333175629,43.7248114450425
861,862,10.9638333175629,43.6595505324379
862,863,10.8985724049584,43.6595505324379
863,864,,
864,865,10.9638333175629,43.6595505324379
865,866,10.8985724049584,43.790072357647
866,867,,
867,868,,
868,869,,
869,870,,
870,871,1.23995733948628,29.9547588854843
871,872,1.17469642688174,30.3463243611116
872,873,1.17469642688174,30.4115852737161
873,874,1.17469642688174,30.4115852737161
874,875,1.17469642688174,30.4115852737161
875,876,1.17469642688174,30.4115852737161
876,877,1.17469642688174,30.4115852737161
877,878,1.17469642688174,30.4115852737161
878,879,1.17469642688174,30.4115852737161
879,880,1.50100098990444,31.2599771375751
880,881,1.76204464032261,32.8914999526887
881,882,1.37047916469536,34.261979117384
882,883,2.21887102855439,36.3503283207293
883,884,3.26304563022705,38.1776338736565
884,885,3.6546111058543,40.2659830770018
885,886,3.78513293106338,42.2890713677426
886,887,4.11143749408608,44.1816378332743
887,888,5.02509027054966,46.074204298806
888,889,5.93874304701323,47.5099443761059
889,890,6.5260912604541,48.9456844534058
890,891,6.72187399826773,50.2509027054966
891,892,7.57026586212676,51.5561209575874
892,893,8.67970137640396,52.4045128214464
893,894,9.72387597807661,53.1223828600964
894,895,10.8333114923538,53.9707747239554
895,896,11.4859206183992,54.884427500419
896,897,12.0080079192355,56.0591239273007
897,898,13.0521825209082,57.3643421793916
898,899,14.357400772999,57.9516903928324
899,900,15.5973581124853,58.4085167810642
900,901,16.9025763645761,59.0611259071096
901,902,18.0772727914579,59.5179522953414
902,903,18.6646210048987,60.1705614213868
903,904,19.5782737813623,61.0842141978504
904,905,21.0140138586622,61.4757796734776
905,906,22.1887102855439,61.6715624112913
906,907,23.4286676250302,62.0631278869185
907,908,24.6686249645165,62.1936497121276
908,909,25.3212340905619,62.4546933625458
909,910,26.2348868670255,62.9115197507776
910,911,27.866409682139,63.2378243138002
911,912,29.3674106720435,63.1073024885912
912,913,30.6726289241343,63.1073024885912
913,914,32.0431080888296,63.1073024885912
914,915,33.1525436031068,63.4988679642184
915,916,34.3272400299886,63.6293897894275
916,917,35.7629801072885,63.2378243138002
917,918,36.8724156215657,62.6504761003594
918,919,38.1776338736565,62.3894324499412
919,920,39.4828521257473,62.2589106247321
920,921,40.3965049022109,62.1936497121276
921,922,41.2448967660699,62.3241715373367
922,923,42.4195931929517,62.0631278869185
923,924,43.4637677946243,61.3452578482686
924,925,44.2468987458788,60.7579096348277
925,926,45.0300296971333,60.3010832465959
926,927,45.8131606483878,59.8442568583641
927,928,46.0089433862014,59.713735033155
928,929,46.074204298806,59.713735033155
929,930,46.074204298806,59.713735033155
930,931,46.074204298806,59.7789959457596
931,932,46.074204298806,59.7789959457596
932,933,46.2699870366196,59.9095177709687
933,934,47.7057271139195,59.7789959457596
934,935,49.337249929033,58.5390386062733
935,936,50.5772072685193,56.9075157911598
936,937,51.9476864332147,55.602297539069
937,938,53.6444701609327,54.4928620247917
938,939,55.2759929760462,53.6444701609327
939,940,56.2549066651144,52.1434691710283
940,941,57.1032985289734,50.7729900063329
941,942,58.016951305437,49.5982935794512
942,943,58.9306040819005,49.0109453660103
943,944,59.5179522953414,48.5541189777785
944,945,60.1053005087823,47.770988026524
945,946,60.3010832465959,46.922596162665
946,947,60.3010832465959,46.204726124015
947,948,60.3663441592004,45.2258124349469
948,949,60.8231705474322,44.1816378332743
949,950,61.2147360230595,42.8764195811834
950,951,61.5410405860822,42.4195931929517
951,952,61.6715624112913,42.3543322803471
952,953,61.6715624112913,42.3543322803471
953,954,61.6715624112913,42.3543322803471
954,955,61.6715624112913,42.3543322803471
955,956,61.997866974314,42.2890713677426
956,957,62.846258838173,40.7228094652336
957,958,62.9115197507776,38.6997211744928
958,959,63.3683461390093,36.7418937963566
959,960,64.2819989154729,34.4577618551977
960,961,64.2167380028684,32.3694126518523
961,962,63.7599116146366,30.6073680115297
962,963,63.3030852264048,28.8453233712071
963,964,63.564128876823,27.2790614686981
964,965,63.6293897894275,25.6475386535846
965,966,63.0420415759866,24.0160158384711
966,967,62.1936497121276,22.5802757611712
967,968,61.4105187608731,21.2097965964758
968,969,61.2147360230595,20.0351001695941
969,970,60.8884314600368,18.5340991796897
970,971,59.9095177709687,17.2288809275988
971,972,58.865343169296,16.2499672385307
972,973,58.016951305437,14.9447489864399
973,974,57.5601249172052,13.4437479965355
974,975,56.9075157911598,12.0732688318401
975,976,55.9286021020917,10.8333114923538
976,977,54.7539056752099,10.1807023663084
977,978,53.7097310735373,9.39757141505391
978,979,52.9266001222828,8.67970137640396
979,980,52.4045128214464,7.961831337754
980,981,51.5561209575874,7.04817856129043
981,982,50.4466854433102,6.33030852264048
982,983,49.4025108416376,5.87348213440869
983,984,48.4235971525694,5.41665574617691
984,985,47.3794225508968,4.82930753273604
985,986,46.5962915996423,4.37248114450425
986,987,45.9436824735969,3.71987201845884
987,988,44.7037251341106,3.19778471762251
988,989,43.4637677946243,3.00200197980889
989,990,42.1585495425335,2.74095832939072
990,991,40.9185922030472,2.21887102855439
991,992,40.0702003391882,1.89256646553169
992,993,39.1565475627246,1.4357400772999
993,994,38.112372961052,1.23995733948628
994,995,37.0681983593793,1.37047916469536
995,996,36.0892846703112,1.76204464032261
996,997,35.1756318938476,1.89256646553169
997,998,34.3925009425931,1.89256646553169
998,999,34.1314572921749,1.89256646553169
999,1000,34.0661963795704,1.82730555292715
1000,1001,34.0661963795704,1.82730555292715
1001,1002,34.0661963795704,1.82730555292715
1002,1003,34.0661963795704,1.82730555292715
1003,1004,34.0661963795704,1.82730555292715
1004,1005,34.0661963795704,1.82730555292715
1005,1006,33.8704136417568,1.50100098990444
1006,1007,32.6957172148751,0.913652776463574
1007,1008,31.7820644384115,1.37047916469536
1008,1009,30.7378898367388,2.02308829074077
1009,1010,28.5190188081844,2.61043650418164
1010,1011,26.30014777963,2.61043650418164
1011,1012,24.2770594888893,3.06726289241343
1012,1013,22.7107975863803,3.980915668877
1013,1014,21.0792747712668,4.43774205710879
1014,1015,19.3824910435487,4.37248114450425
1015,1016,17.5551854906215,5.02509027054966
1016,1017,16.0541845007171,6.00400395961777
1017,1018,15.0100098990444,6.72187399826773
1018,1019,14.357400772999,7.24396129910405
1019,1020,13.4437479965355,7.50500494952222
1020,1021,12.3343124822583,8.54917955119487
1021,1022,,
1022,1023,10.4417460167266,10.6375287545402
1023,1024,9.46283232765845,11.5511815310038
1024,1025,,
1025,1026,,
1026,1027,,
1027,1028,,
1028,1029,,
1029,1030,,
1030,1031,,
1031,1032,,
1032,1033,,
1033,1034,,
1034,1035,,
1035,1036,,
1036,1037,,
1037,1038,,
1038,1039,,
1039,1040,,
1040,1041,3.26304563022705,21.6666229847076
1041,1042,3.26304563022705,21.7318838973122
1042,1043,3.26304563022705,21.7971448099167
1043,1044,3.26304563022705,21.7971448099167
1044,1045,3.19778471762251,21.7971448099167
1045,1046,3.19778471762251,21.7971448099167
1046,1047,3.19778471762251,21.7318838973122
1047,1048,3.19778471762251,21.7971448099167
1048,1049,3.19778471762251,21.7971448099167
1049,1050,3.19778471762251,21.7971448099167
1050,1051,3.19778471762251,21.7971448099167
1051,1052,3.19778471762251,21.7971448099167
1052,1053,3.19778471762251,21.7971448099167
1053,1054,3.19778471762251,21.7318838973122
1054,1055,3.19778471762251,21.7971448099167
1055,1056,3.13252380501797,22.5150148485667
1056,1057,2.5451755915771,23.885494013262
1057,1058,2.74095832939072,26.1696259544209
1058,1059,2.61043650418164,28.3232360703708
1059,1060,1.82730555292715,30.281063448507
1060,1061,0.978913689068115,31.5210207879933
1061,1062,0.978913689068115,32.6957172148751
1062,1063,1.23995733948628,33.6746309039432
1063,1064,2.02308829074077,34.6535445930113
1064,1065,2.34939285376348,35.8935019324976
1065,1066,2.5451755915771,36.8724156215657
1066,1067,2.47991467897256,37.5902856602156
1067,1068,2.21887102855439,38.242894786261
1068,1069,2.02308829074077,39.0912866501201
1069,1070,2.02308829074077,40.0702003391882
1070,1071,2.21887102855439,40.7880703778381
1071,1072,2.34939285376348,40.9185922030472
1072,1073,2.41465376636802,40.9185922030472
1073,1074,2.41465376636802,40.9185922030472
1074,1075,2.67569741678618,41.1143749408608
1075,1076,3.71987201845884,42.4848541055562
1076,1077,4.30722023189971,45.0952906097379
1077,1078,4.95982935794512,47.2489007256877
1078,1079,6.26504761003594,49.0762062786149
1079,1080,7.6355267747313,50.3814245307057
1080,1081,8.54917955119487,51.4908600449829
1081,1082,8.87548411421758,52.469773734051
1082,1083,9.39757141505391,53.5139483357236
1083,1084,10.5070069293311,54.3623401995827
1084,1085,11.4859206183992,55.0149493256281
1085,1086,12.5953561326764,56.0591239273007
1086,1087,13.50900890914,56.7769939659507
1087,1088,13.9658352973718,57.3643421793916
1088,1089,14.6837053360217,58.2779949558551
1089,1090,16.1847063259262,59.1916477323187
1090,1091,17.489924578017,59.6484741205505
1091,1092,18.7298819175033,60.2358223339914
1092,1093,19.7740565191759,60.5621268970141
1093,1094,20.2961438200123,60.8884314600368
1094,1095,21.0792747712668,61.6063014986867
1095,1096,22.5150148485667,61.8673451491049
1096,1097,23.7549721880529,61.6063014986867
1097,1098,24.7991467897256,61.6063014986867
1098,1099,26.2348868670255,62.1283887995231
1099,1100,27.2790614686981,62.7809979255685
1100,1101,28.1927142451617,63.3683461390093
1101,1102,29.7589761476707,63.564128876823
1102,1103,31.1947162249706,63.3683461390093
1103,1104,32.3041517392478,63.1725634011957
1104,1105,33.4788481661295,63.1073024885912
1105,1106,34.3272400299886,63.1073024885912
1106,1107,35.0451100686385,63.3683461390093
1107,1108,36.4155892333339,63.4988679642184
1108,1109,37.8513293106338,63.1725634011957
1109,1110,38.7649820870974,62.7157370129639
1110,1111,39.6786348635609,62.4546933625458
1111,1112,40.5922876400245,62.1283887995231
1112,1113,41.0491140282563,61.7368233238958
1113,1114,41.1143749408608,61.7368233238958
1114,1115,41.1796358534654,61.7368233238958
1115,1116,41.1796358534654,61.7368233238958
1116,1117,41.1143749408608,61.7368233238958
1117,1118,41.1143749408608,61.7368233238958
1118,1119,41.1796358534654,61.7368233238958
1119,1120,41.1796358534654,61.7368233238958
1120,1121,41.1796358534654,61.8020842365003
1121,1122,42.4195931929517,62.1936497121276
1122,1123,44.2468987458788,61.4757796734776
1123,1124,45.7478997357833,60.3010832465959
1124,1125,46.7920743374559,59.1263868197142
1125,1126,47.9667707643377,58.5390386062733
1126,1127,49.4025108416376,58.0822122180415
1127,1128,50.8382509189375,56.9075157911598
1128,1129,51.9476864332147,55.9286021020917
1129,1130,53.1223828600964,55.2107320634417
1130,1131,54.1665574617691,54.884427500419
1131,1132,54.8191665878145,54.6233838500008
1132,1133,55.5370366264644,53.8402528987463
1133,1134,56.0591239273007,52.9266001222828
1134,1135,56.2549066651144,52.1434691710283
1135,1136,56.6464721407416,51.3603382197738
1136,1137,57.0380376163689,50.5772072685193
1137,1138,57.3643421793916,49.9898590550784
1138,1139,57.4296030919961,49.9245981424739
1139,1140,57.4296030919961,49.9245981424739
1140,1141,57.4296030919961,49.9245981424739
1141,1142,57.4948640046006,49.8593372298693
1142,1143,58.2779949558551,49.8593372298693
1143,1144,58.4737776936688,49.1414671912194
1144,1145,59.0611259071096,47.6404662013149
1145,1146,59.4526913827369,46.1394652114105
1146,1147,60.3663441592004,44.3774205710879
1147,1148,61.6715624112913,43.0722023189971
1148,1149,62.5852151877548,41.5712013290926
1149,1150,62.9115197507776,40.0702003391882
1150,1151,62.9115197507776,38.6997211744928
1151,1152,62.9767806633821,37.5902856602156
1152,1153,63.4988679642184,36.8724156215657
1153,1154,63.8904334398457,35.8935019324976
1154,1155,63.8251725272411,34.7840664182204
1155,1156,63.564128876823,34.0009354669659
1156,1157,63.4988679642184,33.413587253525
1157,1158,63.3683461390093,33.0220217778978
1158,1159,63.3683461390093,32.9567608652932
1159,1160,63.3683461390093,32.9567608652932
1160,1161,63.3683461390093,32.9567608652932
1161,1162,63.4336070516139,32.8914999526887
1162,1163,63.4988679642184,32.4346735644569
1163,1164,63.7599116146366,32.1736299140387
1164,1165,63.8251725272411,31.4557598753888
1165,1166,63.8251725272411,29.8242370602752
1166,1167,63.1725634011957,28.1927142451617
1167,1168,62.5852151877548,26.4306696048391
1168,1169,62.4546933625458,24.8644077023301
1169,1170,62.5199542751503,23.1676239746121
1170,1171,61.997866974314,21.6666229847076
1171,1172,61.4757796734776,20.4266656452213
1172,1173,60.8231705474322,19.1214473931305
1173,1174,60.6273878096186,18.0120118788533
1174,1175,60.2358223339914,17.0330981897852
1175,1176,59.583213207946,15.7931408502989
1176,1177,58.8000822566915,14.9447489864399
1177,1178,57.8211685676233,14.0310962099763
1178,1179,56.9727767037643,13.1174434335127
1179,1180,56.5159503155325,12.5300952200719
1180,1181,56.3854284903234,11.6817033562128
1181,1182,55.4065148012553,10.5722678419356
1182,1183,54.1012965491645,9.72387597807661
1183,1184,52.8613392096782,9.13652776463574
1184,1185,51.6866427827965,8.35339681338125
1185,1186,50.903511831542,7.17870038649951
1186,1187,49.9898590550784,5.93874304701323
1187,1188,48.8804235408012,5.02509027054966
1188,1189,47.9015098517331,4.63352479492241
1189,1190,46.922596162665,4.43774205710879
1190,1191,45.8784215609923,4.11143749408608
1191,1192,45.2258124349469,4.04617658148154
1192,1193,44.8342469593197,3.71987201845884
1193,1194,44.1163769206697,3.00200197980889
1194,1195,42.941680493788,2.5451755915771
1195,1196,42.093288629929,2.34939285376348
1196,1197,41.1796358534654,2.15361011594985
1197,1198,40.2007221643973,1.89256646553169
1198,1199,39.2870693879337,1.63152281511353
1199,1200,38.8955039123064,1.50100098990444
1200,1201,38.8302429997019,1.50100098990444
1201,1202,38.8302429997019,1.50100098990444
1202,1203,38.4386775240747,1.17469642688174
1203,1204,36.8071547089611,0.913652776463574
1204,1205,34.9145882434294,1.23995733948628
1205,1206,33.2178045157114,1.37047916469536
1206,1207,31.7820644384115,1.37047916469536
1207,1208,30.6726289241343,0.978913689068115
1208,1209,29.6284543224616,0.783130951254492
1209,1210,28.714801545998,1.1094355142772
1210,1211,28.1927142451617,1.4357400772999
1211,1212,27.4748442065118,1.95782737813623
1212,1213,26.4306696048391,2.34939285376348
1213,1214,25.451755915771,2.61043650418164
1214,1215,25.2559731779574,2.67569741678618
1215,1216,25.1907122653528,2.61043650418164
1216,1217,25.1907122653528,2.61043650418164
1217,1218,25.1907122653528,2.61043650418164
1218,1219,24.9949295275392,2.41465376636802
1219,1220,23.6244503628438,2.15361011594985
1220,1221,21.4055793342894,3.13252380501797
1221,1222,19.9698392569896,4.37248114450425
1222,1223,18.0120118788533,5.15561209575874
1223,1224,16.3152281511353,5.48191665878145
1224,1225,14.7489662486263,6.33030852264048
1225,1226,,
1226,1227,13.0521825209082,8.7449622890085
1227,1228,12.3343124822583,9.52809324026299
1228,1229,11.5511815310038,9.78913689068115
1229,1230,10.4417460167266,10.2459632789129
1230,1231,9.72387597807661,11.5511815310038
1231,1232,9.39757141505391,12.660617045281
1232,1233,9.13652776463574,14.0963571225809
1233,1234,8.15761407556763,15.6626190250898
1234,1235,6.85239582347681,16.9025763645761
1235,1236,5.93874304701323,18.7951428301078
1236,1237,5.61243848399053,20.3614047326168
1237,1238,5.02509027054966,21.7318838973122
1238,1239,4.11143749408608,22.9065803241939
1239,1240,3.13252380501797,24.3423204014938
1240,1241,2.61043650418164,25.7127995661892
1241,1242,2.34939285376348,26.8222350804664
1242,1243,,
1243,1244,,
1244,1245,,
1245,1246,,
1246,1247,,
1247,1248,,
1248,1249,,
1249,1250,,
1250,1251,,
1251,1252,,
1252,1253,,
1253,1254,,
1254,1255,1.69678372771807,32.4999344770614
1255,1256,1.69678372771807,32.4999344770614
1256,1257,1.69678372771807,32.4999344770614
1257,1258,1.69678372771807,32.4999344770614
1258,1259,1.69678372771807,32.4999344770614
1259,1260,1.69678372771807,32.4999344770614
1260,1261,2.28413194115894,33.3483263409205
1261,1262,2.28413194115894,35.0451100686385
1262,1263,1.89256646553169,36.4808501459384
1263,1264,1.69678372771807,37.8513293106338
1264,1265,1.82730555292715,39.0912866501201
1265,1266,2.34939285376348,40.0702003391882
1266,1267,3.26304563022705,41.1143749408608
1267,1268,3.78513293106338,42.093288629929
1268,1269,4.04617658148154,42.7458977559744
1269,1270,3.980915668877,43.0069414063925
1270,1271,3.91565475627246,43.1374632316016
1271,1272,3.91565475627246,43.1374632316016
1272,1273,3.91565475627246,43.1374632316016
1273,1274,3.91565475627246,43.1374632316016
1274,1275,3.78513293106338,43.3985068820198
1275,1276,3.78513293106338,44.7689860467151
1276,1277,4.95982935794512,46.2699870366196
1277,1278,6.26504761003594,47.2489007256877
1278,1279,7.6355267747313,48.5541189777785
1279,1280,8.48391863859033,50.185641792892
1280,1281,9.65861506547207,51.751903695401
1281,1282,11.1596160553765,52.6002955592601
1282,1283,12.4648343074673,53.6444701609327
1283,1284,13.2479652587218,54.9496884130235
1284,1285,14.2921398603945,56.0591239273007
1285,1286,15.5320971998808,56.7117330533461
1286,1287,16.7067936267625,57.4948640046006
1287,1288,17.6857073158306,58.5390386062733
1288,1289,18.5993600922942,59.6484741205505
1289,1290,19.9698392569896,60.4968659844095
1290,1291,21.2750575090804,60.8231705474322
1291,1292,22.3844930233576,61.279996935664
1292,1293,23.1676239746121,61.997866974314
1293,1294,24.0812767510756,62.5199542751503
1294,1295,25.3212340905619,62.846258838173
1295,1296,26.4959305174437,62.9115197507776
1296,1297,27.5401051191163,62.846258838173
1297,1298,28.9105842838117,62.7809979255685
1298,1299,29.7589761476707,62.9767806633821
1299,1300,30.4115852737161,63.3683461390093
1300,1301,31.1947162249706,63.694650702032
1301,1302,31.9778471762251,63.694650702032
1302,1303,32.4346735644569,63.694650702032
1303,1304,32.6304563022705,63.6293897894275
1304,1305,32.6304563022705,63.6293897894275
1305,1306,32.6304563022705,63.6293897894275
1306,1307,32.6304563022705,63.6293897894275
1307,1308,32.6304563022705,63.6293897894275
1308,1309,32.6304563022705,63.6293897894275
1309,1310,32.6304563022705,63.6293897894275
1310,1311,32.7609781274796,63.4988679642184
1311,1312,33.6746309039432,63.1073024885912
1312,1313,35.3714146316612,63.1073024885912
1313,1314,36.8071547089611,63.3683461390093
1314,1315,38.242894786261,63.1725634011957
1315,1316,39.6786348635609,62.5199542751503
1316,1317,41.0491140282563,61.8020842365003
1317,1318,42.1585495425335,61.4757796734776
1318,1319,42.941680493788,61.1494751104549
1319,1320,43.7248114450425,61.279996935664
1320,1321,44.5732033089015,61.4757796734776
1321,1322,45.356334260156,61.1494751104549
1322,1323,45.9436824735969,60.8231705474322
1323,1324,46.1394652114105,60.6273878096186
1324,1325,46.204726124015,60.5621268970141
1325,1326,46.204726124015,60.5621268970141
1326,1327,46.204726124015,60.5621268970141
1327,1328,46.204726124015,60.5621268970141
1328,1329,46.204726124015,60.5621268970141
1329,1330,46.204726124015,60.5621268970141
1330,1331,46.204726124015,60.5621268970141
1331,1332,46.204726124015,60.4968659844095
1332,1333,46.3352479492241,60.1053005087823
1333,1334,46.9878570752695,59.583213207946
1334,1335,48.0972925895467,59.1916477323187
1335,1336,49.5982935794512,58.6042995188778
1336,1337,50.7077290937284,57.4296030919961
1337,1338,51.5561209575874,56.1243848399053
1338,1339,52.7960782970737,54.9496884130235
1339,1340,54.1012965491645,54.2318183743736
1340,1341,55.5370366264644,53.1876437727009
1341,1342,56.5159503155325,51.6866427827965
1342,1343,57.3643421793916,50.5119463559148
1343,1344,58.2127340432506,49.7288154046603
1344,1345,58.8000822566915,49.2719890164285
1345,1346,59.5179522953414,48.6193798903831
1346,1347,59.8442568583641,47.3141616382922
1347,1348,59.9095177709687,46.1394652114105
1348,1349,60.431605071805,45.0952906097379
1349,1350,61.1494751104549,44.1163769206697
1350,1351,61.6063014986867,43.3985068820198
1351,1352,62.0631278869185,42.8111586685789
1352,1353,62.7157370129639,41.7669840669063
1353,1354,63.1073024885912,40.6575485526291
1354,1355,63.0420415759866,39.80915668877
1355,1356,63.1073024885912,39.0260257375155
1356,1357,63.2378243138002,38.0471120484474
1357,1358,63.3683461390093,37.2639810971929
1358,1359,63.4336070516139,36.9376765341702
1359,1360,63.4988679642184,36.8071547089611
1360,1361,63.7599116146366,36.546111058543
1361,1362,64.2167380028684,34.979849156034
1362,1363,63.8904334398457,32.9567608652932
1363,1364,63.564128876823,31.3252380501797
1364,1365,63.4988679642184,29.7589761476707
1365,1366,63.8251725272411,28.5190188081844
1366,1367,63.8251725272411,27.2790614686981
1367,1368,63.3030852264048,25.9738432166073
1368,1369,62.846258838173,25.0601904401437
1369,1370,62.4546933625458,24.2117985762847
1370,1371,62.2589106247321,23.6897112754484
1371,1372,62.2589106247321,23.4939285376348
1372,1373,62.2589106247321,23.4286676250302
1373,1374,62.2589106247321,23.4286676250302
1374,1375,62.3241715373367,23.2981457998211
1375,1376,62.5199542751503,21.9276666351258
1376,1377,61.9326060617094,20.2308829074077
1377,1378,61.279996935664,18.9909255679214
1378,1379,60.6926487222231,18.2730555292715
1379,1380,60.1053005087823,17.6204464032261
1380,1381,59.6484741205505,16.641532714158
1381,1382,59.2569086449232,16.0541845007171
1382,1383,58.9958649945051,15.8584017629035
1383,1384,58.9958649945051,15.5973581124853
1384,1385,58.865343169296,14.6184444234172
1385,1386,58.016951305437,13.4437479965355
1386,1387,57.1685594415779,12.660617045281
1387,1388,56.6464721407416,12.2690515696537
1388,1389,56.5159503155325,12.2037906570492
1389,1390,56.450689402928,12.2037906570492
1390,1391,56.5159503155325,12.2037906570492
1391,1392,56.5159503155325,12.2037906570492
1392,1393,56.450689402928,12.1385297444446
1393,1394,55.7980802768826,11.6817033562128
1394,1395,55.3412538886508,10.8333114923538
1395,1396,55.0149493256281,9.85439780328569
1396,1397,53.6444701609327,8.54917955119487
1397,1398,52.2739909962374,7.76604859994038
1398,1399,50.9687727441465,7.24396129910405
1399,1400,49.9245981424739,6.85239582347681
1400,1401,49.2719890164285,6.39556943524502
1401,1402,48.9456844534058,5.67769939659507
1402,1403,48.2930753273604,4.95982935794512
1403,1404,47.5099443761059,4.37248114450425
1404,1405,46.8573352500605,4.17669840669063
1405,1406,46.5310306870378,4.17669840669063
1406,1407,46.4657697744332,4.17669840669063
1407,1408,46.4657697744332,4.17669840669063
1408,1409,46.4657697744332,4.17669840669063
1409,1410,46.4657697744332,4.17669840669063
1410,1411,46.4657697744332,4.17669840669063
1411,1412,46.4657697744332,4.17669840669063
1412,1413,46.4657697744332,4.17669840669063
1413,1414,46.204726124015,4.30722023189971
1414,1415,45.8784215609923,4.37248114450425
1415,1416,45.4215951727606,4.30722023189971
1416,1417,44.507942396297,3.58935019324976
1417,1418,42.4195931929517,3.00200197980889
1418,1419,40.3965049022109,3.19778471762251
1419,1420,38.3734166114701,2.8714801545998
1420,1421,36.4808501459384,1.89256646553169
1421,1422,34.7188055056158,1.17469642688174
1422,1423,33.3483263409205,0.978913689068115
1423,1424,32.2388908266433,1.23995733948628
1424,1425,31.3252380501797,1.50100098990444
1425,1426,30.7378898367388,1.63152281511353
1426,1427,30.6073680115297,1.56626190250898
1427,1428,30.6073680115297,1.56626190250898
1428,1429,30.5421070989252,1.56626190250898
1429,1430,30.5421070989252,1.56626190250898
1430,1431,30.5421070989252,1.56626190250898
1431,1432,30.5421070989252,1.56626190250898
1432,1433,30.5421070989252,1.56626190250898
1433,1434,30.5421070989252,1.56626190250898
1434,1435,30.5421070989252,1.56626190250898
1435,1436,30.5421070989252,1.56626190250898
1436,1437,30.5421070989252,1.56626190250898
1437,1438,30.5421070989252,1.56626190250898
1438,1439,30.5421070989252,1.56626190250898
1439,1440,30.5421070989252,1.56626190250898
1440,1441,30.5421070989252,1.56626190250898
1441,1442,30.5421070989252,1.56626190250898
1442,1443,30.5421070989252,1.56626190250898
1443,1444,30.4768461863207,1.50100098990444
1444,1445,30.4768461863207,1.50100098990444
1445,1446,30.4768461863207,1.50100098990444
1446,1447,30.4768461863207,1.50100098990444
1447,1448,30.4768461863207,1.50100098990444
1448,1449,30.4768461863207,1.50100098990444
1449,1450,30.4768461863207,1.56626190250898
1450,1451,30.281063448507,1.37047916469536
1451,1452,29.0411061090208,0.978913689068115
1452,1453,27.2138005560936,1.63152281511353
1453,1454,25.7127995661892,2.15361011594985
1454,1455,24.2770594888893,2.67569741678618
1455,1456,23.1023630620075,2.8714801545998
1456,1457,21.7971448099167,2.74095832939072
1457,1458,20.2961438200123,3.39356745543613
1458,1459,19.056186480526,4.30722023189971
1459,1460,18.0772727914579,5.02509027054966
1460,1461,17.1636200149943,5.48191665878145
1461,1462,16.7067936267625,6.06926487222231
1462,1463,16.5762718015534,6.26504761003594
1463,1464,16.5110108889489,6.26504761003594
1464,1465,16.5110108889489,6.26504761003594
1465,1466,16.5110108889489,6.1997866974314
1466,1467,16.4457499763443,6.1997866974314
1467,1468,16.4457499763443,6.1997866974314
1468,1469,,
1469,1470,,
1470,1471,15.8584017629035,6.00400395961777
1471,1472,14.2268789477899,6.85239582347681
1472,1473,13.6395307343491,8.28813590077671
1473,1474,,
1474,1475,,
1475,1476,,
1476,1477,10.2459632789129,12.9869216083037
1477,1478,,
1478,1479,,
1479,1480,,
1480,1481,,
1481,1482,,
1482,1483,,
1483,1484,,
1484,1485,,
1485,1486,,
1486,1487,,
1487,1488,,
1488,1489,,
1489,1490,,
1490,1491,2.28413194115894,28.714801545998
1491,1492,2.21887102855439,29.1063670216253
1492,1493,2.21887102855439,29.1716279342298
1493,1494,2.21887102855439,29.2368888468344
1494,1495,2.15361011594985,29.2368888468344
1495,1496,1.63152281511353,30.0200197980889
1496,1497,1.23995733948628,31.9125862636206
1497,1498,1.56626190250898,33.6093699913386
1498,1499,1.76204464032261,34.979849156034
1499,1500,1.82730555292715,36.0240237577066
1500,1501,1.56626190250898,36.8724156215657
1501,1502,1.63152281511353,37.9165902232383
1502,1503,1.89256646553169,39.0260257375155
1503,1504,2.28413194115894,39.80915668877
1504,1505,2.67569741678618,40.7228094652336
1505,1506,2.93674106720435,41.8975058921153
1506,1507,3.39356745543613,42.5501150181607
1507,1508,3.6546111058543,42.8764195811834
1508,1509,3.58935019324976,43.2679850568107
1509,1510,3.58935019324976,44.1163769206697
1510,1511,3.85039384366792,45.0952906097379
1511,1512,4.24195931929517,45.8131606483878
1512,1513,4.50300296971333,46.204726124015
1513,1514,4.63352479492241,46.4005088618287
1514,1515,4.69878570752695,46.4657697744332
1515,1516,4.69878570752695,46.4657697744332
1516,1517,4.76404662013149,46.4657697744332
1517,1518,4.89456844534058,46.7268134248514
1518,1519,5.22087300836328,46.922596162665
1519,1520,5.41665574617691,47.0531179878741
1520,1521,5.67769939659507,47.3794225508968
1521,1522,5.93874304701323,48.0972925895467
1522,1523,6.5260912604541,49.337249929033
1523,1524,7.70078768733584,50.5119463559148
1524,1525,8.7449622890085,51.3603382197738
1525,1526,9.59335415286753,52.4045128214464
1526,1527,9.98491962849478,53.5792092483282
1527,1528,10.7027896671447,54.6886447626054
1528,1529,11.7469642688174,55.732819364278
1529,1530,12.5953561326764,56.3201675777189
1530,1531,13.50900890914,56.9075157911598
1531,1532,14.2921398603945,57.299081266787
1532,1533,14.6184444234172,57.4948640046006
1533,1534,14.6837053360217,57.5601249172052
1534,1535,14.6837053360217,57.5601249172052
1535,1536,14.6837053360217,57.5601249172052
1536,1537,14.6837053360217,57.6253858298097
1537,1538,15.0100098990444,58.3432558684597
1538,1539,15.923662675508,59.1916477323187
1539,1540,17.2941418402034,59.7789959457596
1540,1541,18.2077946166669,59.9747786835732
1541,1542,19.056186480526,60.2358223339914
1542,1543,19.9698392569896,60.6926487222231
1543,1544,20.752970208244,61.0842141978504
1544,1545,21.2750575090804,61.4757796734776
1545,1546,22.0581884603349,61.997866974314
1546,1547,22.9718412367984,62.3241715373367
1547,1548,23.4939285376348,62.4546933625458
1548,1549,23.6897112754484,62.5199542751503
1549,1550,23.7549721880529,62.5199542751503
1550,1551,23.7549721880529,62.5199542751503
1551,1552,23.7549721880529,62.5199542751503
1552,1553,23.7549721880529,62.5199542751503
1553,1554,23.7549721880529,62.5199542751503
1554,1555,23.7549721880529,62.5199542751503
1555,1556,23.7549721880529,62.5199542751503
1556,1557,23.7549721880529,62.5199542751503
1557,1558,23.8202331006575,62.5199542751503
1558,1559,24.603364051912,62.4546933625458
1559,1560,25.9085823040028,62.4546933625458
1560,1561,27.01801781828,62.9115197507776
1561,1562,28.5190188081844,63.1725634011957
1562,1563,30.2158025359025,62.9767806633821
1563,1564,31.4557598753888,62.7157370129639
1564,1565,32.8914999526887,62.846258838173
1565,1566,33.9356745543613,63.3030852264048
1566,1567,34.3925009425931,63.564128876823
1567,1568,34.4577618551977,63.4988679642184
1568,1569,34.4577618551977,63.4988679642184
1569,1570,34.4577618551977,63.4988679642184
1570,1571,34.4577618551977,63.4988679642184
1571,1572,34.4577618551977,63.4988679642184
1572,1573,34.5230227678022,63.4988679642184
1573,1574,34.4577618551977,63.4988679642184
1574,1575,34.5230227678022,63.4988679642184
1575,1576,34.6535445930113,63.4336070516139
1576,1577,35.5671973694749,62.9767806633821
1577,1578,37.0681983593793,62.7157370129639
1578,1579,38.3734166114701,62.9115197507776
1579,1580,39.7438957761655,62.9115197507776
1580,1581,41.1143749408608,62.3894324499412
1581,1582,42.093288629929,61.9326060617094
1582,1583,42.7458977559744,61.4105187608731
1583,1584,43.4637677946243,61.0842141978504
1584,1585,43.790072357647,60.8231705474322
1585,1586,43.790072357647,60.7579096348277
1586,1587,43.790072357647,60.7579096348277
1587,1588,43.790072357647,60.7579096348277
1588,1589,43.790072357647,60.7579096348277
1589,1590,43.790072357647,60.7579096348277
1590,1591,43.790072357647,60.7579096348277
1591,1592,43.790072357647,60.7579096348277
1592,1593,43.790072357647,60.7579096348277
1593,1594,43.790072357647,60.7579096348277
1594,1595,43.790072357647,60.7579096348277
1595,1596,43.790072357647,60.7579096348277
1596,1597,43.790072357647,60.7579096348277
1597,1598,43.790072357647,60.7579096348277
1598,1599,43.790072357647,60.7579096348277
1599,1600,43.790072357647,60.7579096348277
1600,1601,43.790072357647,60.7579096348277
1601,1602,43.790072357647,60.7579096348277
1602,1603,43.790072357647,60.7579096348277
1603,1604,43.790072357647,60.7579096348277
1604,1605,43.8553332702516,60.8231705474322
1605,1606,45.356334260156,61.0842141978504
1606,1607,46.7920743374559,59.9095177709687
1607,1608,47.7057271139195,58.3432558684597
1608,1609,49.0109453660103,57.1685594415779
1609,1610,50.4466854433102,56.3201675777189
1610,1611,51.8824255206101,55.9286021020917
1611,1612,52.9918610348873,55.2107320634417
1612,1613,53.7097310735373,54.3623401995827
1613,1614,54.4276011121872,53.6444701609327
1614,1615,55.0802102382326,53.1223828600964
1615,1616,55.2759929760462,52.9918610348873
1616,1617,55.2759929760462,52.9918610348873
1617,1618,55.2759929760462,52.9918610348873
1618,1619,55.2759929760462,52.9918610348873
1619,1620,55.2759929760462,52.9918610348873
1620,1621,55.2759929760462,52.9918610348873
1621,1622,55.2759929760462,52.9918610348873
1622,1623,55.2759929760462,52.9918610348873
1623,1624,55.2759929760462,52.9918610348873
1624,1625,55.5370366264644,53.1223828600964
1625,1626,56.5812112281371,52.6002955592601
1626,1627,57.2338203541825,51.2950773071692
1627,1628,57.4296030919961,50.1203808802875
1628,1629,57.6253858298097,48.6193798903831
1629,1630,58.0822122180415,46.922596162665
1630,1631,58.9306040819005,45.8131606483878
1631,1632,59.713735033155,44.3774205710879
1632,1633,59.9095177709687,42.941680493788
1633,1634,60.1053005087823,41.5712013290926
1634,1635,60.8231705474322,40.2659830770018
1635,1636,61.6715624112913,39.0912866501201
1636,1637,62.1936497121276,37.6555465728202
1637,1638,62.4546933625458,36.3503283207293
1638,1639,62.846258838173,35.1103709812431
1639,1640,63.1725634011957,34.0661963795704
1640,1641,63.694650702032,33.4788481661295
1641,1642,64.0862161776593,32.4346735644569
1642,1643,64.0862161776593,31.1947162249706
1643,1644,64.0209552650547,30.2158025359025
1644,1645,63.7599116146366,29.1716279342298
1645,1646,63.4988679642184,28.1274533325572
1646,1647,63.3030852264048,27.4095832939072
1647,1648,63.2378243138002,27.0832787308845
1648,1649,63.4336070516139,26.5611914300482
1649,1650,63.4988679642184,25.451755915771
1650,1651,63.1725634011957,24.3423204014938
1651,1652,62.846258838173,23.4939285376348
1652,1653,62.4546933625458,22.7760584989848
1653,1654,62.0631278869185,21.9276666351258
1654,1655,61.6715624112913,21.2097965964758
1655,1656,61.5410405860822,20.8182311208486
1656,1657,61.5410405860822,20.2961438200123
1657,1658,61.4757796734776,19.2519692183396
1658,1659,61.0842141978504,18.2730555292715
1659,1660,60.7579096348277,17.5551854906215
1660,1661,60.3663441592004,17.2288809275988
1661,1662,60.1053005087823,16.9678372771807
1662,1663,59.9747786835732,16.9025763645761
1663,1664,59.9747786835732,16.9025763645761
1664,1665,59.9747786835732,16.9025763645761
1665,1666,59.9747786835732,16.9025763645761
1666,1667,59.9095177709687,16.8373154519716
1667,1668,59.583213207946,16.5110108889489
1668,1669,59.3874304701323,16.2499672385307
1669,1670,59.2569086449232,16.2499672385307
1670,1671,59.1916477323187,16.2499672385307
1671,1672,59.1263868197142,16.0541845007171
1672,1673,59.1263868197142,15.9889235881126
1673,1674,59.1263868197142,15.923662675508
1674,1675,59.1263868197142,15.923662675508
1675,1676,59.1263868197142,15.923662675508
1676,1677,59.1263868197142,15.923662675508
1677,1678,59.1263868197142,15.923662675508
1678,1679,59.1263868197142,15.923662675508
1679,1680,59.1263868197142,15.923662675508
1680,1681,59.1916477323187,15.923662675508
1681,1682,59.1263868197142,15.4015753746717
1682,1683,58.4737776936688,13.9005743847672
1683,1684,57.1685594415779,12.4648343074673
1684,1685,55.9938630146962,11.5511815310038
1685,1686,54.9496884130235,10.7027896671447
1686,1687,54.2970792869781,9.98491962849478
1687,1688,53.9707747239554,9.20178867724028
1688,1689,53.2529046853055,8.28813590077671
1689,1690,52.469773734051,7.76604859994038
1690,1691,51.621381870192,7.50500494952222
1691,1692,50.7729900063329,6.91765673608135
1692,1693,49.9898590550784,6.39556943524502
1693,1694,49.4677717542421,6.26504761003594
1694,1695,49.1414671912194,5.80822122180415
1695,1696,48.488858065174,5.02509027054966
1696,1697,47.5099443761059,4.43774205710879
1697,1698,46.7920743374559,4.11143749408608
1698,1699,46.4005088618287,3.980915668877
1699,1700,46.1394652114105,3.91565475627246
1700,1701,46.0089433862014,3.91565475627246
1701,1702,46.0089433862014,3.91565475627246
1702,1703,46.0089433862014,3.91565475627246
1703,1704,46.0089433862014,3.91565475627246
1704,1705,46.0089433862014,3.91565475627246
1705,1706,46.0089433862014,3.91565475627246
1706,1707,46.0089433862014,3.91565475627246
1707,1708,46.0089433862014,3.91565475627246
1708,1709,46.0089433862014,3.91565475627246
1709,1710,46.0089433862014,3.91565475627246
1710,1711,46.0089433862014,3.91565475627246
1711,1712,46.0089433862014,3.91565475627246
1712,1713,46.0089433862014,3.91565475627246
1713,1714,46.0089433862014,3.91565475627246
1714,1715,45.6173779105742,3.91565475627246
1715,1716,45.2258124349469,3.58935019324976
1716,1717,44.7037251341106,3.52408928064521
1717,1718,44.1816378332743,3.52408928064521
1718,1719,43.5290287072289,2.80621924199526
1719,1720,42.093288629929,2.15361011594985
1720,1721,40.6575485526291,1.89256646553169
1721,1722,39.5481130383519,1.76204464032261
1722,1723,38.4386775240747,1.69678372771807
1723,1724,37.5250247476111,1.69678372771807
1724,1725,37.0029374467748,1.69678372771807
1725,1726,36.8724156215657,1.63152281511353
1726,1727,36.8724156215657,1.63152281511353
1727,1728,36.8724156215657,1.63152281511353
1728,1729,36.8724156215657,1.63152281511353
1729,1730,36.8724156215657,1.63152281511353
1730,1731,36.8724156215657,1.63152281511353
1731,1732,36.8724156215657,1.63152281511353
1732,1733,36.8724156215657,1.63152281511353
1733,1734,36.8724156215657,1.63152281511353
1734,1735,36.8724156215657,1.63152281511353
1735,1736,36.8724156215657,1.63152281511353
1736,1737,36.8724156215657,1.63152281511353
1737,1738,36.8724156215657,1.63152281511353
1738,1739,36.8724156215657,1.63152281511353
1739,1740,36.8724156215657,1.63152281511353
1740,1741,36.8724156215657,1.63152281511353
1741,1742,36.8724156215657,1.63152281511353
1742,1743,36.8724156215657,1.63152281511353
1743,1744,36.8724156215657,1.63152281511353
1744,1745,36.8724156215657,1.63152281511353
1745,1746,36.8724156215657,1.63152281511353
1746,1747,36.8724156215657,1.63152281511353
1747,1748,36.8724156215657,1.63152281511353
1748,1749,36.8724156215657,1.63152281511353
1749,1750,36.8724156215657,1.63152281511353
1750,1751,36.8724156215657,1.63152281511353
1751,1752,36.676632883752,1.37047916469536
1752,1753,35.5671973694749,0.848391863859033
1753,1754,34.261979117384,0.848391863859033
1754,1755,33.2178045157114,1.1094355142772
1755,1756,32.2388908266433,1.17469642688174
1756,1757,31.4557598753888,1.23995733948628
1757,1758,31.0641943997615,1.37047916469536
1758,1759,30.6073680115297,1.23995733948628
1759,1760,29.6937152350662,1.04417460167266
1760,1761,28.5190188081844,0.913652776463574
1761,1762,27.7358878569299,0.978913689068115
1762,1763,27.2790614686981,1.17469642688174
1763,1764,26.5611914300482,1.4357400772999
1764,1765,25.7780604787937,1.82730555292715
1765,1766,25.2559731779574,2.08834920334531
1766,1767,25.0601904401437,2.34939285376348
1767,1768,24.5381031393074,2.28413194115894
1768,1769,23.8202331006575,2.15361011594985
1769,1770,22.9065803241939,2.21887102855439
1770,1771,21.9929275477303,2.47991467897256
1771,1772,21.6013620721031,2.61043650418164
1772,1773,21.5361011594985,2.61043650418164
1773,1774,21.5361011594985,2.61043650418164
1774,1775,21.5361011594985,2.61043650418164
1775,1776,21.5361011594985,2.61043650418164
1776,1777,21.470840246894,2.61043650418164
1777,1778,21.5361011594985,2.61043650418164
1778,1779,21.470840246894,2.67569741678618
1779,1780,21.5361011594985,2.67569741678618
1780,1781,21.470840246894,2.67569741678618
1781,1782,21.470840246894,2.67569741678618
1782,1783,21.470840246894,2.67569741678618
1783,1784,21.1445356838713,3.00200197980889
1784,1785,20.6877092956395,3.32830654283159
1785,1786,20.1656219948032,3.58935019324976
1786,1787,19.4477519561532,3.980915668877
1787,1788,18.7951428301078,4.11143749408608
1788,1789,17.6857073158306,4.50300296971333
1789,1790,16.5110108889489,5.15561209575874
1790,1791,15.6626190250898,5.67769939659507
1791,1792,15.3363144620671,6.00400395961777
1792,1793,15.3363144620671,6.00400395961777
1793,1794,15.3363144620671,6.00400395961777
1794,1795,15.3363144620671,6.00400395961777
1795,1796,15.3363144620671,6.00400395961777
1796,1797,15.2710535494626,6.00400395961777
1797,1798,15.2710535494626,6.00400395961777
1798,1799,15.2710535494626,6.00400395961777
1799,1800,15.2710535494626,6.00400395961777
1800,1801,15.2710535494626,6.06926487222231
1801,1802,15.2710535494626,6.06926487222231
1802,1803,15.2710535494626,6.13452578482686
1803,1804,15.2710535494626,6.13452578482686
1804,1805,15.2710535494626,6.13452578482686
1805,1806,15.2710535494626,6.13452578482686
1806,1807,15.2710535494626,6.13452578482686
1807,1808,15.2710535494626,6.13452578482686
1808,1809,15.2710535494626,6.13452578482686
1809,1810,,
1810,1811,,
1811,1812,,
1812,1813,,
1813,1814,,
1814,1815,,
1815,1816,,
1816,1817,,
1817,1818,13.9658352973718,7.76604859994038
1818,1819,12.9869216083037,8.02709225035855
1819,1820,11.8122251814219,9.33231050244937
1820,1821,10.8333114923538,10.6375287545402
1821,1822,10.1154414537039,11.5511815310038
1822,1823,9.39757141505391,12.1385297444446
1823,1824,8.67970137640396,12.5300952200719
1824,1825,7.89657042514946,13.0521825209082
1825,1826,6.98291764868589,13.9005743847672
1826,1827,6.26504761003594,14.6184444234172
1827,1828,6.00400395961777,15.075270811649
1828,1829,5.93874304701323,15.3363144620671
1829,1830,,
1830,1831,13.1827043461173,45.2910733475515
1831,1832,,
1832,1833,,
1833,1834,,
1834,1835,,
1835,1836,,
1836,1837,,
1837,1838,,
1838,1839,,
1839,1840,,
1840,1841,,
1841,1842,,
1842,1843,,
1843,1844,,
1844,1845,,
1845,1846,2.34939285376348,29.8894979728798
1846,1847,1.95782737813623,30.4768461863207
1847,1848,1.95782737813623,30.5421070989252
1848,1849,1.95782737813623,30.5421070989252
1849,1850,1.95782737813623,30.5421070989252
1850,1851,1.95782737813623,30.5421070989252
1851,1852,1.95782737813623,30.5421070989252
1852,1853,1.56626190250898,30.6073680115297
1853,1854,1.17469642688174,31.1947162249706
1854,1855,1.30521825209082,32.565195389666
1855,1856,1.37047916469536,34.1967182047795
1856,1857,1.76204464032261,35.3061537190567
1857,1858,2.28413194115894,36.2198064955203
1858,1859,2.47991467897256,37.1334592719838
1859,1860,2.34939285376348,37.6555465728202
1860,1861,2.28413194115894,37.8513293106338
1861,1862,2.28413194115894,37.8513293106338
1862,1863,2.28413194115894,37.8513293106338
1863,1864,2.28413194115894,37.8513293106338
1864,1865,2.28413194115894,37.8513293106338
1865,1866,2.28413194115894,37.8513293106338
1866,1867,2.21887102855439,37.8513293106338
1867,1868,2.02308829074077,38.1776338736565
1868,1869,2.08834920334531,38.960764824911
1869,1870,2.47991467897256,40.3965049022109
1870,1871,3.06726289241343,41.6364622416972
1871,1872,3.45882836804067,43.0069414063925
1872,1873,3.78513293106338,44.1816378332743
1873,1874,3.91565475627246,45.0300296971333
1874,1875,4.24195931929517,46.0089433862014
1875,1876,4.63352479492241,47.0531179878741
1876,1877,5.0903511831542,47.770988026524
1877,1878,5.61243848399053,48.2930753273604
1878,1879,6.26504761003594,49.0109453660103
1879,1880,6.85239582347681,49.7940763172648
1880,1881,7.11343947389497,50.2509027054966
1881,1882,7.11343947389497,50.3814245307057
1882,1883,7.17870038649951,50.3814245307057
1883,1884,7.17870038649951,50.3814245307057
1884,1885,7.17870038649951,50.3814245307057
1885,1886,7.17870038649951,50.6424681811238
1886,1887,7.6355267747313,51.621381870192
1887,1888,8.67970137640396,52.8613392096782
1888,1889,9.78913689068115,53.7097310735373
1889,1890,10.8985724049584,54.5581229373963
1890,1891,12.0080079192355,55.4717757138599
1891,1892,12.5953561326764,56.1896457525098
1892,1893,13.2479652587218,57.1685594415779
1893,1894,14.0310962099763,57.8864294802279
1894,1895,14.7489662486263,58.2127340432506
1895,1896,15.5320971998808,58.4737776936688
1896,1897,16.3804890637398,58.8000822566915
1897,1898,17.0330981897852,59.0611259071096
1898,1899,17.2941418402034,59.1263868197142
1899,1900,17.3594027528079,59.1263868197142
1900,1901,17.3594027528079,59.1263868197142
1901,1902,17.3594027528079,59.1263868197142
1902,1903,17.3594027528079,59.1263868197142
1903,1904,17.3594027528079,59.1263868197142
1904,1905,17.3594027528079,59.1263868197142
1905,1906,17.3594027528079,59.3221695575278
1906,1907,17.6204464032261,59.7789959457596
1907,1908,18.1425337040624,60.3010832465959
1908,1909,19.3172301309441,60.8884314600368
1909,1910,20.6877092956395,61.0842141978504
1910,1911,21.7971448099167,61.3452578482686
1911,1912,23.037102149403,61.8020842365003
1912,1913,24.0160158384711,62.3894324499412
1913,1914,24.9949295275392,62.9767806633821
1914,1915,26.2348868670255,63.2378243138002
1915,1916,27.2138005560936,63.3030852264048
1916,1917,27.9969315073481,63.1073024885912
1917,1918,28.9105842838117,63.0420415759866
1918,1919,29.7589761476707,62.9115197507776
1919,1920,30.0852807106934,62.7809979255685
1920,1921,30.1505416232979,62.7809979255685
1921,1922,30.1505416232979,62.7809979255685
1922,1923,30.1505416232979,62.7809979255685
1923,1924,30.1505416232979,62.7809979255685
1924,1925,30.1505416232979,62.7809979255685
1925,1926,30.1505416232979,62.7809979255685
1926,1927,30.1505416232979,62.7809979255685
1927,1928,30.3463243611116,63.1725634011957
1928,1929,31.7820644384115,63.7599116146366
1929,1930,33.6746309039432,63.2378243138002
1930,1931,34.9145882434294,62.1936497121276
1931,1932,36.7418937963566,61.4105187608731
1932,1933,38.242894786261,61.3452578482686
1933,1934,39.7438957761655,61.5410405860822
1934,1935,41.1143749408608,61.3452578482686
1935,1936,42.4195931929517,61.279996935664
1936,1937,43.6595505324379,61.2147360230595
1937,1938,44.507942396297,61.2147360230595
1938,1939,45.1605515223424,61.2147360230595
1939,1940,45.8131606483878,61.0189532852459
1940,1941,46.4657697744332,60.6273878096186
1941,1942,46.7920743374559,60.3010832465959
1942,1943,47.2489007256877,59.9095177709687
1943,1944,47.9667707643377,59.2569086449232
1944,1945,48.8151626281967,58.6042995188778
1945,1946,49.337249929033,58.1474731306461
1946,1947,49.5330326668466,58.016951305437
1947,1948,49.5982935794512,57.9516903928324
1948,1949,49.7288154046603,57.8864294802279
1949,1950,49.8593372298693,57.9516903928324
1950,1951,50.055119967683,57.9516903928324
1951,1952,50.1203808802875,57.9516903928324
1952,1953,50.4466854433102,57.9516903928324
1953,1954,51.4908600449829,57.6253858298097
1954,1955,52.469773734051,56.6464721407416
1955,1956,52.9266001222828,56.0591239273007
1956,1957,52.9918610348873,55.7980802768826
1957,1958,52.9918610348873,55.7980802768826
1958,1959,52.9918610348873,55.7980802768826
1959,1960,52.9918610348873,55.7980802768826
1960,1961,52.9918610348873,55.7980802768826
1961,1962,52.9918610348873,55.7980802768826
1962,1963,52.9918610348873,55.7980802768826
1963,1964,52.9918610348873,55.7980802768826
1964,1965,52.9918610348873,55.7980802768826
1965,1966,53.0571219474919,55.5370366264644
1966,1967,53.7097310735373,54.4276011121872
1967,1968,55.0802102382326,53.4486874231191
1968,1969,56.3201675777189,52.469773734051
1969,1970,57.1685594415779,51.0992945693556
1970,1971,57.9516903928324,49.8593372298693
1971,1972,58.7348213440869,48.7499017155921
1972,1973,59.3874304701323,47.9015098517331
1973,1974,60.1705614213868,47.3794225508968
1974,1975,60.6273878096186,46.6615525122468
1975,1976,60.8884314600368,45.6173779105742
1976,1977,61.0842141978504,44.7689860467151
1977,1978,61.4105187608731,44.0511160080652
1978,1979,61.6063014986867,43.0722023189971
1979,1980,61.8673451491049,42.223810455138
1980,1981,62.1936497121276,41.8322449795108
1981,1982,62.6504761003594,41.1796358534654
1982,1983,63.1073024885912,40.2007221643973
1983,1984,63.3683461390093,39.0260257375155
1984,1985,63.4336070516139,38.1776338736565
1985,1986,63.3683461390093,37.2639810971929
1986,1987,63.4988679642184,36.2198064955203
1987,1988,63.7599116146366,35.5019364568703
1988,1989,63.8904334398457,34.7840664182204
1989,1990,64.0209552650547,33.6746309039432
1990,1991,64.0209552650547,32.6957172148751
1991,1992,63.8904334398457,31.847325351016
1992,1993,63.7599116146366,30.8031507493434
1993,1994,63.694650702032,29.8894979728798
1994,1995,63.4336070516139,29.2368888468344
1995,1996,63.3683461390093,29.0411061090208
1996,1997,63.3683461390093,29.0411061090208
1997,1998,63.3683461390093,29.0411061090208
1998,1999,63.3683461390093,29.0411061090208
1999,2000,63.3683461390093,29.0411061090208
2000,2001,63.3683461390093,29.0411061090208
2001,2002,63.3683461390093,29.0411061090208
2002,2003,63.3683461390093,28.9758451964162
2003,2004,63.7599116146366,28.5190188081844
2004,2005,63.564128876823,26.6264523426527
2005,2006,62.846258838173,24.7991467897256
2006,2007,62.1936497121276,23.2981457998211
2007,2008,61.9326060617094,21.8624057225212
2008,2009,61.7368233238958,20.8182311208486
2009,2010,61.5410405860822,19.8393174317805
2010,2011,61.2147360230595,18.8604037427124
2011,2012,60.6926487222231,18.2077946166669
2012,2013,60.1705614213868,17.7509682284352
2013,2014,59.713735033155,17.2288809275988
2014,2015,59.3874304701323,16.7067936267625
2015,2016,59.2569086449232,16.3804890637398
2016,2017,59.1916477323187,16.3804890637398
2017,2018,59.1916477323187,16.3804890637398
2018,2019,59.1916477323187,16.3152281511353
2019,2020,59.1916477323187,16.3152281511353
2020,2021,59.1916477323187,16.3152281511353
2021,2022,59.1916477323187,16.2499672385307
2022,2023,59.1916477323187,16.2499672385307
2023,2024,59.1916477323187,16.2499672385307
2024,2025,59.2569086449232,15.8584017629035
2025,2026,58.7348213440869,15.2710535494626
2026,2027,58.0822122180415,14.7489662486263
2027,2028,57.299081266787,14.2268789477899
2028,2029,56.2549066651144,13.3132261713264
2029,2030,54.9496884130235,12.0732688318401
2030,2031,54.3623401995827,11.0290942301674
2031,2032,53.7749919861418,9.85439780328569
2032,2033,53.1223828600964,9.13652776463574
2033,2034,52.469773734051,8.7449622890085
2034,2035,51.8824255206101,8.35339681338125
2035,2036,51.6866427827965,8.28813590077671
2036,2037,51.621381870192,8.28813590077671
2037,2038,51.621381870192,8.28813590077671
2038,2039,51.621381870192,8.28813590077671
2039,2040,51.621381870192,8.28813590077671
2040,2041,51.621381870192,8.28813590077671
2041,2042,51.621381870192,8.28813590077671
2042,2043,51.751903695401,8.09235316296309
2043,2044,51.751903695401,7.961831337754
2044,2045,51.621381870192,7.76604859994038
2045,2046,51.1645554819602,7.04817856129043
2046,2047,49.9898590550784,6.1997866974314
2047,2048,48.5541189777785,5.61243848399053
2048,2049,47.3794225508968,5.0903511831542
2049,2050,46.074204298806,4.50300296971333
2050,2051,45.2910733475515,3.71987201845884
2051,2052,44.4426814836924,3.19778471762251
2052,2053,43.3332459694152,2.74095832939072
2053,2054,42.3543322803471,2.61043650418164
2054,2055,41.2448967660699,2.61043650418164
2055,2056,39.8744176013746,2.47991467897256
2056,2057,38.6997211744928,2.15361011594985
2057,2058,38.0471120484474,1.82730555292715
2058,2059,37.7208074854247,1.63152281511353
2059,2060,37.6555465728202,1.56626190250898
2060,2061,37.6555465728202,1.56626190250898
2061,2062,37.6555465728202,1.56626190250898
2062,2063,37.6555465728202,1.56626190250898
2063,2064,37.6555465728202,1.56626190250898
2064,2065,37.6555465728202,1.56626190250898
2065,2066,37.6555465728202,1.56626190250898
2066,2067,37.6555465728202,1.56626190250898
2067,2068,37.6555465728202,1.56626190250898
2068,2069,37.5250247476111,1.37047916469536
2069,2070,36.8724156215657,1.1094355142772
2070,2071,35.7629801072885,1.1094355142772
2071,2072,34.8493273308249,1.23995733948628
2072,2073,34.1967182047795,1.4357400772999
2073,2074,33.413587253525,1.69678372771807
2074,2075,32.3041517392478,1.82730555292715
2075,2076,31.5862817005979,1.89256646553169
2076,2077,31.1947162249706,1.82730555292715
2077,2078,31.0641943997615,1.76204464032261
2078,2079,,
2079,2080,,
2080,2081,,
2081,2082,,
2082,2083,,
2083,2084,,
2084,2085,,
2085,2086,,
2086,2087,,
2087,2088,,
2088,2089,,
2089,2090,,
2090,2091,,
2091,2092,,
2092,2093,,
2093,2094,,
2094,2095,,
2095,2096,,
2096,2097,,
2097,2098,,
2098,2099,,
2099,2100,,
2100,2101,,
2101,2102,,
2102,2103,,
2103,2104,,
2104,2105,,
2105,2106,,
2106,2107,,
2107,2108,,
2108,2109,,
2109,2110,,
2110,2111,,
2111,2112,,
2112,2113,,
2113,2114,,
2114,2115,,
2115,2116,,
2116,2117,,
2117,2118,,
2118,2119,,
2119,2120,,
2120,2121,,
2121,2122,,
2122,2123,,
2123,2124,,
2124,2125,,
2125,2126,,
2126,2127,,
2127,2128,,
2128,2129,,
2129,2130,,
2130,2131,,
2131,2132,,
2132,2133,,
2133,2134,,
2134,2135,,
2135,2136,,
2136,2137,,
2137,2138,,
2138,2139,,
2139,2140,,
2140,2141,,
2141,2142,,
2142,2143,,
2143,2144,,
2144,2145,,
2145,2146,,
2146,2147,,
2147,2148,,
2148,2149,,
2149,2150,,
2150,2151,,
2151,2152,,
2152,2153,,
2153,2154,,
2154,2155,,
2155,2156,,
2156,2157,,
2157,2158,,
2158,2159,,
2159,2160,,
2160,2161,,
2161,2162,,
2162,2163,,
2163,2164,,
2164,2165,,
2165,2166,,
2166,2167,,
2167,2168,,
2168,2169,,
2169,2170,,
2170,2171,,
2171,2172,,
2172,2173,,
2173,2174,,
2174,2175,,
2175,2176,,
2176,2177,,
2177,2178,,
2178,2179,,
2179,2180,,
2180,2181,,
2181,2182,,
2182,2183,,
2183,2184,,
2184,2185,,
2185,2186,,
2186,2187,,
2187,2188,,
2188,2189,,
2189,2190,,
2190,2191,,
2191,2192,,
2192,2193,,
2193,2194,,
2194,2195,,
2195,2196,,
2196,2197,,
2197,2198,,
2198,2199,,
2199,2200,,
2200,2201,,
2201,2202,,
2202,2203,,
2203,2204,,
2204,2205,,
2205,2206,,
2206,2207,,
2207,2208,,
2208,2209,,
2209,2210,,
2210,2211,,
2211,2212,,
2212,2213,,
2213,2214,,
2214,2215,,
2215,2216,,
2216,2217,,
2217,2218,,
2218,2219,,
2219,2220,,
2220,2221,,
2221,2222,,
2222,2223,,
2223,2224,,
2224,2225,,
2225,2226,,
2226,2227,,
2227,2228,,
2228,2229,,
2229,2230,,
2230,2231,,
2231,2232,,
2232,2233,,
2233,2234,,
2234,2235,,
2235,2236,,
2236,2237,,
2237,2238,,
2238,2239,,
2239,2240,,
2240,2241,,
2241,2242,,
