,frame,x1,y1
0,1,,
1,2,,
2,3,,
3,4,,
4,5,,
5,6,,
6,7,,
7,8,,
8,9,,
9,10,,
10,11,,
11,12,,
12,13,,
13,14,,
14,15,,
15,16,,
16,17,,
17,18,,
18,19,,
19,20,,
20,21,,
21,22,,
22,23,,
23,24,,
24,25,,
25,26,,
26,27,,
27,28,,
28,29,,
29,30,,
30,31,,
31,32,,
32,33,,
33,34,,
34,35,,
35,36,,
36,37,,
37,38,,
38,39,,
39,40,,
40,41,,
41,42,,
42,43,,
43,44,,
44,45,,
45,46,,
46,47,,
47,48,,
48,49,,
49,50,,
50,51,,
51,52,,
52,53,,
53,54,,
54,55,,
55,56,,
56,57,,
57,58,,
58,59,,
59,60,,
60,61,,
61,62,,
62,63,,
63,64,,
64,65,,
65,66,,
66,67,,
67,68,,
68,69,,
69,70,,
70,71,,
71,72,,
72,73,,
73,74,,
74,75,,
75,76,,
76,77,,
77,78,,
78,79,,
79,80,,
80,81,,
81,82,,
82,83,,
83,84,,
84,85,,
85,86,,
86,87,,
87,88,,
88,89,,
89,90,,
90,91,,
91,92,,
92,93,,
93,94,,
94,95,,
95,96,,
96,97,,
97,98,,
98,99,,
99,100,,
100,101,,
101,102,,
102,103,,
103,104,,
104,105,,
105,106,,
106,107,,
107,108,,
108,109,,
109,110,,
110,111,,
111,112,,
112,113,,
113,114,,
114,115,,
115,116,,
116,117,,
117,118,,
118,119,,
119,120,,
120,121,,
121,122,,
122,123,,
123,124,,
124,125,,
125,126,,
126,127,,
127,128,,
128,129,,
129,130,,
130,131,,
131,132,,
132,133,,
133,134,,
134,135,,
135,136,,
136,137,,
137,138,,
138,139,,
139,140,,
140,141,,
141,142,,
142,143,,
143,144,,
144,145,,
145,146,,
146,147,,
147,148,,
148,149,,
149,150,,
150,151,,
151,152,,
152,153,,
153,154,,
154,155,,
155,156,,
156,157,,
157,158,,
158,159,,
159,160,,
160,161,,
161,162,,
162,163,4.64284774473188,31.5844431085281
163,164,4.70823996648867,32.6961108783935
164,165,4.38127885770473,34.5924853093403
165,166,3.5311799748665,36.4888597402872
166,167,2.55029664851469,38.5814108365044
167,168,2.22333553973076,40.543177489208
168,169,2.61568887027148,42.5703363636684
169,170,3.33500330959614,43.6820041335338
170,171,4.64284774473188,44.7936719033991
171,172,6.80079106270585,45.447594120967
172,173,8.76255771540946,46.8862229996163
173,174,9.80883326351806,48.7825974305631
174,175,11.051285476897,50.352010752726
175,176,12.1629532467624,52.3137774054296
176,177,14.2555043429796,54.2755440581333
177,178,16.6096243262239,55.583388493269
178,179,18.5713909789275,56.8258407066479
179,180,20.8601187404151,57.5451551459726
180,181,23.2796309454162,57.9375084765133
181,182,25.9607120374445,58.3298618070541
182,183,28.5110086859592,58.4606462505676
183,184,30.7997364474467,58.2644695852973
184,185,33.3500330959614,57.9375084765133
185,186,35.7695453009625,56.8912329284047
186,187,38.385234171234,56.1065262673233
187,188,41.3932763720462,55.6487807150258
188,189,44.0743574640745,54.9294662757011
189,190,46.363085225562,53.752406284079
190,191,48.7172052088064,52.7061307359704
191,192,50.6135796397532,51.3328940790778
192,193,51.6598551878618,49.5673040916446
193,194,52.6407385142136,47.9324985477249
194,195,53.5562296188086,46.1669085602917
195,196,54.5371129451604,43.9435730205609
196,197,55.7795651585394,41.8510219243437
197,198,56.498879597864,39.5622941628562
198,199,57.1528018154319,37.142781957855
199,200,57.8721162547565,34.9848386398811
200,201,58.5260384723244,32.4999342131232
201,202,58.4606462505676,30.407383116906
202,203,58.3298618070541,28.1840475771752
203,204,57.8721162547565,26.0261042592012
204,205,57.2835862589455,23.8681609412273
205,206,56.8258407066479,21.7756098450101
206,207,55.9757418238097,19.8792354140633
207,208,54.7986818321875,18.0482532048732
208,209,53.8831907275925,15.955702108656
209,210,52.5099540707,14.124719899466
210,211,50.8097563050235,12.3591299120328
211,212,49.5019118698878,10.3319710375724
212,213,47.9978907694817,8.76255771540946
213,214,46.5592618908324,8.10863549784159
214,215,46.0361241167781,8.10863549784159
215,216,46.0361241167781,7.97785105432802
216,217,46.0361241167781,7.97785105432802
217,218,46.0361241167781,7.97785105432802
218,219,46.0361241167781,7.97785105432802
219,220,46.0361241167781,7.97785105432802
220,221,46.0361241167781,7.97785105432802
221,222,46.0361241167781,7.97785105432802
222,223,46.0361241167781,7.97785105432802
223,224,46.0361241167781,7.97785105432802
224,225,46.0361241167781,7.97785105432802
225,226,46.0361241167781,7.97785105432802
226,227,46.0361241167781,7.97785105432802
227,228,46.0361241167781,7.97785105432802
228,229,46.0361241167781,7.97785105432802
229,230,46.0361241167781,7.97785105432802
230,231,45.7091630079942,7.38932105851694
231,232,43.6820041335338,5.95069217986762
232,233,41.9818063678573,4.96980885351582
233,234,39.1699408323154,2.15794331797397
234,235,36.6850364055575,0.915491104595019
235,236,34.5924853093403,0.980883326351806
236,237,32.6961108783935,0.915491104595019
237,238,30.407383116906,1.70019776567646
238,239,28.0532631336616,2.48490442675791
239,240,25.3067898198766,3.0080422008122
240,241,22.7564931713619,4.25049441419116
241,242,20.0754120793336,5.29676996229975
242,243,17.3943309873054,6.21226106689477
243,244,15.1056032258178,7.5854977237873
244,245,12.5553065773031,8.69716549365268
245,246,10.8551088116267,10.2011865940588
246,247,9.28569548946376,12.293737690276
247,248,,
248,249,,
249,250,,
250,251,,
251,252,,
252,253,,
253,254,,
254,255,,
255,256,,
256,257,,
257,258,,
258,259,,
259,260,,
260,261,2.81186553554184,42.374159698398
261,262,3.46578775310971,44.8590641251559
262,263,4.57745552297509,46.8862229996163
263,264,5.49294662757011,48.2594596565088
264,265,6.0814766233812,49.1749507611039
265,266,6.80079106270585,50.0250496439421
266,267,7.25853661500336,50.4174029744828
267,268,7.38932105851694,50.5481874179964
268,269,7.38932105851694,50.5481874179964
269,270,7.5854977237873,50.8097563050235
270,271,8.30481216311196,52.1829929619161
271,272,9.67804882000448,54.34093627989
272,273,11.7705999162217,55.9757418238097
273,274,14.0593276777092,57.741331811243
274,275,15.8903098868993,59.2453529116491
275,276,18.0482532048732,60.3570206815145
276,277,19.8792354140633,61.3379040078662
277,278,21.2524720709558,61.9918262254341
278,279,23.1488465019026,62.3841795559749
279,280,24.7836520458223,62.7765328865156
280,281,26.6146342550123,63.3650628823267
281,282,28.5110086859592,63.6920239911106
282,283,30.6035597821763,63.6266317693538
283,284,32.6961108783935,63.6920239911106
284,285,34.9194464181243,63.888200656381
285,286,37.2081741796118,63.2996706605699
286,287,39.6930786063697,62.7111406647588
287,288,41.9818063678573,62.645748443002
288,289,44.3359263511016,61.8610417819206
289,290,46.1669085602917,60.8801584555688
290,291,47.4747529954274,60.1608440162441
291,292,48.7825974305631,59.4415295769194
292,293,50.0250496439421,58.0682929200269
293,294,51.6598551878618,56.9566251501615
294,295,53.4908373970518,55.9757418238097
295,296,55.2564273844851,54.4717207234036
296,297,56.6296640413776,52.8369151794839
297,298,57.414370702459,51.6598551878618
298,299,58.2644695852973,50.67897186151
299,300,58.7876073593516,49.1749507611039
300,301,59.4415295769194,47.605537438941
301,302,60.487805125028,46.2323007820485
302,303,61.8610417819206,44.7936719033991
303,304,62.3841795559749,42.8319052506955
304,305,62.9073173300291,41.0009230415055
305,306,63.2342784388131,39.8238630498833
306,307,63.3650628823267,38.5160186147476
307,308,63.3650628823267,37.2735664013686
308,309,63.4958473258402,35.9657219662329
309,310,63.6266317693538,34.3309164223132
310,311,63.6266317693538,32.6961108783935
311,312,62.9727095517859,30.6035597821763
312,313,62.8419251082724,28.3802242424456
313,314,63.1688862170563,26.091496480958
314,315,62.9727095517859,23.9989453847408
315,316,62.5149639994884,22.2987476190644
316,317,62.1226106689477,21.3832565144694
317,318,61.5340806731366,20.2061965228472
318,319,60.5531973467848,18.8983520877115
319,320,59.9646673509737,17.5905076525757
320,321,59.3761373551626,15.8249176651425
321,322,58.5914306940812,13.9939354559524
322,323,57.2835862589455,12.4245221337895
323,324,55.9103496020529,11.1820699204106
324,325,55.1910351627283,10.5281477028427
325,326,54.4717207234036,9.67804882000448
326,327,53.5562296188086,8.89334215892304
327,328,52.8369151794839,8.43559660662553
328,329,52.1176007401593,7.71628216730087
329,330,51.2675018573211,7.12775217148979
330,331,50.5481874179964,6.40843773216513
331,332,49.5019118698878,5.75451551459726
332,333,48.5864207652928,5.23137774054296
333,334,47.3439685519138,4.64284774473188
334,335,46.6246541125892,4.38127885770473
335,336,46.4938696690756,4.25049441419116
336,337,46.4938696690756,4.18510219243437
337,338,45.9053396732645,3.72735664013686
338,339,43.5512196900202,3.26961108783935
339,340,41.2624919285326,2.55029664851469
340,341,38.6468030582611,1.76558998743325
341,342,36.0965064097465,1.5040211004061
342,343,33.8077786482589,1.24245221337895
343,344,32.0421886608257,1.04627554810859
344,345,30.3419908951492,1.11166776986538
345,346,28.3802242424456,1.5040211004061
346,347,26.091496480958,1.70019776567646
347,348,24.0643376064976,2.15794331797397
348,349,22.1679631755508,3.0080422008122
349,350,20.4023731881176,3.72735664013686
350,351,18.8983520877115,4.25049441419116
351,352,17.2635465437918,4.96980885351582
352,353,15.7595254433857,6.01608440162441
353,354,14.3862887864932,7.062359949733
354,355,13.3400132383846,7.71628216730087
355,356,,
356,357,,
357,358,,
358,359,,
359,360,,
360,361,,
361,362,,
362,363,16.1518787739264,48.3902441000224
363,364,,
364,365,19.029136531225,51.2021096355643
365,366,,
366,367,,
367,368,,
368,369,,
369,370,11.7052076944649,9.41647993297734
370,371,10.2011865940588,10.9205010333834
371,372,9.02412660243661,11.5090310291945
372,373,7.45471328027372,13.6669743471685
373,374,6.40843773216513,15.8249176651425
374,375,5.10059329702939,17.5251154308189
375,376,4.25049441419116,19.5522743052793
376,377,3.72735664013686,21.7756098450101
377,378,2.94264997905542,23.4104153889298
378,379,2.35411998324433,24.9144364893359
379,380,2.22333553973076,26.8762031420395
380,381,1.76558998743325,28.5110086859592
381,382,1.43862887864932,29.9496375646085
382,383,1.30784443513574,31.322874221501
383,384,1.70019776567646,33.2846408742046
384,385,1.63480554391968,34.9848386398811
385,386,1.70019776567646,36.6196441838007
386,387,1.76558998743325,37.9928808406933
387,388,2.28872776148755,39.7584708281265
388,389,2.61568887027148,41.3932763720462
389,390,3.07343442256899,42.7665130289387
390,391,3.46578775310971,43.9435730205609
391,392,4.18510219243437,45.5783785644806
392,393,4.96980885351582,47.0823996648867
393,394,5.5583388493269,48.2594596565088
394,395,6.0814766233812,49.1095585393471
395,396,7.062359949733,50.4174029744828
396,397,8.17402771959838,51.7906396313753
397,398,9.02412660243661,53.0984840665111
398,399,9.93961770703163,54.0793673928629
399,400,10.7897165898699,54.8640740539443
400,401,11.966776581492,55.6487807150258
401,402,12.8822676860871,56.7604484848912
402,403,14.124719899466,57.8721162547565
403,404,15.3017798910882,58.8529995811083
404,405,16.5442321044671,59.572314020433
405,406,17.6558998743325,60.2262362380009
406,407,18.7021754224411,60.814766233812
407,408,19.9446276358201,61.403296229623
408,409,21.6448254014965,61.9264340036773
409,410,23.2796309454162,62.3841795559749
410,411,24.7836520458223,62.8419251082724
411,412,26.091496480958,63.2996706605699
412,413,27.5955175813641,63.4958473258402
413,414,28.9687542382567,63.561239547597
414,415,30.2765986733924,63.6266317693538
415,416,31.0613053344739,63.6266317693538
416,417,32.0421886608257,63.888200656381
417,418,33.8077786482589,63.6266317693538
418,419,35.2464075269082,63.2342784388131
419,420,36.554251962044,63.0381017735427
420,421,37.7313119536661,63.1034939952995
421,422,38.8429797235315,63.3650628823267
422,423,40.4777852674512,63.1034939952995
423,424,41.8510219243437,62.645748443002
424,425,42.6357285854252,62.1226106689477
425,426,43.0280819159659,61.7956495601638
426,427,43.2242585812362,61.7956495601638
427,428,43.3550430247498,61.8610417819206
428,429,43.3550430247498,61.8610417819206
429,430,43.3550430247498,61.8610417819206
430,431,43.3550430247498,61.8610417819206
431,432,43.3550430247498,61.8610417819206
432,433,43.3550430247498,61.8610417819206
433,434,43.3550430247498,61.8610417819206
434,435,43.3550430247498,61.8610417819206
435,436,43.3550430247498,61.8610417819206
436,437,43.3550430247498,61.8610417819206
437,438,43.3550430247498,61.8610417819206
438,439,43.3550430247498,61.8610417819206
439,440,43.3550430247498,61.8610417819206
440,441,43.3550430247498,61.8610417819206
441,442,43.3550430247498,61.8610417819206
442,443,43.3550430247498,61.8610417819206
443,444,43.3550430247498,61.8610417819206
444,445,43.3550430247498,61.8610417819206
445,446,43.616611911777,61.7956495601638
446,447,45.1206330121831,61.0109428990823
447,448,46.7554385561027,59.7030984639466
448,449,48.9787740958335,58.8529995811083
449,450,51.4636785225914,57.8721162547565
450,451,53.2946607317814,56.3027029325937
451,452,54.7986818321875,54.8640740539443
452,453,55.6487807150258,53.8177985058357
453,454,56.5642718196208,52.8369151794839
454,455,57.2835862589455,51.2021096355643
455,456,58.3298618070541,50.1558340874557
456,457,59.4415295769194,48.7825974305631
457,458,60.2262362380009,47.4747529954274
458,459,60.814766233812,45.6437707862374
459,460,61.730257338407,44.0089652423177
460,461,62.5149639994884,42.4395519201548
461,462,63.1034939952995,40.6739619327216
462,463,63.4304551040834,39.1045486105587
463,464,63.7574162128674,37.7313119536661
464,465,63.7574162128674,36.4888597402872
465,466,63.7574162128674,35.7041530792057
466,467,63.888200656381,34.5924853093403
467,468,63.8228084346242,33.3500330959614
468,469,63.8228084346242,32.3691497696096
469,470,64.0189850998945,31.2574819997442
470,471,63.9535928781377,30.1458142298788
471,472,63.6266317693538,28.7725775729863
472,473,63.2996706605699,27.7916942466345
473,474,63.2342784388131,27.5955175813641
474,475,63.3650628823267,27.3993409160938
475,476,63.3650628823267,27.333948694337
476,477,63.3650628823267,27.333948694337
477,478,63.4304551040834,27.2031642508234
478,479,63.3650628823267,25.5683587069037
479,480,62.2533951124613,23.4758076106865
480,481,61.5340806731366,21.3832565144694
481,482,61.1417273425959,19.2907054182522
482,483,60.6185895685416,17.198154322035
483,484,59.7030984639466,15.8903098868993
484,485,58.8529995811083,14.7786421170339
485,486,58.1336851417837,13.9939354559524
486,487,57.414370702459,12.9476599078438
487,488,56.3027029325937,11.966776581492
488,489,55.1910351627283,10.9205010333834
489,490,54.2101518363765,9.80883326351806
490,491,53.3600529535382,8.63177327189589
491,492,52.1176007401593,7.78167438905766
492,493,51.0713251920507,6.93157550621943
493,494,49.8942652004285,6.14686884513798
494,495,48.9787740958335,5.49294662757011
495,496,47.7363218824546,4.90441663175903
496,497,46.6246541125892,4.51206330121831
497,498,45.3822018992102,3.79274886189365
498,499,44.4013185728584,3.46578775310971
499,500,43.4858274682634,2.94264997905542
500,501,42.1125908113709,2.55029664851469
501,502,40.543177489208,2.35411998324433
502,503,38.9737641670451,1.96176665270361
503,504,37.8620963971797,1.56941332216289
504,505,36.554251962044,1.30784443513574
505,506,35.1810153051514,1.43862887864932
506,507,34.1347397570428,1.30784443513574
507,508,33.0230719871775,1.17705999162217
508,509,32.0421886608257,0.980883326351806
509,510,30.6689520039331,1.11166776986538
510,511,29.5572842340677,1.37323665689253
511,512,28.3802242424456,1.43862887864932
512,513,27.2031642508234,1.76558998743325
513,514,26.2222809244716,1.76558998743325
514,515,24.9798287110927,2.09255109621719
515,516,23.8681609412273,2.48490442675791
516,517,22.6257087278483,2.81186553554184
517,518,21.3832565144694,3.07343442256899
518,519,20.0754120793336,3.59657219662329
519,520,18.6367832006843,4.64284774473188
520,521,17.3289387655486,5.36216218405654
521,522,16.28266321744,5.81990773635405
522,523,15.4979565563585,6.21226106689477
523,524,14.4516810082499,7.062359949733
524,525,13.6669743471685,7.91245883257123
525,526,12.8822676860871,8.82794993716625
526,527,11.8359921379785,9.74344104176127
527,528,10.9205010333834,10.135794372302
528,529,,
529,530,,
530,531,,
531,532,,
532,533,,
533,534,,
534,535,,
535,536,,
536,537,,
537,538,,
538,539,18.8983520877115,51.2021096355643
539,540,18.8983520877115,51.1367174138075
540,541,18.9637443094682,51.2021096355643
541,542,,
542,543,,
543,544,,
544,545,4.70823996648867,18.3752143136572
545,546,4.18510219243437,19.4868820835225
546,547,3.5311799748665,20.7947265186583
547,548,3.13882664432578,22.3641398408212
548,549,2.61568887027148,23.9989453847408
549,550,1.96176665270361,25.7645353721741
550,551,1.63480554391968,27.0069875855531
551,552,1.56941332216289,28.6417931294727
552,553,1.76558998743325,30.080422008122
553,554,1.76558998743325,31.2574819997442
554,555,1.30784443513574,32.4345419913664
555,556,1.37323665689253,34.2001319787996
556,557,1.70019776567646,35.9003297444761
557,558,1.70019776567646,37.2081741796118
558,559,1.76558998743325,38.2544497277204
559,560,1.96176665270361,39.4969019410994
560,561,2.81186553554184,41.1317074850191
561,562,3.40039553135293,42.5703363636684
562,563,3.72735664013686,44.1397496858313
563,564,3.85814108365044,45.2514174556966
564,565,4.70823996648867,46.690046334346
565,566,5.49294662757011,47.9324985477249
566,567,6.14686884513798,49.1095585393471
567,568,6.60461439743549,49.8942652004285
568,569,7.25853661500336,50.8751485267803
569,570,8.43559660662553,51.9868162966457
570,571,9.48187215473412,52.8369151794839
571,572,10.3319710375724,54.0139751711061
572,573,10.9205010333834,55.3218196062418
573,574,12.3591299120328,56.498879597864
574,575,13.6015821254117,57.4797629242158
575,576,14.6478576735203,58.2644695852973
576,577,15.3017798910882,58.7876073593516
577,578,16.28266321744,59.3761373551626
578,579,17.8520765396029,59.8338829074602
579,580,19.1599209747386,60.0954517944873
580,581,20.4023731881176,60.6839817902984
581,582,21.4486487362262,61.4686884513798
582,583,22.102570953794,62.2533951124613
583,584,23.1488465019026,62.8419251082724
584,585,23.9335531629841,63.1034939952995
585,586,24.5220831587951,63.1034939952995
586,587,25.5029664851469,63.2342784388131
587,588,26.2876731462284,63.1688862170563
588,589,26.4838498114988,63.2342784388131
589,590,26.5492420332555,63.2342784388131
590,591,26.5492420332555,63.2996706605699
591,592,26.5492420332555,63.2996706605699
592,593,26.5492420332555,63.2996706605699
593,594,26.5492420332555,63.2996706605699
594,595,26.5492420332555,63.2996706605699
595,596,26.5492420332555,63.2996706605699
596,597,26.5492420332555,63.2996706605699
597,598,26.5492420332555,63.2996706605699
598,599,26.5492420332555,63.2996706605699
599,600,26.5492420332555,63.2996706605699
600,601,26.5492420332555,63.2996706605699
601,602,26.6146342550123,63.3650628823267
602,603,27.8570864683913,63.7574162128674
603,604,29.8188531210949,63.7574162128674
604,605,31.4536586650146,63.9535928781377
605,606,33.480817539475,64.0189850998945
606,607,34.7232697528539,63.8228084346242
607,608,35.7695453009625,63.4958473258402
608,609,37.0773897360983,63.4304551040834
609,610,38.5160186147476,63.2996706605699
610,611,40.0200397151537,63.0381017735427
611,612,41.5240608155598,62.4495717777316
612,613,42.8972974724523,62.1226106689477
613,614,43.8127885770473,61.730257338407
614,615,44.5974952381288,61.5340806731366
615,616,45.7091630079942,61.0763351208391
616,617,46.7554385561027,60.487805125028
617,618,47.4747529954274,59.8992751292169
618,619,48.1940674347521,59.3107451334059
619,620,49.3057352046174,58.7876073593516
620,621,50.2212263092125,58.5260384723244
621,622,51.3328940790778,57.8067240329998
622,623,52.3137774054296,57.2181940371887
623,624,53.0330918447543,56.498879597864
624,625,53.8831907275925,55.7141729367826
625,626,54.2755440581333,55.2564273844851
626,627,54.7332896104308,54.8640740539443
627,628,55.583388493269,54.0139751711061
628,629,56.1719184890801,52.9676996229975
629,630,56.498879597864,52.3791696271864
630,631,56.6296640413776,52.2483851836729
631,632,56.6296640413776,52.2483851836729
632,633,56.6296640413776,52.2483851836729
633,634,56.6296640413776,52.2483851836729
634,635,56.6296640413776,52.2483851836729
635,636,56.9566251501615,51.7906396313753
636,637,58.0029006982701,50.8097563050235
637,638,58.9837840246219,49.7634807569149
638,639,59.7030984639466,48.1286752129953
639,640,60.487805125028,46.8862229996163
640,641,61.3379040078662,45.5129863427238
641,642,61.8610417819206,44.4667107946152
642,643,61.9918262254341,43.3550430247498
643,644,62.2533951124613,42.2433752548844
644,645,62.7765328865156,40.8047463762351
645,646,63.2342784388131,39.6930786063697
646,647,63.4958473258402,38.3198419494772
647,648,63.561239547597,37.0119975143415
648,649,63.7574162128674,35.8349375227193
649,650,63.8228084346242,34.9194464181243
650,651,64.0189850998945,34.1347397570428
651,652,64.0189850998945,33.0884642089342
652,653,63.9535928781377,32.238365326096
653,654,63.6920239911106,31.1266975562306
654,655,63.7574162128674,29.8188531210949
655,656,63.8228084346242,28.7725775729863
656,657,63.6266317693538,27.333948694337
657,658,63.3650628823267,26.2876731462284
658,659,63.1688862170563,25.3721820416334
659,660,63.0381017735427,24.5874753805519
660,661,62.8419251082724,24.260514271768
661,662,62.8419251082724,23.9335531629841
662,663,62.9073173300291,23.7373764977137
663,664,62.9073173300291,23.7373764977137
664,665,62.9073173300291,23.6719842759569
665,666,62.7111406647588,22.6911009496051
666,667,61.8610417819206,21.2524720709558
667,668,61.1417273425959,19.8138431923065
668,669,60.7493740120552,18.4406065354139
669,670,60.4224129032712,17.2635465437918
670,671,59.6377062421898,16.0210943304128
671,672,58.7876073593516,15.1056032258178
672,673,58.0029006982701,14.0593276777092
673,674,57.4797629242158,13.2746210166278
674,675,56.8912329284047,12.3591299120328
675,676,55.6487807150258,11.4436388074377
676,677,54.667897388674,10.7243243681131
677,678,53.8177985058357,9.87422548527485
678,679,53.1638762882679,8.89334215892304
679,680,52.7061307359704,8.04324327608481
680,681,51.6598551878618,7.25853661500336
681,682,50.8097563050235,6.73539884094907
682,683,49.8942652004285,6.0814766233812
683,684,48.8479896523199,5.49294662757011
684,685,48.2594596565088,5.16598551878618
685,686,47.8671063259681,4.77363218824546
686,687,46.8208307778595,4.0543177489208
687,688,45.6437707862374,3.66196441838007
688,689,44.7282796816423,3.33500330959614
689,690,43.7473963552905,3.07343442256899
690,691,43.1588663594795,2.94264997905542
691,692,42.5049441419116,2.41951220500112
692,693,41.1317074850191,1.96176665270361
693,694,39.8892552716401,1.83098220919004
694,695,38.7775875017747,1.70019776567646
695,696,37.7967041754229,1.63480554391968
696,697,37.142781957855,1.5040211004061
697,698,36.4888597402872,1.17705999162217
698,699,35.5733686356922,0.915491104595019
699,700,34.9194464181243,0.915491104595019
700,701,34.7232697528539,0.980883326351806
701,702,34.6578775310971,0.980883326351806
702,703,34.6578775310971,0.980883326351806
703,704,34.6578775310971,0.980883326351806
704,705,34.6578775310971,0.980883326351806
705,706,34.6578775310971,0.980883326351806
706,707,34.39630864407,0.980883326351806
707,708,33.0884642089342,1.04627554810859
708,709,31.9767964390689,1.17705999162217
709,710,30.5381675604196,0.915491104595019
710,711,28.7071853512295,1.17705999162217
711,712,27.333948694337,1.43862887864932
712,713,26.091496480958,1.63480554391968
713,714,25.176005376363,1.76558998743325
714,715,23.9335531629841,2.09255109621719
715,716,22.6257087278483,2.61568887027148
716,717,21.4486487362262,3.26961108783935
717,718,20.1408043010904,3.72735664013686
718,719,19.2253131964954,3.98892552716401
719,720,18.11364542663,4.64284774473188
720,721,17.198154322035,5.29676996229975
721,722,16.4134476609536,5.88529995811084
722,723,15.367172112845,6.40843773216513
723,724,14.6478576735203,6.73539884094907
724,725,13.7323665689253,7.25853661500336
725,726,12.8822676860871,8.23941994135517
726,727,12.2283454685192,9.15491104595019
727,728,11.4436388074377,10.0050099287884
728,729,10.5935399245995,10.7243243681131
729,730,9.87422548527485,10.9858932551402
730,731,8.89334215892304,11.7052076944649
731,732,8.10863549784159,12.5553065773031
732,733,7.5854977237873,13.5361899036549
733,734,7.062359949733,14.3862887864932
734,735,,
735,736,,
736,737,,
737,738,,
738,739,,
739,740,,
740,741,18.9637443094682,51.2675018573211
741,742,,
742,743,,
743,744,18.9637443094682,51.2021096355643
744,745,18.9637443094682,51.2021096355643
745,746,19.029136531225,51.2675018573211
746,747,,
747,748,,
748,749,,
749,750,,
750,751,1.43862887864932,32.0421886608257
751,752,1.5040211004061,32.7615031001503
752,753,1.30784443513574,33.3500330959614
753,754,1.11166776986538,34.3309164223132
754,755,1.11166776986538,35.1156230833946
755,756,1.24245221337895,35.7041530792057
756,757,1.43862887864932,36.6196441838007
757,758,1.70019776567646,37.6659197319093
758,759,1.83098220919004,38.1890575059636
759,760,1.76558998743325,38.7121952800179
760,761,1.83098220919004,39.300725275829
761,762,1.83098220919004,39.6276863846129
762,763,1.83098220919004,39.6930786063697
763,764,1.83098220919004,39.6930786063697
764,765,1.83098220919004,39.6930786063697
765,766,1.83098220919004,39.6930786063697
766,767,1.83098220919004,39.6930786063697
767,768,1.83098220919004,39.6930786063697
768,769,1.83098220919004,39.7584708281265
769,770,2.0271588744604,40.0200397151537
770,771,2.28872776148755,41.0009230415055
771,772,2.94264997905542,42.8972974724523
772,773,3.20421886608257,44.1397496858313
773,774,4.25049441419116,46.1015163385349
774,775,4.96980885351582,47.1477918866435
775,776,5.49294662757011,48.0632829912385
776,777,5.88529995811084,48.7825974305631
777,778,6.47382995392192,49.6980885351582
778,779,7.52010550203051,50.8097563050235
779,780,8.43559660662553,51.594462966105
780,781,9.15491104595019,52.5753462924568
781,782,9.6126565982477,53.425445175295
782,783,10.2665788158156,54.4717207234036
783,784,11.4436388074377,55.4526040497554
784,785,12.4899143555463,56.1719184890801
785,786,13.4054054601413,57.0874095936751
786,787,13.9285432341956,57.8067240329998
787,788,14.9094265605474,58.5914306940812
788,789,16.28266321744,59.1145684681355
789,790,17.3289387655486,59.3761373551626
790,791,18.3098220919004,60.0954517944873
791,792,19.1599209747386,60.6185895685416
792,793,19.6176665270361,61.1417273425959
793,794,20.4677654098743,61.730257338407
794,795,21.3178642927126,62.1226106689477
795,796,21.7756098450101,62.2533951124613
796,797,22.4949242843347,62.4495717777316
797,798,23.6065920542001,62.7765328865156
798,799,24.260514271768,62.8419251082724
799,800,24.6528676023087,63.0381017735427
800,801,24.9144364893359,63.1688862170563
801,802,24.9798287110927,63.2342784388131
802,803,24.9798287110927,63.2342784388131
803,804,24.9798287110927,63.2342784388131
804,805,24.9798287110927,63.2342784388131
805,806,24.9798287110927,63.2342784388131
806,807,24.9798287110927,63.2342784388131
807,808,24.9798287110927,63.2342784388131
808,809,24.9798287110927,63.2342784388131
809,810,24.9798287110927,63.2342784388131
810,811,24.9798287110927,63.1688862170563
811,812,25.176005376363,63.2996706605699
812,813,26.5492420332555,63.4958473258402
813,814,28.0532631336616,63.3650628823267
814,815,29.5572842340677,63.3650628823267
815,816,30.7343442256899,63.6266317693538
816,817,32.1729731043392,63.6266317693538
817,818,33.5462097612318,63.2342784388131
818,819,34.8540541963675,63.1034939952995
819,820,36.1618986315032,63.1034939952995
820,821,37.4043508448822,63.0381017735427
821,822,38.7775875017747,62.3841795559749
822,823,40.0854319369105,62.1880028907045
823,824,41.6548452590734,62.3187873342181
824,825,42.7011208071819,62.2533951124613
825,826,43.616611911777,61.8610417819206
826,827,44.4013185728584,61.5340806731366
827,828,44.9898485686695,61.2071195643527
828,829,45.9053396732645,60.814766233812
829,830,46.690046334346,60.4224129032712
830,831,47.0170074431299,60.2916284597577
831,832,47.278576330157,60.2916284597577
832,833,47.8671063259681,59.8992751292169
833,834,48.3902441000224,59.3761373551626
834,835,48.6518129870496,59.0491762463787
835,836,48.9787740958335,58.5914306940812
836,837,50.2212263092125,57.9375084765133
837,838,51.3328940790778,57.414370702459
838,839,52.1176007401593,57.0220173719183
839,840,52.9676996229975,56.498879597864
840,841,53.425445175295,56.0411340455665
841,842,53.6216218405654,55.7795651585394
842,843,54.0139751711061,55.3872118279986
843,844,54.5371129451604,54.7986818321875
844,845,54.9294662757011,54.34093627989
845,846,55.1256429409715,54.2755440581333
846,847,55.1256429409715,54.2755440581333
847,848,55.1910351627283,54.2101518363765
848,849,55.6487807150258,53.9485829493493
849,850,56.498879597864,52.7061307359704
850,851,57.0874095936751,51.2675018573211
851,852,57.741331811243,49.9596574221853
852,853,58.8529995811083,48.7825974305631
853,854,59.7684906857034,47.9978907694817
854,855,60.3570206815145,47.2131841084003
855,856,60.487805125028,46.6246541125892
856,857,60.6185895685416,46.1669085602917
857,858,61.1417273425959,45.2514174556966
858,859,61.4686884513798,44.532103016372
859,860,61.730257338407,44.2705341293448
860,861,61.730257338407,44.2705341293448
861,862,61.730257338407,44.2705341293448
862,863,61.730257338407,44.2705341293448
863,864,61.7956495601638,44.205141907588
864,865,62.1226106689477,43.616611911777
865,866,62.0572184471909,41.9818063678573
866,867,61.9264340036773,40.3470008239376
867,868,62.2533951124613,38.7775875017747
868,869,62.7111406647588,37.5351352883958
869,870,63.2342784388131,36.554251962044
870,871,63.4304551040834,35.6387608574489
871,872,63.6266317693538,34.7232697528539
872,873,63.888200656381,33.7423864265021
873,874,64.0843773216513,33.0230719871775
874,875,64.0843773216513,32.238365326096
875,876,63.9535928781377,31.1266975562306
876,877,63.7574162128674,30.407383116906
877,878,63.561239547597,29.8188531210949
878,879,63.561239547597,28.9033620164999
879,880,63.4958473258402,28.1186553554184
880,881,63.561239547597,27.6609098031209
881,882,63.6266317693538,26.7454186985259
882,883,63.3650628823267,26.0261042592012
883,884,63.1034939952995,25.5029664851469
884,885,63.0381017735427,25.4375742633902
885,886,62.8419251082724,24.8490442675791
886,887,62.5149639994884,23.6065920542001
887,888,62.4495717777316,22.2987476190644
888,889,62.1880028907045,20.9255109621719
889,890,61.730257338407,19.9446276358201
890,891,61.2725117861095,19.2253131964954
891,892,60.814766233812,18.7021754224411
892,893,60.4224129032712,18.1790376483868
893,894,60.2262362380009,17.8520765396029
894,895,60.0954517944873,17.2635465437918
895,896,59.7030984639466,16.3480554391968
896,897,59.3107451334059,15.8249176651425
897,898,59.0491762463787,15.6287409998721
898,899,59.0491762463787,15.5633487781153
899,900,58.9837840246219,15.5633487781153
900,901,58.9837840246219,15.5633487781153
901,902,58.9837840246219,15.5633487781153
902,903,58.9837840246219,15.5633487781153
903,904,58.9837840246219,15.5633487781153
904,905,58.9837840246219,15.5633487781153
905,906,58.9837840246219,15.5633487781153
906,907,58.9837840246219,15.5633487781153
907,908,58.9837840246219,15.5633487781153
908,909,58.9837840246219,15.5633487781153
909,910,58.9837840246219,15.5633487781153
910,911,58.9837840246219,15.5633487781153
911,912,58.9837840246219,15.5633487781153
912,913,58.9837840246219,15.5633487781153
913,914,58.9837840246219,15.5633487781153
914,915,58.9837840246219,15.5633487781153
915,916,58.9837840246219,15.4979565563585
916,917,58.5260384723244,14.6478576735203
917,918,57.8721162547565,13.2746210166278
918,919,56.8912329284047,11.7705999162217
919,920,55.4526040497554,10.5935399245995
920,921,54.4063285016468,9.80883326351806
921,922,53.5562296188086,8.89334215892304
922,923,53.0984840665111,8.30481216311196
923,924,51.9214240748889,7.52010550203051
924,925,50.5481874179964,6.99696772797621
925,926,49.5019118698878,6.47382995392192
926,927,48.4556363217792,5.81990773635405
927,928,47.8671063259681,5.16598551878618
928,929,47.0170074431299,4.31588663594795
929,930,46.0361241167781,3.85814108365044
930,931,45.1206330121831,3.66196441838007
931,932,44.0743574640745,3.13882664432578
932,933,43.0934741377227,2.87725775729863
933,934,42.374159698398,2.48490442675791
934,935,41.2624919285326,2.28872776148755
935,936,40.4777852674512,2.15794331797397
936,937,39.4969019410994,2.22333553973076
937,938,38.1890575059636,2.0271588744604
938,939,37.142781957855,1.5040211004061
939,940,36.1618986315032,1.04627554810859
940,941,34.7232697528539,1.30784443513574
941,942,33.5462097612318,1.5040211004061
942,943,32.6307186566367,1.76558998743325
943,944,31.5844431085281,1.70019776567646
944,945,30.8651286692035,1.5040211004061
945,946,30.1458142298788,1.30784443513574
946,947,28.9687542382567,1.24245221337895
947,948,27.9224786901481,1.43862887864932
948,949,27.0723798073098,1.70019776567646
949,950,26.0261042592012,1.89637443094682
950,951,25.3067898198766,2.09255109621719
951,952,24.8490442675791,2.09255109621719
952,953,24.1297298282544,2.22333553973076
953,954,23.345023167173,2.41951220500112
954,955,22.8872776148755,2.68108109202827
955,956,22.2987476190644,2.87725775729863
956,957,21.3178642927126,3.20421886608257
957,958,20.4677654098743,3.46578775310971
958,959,20.0100198575768,3.5311799748665
959,960,19.8792354140633,3.59657219662329
960,961,19.8792354140633,3.66196441838007
961,962,19.6830587487929,3.66196441838007
962,963,18.5713909789275,4.18510219243437
963,964,17.3943309873054,5.16598551878618
964,965,16.0864865521696,6.0814766233812
965,966,14.9748187823042,6.80079106270585
966,967,13.9285432341956,7.32392883676015
967,968,13.0130521296006,8.17402771959838
968,969,12.3591299120328,9.0895188241934
969,970,11.6398154727081,9.87422548527485
970,971,10.6589321463563,10.6589321463563
971,972,9.80883326351806,11.051285476897
972,973,8.82794993716625,11.8359921379785
973,974,8.17402771959838,12.6860910208167
974,975,7.78167438905766,13.3400132383846
975,976,7.25853661500336,14.0593276777092
976,977,6.93157550621943,14.7132498952771
977,978,6.67000661919228,14.9748187823042
978,979,6.0814766233812,15.6287409998721
979,980,5.49294662757011,16.4788398827103
980,981,5.29676996229975,17.1327621002782
981,982,5.16598551878618,17.6558998743325
982,983,,
983,984,,
984,985,,
985,986,,
986,987,,
987,988,,
988,989,,
989,990,,
990,991,,
991,992,,
992,993,,
993,994,,
994,995,,
995,996,,
996,997,,
997,998,,
998,999,,
999,1000,1.5040211004061,27.8570864683913
1000,1001,1.5040211004061,27.8570864683913
1001,1002,1.5040211004061,27.8570864683913
1002,1003,1.5040211004061,27.8570864683913
1003,1004,1.5040211004061,27.8570864683913
1004,1005,1.43862887864932,28.8379697947431
1005,1006,1.37323665689253,30.407383116906
1006,1007,1.24245221337895,31.6498353302849
1007,1008,1.04627554810859,33.0230719871775
1008,1009,1.17705999162217,34.39630864407
1009,1010,1.37323665689253,35.3771919704218
1010,1011,1.56941332216289,36.3580752967736
1011,1012,1.63480554391968,36.8812130708279
1012,1013,1.56941332216289,37.5351352883958
1013,1014,1.83098220919004,38.385234171234
1014,1015,2.09255109621719,38.9737641670451
1015,1016,2.28872776148755,39.300725275829
1016,1017,2.61568887027148,40.0854319369105
1017,1018,2.81186553554184,41.3932763720462
1018,1019,2.94264997905542,42.5049441419116
1019,1020,3.07343442256899,43.4858274682634
1020,1021,3.59657219662329,44.532103016372
1021,1022,3.98892552716401,45.3168096774534
1022,1023,4.38127885770473,45.9707318950213
1023,1024,4.70823996648867,46.7554385561027
1024,1025,5.0352010752726,47.3439685519138
1025,1026,5.10059329702939,47.605537438941
1026,1027,5.16598551878618,47.9324985477249
1027,1028,5.68912329284047,49.0441663175903
1028,1029,6.60461439743549,50.0904418656989
1029,1030,7.45471328027372,50.8751485267803
1030,1031,8.04324327608481,51.594462966105
1031,1032,8.43559660662553,52.4445618489432
1032,1033,8.69716549365268,53.0330918447543
1033,1034,9.41647993297734,53.9485829493493
1034,1035,10.6589321463563,54.7332896104308
1035,1036,11.6398154727081,55.2564273844851
1036,1037,12.3591299120328,55.9103496020529
1037,1038,12.7514832425735,56.4334873761072
1038,1039,13.0784443513574,56.9566251501615
1039,1040,13.7977587906821,57.6759395894862
1040,1041,14.4516810082499,58.2644695852973
1041,1042,15.040211004061,58.5260384723244
1042,1043,15.955702108656,59.1145684681355
1043,1044,17.0673698785214,59.8992751292169
1044,1045,17.8520765396029,60.4224129032712
1045,1046,18.8329598659547,61.0763351208391
1046,1047,19.6176665270361,61.4686884513798
1047,1048,20.3369809663608,61.5340806731366
1048,1049,21.1216876274422,61.7956495601638
1049,1050,21.9063942885237,61.9918262254341
1050,1051,22.3641398408212,62.1226106689477
1051,1052,22.6257087278483,62.3841795559749
1052,1053,23.345023167173,62.8419251082724
1053,1054,24.1297298282544,63.1688862170563
1054,1055,24.5874753805519,63.2342784388131
1055,1056,24.6528676023087,63.2342784388131
1056,1057,24.6528676023087,63.2342784388131
1057,1058,24.6528676023087,63.2342784388131
1058,1059,24.6528676023087,63.2342784388131
1059,1060,24.6528676023087,63.2342784388131
1060,1061,24.6528676023087,63.2342784388131
1061,1062,24.6528676023087,63.2342784388131
1062,1063,24.6528676023087,63.2342784388131
1063,1064,24.6528676023087,63.2342784388131
1064,1065,24.6528676023087,63.2342784388131
1065,1066,24.6528676023087,63.2342784388131
1066,1067,24.6528676023087,63.2342784388131
1067,1068,24.6528676023087,63.2342784388131
1068,1069,24.7836520458223,63.2342784388131
1069,1070,25.8299275939309,63.3650628823267
1070,1071,27.3993409160938,63.8228084346242
1071,1072,28.5764009077159,64.0189850998945
1072,1073,30.0150297863653,64.0189850998945
1073,1074,30.9305208909603,63.8228084346242
1074,1075,31.9114042173121,63.6266317693538
1075,1076,33.2192486524478,63.6920239911106
1076,1077,34.1347397570428,63.888200656381
1077,1078,35.311799748665,63.8228084346242
1078,1079,36.4234675185304,63.6920239911106
1079,1080,37.2735664013686,63.2996706605699
1080,1081,38.2544497277204,63.1688862170563
1081,1082,39.1699408323154,63.1034939952995
1082,1083,40.0200397151537,62.9727095517859
1083,1084,41.0009230415055,62.7111406647588
1084,1085,41.8510219243437,62.4495717777316
1085,1086,42.3087674766412,62.1226106689477
1086,1087,43.0934741377227,61.9264340036773
1087,1088,43.9435730205609,61.6648651166502
1088,1089,44.4013185728584,61.4686884513798
1089,1090,44.9244563469127,61.403296229623
1090,1091,45.7745552297509,61.1417273425959
1091,1092,46.2976930038052,60.8801584555688
1092,1093,46.5592618908324,60.6839817902984
1093,1094,46.6246541125892,60.6185895685416
1094,1095,46.690046334346,60.6185895685416
1095,1096,46.690046334346,60.6185895685416
1096,1097,46.690046334346,60.6185895685416
1097,1098,46.690046334346,60.6185895685416
1098,1099,46.690046334346,60.6185895685416
1099,1100,46.690046334346,60.6185895685416
1100,1101,46.690046334346,60.6185895685416
1101,1102,46.690046334346,60.6185895685416
1102,1103,46.690046334346,60.6185895685416
1103,1104,46.690046334346,60.5531973467848
1104,1105,46.690046334346,60.6185895685416
1105,1106,46.690046334346,60.5531973467848
1106,1107,46.690046334346,60.5531973467848
1107,1108,46.690046334346,60.5531973467848
1108,1109,46.690046334346,60.5531973467848
1109,1110,46.690046334346,60.6185895685416
1110,1111,46.690046334346,60.6185895685416
1111,1112,46.690046334346,60.6185895685416
1112,1113,46.690046334346,60.6185895685416
1113,1114,46.690046334346,60.6185895685416
1114,1115,46.690046334346,60.5531973467848
1115,1116,46.7554385561027,60.5531973467848
1116,1117,46.7554385561027,60.5531973467848
1117,1118,46.8208307778595,60.5531973467848
1118,1119,46.8208307778595,60.5531973467848
1119,1120,46.8208307778595,60.5531973467848
1120,1121,46.8208307778595,60.5531973467848
1121,1122,46.8208307778595,60.5531973467848
1122,1123,46.8208307778595,60.5531973467848
1123,1124,46.8208307778595,60.5531973467848
1124,1125,46.8208307778595,60.5531973467848
1125,1126,46.8208307778595,60.5531973467848
1126,1127,46.8208307778595,60.5531973467848
1127,1128,46.8208307778595,60.5531973467848
1128,1129,46.8208307778595,60.5531973467848
1129,1130,46.8862229996163,60.5531973467848
1130,1131,46.8862229996163,60.5531973467848
1131,1132,46.8862229996163,60.5531973467848
1132,1133,46.8862229996163,60.5531973467848
1133,1134,46.8862229996163,60.5531973467848
1134,1135,46.8862229996163,60.5531973467848
1135,1136,46.8862229996163,60.487805125028
1136,1137,46.9516152213731,60.487805125028
1137,1138,47.7363218824546,60.0300595727305
1138,1139,48.6518129870496,59.4415295769194
1139,1140,49.5673040916446,58.9837840246219
1140,1141,50.5481874179964,58.1336851417837
1141,1142,51.3982863008346,57.2835862589455
1142,1143,52.3137774054296,56.5642718196208
1143,1144,53.0984840665111,56.1065262673233
1144,1145,53.8177985058357,55.7141729367826
1145,1146,54.6025051669172,54.667897388674
1146,1147,55.2564273844851,53.6216218405654
1147,1148,55.8449573802962,52.9676996229975
1148,1149,56.5642718196208,52.4445618489432
1149,1150,57.0874095936751,52.0522085184025
1150,1151,57.5451551459726,51.4636785225914
1151,1152,58.0029006982701,50.4174029744828
1152,1153,58.2644695852973,49.6326963134014
1153,1154,58.3952540288108,48.9133818740767
1154,1155,58.9837840246219,47.9978907694817
1155,1156,59.8338829074602,47.1477918866435
1156,1157,60.487805125028,46.6246541125892
1157,1158,60.9455506773255,45.7091630079942
1158,1159,61.1417273425959,44.8590641251559
1159,1160,61.2071195643527,44.4013185728584
1160,1161,61.2725117861095,44.0089652423177
1161,1162,61.9264340036773,43.0934741377227
1162,1163,62.4495717777316,42.0471985896141
1163,1164,62.9073173300291,41.1970997067759
1164,1165,63.1688862170563,40.0200397151537
1165,1166,63.2996706605699,39.1045486105587
1166,1167,63.2996706605699,38.3198419494772
1167,1168,63.4958473258402,37.5351352883958
1168,1169,63.561239547597,36.7504286273143
1169,1170,63.6266317693538,36.554251962044
1170,1171,63.6920239911106,36.4888597402872
1171,1172,63.888200656381,35.9003297444761
1172,1173,63.8228084346242,34.39630864407
1173,1174,63.6266317693538,33.0230719871775
1174,1175,63.4958473258402,31.7152275520417
1175,1176,63.4958473258402,30.6689520039331
1176,1177,63.6266317693538,29.6880686775813
1177,1178,63.561239547597,28.4456164642024
1178,1179,63.4958473258402,27.4647331378506
1179,1180,63.4304551040834,26.5492420332555
1180,1181,63.4304551040834,25.8953198156877
1181,1182,63.3650628823267,25.176005376363
1182,1183,63.1034939952995,24.260514271768
1183,1184,62.7765328865156,23.6719842759569
1184,1185,62.5803562212452,23.2142387236594
1185,1186,62.3187873342181,22.429532062578
1186,1187,62.2533951124613,22.102570953794
1187,1188,62.2533951124613,21.5140409579829
1188,1189,61.9918262254341,20.4023731881176
1189,1190,61.3379040078662,19.356097640009
1190,1191,60.814766233812,18.6367832006843
1191,1192,60.487805125028,18.1790376483868
1192,1193,60.1608440162441,17.4597232090621
1193,1194,59.8338829074602,16.7404087697375
1194,1195,59.7030984639466,16.2172709956832
1195,1196,59.3107451334059,15.4979565563585
1196,1197,58.656822915838,14.7132498952771
1197,1198,58.0682929200269,14.2555043429796
1198,1199,57.6759395894862,13.8631510124389
1199,1200,57.3489784807022,13.0784443513574
1200,1201,56.8912329284047,12.6206987990599
1201,1202,56.7604484848912,12.293737690276
1202,1203,56.498879597864,11.7705999162217
1203,1204,55.9757418238097,11.1820699204106
1204,1205,55.3872118279986,10.5281477028427
1205,1206,54.6025051669172,10.0704021505452
1206,1207,53.752406284079,9.48187215473412
1207,1208,53.0330918447543,8.5663810501391
1208,1209,52.5753462924568,7.91245883257123
1209,1210,51.7906396313753,7.38932105851694
1210,1211,50.8097563050235,6.99696772797621
1211,1212,50.1558340874557,6.73539884094907
1212,1213,49.5019118698878,6.40843773216513
1213,1214,48.7172052088064,5.75451551459726
1214,1215,47.9324985477249,5.10059329702939
1215,1216,47.3439685519138,4.44667107946152
1216,1217,46.4284774473188,3.98892552716401
1217,1218,45.7745552297509,3.79274886189365
1218,1219,45.447594120967,3.79274886189365
1219,1220,44.9244563469127,3.59657219662329
1220,1221,44.1397496858313,3.40039553135293
1221,1222,43.5512196900202,3.07343442256899
1222,1223,43.4204352465066,3.0080422008122
1223,1224,43.3550430247498,2.87725775729863
1224,1225,43.0280819159659,2.61568887027148
1225,1226,42.5703363636684,2.35411998324433
1226,1227,42.1779830331276,2.22333553973076
1227,1228,41.8510219243437,2.0271588744604
1228,1229,41.5894530373166,1.96176665270361
1229,1230,41.3932763720462,1.96176665270361
1230,1231,41.3278841502894,2.0271588744604
1231,1232,40.8701385979919,1.96176665270361
1232,1233,39.6276863846129,1.83098220919004
1233,1234,38.4506263929908,1.63480554391968
1234,1235,37.6005275101526,1.30784443513574
1235,1236,36.8158208490711,1.17705999162217
1236,1237,36.2926830750168,1.17705999162217
1237,1238,35.9003297444761,1.24245221337895
1238,1239,35.0502308616379,1.24245221337895
1239,1240,33.9385630917725,1.17705999162217
1240,1241,33.2192486524478,0.980883326351806
1241,1242,32.238365326096,1.11166776986538
1242,1243,31.1920897779874,1.37323665689253
1243,1244,30.407383116906,1.70019776567646
1244,1245,29.3611075687974,1.89637443094682
1245,1246,28.1186553554184,1.70019776567646
1246,1247,27.2685564725802,1.43862887864932
1247,1248,26.2222809244716,1.56941332216289
1248,1249,25.2413975981198,1.83098220919004
1249,1250,24.5874753805519,2.09255109621719
1250,1251,23.8681609412273,2.35411998324433
1251,1252,23.0834542801458,2.61568887027148
1252,1253,22.5603165060915,2.81186553554184
1253,1254,22.429532062578,2.74647331378506
1254,1255,22.1679631755508,2.74647331378506
1255,1256,22.0371787320372,2.74647331378506
1256,1257,21.9717865102804,2.74647331378506
1257,1258,20.9909031839286,3.07343442256899
1258,1259,19.8138431923065,3.85814108365044
1259,1260,18.9637443094682,4.57745552297509
1260,1261,17.5905076525757,5.0352010752726
1261,1262,16.4788398827103,5.5583388493269
1262,1263,15.6941332216289,5.95069217986762
1263,1264,14.8440343387907,6.40843773216513
1264,1265,14.5824654517635,6.67000661919228
1265,1266,14.5170732300067,6.67000661919228
1266,1267,14.5170732300067,6.67000661919228
1267,1268,14.4516810082499,6.67000661919228
1268,1269,14.4516810082499,6.67000661919228
1269,1270,14.4516810082499,6.67000661919228
1270,1271,,
1271,1272,,
1272,1273,,
1273,1274,,
1274,1275,,
1275,1276,,
1276,1277,,
1277,1278,,
1278,1279,,
1279,1280,,
1280,1281,,
1281,1282,,
1282,1283,,
1283,1284,,
1284,1285,,
1285,1286,,
1286,1287,,
1287,1288,,
1288,1289,,
1289,1290,,
1290,1291,,
1291,1292,,
1292,1293,,
1293,1294,3.40039553135293,20.9909031839286
1294,1295,3.20421886608257,21.7102176232533
1295,1296,3.0080422008122,22.6911009496051
1296,1297,3.0080422008122,23.4758076106865
1297,1298,2.94264997905542,23.7373764977137
1298,1299,2.87725775729863,23.7373764977137
1299,1300,2.87725775729863,23.7373764977137
1300,1301,2.81186553554184,23.8027687194705
1301,1302,2.68108109202827,23.9335531629841
1302,1303,2.55029664851469,23.9989453847408
1303,1304,2.55029664851469,23.9989453847408
1304,1305,2.55029664851469,23.9989453847408
1305,1306,2.55029664851469,23.9989453847408
1306,1307,2.55029664851469,23.9989453847408
1307,1308,2.41951220500112,24.1297298282544
1308,1309,2.0271588744604,25.2413975981198
1309,1310,2.0271588744604,27.0069875855531
1310,1311,2.28872776148755,28.5110086859592
1311,1312,2.35411998324433,29.7534608993381
1312,1313,2.15794331797397,30.6689520039331
1313,1314,1.83098220919004,31.8460119955553
1314,1315,1.76558998743325,33.2192486524478
1315,1316,1.76558998743325,34.2655242005564
1316,1317,1.56941332216289,35.4425841921786
1317,1318,1.43862887864932,36.2926830750168
1318,1319,1.43862887864932,37.2081741796118
1319,1320,1.63480554391968,38.1890575059636
1320,1321,1.70019776567646,38.7775875017747
1321,1322,1.83098220919004,39.1045486105587
1322,1323,2.15794331797397,39.6930786063697
1323,1324,2.48490442675791,40.4123930456944
1324,1325,2.61568887027148,41.0009230415055
1325,1326,2.55029664851469,41.2624919285326
1326,1327,2.55029664851469,41.3932763720462
1327,1328,2.55029664851469,42.0471985896141
1328,1329,2.87725775729863,43.0280819159659
1329,1330,3.20421886608257,43.6820041335338
1330,1331,3.59657219662329,44.2705341293448
1331,1332,4.0543177489208,45.1206330121831
1332,1333,4.51206330121831,46.1669085602917
1333,1334,4.70823996648867,46.7554385561027
1334,1335,4.96980885351582,47.5401452171842
1335,1336,5.49294662757011,48.3902441000224
1336,1337,5.95069217986762,48.9787740958335
1337,1338,6.53922217567871,49.3711274263742
1338,1339,7.25853661500336,50.2212263092125
1339,1340,7.78167438905766,51.0713251920507
1340,1341,7.91245883257123,51.6598551878618
1341,1342,8.23941994135517,52.4445618489432
1342,1343,8.95873438067983,53.2292685100247
1343,1344,9.41647993297734,53.6870140623222
1344,1345,10.135794372302,54.1447596146197
1345,1346,10.9205010333834,54.7986818321875
1346,1347,11.5090310291945,55.4526040497554
1347,1348,11.7705999162217,55.9103496020529
1348,1349,12.3591299120328,56.6950562631344
1349,1350,13.4054054601413,57.414370702459
1350,1351,14.3208965647364,57.8067240329998
1351,1352,14.9094265605474,58.1336851417837
1352,1353,15.4979565563585,58.656822915838
1353,1354,15.8249176651425,59.0491762463787
1354,1355,16.0210943304128,59.2453529116491
1355,1356,16.6096243262239,59.7030984639466
1356,1357,17.2635465437918,60.1608440162441
1357,1358,17.7866843178461,60.487805125028
1358,1359,18.0482532048732,60.5531973467848
1359,1360,18.3752143136572,60.6839817902984
1360,1361,18.7675676441979,60.814766233812
1361,1362,18.9637443094682,60.9455506773255
1362,1363,19.029136531225,61.0763351208391
1363,1364,19.0945287529818,61.0763351208391
1364,1365,19.0945287529818,61.0763351208391
1365,1366,19.1599209747386,61.2071195643527
1366,1367,20.0754120793336,61.8610417819206
1367,1368,21.7102176232533,62.2533951124613
1368,1369,22.9526698366323,62.5803562212452
1369,1370,23.9335531629841,62.7765328865156
1370,1371,24.7836520458223,62.9727095517859
1371,1372,25.1106131546062,62.9727095517859
1372,1373,25.1106131546062,62.9727095517859
1373,1374,25.1106131546062,63.0381017735427
1374,1375,25.1106131546062,63.0381017735427
1375,1376,25.1106131546062,63.0381017735427
1376,1377,25.1106131546062,63.0381017735427
1377,1378,25.1106131546062,63.0381017735427
1378,1379,25.176005376363,63.0381017735427
1379,1380,25.1106131546062,63.0381017735427
1380,1381,25.176005376363,63.1034939952995
1381,1382,26.091496480958,63.6266317693538
1382,1383,27.7263020248777,63.6266317693538
1383,1384,27.8570864683913,63.2342784388131
1384,1385,27.9878709119049,63.1034939952995
1385,1386,,
1386,1387,,
1387,1388,,
1388,1389,,
1389,1390,,
1390,1391,,
1391,1392,,
1392,1393,,
1393,1394,,
1394,1395,,
1395,1396,,
1396,1397,,
1397,1398,,
1398,1399,,
1399,1400,,
1400,1401,,
1401,1402,,
1402,1403,,
1403,1404,,
1404,1405,,
1405,1406,,
1406,1407,,
1407,1408,,
1408,1409,,
1409,1410,,
1410,1411,,
1411,1412,,
1412,1413,,
1413,1414,,
1414,1415,,
1415,1416,,
1416,1417,,
1417,1418,,
1418,1419,,
1419,1420,,
1420,1421,,
1421,1422,,
1422,1423,,
1423,1424,,
1424,1425,,
1425,1426,,
1426,1427,,
1427,1428,,
1428,1429,,
1429,1430,,
1430,1431,,
1431,1432,,
1432,1433,,
1433,1434,,
1434,1435,,
1435,1436,,
1436,1437,,
1437,1438,,
1438,1439,,
1439,1440,,
1440,1441,,
1441,1442,,
1442,1443,,
1443,1444,,
1444,1445,,
1445,1446,,
1446,1447,,
1447,1448,,
1448,1449,,
1449,1450,,
1450,1451,,
1451,1452,,
1452,1453,,
1453,1454,,
1454,1455,,
1455,1456,,
1456,1457,,
1457,1458,,
1458,1459,,
1459,1460,,
1460,1461,,
1461,1462,,
1462,1463,,
1463,1464,,
1464,1465,,
1465,1466,,
1466,1467,,
1467,1468,,
1468,1469,,
1469,1470,,
1470,1471,,
1471,1472,,
1472,1473,,
1473,1474,,
1474,1475,,
1475,1476,,
1476,1477,,
1477,1478,,
1478,1479,,
1479,1480,,
1480,1481,,
1481,1482,,
1482,1483,,
1483,1484,,
1484,1485,,
1485,1486,,
1486,1487,,
1487,1488,,
1488,1489,,
1489,1490,,
1490,1491,,
1491,1492,,
1492,1493,,
1493,1494,,
1494,1495,,
1495,1496,,
1496,1497,,
1497,1498,,
1498,1499,,
1499,1500,,
1500,1501,,
1501,1502,,
1502,1503,,
1503,1504,,
1504,1505,,
1505,1506,,
1506,1507,,
1507,1508,,
1508,1509,,
1509,1510,,
1510,1511,,
1511,1512,,
1512,1513,,
1513,1514,,
1514,1515,,
1515,1516,,
1516,1517,,
1517,1518,,
1518,1519,,
1519,1520,,
1520,1521,,
1521,1522,,
1522,1523,,
1523,1524,,
1524,1525,,
1525,1526,,
1526,1527,,
1527,1528,,
1528,1529,,
1529,1530,,
1530,1531,,
1531,1532,,
1532,1533,,
1533,1534,,
1534,1535,,
1535,1536,,
1536,1537,,
1537,1538,,
1538,1539,,
1539,1540,,
1540,1541,,
1541,1542,,
1542,1543,,
1543,1544,,
1544,1545,,
1545,1546,,
