,frame,x1,y1
0,1,,
1,2,,
2,3,,
3,4,,
4,5,,
5,6,,
6,7,,
7,8,,
8,9,,
9,10,,
10,11,,
11,12,,
12,13,,
13,14,,
14,15,,
15,16,,
16,17,,
17,18,,
18,19,,
19,20,,
20,21,,
21,22,,
22,23,,
23,24,,
24,25,,
25,26,,
26,27,,
27,28,,
28,29,,
29,30,,
30,31,,
31,32,,
32,33,,
33,34,,
34,35,,
35,36,,
36,37,,
37,38,,
38,39,,
39,40,,
40,41,,
41,42,,
42,43,,
43,44,,
44,45,,
45,46,6.74899193548387,31.8447580645161
46,47,6.68346774193548,32.9586693548387
47,48,6.68346774193548,34.6622983870968
48,49,6.55241935483871,36.7590725806452
49,50,5.63508064516129,41.5423387096774
50,51,5.76612903225806,45.7358870967742
51,52,6.29032258064516,49.4052419354839
52,53,8.19052419354839,52.1572580645161
53,54,10.7459677419355,54.3850806451613
54,55,13.7600806451613,55.7610887096774
55,56,17.429435483871,57.4647177419355
56,57,21.0332661290323,58.7752016129032
57,58,24.8991935483871,59.4304435483871
58,59,27.7167338709677,59.4959677419355
59,60,33.2207661290323,59.3649193548387
60,61,36.5625,59.0372983870968
61,62,41.9354838709677,58.054435483871
62,63,45.866935483871,56.7439516129032
63,64,49.0776209677419,55.1713709677419
64,65,52.0262096774194,53.664314516129
65,66,53.664314516129,51.8951612903226
66,67,55.4989919354839,48.8155241935484
67,68,56.4163306451613,45.866935483871
68,69,57.0060483870968,43.2459677419355
69,70,58.1854838709677,39.5110887096774
70,71,,
71,72,59.758064516129,31.5171370967742
72,73,60.6098790322581,27.5201612903226
73,74,60.7409274193548,25.0302419354839
74,75,59.6270161290323,22.6058467741935
75,76,58.5786290322581,20.4435483870968
76,77,57.3991935483871,18.0191532258065
77,78,56.1542338709677,15.8568548387097
78,79,55.4989919354839,14.0877016129032
79,80,55.3024193548387,13.5635080645161
80,81,55.2368951612903,13.5635080645161
81,82,55.1713709677419,13.4979838709677
82,83,54.3850806451613,12.5151209677419
83,84,52.4193548387097,10.2872983870968
84,85,50.6502016129032,8.97681451612903
85,86,49.2086693548387,7.40423387096774
86,87,45.9979838709677,4.65221774193548
87,88,43.1804435483871,2.62096774193548
88,89,39.773185483871,1.57258064516129
89,90,,
90,91,,
91,92,,
92,93,27.0614919354839,2.22782258064516
93,94,23.8508064516129,2.88306451612903
94,95,18.5433467741935,4.12802419354839
95,96,14.6118951612903,6.29032258064516
96,97,13.1048387096774,7.14213709677419
97,98,11.1391129032258,9.82862903225806
98,99,8.45262096774194,12.2530241935484
99,100,6.81451612903226,14.1532258064516
100,101,,
101,102,,
102,103,,
103,104,,
104,105,,
105,106,,
106,107,,
107,108,,
108,109,,
109,110,,
110,111,5.24193548387097,41.9354838709677
111,112,6.15927419354839,45.0151209677419
112,113,7.20766129032258,48.8810483870968
113,114,8.45262096774194,51.8951612903226
114,115,11.5977822580645,56.2852822580645
115,116,14.4153225806452,59.1028225806452
116,117,17.3639112903226,60.8064516129032
117,118,19.0675403225806,62.0514112903226
118,119,22.4092741935484,62.8377016129032
119,120,24.7681451612903,63.2963709677419
120,121,27.8477822580645,63.7550403225806
121,122,30.7963709677419,63.4929435483871
122,123,35.9727822580645,63.7550403225806
123,124,40.4284274193548,63.2308467741935
124,125,41.6078629032258,62.96875
125,126,45.3427419354839,62.3135080645161
126,127,48.4223790322581,60.6754032258065
127,128,51.0433467741935,58.8407258064516
128,129,53.664314516129,56.5473790322581
129,130,55.8266129032258,54.5161290322581
130,131,57.5957661290323,52.7469758064516
131,132,58.5131048387097,51.1743951612903
132,133,60.2822580645161,48.4223790322581
133,134,61.5272177419355,45.9324596774194
134,135,62.3790322580645,43.7701612903226
135,136,63.6239919354839,40.5594758064516
136,137,63.8860887096774,37.9385080645161
137,138,64.4758064516129,35.4485887096774
138,139,64.4758064516129,31.7792338709677
139,140,64.2137096774193,28.8961693548387
140,141,63.9516129032258,26.40625
141,142,63.2308467741935,23.9818548387097
142,143,62.3135080645161,21.4264112903226
143,144,61.789314516129,19.1985887096774
144,145,60.9375,17.6260080645161
145,146,60.2822580645161,17.0362903225806
146,147,59.8235887096774,16.7741935483871
147,148,59.1683467741935,16.1844758064516
148,149,58.1854838709677,14.6774193548387
149,150,56.9405241935484,13.366935483871
150,151,56.2852822580645,12.5806451612903
151,152,56.0887096774194,12.4495967741935
152,153,56.0887096774194,12.4495967741935
153,154,56.0887096774194,12.4495967741935
154,155,55.3679435483871,11.5977822580645
155,156,53.4022177419355,9.10786290322581
156,157,,
157,158,,
158,159,,
159,160,39.773185483871,1.37600806451613
160,161,36.8245967741935,1.04838709677419
161,162,34.3346774193548,0.720766129032258
162,163,30.5342741935484,0.589717741935484
163,164,28.2409274193548,1.04838709677419
164,165,,
165,166,20.6401209677419,3.07963709677419
166,167,,
167,168,,
168,169,12.4495967741935,7.92842741935484
169,170,10.5493951612903,9.43548387096774
170,171,8.84576612903226,11.4667338709677
171,172,7.86290322580645,13.3014112903226
172,173,,
173,174,,
174,175,,
175,176,,
176,177,,
177,178,,
178,179,,
179,180,,
180,181,,
181,182,,
182,183,3.99697580645161,46.8497983870968
183,184,5.5695564516129,49.2086693548387
184,185,7.40423387096774,51.633064516129
185,186,9.30443548387097,54.4506048387097
186,187,11.1391129032258,56.4818548387097
187,188,13.039314516129,57.9889112903226
188,189,14.5463709677419,59.2338709677419
189,190,16.0534274193548,59.758064516129
190,191,17.2328629032258,60.2167338709677
191,192,17.5604838709677,60.2822580645161
192,193,17.6260080645161,60.2822580645161
193,194,17.6260080645161,60.2822580645161
194,195,17.6260080645161,60.2822580645161
195,196,17.6260080645161,60.2822580645161
196,197,17.8225806451613,60.3477822580645
197,198,19.2641129032258,61.1340725806452
198,199,22.2127016129032,62.5756048387097
199,200,25.0957661290323,63.4274193548387
200,201,27.7822580645161,64.4758064516129
201,202,31.0584677419355,64.7379032258065
202,203,34.2691532258064,64.5413306451613
203,204,35.9727822580645,64.3447580645161
204,205,38.2661290322581,63.9516129032258
205,206,40.2973790322581,63.5584677419355
206,207,43.508064516129,62.9032258064516
207,208,46.0635080645161,61.5927419354839
208,209,48.6189516129032,60.4133064516129
209,210,50.6502016129032,59.2338709677419
210,211,52.3538306451613,57.7923387096774
211,212,54.0574596774194,56.3508064516129
212,213,55.6300403225806,54.7782258064516
213,214,57.0060483870968,52.8780241935484
214,215,58.3820564516129,51.3709677419355
215,216,59.5614919354839,49.7983870967742
216,217,60.4133064516129,47.9637096774194
217,218,60.8719758064516,45.9979838709677
218,219,61.9203629032258,43.6391129032258
219,220,63.1653225806452,41.5423387096774
220,221,63.5584677419355,39.3145161290323
221,222,64.0171370967742,36.6280241935484
222,223,64.4758064516129,34.3346774193548
223,224,64.4102822580645,32.0413306451613
224,225,64.3447580645161,29.6824596774193
225,226,64.0826612903226,27.7167338709677
226,227,63.4929435483871,25.554435483871
227,228,63.0342741935484,23.3266129032258
228,229,62.4445564516129,20.9677419354839
229,230,61.3306451612903,19.0020161290323
230,231,60.5443548387097,17.6260080645161
231,232,60.1512096774194,16.7086693548387
232,233,60.085685483871,16.5120967741935
233,234,60.085685483871,16.5120967741935
234,235,60.085685483871,16.5120967741935
235,236,60.085685483871,16.5120967741935
236,237,60.085685483871,16.5120967741935
237,238,60.0201612903226,16.5120967741935
238,239,60.085685483871,16.5120967741935
239,240,59.8891129032258,16.1844758064516
240,241,58.5131048387097,14.5463709677419
241,242,56.9405241935484,12.7116935483871
242,243,55.3679435483871,10.0907258064516
243,244,53.1401209677419,7.79737903225806
244,245,50.1260080645161,5.76612903225806
245,246,48.2913306451613,4.5866935483871
246,247,45.9979838709677,3.80040322580645
247,248,43.6391129032258,2.68649193548387
248,249,41.0836693548387,1.70362903225806
249,250,38.5282258064516,1.44153225806452
250,251,36.0383064516129,0.917338709677419
251,252,,
252,253,31.320564516129,0.720766129032258
253,254,28.8306451612903,0.786290322580645
254,255,26.7338709677419,1.31048387096774
255,256,24.5715725806452,1.90020161290323
256,257,22.1471774193548,2.48991935483871
257,258,19.7883064516129,3.40725806451613
258,259,17.4949596774194,4.71774193548387
259,260,15.398185483871,5.70060483870968
260,261,13.6945564516129,7.01108870967742
261,262,,
262,263,,
263,264,,
264,265,,
265,266,,
266,267,,
267,268,,
268,269,,
269,270,,
270,271,,
271,272,,
272,273,1.5070564516129,27.1270161290323
273,274,1.31048387096774,28.5685483870968
274,275,0.786290322580645,31.3860887096774
275,276,0.720766129032258,32.8276209677419
276,277,0.982862903225806,33.1552419354839
277,278,1.04838709677419,33.1552419354839
278,279,1.11391129032258,33.1552419354839
279,280,1.11391129032258,33.1552419354839
280,281,1.17943548387097,33.2207661290323
281,282,,
282,283,1.83467741935484,38.7247983870968
283,284,3.01411290322581,42.65625
284,285,3.5383064516129,45.9324596774194
285,286,5.04536290322581,48.9465725806452
286,287,6.55241935483871,51.1088709677419
287,288,8.38709677419355,53.4022177419355
288,289,10.4838709677419,54.84375
289,290,12.4495967741935,56.5473790322581
290,291,14.21875,58.7752016129032
291,292,15.7913306451613,60.2167338709677
292,293,18.8054435483871,61.5927419354839
293,294,20.7056451612903,62.5100806451613
294,295,22.8679435483871,63.2308467741935
295,296,25.0957661290323,63.8860887096774
296,297,26.9304435483871,64.2792338709677
297,298,28.8961693548387,64.2137096774193
298,299,31.1895161290323,63.6895161290323
299,300,33.0897177419355,63.7550403225806
300,301,36.6280241935484,63.6895161290323
301,302,39.3145161290323,63.1653225806452
302,303,42.1975806451613,62.8377016129032
303,304,44.8840725806452,61.7237903225806
304,305,47.0463709677419,60.6098790322581
305,306,50.1260080645161,59.5614919354839
306,307,51.960685483871,58.054435483871
307,308,53.7298387096774,56.3508064516129
308,309,55.6300403225806,54.5161290322581
309,310,57.1370967741935,53.3366935483871
310,311,57.9233870967742,52.2227822580645
311,312,58.3820564516129,50.9778225806452
312,313,59.5614919354839,49.4052419354839
313,314,60.8064516129032,47.6360887096774
314,315,61.5927419354839,45.9979838709677
315,316,62.1824596774194,44.2288306451613
316,317,63.0342741935484,42.5252016129032
317,318,63.5584677419355,40.8870967741935
318,319,63.6895161290323,39.1834677419355
319,320,63.8860887096774,37.6108870967742
320,321,64.3447580645161,35.9727822580645
321,322,64.2792338709677,33.8760080645161
322,323,63.820564516129,31.9758064516129
323,324,63.3618951612903,29.8135080645161
324,325,63.2963709677419,27.8477822580645
325,326,62.7066532258065,25.6854838709677
326,327,62.0514112903226,22.9334677419355
327,328,61.8548387096774,20.4435483870968
328,329,60.9375,18.1502016129032
329,330,59.8235887096774,16.1189516129032
330,331,58.7752016129032,13.9566532258065
331,332,57.5302419354839,12.7772177419355
332,333,56.7439516129032,12.1875
333,334,56.5473790322581,12.0564516129032
334,335,56.5473790322581,12.0564516129032
335,336,56.2852822580645,11.8598790322581
336,337,55.3679435483871,10.3528225806452
337,338,53.991935483871,8.91129032258064
338,339,51.3054435483871,7.6008064516129
339,340,48.8810483870968,5.89717741935484
340,341,46.71875,4.19354838709677
341,342,43.5735887096774,2.68649193548387
342,343,41.5423387096774,1.63810483870968
343,344,39.1179435483871,1.31048387096774
344,345,36.7590725806452,0.982862903225806
345,346,34.8588709677419,0.786290322580645
346,347,32.8931451612903,0.589717741935484
347,348,30.7963709677419,0.786290322580645
348,349,28.8961693548387,0.917338709677419
349,350,27.1270161290323,1.17943548387097
350,351,25.2923387096774,1.83467741935484
351,352,23.2610887096774,2.22782258064516
352,353,20.9677419354839,2.94858870967742
353,354,,
354,355,18.0846774193548,4.25907258064516
355,356,17.5604838709677,4.91431451612903
356,357,,
357,358,,
358,359,,
359,360,,
360,361,20.5745967741935,53.3366935483871
361,362,,
362,363,,
363,364,,
364,365,,
365,366,,
366,367,,
367,368,,
368,369,,
369,370,,
370,371,,
371,372,,
372,373,,
373,374,2.35887096774194,22.8024193548387
374,375,2.35887096774194,24.3094758064516
375,376,2.22782258064516,24.8991935483871
376,377,1.63810483870968,25.9475806451613
377,378,2.42439516129032,28.2409274193548
378,379,2.48991935483871,30.6653225806452
379,380,1.83467741935484,32.5655241935484
380,381,1.44153225806452,36.1038306451613
381,382,1.57258064516129,38.2006048387097
382,383,1.63810483870968,40.2318548387097
383,384,2.62096774193548,42.3286290322581
384,385,3.66935483870968,44.4909274193548
385,386,3.99697580645161,46.4566532258065
386,387,4.91431451612903,48.4223790322581
387,388,6.35584677419355,50.2570564516129
388,389,7.53528225806452,52.2883064516129
389,390,8.6491935483871,53.7953629032258
390,391,10.0252016129032,54.9092741935484
391,392,11.2701612903226,56.023185483871
392,393,12.3185483870968,57.2026209677419
393,394,13.1048387096774,57.9889112903226
394,395,14.1532258064516,58.5131048387097
395,396,14.8084677419355,58.6441532258065
396,397,15.2016129032258,58.9717741935484
397,398,15.9879032258065,59.6925403225806
398,399,17.2328629032258,60.6098790322581
399,400,18.28125,61.4616935483871
400,401,19.3951612903226,61.9203629032258
401,402,20.2469758064516,62.1824596774194
402,403,21.491935483871,62.3790322580645
403,404,22.8679435483871,63.0342741935484
404,405,23.8508064516129,63.5584677419355
405,406,24.2439516129032,63.6239919354839
406,407,24.3094758064516,63.6895161290323
407,408,24.3094758064516,63.7550403225806
408,409,24.3094758064516,63.7550403225806
409,410,24.4405241935484,63.7550403225806
410,411,25.7510080645161,63.820564516129
411,412,27.9133064516129,64.0826612903226
412,413,29.9445564516129,64.4102822580645
413,414,32.5655241935484,64.148185483871
414,415,35.1864919354839,64.6068548387097
415,416,37.2832661290323,64.3447580645161
416,417,39.2489919354839,63.820564516129
417,418,40.8870967741935,63.4929435483871
418,419,42.5252016129032,63.1653225806452
419,420,44.2288306451613,62.4445564516129
420,421,45.866935483871,61.5927419354839
421,422,47.3084677419355,60.9375
422,423,48.8810483870968,60.1512096774194
423,424,50.3881048387097,58.90625
424,425,52.0262096774194,57.8578629032258
425,426,53.4022177419355,56.9405241935484
426,427,54.4506048387097,55.8266129032258
427,428,55.1058467741935,54.84375
428,429,55.8266129032258,54.1885080645161
429,430,56.6784274193548,53.5987903225806
430,431,57.5957661290323,52.6159274193548
431,432,58.3165322580645,50.8467741935484
432,433,59.1028225806452,49.4052419354839
433,434,60.2167338709677,48.0292338709677
434,435,61.1995967741935,46.9153225806452
435,436,61.5927419354839,45.2772177419355
436,437,62.116935483871,43.835685483871
437,438,62.7721774193548,42.65625
438,439,63.2963709677419,41.4112903225806
439,440,63.3618951612903,39.5766129032258
440,441,63.3618951612903,37.3487903225806
441,442,63.820564516129,35.2520161290323
442,443,64.6068548387097,33.0241935483871
443,444,64.4758064516129,30.9274193548387
444,445,64.2137096774193,29.0927419354839
445,446,64.148185483871,27.8477822580645
446,447,63.820564516129,26.3407258064516
447,448,63.0342741935484,24.5715725806452
448,449,62.7066532258065,22.8024193548387
449,450,62.4445564516129,20.9022177419355
450,451,61.5927419354839,19.2641129032258
451,452,60.4788306451613,17.6915322580645
452,453,59.6925403225806,16.1844758064516
453,454,59.2338709677419,14.8739919354839
454,455,58.1854838709677,13.4979838709677
455,456,56.875,12.2530241935484
456,457,55.8266129032258,11.008064516129
457,458,54.9747983870968,9.69758064516129
458,459,53.7298387096774,8.71471774193548
459,460,52.2883064516129,7.66633064516129
460,461,50.5846774193548,6.6179435483871
461,462,49.3397177419355,5.63508064516129
462,463,48.4879032258065,4.91431451612903
463,464,47.7671370967742,4.65221774193548
464,465,46.9153225806452,4.25907258064516
465,466,45.6703629032258,3.5383064516129
466,467,44.6875,2.88306451612903
467,468,43.508064516129,2.5554435483871
468,469,42.5907258064516,2.42439516129032
469,470,41.6078629032258,2.42439516129032
470,471,40.2973790322581,2.16229838709677
471,472,39.1179435483871,1.5070564516129
472,473,37.8074596774193,1.24495967741935
473,474,36.7590725806452,1.24495967741935
474,475,36.2348790322581,1.37600806451613
475,476,36.1693548387097,1.44153225806452
476,477,36.1693548387097,1.44153225806452
477,478,36.1038306451613,1.44153225806452
478,479,36.1038306451613,1.44153225806452
479,480,35.4485887096774,1.17943548387097
480,481,33.4828629032258,1.24495967741935
481,482,31.2550403225806,1.11391129032258
482,483,,
483,484,,
484,485,24.5060483870968,1.63810483870968
485,486,23.0645161290323,2.29334677419355
486,487,21.9506048387097,2.75201612903226
487,488,,
488,489,,
489,490,,
490,491,,
491,492,,
492,493,,
493,494,,
494,495,,
495,496,,
496,497,,
497,498,,
498,499,,
499,500,,
500,501,,
501,502,2.94858870967742,21.2298387096774
502,503,2.35887096774194,22.9989919354839
503,504,1.90020161290323,24.8336693548387
504,505,1.63810483870968,26.3407258064516
505,506,1.5070564516129,27.3891129032258
506,507,1.44153225806452,27.7167338709677
507,508,1.37600806451613,27.7822580645161
508,509,1.37600806451613,27.7822580645161
509,510,1.37600806451613,27.7822580645161
510,511,1.31048387096774,27.7822580645161
511,512,1.04838709677419,28.3064516129032
512,513,1.5070564516129,28.8306451612903
513,514,1.76915322580645,30.0100806451613
514,515,1.63810483870968,31.648185483871
515,516,1.11391129032258,35.5141129032258
516,517,1.44153225806452,37.741935483871
517,518,1.63810483870968,39.7076612903226
518,519,2.09677419354839,41.0836693548387
519,520,2.35887096774194,42.2631048387097
520,521,3.14516129032258,43.835685483871
521,522,3.73487903225806,45.3427419354839
522,523,4.19354838709677,46.71875
523,524,4.5866935483871,47.7671370967742
524,525,5.17641129032258,48.8810483870968
525,526,5.96270161290323,49.7983870967742
526,527,6.42137096774194,49.9949596774194
527,528,6.88004032258065,50.4536290322581
528,529,7.14213709677419,51.1743951612903
529,530,7.53528225806452,52.4848790322581
530,531,8.84576612903226,54.0574596774194
531,532,10.0252016129032,55.3024193548387
532,533,11.2701612903226,56.0887096774194
533,534,12.1219758064516,56.6129032258065
534,535,12.3840725806452,56.875
535,536,12.7116935483871,57.5302419354839
536,537,13.1048387096774,57.9889112903226
537,538,13.7600806451613,58.4475806451613
538,539,14.9395161290323,59.1028225806452
539,540,16.0534274193548,60.085685483871
540,541,,
541,542,19.8538306451613,61.9858870967742
542,543,21.491935483871,62.5756048387097
543,544,22.7368951612903,62.96875
544,545,23.7197580645161,63.2308467741935
545,546,25.0302419354839,63.5584677419355
546,547,,
547,548,,
548,549,,
549,550,28.9616935483871,64.4758064516129
550,551,29.0272177419355,64.4758064516129
551,552,29.0272177419355,64.4758064516129
552,553,30.5342741935484,64.6068548387097
553,554,32.7620967741935,64.0826612903226
554,555,35.0554435483871,63.9516129032258
555,556,37.1522177419355,63.9516129032258
556,557,38.9868951612903,63.6895161290323
557,558,40.7560483870968,63.2963709677419
558,559,42.8528225806452,63.0342741935484
559,560,44.6875,62.5100806451613
560,561,46.1945564516129,61.6582661290323
561,562,47.4395161290323,61.0030241935484
562,563,48.2258064516129,60.3477822580645
563,564,49.0776209677419,59.8891129032258
564,565,50.1915322580645,59.1683467741935
565,566,51.1088709677419,58.4475806451613
566,567,52.0917338709677,57.8578629032258
567,568,52.8780241935484,57.1370967741935
568,569,53.3366935483871,56.7439516129032
569,570,54.0574596774194,56.3508064516129
570,571,54.9092741935484,55.4334677419355
571,572,55.4989919354839,54.5161290322581
572,573,55.7610887096774,54.1885080645161
573,574,55.8266129032258,54.1885080645161
574,575,55.9576612903226,54.1229838709677
575,576,56.2197580645161,53.9264112903226
576,577,56.2852822580645,53.8608870967742
577,578,56.2852822580645,53.8608870967742
578,579,56.2852822580645,53.8608870967742
579,580,56.2852822580645,53.8608870967742
580,581,56.2852822580645,53.8608870967742
581,582,56.3508064516129,53.8608870967742
582,583,57.0715725806452,53.5987903225806
583,584,57.726814516129,51.8296370967742
584,585,57.7923387096774,49.9949596774194
585,586,58.8407258064516,47.6360887096774
586,587,60.1512096774194,45.9324596774194
587,588,61.0685483870968,43.7701612903226
588,589,62.1824596774194,41.7389112903226
589,590,63.4274193548387,40.0352822580645
590,591,63.8860887096774,38.2006048387097
591,592,64.0171370967742,36.6280241935484
592,593,64.2137096774193,35.5141129032258
593,594,64.4758064516129,34.3346774193548
594,595,64.2792338709677,32.6965725806452
595,596,64.0826612903226,31.0584677419355
596,597,64.148185483871,29.4203629032258
597,598,64.0826612903226,27.9788306451613
598,599,63.7550403225806,26.5372983870968
599,600,63.3618951612903,25.226814516129
600,601,63.0997983870968,23.7852822580645
601,602,62.9032258064516,22.4092741935484
602,603,62.5100806451613,21.0987903225806
603,604,61.6582661290323,19.7227822580645
604,605,61.0685483870968,18.3467741935484
605,606,60.4788306451613,17.2328629032258
606,607,60.085685483871,16.3155241935484
607,608,59.1683467741935,15.070564516129
608,609,58.054435483871,13.8256048387097
609,610,57.2681451612903,12.5151209677419
610,611,56.3508064516129,11.2701612903226
611,612,55.5645161290323,10.3528225806452
612,613,54.5816532258065,9.69758064516129
613,614,,
614,615,53.1401209677419,8.58366935483871
615,616,52.6159274193548,7.99395161290323
616,617,52.0262096774194,7.07661290322581
617,618,50.5846774193548,6.22479838709677
618,619,49.2741935483871,5.5695564516129
619,620,48.0947580645161,4.84879032258065
620,621,47.3739919354839,4.39012096774194
621,622,46.71875,3.93145161290323
622,623,45.866935483871,3.60383064516129
623,624,45.1461693548387,3.40725806451613
624,625,44.7530241935484,3.47278225806452
625,626,44.0322580645161,3.27620967741935
626,627,42.5907258064516,2.42439516129032
627,628,,
628,629,39.3145161290323,1.31048387096774
629,630,37.8729838709677,1.24495967741935
630,631,36.5625,1.04838709677419
631,632,35.710685483871,0.851814516129032
632,633,34.7278225806452,0.720766129032258
633,634,33.6139112903226,0.786290322580645
634,635,32.8931451612903,0.851814516129032
635,636,32.2379032258064,1.04838709677419
636,637,30.9274193548387,1.04838709677419
637,638,29.8135080645161,0.786290322580645
638,639,28.3719758064516,1.04838709677419
639,640,26.8649193548387,1.90020161290323
640,641,25.6854838709677,2.16229838709677
641,642,24.0473790322581,2.22782258064516
642,643,22.2782258064516,2.35887096774194
643,644,20.5090725806452,3.27620967741935
644,645,18.7399193548387,3.99697580645161
645,646,17.2328629032258,4.52116935483871
646,647,,
647,648,14.8739919354839,6.15927419354839
648,649,13.8256048387097,7.01108870967742
649,650,12.8427419354839,7.92842741935484
650,651,12.2530241935484,8.45262096774194
651,652,11.6633064516129,8.78024193548387
652,653,11.2701612903226,9.04233870967742
653,654,11.008064516129,9.23891129032258
654,655,,
655,656,,
656,657,,
657,658,,
658,659,,
659,660,,
660,661,,
661,662,,
662,663,,
663,664,,
664,665,,
665,666,,
666,667,,
667,668,,
668,669,,
669,670,,
670,671,1.44153225806452,28.0443548387097
671,672,1.24495967741935,29.3548387096774
672,673,1.04838709677419,30.2721774193548
673,674,0.851814516129032,31.4516129032258
674,675,0.982862903225806,32.8931451612903
675,676,1.04838709677419,33.8760080645161
676,677,1.04838709677419,34.7933467741935
677,678,1.04838709677419,35.4485887096774
678,679,1.04838709677419,36.0383064516129
679,680,1.24495967741935,37.2832661290323
680,681,1.57258064516129,38.3316532258064
681,682,1.90020161290323,39.3145161290323
682,683,2.22782258064516,40.7560483870968
683,684,2.35887096774194,42.0010080645161
684,685,2.5554435483871,42.9183467741935
685,686,3.27620967741935,43.9012096774194
686,687,3.60383064516129,44.5564516129032
687,688,3.93145161290323,45.3427419354839
688,689,4.25907258064516,46.6532258064516
689,690,4.65221774193548,48.0292338709677
690,691,5.83165322580645,49.4707661290323
691,692,6.81451612903226,50.5846774193548
692,693,7.40423387096774,51.8296370967742
693,694,7.86290322580645,52.9435483870968
694,695,8.84576612903226,53.991935483871
695,696,10.0907258064516,54.9092741935484
696,697,10.8770161290323,55.6300403225806
697,698,11.6633064516129,56.3508064516129
698,699,12.1219758064516,57.0060483870968
699,700,12.7772177419355,57.5302419354839
700,701,13.5635080645161,58.1854838709677
701,702,14.0877016129032,58.5131048387097
702,703,14.3497983870968,58.5786290322581
703,704,14.4808467741935,58.6441532258065
704,705,14.4808467741935,58.5786290322581
705,706,14.4808467741935,58.5786290322581
706,707,14.4808467741935,58.6441532258065
707,708,14.4808467741935,58.5786290322581
708,709,14.5463709677419,58.6441532258065
709,710,15.4637096774194,59.1028225806452
710,711,16.7086693548387,60.4133064516129
711,712,18.5433467741935,61.5927419354839
712,713,20.8366935483871,62.2479838709677
713,714,22.4747983870968,62.8377016129032
714,715,23.6542338709677,63.3618951612903
715,716,24.9647177419355,63.6895161290323
716,717,,
717,718,,
718,719,,
719,720,30.0756048387097,64.4102822580645
720,721,31.5826612903226,64.4758064516129
721,722,33.2207661290323,64.2137096774193
722,723,34.5967741935484,64.0826612903226
723,724,35.8417338709677,64.2137096774193
724,725,36.8901209677419,64.4102822580645
725,726,37.9385080645161,64.0171370967742
726,727,38.9868951612903,63.5584677419355
727,728,39.7076612903226,63.3618951612903
728,729,40.7560483870968,63.2963709677419
729,730,41.9354838709677,63.1653225806452
730,731,42.9183467741935,62.9032258064516
731,732,44.1633064516129,62.0514112903226
732,733,45.0151209677419,61.3961693548387
733,734,46.2600806451613,61.0685483870968
734,735,47.4395161290323,60.8719758064516
735,736,48.3568548387097,60.5443548387097
736,737,49.3397177419355,59.6270161290323
737,738,50.1260080645161,58.90625
738,739,50.8467741935484,58.4475806451613
739,740,51.633064516129,57.9233870967742
740,741,51.8951612903226,57.726814516129
741,742,51.960685483871,57.726814516129
742,743,51.960685483871,57.726814516129
743,744,51.960685483871,57.726814516129
744,745,52.2883064516129,57.8578629032258
745,746,53.2711693548387,57.3336693548387
746,747,54.0574596774194,56.1542338709677
747,748,55.1058467741935,55.1058467741935
748,749,56.3508064516129,53.664314516129
749,750,56.9405241935484,52.8780241935484
750,751,57.726814516129,52.1572580645161
751,752,58.2510080645161,51.3054435483871
752,753,58.4475806451613,50.7157258064516
753,754,58.8407258064516,50.1915322580645
754,755,59.1028225806452,49.8639112903226
755,756,59.1683467741935,49.8639112903226
756,757,59.1683467741935,49.8639112903226
757,758,59.1683467741935,49.8639112903226
758,759,59.2338709677419,49.8639112903226
759,760,59.2338709677419,49.8639112903226
760,761,59.2338709677419,49.8639112903226
761,762,59.3649193548387,49.929435483871
762,763,60.2167338709677,49.4052419354839
763,764,60.6754032258065,47.6360887096774
764,765,61.1340725806452,45.866935483871
765,766,61.8548387096774,44.0977822580645
766,767,62.7721774193548,42.65625
767,768,63.2963709677419,41.1491935483871
768,769,63.2963709677419,39.773185483871
769,770,63.5584677419355,38.3971774193548
770,771,64.0826612903226,37.1522177419355
771,772,64.2792338709677,35.7762096774193
772,773,64.2137096774193,34.7278225806452
773,774,64.2137096774193,33.8104838709677
774,775,64.2137096774193,33.0897177419355
775,776,64.3447580645161,32.6310483870968
776,777,64.2792338709677,31.5826612903226
777,778,64.0826612903226,30.5342741935484
778,779,64.148185483871,29.8790322580645
779,780,64.0826612903226,28.9616935483871
780,781,63.9516129032258,27.8477822580645
781,782,63.9516129032258,26.9304435483871
782,783,63.6895161290323,25.6854838709677
783,784,63.2963709677419,24.5060483870968
784,785,62.96875,23.3921370967742
785,786,62.6411290322581,22.2782258064516
786,787,62.3790322580645,21.5574596774193
787,788,62.1824596774194,20.6401209677419
788,789,61.5927419354839,19.5262096774194
789,790,60.9375,18.4778225806452
790,791,60.3477822580645,17.6915322580645
791,792,59.9546370967742,16.7741935483871
792,793,59.6925403225806,16.0534274193548
793,794,59.2993951612903,15.2671370967742
794,795,58.7096774193548,14.4153225806452
795,796,58.1199596774194,13.9566532258065
796,797,57.6612903225806,13.6290322580645
797,798,57.3336693548387,12.9737903225806
798,799,56.9405241935484,12.3840725806452
799,800,56.7439516129032,11.4012096774194
800,801,55.8266129032258,10.6804435483871
801,802,54.84375,10.0252016129032
802,803,53.8608870967742,9.30443548387097
803,804,52.9435483870968,8.05947580645161
804,805,52.0917338709677,7.07661290322581
805,806,50.5846774193548,6.29032258064516
806,807,49.3397177419355,5.70060483870968
807,808,48.2258064516129,4.84879032258065
808,809,47.3084677419355,4.25907258064516
809,810,46.4566532258065,3.66935483870968
810,811,45.4082661290323,3.34173387096774
811,812,44.5564516129032,3.14516129032258
812,813,43.7046370967742,2.81754032258064
813,814,42.8528225806452,2.48991935483871
814,815,42.3941532258065,2.22782258064516
815,816,41.7389112903226,1.96572580645161
816,817,41.0181451612903,2.09677419354839
817,818,40.625,2.22782258064516
818,819,39.8387096774193,2.22782258064516
819,820,38.2006048387097,1.70362903225806
820,821,36.6935483870968,0.851814516129032
821,822,35.0554435483871,0.720766129032258
822,823,33.7449596774193,0.917338709677419
823,824,32.6310483870968,0.917338709677419
824,825,31.8447580645161,0.786290322580645
825,826,31.320564516129,0.786290322580645
826,827,30.5997983870968,0.786290322580645
827,828,29.9445564516129,0.786290322580645
828,829,29.4858870967742,0.720766129032258
829,830,29.2237903225806,0.917338709677419
830,831,28.3719758064516,1.31048387096774
831,832,27.3235887096774,1.37600806451613
832,833,26.5372983870968,1.31048387096774
833,834,25.3578629032258,1.44153225806452
834,835,24.375,2.03125
835,836,23.9163306451613,2.35887096774194
836,837,23.8508064516129,2.42439516129032
837,838,23.8508064516129,2.42439516129032
838,839,23.8508064516129,2.42439516129032
839,840,23.7852822580645,2.42439516129032
840,841,23.7852822580645,2.42439516129032
841,842,23.7852822580645,2.42439516129032
842,843,23.7197580645161,2.48991935483871
843,844,22.8024193548387,2.81754032258064
844,845,21.2298387096774,2.88306451612903
845,846,19.3296370967742,3.66935483870968
846,847,17.4949596774194,5.11088709677419
847,848,15.9879032258065,5.83165322580645
848,849,14.4808467741935,6.15927419354839
849,850,,
850,851,,
851,852,,
852,853,,
853,854,,
854,855,,
855,856,,
856,857,,
857,858,,
858,859,,
859,860,,
860,861,,
861,862,,
862,863,,
863,864,,
864,865,,
865,866,,
866,867,2.42439516129032,24.1784274193548
867,868,1.90020161290323,25.226814516129
868,869,1.70362903225806,25.7510080645161
869,870,1.57258064516129,26.4717741935484
870,871,1.37600806451613,27.3891129032258
871,872,1.24495967741935,28.0443548387097
872,873,1.17943548387097,28.5685483870968
873,874,1.24495967741935,29.6824596774193
874,875,1.24495967741935,30.7308467741935
875,876,1.04838709677419,31.4516129032258
876,877,0.917338709677419,32.4344758064516
877,878,1.11391129032258,33.4828629032258
878,879,1.24495967741935,34.0725806451613
879,880,1.44153225806452,34.5967741935484
880,881,1.44153225806452,35.5796370967742
881,882,1.24495967741935,36.7590725806452
882,883,1.04838709677419,37.6764112903226
883,884,1.44153225806452,39.0524193548387
884,885,1.90020161290323,40.2973790322581
885,886,2.29334677419355,41.4112903225806
886,887,2.62096774193548,42.5252016129032
887,888,2.75201612903226,43.1149193548387
888,889,2.75201612903226,43.6391129032258
889,890,3.07963709677419,44.5564516129032
890,891,3.80040322580645,45.4737903225806
891,892,4.52116935483871,46.3911290322581
892,893,5.04536290322581,47.5050403225806
893,894,5.30745967741936,48.4879032258065
894,895,5.37298387096774,49.2086693548387
895,896,5.83165322580645,50.1915322580645
896,897,6.48689516129032,51.0433467741935
897,898,7.27318548387097,51.6985887096774
898,899,8.25604838709677,52.4193548387097
899,900,8.84576612903226,53.4022177419355
900,901,9.10786290322581,54.1229838709677
901,902,9.76310483870968,55.0403225806452
902,903,10.6149193548387,55.7610887096774
903,904,11.5322580645161,56.2197580645161
904,905,12.4495967741935,56.9405241935484
905,906,12.9737903225806,57.5302419354839
906,907,13.039314516129,57.726814516129
907,908,13.039314516129,57.7923387096774
908,909,13.039314516129,57.7923387096774
909,910,13.039314516129,57.7923387096774
910,911,13.039314516129,57.7923387096774
911,912,13.039314516129,57.7923387096774
912,913,13.039314516129,57.7923387096774
913,914,12.9737903225806,57.7923387096774
914,915,,
915,916,,
916,917,16.0534274193548,60.0201612903226
917,918,17.6915322580645,61.0685483870968
918,919,18.8054435483871,61.5272177419355
919,920,19.6572580645161,62.0514112903226
920,921,20.9677419354839,62.5100806451613
921,922,22.0816532258064,62.7066532258065
922,923,23.195564516129,63.0342741935484
923,924,24.1784274193548,63.3618951612903
924,925,24.9647177419355,63.6239919354839
925,926,,
926,927,,
927,928,15.0050403225806,58.9717741935484
928,929,29.4203629032258,63.9516129032258
929,930,30.4032258064516,64.4758064516129
930,931,31.7792338709677,64.5413306451613
931,932,33.0897177419355,64.4102822580645
932,933,34.2691532258064,64.2792338709677
933,934,35.3175403225806,64.2137096774193
934,935,35.8417338709677,64.148185483871
935,936,36.4314516129032,64.2792338709677
936,937,37.414314516129,64.2792338709677
937,938,38.3971774193548,64.0826612903226
938,939,39.1834677419355,63.7550403225806
939,940,40.1008064516129,63.4929435483871
940,941,40.9526209677419,63.2308467741935
941,942,41.476814516129,63.0342741935484
942,943,41.7389112903226,63.0997983870968
943,944,42.5907258064516,63.0342741935484
944,945,43.9667338709677,62.5100806451613
945,946,45.0806451612903,61.8548387096774
946,947,45.539314516129,61.4616935483871
947,948,45.6048387096774,61.3961693548387
948,949,45.6048387096774,61.3961693548387
949,950,45.6048387096774,61.3961693548387
950,951,45.6048387096774,61.3961693548387
951,952,45.6048387096774,61.3961693548387
952,953,45.6048387096774,61.3306451612903
953,954,46.3256048387097,61.0030241935484
954,955,47.570564516129,60.4788306451613
955,956,48.8155241935484,60.085685483871
956,957,50.0604838709677,59.3649193548387
957,958,50.9122983870968,58.6441532258065
958,959,51.633064516129,57.9889112903226
959,960,52.3538306451613,57.3991935483871
960,961,53.0745967741935,57.0715725806452
961,962,53.7953629032258,56.4163306451613
962,963,54.3850806451613,55.8266129032258
963,964,54.5161290322581,55.5645161290323
964,965,54.5816532258065,55.5645161290323
965,966,54.5816532258065,55.5645161290323
966,967,54.5816532258065,55.5645161290323
967,968,54.5816532258065,55.5645161290323
968,969,54.5816532258065,55.5645161290323
969,970,54.5816532258065,55.5645161290323
970,971,54.5816532258065,55.4334677419355
971,972,55.1058467741935,54.7782258064516
972,973,56.1542338709677,54.1229838709677
973,974,57.3991935483871,53.1401209677419
974,975,58.3165322580645,51.5675403225806
975,976,58.90625,50.3881048387097
976,977,59.3649193548387,49.6673387096774
977,978,59.6925403225806,49.0776209677419
978,979,59.8891129032258,48.8155241935484
979,980,60.2167338709677,48.4879032258065
980,981,60.2167338709677,48.3568548387097
981,982,60.1512096774194,48.2913306451613
982,983,60.085685483871,48.2258064516129
983,984,60.0201612903226,48.2258064516129
984,985,60.085685483871,48.2258064516129
985,986,60.085685483871,48.2258064516129
986,987,60.085685483871,48.2258064516129
987,988,60.085685483871,48.2258064516129
988,989,60.085685483871,48.2258064516129
989,990,60.085685483871,48.2258064516129
990,991,60.2822580645161,47.898185483871
991,992,60.6754032258065,46.5877016129032
992,993,61.5272177419355,44.9495967741935
993,994,62.5756048387097,43.508064516129
994,995,63.2963709677419,42.2631048387097
995,996,63.4929435483871,41.1491935483871
996,997,63.4274193548387,40.4284274193548
997,998,63.4274193548387,39.5110887096774
998,999,63.7550403225806,38.3971774193548
999,1000,64.148185483871,37.5453629032258
1000,1001,64.3447580645161,36.4969758064516
1001,1002,64.2792338709677,35.1864919354839
1002,1003,64.2137096774193,34.2691532258064
1003,1004,64.0826612903226,33.4173387096774
1004,1005,64.2137096774193,32.5655241935484
1005,1006,64.3447580645161,31.9102822580645
1006,1007,64.4102822580645,31.0584677419355
1007,1008,64.4102822580645,30.1411290322581
1008,1009,64.4102822580645,29.4203629032258
1009,1010,64.0826612903226,28.8306451612903
1010,1011,63.820564516129,27.9133064516129
1011,1012,63.7550403225806,26.8649193548387
1012,1013,63.6895161290323,26.2096774193548
1013,1014,63.7550403225806,25.2923387096774
1014,1015,63.3618951612903,24.0473790322581
1015,1016,62.9032258064516,22.9334677419355
1016,1017,62.5100806451613,21.9506048387097
1017,1018,62.0514112903226,21.0332661290323
1018,1019,61.8548387096774,20.4435483870968
1019,1020,61.6582661290323,19.6572580645161
1020,1021,61.2651209677419,18.6743951612903
1021,1022,60.9375,18.0191532258065
1022,1023,60.5443548387097,17.6260080645161
1023,1024,60.085685483871,16.9052419354839
1024,1025,59.5614919354839,16.1844758064516
1025,1026,59.2993951612903,15.6602822580645
1026,1027,59.2993951612903,15.4637096774194
1027,1028,59.1683467741935,15.0050403225806
1028,1029,58.5131048387097,13.9566532258065
1029,1030,57.726814516129,13.2358870967742
1030,1031,57.2681451612903,12.8427419354839
1031,1032,57.0060483870968,12.5806451612903
1032,1033,56.7439516129032,12.3185483870968
1033,1034,56.2197580645161,11.5322580645161
1034,1035,55.7610887096774,10.4838709677419
1035,1036,54.9747983870968,9.30443548387097
1036,1037,53.7953629032258,8.58366935483871
1037,1038,52.8125,8.05947580645161
1038,1039,52.0917338709677,7.46975806451613
1039,1040,51.4364919354839,7.01108870967742
1040,1041,51.1088709677419,6.6179435483871
1041,1042,50.4536290322581,6.09375
1042,1043,49.7983870967742,5.70060483870968
1043,1044,49.2086693548387,5.50403225806452
1044,1045,48.75,5.37298387096774
1045,1046,48.0292338709677,4.84879032258065
1046,1047,47.3084677419355,4.39012096774194
1047,1048,46.71875,3.93145161290323
1048,1049,45.6703629032258,3.40725806451613
1049,1050,44.8185483870968,3.14516129032258
1050,1051,44.3598790322581,3.07963709677419
1051,1052,44.0977822580645,3.07963709677419
1052,1053,43.3770161290323,2.88306451612903
1053,1054,42.4596774193548,2.42439516129032
1054,1055,41.804435483871,1.96572580645161
1055,1056,40.8870967741935,1.57258064516129
1056,1057,39.7076612903226,1.44153225806452
1057,1058,38.7903225806452,1.57258064516129
1058,1059,37.8074596774193,1.44153225806452
1059,1060,36.7590725806452,1.11391129032258
1060,1061,36.1038306451613,0.851814516129032
1061,1062,35.0554435483871,0.655241935483871
1062,1063,34.0070564516129,0.655241935483871
1063,1064,33.4173387096774,0.720766129032258
1064,1065,32.8276209677419,0.917338709677419
1065,1066,31.9758064516129,0.917338709677419
1066,1067,31.5171370967742,0.851814516129032
1067,1068,31.0584677419355,0.720766129032258
1068,1069,30.3377016129032,0.720766129032258
1069,1070,29.7479838709677,1.04838709677419
1070,1071,29.4858870967742,1.17943548387097
1071,1072,29.3548387096774,1.11391129032258
1072,1073,29.289314516129,1.11391129032258
1073,1074,29.289314516129,1.11391129032258
1074,1075,29.2237903225806,1.17943548387097
1075,1076,28.7651209677419,1.31048387096774
1076,1077,27.3235887096774,1.70362903225806
1077,1078,25.8165322580645,1.70362903225806
1078,1079,24.1784274193548,2.03125
1079,1080,22.8024193548387,2.62096774193548
1080,1081,21.8195564516129,2.75201612903226
1081,1082,,
1082,1083,20.4435483870968,3.01411290322581
1083,1084,19.5917338709677,3.5383064516129
1084,1085,18.9364919354839,4.0625
1085,1086,18.5433467741935,4.45564516129032
1086,1087,18.0191532258065,4.71774193548387
1087,1088,17.2328629032258,4.91431451612903
1088,1089,16.9052419354839,5.04536290322581
1089,1090,16.8397177419355,5.11088709677419
1090,1091,16.7741935483871,5.11088709677419
1091,1092,16.7741935483871,5.04536290322581
1092,1093,16.7741935483871,5.11088709677419
1093,1094,16.7086693548387,5.04536290322581
1094,1095,,
1095,1096,,
1096,1097,,
1097,1098,,
1098,1099,,
1099,1100,,
1100,1101,,
1101,1102,,
1102,1103,,
1103,1104,,
1104,1105,,
1105,1106,,
1106,1107,,
1107,1108,13.7600806451613,53.2056451612903
1108,1109,,
1109,1110,,
1110,1111,,
1111,1112,,
1112,1113,,
1113,1114,,
1114,1115,3.66935483870968,19.2641129032258
1115,1116,3.14516129032258,20.4435483870968
1116,1117,3.01411290322581,21.5574596774193
1117,1118,2.81754032258064,22.4092741935484
1118,1119,2.42439516129032,23.195564516129
1119,1120,2.22782258064516,23.8508064516129
1120,1121,2.16229838709677,24.1129032258064
1121,1122,1.70362903225806,24.5715725806452
1122,1123,1.31048387096774,25.8165322580645
1123,1124,1.31048387096774,26.8649193548387
1124,1125,1.24495967741935,27.585685483871
1125,1126,1.17943548387097,28.4375
1126,1127,0.982862903225806,29.5514112903226
1127,1128,0.851814516129032,30.2066532258064
1128,1129,0.720766129032258,30.8618951612903
1129,1130,0.786290322580645,31.9102822580645
1130,1131,0.917338709677419,32.5655241935484
1131,1132,0.982862903225806,32.8931451612903
1132,1133,1.04838709677419,32.9586693548387
1133,1134,1.04838709677419,33.0897177419355
1134,1135,1.11391129032258,33.8104838709677
1135,1136,1.04838709677419,35.1864919354839
1136,1137,0.917338709677419,36.4314516129032
1137,1138,1.31048387096774,37.6764112903226
1138,1139,1.76915322580645,38.7247983870968
1139,1140,2.29334677419355,39.7076612903226
1140,1141,2.42439516129032,40.7560483870968
1141,1142,2.35887096774194,41.6733870967742
1142,1143,2.42439516129032,42.7217741935484
1143,1144,2.88306451612903,43.9667338709677
1144,1145,3.40725806451613,44.7530241935484
1145,1146,3.86592741935484,45.6703629032258
1146,1147,4.19354838709677,46.6532258064516
1147,1148,4.32459677419355,47.1774193548387
1148,1149,4.65221774193548,47.8326612903226
1149,1150,5.30745967741936,48.75
1150,1151,5.89717741935484,49.3397177419355
1151,1152,6.29032258064516,49.6673387096774
1152,1153,6.68346774193548,50.3225806451613
1153,1154,7.14213709677419,51.1088709677419
1154,1155,7.33870967741935,51.633064516129
1155,1156,7.40423387096774,51.960685483871
1156,1157,7.66633064516129,52.7469758064516
1157,1158,8.6491935483871,53.7953629032258
1158,1159,9.50100806451613,54.3850806451613
1159,1160,10.3528225806452,54.9747983870968
1160,1161,11.1391129032258,55.7610887096774
1161,1162,11.4667338709677,56.4818548387097
1162,1163,11.8598790322581,57.0060483870968
1163,1164,12.6461693548387,57.7923387096774
1164,1165,13.4979838709677,58.3165322580645
1165,1166,14.2842741935484,58.6441532258065
1166,1167,15.1360887096774,59.2338709677419
1167,1168,15.7913306451613,59.6270161290323
1168,1169,15.9879032258065,59.758064516129
1169,1170,15.9879032258065,59.758064516129
1170,1171,15.9879032258065,59.8235887096774
1171,1172,15.9879032258065,59.8235887096774
1172,1173,15.9879032258065,59.8235887096774
1173,1174,15.9879032258065,59.8235887096774
1174,1175,15.9223790322581,59.8235887096774
1175,1176,15.9223790322581,59.8235887096774
1176,1177,,
1177,1178,,
1178,1179,18.6088709677419,61.5927419354839
1179,1180,19.9848790322581,62.2479838709677
1180,1181,21.0332661290323,62.5756048387097
1181,1182,21.5574596774193,62.5100806451613
1182,1183,21.8850806451613,62.7721774193548
1183,1184,22.8679435483871,63.2963709677419
1184,1185,24.0473790322581,63.6239919354839
1185,1186,24.8991935483871,63.6895161290323
1186,1187,,
1187,1188,,
1188,1189,,
1189,1190,,
1190,1191,,
1191,1192,,
1192,1193,,
1193,1194,,
1194,1195,,
1195,1196,30.7963709677419,64.0826612903226
1196,1197,32.3689516129032,64.3447580645161
1197,1198,33.4828629032258,64.4758064516129
1198,1199,34.0725806451613,64.5413306451613
1199,1200,35.0554435483871,64.4758064516129
1200,1201,36.0383064516129,64.4102822580645
1201,1202,36.7590725806452,64.2137096774193
1202,1203,37.6764112903226,64.0171370967742
1203,1204,38.4627016129032,64.0171370967742
1204,1205,38.7247983870968,64.0171370967742
1205,1206,38.7247983870968,64.0826612903226
1206,1207,38.8558467741935,64.0171370967742
1207,1208,38.9868951612903,64.0826612903226
1208,1209,38.9868951612903,64.0826612903226
1209,1210,38.9868951612903,64.0826612903226
1210,1211,38.9868951612903,64.0826612903226
1211,1212,38.9868951612903,64.0826612903226
1212,1213,38.9868951612903,64.0826612903226
1213,1214,39.1179435483871,64.0826612903226
1214,1215,39.8387096774193,63.9516129032258
1215,1216,41.0181451612903,63.3618951612903
1216,1217,41.9354838709677,62.96875
1217,1218,42.9838709677419,62.5100806451613
1218,1219,43.9012096774194,62.1824596774194
1219,1220,44.8185483870968,62.116935483871
1220,1221,45.7358870967742,61.789314516129
1221,1222,46.1945564516129,61.5272177419355
1222,1223,46.3911290322581,61.3306451612903
1223,1224,46.9808467741935,60.8719758064516
1224,1225,47.898185483871,60.4133064516129
1225,1226,48.4223790322581,60.085685483871
1226,1227,48.8155241935484,60.0201612903226
1227,1228,49.4707661290323,59.8891129032258
1228,1229,50.0604838709677,59.6925403225806
1229,1230,50.3881048387097,59.6270161290323
1230,1231,50.5846774193548,59.4959677419355
1231,1232,50.6502016129032,59.3649193548387
1232,1233,50.6502016129032,59.3649193548387
1233,1234,50.6502016129032,59.2993951612903
1234,1235,50.7157258064516,59.2338709677419
1235,1236,50.7157258064516,59.2338709677419
1236,1237,50.78125,59.1683467741935
1237,1238,51.2399193548387,58.7096774193548
1238,1239,52.3538306451613,57.9889112903226
1239,1240,53.1401209677419,57.4647177419355
1240,1241,54.0574596774194,56.7439516129032
1241,1242,54.7127016129032,55.9576612903226
1242,1243,55.0403225806452,55.3679435483871
1243,1244,55.3679435483871,54.7127016129032
1244,1245,56.023185483871,53.991935483871
1245,1246,56.5473790322581,53.5332661290323
1246,1247,56.9405241935484,53.1401209677419
1247,1248,57.4647177419355,52.6814516129032
1248,1249,57.726814516129,52.2883064516129
1249,1250,57.9233870967742,52.1572580645161
1250,1251,58.054435483871,52.0262096774194
1251,1252,58.1199596774194,52.0262096774194
1252,1253,58.1199596774194,51.960685483871
1253,1254,58.1199596774194,51.8951612903226
1254,1255,58.1199596774194,51.8951612903226
1255,1256,58.1199596774194,51.8951612903226
1256,1257,58.1199596774194,51.8951612903226
1257,1258,58.1199596774194,51.8951612903226
1258,1259,58.1199596774194,51.8951612903226
1259,1260,58.054435483871,51.5020161290323
1260,1261,58.5131048387097,50.4536290322581
1261,1262,59.3649193548387,49.3397177419355
1262,1263,60.1512096774194,48.5534274193548
1263,1264,60.8064516129032,47.3739919354839
1264,1265,61.1995967741935,46.3911290322581
1265,1266,61.5927419354839,45.2116935483871
1266,1267,62.1824596774194,44.0977822580645
1267,1268,62.5756048387097,43.3770161290323
1268,1269,62.9032258064516,42.4596774193548
1269,1270,63.1653225806452,41.804435483871
1270,1271,63.1653225806452,41.4112903225806
1271,1272,63.2963709677419,40.7560483870968
1272,1273,63.4274193548387,39.9042338709677
1273,1274,63.4929435483871,39.3145161290323
1274,1275,63.5584677419355,39.1834677419355
1275,1276,63.6239919354839,39.1179435483871
1276,1277,63.6239919354839,39.1179435483871
1277,1278,63.6239919354839,39.1179435483871
1278,1279,63.6239919354839,39.1179435483871
1279,1280,63.6895161290323,38.9868951612903
1280,1281,63.820564516129,38.8558467741935
1281,1282,63.8860887096774,38.8558467741935
1282,1283,64.0826612903226,38.7903225806452
1283,1284,64.3447580645161,37.6764112903226
1284,1285,64.2137096774193,35.9727822580645
1285,1286,64.2792338709677,34.53125
1286,1287,64.4102822580645,33.4173387096774
1287,1288,64.5413306451613,32.9586693548387
1288,1289,64.5413306451613,32.8276209677419
1289,1290,64.4102822580645,32.4344758064516
1290,1291,64.4102822580645,31.8447580645161
1291,1292,64.4758064516129,31.320564516129
1292,1293,64.4102822580645,30.9274193548387
1293,1294,64.4102822580645,30.3377016129032
1294,1295,64.3447580645161,29.3548387096774
1295,1296,64.2137096774193,28.6340725806452
1296,1297,64.148185483871,28.2409274193548
1297,1298,64.148185483871,27.7167338709677
1298,1299,64.0826612903226,26.7338709677419
1299,1300,63.8860887096774,26.0131048387097
1300,1301,63.7550403225806,25.6854838709677
1301,1302,63.6895161290323,25.4889112903226
1302,1303,63.4274193548387,24.8991935483871
1303,1304,63.2308467741935,24.0473790322581
1304,1305,63.0997983870968,23.4576612903226
1305,1306,63.1653225806452,23.195564516129
1306,1307,63.0997983870968,23.0645161290323
1307,1308,63.0342741935484,22.7368951612903
1308,1309,62.7066532258065,21.9506048387097
1309,1310,62.3135080645161,21.2953629032258
1310,1311,62.116935483871,20.9677419354839
1311,1312,,
1312,1313,,
1313,1314,,
1314,1315,,
1315,1316,,
1316,1317,,
1317,1318,60.8064516129032,17.8225806451613
1318,1319,60.0201612903226,16.3155241935484
1319,1320,59.1028225806452,15.2671370967742
1320,1321,58.3820564516129,14.3497983870968
1321,1322,58.1199596774194,13.5635080645161
1322,1323,57.726814516129,12.6461693548387
1323,1324,56.875,11.7288306451613
1324,1325,56.1542338709677,11.0735887096774
1325,1326,55.5645161290323,10.6149193548387
1326,1327,54.9747983870968,9.95967741935484
1327,1328,,
1328,1329,54.1885080645161,9.30443548387097
1329,1330,53.9264112903226,8.91129032258064
1330,1331,12.9737903225806,50.2570564516129
1331,1332,52.9435483870968,7.73185483870968
1332,1333,52.6159274193548,7.40423387096774
1333,1334,52.2883064516129,7.27318548387097
1334,1335,51.6985887096774,6.94556451612903
1335,1336,50.8467741935484,6.48689516129032
1336,1337,50.0604838709677,6.09375
1337,1338,49.7328629032258,5.76612903225806
1338,1339,49.2741935483871,5.17641129032258
1339,1340,48.75,4.71774193548387
1340,1341,48.3568548387097,4.52116935483871
1341,1342,48.2258064516129,4.52116935483871
1342,1343,48.2258064516129,4.52116935483871
1343,1344,48.2258064516129,4.52116935483871
1344,1345,48.2258064516129,4.45564516129032
1345,1346,48.2258064516129,4.45564516129032
1346,1347,48.2258064516129,4.45564516129032
1347,1348,48.1602822580645,4.45564516129032
1348,1349,47.6360887096774,4.32459677419355
1349,1350,46.9808467741935,3.99697580645161
1350,1351,46.2600806451613,3.47278225806452
1351,1352,,
1352,1353,11.0735887096774,42.9183467741935
1353,1354,43.4425403225806,2.29334677419355
1354,1355,42.8528225806452,2.16229838709677
1355,1356,42.5252016129032,2.16229838709677
1356,1357,42.1975806451613,2.09677419354839
1357,1358,41.9354838709677,2.03125
1358,1359,41.7389112903226,1.96572580645161
1359,1360,41.6733870967742,1.96572580645161
1360,1361,41.6733870967742,1.96572580645161
1361,1362,41.6733870967742,1.96572580645161
1362,1363,41.6733870967742,1.96572580645161
1363,1364,41.6733870967742,1.96572580645161
1364,1365,41.6733870967742,1.90020161290323
1365,1366,,
1366,1367,,
1367,1368,,
1368,1369,36.5625,1.11391129032258
1369,1370,35.710685483871,1.17943548387097
1370,1371,35.0554435483871,0.982862903225806
1371,1372,34.0070564516129,0.851814516129032
1372,1373,32.8276209677419,0.917338709677419
1373,1374,31.7792338709677,0.982862903225806
1374,1375,30.6653225806452,1.04838709677419
1375,1376,29.7479838709677,0.720766129032258
1376,1377,28.6340725806452,0.786290322580645
1377,1378,27.7822580645161,1.04838709677419
1378,1379,27.0614919354839,1.31048387096774
1379,1380,26.2752016129032,1.44153225806452
1380,1381,25.7510080645161,1.5070564516129
1381,1382,25.226814516129,1.5070564516129
1382,1383,24.2439516129032,1.70362903225806
1383,1384,23.2610887096774,2.09677419354839
1384,1385,22.7368951612903,2.22782258064516
1385,1386,22.4747983870968,2.42439516129032
1386,1387,21.9506048387097,2.75201612903226
1387,1388,21.2298387096774,3.01411290322581
1388,1389,20.7711693548387,3.14516129032258
1389,1390,20.7056451612903,3.14516129032258
1390,1391,20.6401209677419,3.14516129032258
1391,1392,,
1392,1393,18.8054435483871,3.86592741935484
1393,1394,17.7570564516129,4.91431451612903
1394,1395,16.9052419354839,5.5695564516129
1395,1396,16.1189516129032,6.15927419354839
1396,1397,15.5292338709677,6.42137096774194
1397,1398,14.8739919354839,6.6179435483871
1398,1399,13.8911290322581,7.14213709677419
1399,1400,13.039314516129,7.86290322580645
1400,1401,12.3185483870968,8.6491935483871
1401,1402,11.335685483871,9.43548387096774
1402,1403,10.6804435483871,9.76310483870968
1403,1404,,
1404,1405,,
1405,1406,,
1406,1407,,
1407,1408,,
1408,1409,,
1409,1410,,
1410,1411,,
1411,1412,,
1412,1413,,
1413,1414,,
1414,1415,,
1415,1416,,
1416,1417,,
1417,1418,,
1418,1419,,
1419,1420,,
1420,1421,,
1421,1422,7.92842741935484,12.5151209677419
1422,1423,7.92842741935484,12.5151209677419
1423,1424,7.92842741935484,12.5806451612903
1424,1425,7.92842741935484,12.5151209677419
1425,1426,7.92842741935484,12.5806451612903
1426,1427,7.92842741935484,12.5806451612903
1427,1428,7.92842741935484,12.5151209677419
1428,1429,7.86290322580645,12.5151209677419
1429,1430,7.86290322580645,12.5151209677419
1430,1431,7.92842741935484,12.5806451612903
1431,1432,7.86290322580645,12.5806451612903
1432,1433,7.86290322580645,12.5806451612903
1433,1434,7.86290322580645,12.5806451612903
1434,1435,7.86290322580645,12.5806451612903
1435,1436,7.86290322580645,12.5806451612903
1436,1437,7.86290322580645,12.5806451612903
1437,1438,7.86290322580645,12.5806451612903
1438,1439,7.86290322580645,12.5806451612903
1439,1440,7.86290322580645,12.5806451612903
1440,1441,7.86290322580645,12.5806451612903
1441,1442,7.73185483870968,12.5806451612903
1442,1443,10.7459677419355,10.0252016129032
1443,1444,10.8114919354839,10.0252016129032
1444,1445,10.8114919354839,10.0252016129032
1445,1446,5.24193548387097,16.3810483870968
1446,1447,4.91431451612903,17.2983870967742
1447,1448,4.65221774193548,17.8225806451613
1448,1449,4.19354838709677,18.3467741935484
1449,1450,3.5383064516129,19.3296370967742
1450,1451,3.14516129032258,20.2469758064516
1451,1452,3.14516129032258,21.0332661290323
1452,1453,2.88306451612903,21.8850806451613
1453,1454,2.62096774193548,22.5403225806452
1454,1455,2.16229838709677,23.1300403225806
1455,1456,1.76915322580645,24.1784274193548
1456,1457,1.57258064516129,25.226814516129
1457,1458,1.63810483870968,25.8820564516129
1458,1459,1.83467741935484,26.7993951612903
1459,1460,1.63810483870968,28.0443548387097
1460,1461,1.24495967741935,29.1582661290323
1461,1462,0.917338709677419,30.0100806451613
1462,1463,0.786290322580645,30.9929435483871
1463,1464,0.720766129032258,31.648185483871
1464,1465,0.786290322580645,32.3689516129032
1465,1466,0.720766129032258,33.5483870967742
1466,1467,0.851814516129032,34.3346774193548
1467,1468,0.917338709677419,34.8588709677419
1468,1469,0.851814516129032,35.4485887096774
1469,1470,0.786290322580645,35.9072580645161
1470,1471,0.720766129032258,36.1693548387097
1471,1472,0.720766129032258,36.3004032258064
1472,1473,0.720766129032258,36.3004032258064
1473,1474,0.720766129032258,36.3004032258064
1474,1475,0.786290322580645,36.3004032258064
1475,1476,0.720766129032258,36.3004032258064
1476,1477,0.851814516129032,36.4314516129032
1477,1478,1.04838709677419,37.0866935483871
1478,1479,1.17943548387097,38.59375
1479,1480,1.31048387096774,39.7076612903226
1480,1481,,
1481,1482,,
1482,1483,1.44153225806452,40.4284274193548
1483,1484,1.44153225806452,40.4284274193548
1484,1485,1.44153225806452,40.4284274193548
1485,1486,,
1486,1487,1.63810483870968,35.9727822580645
1487,1488,1.44153225806452,40.4284274193548
1488,1489,1.44153225806452,40.4284274193548
1489,1490,1.44153225806452,40.4284274193548
1490,1491,1.44153225806452,40.4284274193548
1491,1492,1.44153225806452,40.4284274193548
1492,1493,,
1493,1494,,
1494,1495,,
1495,1496,,
1496,1497,,
1497,1498,,
1498,1499,,
1499,1500,,
1500,1501,,
1501,1502,,
1502,1503,,
1503,1504,,
1504,1505,,
1505,1506,,
1506,1507,,
1507,1508,,
1508,1509,,
1509,1510,,
1510,1511,,
1511,1512,,
1512,1513,,
1513,1514,,
1514,1515,,
1515,1516,,
1516,1517,,
1517,1518,,
1518,1519,,
1519,1520,,
1520,1521,,
1521,1522,,
1522,1523,,
1523,1524,,
1524,1525,,
1525,1526,,
1526,1527,,
1527,1528,,
1528,1529,,
1529,1530,,
1530,1531,,
1531,1532,,
1532,1533,,
1533,1534,,
1534,1535,,
1535,1536,,
1536,1537,,
1537,1538,,
1538,1539,,
1539,1540,,
1540,1541,,
1541,1542,,
1542,1543,2.03125,42.3286290322581
1543,1544,2.42439516129032,43.1149193548387
1544,1545,2.88306451612903,44.4909274193548
1545,1546,3.27620967741935,45.3427419354839
1546,1547,3.34173387096774,45.7358870967742
1547,1548,,
1548,1549,,
1549,1550,,
1550,1551,,
1551,1552,,
1552,1553,,
1553,1554,,
1554,1555,,
1555,1556,,
1556,1557,,
1557,1558,,
1558,1559,,
1559,1560,,
1560,1561,,
1561,1562,,
1562,1563,,
1563,1564,,
1564,1565,,
1565,1566,,
1566,1567,,
1567,1568,,
1568,1569,,
1569,1570,,
1570,1571,,
1571,1572,,
1572,1573,,
1573,1574,,
1574,1575,,
1575,1576,,
1576,1577,,
1577,1578,,
1578,1579,,
1579,1580,,
1580,1581,,
1581,1582,,
1582,1583,,
1583,1584,,
1584,1585,,
1585,1586,,
1586,1587,,
1587,1588,,
1588,1589,,
1589,1590,,
1590,1591,,
1591,1592,,
1592,1593,,
1593,1594,,
1594,1595,,
1595,1596,,
1596,1597,,
1597,1598,,
1598,1599,,
1599,1600,,
1600,1601,,
1601,1602,,
1602,1603,,
1603,1604,,
1604,1605,,
1605,1606,,
1606,1607,,
1607,1608,,
1608,1609,,
1609,1610,,
1610,1611,,
1611,1612,,
1612,1613,,
1613,1614,,
1614,1615,,
1615,1616,,
1616,1617,,
1617,1618,,
1618,1619,,
1619,1620,,
1620,1621,,
1621,1622,,
1622,1623,,
1623,1624,,
1624,1625,,
1625,1626,,
1626,1627,,
1627,1628,,
1628,1629,,
1629,1630,,
1630,1631,,
1631,1632,,
1632,1633,,
1633,1634,,
1634,1635,,
1635,1636,,
1636,1637,,
1637,1638,,
1638,1639,,
1639,1640,,
1640,1641,,
1641,1642,,
1642,1643,,
1643,1644,,
1644,1645,,
1645,1646,,
1646,1647,,
1647,1648,,
1648,1649,,
1649,1650,,
1650,1651,,
1651,1652,,
1652,1653,,
1653,1654,,
1654,1655,,
1655,1656,,
1656,1657,,
1657,1658,,
1658,1659,,
1659,1660,,
1660,1661,,
1661,1662,,
1662,1663,,
1663,1664,,
1664,1665,,
1665,1666,,
1666,1667,,
1667,1668,,
1668,1669,,
1669,1670,,
1670,1671,,
1671,1672,,
1672,1673,,
1673,1674,,
1674,1675,,
1675,1676,,
1676,1677,,
1677,1678,,
