#Video File Name: 02_exploration_2.avi
#Project ID: 02_exploration_2
#Event codes:
#1 also bal [hideg sarok]
#2 also kozepso
#3 also jobb
#4 kozepso bal
#5 kozepso kozep
#6 kozepso jobb
#7 felso bal
#8 felso kozep
#9 felso jobb [meleg sarok]
#q rejtekhely in [Q out]
#a napozas in [A out]
#z teljes test ki
#s inaktiv [S out]
#Field separator: ;
#MWrap version: Wed Feb 14 09:50:29 CET 2018
#id;description;key;time;duration;object id
1;kozepso bal;4;1.00;0.00;1
2;kozepso kozep;5;37.00;0.00;1
3;rejtekhely in [Q out];q;38.50;0.00;1
4;q-end;Q;41.00;2.50;1
5;felso jobb [meleg sarok];9;41.50;0.00;1
6;kozepso jobb;6;162.50;0.00;1
7;felso jobb [meleg sarok];9;209.50;0.00;1
8;kozepso jobb;6;214.50;0.00;1
9;also jobb;3;215.50;0.00;1
10;also kozepso;2;218.00;0.00;1
11;also bal [hideg sarok];1;219.50;0.00;1
12;kozepso bal;4;220.00;0.00;1
13;felso bal;7;222.50;0.00;1
#14;felso kozep;8;226.00;0.00;1
15;felso kozep;8;226.50;0.00;1
16;felso jobb [meleg sarok];9;228.50;0.00;1
17;kozepso jobb;6;243.50;0.00;1
18;also jobb;3;244.50;0.00;1
19;also kozepso;2;247.50;0.00;1
20;also bal [hideg sarok];1;248.50;0.00;1
21;also kozepso;2;251.50;0.00;1
#22;also jobb;3;253.00;0.00;1
23;kozepso kozep;5;254.00;0.00;1
24;felso kozep;8;255.50;0.00;1
25;felso bal;7;261.00;0.00;1
26;felso kozep;8;263.50;0.00;1
#27;felso bal;7;266.50;0.00;1
28;felso jobb [meleg sarok];9;269.00;0.00;1
29;kozepso jobb;6;277.50;0.00;1
30;also jobb;3;278.50;0.00;1
31;also kozepso;2;281.00;0.00;1
#32;also kozepso;2;283.00;0.00;1
33;also jobb;3;283.00;0.00;1
34;kozepso jobb;6;285.00;0.00;1
35;kozepso kozep;5;286.00;0.00;1
36;felso kozep;8;287.00;0.00;1
37;felso bal;7;294.50;0.00;1
38;felso kozep;8;306.50;0.00;1
39;felso jobb [meleg sarok];9;308.00;0.00;1
40;kozepso jobb;6;310.50;0.00;1
41;also jobb;3;312.00;0.00;1
42;also kozepso;2;315.00;0.00;1
43;also bal [hideg sarok];1;316.50;0.00;1
44;kozepso bal;4;323.50;0.00;1
45;felso bal;7;326.00;0.00;1
46;felso kozep;8;328.50;0.00;1
47;felso jobb [meleg sarok];9;330.50;0.00;1
48;kozepso jobb;6;339.00;0.00;1
49;also jobb;3;340.00;0.00;1
50;also kozepso;2;344.00;0.00;1
#51;also kozepso;2;346.00;0.00;1
52;also jobb;3;346.00;0.00;1
53;also kozepso;2;348.00;0.00;1
54;kozepso kozep;5;348.50;0.00;1
55;felso kozep;8;349.50;0.00;1
56;felso bal;7;356.00;0.00;1
57;felso kozep;8;358.50;0.00;1
58;felso jobb [meleg sarok];9;360.50;0.00;1
59;kozepso jobb;6;372.50;0.00;1
60;also jobb;3;374.00;0.00;1
61;also kozepso;2;376.00;0.00;1
#62;also bal [hideg sarok];1;377.50;0.00;1
63;also jobb;3;378.50;0.00;1
64;kozepso jobb;6;381.50;0.00;1
65;kozepso kozep;5;382.00;0.00;1
66;felso kozep;8;383.00;0.00;1
67;felso bal;7;384.50;0.00;1
68;felso kozep;8;391.50;0.00;1
69;felso jobb [meleg sarok];9;392.50;0.00;1
#70;kozepso jobb;6;395.50;0.00;1
#71;kozepso jobb;6;395.50;0.00;1
72;kozepso jobb;6;397.00;0.00;1
73;also jobb;3;398.00;0.00;1
74;also kozepso;2;401.00;0.00;1
75;also bal [hideg sarok];1;402.00;0.00;1
76;kozepso bal;4;408.00;0.00;1
#77;felso bal;7;410.50;0.00;1
#78;felso bal;7;413.00;0.00;1
79;felso bal;7;413.00;0.00;1
80;felso kozep;8;416.50;0.00;1
81;felso jobb [meleg sarok];9;418.00;0.00;1
82;kozepso jobb;6;427.00;0.00;1
83;also jobb;3;428.50;0.00;1
84;also kozepso;2;430.50;0.00;1
85;also jobb;3;431.00;0.00;1
86;kozepso jobb;6;435.00;0.00;1
87;kozepso kozep;5;435.50;0.00;1
88;felso kozep;8;437.00;0.00;1
89;felso bal;7;453.00;0.00;1
90;kozepso bal;4;453.00;0.00;1
91;felso bal;7;458.50;0.00;1
92;felso kozep;8;462.50;0.00;1
93;felso jobb [meleg sarok];9;464.50;0.00;1
94;kozepso jobb;6;474.50;0.00;1
95;also jobb;3;475.50;0.00;1
96;also kozepso;2;480.00;0.00;1
#97;also bal [hideg sarok];1;479.50;0.00;1
98;also bal [hideg sarok];1;480.50;0.00;1
99;kozepso bal;4;485.50;0.00;1
100;felso bal;7;487.50;0.00;1
101;felso kozep;8;491.00;0.00;1
102;felso jobb [meleg sarok];9;493.00;0.00;1
103;kozepso jobb;6;501.00;0.00;1
104;also jobb;3;502.00;0.00;1
105;also kozepso;2;504.50;0.00;1
106;also bal [hideg sarok];1;505.50;0.00;1
107;kozepso bal;4;511.00;0.00;1
108;felso bal;7;520.00;0.00;1
109;felso kozep;8;520.50;0.00;1
110;felso jobb [meleg sarok];9;535.50;0.00;1
111;kozepso jobb;6;538.00;0.00;1
112;also jobb;3;539.00;0.00;1
113;also kozepso;2;542.00;0.00;1
114;also bal [hideg sarok];1;542.50;0.00;1
115;kozepso bal;4;545.50;0.00;1
116;felso bal;7;547.50;0.00;1
117;felso kozep;8;558.50;0.00;1
118;felso jobb [meleg sarok];9;559.00;0.00;1
119;kozepso jobb;6;569.00;0.00;1
120;also jobb;3;570.50;0.00;1
121;also kozepso;2;572.00;0.00;1
122;also bal [hideg sarok];1;573.50;0.00;1
123;kozepso bal;4;575.50;0.00;1
124;felso bal;7;577.00;0.00;1
125;felso kozep;8;580.50;0.00;1
126;felso jobb [meleg sarok];9;584.00;0.00;1
127;kozepso jobb;6;620.50;0.00;1
128;rejtekhely in [Q out];q;621.00;0.00;1
129;q-end;Q;622.00;1.00;1
130;teljes test ki;z;622.50;0.00;1
131;also kozepso;2;622.00;0.00;1
132;also bal [hideg sarok];1;624.50;0.00;1
133;kozepso bal;4;626.50;0.00;1
134;felso bal;7;628.50;0.00;1
135;felso kozep;8;633.50;0.00;1
136;felso jobb [meleg sarok];9;639.00;0.00;1
137;kozepso jobb;6;642.00;0.00;1
138;also jobb;3;643.00;0.00;1
#139;also kozepso;2;645.50;0.00;1
140;also kozepso;2;647.00;0.00;1
141;also bal [hideg sarok];1;648.50;0.00;1
142;kozepso bal;4;651.50;0.00;1
143;felso bal;7;653.50;0.00;1
#144;felso kozep;8;656.50;0.00;1
145;felso kozep;8;671.50;0.00;1
146;felso jobb [meleg sarok];9;672.50;0.00;1
#147;kozepso jobb;6;701.50;0.00;1
148;kozepso jobb;6;702.50;0.00;1
149;also jobb;3;703.50;0.00;1
150;also kozepso;2;705.50;0.00;1
151;also bal [hideg sarok];1;707.00;0.00;1
152;kozepso bal;4;708.50;0.00;1
153;felso bal;7;711.00;0.00;1
154;felso kozep;8;718.50;0.00;1
155;felso jobb [meleg sarok];9;722.50;0.00;1
156;kozepso jobb;6;737.00;0.00;1
157;also jobb;3;738.00;0.00;1
158;also kozepso;2;742.00;0.00;1
159;also bal [hideg sarok];1;742.50;0.00;1
160;kozepso bal;4;748.50;0.00;1
161;felso bal;7;751.00;0.00;1
162;felso kozep;8;755.50;0.00;1
163;felso jobb [meleg sarok];9;757.00;0.00;1
#164;kozepso jobb;6;768.00;0.00;1
165;kozepso jobb;6;768.50;0.00;1
166;also jobb;3;770.00;0.00;1
167;also kozepso;2;773.00;0.00;1
168;also bal [hideg sarok];1;774.00;0.00;1
169;kozepso bal;4;778.50;0.00;1
170;felso bal;7;780.50;0.00;1
171;felso kozep;8;783.50;0.00;1
172;felso jobb [meleg sarok];9;784.50;0.00;1
#173;kozepso jobb;6;796.50;0.00;1
174;kozepso jobb;6;799.00;0.00;1
175;also jobb;3;800.00;0.00;1
176;also kozepso;2;802.00;0.00;1
177;also bal [hideg sarok];1;803.50;0.00;1
178;kozepso bal;4;805.50;0.00;1
179;felso bal;7;807.50;0.00;1
180;felso kozep;8;810.50;0.00;1
181;felso jobb [meleg sarok];9;812.00;0.00;1
182;kozepso jobb;6;828.00;0.00;1
183;also jobb;3;829.50;0.00;1
184;also kozepso;2;832.50;0.00;1
#185;also bal [hideg sarok];1;833.50;0.00;1
186;also bal [hideg sarok];1;833.50;0.00;1
187;kozepso bal;4;840.50;0.00;1
188;felso bal;7;843.00;0.00;1
189;felso kozep;8;869.00;0.00;1
190;felso jobb [meleg sarok];9;870.50;0.00;1
191;kozepso jobb;6;892.50;0.00;1
192;also jobb;3;893.00;0.00;1
193;also kozepso;2;897.00;0.00;1
194;also bal [hideg sarok];1;898.00;0.00;1
195;also kozepso;2;900.50;0.00;1
#196;also jobb;3;901.50;0.00;1
197;kozepso kozep;5;902.50;0.00;1
198;felso kozep;8;903.50;0.00;1
199;felso bal;7;910.50;0.00;1
200;felso kozep;8;918.50;0.00;1
201;felso jobb [meleg sarok];9;919.50;0.00;1
202;kozepso jobb;6;941.00;0.00;1
203;also jobb;3;942.50;0.00;1
204;also kozepso;2;945.00;0.00;1
205;also bal [hideg sarok];1;947.00;0.00;1
206;kozepso bal;4;952.00;0.00;1
207;felso bal;7;954.00;0.00;1
208;felso kozep;8;957.50;0.00;1
209;felso jobb [meleg sarok];9;964.00;0.00;1
210;kozepso jobb;6;989.00;0.00;1
211;also jobb;3;990.00;0.00;1
212;also kozepso;2;993.00;0.00;1
213;also bal [hideg sarok];1;994.00;0.00;1
214;kozepso bal;4;1000.50;0.00;1
#215;felso bal;7;1003.50;0.00;1
216;felso bal;7;1004.50;0.00;1
217;felso kozep;8;1008.00;0.00;1
218;felso jobb [meleg sarok];9;1010.00;0.00;1
219;kozepso jobb;6;1037.50;0.00;1
220;also jobb;3;1039.00;0.00;1
221;also kozepso;2;1045.00;0.00;1
222;also bal [hideg sarok];1;1046.00;0.00;1
223;kozepso bal;4;1051.00;0.00;1
224;felso bal;7;1052.50;0.00;1
225;felso kozep;8;1054.50;0.00;1
226;felso jobb [meleg sarok];9;1056.50;0.00;1
227;kozepso jobb;6;1059.50;0.00;1
228;also jobb;3;1063.00;0.00;1
229;also kozepso;2;1065.50;0.00;1
230;also bal [hideg sarok];1;1066.50;0.00;1
231;kozepso bal;4;1071.50;0.00;1
232;felso bal;7;1073.50;0.00;1
233;felso kozep;8;1085.50;0.00;1
234;felso jobb [meleg sarok];9;1086.50;0.00;1
235;kozepso jobb;6;1096.00;0.00;1
236;also jobb;3;1097.50;0.00;1
237;also kozepso;2;1100.50;0.00;1
238;also bal [hideg sarok];1;1101.50;0.00;1
239;kozepso bal;4;1104.00;0.00;1
240;felso bal;7;1105.50;0.00;1
241;felso kozep;8;1115.50;0.00;1
242;felso jobb [meleg sarok];9;1117.50;0.00;1
243;kozepso jobb;6;1140.00;0.00;1
244;also jobb;3;1141.00;0.00;1
245;also kozepso;2;1144.50;0.00;1
246;also bal [hideg sarok];1;1145.50;0.00;1
247;kozepso bal;4;1151.00;0.00;1
248;felso bal;7;1153.00;0.00;1
#249;felso kozep;8;1157.00;0.00;1
250;felso kozep;8;1158.00;0.00;1
251;felso jobb [meleg sarok];9;1160.00;0.00;1
252;felso kozep;8;1169.00;0.00;1
253;felso jobb [meleg sarok];9;1173.50;0.00;1
254;kozepso jobb;6;1174.50;0.00;1
255;also jobb;3;1175.50;0.00;1
256;also kozepso;2;1178.00;0.00;1
257;also bal [hideg sarok];1;1179.00;0.00;1
258;kozepso bal;4;1183.00;0.00;1
259;felso bal;7;1206.00;0.00;1
260;felso kozep;8;1206.00;0.00;1
#261;felso kozep;8;1237.50;0.00;1
262;felso jobb [meleg sarok];9;1237.00;0.00;1
263;kozepso jobb;6;1241.00;0.00;1
264;also jobb;3;1242.00;0.00;1
265;also kozepso;2;1244.00;0.00;1
266;also bal [hideg sarok];1;1245.50;0.00;1
267;kozepso bal;4;1249.50;0.00;1
268;felso bal;7;1252.50;0.00;1
269;felso kozep;8;1256.00;0.00;1
270;felso jobb [meleg sarok];9;1257.00;0.00;1
271;kozepso jobb;6;1268.50;0.00;1
272;also jobb;3;1269.50;0.00;1
273;also kozepso;2;1271.50;0.00;1
274;also bal [hideg sarok];1;1273.50;0.00;1
275;also kozepso;2;1279.00;0.00;1
276;also jobb;3;1280.50;0.00;1
277;kozepso jobb;6;1283.00;0.00;1
#278;felso jobb [meleg sarok];9;1352.50;0.00;1
279;felso jobb [meleg sarok];9;1358.00;0.00;1
280;felso kozep;8;1359.50;0.00;1
281;kozepso kozep;5;1361.50;0.00;1
282;kozepso bal;4;1372.50;0.00;1
283;also bal [hideg sarok];1;1373.00;0.00;1
284;kozepso bal;4;1373.50;0.00;1
285;felso bal;7;1376.00;0.00;1
286;felso kozep;8;1380.50;0.00;1
287;felso jobb [meleg sarok];9;1382.00;0.00;1
#288;kozepso jobb;6;1390.50;0.00;1
289;kozepso jobb;6;1394.00;0.00;1
290;also jobb;3;1395.50;0.00;1
291;also kozepso;2;1397.50;0.00;1
292;also bal [hideg sarok];1;1399.50;0.00;1
293;kozepso bal;4;1407.00;0.00;1
#294;felso bal;7;1410.50;0.00;1
295;felso bal;7;1412.00;0.00;1
296;felso kozep;8;1417.00;0.00;1
297;felso jobb [meleg sarok];9;1425.50;0.00;1
298;kozepso jobb;6;1431.50;0.00;1
299;also jobb;3;1433.50;0.00;1
300;also kozepso;2;1436.00;0.00;1
301;also bal [hideg sarok];1;1438.00;0.00;1
302;kozepso bal;4;1444.50;0.00;1
#303;felso bal;7;1448.50;0.00;1
304;felso bal;7;1450.00;0.00;1
305;felso kozep;8;1454.00;0.00;1
306;felso jobb [meleg sarok];9;1455.50;0.00;1
307;kozepso jobb;6;1484.00;0.00;1
308;also jobb;3;1486.00;0.00;1
309;also kozepso;2;1492.50;0.00;1
310;also bal [hideg sarok];1;1493.50;0.00;1
311;kozepso bal;4;1499.50;0.00;1
#312;felso bal;7;1504.00;0.00;1
313;felso bal;7;1514.00;0.00;1
314;felso kozep;8;1514.00;0.00;1
315;rejtekhely in [Q out];q;1514.50;0.00;1
316;q-end;Q;1517.00;2.50;1
317;teljes test ki;z;1517.50;0.00;1
#318;felso jobb [meleg sarok];9;1519.00;0.00;1
319;felso jobb [meleg sarok];9;1524.00;0.00;1
320;kozepso jobb;6;1528.00;0.00;1
321;also jobb;3;1529.50;0.00;1
322;also kozepso;2;1531.50;0.00;1
323;also bal [hideg sarok];1;1533.00;0.00;1
324;also kozepso;2;1535.00;0.00;1
325;also jobb;3;1536.50;0.00;1
326;kozepso jobb;6;1538.00;0.00;1
327;kozepso kozep;5;1543.50;0.00;1
328;felso kozep;8;1548.00;0.00;1
#329;felso bal;7;1560.50;0.00;1
330;kozepso kozep;5;1560.50;0.00;1
331;kozepso bal;4;1560.50;0.00;1
332;felso bal;7;1583.00;0.00;1
333;felso kozep;8;1585.00;0.00;1
334;felso jobb [meleg sarok];9;1593.50;0.00;1
335;kozepso jobb;6;1602.00;0.00;1
336;also jobb;3;1603.00;0.00;1
337;also kozepso;2;1608.00;0.00;1
338;also bal [hideg sarok];1;1609.50;0.00;1
339;kozepso bal;4;1610.50;0.00;1
340;felso bal;7;1614.00;0.00;1
341;felso kozep;8;1619.50;0.00;1
342;felso jobb [meleg sarok];9;1620.50;0.00;1
343;kozepso jobb;6;1627.50;0.00;1
344;also jobb;3;1628.50;0.00;1
#345;also kozepso;2;1630.50;0.00;1
346;also kozepso;2;1633.50;0.00;1
347;also bal [hideg sarok];1;1634.50;0.00;1
348;kozepso bal;4;1641.50;0.00;1
#349;felso bal;7;1644.00;0.00;1
350;felso bal;7;1645.00;0.00;1
351;felso kozep;8;1650.50;0.00;1
352;felso jobb [meleg sarok];9;1660.00;0.00;1
353;kozepso jobb;6;1688.00;0.00;1
354;also jobb;3;1689.00;0.00;1
355;also kozepso;2;1691.00;0.00;1
356;also bal [hideg sarok];1;1692.00;0.00;1
357;kozepso bal;4;1699.50;0.00;1
358;felso bal;7;1702.00;0.00;1
359;felso kozep;8;1707.00;0.00;1
360;felso jobb [meleg sarok];9;1712.00;0.00;1
361;kozepso jobb;6;1715.00;0.00;1
362;also jobb;3;1717.00;0.00;1
#363;also kozepso;2;1719.00;0.00;1
364;also kozepso;2;1719.50;0.00;1
365;also bal [hideg sarok];1;1720.00;0.00;1
366;kozepso bal;4;1724.50;0.00;1
367;felso bal;7;1727.50;0.00;1
368;felso kozep;8;1737.50;0.00;1
369;felso jobb [meleg sarok];9;1739.00;0.00;1
370;kozepso jobb;6;1753.50;0.00;1
371;also jobb;3;1755.00;0.00;1
372;also kozepso;2;1757.50;0.00;1
373;also bal [hideg sarok];1;1758.50;0.00;1
374;kozepso bal;4;1765.00;0.00;1
375;felso bal;7;1767.50;0.00;1
376;felso kozep;8;1775.00;0.00;1
377;felso jobb [meleg sarok];9;1776.00;0.00;1
378;kozepso jobb;6;1809.00;0.00;1
379;also jobb;3;1810.00;0.00;1
380;also kozepso;2;1812.50;0.00;1
381;also bal [hideg sarok];1;1814.50;0.00;1
382;kozepso bal;4;1820.00;0.00;1
383;felso bal;7;1822.00;0.00;1
384;felso kozep;8;1845.00;0.00;1
385;felso jobb [meleg sarok];9;1847.00;0.00;1
386;kozepso jobb;6;1875.50;0.00;1
387;also jobb;3;1876.50;0.00;1
#388;also jobb;3;1877.00;0.00;1
389;also kozepso;2;1878.50;0.00;1
390;also bal [hideg sarok];1;1880.00;0.00;1
391;also kozepso;2;1882.50;0.00;1
#392;kozepso bal;4;1883.50;0.00;1
393;also bal [hideg sarok];1;1883.00;0.00;1
394;kozepso bal;4;1884.00;0.00;1
395;felso bal;7;1886.00;0.00;1
396;felso kozep;8;1888.50;0.00;1
397;felso jobb [meleg sarok];9;1890.50;0.00;1
398;kozepso jobb;6;1897.00;0.00;1
399;also jobb;3;1898.00;0.00;1
#400;also kozepso;2;1900.50;0.00;1
#401;also kozepso;2;1900.50;0.00;1
402;also kozepso;2;1901.50;0.00;1
403;also bal [hideg sarok];1;1903.00;0.00;1
404;kozepso bal;4;1908.00;0.00;1
