Data from Transmission_09-23-50-572.txt Node
Date: Fri Aug 24 09:23:50 EEST 2018
User: tibor.sos
Spectrometer: USB4F01757
Scans to average: 10
Trigger mode: 4
Integration Time (sec): 1.000000E-2
Electric dark correction enabled: true
Boxcar width: 10
XAxis mode: Wavelengths
Number of Pixels in Spectrum: 3648
>>>>>Begin Spectral Data<<<<<
178.758	-0.65
178.974	-86.26
179.191	-107.15
179.407	8.21
179.624	4.24
179.84	9.16
180.057	-28.5
180.273	-34.93
180.489	-34.63
180.706	-105.25
180.922	-60.99
181.138	-18.62
181.355	35.47
181.571	26.68
181.787	22.04
182.004	38.78
182.22	45.24
182.436	49.84
182.653	45.7
182.869	12.83
183.085	7.17
183.301	23.95
183.518	32.91
183.734	39.28
183.95	31.73
184.166	50.94
184.383	51.38
184.599	72.38
184.815	77.2
185.031	65.34
185.247	79.67
185.463	88.85
185.68	80.32
185.896	79.54
186.112	125.22
186.328	133.98
186.544	157.65
186.76	154.49
186.976	139.91
187.192	165.78
187.408	212.28
187.624	211.43
187.84	135.71
188.056	135.76
188.272	127.84
188.488	122.57
188.704	95.69
188.92	90.69
189.136	66.86
189.352	60.96
189.568	79.02
189.784	80.2
190	71.48
190.216	79.81
190.432	36.42
190.648	26.06
190.864	-82.67
191.08	-61.78
191.296	-48.13
191.511	-100.86
191.727	-140.46
191.943	-136.01
192.159	-64.1
192.375	-52.41
192.591	-108.19
192.806	-185.31
193.022	-106
193.238	-176.42
193.454	-53.39
193.669	-34.74
193.885	-11.19
194.101	-77.48
194.317	-5.25
194.532	-77.53
194.748	21.01
194.964	293.2
195.18	108.78
195.395	60.86
195.611	38.19
195.827	122.4
196.042	362.65
196.258	303.99
196.473	275.33
196.689	401.26
196.905	566.35
197.12	1911.88
197.336	674.38
197.551	-667.84
197.767	187900
197.982	573.12
198.198	3428.77
198.414	3050.56
198.629	651.04
198.845	434.44
199.06	487.87
199.276	368.86
199.491	1348.65
199.707	392.08
199.922	258.07
200.137	290.19
200.353	295.56
200.568	209.8
200.784	191.49
200.999	184.88
201.215	184.17
201.43	140.2
201.645	120.09
201.861	102.53
202.076	114.83
202.291	141.45
202.507	67.22
202.722	49.4
202.937	44.84
203.153	21.03
203.368	11.74
203.583	-20.69
203.798	-55.36
204.014	-53.18
204.229	-34.44
204.444	-46.84
204.659	-275.48
204.875	-335.51
205.09	1076.47
205.305	-2537.74
205.52	1155.28
205.735	455.69
205.951	-3924
206.166	226.08
206.381	180.23
206.596	1209.09
206.811	648.54
207.026	202.58
207.241	132.98
207.457	-157.32
207.672	-142.98
207.887	-178.5
208.102	-33.19
208.317	-45.67
208.532	148.59
208.747	260.66
208.962	266.02
209.177	-167.11
209.392	-193.46
209.607	-52.15
209.822	8.95
210.037	29.13
210.252	41.7
210.467	-39.32
210.682	-7.12
210.897	-20.07
211.112	-62.8
211.326	-35.91
211.541	-108.01
211.756	-26.6
211.971	-62.27
212.186	-76.47
212.401	-95.24
212.616	-97.98
212.831	-94.25
213.045	-186.85
213.26	-129.56
213.475	-94.61
213.69	-146.3
213.905	-225.37
214.119	-811.31
214.334	8966.67
214.549	908.91
214.764	-1096.89
214.978	-405.8
215.193	-498.42
215.408	2566.67
215.622	-327.92
215.837	-2046.67
216.052	1306.9
216.266	414.43
216.481	554.93
216.696	263.99
216.91	-3627.27
217.125	-187.54
217.34	74.09
217.554	129.19
217.769	13.23
217.983	27.85
218.198	-45.86
218.412	1.61
218.627	91.54
218.842	105.27
219.056	34.4
219.271	40.68
219.485	70.94
219.7	71.17
219.914	70.23
220.129	74.69
220.343	21.36
220.558	15.87
220.772	29.17
220.986	54.13
221.201	-56.67
221.415	211.62
221.63	132.37
221.844	118.98
222.058	94.15
222.273	80.71
222.487	107.09
222.702	154.06
222.916	141.72
223.13	112.4
223.344	113.1
223.559	100.56
223.773	105.39
223.987	123.22
224.202	99.85
224.416	122.75
224.63	81.82
224.844	24.26
225.059	-12.46
225.273	-1259.6
225.487	773.6
225.701	210.82
225.915	164.72
226.13	161.46
226.344	158.07
226.558	123.64
226.772	96.93
226.986	102.24
227.2	114.27
227.415	134.66
227.629	164.74
227.843	162.4
228.057	138.14
228.271	122.34
228.485	123.63
228.699	127.3
228.913	111
229.127	97.83
229.341	99.24
229.555	105.74
229.769	83.88
229.983	132.59
230.197	81.31
230.411	160.94
230.625	63.33
230.839	72.99
231.053	78.25
231.267	211.11
231.481	42.72
231.695	-7.51
231.909	48.91
232.122	46.25
232.336	55.61
232.55	-36.31
232.764	-139.78
232.978	-135.75
233.192	-178.4
233.405	-200.91
233.619	-185.53
233.833	-63.72
234.047	-157.58
234.261	-448.26
234.474	-241.91
234.688	655.35
234.902	498.1
235.116	270.37
235.329	327.21
235.543	565.23
235.757	342.22
235.97	244.6
236.184	230.73
236.398	197.83
236.612	205.55
236.825	275.14
237.039	300
237.252	279.48
237.466	892.21
237.68	3147.46
237.893	-190500
238.107	-667.59
238.32	1847.83
238.534	-348.44
238.748	-148.14
238.961	-116.56
239.175	-175.49
239.388	-223.76
239.602	-552.79
239.815	-200.44
240.029	-313.95
240.242	-198.69
240.456	-84.72
240.669	-92.22
240.882	-81.59
241.096	-175.39
241.309	-72.41
241.523	-73.81
241.736	-116.48
241.95	554.75
242.163	-936.09
242.376	-234.22
242.59	-1053.6
242.803	10913.33
243.016	698.79
243.23	1688.24
243.443	12326.67
243.656	-1435.34
243.87	-268.54
244.083	-150.31
244.296	-100.61
244.509	-58.36
244.723	-31.98
244.936	-66.69
245.149	-135.86
245.362	-142.56
245.576	-52.58
245.789	-64.67
246.002	-45.7
246.215	-37.48
246.428	-22.8
246.641	18.14
246.855	11.44
247.068	12.37
247.281	-15.6
247.494	25.74
247.707	14.37
247.92	-23.23
248.133	-16.92
248.346	-11.26
248.559	17.01
248.772	-15.15
248.985	-5.38
249.198	-5.6
249.411	-4.24
249.624	14.62
249.837	20.52
250.05	11.06
250.263	14.87
250.476	-7.27
250.689	-0.23
250.902	3.84
251.115	-5.91
251.328	-2.59
251.541	7.35
251.754	21.9
251.967	22.54
252.18	18.58
252.393	22.21
252.605	24.3
252.818	18.88
253.031	15.69
253.244	16.74
253.457	3.55
253.67	5.05
253.882	12.82
254.095	19.53
254.308	16.7
254.521	14.62
254.733	19.12
254.946	28.3
255.159	26.59
255.372	23.46
255.584	21.88
255.797	20.69
256.01	8.21
256.222	0.56
256.435	-5.88
256.648	5.27
256.86	6.57
257.073	11.38
257.285	15.28
257.498	10.91
257.711	21.27
257.923	25.53
258.136	32.91
258.348	21.19
258.561	14.13
258.773	4.08
258.986	-0.76
259.198	-12.73
259.411	-48.79
259.623	-20.61
259.836	-19.08
260.048	-9.33
260.261	14.12
260.473	19.08
260.686	19.31
260.898	23.94
261.111	13.17
261.323	21.31
261.535	16.94
261.748	11.56
261.96	14.24
262.173	17.01
262.385	8.95
262.597	1.94
262.81	4.8
263.022	2.49
263.234	11.91
263.447	13.51
263.659	10.31
263.871	12.86
264.083	16
264.296	22.37
264.508	17.49
264.72	8.6
264.932	12.7
265.145	11.12
265.357	5.32
265.569	-2.14
265.781	-13.53
265.993	-18.06
266.205	-15.52
266.418	-26.78
266.63	-56.69
266.842	-9.25
267.054	-9
267.266	-9.08
267.478	-17.03
267.69	-4.5
267.902	-20.29
268.114	-20.39
268.326	-14.04
268.538	-26.33
268.75	-22.17
268.962	-30.2
269.174	-19.98
269.386	-6.1
269.598	5.87
269.81	11.93
270.022	17
270.234	25.08
270.446	25.86
270.658	25.55
270.87	31.62
271.082	38.04
271.294	33.26
271.506	28.16
271.718	23.28
271.929	20.9
272.141	19.09
272.353	25.87
272.565	27.4
272.777	31.54
272.989	32.02
273.2	36.33
273.412	37.87
273.624	30.79
273.836	31.25
274.047	32.85
274.259	34.85
274.471	39.12
274.683	34
274.894	32.49
275.106	32.18
275.318	25.37
275.529	18.89
275.741	16.58
275.953	32.43
276.164	40.17
276.376	43.06
276.588	47.14
276.799	51.31
277.011	49.56
277.222	49.52
277.434	39.8
277.646	21.34
277.857	24.29
278.069	35.12
278.28	26.54
278.492	19.14
278.703	11.33
278.915	11.14
279.126	2.73
279.338	-2.58
279.549	-1.83
279.761	7.42
279.972	7.01
280.183	3.46
280.395	-3.85
280.606	-12.7
280.818	-12.9
281.029	-15.01
281.24	-17.74
281.452	-25.72
281.663	-28.65
281.875	-28.2
282.086	-23.23
282.297	-32.79
282.508	-33.7
282.72	-33.29
282.931	-32.98
283.142	-40.29
283.354	-50.86
283.565	-45.44
283.776	-44.03
283.987	-65.32
284.199	-64.07
284.41	-39.5
284.621	-26.76
284.832	-19.93
285.043	-7.65
285.254	-9.04
285.466	-28.82
285.677	-25.64
285.888	-23.23
286.099	-19.55
286.31	-10.56
286.521	-19.99
286.732	-18.66
286.943	-12.18
287.154	-3.97
287.366	-8
287.577	-0.32
287.788	-2.8
287.999	-0.8
288.21	-8.13
288.421	1.19
288.632	-1.68
288.843	0.9
289.054	2.71
289.264	-0.07
289.475	-4.01
289.686	-0.52
289.897	14.49
290.108	18.88
290.319	16.47
290.53	16.83
290.741	11.94
290.952	16.93
291.163	18.79
291.373	12.01
291.584	8.15
291.795	3.6
292.006	-0.01
292.217	9.36
292.427	3.54
292.638	11.05
292.849	3.01
293.06	11.11
293.27	-1.69
293.481	-9.65
293.692	-7.61
293.903	-7.53
294.113	-8.92
294.324	-10.25
294.535	-19.37
294.745	-18.74
294.956	-19.93
295.167	-20.87
295.377	-18.45
295.588	-17.49
295.798	-10.65
296.009	-16.6
296.22	-14.75
296.43	-14.35
296.641	-27.54
296.851	-27.82
297.062	-39.22
297.272	-31.75
297.483	-38.31
297.693	-33.34
297.904	-28.56
298.114	-22.52
298.325	-16.86
298.535	-19.99
298.746	-20.71
298.956	-16.89
299.167	-19.45
299.377	-23.68
299.587	-19.28
299.798	-23.77
300.008	-26.19
300.219	-21.74
300.429	-17.88
300.639	-13.6
300.85	-8.62
301.06	-11.56
301.27	-0.25
301.481	5.38
301.691	2.31
301.901	2.81
302.111	4
302.322	7.48
302.532	2.51
302.742	-5.24
302.952	-6.93
303.163	-15.99
303.373	-18.06
303.583	-15.39
303.793	-14.74
304.003	-8.54
304.214	-3.41
304.424	-2.91
304.634	-8.83
304.844	-7.74
305.054	-2.48
305.264	-5.03
305.474	-0.99
305.684	-4.53
305.894	-1.96
306.104	0.65
306.314	-1.36
306.525	-2.71
306.735	-15.8
306.945	-16.26
307.155	-5.48
307.365	3.13
307.575	10.02
307.784	8.01
307.994	8.74
308.204	6.04
308.414	3.89
308.624	0.18
308.834	5.48
309.044	7.41
309.254	14
309.464	16.2
309.674	17.52
309.884	22.75
310.093	25.29
310.303	27.56
310.513	30.04
310.723	31.04
310.933	32.01
311.142	33.19
311.352	31.84
311.562	30.73
311.772	24.9
311.981	23.77
312.191	21.89
312.401	24.43
312.611	29.87
312.82	29.06
313.03	32.95
313.24	29.85
313.449	33.67
313.659	25.77
313.869	21.2
314.078	21.85
314.288	15.56
314.497	9.23
314.707	11.24
314.917	3.84
315.126	7.44
315.336	8.43
315.545	5.4
315.755	10.68
315.964	8.64
316.174	11.04
316.383	8.22
316.593	13.55
316.802	12.34
317.012	7.34
317.221	8.35
317.431	6.49
317.64	11.74
317.849	2.83
318.059	4.99
318.268	10.16
318.478	15.42
318.687	23.35
318.896	26.32
319.106	20.74
319.315	25.91
319.524	18.63
319.734	13.37
319.943	16.85
320.152	17.8
320.362	19.93
320.571	18.27
320.78	19.78
320.989	21.72
321.199	19.86
321.408	21.77
321.617	21.65
321.826	19.06
322.035	11.33
322.245	12.86
322.454	15.22
322.663	10.11
322.872	0.94
323.081	-5.37
323.29	-10.95
323.5	-11.29
323.709	-12.67
323.918	-9.07
324.127	-13.83
324.336	-16.02
324.545	-21.58
324.754	-25.42
324.963	-23.25
325.172	-24.85
325.381	-28.36
325.59	-29.26
325.799	-32.04
326.008	-41.83
326.217	-44.42
326.426	-32.85
326.635	-28.58
326.844	-23.43
327.053	-13.29
327.262	-2.48
327.47	-5.37
327.679	-0.58
327.888	5.58
328.097	7.88
328.306	10.86
328.515	16.24
328.724	18.76
328.932	17.59
329.141	20.47
329.35	19.58
329.559	24.95
329.768	29.53
329.976	30.79
330.185	26.86
330.394	34.03
330.602	33.13
330.811	25.3
331.02	24.56
331.229	20.24
331.437	17.5
331.646	10.87
331.855	13.37
332.063	13.8
332.272	7.62
332.48	0.65
332.689	-3.94
332.898	-0.9
333.106	3.59
333.315	1.76
333.523	2.43
333.732	0.15
333.94	5.05
334.149	3.83
334.357	-0.65
334.566	7.78
334.774	6.08
334.983	7.75
335.191	6.44
335.4	7.58
335.608	9.08
335.817	3.43
336.025	10.76
336.234	6.44
336.442	17.14
336.65	20.14
336.859	22.39
337.067	32.28
337.275	34.68
337.484	20.99
337.692	18.43
337.9	26.52
338.109	28.63
338.317	22.64
338.525	23.12
338.734	29.67
338.942	17.83
339.15	17.45
339.358	2.24
339.567	17.25
339.775	5.07
339.983	-0.47
340.191	-8.07
340.399	-15.32
340.608	1.83
340.816	-6.55
341.024	4.12
341.232	0.36
341.44	-7.56
341.648	-8.49
341.856	-4.29
342.064	3.11
342.272	-9.87
342.481	-6.72
342.689	-3.65
342.897	-5.11
343.105	-4.13
343.313	10.91
343.521	6.05
343.729	10.37
343.937	-1.26
344.145	2.34
344.353	6.31
344.56	11.86
344.768	10.97
344.976	7.41
345.184	3.12
345.392	-4.75
345.6	0.3
345.808	6.39
346.016	3.9
346.224	8.4
346.431	9.06
346.639	13.75
346.847	6.35
347.055	9.21
347.263	1.22
347.471	-0.14
347.678	-9.66
347.886	-12.51
348.094	-4.18
348.302	7.02
348.509	3.03
348.717	2.71
348.925	1.09
349.132	6.69
349.34	3.76
349.548	7.83
349.755	12.17
349.963	6.86
350.171	0.37
350.378	3.77
350.586	-3.74
350.793	-7.24
351.001	-4.31
351.209	3.37
351.416	6.06
351.624	9.31
351.831	5.26
352.039	-0.47
352.246	1.49
352.454	-4.72
352.661	-9.13
352.869	-8.03
353.076	-12.52
353.284	-5.66
353.491	-1.74
353.699	-9.98
353.906	-9.13
354.113	-4.76
354.321	-2.35
354.528	4.37
354.736	4.41
354.943	4.72
355.15	7.94
355.358	1.8
355.565	-8.06
355.772	-15.39
355.98	-14.06
356.187	-14.04
356.394	-11.94
356.601	-7.69
356.809	-5.34
357.016	3.23
357.223	8.69
357.43	6.49
357.638	3.64
357.845	3.22
358.052	4.48
358.259	8.22
358.466	-1.29
358.673	-6.42
358.881	-5.95
359.088	-8.15
359.295	-0.63
359.502	-14.8
359.709	-5.86
359.916	-0.37
360.123	1.59
360.33	-10.75
360.537	-11.55
360.744	-3.13
360.951	-8.91
361.158	-9.69
361.365	-10.97
361.572	-7.96
361.779	5.88
361.986	14.57
362.193	17.4
362.4	20.41
362.607	0.86
362.814	5.48
363.021	8.96
363.228	-3.44
363.435	-0.31
363.641	-8.81
363.848	-2.97
364.055	-4.19
364.262	6.5
364.469	-0.34
364.676	12.97
364.882	10.04
365.089	4.12
365.296	9.36
365.503	1.9
365.709	-5.22
365.916	-5.78
366.123	-13.56
366.33	-23.85
366.536	-21.38
366.743	-26.23
366.95	-13.64
367.156	-17.24
367.363	-16.1
367.57	-11.32
367.776	-12.2
367.983	-7.9
368.19	-5.61
368.396	-9.51
368.603	-16.65
368.809	-6.65
369.016	-6.14
369.222	-2.91
369.429	5.04
369.635	8.62
369.842	17.72
370.048	23.67
370.255	21.96
370.461	22.57
370.668	24.06
370.874	19.76
371.081	24.12
371.287	26.63
371.494	20.48
371.7	15.07
371.906	12.36
372.113	11.3
372.319	9.15
372.526	9.65
372.732	13.12
372.938	7.06
373.145	1.97
373.351	2.1
373.557	2.64
373.763	-3.56
373.97	-9.31
374.176	-7.64
374.382	-9.25
374.588	-16.41
374.795	-12.03
375.001	-21.83
375.207	-26.76
375.413	-31.53
375.62	-29.85
375.826	-19.73
376.032	-9.85
376.238	-6.01
376.444	-13.39
376.65	-6.59
376.856	-13.45
377.062	-21.83
377.269	-13.8
377.475	-29.76
377.681	-41.18
377.887	-41.41
378.093	-56.2
378.299	-50.31
378.505	-48.66
378.711	-52.3
378.917	-47.62
379.123	-48.88
379.329	-32.44
379.535	-28.3
379.741	-25.26
379.947	-28.9
380.152	-31.08
380.358	-33.82
380.564	-33.73
380.77	-38.52
380.976	-54.06
381.182	-43.68
381.388	-37.52
381.594	-38.79
381.799	-24.25
382.005	-24.81
382.211	-23.42
382.417	-8.7
382.623	-15.7
382.828	-12.66
383.034	-19.36
383.24	-19.92
383.445	-18.3
383.651	-29.45
383.857	-30.01
384.063	-19.69
384.268	-24.87
384.474	-11.53
384.68	-16.34
384.885	-9.39
385.091	-1.28
385.296	11.59
385.502	14.85
385.708	13.46
385.913	15.85
386.119	8.69
386.324	15.47
386.53	17.33
386.735	2.03
386.941	10.86
387.146	9.79
387.352	21.25
387.557	24.58
387.763	14.72
387.968	18.39
388.174	23.63
388.379	15.77
388.585	4.05
388.79	-6.56
388.996	-0.38
389.201	-9.72
389.406	-10.57
389.612	-23.71
389.817	-21.04
390.022	-20.48
390.228	-15.19
390.433	-6.85
390.638	-12.22
390.844	-7.56
391.049	-1.53
391.254	-6.83
391.459	-7.68
391.665	-18.12
391.87	-24.11
392.075	-4.66
392.28	-4.42
392.485	-13.16
392.691	-16.65
392.896	-12.97
393.101	-14.12
393.306	-6.73
393.511	-4.58
393.716	-3.36
393.922	-2.35
394.127	-6.03
394.332	-1.35
394.537	-0.3
394.742	-1.09
394.947	2.97
395.152	4.99
395.357	6.18
395.562	7.17
395.767	3.15
395.972	12.11
396.177	17.82
396.382	13.12
396.587	22.51
396.792	26.61
396.997	30.56
397.202	33.68
397.407	34.77
397.611	30.75
397.816	26.87
398.021	28.73
398.226	30.97
398.431	31.85
398.636	28.05
398.841	31.51
399.045	31.98
399.25	32
399.455	30.55
399.66	31.94
399.864	32.11
400.069	26.98
400.274	30.18
400.479	25.08
400.683	26.97
400.888	25.77
401.093	17.29
401.297	13.97
401.502	6.29
401.707	7
401.911	9.43
402.116	24.05
402.321	34.54
402.525	37.71
402.73	38.36
402.934	36.47
403.139	31.17
403.344	23.68
403.548	21.85
403.753	21.31
403.957	3.86
404.162	-1.23
404.366	13.72
404.571	3.41
404.775	-0.61
404.98	-5.7
405.184	-4.33
405.388	4.28
405.593	1.87
405.797	6.3
406.002	9.82
406.206	10.09
406.41	8.45
406.615	3.48
406.819	2.96
407.023	5.7
407.228	14.64
407.432	10.21
407.636	5.76
407.841	16.82
408.045	15.65
408.249	22.05
408.453	28.6
408.658	18.7
408.862	26.56
409.066	30.45
409.27	24.84
409.474	28.06
409.679	24.84
409.883	33.71
410.087	37.22
410.291	41.01
410.495	28.7
410.699	13.96
410.903	6.89
411.108	11.73
411.312	-3.99
411.516	-21.01
411.72	-9.21
411.924	6.04
412.128	-2.57
412.332	1.18
412.536	5.39
412.74	12.68
412.944	17.36
413.148	9.1
413.352	9.09
413.556	25.59
413.76	22.57
413.964	26.02
414.167	22.83
414.371	26.73
414.575	23.32
414.779	20.82
414.983	27.07
415.187	31.39
415.391	28.56
415.594	37.99
415.798	35.34
416.002	31.42
416.206	28.93
416.41	23.17
416.613	25.86
416.817	16.26
417.021	12.36
417.225	25.6
417.428	25.51
417.632	7.14
417.836	1.51
418.039	-6.47
418.243	-3.19
418.447	-16.18
418.65	-19.87
418.854	-18.31
419.057	3.6
419.261	5
419.465	0.21
419.668	14.13
419.872	15.63
420.075	17.8
420.279	13.19
420.482	13.8
420.686	18.68
420.889	17.6
421.093	32.63
421.296	23.25
421.5	5.18
421.703	-2.71
421.907	8.53
422.11	2.56
422.314	-0.02
422.517	-7.29
422.72	12.94
422.924	14.9
423.127	6.59
423.33	-10.23
423.534	-9.79
423.737	-5.48
423.94	-8.88
424.144	-1.21
424.347	6.43
424.55	14.13
424.754	6.33
424.957	1.83
425.16	-7.22
425.363	-20.58
425.567	-9.16
425.77	-0.85
425.973	15.43
426.176	9.05
426.379	9.61
426.582	18.59
426.786	29.27
426.989	13.32
427.192	14.63
427.395	16.47
427.598	19.78
427.801	14.61
428.004	11.5
428.207	13.6
428.41	7.75
428.613	5.57
428.816	8.21
429.019	9.3
429.222	5.94
429.425	12.36
429.628	17.12
429.831	13.68
430.034	17.31
430.237	12.58
430.44	13.6
430.643	12.62
430.846	9.01
431.049	2.01
431.252	9
431.454	9.49
431.657	12.45
431.86	13.04
432.063	12.19
432.266	11.51
432.469	10.46
432.671	9.52
432.874	14.49
433.077	4.62
433.28	11.65
433.482	19.73
433.685	17.14
433.888	13.41
434.09	4.53
434.293	-11.75
434.496	-17.03
434.698	-10.32
434.901	-4.76
435.104	-6.36
435.306	-5.9
435.509	-12.93
435.712	-15.87
435.914	-32.17
436.117	-32.08
436.319	-19.94
436.522	-23.14
436.724	-28.49
436.927	-29.76
437.129	-39.91
437.332	-36.29
437.534	-43.17
437.737	-61.99
437.939	-47.47
438.142	-52.19
438.344	-39.03
438.547	-28.74
438.749	-17.23
438.951	-30.78
439.154	-28.27
439.356	-22.02
439.558	-25.45
439.761	-19.89
439.963	-17.25
440.165	-14.13
440.368	-6.32
440.57	-25.04
440.772	-28.39
440.975	-38.51
441.177	-30.06
441.379	-18.32
441.581	-12.8
441.784	-22.56
441.986	-9.4
442.188	-13.38
442.39	-14.81
442.592	-18.14
442.795	-16.46
442.997	-17.55
443.199	-12.88
443.401	-15.71
443.603	-17.59
443.805	-27.72
444.007	-20.06
444.209	-19.88
444.411	-4.57
444.613	-6.34
444.815	5.14
445.017	10.24
445.219	15.72
445.421	15.28
445.623	12.3
445.825	6.73
446.027	7.16
446.229	0.39
446.431	15.62
446.633	19.32
446.835	22.6
447.037	23.35
447.239	23.74
447.441	27.05
447.643	17.45
447.844	14.61
448.046	29.15
448.248	27.58
448.45	26.1
448.652	20.83
448.853	24.73
449.055	25.88
449.257	28.57
449.459	33.49
449.66	34.02
449.862	30.08
450.064	35.3
450.266	33.41
450.467	35.1
450.669	27.76
450.871	18.85
451.072	30.6
451.274	27.75
451.475	33.49
451.677	36.4
451.879	31.8
452.08	26.68
452.282	33.22
452.483	29.96
452.685	29.54
452.886	39.77
453.088	33.75
453.289	15.72
453.491	-1.26
453.692	-22.8
453.894	-30.73
454.095	-16.53
454.297	-27.39
454.498	-8.51
454.7	-10.71
454.901	-10.84
455.102	-8.11
455.304	-10.47
455.505	-9.96
455.706	-16.86
455.908	-29.09
456.109	-23.3
456.31	-23.59
456.512	-43.98
456.713	-34.19
456.914	-31.53
457.116	-52.87
457.317	-47.34
457.518	-45.03
457.719	-32.53
457.921	-25.4
458.122	-38.13
458.323	-40.08
458.524	-28.79
458.725	-33.85
458.926	-39.71
459.128	-50.73
459.329	-43.73
459.53	-50.33
459.731	-56.99
459.932	-67.57
460.133	-54.22
460.334	-44.61
460.535	-37.27
460.736	-25.43
460.937	-40.88
461.138	-39.3
461.339	-32.42
461.54	-27.72
461.741	-19.2
461.942	-19.4
462.143	-8.12
462.344	-3.6
462.545	-4.53
462.746	-11.86
462.947	-5.02
463.148	1.45
463.348	13.38
463.549	11.38
463.75	2.96
463.951	11.2
464.152	11.87
464.353	6.24
464.553	18.65
464.754	25.32
464.955	20.02
465.156	31.47
465.356	26.49
465.557	27.06
465.758	24.74
465.959	27.12
466.159	27.76
466.36	20.75
466.561	31.26
466.761	25.33
466.962	29.68
467.163	34.06
467.363	30.85
467.564	30.49
467.764	35.63
467.965	40.81
468.166	36.43
468.366	43
468.567	37.99
468.767	38.85
468.968	29.86
469.168	32.59
469.369	27.91
469.569	24.37
469.77	24.75
469.97	13.31
470.17	12.17
470.371	12.15
470.571	15.6
470.772	12.96
470.972	18.36
471.172	16.46
471.373	10.36
471.573	11.5
471.773	12.52
471.974	9.76
472.174	8.49
472.374	17.78
472.575	17.21
472.775	24.96
472.975	11.41
473.175	16.17
473.376	9.39
473.576	13.82
473.776	19.61
473.976	15.11
474.177	25
474.377	16.43
474.577	15.93
474.777	11.52
474.977	4.95
475.177	5.53
475.377	3
475.577	7.43
475.777	10.67
475.978	8.69
476.178	7.26
476.378	6.27
476.578	10.19
476.778	3.94
476.978	1.43
477.178	8.11
477.378	10.62
477.578	14.78
477.778	6.44
477.977	6.09
478.177	7.56
478.377	5.8
478.577	9.85
478.777	9.28
478.977	11.08
479.177	13.63
479.377	11.62
479.577	8.4
479.776	6.67
479.976	3.18
480.176	3.09
480.376	3.78
480.576	4.81
480.775	-9.35
480.975	-7.55
481.175	-5.6
481.374	-6.09
481.574	-1.83
481.774	-2.08
481.974	0.94
482.173	1.17
482.373	-5.61
482.572	-2.82
482.772	-3.3
482.972	-2.43
483.171	-1.16
483.371	4.07
483.57	2.37
483.77	8.25
483.97	7.67
484.169	5.69
484.369	2.98
484.568	3.09
484.768	3.52
484.967	8.08
485.167	11.06
485.366	11.58
485.566	9.09
485.765	6.51
485.964	3.13
486.164	5.29
486.363	4.23
486.563	11.83
486.762	8.28
486.961	12.22
487.161	12.84
487.36	9.55
487.559	6.67
487.759	8.78
487.958	9.04
488.157	3.8
488.356	8.53
488.556	8.62
488.755	10.91
488.954	10.06
489.153	9.03
489.353	7.89
489.552	4.35
489.751	0.58
489.95	2.43
490.149	1.77
490.348	-1.65
490.548	-0.5
490.747	-4.7
490.946	0.07
491.145	-3.91
491.344	-3.33
491.543	-2.57
491.742	-6.36
491.941	-6.43
492.14	-7.61
492.339	-6.74
492.538	-9.34
492.737	-7.32
492.936	-9.64
493.135	-9.46
493.334	-12.23
493.533	-18.23
493.732	-12.15
493.931	-6.07
494.13	-10.51
494.328	-5.09
494.527	-4.01
494.726	-7.15
494.925	-7.01
495.124	-9.78
495.323	-6.4
495.521	-10.27
495.72	-6
495.919	-1.61
496.118	-3.69
496.316	-5.63
496.515	-5.86
496.714	-8.6
496.913	-5.45
497.111	-4.78
497.31	-7.4
497.509	-4.14
497.707	-0.33
497.906	-2.38
498.105	-7.11
498.303	-10.12
498.502	-16.1
498.7	-15.73
498.899	-19.35
499.097	-15.42
499.296	-13.74
499.495	-12.62
499.693	-10.64
499.892	-14.91
500.09	-19.94
500.289	-8.98
500.487	-13.95
500.686	-9.9
500.884	-9.6
501.082	-10.46
501.281	-14.34
501.479	-8.69
501.678	-7.54
501.876	-8.21
502.074	-5.38
502.273	-3.19
502.471	1.3
502.669	5.25
502.868	4.65
503.066	12.39
503.264	12.46
503.463	9.56
503.661	7.3
503.859	8.88
504.057	11.48
504.256	8.77
504.454	6.44
504.652	11.63
504.85	11.99
505.048	16.97
505.246	11.38
505.445	11.67
505.643	9.29
505.841	8.75
506.039	9.13
506.237	6.32
506.435	6.97
506.633	4.4
506.831	2.45
507.029	2.06
507.227	-2
507.425	-0.15
507.623	0.85
507.821	-0.99
508.019	0.69
508.217	1.23
508.415	6.8
508.613	4.78
508.811	4.42
509.009	1.86
509.207	-0.18
509.405	3.1
509.603	4.23
509.8	2.31
509.998	1.54
510.196	1.24
510.394	-0.31
510.592	2.82
510.79	0.81
510.987	2.64
511.185	3.86
511.383	1.74
511.581	-1.98
511.778	-0.03
511.976	-1.12
512.174	-5.46
512.371	-10.79
512.569	-12.88
512.767	-12.5
512.964	-16.67
513.162	-18.03
513.36	-18.98
513.557	-25.94
513.755	-26.38
513.952	-22.91
514.15	-23.23
514.348	-22.57
514.545	-22.84
514.743	-20.63
514.94	-15.01
515.138	-17.06
515.335	-14.68
515.533	-13.41
515.73	-13.88
515.927	-18.04
516.125	-15.59
516.322	-8.89
516.52	-6.29
516.717	-7.17
516.915	-8.2
517.112	-5.83
517.309	-5.59
517.507	-3.51
517.704	2.21
517.901	2.82
518.099	4.02
518.296	7.94
518.493	9.07
518.69	9.5
518.888	6.21
519.085	4.23
519.282	5.8
519.479	5.14
519.676	5.29
519.874	5.25
520.071	6.24
520.268	7.83
520.465	6.93
520.662	6.09
520.859	5.24
521.056	5.87
521.254	8.91
521.451	13.49
521.648	13.97
521.845	12.76
522.042	13.46
522.239	16.07
522.436	8.89
522.633	6.23
522.83	6.56
523.027	3.01
523.224	4.14
523.421	5.95
523.618	2.53
523.815	5.07
524.011	7.21
524.208	9.54
524.405	8.41
524.602	4.8
524.799	1.84
524.996	2.96
525.193	3.49
525.389	2.27
525.586	0.02
525.783	-4.78
525.98	-3.33
526.176	-3.63
526.373	-10.75
526.57	-5.1
526.767	-8.39
526.963	-7.08
527.16	2.66
527.357	-0.04
527.553	2.65
527.75	5.02
527.947	2.54
528.143	1.49
528.34	-5.59
528.537	-4.71
528.733	-2.85
528.93	-2.47
529.126	-2.07
529.323	-0.46
529.519	0.4
529.716	-3.31
529.912	-1.74
530.109	-3.16
530.305	-2.28
530.502	-0.59
530.698	-3.85
530.895	-4.07
531.091	-1.78
531.288	-5.66
531.484	-1.88
531.68	-2.4
531.877	-4.59
532.073	-4.38
532.269	-4.14
532.466	-1.09
532.662	-2.05
532.858	-4.18
533.055	-0.51
533.251	0.25
533.447	0.45
533.643	2.94
533.84	2.07
534.036	1.03
534.232	3.17
534.428	-0.95
534.624	0.02
534.821	0.93
535.017	6.33
535.213	5.16
535.409	6.4
535.605	2.7
535.801	-0.83
535.997	3.63
536.193	3.17
536.389	5.27
536.586	4.1
536.782	5.98
536.978	7.56
537.174	7
537.37	6.82
537.566	2.8
537.762	-2.97
537.958	0.63
538.153	0.65
538.349	-1.33
538.545	2.6
538.741	2.77
538.937	3.03
539.133	-1.34
539.329	-2.52
539.525	-5.71
539.721	-2.52
539.916	-0.94
540.112	-8.3
540.308	-2.8
540.504	-5.91
540.699	-1.9
540.895	-1.63
541.091	2.46
541.287	1.39
541.482	1.39
541.678	3.06
541.874	1.08
542.069	-0.24
542.265	1.61
542.461	3.96
542.656	3.65
542.852	5.07
543.048	4.31
543.243	6.35
543.439	8.77
543.634	9.75
543.83	7.92
544.025	8.25
544.221	11.97
544.417	10.47
544.612	11.61
544.807	11.65
545.003	8.43
545.198	5.05
545.394	7.17
545.589	10.05
545.785	9.89
545.98	10.61
546.176	11.14
546.371	10.05
546.566	8.38
546.762	6.92
546.957	6.65
547.152	9.6
547.348	7.89
547.543	5.65
547.738	1.85
547.933	1.08
548.129	-0.46
548.324	-0.67
548.519	-1.92
548.714	-4.04
548.91	-3.02
549.105	-3.02
549.3	-2.94
549.495	-2.88
549.69	-8.38
549.885	-7.88
550.08	-2.05
550.276	-3.21
550.471	1.31
550.666	2.34
550.861	2.88
551.056	-1.49
551.251	-4.27
551.446	-0.76
551.641	-0.29
551.836	3.67
552.031	4.46
552.226	8.09
552.421	9.77
552.616	10.32
552.811	14.44
553.006	10.39
553.201	9.77
553.395	11.47
553.59	9.45
553.785	8.89
553.98	8.37
554.175	5.28
554.37	4.16
554.565	2.14
554.759	0.92
554.954	1.11
555.149	4.17
555.344	5.18
555.538	1.55
555.733	3.09
555.928	6.9
556.122	8.51
556.317	5.75
556.512	3.52
556.706	1.27
556.901	-0.35
557.096	0.14
557.29	3.63
557.485	4.29
557.68	2.14
557.874	6.75
558.069	9.32
558.263	10.7
558.458	14.58
558.652	15.55
558.847	16.31
559.041	17.78
559.236	16.35
559.43	14.81
559.625	18.51
559.819	15.9
560.014	11.14
560.208	10.48
560.402	11.45
560.597	13.09
560.791	12.13
560.986	13.01
561.18	13.65
561.374	12
561.569	10.67
561.763	12.33
561.957	9.49
562.151	9.52
562.346	8.87
562.54	8.14
562.734	5.01
562.928	3.16
563.123	4.05
563.317	3.14
563.511	5.99
563.705	2.86
563.899	1.44
564.093	1.88
564.288	1.83
564.482	2.49
564.676	1.54
564.87	5.44
565.064	2.16
565.258	3.11
565.452	1.95
565.646	2.34
565.84	0.31
566.034	-1.04
566.228	-3.56
566.422	-2.7
566.616	-3.52
566.81	-3.97
567.004	-1.61
567.198	-1.67
567.392	-0.85
567.586	-6.16
567.779	-2.99
567.973	-0.61
568.167	1.66
568.361	1.57
568.555	1.04
568.749	-0.16
568.942	-3.13
569.136	0.83
569.33	-1.05
569.524	0.38
569.718	0.19
569.911	4.39
570.105	6.32
570.299	5.61
570.492	5.05
570.686	5.87
570.88	7.45
571.073	6.02
571.267	5.84
571.461	5.96
571.654	8.35
571.848	6.79
572.041	7.05
572.235	6.91
572.429	8.11
572.622	7.89
572.816	9.73
573.009	9.18
573.203	6.63
573.396	8.24
573.59	7.65
573.783	5.12
573.976	2.85
574.17	3.85
574.363	4.01
574.557	2.63
574.75	0.55
574.943	0.56
575.137	2.15
575.33	2.63
575.523	3.24
575.717	2.71
575.91	3.08
576.103	1.03
576.297	-0.7
576.49	-1.14
576.683	-1.54
576.876	-3.5
577.07	-3.08
577.263	-1.86
577.456	-1.3
577.649	-2.86
577.842	-0.04
578.036	1.63
578.229	0.95
578.422	1.86
578.615	2.54
578.808	4.01
579.001	5.65
579.194	4.79
579.387	5.33
579.58	4.41
579.773	4.14
579.966	4.12
580.159	6.1
580.352	7.3
580.545	7.13
580.738	7.15
580.931	7.6
581.124	8
581.317	5.11
581.51	4.39
581.703	5.77
581.896	5.21
582.088	5.41
582.281	7.3
582.474	7.59
582.667	8.83
582.86	8.42
583.053	6.32
583.245	8.99
583.438	5.93
583.631	7.1
583.824	8.27
584.016	9.75
584.209	8.48
584.402	8.72
584.594	9.92
584.787	12.45
584.98	12.3
585.172	13.77
585.365	14.61
585.558	13.87
585.75	14.05
585.943	14.23
586.135	13.38
586.328	11.87
586.52	12.9
586.713	11.32
586.906	10.35
587.098	9.92
587.291	9.74
587.483	9.7
587.675	11.01
587.868	9.62
588.06	8.18
588.253	10.33
588.445	11.26
588.638	9.26
588.83	8.77
589.022	9.23
589.215	8.35
589.407	10.66
589.599	11.39
589.792	12.03
589.984	11.78
590.176	10.29
590.368	10.49
590.561	8.68
590.753	9.21
590.945	9.65
591.137	9.23
591.33	7.97
591.522	11.17
591.714	9.38
591.906	11.45
592.098	12.92
592.29	10.59
592.482	8.11
592.674	8.09
592.867	6.88
593.059	6.89
593.251	8.12
593.443	8.39
593.635	8.33
593.827	7.2
594.019	6.61
594.211	6.39
594.403	4.75
594.595	6.44
594.787	7.41
594.979	7.92
595.17	8.64
595.362	8.19
595.554	6.94
595.746	7.05
595.938	6.9
596.13	5.4
596.322	6.66
596.513	5.93
596.705	8
596.897	6.64
597.089	8.61
597.281	7.28
597.472	5.25
597.664	3.55
597.856	5.24
598.048	5.59
598.239	4.89
598.431	4.63
598.623	2.44
598.814	-1.46
599.006	-0.12
599.197	0.84
599.389	1.74
599.581	1.01
599.772	-0.6
599.964	-0.07
600.155	-0.55
600.347	-1.89
600.538	-0.59
600.73	-1.92
600.921	-0.61
601.113	-4.11
601.304	-2.32
601.496	-1.18
601.687	0.08
601.879	-2.12
602.07	-0.41
602.262	1.3
602.453	1.69
602.644	1.37
602.836	3.45
603.027	2.22
603.218	1.6
603.41	0.3
603.601	1.89
603.792	3.73
603.983	2.97
604.175	4.06
604.366	5.39
604.557	5.84
604.748	5.5
604.94	5.18
605.131	5.27
605.322	5.02
605.513	5.43
605.704	7.03
605.895	8.59
606.086	6.98
606.278	6.43
606.469	7.04
606.66	8.73
606.851	9.21
607.042	8.55
607.233	8.14
607.424	8.54
607.615	7.73
607.806	8.44
607.997	8.34
608.188	8.57
608.379	8.29
608.57	7.95
608.761	9.01
608.952	9.05
609.142	10.5
609.333	10.34
609.524	10.79
609.715	9.66
609.906	9.33
610.097	8.75
610.287	7.96
610.478	7.22
610.669	8.17
610.86	7.34
611.051	8.43
611.241	11.19
611.432	10.68
611.623	11.47
611.813	9.62
612.004	8.81
612.195	9.2
612.385	8.13
612.576	7.64
612.767	6.99
612.957	6.01
613.148	5.37
613.338	3.61
613.529	2.59
613.72	1.13
613.91	0.88
614.101	0.99
614.291	4.07
614.482	4.68
614.672	2.88
614.863	3.31
615.053	2.52
615.243	-0.08
615.434	1.34
615.624	-1.53
615.815	0.45
616.005	0.34
616.195	0.42
616.386	-0.47
616.576	-0.24
616.766	-0.69
616.957	0.65
617.147	0.02
617.337	-0.48
617.528	-2.3
617.718	-2.79
617.908	-4.76
618.098	-4.31
618.289	-6.11
618.479	-6.33
618.669	-6.65
618.859	-5.26
619.049	-4.94
619.239	-3.9
619.43	-5.95
619.62	-5.59
619.81	-5.91
620	-5.14
620.19	-6.25
620.38	-4.97
620.57	-4.96
620.76	-4.28
620.95	-3.51
621.14	-1.52
621.33	0.03
621.52	2.85
621.71	1.75
621.9	3.97
622.09	4.21
622.28	4.92
622.47	5
622.659	5.14
622.849	3.78
623.039	2.37
623.229	1.75
623.419	3.72
623.609	4.26
623.799	3.41
623.988	3.24
624.178	3.01
624.368	1.86
624.558	2.87
624.747	1.97
624.937	2.22
625.127	0.51
625.316	-1.41
625.506	-2.72
625.696	-0.85
625.885	-2.1
626.075	-1.63
626.265	-1.85
626.454	-1.27
626.644	-1.35
626.833	-1.23
627.023	1.16
627.212	0.22
627.402	1.62
627.591	2.88
627.781	2.88
627.97	2.68
628.16	2.19
628.349	3.05
628.539	1.18
628.728	2.76
628.918	1.18
629.107	1.74
629.296	2.75
629.486	3.62
629.675	5.28
629.865	4.67
630.054	3.87
630.243	2.07
630.432	-0.11
630.622	0.75
630.811	1.66
631	0.38
631.19	2.28
631.379	0.13
631.568	-0.37
631.757	-0.25
631.946	0.32
632.136	1.6
632.325	1.98
632.514	4.43
632.703	3.37
632.892	3.75
633.081	3.93
633.27	5.18
633.459	4.65
633.648	2.45
633.837	4.63
634.026	5.12
634.215	7.5
634.404	9.31
634.593	9.27
634.782	8.14
634.971	8.71
635.16	7.89
635.349	8.73
635.538	8.38
635.727	7.14
635.916	5.81
636.105	6.79
636.294	7.09
636.482	5.83
636.671	4.12
636.86	4.32
637.049	5.51
637.238	4.69
637.426	4.53
637.615	4.07
637.804	3.04
637.993	2.22
638.181	1.34
638.37	1.49
638.559	0.24
638.747	-0.22
638.936	0.05
639.125	1.1
639.313	0.14
639.502	0.41
639.691	1.8
639.879	0.91
640.068	-1.19
640.256	-1.61
640.445	-1.19
640.633	0.58
640.822	-0.67
641.01	-1.79
641.199	-1.46
641.387	-0.36
641.576	1.48
641.764	3.71
641.953	3.25
642.141	2.74
642.329	3.89
642.518	4.26
642.706	6.03
642.894	4.95
643.083	4.03
643.271	4.56
643.459	4.53
643.648	4.04
643.836	5.97
644.024	6.54
644.213	7.4
644.401	7.86
644.589	7.49
644.777	8.8
644.965	10.66
645.154	10.26
645.342	8.96
645.53	8.96
645.718	7.9
645.906	8.4
646.094	9.49
646.282	7.52
646.47	8.8
646.658	9.33
646.846	8.27
647.034	9.01
647.223	8.62
647.411	9.01
647.599	8.28
647.786	6.46
647.974	5.98
648.162	4.88
648.35	2.55
648.538	1.95
648.726	2.17
648.914	1.29
649.102	1.54
649.29	3.3
649.478	2.97
649.665	2.55
649.853	2.18
650.041	1.82
650.229	3.74
650.417	3.52
650.604	1.28
650.792	3.9
650.98	1.8
651.168	0.2
651.355	0.14
651.543	0.92
651.731	1.76
651.918	1.89
652.106	2.74
652.294	4.34
652.481	5.8
652.669	5.67
652.856	4.53
653.044	5.3
653.231	3.55
653.419	3.56
653.606	4.17
653.794	5.37
653.981	4.66
654.169	4.14
654.356	2.71
654.544	3.84
654.731	2.99
654.919	3.36
655.106	4.57
655.294	4.48
655.481	5.45
655.668	6.8
655.856	6.33
656.043	5.98
656.23	5.59
656.418	6
656.605	4.81
656.792	5.23
656.979	4.11
657.167	4.32
657.354	5.06
657.541	3.17
657.728	3.1
657.916	3.12
658.103	2.12
658.29	2.83
658.477	3.83
658.664	3.95
658.851	5.37
659.038	5.03
659.225	4.84
659.412	4.88
659.6	3.93
659.787	5.73
659.974	4.03
660.161	5.55
660.348	3.62
660.535	6.98
660.722	5.82
660.909	5.82
661.095	7.17
661.282	6.08
661.469	7.42
661.656	7.24
661.843	8.78
662.03	9.63
662.217	9.92
662.404	8.53
662.59	7.76
662.777	6.39
662.964	7.06
663.151	8
663.338	8.54
663.524	7.8
663.711	6.58
663.898	7.38
664.085	6.33
664.271	6.58
664.458	4.89
664.645	6.18
664.831	7.03
665.018	5.54
665.204	7.81
665.391	7.82
665.578	7.32
665.764	5.18
665.951	3.63
666.137	3.54
666.324	3.57
666.51	3.47
666.697	4.9
666.883	5.25
667.07	4.18
667.256	2.74
667.443	3.44
667.629	3.47
667.816	3.65
668.002	2.54
668.188	4.45
668.375	5.44
668.561	3.99
668.747	1.78
668.934	2.61
669.12	1.06
669.306	1.11
669.493	0.95
669.679	2.59
669.865	3.66
670.051	4.32
670.238	4.23
670.424	3.97
670.61	2.97
670.796	2.36
670.982	2.26
671.169	2.47
671.355	0.24
671.541	0.61
671.727	0.16
671.913	0.43
672.099	-2.34
672.285	-5.02
672.471	-4.2
672.657	-2.41
672.843	-1.43
673.029	-1.32
673.215	-1
673.401	0.73
673.587	-1.03
673.773	-1
673.959	0.39
674.145	0.81
674.331	2.12
674.517	1.38
674.703	0.55
674.888	1.77
675.074	1.23
675.26	3.69
675.446	2.13
675.632	2.88
675.817	3.63
676.003	4.41
676.189	5.76
676.375	6.57
676.56	6.78
676.746	6.23
676.932	4.77
677.117	3.09
677.303	1.6
677.489	1.81
677.674	1.06
677.86	-1.08
678.046	-1.16
678.231	-1.47
678.417	-0.28
678.602	0.01
678.788	-1.7
678.973	-0.77
679.159	1.39
679.344	3.86
679.53	3.95
679.715	2.37
679.901	2.08
680.086	1.78
680.272	1.21
680.457	1.03
680.643	-0.43
680.828	-0.06
681.013	0.46
681.199	0.98
681.384	2.57
681.569	3.29
681.755	3.9
681.94	3.35
682.125	2.21
682.31	3.23
682.496	4.42
682.681	5.29
682.866	5.35
683.051	3.03
683.237	2.3
683.422	2.41
683.607	2.91
683.792	2.99
683.977	2.47
684.162	1.45
684.347	1.45
684.532	2.07
684.717	2.38
684.903	1.88
685.088	1.74
685.273	1.36
685.458	0.16
685.643	0.95
685.828	-0.41
686.013	0.52
686.198	-1.28
686.382	-2.01
686.567	-0.69
686.752	-2.2
686.937	-1.21
687.122	-1.41
687.307	-2.04
687.492	-1.34
687.677	-1.77
687.861	-0.63
688.046	0.47
688.231	1.36
688.416	2.72
688.601	3.78
688.785	5.57
688.97	6.47
689.155	6.89
689.339	7.19
689.524	5.68
689.709	5.53
689.893	5.46
690.078	6.18
690.263	5.05
690.447	3.52
690.632	3.31
690.816	2.42
691.001	3.23
691.186	2.36
691.37	2.8
691.555	4.94
691.739	4.5
691.924	4.38
692.108	4.24
692.293	3.51
692.477	3.28
692.661	2.59
692.846	0.78
693.03	0.91
693.215	2.11
693.399	3.69
693.583	4.3
693.768	3.88
693.952	2.44
694.136	3.4
694.321	3.78
694.505	4.76
694.689	6.26
694.873	5.66
695.058	5.71
695.242	5.13
695.426	3.29
695.61	3.33
695.794	4.15
695.979	2.75
696.163	2.49
696.347	2.38
696.531	2.21
696.715	3.37
696.899	2.9
697.083	1.83
697.267	1.29
697.451	2.95
697.635	3.66
697.819	4.91
698.003	4.33
698.187	3.47
698.371	4.07
698.555	3.09
698.739	3.88
698.923	4.07
699.107	5.95
699.291	6.65
699.475	6.3
699.659	5.52
699.842	6.08
700.026	5.24
700.21	4.57
700.394	4.46
700.578	4.53
700.761	4
700.945	5.43
701.129	4.71
701.313	4.05
701.496	5.34
701.68	3.89
701.864	4.04
702.047	5.27
702.231	6.08
702.415	5.95
702.598	3.3
702.782	4.19
702.965	2.5
703.149	1.92
703.333	1.87
703.516	1.97
703.7	2.13
703.883	2.61
704.067	2.04
704.25	1.35
704.434	0.2
704.617	-0
704.801	-1.65
704.984	-2.01
705.167	-3.04
705.351	-4.69
705.534	-3.85
705.718	-4.07
705.901	-5.92
706.084	-6.14
706.268	-5.57
706.451	-4.97
706.634	-5.26
706.817	-6.06
707.001	-7.54
707.184	-6.76
707.367	-7.19
707.55	-6.73
707.734	-6.52
707.917	-5.98
708.1	-5
708.283	-3.55
708.466	-2.14
708.649	-1.11
708.832	-0.22
709.015	1.68
709.199	2.87
709.382	3.04
709.565	4.29
709.748	6.17
709.931	4.64
710.114	3.06
710.297	3.92
710.48	4.25
710.663	4.79
710.846	5.59
711.028	5.24
711.211	4.1
711.394	3.24
711.577	2.91
711.76	1.09
711.943	1.32
712.126	0.94
712.309	0.37
712.491	1.13
712.674	0.01
712.857	1.65
713.04	0.12
713.222	-0.18
713.405	-1.68
713.588	-1.27
713.771	-0.79
713.953	-0.54
714.136	-0.05
714.319	0.14
714.501	0.88
714.684	1.08
714.866	1.04
715.049	2.31
715.232	1.85
715.414	1.55
715.597	4.03
715.779	3.45
715.962	4.24
716.144	3.83
716.327	3.62
716.509	4.44
716.692	2.05
716.874	2.55
717.057	4.31
717.239	4.95
717.421	4.03
717.604	3.69
717.786	5.18
717.968	3.65
718.151	2.28
718.333	0.1
718.515	1.06
718.698	0.8
718.88	0.67
719.062	0.44
719.244	1.39
719.427	-0.73
719.609	0.31
719.791	-0.22
719.973	0.18
720.155	-1.93
720.338	-2.13
720.52	-0.8
720.702	-1.7
720.884	-1.98
721.066	-1.85
721.248	-5.03
721.43	-5.67
721.612	-7.34
721.794	-3.69
721.976	-3.23
722.158	-1.66
722.34	-2.58
722.522	-2.4
722.704	-1.15
722.886	-0.54
723.068	-1.08
723.25	1.44
723.432	0.71
723.614	0.91
723.796	0.36
723.977	1.74
724.159	1.77
724.341	0.14
724.523	-1.03
724.705	-1.38
724.886	-2.41
725.068	1.23
725.25	3.19
725.432	3.87
725.613	0.94
725.795	1.91
725.977	1.76
726.158	1.86
726.34	1.3
726.522	0.96
726.703	1.98
726.885	1.98
727.066	-0.41
727.248	0.85
727.43	1.04
727.611	1.09
727.793	0.81
727.974	-0.56
728.156	-0.13
728.337	-0.2
728.519	-2.56
728.7	-0.79
728.882	-2.12
729.063	-3.28
729.244	-4.24
729.426	-3.97
729.607	-4.91
729.788	-4.21
729.97	-2.95
730.151	-3.93
730.332	-4.24
730.514	-5.65
730.695	-4.71
730.876	-3.01
731.058	-3.73
731.239	-4.01
731.42	-4.47
731.601	-5.78
731.782	-5.55
731.964	-5.24
732.145	-2.69
732.326	-2.18
732.507	-4.47
732.688	-3.53
732.869	-2.34
733.05	-1.11
733.231	-0.51
733.412	-0.72
733.593	-1.37
733.774	-1.56
733.955	0.77
734.136	1.48
734.317	1.78
734.498	1.74
734.679	2.82
734.86	1.09
735.041	0.99
735.222	1.39
735.403	3.12
735.584	3.98
735.765	4.24
735.946	2.68
736.126	2.02
736.307	4.61
736.488	4.4
736.669	1.56
736.849	0.08
737.03	1.47
737.211	2.12
737.392	2.98
737.572	1.68
737.753	-0.71
737.934	-1.54
738.114	-0.4
738.295	-1.56
738.476	-3.25
738.656	-1.77
738.837	-2.1
739.017	-1.91
739.198	-2.94
739.378	-0.77
739.559	-2.16
739.74	-2.11
739.92	-0.54
740.1	-2.09
740.281	-4.14
740.461	-2.86
740.642	-0.7
740.822	-3.2
741.003	-2.7
741.183	-3.33
741.363	-2.04
741.544	-0.36
741.724	-2.3
741.904	-3.72
742.085	-4.12
742.265	-3.85
742.445	-3.97
742.626	-3.15
742.806	-2.95
742.986	-3.06
743.166	-4.19
743.347	-3.36
743.527	-0.51
743.707	-2.58
743.887	-3.28
744.067	-2.12
744.247	-1.49
744.427	-2.92
744.608	-1.37
744.788	0.21
744.968	1.4
745.148	1.56
745.328	0.95
745.508	2.22
745.688	2.21
745.868	2.83
746.048	3.34
746.228	4.82
746.408	3.64
746.588	3.26
746.767	5.25
746.947	6
747.127	4.51
747.307	2.28
747.487	4.4
747.667	4.28
747.847	5.19
748.026	4.77
748.206	5.25
748.386	4.98
748.566	3.36
748.745	2.14
748.925	3.04
749.105	4.13
749.285	4.79
749.464	5.28
749.644	6.25
749.824	6.28
750.003	4.06
750.183	3.27
750.362	4.03
750.542	2.49
750.722	0.66
750.901	1.31
751.081	2.15
751.26	3.14
751.44	4.4
751.619	2.9
751.799	2.35
751.978	0.9
752.158	1.65
752.337	0.19
752.516	0.68
752.696	-1.13
752.875	-0.65
753.055	-0.13
753.234	0.84
753.413	1.85
753.593	2.2
753.772	3.24
753.951	5.07
754.13	4.44
754.31	2.95
754.489	3
754.668	3.14
754.847	2.39
755.027	1.86
755.206	2.22
755.385	3.23
755.564	4.99
755.743	4.91
755.922	3.85
756.101	5.17
756.28	5.43
756.46	5.4
756.639	2.73
756.818	1.79
756.997	2.19
757.176	1.55
757.355	0.88
757.534	1.08
757.713	1.13
757.892	1.08
758.07	2.87
758.249	2.97
758.428	3.17
758.607	3.45
758.786	4.2
758.965	3.95
759.144	3.64
759.323	1.89
759.501	1.74
759.68	2.13
759.859	1.82
760.038	2.01
760.216	1.94
760.395	3.06
760.574	3.26
760.753	3.57
760.931	3.64
761.11	4.05
761.289	3.53
761.467	2.38
761.646	2.39
761.824	2.58
762.003	1.15
762.182	0.64
762.36	0.16
762.539	-0.11
762.717	0.54
762.896	0.93
763.074	1.23
763.253	2.53
763.431	4.18
763.61	4.7
763.788	3.7
763.966	4.11
764.145	4.95
764.323	5.32
764.502	3.78
764.68	3.34
764.858	1.94
765.037	2.51
765.215	2.26
765.393	1.35
765.571	1.43
765.75	3.02
765.928	2.32
766.106	1.75
766.284	-0.43
766.463	-1.19
766.641	-1.31
766.819	0.38
766.997	0.16
767.175	-1.81
767.353	-2.8
767.531	-1.62
767.71	-1.71
767.888	-2.99
768.066	-3.71
768.244	-3.82
768.422	-3
768.6	0.47
768.778	0.05
768.956	0.3
769.134	1.05
769.312	1.21
769.489	0.52
769.667	1.97
769.845	4.15
770.023	6.57
770.201	5.9
770.379	5.9
770.557	5.69
770.735	5.79
770.912	4.97
771.09	6.37
771.268	5.89
771.446	5.03
771.623	5.53
771.801	5.85
771.979	6.04
772.157	4.58
772.334	1.62
772.512	3
772.69	3.32
772.867	4.01
773.045	4.09
773.222	5.36
773.4	6.17
773.577	5.74
773.755	4.06
773.933	5
774.11	6.26
774.288	5.42
774.465	6.13
774.643	5.47
774.82	5.73
774.997	4.78
775.175	5.28
775.352	7.04
775.53	7.37
775.707	7.29
775.884	7.37
776.062	8.95
776.239	6.99
776.416	9.05
776.594	7.57
776.771	6.39
776.948	4.99
777.125	5.06
777.303	3.03
777.48	2.71
777.657	2.68
777.834	2.78
778.012	3.48
778.189	3.86
778.366	4.49
778.543	1.81
778.72	3.72
778.897	5.8
779.074	3.19
779.251	3.08
779.428	3.2
779.605	2.01
779.782	0.63
779.959	0.69
780.136	-0.96
780.313	0.85
780.49	-0.06
780.667	1.49
780.844	-0.27
781.021	1.08
781.198	0.85
781.375	-0.64
781.552	-4.17
781.728	-5.71
781.905	-7.57
782.082	-5.1
782.259	-4.5
782.436	-7.53
782.612	-9.68
782.789	-8.3
782.966	-9.35
783.143	-9.04
783.319	-6.74
783.496	-6.32
783.673	-6.6
783.849	-6.45
784.026	-6.77
784.203	-6.14
784.379	-7.42
784.556	-7.49
784.732	-7.56
784.909	-5.92
785.085	-5.34
785.262	-4.08
785.438	0.47
785.615	0.28
785.791	0.29
785.968	0.87
786.144	2.89
786.321	3.03
786.497	0.94
786.673	1.2
786.85	0.22
787.026	0.16
787.203	-0.69
787.379	-1.07
787.555	-3.6
787.731	-4.43
787.908	-4.91
788.084	-4.84
788.26	-3.79
788.437	-2.95
788.613	-5.18
788.789	-4.37
788.965	-4.2
789.141	-8.3
789.317	-8.43
789.494	-9.99
789.67	-10.86
789.846	-9.33
790.022	-10.4
790.198	-7.68
790.374	-6.17
790.55	-5.75
790.726	-8.23
790.902	-6.48
791.078	-4.25
791.254	-4.19
791.43	-3.18
791.606	-3.62
791.782	-3.06
791.958	-3.68
792.134	-5.48
792.31	-6.05
792.486	-6.25
792.661	-4.94
792.837	-3.59
793.013	-2.33
793.189	-1.6
793.365	-2.19
793.54	-2.64
793.716	-0.39
793.892	-0.74
794.068	-2.31
794.243	-2.98
794.419	-3.26
794.595	-4.08
794.77	-5.15
794.946	-1.56
795.122	0.06
795.297	0.76
795.473	1.67
795.648	3.09
795.824	4.62
796	8.01
796.175	7.73
796.351	6.07
796.526	5.38
796.702	4.88
796.877	5.72
797.052	9.62
797.228	7.31
797.403	4.54
797.579	4.71
797.754	4.07
797.929	5.46
798.105	8.06
798.28	7.76
798.455	8.69
798.631	5.95
798.806	5.51
798.981	7.22
799.157	4.77
799.332	3.58
799.507	5.63
799.682	6.15
799.858	7
800.033	8
800.208	7.53
800.383	8.45
800.558	9.07
800.733	7.05
800.908	8.14
801.083	9.76
801.258	8.66
801.434	10.99
801.609	12.44
801.784	12.1
801.959	13.44
802.134	12.49
802.309	11.99
802.484	8.26
802.658	7.37
802.833	5.56
803.008	7.5
803.183	4.16
803.358	1.71
803.533	2.21
803.708	1.38
803.883	-0.2
804.057	-4.72
804.232	-5.01
804.407	-3.68
804.582	-1.71
804.756	-2.79
804.931	-3.82
805.106	-6.65
805.281	-4.56
805.455	-6.62
805.63	-7.26
805.805	-6.41
805.979	-3.63
806.154	-2.66
806.328	-3.08
806.503	0.66
806.678	-1.92
806.852	-1.76
807.027	-1.23
807.201	-3.86
807.376	-0.37
807.55	3
807.725	4.78
807.899	5.18
808.074	6.21
808.248	4.67
808.422	5.67
808.597	7.56
808.771	8.15
808.946	7.96
809.12	11.49
809.294	9.35
809.468	9.44
809.643	10.6
809.817	11.24
809.991	11.91
810.166	12.25
810.34	11.73
810.514	14.34
810.688	13.21
810.862	13.77
811.037	14.41
811.211	12.68
811.385	12.09
811.559	9.09
811.733	4.73
811.907	4.19
812.081	3.27
812.255	0.58
812.429	-1.03
812.603	-5.22
812.777	-6.51
812.951	-4.98
813.125	-6.43
813.299	-10.09
813.473	-12.07
813.647	-8.86
813.821	-8.53
813.995	-7.33
814.169	-11.34
814.343	-9.47
814.516	-6.95
814.69	-7.51
814.864	-10.16
815.038	-5.04
815.212	-0.2
815.385	2.22
815.559	4.18
815.733	4.41
815.907	4.77
816.08	9.57
816.254	9.94
816.428	8.5
816.601	9.92
816.775	9.83
816.948	11.08
817.122	12.6
817.296	11.81
817.469	9.01
817.643	9.63
817.816	11.18
817.99	9.43
818.163	7.37
818.337	3.63
818.51	7.54
818.684	6.13
818.857	2.12
819.031	0.78
819.204	-1.84
819.377	-2.61
819.551	-2.19
819.724	-4.99
819.897	-2.4
820.071	-1.64
820.244	-5.8
820.417	-4.67
820.591	-4.29
820.764	-0.51
820.937	1.7
821.11	3.15
821.284	5.01
821.457	10.96
821.63	14.46
821.803	14.84
821.976	21.04
822.149	22.51
822.322	20.58
822.496	19.11
822.669	20.21
822.842	21.24
823.015	18.76
823.188	19.51
823.361	21.71
823.534	16.67
823.707	16
823.88	15.23
824.053	13.82
824.226	13.75
824.399	13.95
824.571	11.7
824.744	11.87
824.917	11.95
825.09	5.48
825.263	2.19
825.436	4.23
825.608	-1.4
825.781	-3.04
825.954	-0.37
826.127	0.39
826.299	-0.38
826.472	-0.15
826.645	4.74
826.818	5.89
826.99	2.38
827.163	6.7
827.336	9.21
827.508	10.17
827.681	11.52
827.853	13.06
828.026	11.64
828.198	14.66
828.371	16.57
828.544	16.49
828.716	16.22
828.889	14.74
829.061	11.62
829.233	13.04
829.406	10.49
829.578	8.81
829.751	9.56
829.923	7.97
830.096	8.48
830.268	7.94
830.44	6.31
830.613	8.25
830.785	9.66
830.957	5.1
831.129	9.66
831.302	8.02
831.474	5.94
831.646	7.6
831.818	5.27
831.991	4.7
832.163	2.16
832.335	4.08
832.507	3.97
832.679	5.14
832.851	1.12
833.023	0.79
833.195	0.84
833.368	-0.16
833.54	2.55
833.712	4.08
833.884	8.32
834.056	6.99
834.228	6.81
834.4	4.06
834.571	4.8
834.743	-0.64
834.915	-1.06
835.087	-1.05
835.259	-4.03
835.431	-4.96
835.603	-8.44
835.775	-8.22
835.946	-7.35
836.118	-3.99
836.29	-7.45
836.462	-7.73
836.634	-6.52
836.805	-9.57
836.977	-9.23
837.149	-7.56
837.32	-9.6
837.492	-11.53
837.664	-7.44
837.835	-7.8
838.007	-10.9
838.179	-10.97
838.35	-4.08
838.522	2.32
838.693	3.84
838.865	2.91
839.036	-0.36
839.208	1.03
839.379	4.54
839.551	4.18
839.722	3
839.894	5.07
840.065	8.48
840.237	10.29
840.408	12.72
840.579	15.49
840.751	13.63
840.922	12.53
841.093	8.12
841.265	6.81
841.436	10.21
841.607	12.64
841.778	15.32
841.95	9.76
842.121	9.33
842.292	8.79
842.463	11.26
842.635	13.92
842.806	21.48
842.977	20.49
843.148	18.13
843.319	20.85
843.49	20.95
843.661	18.73
843.832	17
844.003	21.94
844.174	19.51
844.345	20.68
844.516	17.7
844.687	20.6
844.858	25.67
845.029	23.97
845.2	25.77
845.371	23.05
845.542	24.6
845.713	20.03
845.884	18.17
846.055	14.35
846.225	12.92
846.396	1.24
846.567	4.75
846.738	2.45
846.909	0.11
847.079	1.95
847.25	10.12
847.421	9.45
847.591	-1.18
847.762	0.19
847.933	-4.77
848.103	2.6
848.274	-0.85
848.445	-5.57
848.615	-8.55
848.786	-11.19
848.956	-4.65
849.127	-1.9
849.297	4.83
849.468	5.07
849.638	5.7
849.809	5.77
849.979	9.31
850.15	5.16
850.32	10.7
850.491	11.87
850.661	16.88
850.831	13.73
851.002	16.8
851.172	21.04
851.342	19.54
851.513	18.99
851.683	19.81
851.853	22.8
852.024	22.96
852.194	19.33
852.364	19.98
852.534	21.28
852.705	20.52
852.875	16.58
853.045	17.07
853.215	19.05
853.385	24.4
853.555	23.09
853.725	25
853.895	18.06
854.066	18.99
854.236	17.2
854.406	14.07
854.576	14.32
854.746	9.54
854.916	17.39
855.086	20.27
855.256	17.3
855.425	21.63
855.595	25.3
855.765	29.12
855.935	26.86
856.105	21.42
856.275	23.34
856.445	23.97
856.614	25.48
856.784	28.75
856.954	28.56
857.124	31.03
857.294	26.8
857.463	36.5
857.633	30.6
857.803	26.56
857.972	30.09
858.142	30.61
858.312	40.99
858.481	31.1
858.651	28.9
858.821	28.84
858.99	25.36
859.16	18.69
859.329	21.89
859.499	25.57
859.668	30.85
859.838	32.73
860.007	36.85
860.177	38.03
860.346	37.33
860.516	31.85
860.685	28.26
860.854	31.58
861.024	24.62
861.193	27.28
861.363	27.57
861.532	27.27
861.701	22.84
861.87	18.78
862.04	21.12
862.209	21.58
862.378	24.3
862.547	26.51
862.717	26.54
862.886	25.93
863.055	20.19
863.224	14.48
863.393	10.53
863.563	8.01
863.732	9.02
863.901	-2.25
864.07	1.31
864.239	3.74
864.408	3.32
864.577	5.03
864.746	4.27
864.915	4.01
865.084	4.29
865.253	3.37
865.422	-0.49
865.591	2.63
865.76	0.76
865.929	-4.53
866.097	-8.01
866.266	-7.54
866.435	-12.7
866.604	-4.45
866.773	1.7
866.942	1
867.11	0.32
867.279	-9.02
867.448	6.79
867.617	10.6
867.785	5.63
867.954	-4.41
868.123	-3.01
868.291	-4.37
868.46	-0.94
868.629	-1.28
868.797	-4.2
868.966	-2.4
869.134	-5.3
869.303	-3.29
869.472	-5.24
869.64	-8.37
869.809	-10.74
869.977	8.04
870.146	-0.64
870.314	-8.26
870.482	-2.27
870.651	-12.4
870.819	-11.05
870.988	-9.84
871.156	-15.27
871.324	-17.47
871.493	-18.23
871.661	-12.1
871.829	-7.77
871.998	-16.39
872.166	-29.8
872.334	-29.74
872.502	-25.37
872.671	-30.54
872.839	-11.97
873.007	-1.9
873.175	-4.29
873.343	-5.51
873.512	-25.66
873.68	-23.33
873.848	-23.49
874.016	-22.32
874.184	-21.47
874.352	-23.44
874.52	-13.81
874.688	-19.3
874.856	-16.26
875.024	-6.9
875.192	-19.54
875.36	-23.1
875.528	-15.59
875.696	-1.87
875.864	6.14
876.032	4.2
876.199	-0.55
876.367	-11.52
876.535	-20.52
876.703	-12.8
876.871	1.26
877.039	10.02
877.206	13.88
877.374	14.27
877.542	11.23
877.71	13.61
877.877	17.09
878.045	3.37
878.213	7.19
878.38	23.89
878.548	28.82
878.715	45.87
878.883	47.64
879.051	56.85
879.218	42.46
879.386	35.48
879.553	38.22
879.721	42.15
879.888	49.03
880.056	49.5
880.223	44.41
880.391	29.77
880.558	26.11
880.726	37.25
880.893	40.52
881.06	30.01
881.228	35.42
881.395	32.32
881.562	40.11
881.73	37.25
881.897	4.63
882.064	5.46
882.231	-23.91
882.399	-25.69
882.566	-28.31
882.733	-7.57
882.9	-59.02
883.068	-50.83
883.235	-45.55
883.402	-57.19
883.569	-28.44
883.736	9.67
883.903	18.39
884.07	19.86
884.237	6.6
884.404	8.14
884.571	21.29
884.738	20.69
884.905	25.81
885.072	17.48
885.239	25.08
885.406	38.39
