Data from Transmission_09-35-20-506.txt Node
Date: Fri Aug 24 09:35:20 EEST 2018
User: tibor.sos
Spectrometer: USB4F01757
Scans to average: 10
Trigger mode: 4
Integration Time (sec): 1.000000E-2
Electric dark correction enabled: true
Boxcar width: 10
XAxis mode: Wavelengths
Number of Pixels in Spectrum: 3648
>>>>>Begin Spectral Data<<<<<
178.758	-28.25
178.974	-103.05
179.191	-234.81
179.407	-83.37
179.624	-94.8
179.84	-84.6
180.057	-75.33
180.273	-37.18
180.489	-40.04
180.706	-116.51
180.922	-90.85
181.138	-57.34
181.355	21.43
181.571	37.81
181.787	51.92
182.004	67.65
182.22	25.88
182.436	27.96
182.653	36.7
182.869	39.51
183.085	32.59
183.301	18.46
183.518	25.15
183.734	44.08
183.95	60.51
184.166	87.44
184.383	93.79
184.599	76.51
184.815	49.83
185.031	36.07
185.247	50.12
185.463	75.74
185.68	78.82
185.896	57.26
186.112	107.71
186.328	105.95
186.544	102.87
186.76	128.4
186.976	112.4
187.192	117.01
187.408	133.51
187.624	146.52
187.84	127.49
188.056	112.58
188.272	112.99
188.488	117.25
188.704	109.93
188.92	106.13
189.136	90.22
189.352	120.32
189.568	154.99
189.784	164.64
190	152.26
190.216	166.68
190.432	168.26
190.648	166.01
190.864	324.78
191.08	254.01
191.296	140.04
191.511	148.89
191.727	204.93
191.943	240.88
192.159	148.96
192.375	181.68
192.591	244.88
192.806	340.96
193.022	185.35
193.238	381.76
193.454	328.04
193.669	595.39
193.885	454.68
194.101	538.87
194.317	341.18
194.532	1368.54
194.748	-1084.03
194.964	646.46
195.18	236.64
195.395	182.71
195.611	151.3
195.827	215.72
196.042	347.79
196.258	200.8
196.473	98.97
196.689	78.64
196.905	103.06
197.12	-176.24
197.336	-94.66
197.551	109.02
197.767	-30200
197.982	49.88
198.198	-336.99
198.414	312.36
198.629	200.92
198.845	114.81
199.06	140.38
199.276	-2.37
199.491	-180.54
199.707	42.63
199.922	70.12
200.137	65.58
200.353	51.86
200.568	74.55
200.784	85.67
200.999	128.41
201.215	215.01
201.43	185.15
201.645	173.71
201.861	181.34
202.076	162.83
202.291	197.87
202.507	169.2
202.722	146.69
202.937	221.01
203.153	169.23
203.368	158.04
203.583	104.3
203.798	145.01
204.014	124.34
204.229	131.91
204.444	204.15
204.659	493.33
204.875	846.73
205.09	-1591.6
205.305	3724.53
205.52	-1149.59
205.735	-947.31
205.951	6488
206.166	-375.19
206.381	-229.38
206.596	-3014.55
206.811	-709.94
207.026	-371.22
207.241	-78.53
207.457	536.45
207.672	1552.07
207.887	-1672.9
208.102	-368.68
208.317	-430.44
208.532	1033.9
208.747	-798.91
208.962	-362.16
209.177	610.74
209.392	157.63
209.607	133.1
209.822	26.44
210.037	2.92
210.252	23.27
210.467	-69.06
210.682	16.36
210.897	13.5
211.112	-65.48
211.326	-9.24
211.541	-20.49
211.756	6.58
211.971	-61.09
212.186	-16.41
212.401	-58.44
212.616	-84.52
212.831	-71.06
213.045	-164.12
213.26	-117.22
213.475	-123.35
213.69	-178.42
213.905	-324.3
214.119	-1443.44
214.334	11281.48
214.549	1124.7
214.764	-1468.39
214.978	-717.41
215.193	-985.77
215.408	5646.15
215.622	-799.25
215.837	-4804.44
216.052	2402.3
216.266	566.58
216.481	673.6
216.696	478.89
216.91	-5642.42
217.125	-399.39
217.34	-537.82
217.554	-195.68
217.769	19.95
217.983	7.76
218.198	-111.11
218.412	-358.2
218.627	435.19
218.842	319.45
219.056	275.83
219.271	278.24
219.485	378.84
219.7	450.22
219.914	373.83
220.129	778.25
220.343	447.97
220.558	353.34
220.772	396.4
220.986	391.64
221.201	562.86
221.415	-561.73
221.63	-190.07
221.844	-162.38
222.058	-172.8
222.273	-125.12
222.487	-44.3
222.702	5.59
222.916	24.5
223.13	43.17
223.344	33.62
223.559	55.75
223.773	86.32
223.987	89.58
224.202	112.89
224.416	213.43
224.63	194.66
224.844	179.57
225.059	180.77
225.273	923.23
225.487	-1185.6
225.701	-53.47
225.915	-51.36
226.13	-11.6
226.344	6.73
226.558	17.76
226.772	44.43
226.986	84.93
227.2	105.12
227.415	100.21
227.629	118.6
227.843	144.62
228.057	124.51
228.271	117.83
228.485	109.43
228.699	122.82
228.913	132.51
229.127	133.09
229.341	152.31
229.555	208.38
229.769	295.35
229.983	402.69
230.197	372.94
230.411	507.57
230.625	480.68
230.839	245.13
231.053	171.35
231.267	401.06
231.481	94.84
231.695	81.08
231.909	102.48
232.122	87.96
232.336	43.75
232.55	-1.78
232.764	-56.06
232.978	1.12
233.192	-48.55
233.405	-268.09
233.619	-165.62
233.833	-131.47
234.047	-273.7
234.261	-562.15
234.474	-225.73
234.688	547.91
234.902	506.03
235.116	288.89
235.329	218.49
235.543	303.5
235.757	264.41
235.97	181.66
236.184	172.6
236.398	139.17
236.612	167.74
236.825	226.47
237.039	338.97
237.252	349.11
237.466	1379.22
237.68	4938.98
237.893	-250600
238.107	-1009.49
238.32	1925.22
238.534	-548.2
238.748	-325.31
238.961	-229.37
239.175	-260.88
239.388	-234.87
239.602	-394.72
239.815	-183.46
240.029	-349.68
240.242	-164.01
240.456	-70.71
240.669	-40.33
240.882	-46.03
241.096	-54.8
241.309	-37.34
241.523	-88.14
241.736	5.95
241.95	-72.63
242.163	401.5
242.376	195.58
242.59	382.4
242.803	-4226.67
243.016	-175.83
243.23	-472.27
243.443	-1880
243.656	130.83
243.87	33.77
244.083	48.72
244.296	52.09
244.509	60.04
244.723	65.08
244.936	35.33
245.149	2.01
245.362	-28.31
245.576	-8.61
245.789	1.39
246.002	42.01
246.215	39.19
246.428	33.35
246.641	-1.68
246.855	-19.14
247.068	-8.78
247.281	-50.26
247.494	6.45
247.707	10.57
247.92	1.05
248.133	0.28
248.346	8.9
248.559	14.75
248.772	16.79
248.985	19.14
249.198	16.33
249.411	15.05
249.624	4.51
249.837	14.14
250.05	7.58
250.263	8.42
250.476	6.77
250.689	14.39
250.902	9.32
251.115	14.06
251.328	15.77
251.541	23.06
251.754	32.4
251.967	29.74
252.18	28.8
252.393	31.85
252.605	31.43
252.818	27.9
253.031	22.92
253.244	16.45
253.457	19.26
253.67	17.13
253.882	21.97
254.095	27.68
254.308	29.62
254.521	24.96
254.733	27.66
254.946	23.58
255.159	18.23
255.372	17.03
255.584	14.05
255.797	12.73
256.01	0.55
256.222	-3.19
256.435	-10.37
256.648	3.23
256.86	-2.07
257.073	0.84
257.285	-17.3
257.498	-18.34
257.711	-16.7
257.923	-17.23
258.136	-15.34
258.348	-11.67
258.561	-7.08
258.773	-23.99
258.986	-31.96
259.198	-55.67
259.411	-89.73
259.623	-70.97
259.836	-47.04
260.048	-26.75
260.261	1.46
260.473	9.45
260.686	7.34
260.898	-0.26
261.111	-12.21
261.323	1.64
261.535	-6.88
261.748	12.16
261.96	15.77
262.173	23.42
262.385	28.3
262.597	32.16
262.81	24.5
263.022	16.42
263.234	28.44
263.447	34.29
263.659	38.03
263.871	42.61
264.083	47.95
264.296	49.21
264.508	45.58
264.72	34.44
264.932	31.56
265.145	28.64
265.357	36.55
265.569	32.43
265.781	34.95
265.993	49.55
266.205	56.53
266.418	46.27
266.63	25.03
266.842	31.06
267.054	28.71
267.266	42.77
267.478	43.43
267.69	38.95
267.902	23.2
268.114	29.26
268.326	21.59
268.538	4.74
268.75	-1.86
268.962	1.76
269.174	0.73
269.386	15.74
269.598	21.72
269.81	17.07
270.022	13.25
270.234	13.1
270.446	19.21
270.658	18.22
270.87	25.59
271.082	28.83
271.294	25.28
271.506	20.54
271.718	15.25
271.929	19.92
272.141	19.44
272.353	22.3
272.565	22.92
272.777	21.62
272.989	27.69
273.2	32.88
273.412	35.65
273.624	39.44
273.836	37.3
274.047	41.55
274.259	51.54
274.471	55.88
274.683	51.12
274.894	51.44
275.106	51.45
275.318	44.92
275.529	47.05
275.741	43.69
275.953	50.62
276.164	61.47
276.376	58.17
276.588	64.17
276.799	71.79
277.011	68.74
277.222	78.31
277.434	65.95
277.646	64.83
277.857	68.54
278.069	74.35
278.28	72.17
278.492	65.33
278.703	40.5
278.915	45.28
279.126	45.5
279.338	31.91
279.549	36.83
279.761	36.82
279.972	32.37
280.183	33.6
280.395	27.58
280.606	24.29
280.818	24.71
281.029	24.1
281.24	19.27
281.452	19.29
281.663	17.49
281.875	23.05
282.086	19.94
282.297	8.17
282.508	6.62
282.72	4.81
282.931	0.26
283.142	6.09
283.354	-4.58
283.565	1.47
283.776	12.84
283.987	-1.71
284.199	-3.17
284.41	7.28
284.621	14.75
284.832	20.16
285.043	15.42
285.254	8.63
285.466	1.51
285.677	11.11
285.888	13
286.099	13.62
286.31	17.21
286.521	9.63
286.732	6.79
286.943	10.5
287.154	15.58
287.366	17.79
287.577	23.42
287.788	24.64
287.999	18.12
288.21	9.39
288.421	12.37
288.632	14.65
288.843	12.08
289.054	16.66
289.264	9.55
289.475	14.45
289.686	20.43
289.897	23.54
290.108	26.1
290.319	20.39
290.53	23.02
290.741	12.13
290.952	8.9
291.163	10.27
291.373	8.15
291.584	12.38
291.795	11.44
292.006	4.06
292.217	6.69
292.427	14.54
292.638	19.35
292.849	16.22
293.06	16.27
293.27	12.85
293.481	8.62
293.692	14.38
293.903	15.29
294.113	16.04
294.324	17.12
294.535	5.16
294.745	7.03
294.956	2.1
295.167	12.14
295.377	20.4
295.588	22.98
295.798	23.22
296.009	16.41
296.22	16.46
296.43	17.77
296.641	13.39
296.851	9.74
297.062	9.62
297.272	13.75
297.483	13.13
297.693	14.92
297.904	11.87
298.114	18.91
298.325	18.95
298.535	18.02
298.746	14.7
298.956	15.08
299.167	18.7
299.377	20.49
299.587	24.02
299.798	27.54
300.008	30.59
300.219	33.78
300.429	38.95
300.639	40.85
300.85	38.86
301.06	33.9
301.27	35.6
301.481	35.89
301.691	34.56
301.901	31.52
302.111	35.67
302.322	38.51
302.532	27.88
302.742	27.26
302.952	19.03
303.163	8.32
303.373	7.83
303.583	8.74
303.793	6.53
304.003	6.73
304.214	6.9
304.424	5.6
304.634	-3.19
304.844	-4.04
305.054	-1.06
305.264	-1.97
305.474	2.29
305.684	-3.04
305.894	1.28
306.104	0.87
306.314	-1.58
306.525	-7.15
306.735	-9.68
306.945	-10.2
307.155	-13.27
307.365	-3.46
307.575	3.91
307.784	8.62
307.994	4.1
308.204	1.09
308.414	-0.12
308.624	-1.95
308.834	7.52
309.044	9.59
309.254	8.47
309.464	5.85
309.674	6.46
309.884	4.74
310.093	6.99
310.303	5.95
310.513	15.18
310.723	20
310.933	26.12
311.142	23.81
311.352	26.45
311.562	31.88
311.772	29.87
311.981	31.54
312.191	27.73
312.401	29.21
312.611	34.14
312.82	31.5
313.03	33.7
313.24	28.31
313.449	30.78
313.659	31.34
313.869	25.17
314.078	26.06
314.288	25.58
314.497	23.44
314.707	21.44
314.917	14.9
315.126	17.89
315.336	15.25
315.545	13.55
315.755	16.76
315.964	13.88
316.174	14.09
316.383	15.76
316.593	17.5
316.802	20.51
317.012	19.3
317.221	18.57
317.431	13.48
317.64	15.18
317.849	11.12
318.059	7.15
318.268	18.26
318.478	19.79
318.687	19.22
318.896	21.95
319.106	19.66
319.315	19.36
319.524	11.24
319.734	5.13
319.943	9.38
320.152	6.66
320.362	6.43
320.571	5.87
320.78	4.05
320.989	5.66
321.199	2.39
321.408	-1.71
321.617	-1.27
321.826	1.69
322.035	-1.26
322.245	-1.78
322.454	-0.99
322.663	-7.54
322.872	-8.38
323.081	-5.92
323.29	-12.51
323.5	-9.21
323.709	-6.72
323.918	-6.59
324.127	-6.18
324.336	-14.53
324.545	-13.59
324.754	-12.54
324.963	-16.49
325.172	-13.01
325.381	-10.13
325.59	-13.81
325.799	-11.48
326.008	-17.53
326.217	-11.78
326.426	-4.33
326.635	-1.22
326.844	4.79
327.053	18.36
327.262	18.64
327.47	11.81
327.679	18.3
327.888	17.41
328.097	21.36
328.306	28.45
328.515	28.17
328.724	38.87
328.932	35.32
329.141	33.54
329.35	36.94
329.559	37.19
329.768	39.81
329.976	41.41
330.185	43.2
330.394	44.11
330.602	40.34
330.811	26.69
331.02	23.54
331.229	16.88
331.437	11.01
331.646	5.16
331.855	11.87
332.063	9.87
332.272	2.02
332.48	-6.57
332.689	-11.59
332.898	-10.25
333.106	-19.94
333.315	-11.74
333.523	-14.64
333.732	-21.54
333.94	-21.87
334.149	-26.54
334.357	-32.58
334.566	-29.14
334.774	-26.42
334.983	-20.2
335.191	-17.27
335.4	-16.42
335.608	-10.17
335.817	-25.26
336.025	-10.11
336.234	-25.81
336.442	-16.05
336.65	-10.08
336.859	-7.04
337.067	-11.32
337.275	-5.51
337.484	-7.41
337.692	-10.39
337.9	1.9
338.109	2.96
338.317	-6.1
338.525	-2.18
338.734	-5.93
338.942	-22.87
339.15	-34.73
339.358	-44.55
339.567	-25.93
339.775	-29.49
339.983	-29.59
340.191	-26.07
340.399	-35.38
340.608	-16.37
340.816	-17.96
341.024	-14.37
341.232	-19.18
341.44	-11.23
341.648	-9.98
341.856	-0.7
342.064	-0.54
342.272	-12.16
342.481	-11.59
342.689	-7.19
342.897	-7.62
343.105	-1.28
343.313	12.02
343.521	20.53
343.729	12.86
343.937	8.19
344.145	8.66
344.353	15.85
344.56	17.07
344.768	22.33
344.976	19.52
345.184	17.44
345.392	18.73
345.6	20.53
345.808	20.83
346.016	16.41
346.224	18.9
346.431	21.44
346.639	24.59
346.847	32.2
347.055	23.25
347.263	19.39
347.471	13.7
347.678	2.88
347.886	-11.61
348.094	4.81
348.302	13.3
348.509	13.25
348.717	4.23
348.925	8.98
349.132	6.54
349.34	-1.09
349.548	6.68
349.755	10.7
349.963	13.28
350.171	12.52
350.378	13.48
350.586	0.87
350.793	0.72
351.001	6.12
351.209	6.03
351.416	18.25
351.624	19.22
351.831	20.48
352.039	24.07
352.246	33.78
352.454	18.34
352.661	9.22
352.869	9.46
353.076	13.23
353.284	14.73
353.491	10.13
353.699	15.44
353.906	10.28
354.113	7.34
354.321	-0.13
354.528	3.88
354.736	0.82
354.943	5.55
355.15	5.31
355.358	-3.44
355.565	-9.49
355.772	-9.67
355.98	-1.65
356.187	0.25
356.394	-3.54
356.601	-12.46
356.809	0.44
357.016	11.72
357.223	14.62
357.43	3.86
357.638	5.24
357.845	11.73
358.052	7.13
358.259	9
358.466	10.39
358.673	17.78
358.881	10.9
359.088	11.77
359.295	16.51
359.502	9
359.709	10.31
359.916	13.52
360.123	14.33
360.33	3.06
360.537	3.1
360.744	6.46
360.951	7.82
361.158	7.36
361.365	7.5
361.572	16.25
361.779	25.26
361.986	25.9
362.193	19.69
362.4	25.64
362.607	15.06
362.814	13.38
363.021	18.48
363.228	10.47
363.435	20.57
363.641	16.33
363.848	20.46
364.055	30.8
364.262	28.22
364.469	27.71
364.676	31.89
364.882	29.92
365.089	32.84
365.296	34.53
365.503	31.9
365.709	26.94
365.916	25.14
366.123	30.11
366.33	26.92
366.536	31.5
366.743	30.11
366.95	34.07
367.156	33.77
367.363	34.44
367.57	39.81
367.776	29.43
367.983	35.59
368.19	31.52
368.396	25.91
368.603	27.1
368.809	31.5
369.016	38.89
369.222	41.22
369.429	43.71
369.635	36.65
369.842	33.93
370.048	34.18
370.255	28.16
370.461	22.65
370.668	25.71
370.874	22.88
371.081	30.09
371.287	31.94
371.494	27.58
371.7	26.05
371.906	25.39
372.113	25.77
372.319	24.46
372.526	26.82
372.732	30.66
372.938	22.42
373.145	20.82
373.351	13.48
373.557	11.07
373.763	11.35
373.97	21.21
374.176	28.07
374.382	30.69
374.588	32.51
374.795	30.64
375.001	21.4
375.207	16.42
375.413	10.82
375.62	11.88
375.826	18.86
376.032	20.91
376.238	25.96
376.444	23.4
376.65	13.4
376.856	8.55
377.062	9.44
377.269	27.28
377.475	21.88
377.681	23.55
377.887	23.24
378.093	8.35
378.299	3.66
378.505	1.51
378.711	-0.92
378.917	-2.42
379.123	-1.21
379.329	5.67
379.535	12.49
379.741	12.37
379.947	12
380.152	15.34
380.358	5.25
380.564	1.03
380.77	2.11
380.976	0.43
381.182	4.81
381.388	-2.91
381.594	-10.16
381.799	-2.25
382.005	-0.16
382.211	-0.63
382.417	8.71
382.623	5.38
382.828	8.37
383.034	11.21
383.24	17.23
383.445	22.81
383.651	26.08
383.857	16.22
384.063	18.39
384.268	14.33
384.474	17.02
384.68	28.02
384.885	38.67
385.091	36.06
385.296	44.74
385.502	45.94
385.708	49.9
385.913	58.59
386.119	48.15
386.324	46.51
386.53	54.98
386.735	49.16
386.941	49.86
387.146	44.27
387.352	39.06
387.557	32.96
387.763	25.33
387.968	14.53
388.174	18.74
388.379	12.96
388.585	10.68
388.79	4.02
388.996	3.53
389.201	-4.85
389.406	-4.01
389.612	-12.38
389.817	-17.16
390.022	-12.9
390.228	-12.34
390.433	-13.21
390.638	-9.16
390.844	-6.14
391.049	-1.6
391.254	-4.3
391.459	-3.13
391.665	-5.77
391.87	-4.6
392.075	4.73
392.28	8.52
392.485	8.87
392.691	11.82
392.896	14.06
393.101	12.13
393.306	20.4
393.511	22
393.716	29.3
393.922	29.92
394.127	31.62
394.332	39.96
394.537	41.35
394.742	50.05
394.947	56.42
395.152	49.08
395.357	43.55
395.562	47.07
395.767	49.63
395.972	46.61
396.177	39.47
396.382	37.81
396.587	40.67
396.792	45.88
396.997	51.96
397.202	54.92
397.407	56.75
397.611	47.23
397.816	45.67
398.021	41.47
398.226	44.38
398.431	49.48
398.636	41.2
398.841	38.05
399.045	35.25
399.25	31.79
399.455	31.27
399.66	34.2
399.864	31.12
400.069	26.81
400.274	31.06
400.479	36.1
400.683	38.07
400.888	41.48
401.093	35.81
401.297	26.89
401.502	19.75
401.707	13.8
401.911	16.23
402.116	16.8
402.321	15.98
402.525	17.9
402.73	13.29
402.934	15.77
403.139	25.52
403.344	28.07
403.548	30.46
403.753	34.14
403.957	17.9
404.162	14.61
404.366	28.37
404.571	15.57
404.775	10.83
404.98	2.3
405.184	0.04
405.388	-2.81
405.593	-5.49
405.797	-3.12
406.002	3.99
406.206	7.72
406.41	8.73
406.615	19.97
406.819	13.83
407.023	16.57
407.228	16.83
407.432	7.95
407.636	-3.07
407.841	-4.13
408.045	-0.17
408.249	10.36
408.453	16.14
408.658	14.28
408.862	21.98
409.066	19.74
409.27	21.61
409.474	26.31
409.679	31.69
409.883	29.95
410.087	26.65
410.291	32.32
410.495	24.21
410.699	15.69
410.903	7.22
411.108	19.06
411.312	14.89
411.516	9.51
411.72	15.06
411.924	17.28
412.128	10.39
412.332	-1.62
412.536	2.7
412.74	6.2
412.944	8.06
413.148	-3.37
413.352	-6.76
413.556	-0.2
413.76	-17
413.964	-18.6
414.167	-7.88
414.371	7.21
414.575	3.88
414.779	-0.16
414.983	5.9
415.187	5.13
415.391	-0.11
415.594	7.37
415.798	7.03
416.002	7.15
416.206	14.69
416.41	17.26
416.613	22.03
416.817	18.09
417.021	21.9
417.225	17.65
417.428	17.23
417.632	20.31
417.836	16.11
418.039	26.38
418.243	30.84
418.447	22.78
418.65	23.19
418.854	27.11
419.057	34.48
419.261	26.06
419.465	23.23
419.668	21.58
419.872	21.78
420.075	18.28
420.279	17.33
420.482	15.62
420.686	11.76
420.889	16.57
421.093	21.75
421.296	10.51
421.5	5.1
421.703	4.26
421.907	5.39
422.11	-9.66
422.314	-15.42
422.517	-21.86
422.72	-11.58
422.924	-27.44
423.127	-38.3
423.33	-43.91
423.534	-31.68
423.737	-32.27
423.94	-34.15
424.144	-28.92
424.347	-7.84
424.55	-6.93
424.754	-11.72
424.957	-7.88
425.16	-9.29
425.363	-21.26
425.567	-17.03
425.77	-10.88
425.973	-3.08
426.176	-5.11
426.379	18.27
426.582	17.49
426.786	16.11
426.989	8.98
427.192	23.23
427.395	31.29
427.598	22.67
427.801	20.34
428.004	25.35
428.207	32.5
428.41	30.54
428.613	22.27
428.816	21.77
429.019	21.81
429.222	18.86
429.425	19.89
429.628	23.78
429.831	19.5
430.034	18.62
430.237	14.6
430.44	16.75
430.643	5.63
430.846	9.99
431.049	8.97
431.252	13.36
431.454	13.64
431.657	9.23
431.86	15.36
432.063	18.38
432.266	16.31
432.469	7.82
432.671	6.59
432.874	13.14
433.077	4.89
433.28	8.58
433.482	8.61
433.685	-0.94
433.888	-4.17
434.09	-3.38
434.293	1.27
434.496	6.61
434.698	1.27
434.901	17.71
435.104	8.37
435.306	15.11
435.509	12.22
435.712	12.03
435.914	0.04
436.117	-3.27
436.319	-0.54
436.522	0.52
436.724	2.8
436.927	-3.33
437.129	-5.99
437.332	2.01
437.534	-0.19
437.737	1.51
437.939	19.82
438.142	22.27
438.344	24.8
438.547	11.89
438.749	13.66
438.951	6.45
439.154	-5.2
439.356	4.92
439.558	8.95
439.761	13.29
439.963	-1.7
440.165	10.29
440.368	13.77
440.57	-6.83
440.772	-7.43
440.975	-13.93
441.177	-6.2
441.379	-2.12
441.581	2.49
441.784	0.39
441.986	8.46
442.188	-4.36
442.39	1.22
442.592	-3.61
442.795	7.75
442.997	5.09
443.199	11.25
443.401	13.63
443.603	14.54
443.805	5.87
444.007	4.97
444.209	10.97
444.411	20.98
444.613	24.76
444.815	33.92
445.017	28.04
445.219	30.7
445.421	36.58
445.623	36.62
445.825	29.55
446.027	26.08
446.229	23.95
446.431	36.16
446.633	38.73
446.835	41.89
447.037	31.79
447.239	36.37
447.441	35.9
447.643	27.64
447.844	22.95
448.046	33.75
448.248	40.86
448.45	47.62
448.652	37
448.853	43.71
449.055	44.42
449.257	45.62
449.459	52.46
449.66	50.44
449.862	50.3
450.064	51.17
450.266	57.57
450.467	50.61
450.669	57.43
450.871	60.01
451.072	68.77
451.274	83.59
451.475	76.68
451.677	72.54
451.879	93.14
452.08	91.27
452.282	71.43
452.483	70.66
452.685	60
452.886	68.49
453.088	49.15
453.289	43.39
453.491	44.84
453.692	32.27
453.894	26.93
454.095	33.16
454.297	35.5
454.498	34.7
454.7	41.66
454.901	30.56
455.102	25.83
455.304	19.36
455.505	13.89
455.706	10.62
455.908	4.02
456.109	0.99
456.31	4.98
456.512	-1.46
456.713	3.2
456.914	3.66
457.116	-9.42
457.317	-1.33
457.518	-6.94
457.719	-5.23
457.921	4.32
458.122	-0.16
458.323	-13.12
458.524	-7.25
458.725	-10.29
458.926	-16.32
459.128	-20.72
459.329	-24.5
459.53	-30.08
459.731	-26.62
459.932	-35.24
460.133	-27.51
460.334	-17.52
460.535	-14.07
460.736	-4.61
460.937	-11.26
461.138	-7.51
461.339	-5.31
461.54	-3.72
461.741	-0.75
461.942	2.53
462.143	10.19
462.344	3.01
462.545	10.23
462.746	1.69
462.947	2.13
463.148	8.72
463.348	15.25
463.549	15.78
463.75	12.9
463.951	7.64
464.152	6.34
464.353	12.1
464.553	13.52
464.754	10.38
464.955	4.15
465.156	5.2
465.356	0.02
465.557	0.48
465.758	1.9
465.959	3.13
466.159	0.19
466.36	-4.28
466.561	1.66
466.761	-1.14
466.962	9.35
467.163	19.76
467.363	12.48
467.564	15.7
467.764	16.73
467.965	20.41
468.166	15.78
468.366	24.6
468.567	19.19
468.767	27.06
468.968	26.15
469.168	30.1
469.369	37.15
469.569	32.08
469.77	28.61
469.97	20.94
470.17	26.02
470.371	26.11
470.571	22.6
470.772	27.11
470.972	29.23
471.172	23.6
471.373	14.77
471.573	15.36
471.773	7.51
471.974	12.03
472.174	13.36
472.374	22.65
472.575	20.36
472.775	23.16
472.975	6.65
473.175	8.98
473.376	7.69
473.576	5.84
473.776	14.25
473.976	14.41
474.177	23.99
474.377	25.57
474.577	29.11
474.777	29.18
474.977	25.88
475.177	24.1
475.377	26.98
475.577	30.06
475.777	34.75
475.978	34.26
476.178	30.85
476.378	29.76
476.578	29.08
476.778	24.12
476.978	26.38
477.178	30
477.378	31.49
477.578	30.46
477.778	30.23
477.977	29.98
478.177	28.45
478.377	22.36
478.577	17.82
478.777	18.28
478.977	20.54
479.177	18.19
479.377	19.43
479.577	17.49
479.776	14.8
479.976	12.8
480.176	18.03
480.376	18.49
480.576	18.49
480.775	15.03
480.975	17.44
481.175	10.31
481.374	10.95
481.574	9.6
481.774	9.15
481.974	12.06
482.173	8.6
482.373	4.62
482.572	10.11
482.772	14.63
482.972	13.02
483.171	8.59
483.371	14.5
483.57	13.31
483.77	13.55
483.97	13.65
484.169	13.6
484.369	10.47
484.568	11.89
484.768	13.92
484.967	18.96
485.167	21.01
485.366	22.66
485.566	22.63
485.765	25.84
485.964	23.17
486.164	18.33
486.363	19.61
486.563	24.7
486.762	24.78
486.961	26.35
487.161	26.89
487.36	25.98
487.559	23.2
487.759	25.33
487.958	21.85
488.157	15.41
488.356	18.05
488.556	15.29
488.755	16.95
488.954	15.28
489.153	13.48
489.353	14.76
489.552	19.13
489.751	17.76
489.95	17.63
490.149	22.97
490.348	25.62
490.548	27.97
490.747	28.61
490.946	20.6
491.145	19.39
491.344	17.98
491.543	23.45
491.742	24.57
491.941	20.14
492.14	17.91
492.339	20.53
492.538	19.72
492.737	20.5
492.936	17.32
493.135	14.2
493.334	8.05
493.533	2.25
493.732	-0.14
493.931	7.67
494.13	5.38
494.328	8.15
494.527	10.35
494.726	5.13
494.925	1.42
495.124	4.44
495.323	3.71
495.521	2.37
495.72	4
495.919	4.99
496.118	8.52
496.316	13.52
496.515	15.42
496.714	12.43
496.913	16.97
497.111	20.19
497.31	19.76
497.509	22.64
497.707	27.98
497.906	31.2
498.105	27.7
498.303	25.79
498.502	20.37
498.7	19.1
498.899	18.79
499.097	21.95
499.296	21.68
499.495	21.15
499.693	21.45
499.892	22.79
500.09	21.37
500.289	16.19
500.487	9.25
500.686	9.26
500.884	10.23
501.082	10.3
501.281	6.91
501.479	14.9
501.678	18.33
501.876	15.44
502.074	12.77
502.273	11.45
502.471	14.9
502.669	16.15
502.868	17.29
503.066	22.29
503.264	21.4
503.463	20.03
503.661	16.59
503.859	18.34
504.057	20.51
504.256	16.53
504.454	18.23
504.652	23.59
504.85	24.39
505.048	23.39
505.246	21.6
505.445	18.12
505.643	11.92
505.841	9.86
506.039	7.62
506.237	4.61
506.435	6.3
506.633	4.34
506.831	8.98
507.029	6.75
507.227	6.63
507.425	8.85
507.623	11.35
507.821	9.91
508.019	11.12
508.217	10.04
508.415	15.06
508.613	13.97
508.811	12.12
509.009	11.08
509.207	15.63
509.405	12.5
509.603	18.08
509.8	18.09
509.998	17.11
510.196	18.49
510.394	21.06
510.592	20.19
510.79	20.39
510.987	13.37
511.185	14.51
511.383	13.71
511.581	9.48
511.778	10.29
511.976	13.13
512.174	11.81
512.371	8.01
512.569	3.98
512.767	4.96
512.964	3.1
513.162	2.85
513.36	-1.39
513.557	0.41
513.755	-1.95
513.952	5.43
514.15	3.93
514.348	5.25
514.545	8.21
514.743	10.6
514.94	12.65
515.138	12.07
515.335	11.9
515.533	9.17
515.73	11.09
515.927	9.39
516.125	11.26
516.322	15.21
516.52	16.33
516.717	19.1
516.915	21.73
517.112	23.94
517.309	24.16
517.507	27.45
517.704	24.6
517.901	22.7
518.099	15.16
518.296	19.65
518.493	21.51
518.69	19.45
518.888	19.65
519.085	16.75
519.282	21.7
519.479	23.44
519.676	19.35
519.874	17.78
520.071	18.67
520.268	18.89
520.465	17.71
520.662	19.68
520.859	22.9
521.056	20.59
521.254	24.1
521.451	25.61
521.648	24.59
521.845	26.38
522.042	28.7
522.239	34.6
522.436	31.81
522.633	27.64
522.83	27.32
523.027	23.32
523.224	22.53
523.421	20.44
523.618	19.03
523.815	29.18
524.011	30.01
524.208	32.61
524.405	33.03
524.602	33.52
524.799	24.89
524.996	17.58
525.193	17.25
525.389	14.43
525.586	13.67
525.783	8.38
525.98	9.35
526.176	9.23
526.373	3.21
526.57	5.31
526.767	5.83
526.963	1.38
527.16	10.31
527.357	13.31
527.553	12.46
527.75	12.88
527.947	6.04
528.143	8.23
528.34	3.03
528.537	-0.97
528.733	-2.61
528.93	1.99
529.126	5.59
529.323	4.7
529.519	5.07
529.716	1.94
529.912	4.45
530.109	5.81
530.305	2.92
530.502	5.66
530.698	3.11
530.895	3.35
531.091	8.44
531.288	3.54
531.484	1.83
531.68	3.85
531.877	3.12
532.073	4.92
532.269	4.76
532.466	5.63
532.662	7.47
532.858	6.78
533.055	9.08
533.251	8.52
533.447	8.55
533.643	11.28
533.84	13.74
534.036	15.31
534.232	15.56
534.428	14.64
534.624	14
534.821	14.12
535.017	16.75
535.213	14.26
535.409	17.79
535.605	20.63
535.801	17.27
535.997	17.67
536.193	15.9
536.389	15.35
536.586	16.03
536.782	15.93
536.978	18.78
537.174	18.48
537.37	19.4
537.566	21.65
537.762	18.24
537.958	14.47
538.153	14.59
538.349	12.84
538.545	16.59
538.741	18.37
538.937	18.15
539.133	18.81
539.329	22.6
539.525	23.14
539.721	22.37
539.916	27.27
540.112	24.33
540.308	26.98
540.504	24.3
540.699	25.6
540.895	26.31
541.091	26.38
541.287	28.16
541.482	27.74
541.678	28.63
541.874	27.57
542.069	29.04
542.265	28.69
542.461	30.5
542.656	31.94
542.852	30.63
543.048	29.78
543.243	31.13
543.439	29.37
543.634	26.96
543.83	26.36
544.025	24.13
544.221	29.91
544.417	29.04
544.612	32.53
544.807	31.51
545.003	31.61
545.198	29.63
545.394	28.39
545.589	30.77
545.785	29.48
545.98	29.09
546.176	29.69
546.371	28.04
546.566	26.72
546.762	24.4
546.957	24.53
547.152	26.32
547.348	24.14
547.543	24.86
547.738	23.19
547.933	21.45
548.129	23.14
548.324	19.81
548.519	20.6
548.714	18.44
548.91	18.79
549.105	16.17
549.3	13.38
549.495	17.12
549.69	15.86
549.885	15.12
550.08	19.37
550.276	19.32
550.471	22.34
550.666	23.1
550.861	23.05
551.056	20.45
551.251	19.47
551.446	18.57
551.641	18.83
551.836	21.88
552.031	24.02
552.226	22.29
552.421	20.14
552.616	20.79
552.811	24.92
553.006	23.88
553.201	21.13
553.395	24.42
553.59	21.56
553.785	20.13
553.98	20.61
554.175	18.99
554.37	18.4
554.565	19.19
554.759	17.15
554.954	15.09
555.149	19.48
555.344	19.22
555.538	19.45
555.733	20.4
555.928	21.18
556.122	20.55
556.317	21.74
556.512	23.89
556.706	23.91
556.901	20.33
557.096	20.36
557.29	23.55
557.485	21.72
557.68	17.63
557.874	17.5
558.069	16.86
558.263	18.34
558.458	21.11
558.652	20.05
558.847	21.97
559.041	26.09
559.236	21.01
559.43	22.21
559.625	21.98
559.819	20.06
560.014	16.75
560.208	17.74
560.402	17.59
560.597	18.34
560.791	15.45
560.986	16.72
561.18	17.62
561.374	19.08
561.569	19.72
561.763	23.19
561.957	21.88
562.151	20.54
562.346	20.43
562.54	21.73
562.734	19.72
562.928	17.18
563.123	19.37
563.317	20.59
563.511	22.39
563.705	19.35
563.899	19.85
564.093	21.14
564.288	20.53
564.482	21.47
564.676	22.31
564.87	25.16
565.064	22.33
565.258	21.14
565.452	20.34
565.646	20.36
565.84	19.5
566.034	21.41
566.228	23.73
566.422	22.81
566.616	20.26
566.81	23.06
567.004	25.56
567.198	21.54
567.392	21.39
567.586	16.79
567.779	19.64
567.973	22.08
568.167	24.02
568.361	22.62
568.555	21.78
568.749	20.16
568.942	18.6
569.136	21.08
569.33	20.84
569.524	21.58
569.718	21.73
569.911	21.75
570.105	22.7
570.299	23.26
570.492	23.29
570.686	23.61
570.88	23.09
571.073	21.62
571.267	22.66
571.461	21.96
571.654	24.75
571.848	25.12
572.041	22.28
572.235	21.7
572.429	23.09
572.622	20.54
572.816	21.78
573.009	22.07
573.203	21.84
573.396	22.18
573.59	22.3
573.783	22.2
573.976	21.33
574.17	21.32
574.363	18.77
574.557	18.18
574.75	16.26
574.943	16.88
575.137	18.91
575.33	17.63
575.523	18.68
575.717	16.4
575.91	14.58
576.103	13.76
576.297	12.93
576.49	11.74
576.683	12.89
576.876	11.75
577.07	10.86
577.263	11.44
577.456	12.87
577.649	11.44
577.842	11.53
578.036	13.09
578.229	12.54
578.422	13.52
578.615	13.24
578.808	13.85
579.001	13.88
579.194	14.95
579.387	17.6
579.58	18.01
579.773	18.85
579.966	18.8
580.159	19.44
580.352	21.34
580.545	22.71
580.738	21.79
580.931	20.76
581.124	20.08
581.317	17.4
581.51	15.48
581.703	16.94
581.896	17.06
582.088	15.56
582.281	14.83
582.474	14.59
582.667	14.54
582.86	13.61
583.053	11.85
583.245	10.61
583.438	7.82
583.631	10.11
583.824	11.47
584.016	12.73
584.209	11.9
584.402	11.3
584.594	11.76
584.787	14.13
584.98	14.25
585.172	17.03
585.365	17.85
585.558	17.58
585.75	16.98
585.943	17.31
586.135	17.79
586.328	17.99
586.52	19.47
586.713	19.51
586.906	20.43
587.098	22.42
587.291	22.67
587.483	22.21
587.675	22.44
587.868	21.05
588.06	19.74
588.253	21.92
588.445	19.65
588.638	17.84
588.83	17.2
589.022	18.49
589.215	16.76
589.407	19.29
589.599	21.23
589.792	22.73
589.984	22.26
590.176	22.29
590.368	24.01
590.561	24.19
590.753	24.42
590.945	24.92
591.137	22.41
591.33	20.08
591.522	21.53
591.714	18.2
591.906	21.4
592.098	22.89
592.29	22.68
592.482	24.96
592.674	25.62
592.867	24.61
593.059	23.35
593.251	23.86
593.443	22.87
593.635	19.69
593.827	17.81
594.019	16.77
594.211	17.06
594.403	16.84
594.595	17.94
594.787	19.07
594.979	17.41
595.17	18.05
595.362	20.13
595.554	19.83
595.746	19.91
595.938	17.23
596.13	16.86
596.322	17.05
596.513	13.66
596.705	14.24
596.897	13.39
597.089	16.49
597.281	15.08
597.472	14.55
597.664	15.58
597.856	14.8
598.048	15.45
598.239	13.26
598.431	12.33
598.623	8.75
598.814	5.46
599.006	7.16
599.197	8.34
599.389	7.43
599.581	4.96
599.772	6.21
599.964	6.12
600.155	7.19
600.347	6.44
600.538	8.46
600.73	8.4
600.921	9.17
601.113	7.84
601.304	10.27
601.496	10.39
601.687	10.86
601.879	12.31
602.07	14.7
602.262	17.59
602.453	16.43
602.644	16.58
602.836	18.71
603.027	18.27
603.218	18.15
603.41	17.41
603.601	18.96
603.792	18.47
603.983	18.7
604.175	17.07
604.366	15.71
604.557	16.51
604.748	15.02
604.94	15.15
605.131	12.98
605.322	12.51
605.513	12.63
605.704	14.09
605.895	14.16
606.086	11.12
606.278	10.65
606.469	12.75
606.66	14.95
606.851	14.27
607.042	13.89
607.233	13.39
607.424	12.85
607.615	12.08
607.806	12.67
607.997	13.63
608.188	14.33
608.379	15.23
608.57	14.07
608.761	15.32
608.952	15
609.142	16.25
609.333	14.93
609.524	13.92
609.715	12.88
609.906	11.87
610.097	13.82
610.287	11.53
610.478	11.64
610.669	12
610.86	13.1
611.051	13.73
611.241	13.3
611.432	13.77
611.623	15.06
611.813	13.75
612.004	13.01
612.195	13.7
612.385	14.34
612.576	15.5
612.767	15.92
612.957	16.76
613.148	15.74
613.338	16.22
613.529	16.26
613.72	16.86
613.91	16.5
614.101	15.95
614.291	18.91
614.482	18.37
614.672	16.58
614.863	15.52
615.053	14.69
615.243	14.63
615.434	16.33
615.624	15.43
615.815	16.02
616.005	14.16
616.195	13.53
616.386	12.43
616.576	10.94
616.766	10.34
616.957	10.37
617.147	10.22
617.337	9.15
617.528	9.43
617.718	7.83
617.908	8.41
618.098	8.67
618.289	7.7
618.479	8.01
618.669	9.42
618.859	10.74
619.049	11.65
619.239	11.34
619.43	10.79
619.62	10.81
619.81	11.91
620	13.85
620.19	13.92
620.38	13.96
620.57	15.64
620.76	15.04
620.95	14.76
621.14	16.62
621.33	17.03
621.52	17.39
621.71	17.76
621.9	16.52
622.09	16.56
622.28	16.63
622.47	14.05
622.659	13.39
622.849	12.14
623.039	12.65
623.229	12.8
623.419	12.44
623.609	12.3
623.799	11.37
623.988	10.58
624.178	9.92
624.368	9.57
624.558	8.07
624.747	9.19
624.937	10.63
625.127	6.41
625.316	6.74
625.506	7.78
625.696	9.43
625.885	9.31
626.075	9.12
626.265	9.47
626.454	11.21
626.644	11.35
626.833	11.55
627.023	11.2
627.212	11.33
627.402	11.57
627.591	11.86
627.781	10.56
627.97	11.56
628.16	11.57
628.349	11.79
628.539	12.28
628.728	12.41
628.918	10.22
629.107	13.29
629.296	12.34
629.486	10.92
629.675	10.8
629.865	11.58
630.054	12.14
630.243	11.22
630.432	10.92
630.622	11.89
630.811	11.93
631	11.7
631.19	11.87
631.379	10.46
631.568	10.78
631.757	12.3
631.946	10.16
632.136	11.65
632.325	10.88
632.514	11.6
632.703	11.5
632.892	10.55
633.081	9.7
633.27	11.46
633.459	12.63
633.648	11.95
633.837	11.32
634.026	10.11
634.215	11.17
634.404	10.71
634.593	9.82
634.782	11.08
634.971	10.21
635.16	9
635.349	9.87
635.538	10.8
635.727	10.09
635.916	11.12
636.105	10.04
636.294	12.57
636.482	12.04
636.671	10.44
636.86	12.17
637.049	14.3
637.238	13.02
637.426	12.2
637.615	10.24
637.804	11.34
637.993	12.93
638.181	13.14
638.37	14.36
638.559	14.74
638.747	13.7
638.936	14.7
639.125	15.49
639.313	14.77
639.502	13.39
639.691	13.21
639.879	12.45
640.068	12.32
640.256	9.58
640.445	9.71
640.633	10.8
640.822	9.7
641.01	10.93
641.199	11.08
641.387	12.35
641.576	13.24
641.764	13.35
641.953	11.58
642.141	10.93
642.329	9.71
642.518	8.72
642.706	9.44
642.894	8.18
643.083	9.33
643.271	9.86
643.459	9.84
643.648	10
643.836	11.01
644.024	11.92
644.213	14.09
644.401	13.85
644.589	13.47
644.777	14.87
644.965	13.57
645.154	13.75
645.342	12.2
645.53	12.85
645.718	11.72
645.906	11.49
646.094	12.06
646.282	11.58
646.47	12.71
646.658	11.86
646.846	11.65
647.034	11.31
647.223	10.97
647.411	12.05
647.599	10.84
647.786	10.68
647.974	8.9
648.162	7.28
648.35	5.64
648.538	5.42
648.726	5.13
648.914	4.55
649.102	6.02
649.29	6.7
649.478	6.93
649.665	9.1
649.853	10.04
650.041	9.2
650.229	10.26
650.417	9.71
650.604	9.05
650.792	10.44
650.98	9.68
651.168	9.21
651.355	9.72
651.543	10.49
651.731	10.05
651.918	10.34
652.106	12.17
652.294	13.75
652.481	13.83
652.669	13.67
652.856	13.24
653.044	13.72
653.231	13.73
653.419	13.59
653.606	12.88
653.794	13.16
653.981	13.29
654.169	13.14
654.356	12.03
654.544	13.17
654.731	13.07
654.919	11.7
655.106	12.25
655.294	11.2
655.481	12.55
655.668	13.2
655.856	12.6
656.043	11.65
656.23	11.15
656.418	12.24
656.605	13.32
656.792	13.32
656.979	12.4
657.167	12.54
657.354	13.03
657.541	13.28
657.728	12.77
657.916	12.08
658.103	10.79
658.29	12.87
658.477	13.44
658.664	12.61
658.851	12.9
659.038	13.58
659.225	12.77
659.412	12.12
659.6	11.38
659.787	12.93
659.974	12.64
660.161	13.85
660.348	11.88
660.535	12.25
660.722	11.82
660.909	10.81
661.095	11.79
661.282	11.78
661.469	12.06
661.656	10.99
661.843	12.31
662.03	12.43
662.217	10.44
662.404	9.72
662.59	9.76
662.777	9.83
662.964	8.75
663.151	9.69
663.338	9.79
663.524	9.99
663.711	9.09
663.898	8.92
664.085	7.98
664.271	9.94
664.458	8.31
664.645	7.67
664.831	9.49
665.018	6.99
665.204	7.06
665.391	6.64
665.578	7.09
665.764	6.01
665.951	6.57
666.137	6.93
666.324	6.8
666.51	6.92
666.697	7.39
666.883	8.54
667.07	7.67
667.256	8
667.443	7.04
667.629	6.23
667.816	6.3
668.002	6.87
668.188	6.82
668.375	7.02
668.561	7.5
668.747	4.86
668.934	5.69
669.12	5.19
669.306	4.6
669.493	4.92
669.679	5.41
669.865	4.72
670.051	3.98
670.238	3.56
670.424	3.4
670.61	3.16
670.796	2.8
670.982	3.12
671.169	2.9
671.355	3.65
671.541	4.67
671.727	4.63
671.913	4.62
672.099	2.89
672.285	1.79
672.471	1.46
672.657	3.05
672.843	4.73
673.029	4.25
673.215	4.15
673.401	5.64
673.587	3.64
673.773	5.56
673.959	6.76
674.145	7.39
674.331	7.92
674.517	8.26
674.703	7.78
674.888	8.78
675.074	6.89
675.26	7.98
675.446	6.65
675.632	4.94
675.817	5.29
676.003	5.75
676.189	6.22
676.375	6.66
676.56	5.35
676.746	3.69
676.932	2.91
677.117	1.84
677.303	0.02
677.489	1.72
677.674	0.33
677.86	-0.47
678.046	-0.64
678.231	-0.26
678.417	0.86
678.602	1.52
678.788	1.78
678.973	2.81
679.159	2.57
679.344	4.36
679.53	5.92
679.715	4.18
679.901	3.8
680.086	3.99
680.272	4.02
680.457	4.88
680.643	4.53
680.828	5.78
681.013	6.08
681.199	7.27
681.384	7.16
681.569	6.9
681.755	7.15
681.94	5.76
682.125	5.95
682.31	6.06
682.496	5.47
682.681	5.12
682.866	6.19
683.051	5.77
683.237	4.64
683.422	4.98
683.607	5.2
683.792	5.64
683.977	6.99
684.162	4.97
684.347	4.92
684.532	5.41
684.717	4.5
684.903	4.81
685.088	4.53
685.273	4.84
685.458	5.49
685.643	6.62
685.828	5.82
686.013	5.53
686.198	5.01
686.382	6.1
686.567	5.3
686.752	2.87
686.937	3.41
687.122	4.43
687.307	3.3
687.492	3.5
687.677	2.82
687.861	2.61
688.046	2.84
688.231	3.25
688.416	3.53
688.601	3.41
688.785	3.96
688.97	4.03
689.155	5.34
689.339	5.14
689.524	3.75
689.709	4.02
689.893	3.66
690.078	4
690.263	3.48
690.447	2.95
690.632	3.94
690.816	4.8
691.001	5.26
691.186	7.02
691.37	7.19
691.555	8.23
691.739	6.32
691.924	7.49
692.108	7.24
692.293	7.12
692.477	7.75
692.661	7.61
692.846	6.8
693.03	6.33
693.215	6.02
693.399	6.14
693.583	7.29
693.768	6.98
693.952	5.34
694.136	3.67
694.321	4.33
694.505	3.73
694.689	2.69
694.873	3.34
695.058	1.65
695.242	2.31
695.426	1.5
695.61	2.44
695.794	3.95
695.979	4.2
696.163	3.98
696.347	3.84
696.531	3.38
696.715	3.35
696.899	1.39
697.083	0.67
697.267	1.71
697.451	2.52
697.635	2.98
697.819	4.45
698.003	4.4
698.187	4.13
698.371	5.03
698.555	6.86
698.739	6.38
698.923	6.61
699.107	6.54
699.291	4.92
699.475	4.47
699.659	2.9
699.842	2.16
700.026	0.92
700.21	0.74
700.394	1.94
700.578	2.15
700.761	3.32
700.945	5.83
701.129	4.76
701.313	3.29
701.496	2.77
701.68	1.74
701.864	2.04
702.047	2.9
702.231	5.13
702.415	3.45
702.598	1.68
702.782	2.72
702.965	3.48
703.149	4.63
703.333	5.18
703.516	5.57
703.7	6.07
703.883	7.66
704.067	7.54
704.25	7.04
704.434	7.03
704.617	6
704.801	5.37
704.984	4.67
705.167	4.45
705.351	4.15
705.534	4.57
705.718	5.49
705.901	5.02
706.084	3.87
706.268	3.56
706.451	4.39
706.634	4.15
706.817	1.77
707.001	1.8
707.184	0.85
707.367	0.77
707.55	-0.14
707.734	0.54
707.917	1.51
708.1	1.64
708.283	2.64
708.466	3.68
708.649	3.04
708.832	3.79
709.015	5.77
709.199	6.37
709.382	7.08
709.565	6.99
709.748	7.29
709.931	6.35
710.114	6.04
710.297	5.36
710.48	5.65
710.663	7.08
710.846	7.08
711.028	7.21
711.211	6.88
711.394	6.81
711.577	5.67
711.76	3.54
711.943	2.16
712.126	1.63
712.309	2.22
712.491	2.75
712.674	3.25
712.857	2.66
713.04	2.08
713.222	1.38
713.405	2.37
713.588	3.04
713.771	3.17
713.953	2.23
714.136	2.39
714.319	3.21
714.501	2.94
714.684	2.86
714.866	3.8
715.049	3.56
715.232	4.69
715.414	4.63
715.597	5.73
715.779	5.17
715.962	5.35
716.144	5
716.327	5.06
716.509	4.15
716.692	2.19
716.874	3.26
717.057	4.07
717.239	3.94
717.421	2.39
717.604	0.82
717.786	2.5
717.968	1.92
718.151	-0.21
718.333	-1.49
718.515	-0.66
718.698	-1.01
718.88	0.06
719.062	-1.43
719.244	-2.07
719.427	-3.31
719.609	-1.6
719.791	-2.63
719.973	-2.85
720.155	-4.15
720.338	-4.4
720.52	-1.63
720.702	-2.77
720.884	-3.49
721.066	-4.88
721.248	-6.72
721.43	-5.14
721.612	-6.71
721.794	-3.93
721.976	-3.31
722.158	-1.82
722.34	-0.93
722.522	-0.32
722.704	-0.84
722.886	-0.68
723.068	1.29
723.25	3.28
723.432	3.82
723.614	4.6
723.796	4.95
723.977	4.87
724.159	5.75
724.341	3.68
724.523	2.85
724.705	1.87
724.886	2
725.068	4.49
725.25	5.97
725.432	6
725.613	4.91
725.795	5.7
725.977	6.4
726.158	5.68
726.34	5.25
726.522	5.6
726.703	7.27
726.885	7.66
727.066	6.29
727.248	6.92
727.43	7.42
727.611	6.45
727.793	5.3
727.974	5.46
728.156	7.05
728.337	7.19
728.519	7.99
728.7	8.55
728.882	7.03
729.063	4.83
729.244	5.5
729.426	6.35
729.607	5.88
729.788	3.86
729.97	4.25
730.151	4.06
730.332	4.55
730.514	3.79
730.695	3.8
730.876	4.12
731.058	3.2
731.239	1.83
731.42	1.19
731.601	1.09
731.782	-0.18
731.964	0.31
732.145	1.71
732.326	1.98
732.507	0.8
732.688	2.66
732.869	5.54
733.05	6.22
733.231	5.37
733.412	3.11
733.593	5.14
733.774	5.65
733.955	6.52
734.136	6.44
734.317	6.08
734.498	6.74
734.679	7.37
734.86	5.27
735.041	5.83
735.222	7.32
735.403	8.85
735.584	9.8
735.765	9.94
735.946	9.44
736.126	7.57
736.307	10.2
736.488	9.19
736.669	5.91
736.849	5.25
737.03	5.92
737.211	9.02
737.392	9.34
737.572	6.82
737.753	6.23
737.934	6.23
738.114	7.42
738.295	5.01
738.476	5.18
738.656	9.4
738.837	9.67
739.017	9.57
739.198	10.26
739.378	11.35
739.559	11.26
739.74	11.87
739.92	13.47
740.1	11.44
740.281	11.06
740.461	12.58
740.642	13.6
740.822	11.71
741.003	11.49
741.183	10.69
741.363	12.07
741.544	12.18
741.724	11.51
741.904	10.23
742.085	11.33
742.265	10.12
742.445	8.83
742.626	9.68
742.806	9.58
742.986	8.43
743.166	7.77
743.347	6.27
743.527	4.98
743.707	3.96
743.887	3.86
744.067	4.2
744.247	3.56
744.427	2.7
744.608	3.35
744.788	3.77
744.968	4.28
745.148	3.72
745.328	2.74
745.508	1.15
745.688	1.57
745.868	0.05
746.048	0.27
746.228	0.43
746.408	-0.47
746.588	-1.62
746.767	0.88
746.947	0.75
747.127	0.2
747.307	0.16
747.487	0.92
747.667	1.84
747.847	3.29
748.026	3.19
748.206	3.75
748.386	5.36
748.566	4.59
748.745	3.67
748.925	5.49
749.105	6.8
749.285	7.32
749.464	6.63
749.644	7.79
749.824	8.95
750.003	7.57
750.183	6.84
750.362	7.78
750.542	5.18
750.722	4.78
750.901	4.44
751.081	5.09
751.26	6.15
751.44	5.15
751.619	1.99
751.799	1.28
751.978	-1.03
752.158	-1.92
752.337	-3.08
752.516	-2.02
752.696	-3.78
752.875	-3.83
753.055	-2.88
753.234	-1.92
753.413	-1.68
753.593	-1.95
753.772	-1.35
753.951	-1.16
754.13	-1.33
754.31	-1.37
754.489	-0.28
754.668	1.27
754.847	1.72
755.027	0.62
755.206	0.91
755.385	2.61
755.564	3.93
755.743	5.17
755.922	4.14
756.101	3.49
756.28	2.62
756.46	2.41
756.639	0.44
756.818	0.1
756.997	1.02
757.176	0.53
757.355	0.83
757.534	0.8
757.713	1.26
757.892	1.01
758.07	2.69
758.249	1.84
758.428	1.78
758.607	1.45
758.786	2.94
758.965	2.68
759.144	2.55
759.323	1.73
759.501	0.85
759.68	1.58
759.859	3.57
760.038	3.7
760.216	4.48
760.395	5.92
760.574	5.74
760.753	5.08
760.931	6.05
761.11	6.34
761.289	5.4
761.467	4.9
761.646	5.65
761.824	5.22
762.003	4.43
762.182	3.69
762.36	3.46
762.539	2.63
762.717	2.96
762.896	3.4
763.074	3.49
763.253	4.11
763.431	5.33
763.61	4.87
763.788	5.18
763.966	4.75
764.145	4.94
764.323	5.24
764.502	5.52
764.68	4.78
764.858	3.34
765.037	4.97
765.215	5.36
765.393	5.4
765.571	5.55
765.75	7.69
765.928	8.01
766.106	7.42
766.284	7.51
766.463	7.92
766.641	8.21
766.819	10.14
766.997	10.83
767.175	10.15
767.353	10.07
767.531	10.08
767.71	10.52
767.888	9.88
768.066	9.21
768.244	8.34
768.422	9.19
768.6	11.7
768.778	10.32
768.956	8.71
769.134	8.06
769.312	7.04
769.489	4.29
769.667	5.58
769.845	7.56
770.023	7.77
770.201	7.94
770.379	6.34
770.557	4.88
770.735	5.53
770.912	4.1
771.09	5.07
771.268	4.82
771.446	4.41
771.623	5.78
771.801	7.96
771.979	8.52
772.157	6.9
772.334	4.43
772.512	5.33
772.69	5.97
772.867	6.34
773.045	7.65
773.222	9.67
773.4	9.47
773.577	8.55
773.755	8.36
773.933	8.11
774.11	8.8
774.288	8.7
774.465	8.87
774.643	9.89
774.82	9.62
774.997	10.58
775.175	11.29
775.352	12.73
775.53	12.73
775.707	12.8
775.884	13.88
776.062	14.85
776.239	14
776.416	14.78
776.594	13.35
776.771	11.9
776.948	11.74
777.125	11.68
777.303	10.79
777.48	9.91
777.657	9.45
777.834	11.89
778.012	10.07
778.189	8.91
778.366	9.07
778.543	6.32
778.72	5.45
778.897	5.59
779.074	2.74
779.251	1.57
779.428	0.6
779.605	-1.04
779.782	-1.45
779.959	0.22
780.136	-1.27
780.313	2.55
780.49	1.12
780.667	1.35
780.844	0.56
781.021	0.82
781.198	0.37
781.375	2.31
781.552	0.36
781.728	0.64
781.905	1.34
782.082	0.84
782.259	1.88
782.436	1.27
782.612	0.64
782.789	0.09
782.966	-1.31
783.143	-0.42
783.319	1.9
783.496	2.78
783.673	0.75
783.849	3.53
784.026	1.52
784.203	3.26
784.379	0.88
784.556	0.2
784.732	-1.06
784.909	0.2
785.085	-2.17
785.262	-1.23
785.438	0.86
785.615	2.98
785.791	4.3
785.968	3.42
786.144	4.13
786.321	5.16
786.497	4.29
786.673	5
786.85	3.63
787.026	3.02
787.203	2.51
787.379	3.97
787.555	0.54
787.731	-0.34
787.908	-1.49
788.084	0.33
788.26	0.48
788.437	2.24
788.613	0.94
788.789	-1.07
788.965	-4.35
789.141	-3.56
789.317	-8.28
789.494	-9.57
789.67	-7.78
789.846	-8.85
790.022	-11.75
790.198	-10.23
790.374	-10.23
790.55	-10.37
790.726	-11.86
790.902	-12.3
791.078	-11.29
791.254	-8.74
791.43	-7.79
791.606	-5.53
791.782	-6.48
791.958	-6.52
792.134	-4.27
792.31	-4.2
792.486	-1.24
792.661	1.91
792.837	2.12
793.013	4.24
793.189	4.59
793.365	3.76
793.54	4.51
793.716	5.69
793.892	5.76
794.068	4.49
794.243	5.58
794.419	5.74
794.595	6.48
794.77	5.88
794.946	6.68
795.122	5.78
795.297	3.82
795.473	6.44
795.648	8.82
795.824	5.24
796	9.04
796.175	8.05
796.351	6.96
796.526	6.22
796.702	5.22
796.877	6.04
797.052	7.29
797.228	6.26
797.403	5.15
797.579	4.42
797.754	7.16
797.929	7.89
798.105	8.71
798.28	6.26
798.455	6.81
798.631	3.91
798.806	4.14
798.981	5.93
799.157	6.07
799.332	3.65
799.507	7.07
799.682	2.96
799.858	4.35
800.033	4.31
800.208	4.34
800.383	5.17
800.558	4.25
800.733	2.02
800.908	3.38
801.083	3.92
801.258	0.95
801.434	1.9
801.609	0.95
801.784	2.6
801.959	4.33
802.134	3.49
802.309	5.21
802.484	4.04
802.658	3.38
802.833	0.41
803.008	2.82
803.183	1.57
803.358	4.17
803.533	3.03
803.708	2.89
803.883	1.3
804.057	-1.82
804.232	-0.17
804.407	3.43
804.582	2.39
804.756	1.17
804.931	5.86
805.106	1.89
805.281	1.84
805.455	-1.19
805.63	-0.6
805.805	0.6
805.979	1.75
806.154	3.9
806.328	5.79
806.503	6.7
806.678	4.18
806.852	2.44
807.027	0.65
807.201	-1.18
807.376	-0.3
807.55	1.55
807.725	3.77
807.899	5.28
808.074	4.19
808.248	3.15
808.422	4.29
808.597	1.74
808.771	4.05
808.946	10.37
809.12	13.76
809.294	13.98
809.468	12.81
809.643	13.01
809.817	12.33
809.991	11.86
810.166	13.4
810.34	13.26
810.514	18.19
810.688	17.72
810.862	19.09
811.037	20.33
811.211	17.12
811.385	14.58
811.559	13.33
811.733	11.75
811.907	13.4
812.081	13.11
812.255	13.68
812.429	12.51
812.603	7.62
812.777	6.25
812.951	3.81
813.125	2.47
813.299	0.01
813.473	-0.64
813.647	-0.25
813.821	0.33
813.995	2.92
814.169	-0.63
814.343	1.43
814.516	3.17
814.69	4.04
814.864	5.24
815.038	8.04
815.212	7.22
815.385	8.77
815.559	11.01
815.733	10.6
815.907	10.83
816.08	12.33
816.254	10.51
816.428	9.54
816.601	10.93
816.775	10.98
816.948	10.94
817.122	11.32
817.296	10.1
817.469	8.82
817.643	6.76
817.816	7.45
817.99	4.78
818.163	5.21
818.337	0.58
818.51	3.04
818.684	5.31
818.857	3.6
819.031	1.45
819.204	-4.11
819.377	-1.28
819.551	-4.58
819.724	-6.95
819.897	-4.58
820.071	-3.52
820.244	-5.43
820.417	-5.27
820.591	-4.56
820.764	-4.79
820.937	-4.21
821.11	-3.04
821.284	-3.72
821.457	-0.78
821.63	1.69
821.803	-0.11
821.976	4.04
822.149	2.23
822.322	4.44
822.496	4.67
822.669	7.27
822.842	11.97
823.015	8.32
823.188	11.46
823.361	12.05
823.534	6.82
823.707	5.08
823.88	2.69
824.053	2.53
824.226	3.7
824.399	6.32
824.571	8.2
824.744	7.67
824.917	11.97
825.09	8.55
825.263	10.36
825.436	11.5
825.608	10.8
825.781	11.79
825.954	11.27
826.127	10.62
826.299	8.68
826.472	7.34
826.645	11.05
826.818	12.66
826.99	12.9
827.163	17.09
827.336	20.96
827.508	20.91
827.681	24.34
827.853	24.6
828.026	25.38
828.198	25.91
828.371	25.28
828.544	21.72
828.716	21.01
828.889	18.87
829.061	19.76
829.233	20.36
829.406	20.46
829.578	15.28
829.751	16.95
829.923	17.54
830.096	15.34
830.268	16.24
830.44	13.54
830.613	12.58
830.785	11.84
830.957	6.13
831.129	9.73
831.302	8.16
831.474	3.98
831.646	5.42
831.818	2.1
831.991	1.22
832.163	5.62
832.335	4.97
832.507	4.1
832.679	0.14
832.851	-3.3
833.023	-2.49
833.195	-0.14
833.368	-1.48
833.54	0.81
833.712	1.99
833.884	3.89
834.056	3.89
834.228	2.79
834.4	2.83
834.571	5.76
834.743	3.6
834.915	2.01
835.087	4.51
835.259	-0.67
835.431	-1.98
835.603	-3.15
835.775	-8.26
835.946	-4.53
836.118	-5.03
836.29	-4.41
836.462	-6.14
836.634	-8.49
836.805	-12.04
836.977	-13.6
837.149	-15.51
837.32	-14.36
837.492	-17.6
837.664	-14.6
837.835	-13.2
838.007	-15.58
838.179	-16.69
838.35	-11.64
838.522	-10.45
838.693	-8.75
838.865	-9.34
839.036	-9.68
839.208	-5.73
839.379	-2.54
839.551	-1.78
839.722	2.14
839.894	2.66
840.065	6.25
840.237	8.52
840.408	11.55
840.579	17.41
840.751	14.81
840.922	12.35
841.093	11.24
841.265	11.51
841.436	13.9
841.607	17.46
841.778	20.47
841.95	17.6
842.121	20.44
842.292	21.48
842.463	24.06
842.635	30.42
842.806	31.42
842.977	31.36
843.148	27.96
843.319	24.19
843.49	24
843.661	21.63
843.832	22.94
844.003	22.35
844.174	19.26
844.345	23.97
844.516	20.25
844.687	17.97
844.858	16.17
845.029	19.49
845.2	18.92
845.371	11.55
845.542	11.63
845.713	5.96
845.884	6.64
846.055	3.72
846.225	-1.46
846.396	-4.65
846.567	0.68
846.738	-4.1
846.909	-0.06
847.079	0.18
847.25	4.73
847.421	-2.51
847.591	-5.78
847.762	-9.97
847.933	-17.04
848.103	-7.04
848.274	-3.25
848.445	-7.42
848.615	-11.51
848.786	-15.09
848.956	-9.78
849.127	-5.19
849.297	0.15
849.468	1
849.638	1.98
849.809	-1.37
849.979	-1.36
850.15	-4.67
850.32	0.96
850.491	0.39
850.661	2.66
850.831	2.2
851.002	9.85
851.172	8.63
851.342	9.94
851.513	12.47
851.683	11.07
851.853	11.06
852.024	10.89
852.194	10.09
852.364	14.04
852.534	15.82
852.705	17.6
852.875	20.38
853.045	17.76
853.215	18.59
853.385	19.66
853.555	26.07
853.725	24.31
853.895	23.77
854.066	20.31
854.236	22.38
854.406	26.96
854.576	27.02
854.746	23.61
854.916	28.02
855.086	29
855.256	34.16
855.425	30.43
855.595	32.31
855.765	32.79
855.935	27.48
856.105	23.58
856.275	18.65
856.445	12.24
856.614	8.59
856.784	9.63
856.954	13.39
857.124	5.81
857.294	5.06
857.463	6.52
857.633	8.68
857.803	1.79
857.972	1.78
858.142	-3.82
858.312	2.39
858.481	-0.31
858.651	-3.07
858.821	-9.15
858.99	-8.15
859.16	-16.86
859.329	-12.8
859.499	-8.77
859.668	-4.32
859.838	0.02
860.007	1.29
860.177	5.78
860.346	8.39
860.516	3.91
860.685	5.6
860.854	10.1
861.024	6.94
861.193	5.09
861.363	9.79
861.532	7.97
861.701	12.6
861.87	11.42
862.04	14.2
862.209	18.03
862.378	19.48
862.547	20.5
862.717	23.43
862.886	23.68
863.055	20.34
863.224	15.26
863.393	9.34
863.563	6.05
863.732	6.26
863.901	-0.46
864.07	11.86
864.239	10.35
864.408	9.82
864.577	10.83
864.746	12.97
864.915	9.03
865.084	9.2
865.253	4.83
865.422	3.72
865.591	0.55
865.76	-2.94
865.929	-3.02
866.097	-5.8
866.266	-9.74
866.435	-19.74
866.604	-15.99
866.773	-12.58
866.942	-11.19
867.11	-10.68
867.279	-13.41
867.448	-11.36
867.617	-24.45
867.785	-26.97
867.954	-39.97
868.123	-35.75
868.291	-43.79
868.46	-38.05
868.629	-39.6
868.797	-33.6
868.966	-42.23
869.134	-25.82
869.303	-15.74
869.472	-17.72
869.64	-27.02
869.809	-14.49
869.977	-0.93
870.146	-7.37
870.314	-8.4
870.482	-6.03
870.651	-8.71
870.819	-14.78
870.988	-6.8
871.156	-4.36
871.324	-8.73
871.493	-11.12
871.661	0.1
871.829	9.51
871.998	15.38
872.166	25.11
872.334	19.74
872.502	24.89
872.671	14.05
872.839	23.94
873.007	32.71
873.175	37.41
873.343	27.92
873.512	16.1
873.68	19.08
873.848	13.78
874.016	6.93
874.184	5.04
874.352	12.55
874.52	5.3
874.688	11.21
874.856	15.62
875.024	19.86
875.192	10.7
875.36	4.87
875.528	-6.76
875.696	-6.27
875.864	1.45
876.032	5.44
876.199	14.16
876.367	7.36
876.535	-4.07
876.703	3.67
876.871	16.66
877.039	21.75
877.206	28.86
877.374	36.73
877.542	43.38
877.71	54.55
877.877	51.15
878.045	62.14
878.213	45.6
878.38	56.35
878.548	62.21
878.715	68.65
878.883	68.35
879.051	74.26
879.218	59.74
879.386	55.52
879.553	46.52
879.721	36.96
879.888	28.08
880.056	35.66
880.223	24.51
880.391	-1.18
880.558	-2.49
880.726	20.92
880.893	17.77
881.06	2.41
881.228	-22.33
881.395	-3.8
881.562	11.07
881.73	6.32
881.897	-23.1
882.064	-18.28
882.231	-45.33
882.399	-44.3
882.566	-43.73
882.733	-52.15
882.9	-123.04
883.068	-83.18
883.235	-61.28
883.402	-56.7
883.569	-32.51
883.736	-1.41
883.903	6.95
884.07	4.99
884.237	-27.29
884.404	-26.61
884.571	-13.68
884.738	-0.21
884.905	-8.8
885.072	-36.75
885.239	-22.92
885.406	-6.64
