Data from Transmission_09-35-21-715.txt Node
Date: Fri Aug 24 09:35:21 EEST 2018
User: tibor.sos
Spectrometer: USB4F01757
Scans to average: 10
Trigger mode: 4
Integration Time (sec): 1.000000E-2
Electric dark correction enabled: true
Boxcar width: 10
XAxis mode: Wavelengths
Number of Pixels in Spectrum: 3648
>>>>>Begin Spectral Data<<<<<
178.758	-79.94
178.974	-252.67
179.191	-291.84
179.407	-80.65
179.624	-69.7
179.84	-75.15
180.057	-79.6
180.273	-50.67
180.489	-29.84
180.706	-137.5
180.922	-81.44
181.138	-60.33
181.355	19.71
181.571	37.51
181.787	83.69
182.004	49.83
182.22	30.89
182.436	77.69
182.653	98.58
182.869	91.91
183.085	115.86
183.301	116.98
183.518	91.76
183.734	80.91
183.95	96.26
184.166	97.21
184.383	112.45
184.599	113.14
184.815	103.23
185.031	79.07
185.247	109.36
185.463	114.42
185.68	120.05
185.896	131.71
186.112	186.97
186.328	162.78
186.544	188.43
186.76	226.56
186.976	183.9
187.192	203.08
187.408	242.36
187.624	283.61
187.84	195.91
188.056	168.58
188.272	172.45
188.488	166.86
188.704	160.2
188.92	175.75
189.136	138.77
189.352	129.48
189.568	167.46
189.784	186.77
190	184.58
190.216	197.62
190.432	199.07
190.648	207.23
190.864	497.05
191.08	386.24
191.296	174.42
191.511	197.29
191.727	236.76
191.943	276.4
192.159	162.64
192.375	185.6
192.591	271.91
192.806	394.28
193.022	260.78
193.238	628.57
193.454	480.92
193.669	759.31
193.885	768.44
194.101	981.23
194.317	578.7
194.532	3393.26
194.748	-2420.17
194.964	937.11
195.18	444.67
195.395	350.06
195.611	317.17
195.827	509.23
196.042	873.9
196.258	548.5
196.473	313.66
196.689	438.78
196.905	610.82
197.12	1726.73
197.336	502.49
197.551	-374.9
197.767	82800
197.982	351.57
198.198	2065.75
198.414	1874.16
198.629	531.18
198.845	273.54
199.06	323.05
199.276	220.24
199.491	787.03
199.707	247.5
199.922	195.78
200.137	222.16
200.353	198.26
200.568	161.62
200.784	138.96
200.999	156.32
201.215	179.13
201.43	196.16
201.645	191.92
201.861	254.62
202.076	271.78
202.291	306.06
202.507	284.27
202.722	216.76
202.937	458.54
203.153	341.2
203.368	265.45
203.583	168.67
203.798	168.81
204.014	166.17
204.229	165.8
204.444	170.78
204.659	296.77
204.875	603.12
205.09	-1031.93
205.305	2362.26
205.52	-1108.94
205.735	-1008.38
205.951	4064
206.166	-238.99
206.381	-69.3
206.596	-1243.64
206.811	-102.92
207.026	-197.79
207.241	10.44
207.457	228.04
207.672	568.6
207.887	-672.9
208.102	3.34
208.317	-120.84
208.532	101.69
208.747	131.15
208.962	240.93
209.177	-230.87
209.392	-166.98
209.607	30.2
209.822	66.76
210.037	86.84
210.252	139.61
210.467	242.71
210.682	128.06
210.897	114.99
211.112	72.36
211.326	120.64
211.541	28.74
211.756	41.55
211.971	18.44
212.186	7.26
212.401	-4.76
212.616	4.9
212.831	17.74
213.045	71.36
213.26	54.69
213.475	86.87
213.69	111.05
213.905	114.21
214.119	340.27
214.334	29.63
214.549	-4.86
214.764	-91.19
214.978	-43.69
215.193	-44.27
215.408	-892.31
215.622	282.26
215.837	1920
216.052	-1691.95
216.266	-321.01
216.481	-354.13
216.696	-253.36
216.91	7987.88
217.125	871.73
217.34	1204.15
217.554	1083.24
217.769	-456.61
217.983	-196.94
218.198	-416.16
218.412	-766.56
218.627	627.17
218.842	393.48
219.056	265.2
219.271	268.87
219.485	473.34
219.7	464.78
219.914	316.88
220.129	571.12
220.343	334.72
220.558	208.15
220.772	202.64
220.986	213.66
221.201	289.36
221.415	-120.27
221.63	-38.53
221.844	-63.14
222.058	-77.43
222.273	-94.75
222.487	-75.93
222.702	-67.11
222.916	-11.84
223.13	32.56
223.344	10.1
223.559	4.71
223.773	28.06
223.987	25.22
224.202	31.35
224.416	37.7
224.63	40.03
224.844	58.55
225.059	8.24
225.273	-1668.69
225.487	988.8
225.701	193.52
225.915	123.87
226.13	98.56
226.344	100.63
226.558	92.59
226.772	69.67
226.986	88
227.2	100.83
227.415	106.88
227.629	126.08
227.843	148.92
228.057	110.2
228.271	96.57
228.485	105.56
228.699	135.46
228.913	143.09
229.127	118.74
229.341	141.54
229.555	172.23
229.769	200.23
229.983	236.77
230.197	245.47
230.411	385.28
230.625	505.62
230.839	390.43
231.053	625.99
231.267	1274.07
231.481	676.06
231.695	502.1
231.909	311.24
232.122	180.17
232.336	165.16
232.55	207.39
232.764	173.6
232.978	282.31
233.192	255.68
233.405	297.87
233.619	225.58
233.833	116.01
234.047	250.29
234.261	136.28
234.474	100.58
234.688	-37.21
234.902	-22.86
235.116	57.85
235.329	126.83
235.543	125.07
235.757	55.21
235.97	6.49
236.184	67.75
236.398	67.18
236.612	72.71
236.825	89.75
237.039	124.6
237.252	92.57
237.466	363.64
237.68	1213.56
237.893	-88000
238.107	-49.01
238.32	187.83
238.534	-117.03
238.748	51.68
238.961	93.99
239.175	124.81
239.388	138.12
239.602	41.06
239.815	119.35
240.029	-48.2
240.242	-132.95
240.456	-111.26
240.669	-95.8
240.882	-76.4
241.096	-129.84
241.309	-31.87
241.523	-54.51
241.736	-98.86
241.95	643.58
242.163	-977.44
242.376	-199.56
242.59	-1292.8
242.803	10613.33
243.016	580.06
243.23	1899.16
243.443	16986.67
243.656	-2249.62
243.87	-374.6
244.083	-182.46
244.296	-163.1
244.509	-91.07
244.723	-81.46
244.936	-45.13
245.149	-95.15
245.362	-107.84
245.576	-61.67
245.789	-97.41
246.002	-40.92
246.215	-41.92
246.428	-22.75
246.641	2.7
246.855	-18.99
247.068	-33.84
247.281	-75.9
247.494	1.84
247.707	-16.79
247.92	-11.94
248.133	19.81
248.346	8.79
248.559	30.02
248.772	10.73
248.985	0.43
249.198	19.06
249.411	-4.21
249.624	12.31
249.837	11.77
250.05	9
250.263	-0.26
250.476	-18.89
250.689	-14.03
250.902	-13.04
251.115	-21.77
251.328	-12.66
251.541	-3.19
251.754	8.38
251.967	8.51
252.18	14.71
252.393	7.39
252.605	6.01
252.818	-0.63
253.031	-8.75
253.244	-0
253.457	2.64
253.67	-7.52
253.882	5.42
254.095	10.96
254.308	10.68
254.521	9.59
254.733	16.56
254.946	19.53
255.159	22.1
255.372	22.1
255.584	26.87
255.797	26.66
256.01	24.78
256.222	21.16
256.435	15.74
256.648	24.33
256.86	31.97
257.073	38.9
257.285	42.82
257.498	56.03
257.711	35.98
257.923	15.48
258.136	26.51
258.348	27.54
258.561	24.75
258.773	13.56
258.986	10.02
259.198	2.48
259.411	-6.81
259.623	0.68
259.836	-2.86
260.048	-7.19
260.261	3.86
260.473	-0.72
260.686	-8.03
260.898	-4.92
261.111	-15.98
261.323	-12
261.535	-14.07
261.748	-2.93
261.96	2.55
262.173	9.67
262.385	21.06
262.597	19.79
262.81	18.13
263.022	15
263.234	28.53
263.447	25.5
263.659	27.96
263.871	23.63
264.083	27.04
264.296	31.32
264.508	32.15
264.72	27.81
264.932	34.28
265.145	30.53
265.357	21.9
265.569	21.39
265.781	14.61
265.993	16.28
266.205	3.52
266.418	3.92
266.63	-7.97
266.842	-2.34
267.054	-11.36
267.266	-15.84
267.478	-10.51
267.69	-9.98
267.902	-19.08
268.114	-36.96
268.326	-28.65
268.538	-30.83
268.75	-21.35
268.962	-35.5
269.174	-32.35
269.386	-16.33
269.598	4.62
269.81	3.81
270.022	-1.58
270.234	5.54
270.446	5.27
270.658	3.49
270.87	6.26
271.082	10.58
271.294	9.44
271.506	7.17
271.718	11.73
271.929	10.13
272.141	7.18
272.353	7.61
272.565	11
272.777	8.8
272.989	3.48
273.2	7.36
273.412	10.04
273.624	8.4
273.836	7.63
274.047	7.11
274.259	9.65
274.471	15.85
274.683	11.01
274.894	14.07
275.106	21.31
275.318	15.93
275.529	17.64
275.741	12.2
275.953	25.61
276.164	28.63
276.376	35.88
276.588	38.88
276.799	52.97
277.011	56.67
277.222	73
277.434	72.74
277.646	63.43
277.857	65.23
278.069	62.59
278.28	47.4
278.492	39.02
278.703	29.97
278.915	36.45
279.126	43.6
279.338	40.1
279.549	37.22
279.761	38.74
279.972	41.04
280.183	45.09
280.395	33.92
280.606	28.37
280.818	22.5
281.029	26.96
281.24	22.92
281.452	22.3
281.663	19.21
281.875	24.93
282.086	25.23
282.297	23.44
282.508	29.33
282.72	33.73
282.931	33.94
283.142	36.6
283.354	29.84
283.565	28.58
283.776	27.72
283.987	16.74
284.199	8.59
284.41	6.46
284.621	16.01
284.832	25.72
285.043	23.66
285.254	17.76
285.466	6.37
285.677	10.85
285.888	0.57
286.099	-7.24
286.31	3.04
286.521	-1.79
286.732	-0.78
286.943	4.01
287.154	9.44
287.366	2.32
287.577	11.05
287.788	12.28
287.999	11.1
288.21	3.5
288.421	9.32
288.632	9.98
288.843	9.75
289.054	5.24
289.264	0
289.475	-4.98
289.686	3.53
289.897	7.4
290.108	4.87
290.319	13.9
290.53	20.31
290.741	12.2
290.952	14.38
291.163	18.58
291.373	18.73
291.584	21.07
291.795	29.2
292.006	30.54
292.217	30.58
292.427	34.22
292.638	39.07
292.849	38.85
293.06	38.49
293.27	39.21
293.481	40
293.692	38.54
293.903	43.48
294.113	45.35
294.324	51.64
294.535	51.86
294.745	47.13
294.956	52.12
295.167	45.62
295.377	41.13
295.588	34.38
295.798	30.54
296.009	22.84
296.22	19.9
296.43	11.8
296.641	10.98
296.851	9.29
297.062	6.93
297.272	10.41
297.483	15.06
297.693	12.78
297.904	11.31
298.114	15.66
298.325	13.77
298.535	6.63
298.746	-1.85
298.956	6.87
299.167	6.25
299.377	3.44
299.587	15.44
299.798	26.29
300.008	27.88
300.219	24.17
300.429	35.28
300.639	34.93
300.85	40.8
301.06	31.68
301.27	28.51
301.481	29.52
301.691	28.6
301.901	24.77
302.111	25.19
302.322	27.4
302.532	23.19
302.742	24.73
302.952	23.64
303.163	21.99
303.373	12.4
303.583	17.37
303.793	20.34
304.003	15.63
304.214	8.9
304.424	8.64
304.634	5.34
304.844	1.09
305.054	7.49
305.264	7.1
305.474	13.64
305.684	14.57
305.894	19.81
306.104	18.65
306.314	18.79
306.525	15.15
306.735	12.91
306.945	11.86
307.155	9.3
307.365	15.19
307.575	19.92
307.784	20.54
307.994	15.6
308.204	6.94
308.414	6.14
308.624	7.77
308.834	12.61
309.044	19.61
309.254	21.96
309.464	18.81
309.674	14.46
309.884	12.55
310.093	15.22
310.303	9.92
310.513	16.16
310.723	16.8
310.933	16.88
311.142	20.34
311.352	18.42
311.562	22.54
311.772	21.73
311.981	20.74
312.191	20.49
312.401	24.86
312.611	29.06
312.82	27.66
313.03	30.39
313.24	31.52
313.449	31.46
313.659	30.28
313.869	27.22
314.078	32.07
314.288	31.47
314.497	26.98
314.707	32.06
314.917	30.73
315.126	36.05
315.336	36.12
315.545	27.52
315.755	33.88
315.964	33.06
316.174	30.41
316.383	26.28
316.593	26.69
316.802	21.71
317.012	18.33
317.221	18.02
317.431	10.94
317.64	10.56
317.849	4.32
318.059	1.1
318.268	8.39
318.478	11.88
318.687	11.79
318.896	16.55
319.106	14.31
319.315	12.24
319.524	-1.34
319.734	-1.31
319.943	7.11
320.152	5.49
320.362	-1.05
320.571	3.57
320.78	3.11
320.989	9.22
321.199	11.68
321.408	14.47
321.617	14.73
321.826	20.26
322.035	15.74
322.245	14.2
322.454	18.7
322.663	15.99
322.872	7.52
323.081	8.62
323.29	2.12
323.5	-1.88
323.709	0.77
323.918	10.9
324.127	6.41
324.336	-1.86
324.545	-6.62
324.754	-0.05
324.963	-2.58
325.172	1.67
325.381	-1.06
325.59	-3.36
325.799	-10.15
326.008	-18.49
326.217	-19.92
326.426	-10.33
326.635	-6.84
326.844	-13.07
327.053	-11.72
327.262	0.22
327.47	-6.63
327.679	4.1
327.888	2.97
328.097	1.2
328.306	-1.1
328.515	4.41
328.724	10.66
328.932	5.9
329.141	4.2
329.35	8.19
329.559	9.4
329.768	10.35
329.976	7.78
330.185	8.24
330.394	18.35
330.602	19.18
330.811	12.13
331.02	17.38
331.229	23.6
331.437	27.76
331.646	23.38
331.855	28.9
332.063	24.35
332.272	28.94
332.48	28.73
332.689	27.48
332.898	26.53
333.106	21.04
333.315	24.47
333.523	19.6
333.732	17.46
333.94	19.94
334.149	16.29
334.357	21.28
334.566	25.26
334.774	18.44
334.983	18.95
335.191	19.6
335.4	16.58
335.608	11.37
335.817	-11.12
336.025	-5.35
336.234	-20.19
336.442	-10.18
336.65	-9.06
336.859	1.6
337.067	2.04
337.275	4.68
337.484	1.2
337.692	5.95
337.9	15.55
338.109	10.96
338.317	8.46
338.525	16.57
338.734	27.72
338.942	26.88
339.15	29.63
339.358	21.34
339.567	33.81
339.775	34.05
339.983	30.68
340.191	36.26
340.399	26.01
340.608	38.46
340.816	36.51
341.024	39.87
341.232	34.03
341.44	36.02
341.648	30.78
341.856	38.32
342.064	41.49
342.272	38.56
342.481	43.54
342.689	42.83
342.897	38.25
343.105	32.75
343.313	37.91
343.521	36.69
343.729	34.63
343.937	25.13
344.145	17.33
344.353	21.97
344.56	23.09
344.768	22.18
344.976	17.73
345.184	13.98
345.392	9.01
345.6	19.36
345.808	14.14
346.016	18.62
346.224	21.66
346.431	20.38
346.639	21.21
346.847	19.4
347.055	12.62
347.263	6.69
347.471	-2.88
347.678	-16.29
347.886	-20.32
348.094	-8.74
348.302	-6.54
348.509	-4.59
348.717	-11.95
348.925	-11.33
349.132	-10.85
349.34	-11.31
349.548	-2.61
349.755	-7.4
349.963	-22.58
350.171	-18.77
350.378	-17.66
350.586	-25.43
350.793	-27.53
351.001	-28.05
351.209	-29.01
351.416	-17.05
351.624	-13.88
351.831	-14.8
352.039	-17.27
352.246	-24
352.454	-35.02
352.661	-31.66
352.869	-21.3
353.076	-12.23
353.284	-5.12
353.491	1.53
353.699	2.51
353.906	-1.32
354.113	0.33
354.321	-4.73
354.528	-5.94
354.736	-16.5
354.943	-16.16
355.15	-14.08
355.358	-17.73
355.565	-24.94
355.772	-29.74
355.98	-18.22
356.187	-13.31
356.394	-7.36
356.601	0.73
356.809	9.04
357.016	10.58
357.223	5.7
357.43	-3.58
357.638	-4.33
357.845	-5.4
358.052	-14.49
358.259	-7.55
358.466	-7.48
358.673	-0.7
358.881	1.44
359.088	5.41
359.295	10.32
359.502	3.74
359.709	3.33
359.916	17.22
360.123	11.54
360.33	-4.23
360.537	0.2
360.744	-0.19
360.951	-3.77
361.158	-5.17
361.365	-5.69
361.572	2.3
361.779	10.31
361.986	9.27
362.193	14.84
362.4	21.38
362.607	3.03
362.814	4.47
363.021	10.94
363.228	7.42
363.435	14.24
363.641	15.81
363.848	16.21
364.055	14.39
364.262	8.9
364.469	7.34
364.676	19.98
364.882	16.04
365.089	13.3
365.296	18.36
365.503	16.55
365.709	10.43
365.916	7.04
366.123	14.89
366.33	14.04
366.536	8.69
366.743	6.52
366.95	10.79
367.156	19.68
367.363	15.41
367.57	17.86
367.776	21.74
367.983	21.55
368.19	21.05
368.396	30.37
368.603	33.22
368.809	44
369.016	38.36
369.222	42.43
369.429	48.27
369.635	43.78
369.842	39.73
370.048	45.89
370.255	41.95
370.461	38.1
370.668	41.13
370.874	41.94
371.081	48.21
371.287	52.51
371.494	43.64
371.7	46.8
371.906	44.04
372.113	42.14
372.319	41.9
372.526	44.92
372.732	36.4
372.938	29.61
373.145	27.07
373.351	29.16
373.557	28.84
373.763	26.2
373.97	26.29
374.176	34.54
374.382	35.4
374.588	38
374.795	29.34
375.001	23.71
375.207	24.28
375.413	16.76
375.62	18.53
375.826	24.72
376.032	20.94
376.238	15.27
376.444	11.38
376.65	15.64
376.856	12.25
377.062	19.13
377.269	27.25
377.475	24.71
377.681	22.23
377.887	19.71
378.093	11.52
378.299	14.19
378.505	0.84
378.711	-5.67
378.917	-1.38
379.123	5.5
379.329	9.9
379.535	9.89
379.741	9.26
379.947	2.16
380.152	5.37
380.358	7.53
380.564	6.66
380.77	2.13
380.976	-7.07
381.182	1.59
381.388	3.76
381.594	-0.05
381.799	2.47
382.005	2.96
382.211	11.19
382.417	17.77
382.623	14.3
382.828	25.78
383.034	28.41
383.24	26.73
383.445	20.35
383.651	17.11
383.857	16.53
384.063	26.75
384.268	21.11
384.474	17.98
384.68	19.42
384.885	29.54
385.091	31.09
385.296	33.9
385.502	31.9
385.708	29.97
385.913	35.74
386.119	31.9
386.324	45.81
386.53	40.74
386.735	40.13
386.941	42
387.146	32.7
387.352	27.16
387.557	33.59
387.763	42.07
387.968	35.1
388.174	36.08
388.379	29.79
388.585	32.35
388.79	30.02
388.996	27.07
389.201	25.82
389.406	19.26
389.612	11.42
389.817	6.82
390.022	10.2
390.228	13.81
390.433	13.49
390.638	2.5
390.844	4.8
391.049	11.61
391.254	9.99
391.459	12.62
391.665	6.28
391.87	-2.73
392.075	-2.88
392.28	1.38
392.485	-1.31
392.691	-3.41
392.896	-1.01
393.101	-4.51
393.306	0.11
393.511	0.54
393.716	9.56
393.922	15.03
394.127	11.17
394.332	19.63
394.537	15.03
394.742	15.61
394.947	23
395.152	15.12
395.357	6.7
395.562	6.62
395.767	-6.04
395.972	-0.78
396.177	-0.06
396.382	2.84
396.587	5.95
396.792	6.98
396.997	11.15
397.202	16.4
397.407	15.73
397.611	13.56
397.816	15.46
398.021	9.12
398.226	9.74
398.431	13.44
398.636	2.17
398.841	5.53
399.045	14.42
399.25	8.43
399.455	16.28
399.66	19.38
399.864	13.95
400.069	19.57
400.274	30.51
400.479	29.12
400.683	31.27
400.888	35.63
401.093	30.71
401.297	30.99
401.502	28.99
401.707	34.9
401.911	46.51
402.116	41.84
402.321	50.92
402.525	53.88
402.73	46.24
402.934	45.83
403.139	50.41
403.344	44.79
403.548	43.07
403.753	38.49
403.957	31.31
404.162	36.73
404.366	41.98
404.571	22.94
404.775	31.12
404.98	22.89
405.184	16.55
405.388	25.67
405.593	20.98
405.797	21.7
406.002	30.69
406.206	29.18
406.41	34.7
406.615	36.98
406.819	37.39
407.023	40.7
407.228	36.71
407.432	26.85
407.636	21.97
407.841	25.99
408.045	26.87
408.249	31.39
408.453	36.07
408.658	28.56
408.862	32.63
409.066	30.69
409.27	39.02
409.474	40.05
409.679	34.13
409.883	39.03
410.087	37.25
410.291	20.22
410.495	14.73
410.699	5.74
410.903	5.21
411.108	7.59
411.312	0.93
411.516	-2.25
411.72	16.96
411.924	17.55
412.128	22.13
412.332	20.84
412.536	24.81
412.74	17.79
412.944	17.72
413.148	15.71
413.352	11.12
413.556	5.17
413.76	2.85
413.964	12.54
414.167	8.99
414.371	13.7
414.575	18.42
414.779	8.71
414.983	14.54
415.187	16.95
415.391	14.9
415.594	25.52
415.798	33.41
416.002	23.86
416.206	27.05
416.41	17.35
416.613	9.63
416.817	5.89
417.021	14.88
417.225	27.7
417.428	35.06
417.632	16.65
417.836	13.97
418.039	16.28
418.243	18.76
418.447	12.76
418.65	13.1
418.854	19.78
419.057	31.74
419.261	34.7
419.465	28.55
419.668	32.64
419.872	27.01
420.075	23.13
420.279	27.46
420.482	37.41
420.686	42.79
420.889	45.43
421.093	49.06
421.296	45.21
421.5	30.36
421.703	19.42
421.907	44.38
422.11	49.43
422.314	60.27
422.517	51.08
422.72	50.47
422.924	48.96
423.127	46
423.33	42.97
423.534	40.37
423.737	26.68
423.94	23.57
424.144	29.56
424.347	33.16
424.55	37.9
424.754	33.01
424.957	27.39
425.16	27.25
425.363	29.24
425.567	37.06
425.77	39.59
425.973	47.76
426.176	35.42
426.379	35.94
426.582	29.22
426.786	36.32
426.989	40.06
427.192	39.4
427.395	39.61
427.598	38.94
427.801	38.73
428.004	41.33
428.207	42.41
428.41	39.42
428.613	32.98
428.816	33.03
429.019	29.42
429.222	25.2
429.425	25.72
429.628	20.37
429.831	21.93
430.034	19.73
430.237	21.15
430.44	20.42
430.643	17.44
430.846	21.23
431.049	19.27
431.252	16.85
431.454	19.23
431.657	13.04
431.86	17.22
432.063	11.16
432.266	7.19
432.469	6.05
432.671	3.03
432.874	11.03
433.077	0.56
433.28	7.44
433.482	15.4
433.685	7.55
433.888	7.36
434.09	-3.72
434.293	-6.81
434.496	-10.43
434.698	-13.37
434.901	1.08
435.104	-2.14
435.306	-1.72
435.509	11.05
435.712	15.37
435.914	11.39
436.117	9.15
436.319	21.37
436.522	29.65
436.724	30.3
436.927	27.25
437.129	30.32
437.332	36.2
437.534	37.03
437.737	34.91
437.939	48.44
438.142	51.5
438.344	62.29
438.547	75.76
438.749	79.75
438.951	75.02
439.154	76.13
439.356	74.07
439.558	79.96
439.761	61.21
439.963	47.03
440.165	47.38
440.368	51.48
440.57	42.81
440.772	34.49
440.975	25.13
441.177	46.4
441.379	47.95
441.581	56.05
441.784	43.3
441.986	44
442.188	31.62
442.39	28.27
442.592	11.77
442.795	18.39
442.997	15.12
443.199	18.26
443.401	16.56
443.603	15.77
443.805	13.56
444.007	18.66
444.209	14.55
444.411	16.51
444.613	22.98
444.815	30.49
445.017	38.22
445.219	40.45
445.421	36.6
445.623	32.83
445.825	23.67
446.027	28.77
446.229	25.01
446.431	36.85
446.633	45.82
446.835	50.47
447.037	42.29
447.239	38.11
447.441	39.69
447.643	35.24
447.844	35.36
448.046	45.03
448.248	39.65
448.45	47.49
448.652	42.08
448.853	38.29
449.055	43.67
449.257	36.66
449.459	35.56
449.66	39.4
449.862	43.9
450.064	47.67
450.266	45.01
450.467	42.88
450.669	50.51
450.871	40.37
451.072	52.33
451.274	51.39
451.475	53.74
451.677	53.72
451.879	59.9
452.08	58.74
452.282	55.11
452.483	61.31
452.685	62.7
452.886	75.28
453.088	51.5
453.289	34.35
453.491	27.09
453.692	30.04
453.894	18.77
454.095	12.11
454.297	14.31
454.498	9.61
454.7	20.34
454.901	12.65
455.102	27.02
455.304	18.84
455.505	15.13
455.706	11.1
455.908	1.35
456.109	-4.04
456.31	-2.53
456.512	-15.17
456.713	-8.1
456.914	-15.56
457.116	-28.51
457.317	-13.34
457.518	-11.59
457.719	-6.86
457.921	-6.23
458.122	-12.39
458.323	-14.2
458.524	-11.01
458.725	-6.1
458.926	-6.62
459.128	-6.85
459.329	-17.13
459.53	-19.26
459.731	-18.21
459.932	-29.25
460.133	-21.55
460.334	-8.66
460.535	6.83
460.736	13.87
460.937	5.8
461.138	6.16
461.339	11.43
461.54	12.77
461.741	19.97
461.942	16.62
462.143	25.66
462.344	24.17
462.545	26.21
462.746	23.38
462.947	22.83
463.148	19.05
463.348	17.57
463.549	24.86
463.75	29.59
463.951	31.37
464.152	35.54
464.353	35.31
464.553	40.97
464.754	37.7
464.955	37.71
465.156	40.65
465.356	43.48
465.557	41.86
465.758	39.03
465.959	39.96
466.159	40.52
466.36	31.23
466.561	24.72
466.761	22.29
466.962	24.32
467.163	28.18
467.363	24.49
467.564	23.41
467.764	26.32
467.965	24.05
468.166	21.87
468.366	26.4
468.567	25.33
468.767	21.2
468.968	13.95
469.168	12.25
469.369	12.73
469.569	11.33
469.77	12.41
469.97	15.89
470.17	5.88
470.371	1.91
470.571	4.1
470.772	21.33
470.972	23.54
471.172	22.16
471.373	16.67
471.573	20.58
471.773	16.32
471.974	16.62
472.174	14.28
472.374	17.61
472.575	19.82
472.775	20.71
472.975	11.8
473.175	15.62
473.376	17.26
473.576	15.93
473.776	15.36
473.976	16.24
474.177	14.2
474.377	16.44
474.577	20.04
474.777	21.5
474.977	18.27
475.177	16.75
475.377	21.49
475.577	24.78
475.777	26.05
475.978	29.4
476.178	24.42
476.378	24.7
476.578	22.65
476.778	19.01
476.978	19.04
477.178	24.35
477.378	23.8
477.578	18.95
477.778	15.54
477.977	16.32
478.177	13.71
478.377	10.69
478.577	14.83
478.777	19.25
478.977	15.72
479.177	14.22
479.377	17.43
479.577	10.58
479.776	9.28
479.976	6.29
480.176	7.84
480.376	13.15
480.576	15.54
480.775	12.35
480.975	12.82
481.175	15.21
481.374	12.65
481.574	17.38
481.774	23.76
481.974	25.78
482.173	28.12
482.373	28.33
482.572	30.99
482.772	33.28
482.972	31.45
483.171	32.84
483.371	36.3
483.57	34.46
483.77	36.83
483.97	34.74
484.169	38.67
484.369	37.82
484.568	35.02
484.768	34.74
484.967	39.72
485.167	39.54
485.366	36.8
485.566	36.82
485.765	35.38
485.964	31.08
486.164	27.82
486.363	26.62
486.563	27.04
486.762	27.1
486.961	25.75
487.161	26.32
487.36	22.01
487.559	19.01
487.759	20.71
487.958	14.98
488.157	14.46
488.356	10.55
488.556	9.45
488.755	10.16
488.954	7.1
489.153	5.48
489.353	11.3
489.552	12.17
489.751	8.28
489.95	2.87
490.149	1.82
490.348	4.26
490.548	3.52
490.747	1.75
490.946	4.05
491.145	2.96
491.344	1.17
491.543	7.44
491.742	5.95
491.941	1.02
492.14	2.27
492.339	1.81
492.538	0.04
492.737	7.31
492.936	9.78
493.135	11
493.334	6.37
493.533	-1.32
493.732	12.45
493.931	19.48
494.13	17.98
494.328	21.38
494.527	23.88
494.726	21.85
494.925	18.78
495.124	19.04
495.323	21.25
495.521	19.97
495.72	20.65
495.919	21.57
496.118	26.33
496.316	29.32
496.515	31.07
496.714	28.46
496.913	28.2
497.111	27.64
497.31	26.32
497.509	30.39
497.707	30.67
497.906	22.3
498.105	19.38
498.303	19.72
498.502	20.84
498.7	21.94
498.899	18.33
499.097	19.32
499.296	16.87
499.495	15.69
499.693	17.7
499.892	16.38
500.09	15.49
500.289	15.09
500.487	14.53
500.686	12.8
500.884	14.04
501.082	9.6
501.281	4.7
501.479	9.9
501.678	8.46
501.876	11.17
502.074	11.36
502.273	11.9
502.471	16.07
502.669	10.9
502.868	8.98
503.066	16.38
503.264	18.75
503.463	19.66
503.661	14.1
503.859	13.11
504.057	15.11
504.256	15.39
504.454	12.86
504.652	14.65
504.85	18.21
505.048	21.1
505.246	22.92
505.445	24.58
505.643	22.07
505.841	24.41
506.039	22.95
506.237	19.9
506.435	19.34
506.633	13
506.831	21.71
507.029	24.54
507.227	22.66
507.425	24.9
507.623	26.18
507.821	29.41
508.019	33.15
508.217	33.03
508.415	34.09
508.613	33.81
508.811	34.46
509.009	32.37
509.207	31.56
509.405	32.32
509.603	32.82
509.8	31.37
509.998	31.5
510.196	30.19
510.394	30.63
510.592	33.07
510.79	38.04
510.987	34.02
511.185	31.47
511.383	33.33
511.581	28.17
511.778	27.11
511.976	31.38
512.174	28.74
512.371	24.54
512.569	23.41
512.767	23.49
512.964	20.05
513.162	18.67
513.36	16.87
513.557	12.42
513.755	11.37
513.952	10.83
514.15	7.18
514.348	5.48
514.545	7.59
514.743	8.35
514.94	12.13
515.138	9.2
515.335	8.51
515.533	6.34
515.73	10.86
515.927	12.75
516.125	8.64
516.322	8.19
516.52	13.25
516.717	13.12
516.915	14.94
517.112	17.04
517.309	15.79
517.507	17.85
517.704	14.97
517.901	13.87
518.099	15.84
518.296	17.46
518.493	19.07
518.69	18.39
518.888	17.88
519.085	15.17
519.282	18.26
519.479	18.65
519.676	15.46
519.874	14.06
520.071	10.91
520.268	9.73
520.465	12.16
520.662	9.43
520.859	12.66
521.056	11.4
521.254	14.35
521.451	17.88
521.648	22.01
521.845	23.45
522.042	27.51
522.239	28.49
522.436	27.68
522.633	24.29
522.83	24.26
523.027	19.41
523.224	19.29
523.421	18.95
523.618	18.54
523.815	25.49
524.011	25.08
524.208	27.45
524.405	29.84
524.602	28.61
524.799	24.23
524.996	18.49
525.193	15.88
525.389	9.74
525.586	9.18
525.783	2.42
525.98	8.62
526.176	7.18
526.373	3.84
526.57	5.55
526.767	4.37
526.963	6.29
527.16	13.19
527.357	14.93
527.553	16.06
527.75	15.99
527.947	9.83
528.143	7.46
528.34	3.82
528.537	1.39
528.733	4.21
528.93	11.36
529.126	16.69
529.323	17.52
529.519	19.33
529.716	16.81
529.912	16.23
530.109	14.57
530.305	12.28
530.502	11.43
530.698	10.79
530.895	14.24
531.091	15.65
531.288	11.92
531.484	8.86
531.68	7.68
531.877	9.04
532.073	9.05
532.269	12.73
532.466	12.24
532.662	12.35
532.858	8.83
533.055	6.97
533.251	5.8
533.447	8.65
533.643	12.45
533.84	11.24
534.036	12.86
534.232	14.51
534.428	13.22
534.624	14.91
534.821	16.42
535.017	17.37
535.213	18
535.409	22.46
535.605	24.92
535.801	24.73
535.997	23.57
536.193	24.28
536.389	23.01
536.586	26.18
536.782	28.39
536.978	29.15
537.174	33.18
537.37	33.33
537.566	32.95
537.762	27.27
537.958	30.14
538.153	29.93
538.349	30
538.545	32.36
538.741	31.44
538.937	34.22
539.133	31.82
539.329	26.89
539.525	21.92
539.721	20.59
539.916	22.61
540.112	20.76
540.308	22.25
540.504	22.42
540.699	22.99
540.895	19.33
541.091	23.04
541.287	21.91
541.482	19.07
541.678	20.42
541.874	21.25
542.069	22.54
542.265	26.63
542.461	26.52
542.656	25.74
542.852	26.29
543.048	23.1
543.243	24.44
543.439	26.6
543.634	26.82
543.83	25.93
544.025	22.99
544.221	26.08
544.417	28.44
544.612	27.59
544.807	28.28
545.003	26.17
545.198	24.32
545.394	25.28
545.589	28.62
545.785	25.35
545.98	26.24
546.176	24.71
546.371	20.75
546.566	17.89
546.762	16.71
546.957	19.13
547.152	20.31
547.348	19.81
547.543	19.15
547.738	17.96
547.933	17.12
548.129	19.32
548.324	17.86
548.519	14.41
548.714	14.15
548.91	13.42
549.105	17.7
549.3	15.44
549.495	13.38
549.69	11.6
549.885	11.82
550.08	14.93
550.276	18.95
550.471	21.15
550.666	21.92
550.861	21.88
551.056	17.99
551.251	17.19
551.446	19.31
551.641	21.23
551.836	23.2
552.031	27.12
552.226	26.52
552.421	25.89
552.616	27.22
552.811	28.93
553.006	28.77
553.201	25.91
553.395	27.91
553.59	27.63
553.785	26.17
553.98	27.41
554.175	23.84
554.37	21.28
554.565	21.37
554.759	22.47
554.954	23.63
555.149	25.62
555.344	27.17
555.538	24.3
555.733	22.5
555.928	23.86
556.122	23.07
556.317	20.63
556.512	20.97
556.706	19.07
556.901	18.74
557.096	17.23
557.29	18.97
557.485	21.13
557.68	18.68
557.874	21.93
558.069	22.5
558.263	24.25
558.458	26.78
558.652	24.71
558.847	24.01
559.041	24.86
559.236	23.68
559.43	21.71
559.625	25.96
559.819	25.15
560.014	22.64
560.208	20.12
560.402	22.57
560.597	21.27
560.791	21.82
560.986	20.81
561.18	20.35
561.374	20.95
561.569	17.75
561.763	19.25
561.957	16.04
562.151	13.65
562.346	13.66
562.54	13.59
562.734	12.63
562.928	12.35
563.123	11.88
563.317	14.12
563.511	15.96
563.705	13.52
563.899	14.78
564.093	14.99
564.288	17.25
564.482	17.8
564.676	22.78
564.87	23.49
565.064	23.48
565.258	24.88
565.452	21.57
565.646	24.5
565.84	23.65
566.034	25.37
566.228	26.85
566.422	26.4
566.616	25.4
566.81	27.57
567.004	25.47
567.198	26.06
567.392	24.73
567.586	21.34
567.779	22.47
567.973	23.71
568.167	26.13
568.361	25.58
568.555	25.77
568.749	22.42
568.942	21.48
569.136	22.6
569.33	21.67
569.524	24.51
569.718	24.04
569.911	26.68
570.105	26.49
570.299	25.3
570.492	24.55
570.686	25.45
570.88	25.51
571.073	25.77
571.267	24.65
571.461	23.99
571.654	25.45
571.848	24.82
572.041	24.53
572.235	23.96
572.429	24.08
572.622	22.46
572.816	23.93
573.009	24.79
573.203	23.92
573.396	25.28
573.59	24.85
573.783	23.1
573.976	21.37
574.17	21
574.363	21.46
574.557	20.61
574.75	19.51
574.943	21.96
575.137	25.15
575.33	28.07
575.523	26.07
575.717	24.39
575.91	22.93
576.103	21.66
576.297	20.67
576.49	21.42
576.683	22
576.876	22.07
577.07	21.14
577.263	21.83
577.456	21.04
577.649	21.11
577.842	22.62
578.036	23.9
578.229	25.4
578.422	24.86
578.615	26.65
578.808	24.98
579.001	24.74
579.194	23.46
579.387	22.2
579.58	23.86
579.773	25.04
579.966	25.7
580.159	25.52
580.352	25.28
580.545	24.74
580.738	24.59
580.931	22.63
581.124	23.98
581.317	21.46
581.51	21.81
581.703	21.91
581.896	20.28
582.088	20.52
582.281	19.8
582.474	20.27
582.667	20.64
582.86	23.11
583.053	20.91
583.245	21.95
583.438	21.43
583.631	23.68
583.824	22.95
584.016	23.4
584.209	22.25
584.402	23.34
584.594	23.58
584.787	23.99
584.98	25.64
585.172	26.45
585.365	27.8
585.558	26.37
585.75	26.61
585.943	26.8
586.135	26.49
586.328	24.84
586.52	24.92
586.713	24.98
586.906	23.63
587.098	23.9
587.291	23.85
587.483	22.22
587.675	21.53
587.868	22.23
588.06	21.83
588.253	23.37
588.445	23.09
588.638	20.11
588.83	20.23
589.022	18.41
589.215	18.5
589.407	20.39
589.599	21.63
589.792	22.79
589.984	23.25
590.176	21.8
590.368	23.94
590.561	24.67
590.753	23.25
590.945	23.58
591.137	21.29
591.33	19.7
591.522	20.55
591.714	17.19
591.906	19.83
592.098	19.86
592.29	21.25
592.482	21.44
592.674	22.62
592.867	22.38
593.059	22.54
593.251	22.13
593.443	21.27
593.635	19.43
593.827	16.4
594.019	15.88
594.211	16.21
594.403	15.48
594.595	16.35
594.787	15.38
594.979	15.16
595.17	17.48
595.362	18.08
595.554	18.74
595.746	19.8
595.938	17.12
596.13	16.99
596.322	16.75
596.513	13.58
596.705	15.74
596.897	14.91
597.089	15.87
597.281	14.97
597.472	14.73
597.664	15.4
597.856	17.11
598.048	17.37
598.239	17.05
598.431	16.59
598.623	14.56
598.814	13.88
599.006	15.03
599.197	16.1
599.389	16.7
599.581	16.57
599.772	17.87
599.964	17.52
600.155	17.92
600.347	17.17
600.538	19.79
600.73	19.49
600.921	19.54
601.113	18.42
601.304	17.79
601.496	17.9
601.687	19.81
601.879	18.37
602.07	18.27
602.262	18.14
602.453	18.3
602.644	16.8
602.836	17.91
603.027	16.28
603.218	15.17
603.41	14.62
603.601	13.86
603.792	13.27
603.983	13.79
604.175	13.66
604.366	12.82
604.557	15.07
604.748	13.46
604.94	13.61
605.131	13.87
605.322	13.38
605.513	14.1
605.704	13.15
605.895	14
606.086	14.01
606.278	14.58
606.469	15.2
606.66	18.14
606.851	18.19
607.042	19.6
607.233	19.55
607.424	20.1
607.615	20.21
607.806	18.2
607.997	18.46
608.188	19.56
608.379	19.64
608.57	17.46
608.761	17.11
608.952	17.44
609.142	17.54
609.333	17.45
609.524	17.07
609.715	18.95
609.906	18.44
610.097	18.86
610.287	17.85
610.478	17.74
610.669	18.22
610.86	17.55
611.051	16.81
611.241	17.33
611.432	17.01
611.623	18.23
611.813	18.67
612.004	18.34
612.195	19.29
612.385	20.19
612.576	21.05
612.767	22.59
612.957	23
613.148	23.49
613.338	23.38
613.529	22.54
613.72	20.26
613.91	19.91
614.101	20.23
614.291	22.19
614.482	22.19
614.672	21.22
614.863	22.07
615.053	21.07
615.243	20.71
615.434	20.47
615.624	19.43
615.815	21.04
616.005	20.22
616.195	18.08
616.386	17.08
616.576	17.32
616.766	17.16
616.957	17.25
617.147	17.03
617.337	17.23
617.528	15.37
617.718	14.66
617.908	13.84
618.098	13.01
618.289	12.76
618.479	11.41
618.669	11.65
618.859	11.99
619.049	12.72
619.239	12.43
619.43	10.8
619.62	10.4
619.81	10.91
620	12.79
620.19	12.23
620.38	12.05
620.57	9.59
620.76	9.28
620.95	10.75
621.14	9.91
621.33	10.21
621.52	12.33
621.71	12.17
621.9	12.32
622.09	11.87
622.28	11.63
622.47	11.48
622.659	10.15
622.849	10.76
623.039	10.92
623.229	10.64
623.419	11.04
623.609	11
623.799	9.94
623.988	9.1
624.178	9.89
624.368	9.71
624.558	12.94
624.747	12.83
624.937	11.78
625.127	11.42
625.316	11.11
625.506	11.45
625.696	12.68
625.885	13.48
626.075	14.6
626.265	14.02
626.454	14.09
626.644	15.45
626.833	14.29
627.023	14.53
627.212	14.31
627.402	15.86
627.591	16.39
627.781	16.86
627.97	16.37
628.16	17.2
628.349	17.96
628.539	15.46
628.728	15.42
628.918	14.88
629.107	15.56
629.296	14.29
629.486	14.19
629.675	14.43
629.865	13.84
630.054	14.43
630.243	13.82
630.432	13.61
630.622	13.59
630.811	14.96
631	15.2
631.19	15.69
631.379	16.05
631.568	16.35
631.757	16.11
631.946	15.89
632.136	15.9
632.325	15.59
632.514	16.33
632.703	16.06
632.892	14.31
633.081	15.26
633.27	17.9
633.459	17.75
633.648	16.85
633.837	17.11
634.026	15.46
634.215	17.5
634.404	17.72
634.593	19.17
634.782	18.22
634.971	16.24
635.16	14.28
635.349	13.36
635.538	13.2
635.727	12.11
635.916	10.64
636.105	10.79
636.294	11.71
636.482	11.44
636.671	11.07
636.86	12.98
637.049	12.23
637.238	10.72
637.426	10.43
637.615	9.89
637.804	10.51
637.993	11.58
638.181	10.93
638.37	13.66
638.559	12.4
638.747	12.11
638.936	13.6
639.125	15.91
639.313	14.86
639.502	15.15
639.691	15.83
639.879	16.72
640.068	16.59
640.256	14.66
640.445	16.25
640.633	17.61
640.822	17.64
641.01	18.43
641.199	19.16
641.387	19.29
641.576	21.03
641.764	22.31
641.953	22.64
642.141	21.83
642.329	20.06
642.518	19.52
642.706	19.78
642.894	20.07
643.083	18.85
643.271	19.28
643.459	19.06
643.648	19.83
643.836	19.88
644.024	17.71
644.213	19.75
644.401	18.2
644.589	15.7
644.777	16.41
644.965	16.38
645.154	15.72
645.342	15.39
645.53	14.97
645.718	14.8
645.906	14.38
646.094	13.2
646.282	12.74
646.47	13.36
646.658	13.12
646.846	10.58
647.034	12.28
647.223	13.21
647.411	12.71
647.599	10.92
647.786	10.92
647.974	11.68
648.162	11.12
648.35	10.74
648.538	13.2
648.726	12.81
648.914	12.55
649.102	13.34
649.29	14
649.478	14.2
649.665	13.43
649.853	13.36
650.041	14.38
650.229	14.96
650.417	14.55
650.604	14.3
650.792	16.78
650.98	16.13
651.168	14.78
651.355	15.03
651.543	15.39
651.731	15.39
651.918	15.81
652.106	15.92
652.294	16.01
652.481	15.31
652.669	13.86
652.856	13.62
653.044	14.05
653.231	13.78
653.419	12.56
653.606	12.04
653.794	12.27
653.981	13.49
654.169	12.51
654.356	11.2
654.544	11.31
654.731	10.37
654.919	8.27
655.106	8.95
655.294	9.79
655.481	11.73
655.668	13.18
655.856	11.54
656.043	11.61
656.23	12.45
656.418	13.17
656.605	14.1
656.792	14.69
656.979	14.15
657.167	14.42
657.354	14.6
657.541	15.51
657.728	16.53
657.916	15.34
658.103	15.45
658.29	16.07
658.477	15.72
658.664	15.65
658.851	16.3
659.038	15.66
659.225	14.56
659.412	13.7
659.6	11.81
659.787	13.62
659.974	12.34
660.161	12.43
660.348	10.58
660.535	11.85
660.722	9.74
660.909	9.61
661.095	9.38
661.282	9.9
661.469	9.9
661.656	8.02
661.843	7.55
662.03	6.96
662.217	8.7
662.404	10.5
662.59	11.27
662.777	11.19
662.964	11.87
663.151	13.06
663.338	12.67
663.524	13.29
663.711	13.16
663.898	13.76
664.085	12.58
664.271	13.23
664.458	12.64
664.645	13.21
664.831	14.89
665.018	14.12
665.204	14.44
665.391	14.25
665.578	14.14
665.764	14.31
665.951	16.05
666.137	14.74
666.324	13.99
666.51	13.55
666.697	13.25
666.883	13.43
667.07	10.96
667.256	11.51
667.443	11.77
667.629	11.9
667.816	12.01
668.002	12.03
668.188	11.68
668.375	11.36
668.561	12.1
668.747	10.13
668.934	10.9
669.12	9.63
669.306	9.72
669.493	9.81
669.679	11.22
669.865	8.25
670.051	7.14
670.238	8.25
670.424	7.49
670.61	7.34
670.796	7.42
670.982	8.14
671.169	6.73
671.355	3.94
671.541	3.74
671.727	3.91
671.913	4.03
672.099	5.09
672.285	3.94
672.471	4.61
672.657	4.63
672.843	4.63
673.029	5.2
673.215	5.84
673.401	8.35
673.587	6.22
673.773	8.41
673.959	11.03
674.145	10.19
674.331	9.93
674.517	10.77
674.703	10.24
674.888	11.87
675.074	11.65
675.26	14.19
675.446	13.83
675.632	12.77
675.817	12.88
676.003	13.73
676.189	13.71
676.375	12.01
676.56	12.69
676.746	11.72
676.932	10.22
677.117	8.6
677.303	6.57
677.489	7.4
677.674	5.46
677.86	2.91
678.046	2.89
678.231	4.41
678.417	4.06
678.602	4.45
678.788	3.54
678.973	4.87
679.159	5.75
679.344	6.17
679.53	6.19
679.715	5.98
679.901	3.69
680.086	4.47
680.272	5.12
680.457	3.85
680.643	4.52
680.828	5.84
681.013	6.46
681.199	7.55
681.384	7.52
681.569	9.53
681.755	10.11
681.94	9.88
682.125	9.05
682.31	10.19
682.496	10.17
682.681	11.24
682.866	10.31
683.051	9.69
683.237	9.75
683.422	10.23
683.607	9.47
683.792	10.48
683.977	9.66
684.162	8.52
684.347	9.71
684.532	9.13
684.717	9.06
684.903	9.03
685.088	9.5
685.273	8.83
685.458	8.04
685.643	9.79
685.828	8.23
686.013	9.41
686.198	9.31
686.382	10.18
686.567	10.36
686.752	10.68
686.937	9.67
687.122	10.91
687.307	10.68
687.492	12.44
687.677	11.74
687.861	12.12
688.046	12.75
688.231	11.77
688.416	13.68
688.601	13.34
688.785	13.74
688.97	12.62
689.155	14.15
689.339	13.87
689.524	12.42
689.709	13.95
689.893	13.52
690.078	12.8
690.263	11.89
690.447	10.34
690.632	10.64
690.816	11.62
691.001	10.46
691.186	10.74
691.37	9.57
691.555	9.98
691.739	9.55
691.924	9.52
692.108	10.75
692.293	9.63
692.477	9.89
692.661	9.47
692.846	9.26
693.03	8.84
693.215	8.64
693.399	8.49
693.583	7.69
693.768	7.44
693.952	6.28
694.136	5.77
694.321	7.23
694.505	6.48
694.689	6.73
694.873	7.35
695.058	6.49
695.242	7.76
695.426	8.11
695.61	8.21
695.794	9.66
695.979	8.35
696.163	9.13
696.347	9.93
696.531	9.88
696.715	10
696.899	9.76
697.083	9.72
697.267	9.7
697.451	10.03
697.635	9.43
697.819	10.6
698.003	11.09
698.187	9.39
698.371	11.2
698.555	11.56
698.739	11.84
698.923	11.93
699.107	11.1
699.291	10.93
699.475	10.55
699.659	10.15
699.842	9.47
700.026	8.09
700.21	7.23
700.394	7.73
700.578	7.65
700.761	8.12
700.945	10.22
701.129	10.25
701.313	8.63
701.496	9.64
701.68	8.9
701.864	8.71
702.047	10.29
702.231	11.26
702.415	9.41
702.598	8.75
702.782	9.28
702.965	9.48
703.149	9.71
703.333	9.45
703.516	9.73
703.7	9.78
703.883	11.12
704.067	11.32
704.25	10.41
704.434	8.46
704.617	7.22
704.801	4.95
704.984	4.14
705.167	4.79
705.351	3.59
705.534	4.47
705.718	5.09
705.901	3.13
706.084	1.42
706.268	2.15
706.451	1.83
706.634	1.43
706.817	-0.12
707.001	-1.3
707.184	-0.3
707.367	-2.12
707.55	-0.33
707.734	-1.45
707.917	-1.28
708.1	-0.31
708.283	1.56
708.466	1.86
708.649	3.12
708.832	2.8
709.015	4.13
709.199	5.52
709.382	5.95
709.565	5.15
709.748	6.3
709.931	5.66
710.114	6.13
710.297	6.2
710.48	7.58
710.663	9.48
710.846	10.38
711.028	10.69
711.211	10.67
711.394	11.45
711.577	11.72
711.76	10.59
711.943	10.66
712.126	11.73
712.309	13.88
712.491	13.19
712.674	14.86
712.857	15.41
713.04	13.59
713.222	13.67
713.405	14.19
713.588	14.91
713.771	15.2
713.953	14.69
714.136	14.12
714.319	14.34
714.501	11.73
714.684	10.57
714.866	10.79
715.049	11.46
715.232	9.61
715.414	9.57
715.597	9.98
715.779	8.81
715.962	9.21
716.144	7.02
716.327	7.18
716.509	7.1
716.692	4.71
716.874	6.62
717.057	6.33
717.239	4.98
717.421	4.73
717.604	3.4
717.786	4.52
717.968	3.86
718.151	2.85
718.333	4.86
718.515	6.41
718.698	6.02
718.88	6.9
719.062	6.59
719.244	6.04
719.427	5.39
719.609	5.59
719.791	3.28
719.973	3.67
720.155	3.42
720.338	3.99
720.52	5.44
720.702	4.74
720.884	5.12
721.066	5.52
721.248	3.45
721.43	4.53
721.612	5.13
721.794	6.91
721.976	7.15
722.158	7.08
722.34	7.53
722.522	8.32
722.704	6
722.886	7.02
723.068	8.35
723.25	10.28
723.432	10.35
723.614	10.25
723.796	10.17
723.977	9.53
724.159	7.93
724.341	7.4
724.523	7.33
724.705	6.54
724.886	8.2
725.068	10.17
725.25	11.39
725.432	10.7
725.613	10.05
725.795	11.77
725.977	10.54
726.158	9.24
726.34	9.11
726.522	10.42
726.703	10.55
726.885	9.46
727.066	7.67
727.248	9.27
727.43	10.68
727.611	10.4
727.793	11.59
727.974	13.07
728.156	12.35
728.337	10.27
728.519	10.39
728.7	10.9
728.882	10.8
729.063	10.11
729.244	8.49
729.426	7.51
729.607	5.66
729.788	6.63
729.97	7.32
730.151	6.43
730.332	5.57
730.514	6.06
730.695	7.56
730.876	9.32
731.058	8.07
731.239	7.29
731.42	6.84
731.601	3.5
731.782	2.98
731.964	4.17
732.145	5.63
732.326	4.28
732.507	3.05
732.688	3.74
732.869	3.91
733.05	5.84
733.231	7.54
733.412	6.23
733.593	5.66
733.774	6.46
733.955	6.7
734.136	8.3
734.317	7.71
734.498	7.4
734.679	5.91
734.86	3.01
735.041	3
735.222	5.04
735.403	7.58
735.584	7.57
735.765	8.23
735.946	8.5
736.126	8.4
736.307	9.44
736.488	7.54
736.669	4.21
736.849	3.59
737.03	5.15
737.211	6.74
737.392	7.58
737.572	5
737.753	4
737.934	4.31
738.114	4.89
738.295	3.66
738.476	5.51
738.656	8.21
738.837	10
739.017	9.13
739.198	10.01
739.378	12.13
739.559	10.94
739.74	10.26
739.92	10.81
740.1	9.07
740.281	7.99
740.461	9.93
740.642	9.81
740.822	5.92
741.003	6.54
741.183	6.3
741.363	8.81
741.544	8.85
741.724	7.96
741.904	6.17
742.085	5.47
742.265	4.61
742.445	4.46
742.626	3.05
742.806	3
742.986	1.88
743.166	-0.48
743.347	0.66
743.527	2.81
743.707	2.57
743.887	2.49
744.067	1.75
744.247	2.1
744.427	0.77
744.608	1.12
744.788	1.42
744.968	2.69
745.148	0.31
745.328	2.1
745.508	1.54
745.688	2.5
745.868	3.1
746.048	1.79
746.228	2.8
746.408	3.27
746.588	4.28
746.767	5.81
746.947	5.6
747.127	4.3
747.307	0.62
747.487	1.65
747.667	1.94
747.847	5.05
748.026	5.32
748.206	6.13
748.386	8.26
748.566	7.88
748.745	6.41
748.925	8.46
749.105	8.21
749.285	7.92
749.464	8.05
749.644	7.59
749.824	8.82
750.003	7.38
750.183	6.32
750.362	5.86
750.542	5.15
750.722	4.13
750.901	3.08
751.081	5.34
751.26	4.33
751.44	4.67
751.619	3.99
751.799	2.08
751.978	0.2
752.158	-0.15
752.337	-0.49
752.516	0.13
752.696	-1.26
752.875	-1.33
753.055	-1.66
753.234	-0.51
753.413	0.89
753.593	1.84
753.772	2.45
753.951	3.82
754.13	3.34
754.31	2.5
754.489	3.76
754.668	6.22
754.847	6.42
755.027	8.27
755.206	8.36
755.385	9.41
755.564	11.78
755.743	13.27
755.922	12.11
756.101	11.83
756.28	12.25
756.46	12.04
756.639	9.47
756.818	9.64
756.997	9.8
757.176	9.18
757.355	8.4
757.534	8.11
757.713	7.2
757.892	6.44
758.07	7.95
758.249	7.78
758.428	7.03
758.607	6.47
758.786	6.6
758.965	6.02
759.144	5.14
759.323	2.97
759.501	3.33
759.68	4.2
759.859	4.11
760.038	3.73
760.216	4.01
760.395	6.56
760.574	7.23
760.753	7.16
760.931	7.45
761.11	7.39
761.289	6.99
761.467	8.12
761.646	8.51
761.824	7.79
762.003	6.16
762.182	5.88
762.36	5.39
762.539	4.43
762.717	4.48
762.896	4.29
763.074	5.5
763.253	4.52
763.431	5.87
763.61	5.62
763.788	5.98
763.966	5.99
764.145	6.52
764.323	6.75
764.502	5.49
764.68	5.56
764.858	4.02
765.037	6.11
765.215	5.8
765.393	5.9
765.571	7.97
765.75	9.54
765.928	8.64
766.106	8.4
766.284	7.9
766.463	8.03
766.641	7.64
766.819	8.64
766.997	9.3
767.175	7.55
767.353	7.3
767.531	6.78
767.71	7.61
767.888	6.18
768.066	5.03
768.244	5.34
768.422	5.91
768.6	9.75
768.778	7.94
768.956	6.42
769.134	6.07
769.312	4.69
769.489	4.18
769.667	5.38
769.845	6.36
770.023	7.19
770.201	8.14
770.379	7.3
770.557	6.61
770.735	7.33
770.912	7.27
771.09	7.24
771.268	7.89
771.446	7.16
771.623	8.07
771.801	9.68
771.979	9.17
772.157	8.23
772.334	6.42
772.512	7.17
772.69	8.19
772.867	8.88
773.045	7.62
773.222	6.86
773.4	6.55
773.577	6.92
773.755	7.29
773.933	7.58
774.11	8.21
774.288	8.97
774.465	8.06
774.643	7.75
774.82	8.92
774.997	8.43
775.175	7.48
775.352	8.91
775.53	8.13
775.707	9.53
775.884	9.51
776.062	9.08
776.239	10.13
776.416	10.26
776.594	9.54
776.771	9.45
776.948	10.98
777.125	10.92
777.303	10.26
777.48	10.41
777.657	8.88
777.834	9.56
778.012	7.41
778.189	8.74
778.366	10.48
778.543	9.54
778.72	9.07
778.897	9.12
779.074	7.13
779.251	7.18
779.428	4.78
779.605	4.31
779.782	3.69
779.959	1.76
780.136	0.78
780.313	1.77
780.49	0.28
780.667	-1.04
780.844	-0.17
781.021	-0.43
781.198	-1.01
781.375	0.48
781.552	-0.79
781.728	-2.16
781.905	-4.45
782.082	-4.05
782.259	-3.69
782.436	-2.21
782.612	-2.62
782.789	-4.4
782.966	-5.97
783.143	-4.28
783.319	-3.9
783.496	-2.68
783.673	-2.66
783.849	-1.53
784.026	-0.19
784.203	1.52
784.379	1.44
784.556	1.89
784.732	2.3
784.909	3.5
785.085	1.8
785.262	3.13
785.438	7.51
785.615	8.61
785.791	7.39
785.968	5.55
786.144	4.55
786.321	6.91
786.497	6.25
786.673	6.84
786.85	5.18
787.026	5.15
787.203	4.95
787.379	4.79
787.555	2.36
787.731	1.09
787.908	-0.11
788.084	2.18
788.26	0.49
788.437	1.3
788.613	-1.24
788.789	-2
788.965	-2.55
789.141	-7.26
789.317	-8.57
789.494	-10.62
789.67	-8.87
789.846	-10.73
790.022	-14.25
790.198	-12.97
790.374	-13.63
790.55	-13.6
790.726	-14.41
790.902	-13.53
791.078	-11.53
791.254	-10.54
791.43	-12.86
791.606	-11.85
791.782	-14.44
791.958	-14.85
792.134	-14.69
792.31	-12.69
792.486	-12.63
792.661	-11.6
792.837	-7.2
793.013	-5.9
793.189	-4.52
793.365	-3.93
793.54	-1.28
793.716	0.79
793.892	2.36
794.068	2.06
794.243	3.51
794.419	3.49
794.595	0.85
794.77	-0.91
794.946	1.95
795.122	3.2
795.297	3.68
795.473	6.61
795.648	6.53
795.824	6.41
796	5.77
796.175	6.98
796.351	6.77
796.526	6.92
796.702	7.8
796.877	7.09
797.052	7.78
797.228	6.08
797.403	1.83
797.579	2.53
797.754	4.19
797.929	5.21
798.105	7.96
798.28	7.46
798.455	9.53
798.631	5.9
798.806	7.03
798.981	8.24
799.157	6.13
799.332	5.87
799.507	7.7
799.682	7.56
799.858	7.88
800.033	10.35
800.208	9.86
800.383	8.07
800.558	10.1
800.733	8.82
800.908	9.22
801.083	13
801.258	10.86
801.434	12.44
801.609	12.19
801.784	10.99
801.959	12.37
802.134	10.93
802.309	11.43
802.484	9.76
802.658	7.97
802.833	7.94
803.008	8.8
803.183	5.09
803.358	7.2
803.533	5.66
803.708	3.46
803.883	3.44
804.057	0.54
804.232	2.49
804.407	5.18
804.582	5.71
804.756	4.85
804.931	6.98
805.106	6.15
805.281	7.27
805.455	4.59
805.63	4.52
805.805	4.22
805.979	5.36
806.154	5.68
806.328	7.42
806.503	8.94
806.678	11.12
806.852	12.01
807.027	9.88
807.201	8.91
807.376	7.78
807.55	6.75
807.725	9.79
807.899	10.14
808.074	10.24
808.248	10.9
808.422	13.99
808.597	12.42
808.771	13.11
808.946	15.48
809.12	20.14
809.294	20.15
809.468	21.61
809.643	25.75
809.817	27.77
809.991	25.36
810.166	26.89
810.34	23.82
810.514	23.43
810.688	22.4
810.862	22.64
811.037	24.45
811.211	24.71
811.385	25.9
811.559	26.26
811.733	26.85
811.907	27.69
812.081	25.03
812.255	24.61
812.429	21.03
812.603	16.21
812.777	15.1
812.951	16.36
813.125	14.55
813.299	9.48
813.473	4.27
813.647	7.28
813.821	4.8
813.995	5.86
814.169	6.38
814.343	8.82
814.516	10.71
814.69	9.46
814.864	6.37
815.038	6.39
815.212	7.49
815.385	4.61
815.559	4.56
815.733	5.11
815.907	7.67
816.08	11.54
816.254	11.5
816.428	10.7
816.601	9.38
816.775	9.84
816.948	8.05
817.122	11.75
817.296	11.2
817.469	10.54
817.643	12.4
817.816	13.34
817.99	10.65
818.163	12.17
818.337	11.46
818.51	14.68
818.684	14.68
818.857	10.59
819.031	10.42
819.204	4.64
819.377	5.62
819.551	1.61
819.724	1.04
819.897	5.33
820.071	7.09
820.244	6.07
820.417	6.39
820.591	8.35
820.764	8.61
820.937	9.64
821.11	8.78
821.284	9.82
821.457	12.54
821.63	12.72
821.803	12.38
821.976	12.49
822.149	13.82
822.322	16.82
822.496	16.44
822.669	16.78
822.842	20.14
823.015	18.79
823.188	20.29
823.361	19.18
823.534	14.57
823.707	9.41
823.88	11.24
824.053	10.76
824.226	13.6
824.399	14.31
824.571	12.58
824.744	13.69
824.917	10.74
825.09	5.56
825.263	7.93
825.436	9.68
825.608	9.85
825.781	8.08
825.954	7.16
826.127	6.12
826.299	4.82
826.472	3.57
826.645	5.37
826.818	7
826.99	7.1
827.163	8.61
827.336	10.62
827.508	11.16
827.681	11.28
827.853	9.17
828.026	10.25
828.198	15.32
828.371	15.82
828.544	16.45
828.716	16.88
828.889	13.04
829.061	10.39
829.233	11.21
829.406	11.42
829.578	7.58
829.751	11.66
829.923	11.53
830.096	11.09
830.268	10.17
830.44	8.53
830.613	10.13
830.785	9.72
830.957	7.73
831.129	8.39
831.302	11.02
831.474	11.24
831.646	12.15
831.818	8.44
831.991	11.76
832.163	12.43
832.335	12.69
832.507	13.82
832.679	14.11
832.851	12.42
833.023	13.82
833.195	17.85
833.368	14.93
833.54	18.92
833.712	21.06
833.884	21.35
834.056	19.94
834.228	16.93
834.4	21.9
834.571	23.81
834.743	22.67
834.915	20.1
835.087	19.45
835.259	19.2
835.431	19.58
835.603	13.2
835.775	10.46
835.946	12.69
836.118	12.7
836.29	11.55
836.462	12.52
836.634	13.06
836.805	8.44
836.977	12.39
837.149	12.11
837.32	9.91
837.492	12.5
837.664	15.15
837.835	13.49
838.007	5.01
838.179	5.93
838.35	7.43
838.522	8.4
838.693	6.83
838.865	1.59
839.036	-0.63
839.208	7.08
839.379	9.77
839.551	12.18
839.722	15.9
839.894	16.44
840.065	15.14
840.237	13.43
840.408	15.19
840.579	13.59
840.751	10.61
840.922	10.36
841.093	7.39
841.265	5.93
841.436	8.57
841.607	10.51
841.778	11.41
841.95	10.28
842.121	12.64
842.292	16.19
842.463	22.08
842.635	24.42
842.806	24.57
842.977	24.07
843.148	20.23
843.319	17.4
843.49	18.89
843.661	18.06
843.832	20.27
844.003	24.71
844.174	28.78
844.345	28.42
844.516	30.35
844.687	32.81
844.858	33.43
845.029	33.68
845.2	34.03
845.371	31.55
845.542	30.78
845.713	25.76
845.884	24.57
846.055	17.23
846.225	15.72
846.396	8.09
846.567	8.21
846.738	3.44
846.909	8.29
847.079	7.6
847.25	12.39
847.421	7
847.591	-5.53
847.762	-11.24
847.933	-14.95
848.103	-11.48
848.274	-15.24
848.445	-9.7
848.615	-11.16
848.786	-5.84
848.956	-1.05
849.127	-4.43
849.297	1.01
849.468	0.64
849.638	5.35
849.809	5.43
849.979	4.03
850.15	3.5
850.32	10.78
850.491	8.25
850.661	11.78
850.831	12.75
851.002	20.44
851.172	26.93
851.342	25.17
851.513	27.14
851.683	28
851.853	29.2
852.024	25.06
852.194	27.08
852.364	28.25
852.534	27.98
852.705	34.24
852.875	33.41
853.045	34.19
853.215	31.1
853.385	31.45
853.555	34.76
853.725	33.45
853.895	33.04
854.066	33.26
854.236	30.63
854.406	30.91
854.576	27.69
854.746	24.81
854.916	30.09
855.086	31.03
855.256	32.51
855.425	35.83
855.595	36.74
855.765	33.19
855.935	21.17
856.105	15.91
856.275	18.27
856.445	13.8
856.614	7.55
856.784	13.43
856.954	16.47
857.124	14.61
857.294	20.92
857.463	21.69
857.633	18.94
857.803	14.19
857.972	18.28
858.142	20.15
858.312	21.93
858.481	26.25
858.651	24.53
858.821	22.81
858.99	20.31
859.16	18.46
859.329	18.63
859.499	28.6
859.668	34.63
859.838	26.39
860.007	34.54
860.177	40.64
860.346	36.41
860.516	34.84
860.685	38
860.854	34.45
861.024	25.62
861.193	25.72
861.363	26.83
861.532	20.84
861.701	21.1
861.87	21.81
862.04	17.33
862.209	20.45
862.378	18.55
862.547	16.8
862.717	19.61
862.886	18.38
863.055	15.59
863.224	12.36
863.393	11.39
863.563	3.43
863.732	3.27
863.901	5.36
864.07	8.43
864.239	10.99
864.408	7.4
864.577	11.55
864.746	15.49
864.915	18.9
865.084	23.04
865.253	21.89
865.422	19.35
865.591	15.55
865.76	11.38
865.929	4.81
866.097	10.56
866.266	2.83
866.435	9.35
866.604	9.26
866.773	14.27
866.942	17.67
867.11	22.22
867.279	20.09
867.448	26.29
867.617	27.06
867.785	24.11
867.954	24.84
868.123	30.1
868.291	23.69
868.46	31.99
868.629	30.34
868.797	28.28
868.966	36.98
869.134	38.79
869.303	40.9
869.472	43.22
869.64	39
869.809	48.96
869.977	54.76
870.146	47.16
870.314	46.3
870.482	47.93
870.651	43.64
870.819	44.57
870.988	39.04
871.156	37.47
871.324	40.07
871.493	39.75
871.661	44.76
871.829	55.63
871.998	53.67
872.166	56.39
872.334	59.19
872.502	52.59
872.671	54.82
872.839	55.7
873.007	60.55
873.175	61.36
873.343	64.92
873.512	54.56
873.68	65.95
873.848	59.87
874.016	52.56
874.184	56.36
874.352	54.89
874.52	55.22
874.688	41.48
874.856	39.2
875.024	41.77
875.192	35.42
875.36	22.93
875.528	18.56
875.696	20.9
875.864	23.41
876.032	21.2
876.199	18.22
876.367	19.38
876.535	17.1
876.703	9.24
876.871	14.07
877.039	22.12
877.206	22.15
877.374	30.88
877.542	35.81
877.71	40.81
877.877	45.25
878.045	47.81
878.213	61.88
878.38	68.6
878.548	64.65
878.715	60.94
878.883	65.33
879.051	65.54
879.218	60.8
879.386	46.24
879.553	46.56
879.721	51.8
879.888	46.55
880.056	62.75
880.223	81.32
880.391	71.9
880.558	48.71
880.726	47.27
880.893	32.74
881.06	33.17
881.228	24.13
881.395	21.49
881.562	31.84
881.73	8.55
881.897	-8.31
882.064	0.5
882.231	2.23
882.399	-2.27
882.566	2.5
882.733	-5.45
882.9	-40.11
883.068	-15.07
883.235	-13.34
883.402	-14.68
883.569	-23.81
883.736	-6.78
883.903	-1.56
884.07	5.08
884.237	-9.61
884.404	-0.26
884.571	-11.41
884.738	-6.51
884.905	-4.42
885.072	-30.28
885.239	1.66
885.406	8.23
