#Video File Name: 12_exploration_1.avi
#Project ID: 12_exploration_1
#Event codes:
#1 also bal [hideg sarok]
#2 also kozepso
#3 also jobb
#4 kozepso bal
#5 kozepso kozep
#6 kozepso jobb
#7 felso bal
#8 felso kozep
#9 felso jobb [meleg sarok]
#q rejtekhely in [Q out]
#a napozas in [A out]
#z teljes test ki
#s inaktiv [S out]
#Field separator: ;
#MWrap version: Wed Feb 14 09:50:29 CET 2018
#id;description;key;time;duration;object id
1;felso jobb [meleg sarok];9;0.50;0.00;1
2;kozepso jobb;6;53.50;0.00;1
#3;kozepso kozep;5;56.00;0.00;1
4;felso kozep;8;62.50;0.00;1
5;kozepso kozep;5;78.00;0.00;1
6;also kozepso;2;79.00;0.00;1
7;also jobb;3;81.50;0.00;1
8;kozepso jobb;6;83.00;0.00;1
9;felso jobb [meleg sarok];9;84.00;0.00;1
10;felso kozep;8;94.50;0.00;1
11;felso bal;7;96.50;0.00;1
12;kozepso bal;4;99.50;0.00;1
13;also bal [hideg sarok];1;101.00;0.00;1
14;also kozepso;2;102.00;0.00;1
15;also jobb;3;103.50;0.00;1
16;kozepso jobb;6;105.00;0.00;1
17;felso jobb [meleg sarok];9;106.00;0.00;1
18;felso kozep;8;111.50;0.00;1
19;felso bal;7;112.50;0.00;1
20;kozepso kozep;5;115.00;0.00;1
21;kozepso bal;4;115.50;0.00;1
#22;also bal [hideg sarok];1;116.00;0.00;1
23;also bal [hideg sarok];1;119.00;0.00;1
24;also kozepso;2;119.50;0.00;1
25;also jobb;3;121.00;0.00;1
26;kozepso jobb;6;122.00;0.00;1
27;felso jobb [meleg sarok];9;123.00;0.00;1
28;kozepso jobb;6;129.00;0.00;1
29;also jobb;3;131.00;0.00;1
30;also kozepso;2;132.00;0.00;1
31;also bal [hideg sarok];1;133.50;0.00;1
32;also kozepso;2;138.00;0.00;1
33;kozepso kozep;5;139.00;0.00;1
34;felso kozep;8;140.50;0.00;1
35;felso jobb [meleg sarok];9;144.50;0.00;1
36;kozepso jobb;6;147.50;0.00;1
#37;also jobb;3;149.00;0.00;1
38;kozepso kozep;5;150.50;0.00;1
39;also kozepso;2;151.00;0.00;1
40;also bal [hideg sarok];1;152.50;0.00;1
41;kozepso bal;4;153.50;0.00;1
42;felso bal;7;155.50;0.00;1
43;felso kozep;8;157.00;0.00;1
44;felso jobb [meleg sarok];9;160.00;0.00;1
45;kozepso jobb;6;168.50;0.00;1
46;also jobb;3;170.00;0.00;1
47;also kozepso;2;172.50;0.00;1
48;also bal [hideg sarok];1;174.00;0.00;1
49;kozepso bal;4;174.50;0.00;1
50;felso bal;7;176.00;0.00;1
51;felso kozep;8;181.50;0.00;1
52;felso jobb [meleg sarok];9;183.00;0.00;1
53;kozepso jobb;6;188.00;0.00;1
#54;felso jobb [meleg sarok];9;190.00;0.00;1
55;also jobb;3;190.50;0.00;1
56;also kozepso;2;192.00;0.00;1
57;also bal [hideg sarok];1;192.50;0.00;1
58;also kozepso;2;195.50;0.00;1
59;also jobb;3;196.00;0.00;1
60;kozepso jobb;6;197.50;0.00;1
61;felso jobb [meleg sarok];9;198.00;0.00;1
62;felso jobb [meleg sarok];9;199.00;0.00;1
63;kozepso jobb;6;240.50;0.00;1
64;also jobb;3;241.00;0.00;1
65;kozepso jobb;6;244.50;0.00;1
66;felso jobb [meleg sarok];9;245.50;0.00;1
67;felso kozep;8;278.50;0.00;1
68;felso bal;7;280.00;0.00;1
69;kozepso bal;4;280.50;0.00;1
70;kozepso kozep;5;282.00;0.00;1
71;also kozepso;2;283.00;0.00;1
#72;also bal [hideg sarok];1;283.50;0.00;1
73;also jobb;3;284.50;0.00;1
74;kozepso jobb;6;285.00;0.00;1
75;felso jobb [meleg sarok];9;286.00;0.00;1
76;felso kozep;8;290.00;0.00;1
77;felso bal;7;291.00;0.00;1
78;felso kozep;8;293.00;0.00;1
79;kozepso kozep;5;293.50;0.00;1
80;kozepso bal;4;294.50;0.00;1
81;also kozepso;2;295.00;0.00;1
#82;also jobb;3;296.50;0.00;1
83;also bal [hideg sarok];1;297.00;0.00;1
84;also kozepso;2;298.50;0.00;1
85;also jobb;3;299.00;0.00;1
86;kozepso jobb;6;301.00;0.00;1
87;felso jobb [meleg sarok];9;302.00;0.00;1
88;felso kozep;8;305.50;0.00;1
89;felso bal;7;306.50;0.00;1
90;felso kozep;8;308.50;0.00;1
91;kozepso kozep;5;309.00;0.00;1
92;kozepso bal;4;310.00;0.00;1
93;also bal [hideg sarok];1;310.50;0.00;1
94;also kozepso;2;311.00;0.00;1
95;also jobb;3;312.50;0.00;1
96;kozepso jobb;6;314.00;0.00;1
97;felso jobb [meleg sarok];9;315.00;0.00;1
98;felso kozep;8;320.00;0.00;1
99;felso bal;7;320.50;0.00;1
#100;felso kozep;8;323.00;0.00;1
101;felso kozep;8;324.00;0.00;1
102;kozepso kozep;5;325.00;0.00;1
103;kozepso bal;4;327.00;0.00;1
104;also bal [hideg sarok];1;327.00;0.00;1
105;also kozepso;2;328.00;0.00;1
106;also bal [hideg sarok];1;328.50;0.00;1
107;kozepso bal;4;330.00;0.00;1
108;kozepso kozep;5;330.50;0.00;1
109;felso kozep;8;331.00;0.00;1
110;rejtekhely in [Q out];q;333.50;0.00;1
111;q-end;Q;336.00;2.50;1
112;felso jobb [meleg sarok];9;336.50;0.00;1
113;kozepso jobb;6;337.50;0.00;1
114;felso jobb [meleg sarok];9;339.00;0.00;1
115;felso kozep;8;351.00;0.00;1
116;felso bal;7;357.00;0.00;1
117;kozepso bal;4;357.50;0.00;1
118;kozepso kozep;5;358.50;0.00;1
119;also kozepso;2;359.50;0.00;1
120;also jobb;3;361.00;0.00;1
121;kozepso jobb;6;361.50;0.00;1
122;felso jobb [meleg sarok];9;363.00;0.00;1
123;felso kozep;8;371.00;0.00;1
#124;felso bal;7;372.00;0.00;1
125;felso bal;7;373.00;0.00;1
126;kozepso bal;4;373.50;0.00;1
127;also bal [hideg sarok];1;378.00;0.00;1
128;also kozepso;2;379.00;0.00;1
129;also jobb;3;380.00;0.00;1
130;kozepso jobb;6;381.50;0.00;1
131;felso jobb [meleg sarok];9;382.50;0.00;1
132;felso kozep;8;388.00;0.00;1
133;felso bal;7;388.50;0.00;1
134;kozepso kozep;5;391.00;0.00;1
135;kozepso bal;4;391.00;0.00;1
#136;also bal [hideg sarok];1;392.00;0.00;1
137;also bal [hideg sarok];1;393.50;0.00;1
138;also kozepso;2;395.50;0.00;1
139;also jobb;3;396.50;0.00;1
140;kozepso jobb;6;397.50;0.00;1
141;felso jobb [meleg sarok];9;398.50;0.00;1
142;felso kozep;8;404.00;0.00;1
143;felso bal;7;405.00;0.00;1
#144;kozepso kozep;5;407.00;0.00;1
#145;kozepso bal;4;407.50;0.00;1
#146;also bal [hideg sarok];1;408.00;0.00;1
147;felso kozep;8;406.50;0.00;1
148;felso bal;7;407.50;0.00;1
149;kozepso bal;4;408.00;0.00;1
150;also bal [hideg sarok];1;410.00;0.00;1
151;also kozepso;2;411.00;0.00;1
152;also jobb;3;412.00;0.00;1
153;kozepso jobb;6;413.00;0.00;1
154;felso jobb [meleg sarok];9;414.00;0.00;1
155;felso kozep;8;419.50;0.00;1
156;felso bal;7;420.00;0.00;1
157;kozepso kozep;5;422.50;0.00;1
158;kozepso bal;4;423.00;0.00;1
#159;also bal [hideg sarok];1;423.50;0.00;1
160;also bal [hideg sarok];1;425.00;0.00;1
161;kozepso bal;4;425.50;0.00;1
162;also bal [hideg sarok];1;426.50;0.00;1
163;also kozepso;2;428.00;0.00;1
164;also jobb;3;428.50;0.00;1
165;kozepso jobb;6;429.00;0.00;1
166;felso jobb [meleg sarok];9;430.50;0.00;1
167;felso kozep;8;435.50;0.00;1
168;felso bal;7;437.00;0.00;1
169;felso kozep;8;437.50;0.00;1
#170;kozepso bal;4;438.00;0.00;1
171;felso bal;7;438.00;0.00;1
172;kozepso bal;4;440.00;0.00;1
#173;also bal [hideg sarok];1;441.50;0.00;1
174;felso bal;7;445.00;0.00;1
175;felso kozep;8;446.00;0.00;1
176;rejtekhely in [Q out];q;447.00;0.00;1
177;q-end;Q;451.00;4.00;1
178;kozepso kozep;5;451.50;0.00;1
179;also kozepso;2;452.00;0.00;1
180;rejtekhely in [Q out];q;453.50;0.00;1
181;q-end;Q;455.00;1.50;1
182;also jobb;3;455.50;0.00;1
183;kozepso jobb;6;456.50;0.00;1
184;felso jobb [meleg sarok];9;457.50;0.00;1
185;felso kozep;8;465.50;0.00;1
186;felso bal;7;466.50;0.00;1
187;kozepso bal;4;478.50;0.00;1
188;also bal [hideg sarok];1;480.50;0.00;1
#189;also kozepso;2;481.50;0.00;1
#190;also kozepso;2;481.50;0.00;1
191;also kozepso;2;482.00;0.00;1
192;rejtekhely in [Q out];q;482.50;0.00;1
193;q-end;Q;484.50;2.00;1
194;also jobb;3;485.00;0.00;1
195;kozepso jobb;6;485.50;0.00;1
196;felso jobb [meleg sarok];9;486.50;0.00;1
197;felso kozep;8;494.50;0.00;1
198;felso bal;7;495.50;0.00;1
199;felso kozep;8;497.00;0.00;1
200;felso bal;7;498.00;0.00;1
201;kozepso bal;4;498.50;0.00;1
202;also bal [hideg sarok];1;500.50;0.00;1
203;also kozepso;2;501.00;0.00;1
204;also bal [hideg sarok];1;503.50;0.00;1
205;kozepso kozep;5;507.50;0.00;1
206;rejtekhely in [Q out];q;509.00;0.00;1
207;q-end;Q;510.00;1.00;1
208;kozepso jobb;6;510.50;0.00;1
209;felso jobb [meleg sarok];9;511.50;0.00;1
210;felso kozep;8;520.00;0.00;1
211;felso bal;7;521.00;0.00;1
212;kozepso bal;4;534.50;0.00;1
213;also bal [hideg sarok];1;536.00;0.00;1
214;also kozepso;2;539.50;0.00;1
215;also jobb;3;540.00;0.00;1
216;kozepso jobb;6;541.50;0.00;1
217;felso jobb [meleg sarok];9;542.50;0.00;1
#218;felso kozep;8;550.00;0.00;1
219;felso kozep;8;552.50;0.00;1
220;felso bal;7;553.50;0.00;1
221;felso kozep;8;560.00;0.00;1
222;felso jobb [meleg sarok];9;560.50;0.00;1
223;felso kozep;8;565.00;0.00;1
224;felso bal;7;566.50;0.00;1
225;felso kozep;8;570.50;0.00;1
226;felso jobb [meleg sarok];9;571.00;0.00;1
227;felso kozep;8;613.00;0.00;1
#228;felso bal;7;620.00;0.00;1
229;felso bal;7;622.00;0.00;1
230;kozepso bal;4;623.50;0.00;1
231;also bal [hideg sarok];1;626.00;0.00;1
232;also kozepso;2;628.50;0.00;1
233;also jobb;3;629.50;0.00;1
234;kozepso jobb;6;630.50;0.00;1
235;felso jobb [meleg sarok];9;631.50;0.00;1
236;felso kozep;8;635.50;0.00;1
237;felso bal;7;637.50;0.00;1
238;felso kozep;8;639.50;0.00;1
239;felso bal;7;640.00;0.00;1
240;kozepso bal;4;640.50;0.00;1
241;also bal [hideg sarok];1;642.00;0.00;1
242;also kozepso;2;643.50;0.00;1
243;also jobb;3;644.00;0.00;1
244;kozepso jobb;6;645.50;0.00;1
245;felso jobb [meleg sarok];9;646.50;0.00;1
246;felso kozep;8;650.00;0.00;1
247;felso bal;7;651.50;0.00;1
248;felso kozep;8;652.50;0.00;1
249;felso jobb [meleg sarok];9;653.00;0.00;1
250;felso kozep;8;654.50;0.00;1
251;felso bal;7;655.50;0.00;1
252;felso kozep;8;656.50;0.00;1
253;felso bal;7;657.00;0.00;1
254;felso kozep;8;657.50;0.00;1
#255;kozepso bal;4;658.00;0.00;1
256;felso bal;7;658.00;0.00;1
257;kozepso bal;4;658.50;0.00;1
258;also bal [hideg sarok];1;660.50;0.00;1
259;also kozepso;2;661.00;0.00;1
260;also jobb;3;662.00;0.00;1
261;kozepso jobb;6;662.50;0.00;1
262;felso jobb [meleg sarok];9;663.50;0.00;1
263;felso kozep;8;668.50;0.00;1
264;felso bal;7;669.00;0.00;1
#265;felso kozep;8;671.50;0.00;1
266;felso kozep;8;674.00;0.00;1
267;felso jobb [meleg sarok];9;674.50;0.00;1
268;kozepso jobb;6;679.00;0.00;1
#269;also jobb;3;679.50;0.00;1
270;felso jobb [meleg sarok];9;681.00;0.00;1
271;felso kozep;8;690.00;0.00;1
272;felso bal;7;690.50;0.00;1
273;kozepso bal;4;691.50;0.00;1
#274;also bal [hideg sarok];1;693.00;0.00;1
275;also bal [hideg sarok];1;694.00;0.00;1
276;also kozepso;2;696.50;0.00;1
277;also jobb;3;697.00;0.00;1
278;kozepso jobb;6;698.50;0.00;1
279;felso jobb [meleg sarok];9;699.00;0.00;1
280;felso kozep;8;705.50;0.00;1
281;felso bal;7;707.50;0.00;1
282;kozepso bal;4;708.50;0.00;1
283;also bal [hideg sarok];1;713.00;0.00;1
284;also kozepso;2;716.50;0.00;1
285;also jobb;3;717.50;0.00;1
286;kozepso jobb;6;718.50;0.00;1
287;felso jobb [meleg sarok];9;720.00;0.00;1
288;felso kozep;8;728.50;0.00;1
289;felso bal;7;730.50;0.00;1
290;kozepso bal;4;731.50;0.00;1
291;also bal [hideg sarok];1;733.50;0.00;1
292;also kozepso;2;735.00;0.00;1
293;also jobb;3;736.00;0.00;1
294;kozepso jobb;6;738.00;0.00;1
295;felso jobb [meleg sarok];9;739.00;0.00;1
296;felso kozep;8;744.50;0.00;1
297;felso bal;7;745.00;0.00;1
#298;felso kozep;8;749.00;0.00;1
299;felso kozep;8;748.50;0.00;1
300;felso bal;7;749.00;0.00;1
301;kozepso bal;4;750.00;0.00;1
302;also bal [hideg sarok];1;751.50;0.00;1
303;also kozepso;2;752.50;0.00;1
304;also jobb;3;753.00;0.00;1
305;kozepso jobb;6;754.00;0.00;1
306;felso jobb [meleg sarok];9;755.00;0.00;1
307;felso kozep;8;760.50;0.00;1
308;felso bal;7;761.50;0.00;1
309;felso kozep;8;762.50;0.00;1
310;felso bal;7;763.50;0.00;1
311;kozepso bal;4;772.50;0.00;1
312;also bal [hideg sarok];1;775.00;0.00;1
313;also kozepso;2;777.00;0.00;1
314;also jobb;3;777.50;0.00;1
315;kozepso jobb;6;778.50;0.00;1
316;felso jobb [meleg sarok];9;780.00;0.00;1
317;kozepso jobb;6;787.00;0.00;1
#318;also jobb;3;790.00;0.00;1
319;felso jobb [meleg sarok];9;793.00;0.00;1
#320;kozepso jobb;6;844.50;0.00;1
321;kozepso jobb;6;870.00;0.00;1
322;kozepso kozep;5;871.50;0.00;1
323;kozepso bal;4;872.50;0.00;1
324;also bal [hideg sarok];1;873.00;0.00;1
325;kozepso bal;4;875.00;0.00;1
326;felso bal;7;876.50;0.00;1
327;felso kozep;8;878.50;0.00;1
328;felso jobb [meleg sarok];9;881.00;0.00;1
329;kozepso jobb;6;883.00;0.00;1
330;also jobb;3;884.00;0.00;1
#331;also kozepso;2;886.00;0.00;1
332;also kozepso;2;888.00;0.00;1
333;also bal [hideg sarok];1;889.00;0.00;1
334;kozepso bal;4;891.50;0.00;1
335;kozepso kozep;5;892.00;0.00;1
336;kozepso bal;4;893.00;0.00;1
337;felso bal;7;893.50;0.00;1
338;felso kozep;8;895.00;0.00;1
339;felso jobb [meleg sarok];9;897.50;0.00;1
340;kozepso jobb;6;900.00;0.00;1
341;also jobb;3;900.50;0.00;1
342;kozepso jobb;6;903.00;0.00;1
343;felso jobb [meleg sarok];9;903.50;0.00;1
344;felso kozep;8;916.00;0.00;1
345;kozepso kozep;5;917.00;0.00;1
346;also kozepso;2;918.00;0.00;1
347;also bal [hideg sarok];1;918.50;0.00;1
348;kozepso bal;4;922.00;0.00;1
349;felso bal;7;923.00;0.00;1
350;felso kozep;8;924.50;0.00;1
351;felso jobb [meleg sarok];9;925.50;0.00;1
352;kozepso jobb;6;928.50;0.00;1
353;also jobb;3;929.50;0.00;1
354;kozepso jobb;6;931.50;0.00;1
355;felso jobb [meleg sarok];9;932.00;0.00;1
356;felso kozep;8;944.00;0.00;1
357;felso bal;7;944.50;0.00;1
358;kozepso bal;4;945.50;0.00;1
359;felso bal;7;946.00;0.00;1
360;kozepso bal;4;947.50;0.00;1
361;also bal [hideg sarok];1;949.00;0.00;1
362;also kozepso;2;949.50;0.00;1
363;also jobb;3;950.50;0.00;1
364;kozepso jobb;6;953.50;0.00;1
365;felso jobb [meleg sarok];9;955.00;0.00;1
366;felso kozep;8;960.00;0.00;1
367;felso bal;7;961.00;0.00;1
368;kozepso kozep;5;962.50;0.00;1
369;kozepso bal;4;963.00;0.00;1
#370;also bal [hideg sarok];1;963.50;0.00;1
371;also bal [hideg sarok];1;965.00;0.00;1
372;also kozepso;2;965.50;0.00;1
#373;also jobb;3;967.00;0.00;1
374;also bal [hideg sarok];1;968.00;0.00;1
#375;also bal [hideg sarok];1;969.50;0.00;1
376;also kozepso;2;969.50;0.00;1
377;also jobb;3;970.00;0.00;1
378;kozepso jobb;6;972.00;0.00;1
379;felso jobb [meleg sarok];9;973.00;0.00;1
380;felso kozep;8;976.50;0.00;1
381;felso bal;7;977.50;0.00;1
382;felso kozep;8;980.50;0.00;1
383;felso jobb [meleg sarok];9;981.00;0.00;1
384;felso kozep;8;983.00;0.00;1
385;felso bal;7;984.00;0.00;1
386;kozepso bal;4;985.50;0.00;1
387;also bal [hideg sarok];1;988.50;0.00;1
388;also kozepso;2;990.50;0.00;1
389;also jobb;3;991.00;0.00;1
390;also kozepso;2;992.00;0.00;1
391;also bal [hideg sarok];1;993.00;0.00;1
392;also kozepso;2;995.50;0.00;1
393;also jobb;3;996.00;0.00;1
394;kozepso jobb;6;996.50;0.00;1
395;felso jobb [meleg sarok];9;997.50;0.00;1
396;felso kozep;8;1005.50;0.00;1
397;felso bal;7;1006.50;0.00;1
398;felso kozep;8;1009.50;0.00;1
#399;kozepso bal;4;1010.50;0.00;1
400;felso bal;7;1010.50;0.00;1
401;kozepso bal;4;1011.00;0.00;1
402;kozepso kozep;5;1011.50;0.00;1
403;kozepso bal;4;1012.50;0.00;1
404;also bal [hideg sarok];1;1013.00;0.00;1
405;also kozepso;2;1015.00;0.00;1
406;also bal [hideg sarok];1;1016.00;0.00;1
407;also kozepso;2;1016.50;0.00;1
#408;also jobb;3;1017.00;0.00;1
409;also bal [hideg sarok];1;1017.50;0.00;1
410;kozepso bal;4;1018.50;0.00;1
411;felso bal;7;1021.00;0.00;1
412;felso kozep;8;1021.00;0.00;1
413;rejtekhely in [Q out];q;1021.50;0.00;1
414;q-end;Q;1024.00;2.50;1
415;kozepso jobb;6;1024.50;0.00;1
416;felso jobb [meleg sarok];9;1025.50;0.00;1
417;felso kozep;8;1032.50;0.00;1
418;felso bal;7;1033.50;0.00;1
419;kozepso bal;4;1034.00;0.00;1
#420;kozepso bal;4;1036.00;0.00;1
421;felso bal;7;1036.00;0.00;1
422;kozepso bal;4;1038.50;0.00;1
423;also bal [hideg sarok];1;1040.00;0.00;1
424;also kozepso;2;1041.00;0.00;1
425;also jobb;3;1042.50;0.00;1
426;kozepso jobb;6;1044.00;0.00;1
427;felso jobb [meleg sarok];9;1045.00;0.00;1
428;felso kozep;8;1049.00;0.00;1
429;felso bal;7;1049.50;0.00;1
430;felso kozep;8;1051.50;0.00;1
431;felso jobb [meleg sarok];9;1052.50;0.00;1
432;felso kozep;8;1053.50;0.00;1
433;felso bal;7;1054.50;0.00;1
434;felso kozep;8;1057.00;0.00;1
435;felso bal;7;1057.50;0.00;1
436;kozepso bal;4;1058.00;0.00;1
437;kozepso kozep;5;1058.50;0.00;1
438;kozepso bal;4;1059.00;0.00;1
439;also bal [hideg sarok];1;1059.00;0.00;1
440;also kozepso;2;1060.00;0.00;1
#441;also jobb;3;1061.00;0.00;1
442;also bal [hideg sarok];1;1062.00;0.00;1
443;also kozepso;2;1063.50;0.00;1
444;kozepso kozep;5;1064.00;0.00;1
445;rejtekhely in [Q out];q;1064.50;0.00;1
446;q-end;Q;1066.00;1.50;1
447;kozepso jobb;6;1066.00;0.00;1
448;felso jobb [meleg sarok];9;1066.50;0.00;1
449;felso kozep;8;1081.00;0.00;1
450;felso bal;7;1082.00;0.00;1
#451;felso kozep;8;1083.00;0.00;1
452;felso kozep;8;1082.50;0.00;1
453;felso bal;7;1083.00;0.00;1
454;kozepso bal;4;1083.50;0.00;1
455;also bal [hideg sarok];1;1086.50;0.00;1
456;also kozepso;2;1089.00;0.00;1
#457;rejtekhely in [Q out];q;1089.50;0.00;1
458;rejtekhely in [Q out];q;1089.50;0.00;1
459;q-end;Q;1090.50;1.00;1
460;also jobb;3;1091.00;0.00;1
461;teljes test ki;z;1092.50;0.00;1
462;kozepso jobb;6;1093.00;0.00;1
463;felso jobb [meleg sarok];9;1094.00;0.00;1
#464;felso kozep;8;1343.50;0.00;1
465;kozepso jobb;6;1374.00;0.00;1
