Data from Transmission_09-57-21-337.txt Node
Date: Fri Aug 24 09:57:21 EEST 2018
User: tibor.sos
Spectrometer: USB4F01757
Scans to average: 10
Trigger mode: 4
Integration Time (sec): 1.000000E-2
Electric dark correction enabled: true
Boxcar width: 10
XAxis mode: Wavelengths
Number of Pixels in Spectrum: 3648
>>>>>Begin Spectral Data<<<<<
178.758	-16.19
178.974	-125.95
179.191	-212.35
179.407	-67.01
179.624	-72.98
179.84	-81.58
180.057	-116.82
180.273	-87.11
180.489	-64.1
180.706	-116.2
180.922	-55.69
181.138	-22.23
181.355	46.82
181.571	46.93
181.787	90.2
182.004	125.72
182.22	126.48
182.436	116.65
182.653	75.36
182.869	11.49
183.085	-7.17
183.301	-4.84
183.518	15.65
183.734	23.18
183.95	24.8
184.166	51.76
184.383	70.2
184.599	82.14
184.815	62.87
185.031	40.42
185.247	42.44
185.463	37.87
185.68	34.87
185.896	19.48
186.112	56.01
186.328	61.35
186.544	21.9
186.76	43.1
186.976	71.61
187.192	60.42
187.408	70.62
187.624	110.65
187.84	60.56
188.056	41.02
188.272	52.3
188.488	41.56
188.704	39.91
188.92	20.7
189.136	13.33
189.352	12.85
189.568	19.11
189.784	26.31
190	49.68
190.216	57.87
190.432	45.8
190.648	32.28
190.864	-43.5
191.08	-14.65
191.296	20.05
191.511	-27.34
191.727	-64.64
191.943	-42.74
192.159	-32.36
192.375	-39.92
192.591	-22.19
192.806	-75.81
193.022	-26.89
193.238	-115.49
193.454	-96.16
193.669	-119.58
193.885	-125.32
194.101	-148.79
194.317	-74.24
194.532	-1464.04
194.748	977.31
194.964	-49.58
195.18	-56.09
195.395	-87.27
195.611	-72.32
195.827	-222.99
196.042	-314.46
196.258	14.57
196.473	-23.94
196.689	-87.43
196.905	28.47
197.12	-90.1
197.336	-35.23
197.551	117.25
197.767	15700
197.982	161.02
198.198	1141.1
198.414	1147.19
198.629	232.1
198.845	115.97
199.06	151.99
199.276	59.53
199.491	-392.97
199.707	-33.98
199.922	23.21
200.137	54.5
200.353	67.01
200.568	33.45
200.784	15.02
200.999	32.51
201.215	64.83
201.43	54.42
201.645	71.08
201.861	66.57
202.076	43.73
202.291	50.27
202.507	12.87
202.722	23.06
202.937	-33.58
203.153	-67.52
203.368	6.5
203.583	13.55
203.798	34.37
204.014	61.17
204.229	58.39
204.444	62.3
204.659	-96.13
204.875	-91.9
205.09	331.93
205.305	-1001.89
205.52	600.81
205.735	353.89
205.951	-5020
206.166	548.61
206.381	380.98
206.596	2950.91
206.811	1225.15
207.026	414.39
207.241	233.33
207.457	-409.66
207.672	-594.21
207.887	847.66
208.102	214.41
208.317	260.19
208.532	-749.72
208.747	642.08
208.962	584.94
209.177	-493.29
209.392	-282.55
209.607	-46.34
209.822	12.42
210.037	3.71
210.252	-35.95
210.467	-154.69
210.682	27.53
210.897	-1.67
211.112	-82.42
211.326	-15.74
211.541	-118.14
211.756	-30.87
211.971	-112.65
212.186	-103.63
212.401	-121.56
212.616	-129.81
212.831	-120.97
213.045	-224.16
213.26	-166.08
213.475	-153.51
213.69	-225.5
213.905	-407.84
214.119	-1726.24
214.334	16662.96
214.549	1654.66
214.764	-2011.92
214.978	-1003.07
215.193	-1340.32
215.408	8305.13
215.622	-1250.94
215.837	-7633.33
216.052	3516.09
216.266	892.91
216.481	873.33
216.696	566.78
216.91	-7900
217.125	-678.12
217.34	-996.37
217.554	-944.32
217.769	440.6
217.983	181.32
218.198	151.72
218.412	107.72
218.627	106.24
218.842	85.95
219.056	8.53
219.271	9.64
219.485	-9.45
219.7	-51.56
219.914	-28.27
220.129	39.39
220.343	-36.25
220.558	-77.97
220.772	-79.11
220.986	-71.66
221.201	-187.04
221.415	377.9
221.63	232.27
221.844	162.13
222.058	178.56
222.273	192.07
222.487	258.77
222.702	452.6
222.916	461.24
223.13	268.48
223.344	247.75
223.559	170.67
223.773	145.14
223.987	169.81
224.202	182.29
224.416	243.88
224.63	183.74
224.844	175.23
225.059	184
225.273	1623.23
225.487	-1391.2
225.701	-99.07
225.915	-87.61
226.13	-49.34
226.344	-61.32
226.558	-44.27
226.772	-31.02
226.986	10.67
227.2	29.28
227.415	25.4
227.629	24.39
227.843	-0.18
228.057	18.11
228.271	11.58
228.485	-5.06
228.699	3.52
228.913	-11.69
229.127	-36.29
229.341	-22.37
229.555	-30.95
229.769	-13.51
229.983	-38.71
230.197	-84.1
230.411	-115.13
230.625	-34.96
230.839	-76.41
231.053	-335.01
231.267	-522.22
231.481	-863.38
231.695	-498.2
231.909	-142.34
232.122	-82.89
232.336	-50.2
232.55	-126.24
232.764	-232.73
232.978	-237.43
233.192	-390.87
233.405	-539.51
233.619	-271.49
233.833	-128.89
234.047	-326.1
234.261	-672.24
234.474	-371.73
234.688	775.35
234.902	526.67
235.116	471.78
235.329	323.36
235.543	523.72
235.757	260.76
235.97	147.37
236.184	150.24
236.398	150.73
236.612	132.03
236.825	202.66
237.039	284.58
237.252	252.46
237.466	803.03
237.68	2310.17
237.893	-114700
238.107	-484.98
238.32	1268.7
238.534	-164.75
238.748	12.92
238.961	90.92
239.175	65.91
239.388	77.44
239.602	149.27
239.815	99.41
240.029	103.38
240.242	35.56
240.456	24.78
240.669	-29.79
240.882	7.54
241.096	-86.39
241.309	-99.76
241.523	-56.46
241.736	-111.44
241.95	439.66
242.163	-209.77
242.376	-25.39
242.59	-79.2
242.803	-486.67
243.016	104.83
243.23	664.71
243.443	8126.67
243.656	-1223.31
243.87	-204.76
244.083	-103.01
244.296	-97.42
244.509	-52.05
244.723	-69.35
244.936	-75.96
245.149	-110.8
245.362	-131.56
245.576	-43.97
245.789	-23.41
246.002	-7.43
246.215	-14.15
246.428	3.55
246.641	-25.1
246.855	-41.63
247.068	-27.69
247.281	-79.05
247.494	-33.78
247.707	-53.48
247.92	-73.2
248.133	-27.83
248.346	-43.66
248.559	-3.2
248.772	-23.4
248.985	-22.5
249.198	-1.31
249.411	-1.33
249.624	-0.09
249.837	-0.89
250.05	-5.89
250.263	-18.09
250.476	-22.88
250.689	-8.39
250.902	-14.56
251.115	-19.6
251.328	-17.69
251.541	-12.88
251.754	1.69
251.967	0.09
252.18	10.54
252.393	9.46
252.605	1.73
252.818	-5.26
253.031	-14.33
253.244	-9.38
253.457	-16.18
253.67	-16.41
253.882	-13.49
254.095	6.09
254.308	13.44
254.521	4.85
254.733	15.08
254.946	19.71
255.159	14.19
255.372	10.15
255.584	11.77
255.797	14.27
256.01	4.35
256.222	0.02
256.435	-1.29
256.648	4.37
256.86	3.36
257.073	13.37
257.285	20.46
257.498	10.96
257.711	6.44
257.923	4.79
258.136	5
258.348	-0.75
258.561	-8.78
258.773	-29.05
258.986	-24.78
259.198	-61.4
259.411	-121.58
259.623	-70.68
259.836	-45.82
260.048	-45.37
260.261	-25.23
260.473	-12.57
260.686	-11.49
260.898	-22
261.111	-40.48
261.323	-25.75
261.535	-20.59
261.748	-13.54
261.96	-1.29
262.173	2.39
262.385	6.22
262.597	-0.62
262.81	5.28
263.022	3.72
263.234	23.81
263.447	25.91
263.659	31.04
263.871	25.59
264.083	20.95
264.296	17.88
264.508	21.46
264.72	16.46
264.932	14.13
265.145	0.34
265.357	9.86
265.569	9.8
265.781	7.84
265.993	-9.15
266.205	-32.35
266.418	-50.65
266.63	-79.64
266.842	-67.43
267.054	-61.06
267.266	-47.19
267.478	-57.87
267.69	-70.77
267.902	-85.95
268.114	-102.77
268.326	-77.91
268.538	-66.7
268.75	-46.96
268.962	-56.92
269.174	-66.47
269.386	-38.53
269.598	-9.07
269.81	-10.63
270.022	-14.34
270.234	-7.41
270.446	-2.16
270.658	-0.81
270.87	1.26
271.082	8.63
271.294	10.28
271.506	7.14
271.718	4.41
271.929	9.94
272.141	12.29
272.353	19.12
272.565	17.89
272.777	19.69
272.989	19.22
273.2	19.44
273.412	22.79
273.624	24.05
273.836	20.64
274.047	15.99
274.259	17.97
274.471	22.41
274.683	15.09
274.894	18.77
275.106	19.58
275.318	23.02
275.529	21.33
275.741	13.26
275.953	24.32
276.164	27.21
276.376	27.38
276.588	27.3
276.799	19.89
277.011	26.1
277.222	22.15
277.434	10.8
277.646	2.74
277.857	-0.53
278.069	-0.83
278.28	-9.95
278.492	-16.67
278.703	-20.01
278.915	-4.83
279.126	1.96
279.338	0.61
279.549	6.25
279.761	1.81
279.972	-2.23
280.183	0.74
280.395	-5.54
280.606	-15.18
280.818	-18.17
281.029	-22.78
281.24	-19.77
281.452	-23.96
281.663	-24.34
281.875	-23.45
282.086	-23.97
282.297	-31.21
282.508	-26.07
282.72	-20.15
282.931	-9.16
283.142	-5.27
283.354	-21.46
283.565	-25.01
283.776	-30.81
283.987	-55.38
284.199	-39.47
284.41	-22.8
284.621	-16.84
284.832	-4.8
285.043	0.02
285.254	-19.62
285.466	-23.81
285.677	-17.78
285.888	-26.4
286.099	-22.86
286.31	-18.78
286.521	-27.96
286.732	-24.22
286.943	-24.87
287.154	-15.97
287.366	-21.32
287.577	-22.27
287.788	-22.58
287.999	-21.74
288.21	-33.93
288.421	-16.66
288.632	-20.31
288.843	-19.81
289.054	-25.1
289.264	-36.22
289.475	-38.91
289.686	-19.68
289.897	-14.69
290.108	-12.09
290.319	-8.25
290.53	-2.77
290.741	-4.18
290.952	1.52
291.163	5.58
291.373	6.73
291.584	6.67
291.795	3.29
292.006	6.56
292.217	9.8
292.427	7.62
292.638	18.22
292.849	13.09
293.06	10.48
293.27	3.76
293.481	7.75
293.692	5.33
293.903	11.1
294.113	10.72
294.324	11.32
294.535	-2.55
294.745	0.07
294.956	-0.04
295.167	-4.99
295.377	-2.57
295.588	-2.25
295.798	-2.11
296.009	-9.35
296.22	-5.25
296.43	-10.11
296.641	-8.74
296.851	-5.06
297.062	-10.63
297.272	-4.65
297.483	-10.98
297.693	-2.79
297.904	-5.06
298.114	6.76
298.325	1.14
298.535	-2.46
298.746	-3.83
298.956	3.61
299.167	4.33
299.377	1.42
299.587	7.51
299.798	8.74
300.008	-2.94
300.219	1.57
300.429	5.62
300.639	-0.46
300.85	1.98
301.06	-2.78
301.27	1.77
301.481	10.4
301.691	-1.77
301.901	4.19
302.111	-0.63
302.322	-1.81
302.532	-14.22
302.742	-13.47
302.952	-14.26
303.163	-24.48
303.373	-32.7
303.583	-28.52
303.793	-24.66
304.003	-16.75
304.214	-14.9
304.424	-7.77
304.634	-13.65
304.844	-12.3
305.054	-7.96
305.264	-11.75
305.474	-9.89
305.684	-12.61
305.894	-15.52
306.104	-8.47
306.314	-11.68
306.525	-20.63
306.735	-18.47
306.945	-17.8
307.155	-10.06
307.365	-3.57
307.575	4.28
307.784	2.86
307.994	-0.03
308.204	-1.34
308.414	-3.32
308.624	-6.6
308.834	1.97
309.044	3.84
309.254	5.57
309.464	8.49
309.674	10.56
309.884	7.45
310.093	10.41
310.303	8.86
310.513	14.27
310.723	21.41
310.933	29.44
311.142	29.92
311.352	31.27
311.562	30.28
311.772	28.31
311.981	25.35
312.191	25.45
312.401	24.83
312.611	22.39
312.82	16.29
313.03	18.3
313.24	13.74
313.449	17.18
313.659	15.01
313.869	6.64
314.078	8.16
314.288	5.92
314.497	-4.2
314.707	-4.08
314.917	-9.22
315.126	-12.59
315.336	-9.19
315.545	-19.52
315.755	-13.21
315.964	-14.77
316.174	-15.18
316.383	-14.58
316.593	-11.57
316.802	-12.26
317.012	-11.64
317.221	0.35
317.431	-4.71
317.64	-3.64
317.849	-15.24
318.059	-17.12
318.268	-11.05
318.478	-7.8
318.687	-3.81
318.896	0.61
319.106	3.53
319.315	4.12
319.524	-6.38
319.734	-14.44
319.943	-3.82
320.152	-3.18
320.362	-3.94
320.571	-8.41
320.78	-11.12
320.989	-3.53
321.199	-8.5
321.408	-5.25
321.617	-9.91
321.826	-6.47
322.035	-12.01
322.245	-5.95
322.454	1.13
322.663	-2.45
322.872	-12.58
323.081	-15.49
323.29	-19.92
323.5	-27.04
323.709	-25.57
323.918	-17.42
324.127	-19.36
324.336	-30.77
324.545	-33.87
324.754	-34.01
324.963	-29.67
325.172	-23.39
325.381	-24.73
325.59	-15.69
325.799	-15.82
326.008	-21.94
326.217	-20.77
326.426	-7.1
326.635	-1
326.844	-12.36
327.053	-2.23
327.262	5.12
327.47	3.68
327.679	8.41
327.888	10.75
328.097	9.87
328.306	13.73
328.515	19.2
328.724	26.48
328.932	23.71
329.141	19.02
329.35	18.88
329.559	18.1
329.768	15.32
329.976	11.41
330.185	5.45
330.394	6.68
330.602	3.26
330.811	-6.93
331.02	-8.87
331.229	-5.8
331.437	0.6
331.646	3.41
331.855	5.75
332.063	1.43
332.272	0.62
332.48	-5
332.689	-11.14
332.898	-16.97
333.106	-17.42
333.315	-19.65
333.523	-14.65
333.732	-18.13
333.94	-17.87
334.149	-20.12
334.357	-27.6
334.566	-19.86
334.774	-19.22
334.983	-21.95
335.191	-33.17
335.4	-39.74
335.608	-49.94
335.817	-79.72
336.025	-92.09
336.234	-109.96
336.442	-85.35
336.65	-81.02
336.859	-56.14
337.067	-58.15
337.275	-52.89
337.484	-49.24
337.692	-40.69
337.9	-46.07
338.109	-49.24
338.317	-59.82
338.525	-55.89
338.734	-39.86
338.942	-40.81
339.15	-44.3
339.358	-49.53
339.567	-21.7
339.775	-19.76
339.983	-19.41
340.191	-16.23
340.399	-1.51
340.608	12.3
340.816	8.03
341.024	14.41
341.232	4.79
341.44	11.73
341.648	15.59
341.856	17.79
342.064	21.5
342.272	18.33
342.481	15.35
342.689	19.9
342.897	17.21
343.105	12.95
343.313	16.8
343.521	14.46
343.729	12.73
343.937	8.09
344.145	4.26
344.353	7.5
344.56	5.84
344.768	1.44
344.976	-9.18
345.184	-11.29
345.392	-16.97
345.6	-6.41
345.808	-11.7
346.016	-18.05
346.224	-18.8
346.431	-23.08
346.639	-12.22
346.847	-8.11
347.055	-11.23
347.263	-20.99
347.471	-24.43
347.678	-33.79
347.886	-32.58
348.094	-21.69
348.302	-17.93
348.509	-13.02
348.717	-13.06
348.925	-2.31
349.132	-2.6
349.34	1.55
349.548	5.41
349.755	5.11
349.963	-8.63
350.171	-11.5
350.378	-11.78
350.586	-17.13
350.793	-19.17
351.001	-23.68
351.209	-28.64
351.416	-23.34
351.624	-16.77
351.831	-25.61
352.039	-30.17
352.246	-34.82
352.454	-43.08
352.661	-47.75
352.869	-46.39
353.076	-44.48
353.284	-52.73
353.491	-43.33
353.699	-52.29
353.906	-49.66
354.113	-41.78
354.321	-41.78
354.528	-39.52
354.736	-40.31
354.943	-33.9
355.15	-26.21
355.358	-35
355.565	-33.76
355.772	-35.11
355.98	-29.7
356.187	-16.46
356.394	-20.04
356.601	-20.43
356.809	-12.23
357.016	-4
357.223	-5.59
357.43	-9.45
357.638	0.85
357.845	0.26
358.052	3.07
358.259	-0.89
358.466	-2.54
358.673	-1
358.881	-2.98
359.088	-7.37
359.295	-10.58
359.502	-31.22
359.709	-14.36
359.916	-17.56
360.123	-16.27
360.33	-22.39
360.537	-29.9
360.744	-19.76
360.951	-21.3
361.158	-20.95
361.365	-25.16
361.572	-18.96
361.779	-12.69
361.986	-19.18
362.193	-28.25
362.4	-26.99
362.607	-41.89
362.814	-41.13
363.021	-32.23
363.228	-36.41
363.435	-30.18
363.641	-32.28
363.848	-25.5
364.055	-38.11
364.262	-31.12
364.469	-41.17
364.676	-33.83
364.882	-31.02
365.089	-33.75
365.296	-32.52
365.503	-33.27
365.709	-44.77
365.916	-48.03
366.123	-52.43
366.33	-49.19
366.536	-48.29
366.743	-52.17
366.95	-47.44
367.156	-44.31
367.363	-48.01
367.57	-48.35
367.776	-45.7
367.983	-39.63
368.19	-37.23
368.396	-36.67
368.603	-42.14
368.809	-30.34
369.016	-34.84
369.222	-38.69
369.429	-30.06
369.635	-19.56
369.842	-23.6
370.048	-7.99
370.255	-1.74
370.461	-4.5
370.668	-6.39
370.874	-6.89
371.081	4.03
371.287	4.61
371.494	0.95
371.7	-0.38
371.906	2.58
372.113	-3.06
372.319	-7.33
372.526	-3.84
372.732	-1.15
372.938	-2.9
373.145	-5.18
373.351	-1.52
373.557	-1.01
373.763	-8.18
373.97	-12.73
374.176	-3.31
374.382	-7.25
374.588	-19.2
374.795	-13.92
375.001	-19.97
375.207	-27.63
375.413	-32.07
375.62	-20.56
375.826	-21.7
376.032	-7.11
376.238	-7.07
376.444	-8
376.65	-9.05
376.856	-8.76
377.062	-7.93
377.269	2.26
377.475	-7.5
377.681	-16.49
377.887	-11.09
378.093	-9.64
378.299	-5.2
378.505	-10.02
378.711	-8.53
378.917	1.78
379.123	-3.71
379.329	2.09
379.535	9.41
379.741	10.54
379.947	8.92
380.152	18.11
380.358	6.82
380.564	0.82
380.77	1.71
380.976	0.53
381.182	-0.31
381.388	2.14
381.594	-4.45
381.799	-1.96
382.005	2.17
382.211	3.82
382.417	0.96
382.623	-5.82
382.828	1.23
383.034	-0.74
383.24	-13.46
383.445	-2.59
383.651	-6.18
383.857	-14.88
384.063	-20.09
384.268	-41.25
384.474	-53.85
384.68	-57.87
384.885	-43.96
385.091	-31.14
385.296	-26.29
385.502	-21.07
385.708	-32.79
385.913	-37.34
386.119	-37.59
386.324	-42.43
386.53	-46.24
386.735	-48.01
386.941	-32.88
387.146	-40.07
387.352	-37.81
387.557	-23.46
387.763	-31.72
387.968	-34.45
388.174	-20.4
388.379	-26.32
388.585	-21.55
388.79	-9.91
388.996	-6.89
389.201	-12.57
389.406	-25.59
389.612	-29.73
389.817	-30.83
390.022	-24.45
390.228	-13.73
390.433	-10.09
390.638	-10.33
390.844	-9.76
391.049	-7.56
391.254	-10.15
391.459	-11.08
391.665	-15.82
391.87	-13.87
392.075	-8.96
392.28	-2.22
392.485	-6.98
392.691	-6.03
392.896	-2.13
393.101	-6.78
393.306	-3.1
393.511	1.43
393.716	10.22
393.922	5.93
394.127	-3.28
394.332	10.08
394.537	3.34
394.742	-2.2
394.947	-1.42
395.152	-0.61
395.357	0.72
395.562	-1.46
395.767	-6.38
395.972	-0.49
396.177	-2.67
396.382	-8.26
396.587	-7.36
396.792	-0.45
396.997	3.25
397.202	2.51
397.407	-4.25
397.611	-1.91
397.816	1.64
398.021	-4.62
398.226	-2.55
398.431	0.11
398.636	-10.56
398.841	-3.72
399.045	3.64
399.25	-2.47
399.455	-0.93
399.66	-3.49
399.864	-4.67
400.069	-10.76
400.274	-14.11
400.479	-13.9
400.683	-16.16
400.888	-19.46
401.093	-36.13
401.297	-40.27
401.502	-48.04
401.707	-49.48
401.911	-48.91
402.116	-54.82
402.321	-42.82
402.525	-44.15
402.73	-37.92
402.934	-36.69
403.139	-42.68
403.344	-49.34
403.548	-40.4
403.753	-42.56
403.957	-57.34
404.162	-59.89
404.366	-42.55
404.571	-41.8
404.775	-47.67
404.98	-48.84
405.184	-49.86
405.388	-34.18
405.593	-24.45
405.797	-21.01
406.002	-9.2
406.206	-8.44
406.41	-9.63
406.615	-9.8
406.819	-6
407.023	-0.26
407.228	5.22
407.432	-3.41
407.636	-8.74
407.841	-0.11
408.045	-4.45
408.249	-3.92
408.453	4.7
408.658	2.77
408.862	9.13
409.066	7.34
409.27	8.71
409.474	9.93
409.679	-2.66
409.883	-4.22
410.087	-14.05
410.291	-16.63
410.495	-27.37
410.699	-33.28
410.903	-38.3
411.108	-27.73
411.312	-42.75
411.516	-53.67
411.72	-44.4
411.924	-33.25
412.128	-37.31
412.332	-33.53
412.536	-25.68
412.74	-27.09
412.944	-25.17
413.148	-30.52
413.352	-30.32
413.556	-27.5
413.76	-26.48
413.964	-17.73
414.167	-9.92
414.371	3.9
414.575	4.46
414.779	4.9
414.983	9.94
415.187	15.02
415.391	4.19
415.594	11.23
415.798	8.05
416.002	16.16
416.206	21.69
416.41	20.41
416.613	14.9
416.817	10.19
417.021	14.44
417.225	14.99
417.428	7.59
417.632	6.94
417.836	7.85
418.039	16.61
418.243	19.86
418.447	-1.25
418.65	-6.81
418.854	1.01
419.057	10.67
419.261	6.87
419.465	4.45
419.668	15.52
419.872	13.18
420.075	15.69
420.279	9.67
420.482	7.88
420.686	7.57
420.889	10.48
421.093	14.62
421.296	5.88
421.5	6.86
421.703	11.84
421.907	21.5
422.11	8.11
422.314	-8.38
422.517	-12.94
422.72	6.57
422.924	2.87
423.127	-1.73
423.33	-5.22
423.534	8.94
423.737	3.92
423.94	-2.57
424.144	13.42
424.347	12.66
424.55	5.28
424.754	-2.18
424.957	-2.97
425.16	5.31
425.363	6.8
425.567	20.16
425.77	21.99
425.973	28.81
426.176	21.01
426.379	29.6
426.582	38.16
426.786	41.88
426.989	36.74
427.192	50.75
427.395	43.25
427.598	36.69
427.801	22.48
428.004	19.11
428.207	24.72
428.41	14.96
428.613	14.48
428.816	26.86
429.019	25.9
429.222	18.9
429.425	15.82
429.628	15.67
429.831	17.47
430.034	13.89
430.237	13.55
430.44	8.94
430.643	6.94
430.846	-0.98
431.049	-5.37
431.252	1.36
431.454	-5.51
431.657	-12.31
431.86	-12.44
432.063	-11.72
432.266	-8.39
432.469	-13.65
432.671	-13.73
432.874	-6.41
433.077	-25.18
433.28	-15.88
433.482	-13.21
433.685	-24.9
433.888	-25.35
434.09	-45.81
434.293	-59.42
434.496	-68.8
434.698	-64.69
434.901	-54.71
435.104	-47.55
435.306	-33.15
435.509	-44.05
435.712	-41.87
435.914	-51.13
436.117	-36.52
436.319	-24.44
436.522	-25.24
436.724	-27.08
436.927	-32.75
437.129	-43.3
437.332	-33.92
437.534	-35.5
437.737	-41.95
437.939	-17.95
438.142	-30.17
438.344	-21.16
438.547	-25.75
438.749	-19.34
438.951	-33.87
439.154	-49.8
439.356	-46.53
439.558	-58.18
439.761	-46.52
439.963	-37.13
440.165	-23.57
440.368	-22.92
440.57	-54.4
440.772	-70.03
440.975	-79.52
441.177	-61.32
441.379	-53.13
441.581	-44.36
441.784	-52.51
441.986	-32.26
442.188	-43.6
442.39	-36.03
442.592	-35.68
442.795	-24.93
442.997	-26.85
443.199	-18.08
443.401	-7.57
443.603	-9.16
443.805	-12.31
444.007	-6.25
444.209	-11.28
444.411	-5.74
444.613	-8.67
444.815	6.62
445.017	11.05
445.219	19.7
445.421	15.6
445.623	9.46
445.825	4.8
446.027	2.99
446.229	-6.42
446.431	8.42
446.633	-3.32
446.835	-3.96
447.037	-1.99
447.239	-2.37
447.441	2.34
447.643	-1.19
447.844	-5.91
448.046	-4.19
448.248	-13.66
448.45	-17.53
448.652	-22.2
448.853	-24.01
449.055	-22.43
449.257	-18.65
449.459	-30.23
449.66	-17.49
449.862	-9.38
450.064	1.99
450.266	-1.46
450.467	-2.23
450.669	-12.63
450.871	-4.94
451.072	6.15
451.274	12.93
451.475	14.4
451.677	9.86
451.879	-2.27
452.08	-11.51
452.282	-2.91
452.483	-0.28
452.685	7.09
452.886	1.37
453.088	-7.16
453.289	-18.27
453.491	-38.93
453.692	-63.15
453.894	-43.3
454.095	-35.12
454.297	-43.26
454.498	-28.6
454.7	-27.1
454.901	-17.85
455.102	-11.47
455.304	-8.44
455.505	-17.34
455.706	-16.45
455.908	-17.29
456.109	-15.57
456.31	-4.45
456.512	-12.92
456.713	-5.74
456.914	-11.01
457.116	-24.68
457.317	-11.2
457.518	-16.79
457.719	-8.8
457.921	-4.04
458.122	-15.41
458.323	-24.92
458.524	-18.27
458.725	-18.28
458.926	-26.82
459.128	-28.83
459.329	-33.38
459.53	-48.92
459.731	-56.56
459.932	-62.97
460.133	-60.26
460.334	-51.48
460.535	-57.48
460.736	-55.44
460.937	-70.56
461.138	-64.38
461.339	-48.58
461.54	-59.78
461.741	-55.59
461.942	-49.45
462.143	-38.11
462.344	-45.61
462.545	-39.88
462.746	-48.47
462.947	-55.12
463.148	-44.2
463.348	-32.91
463.549	-31.4
463.75	-31.86
463.951	-21.68
464.152	-21.14
464.353	-20.54
464.553	-8.08
464.754	0.92
464.955	-2.89
465.156	1.14
465.356	-0.47
465.557	-3.76
465.758	-1.65
465.959	4.54
466.159	6.7
466.36	4.32
466.561	6.22
466.761	0.67
466.962	7.36
467.163	10.53
467.363	3.65
467.564	3.34
467.764	2.54
467.965	-1.79
468.166	-9.99
468.366	-8.2
468.567	-8.13
468.767	-11.11
468.968	-14.26
469.168	-5.15
469.369	-4.7
469.569	1.14
469.77	4.88
469.97	6.54
470.17	1.5
470.371	-7.27
470.571	-16.12
470.772	-11.11
470.972	-6.81
471.172	-8.75
471.373	-10.61
471.573	-0.18
471.773	-1.19
471.974	1.3
472.174	5.68
472.374	13.09
472.575	12.8
472.775	12.68
472.975	-1.54
473.175	-5.05
473.376	-6.75
473.576	-5.48
473.776	-7.46
473.976	-7.23
474.177	-8.04
474.377	-9.9
474.577	-4.44
474.777	1.61
474.977	-5.63
475.177	-8.47
475.377	-6.09
475.577	0.26
475.777	-1.9
475.978	-5.71
476.178	-8.13
476.378	-5.7
476.578	1.17
476.778	-0.26
476.978	1.26
477.178	6.02
477.378	8.98
477.578	9.13
477.778	4.01
477.977	-0.18
478.177	-6.17
478.377	-11.3
478.577	-8.12
478.777	-1.97
478.977	-1.27
479.177	-2.52
479.377	-3.34
479.577	-12.99
479.776	-13.82
479.976	-19.14
480.176	-14.14
480.376	-13.38
480.576	-15.61
480.775	-23.33
480.975	-21.74
481.175	-21.88
481.374	-17.41
481.574	-13.49
481.774	-19.76
481.974	-16.98
482.173	-14.95
482.373	-14.31
482.572	-8.29
482.772	-7.35
482.972	-10.75
483.171	-11.03
483.371	-1.14
483.57	-1.79
483.77	3.42
483.97	4.51
484.169	6.21
484.369	1.21
484.568	1.56
484.768	3.09
484.967	3.71
485.167	5.11
485.366	1.69
485.566	-4.41
485.765	-5.15
485.964	-6.74
486.164	-9.63
486.363	-11.11
486.563	-6.32
486.762	-10.15
486.961	-9.04
487.161	-11.71
487.36	-14.84
487.559	-21.76
487.759	-21.72
487.958	-23.8
488.157	-27.38
488.356	-22.99
488.556	-19.04
488.755	-21.29
488.954	-23.49
489.153	-24.49
489.353	-29.42
489.552	-29.03
489.751	-28.29
489.95	-26.28
490.149	-27.54
490.348	-23.73
490.548	-24.94
490.747	-29.27
490.946	-25.2
491.145	-26.25
491.344	-25.14
491.543	-21.14
491.742	-20.81
491.941	-17.72
492.14	-19.4
492.339	-19.2
492.538	-23.85
492.737	-22.51
492.936	-19.95
493.135	-23.46
493.334	-28.85
493.533	-32.88
493.732	-25.81
493.931	-14.23
494.13	-23.89
494.328	-15.26
494.527	-17.88
494.726	-13.81
494.925	-18.77
495.124	-20.15
495.323	-19.01
495.521	-16.4
495.72	-13.95
495.919	-14.07
496.118	-17.53
496.316	-20.47
496.515	-22.01
496.714	-21.31
496.913	-24.48
497.111	-25.88
497.31	-26.21
497.509	-24.28
497.707	-21.03
497.906	-17.81
498.105	-27.81
498.303	-27.46
498.502	-28.5
498.7	-22.57
498.899	-26.51
499.097	-23.97
499.296	-21.93
499.495	-21.16
499.693	-24.73
499.892	-30.74
500.09	-31.41
500.289	-22.25
500.487	-21.02
500.686	-15.94
500.884	-15.75
501.082	-15.12
501.281	-19.39
501.479	-11.76
501.678	-8.99
501.876	-7.91
502.074	-12.78
502.273	-10.35
502.471	-6.78
502.669	-7.99
502.868	-11.58
503.066	-5.88
503.264	-2.11
503.463	-2.67
503.661	-7.07
503.859	-5.66
504.057	-3.52
504.256	-3.7
504.454	-7.01
504.652	-3.94
504.85	-7.7
505.048	-9.4
505.246	-11.1
505.445	-6.87
505.643	-9.44
505.841	-10.63
506.039	-12.57
506.237	-13.59
506.435	-14.09
506.633	-15.95
506.831	-14.64
507.029	-13.42
507.227	-14.17
507.425	-13.52
507.623	-13.43
507.821	-12.62
508.019	-7.74
508.217	-6.83
508.415	-4.16
508.613	-3.7
508.811	-6.71
509.009	-7.24
509.207	-3.36
509.405	-3.36
509.603	-2.43
509.8	-4.12
509.998	-3.17
510.196	3.64
510.394	1.28
510.592	1.66
510.79	3.8
510.987	1.46
511.185	2.11
511.383	-3.4
511.581	-7.54
511.778	-2.46
511.976	-0.32
512.174	-8.66
512.371	-12.56
512.569	-12.67
512.767	-11.43
512.964	-10.54
513.162	-11.21
513.36	-14.59
513.557	-13.38
513.755	-14.97
513.952	-12.83
514.15	-14.26
514.348	-19.68
514.545	-15.69
514.743	-13.91
514.94	-12.27
515.138	-12.13
515.335	-11.41
515.533	-8.95
515.73	-3.07
515.927	-10.04
516.125	-9.41
516.322	-5.9
516.52	-2.34
516.717	-1.48
516.915	-3.2
517.112	-2.95
517.309	-2.38
517.507	2.71
517.704	0.6
517.901	0.01
518.099	-0.55
518.296	4.03
518.493	6.68
518.69	7.86
518.888	8.59
519.085	9.08
519.282	10.25
519.479	7.44
519.676	6.75
519.874	2.21
520.071	2.85
520.268	5.29
520.465	7.41
520.662	7.02
520.859	6.26
521.056	10.51
521.254	13.56
521.451	15.44
521.648	12.94
521.845	13.36
522.042	17.6
522.239	21.71
522.436	12.74
522.633	9.15
522.83	10.34
523.027	6.01
523.224	6.58
523.421	7.71
523.618	6.15
523.815	9.08
524.011	9.58
524.208	11.58
524.405	6.23
524.602	5.63
524.799	-1.05
524.996	-5.3
525.193	-8.84
525.389	-13.08
525.586	-16.14
525.783	-16.72
525.98	-13.51
526.176	-16.05
526.373	-22.4
526.57	-16.9
526.767	-19.64
526.963	-24.5
527.16	-17.85
527.357	-21.49
527.553	-22.81
527.75	-22.61
527.947	-30.91
528.143	-25.56
528.34	-27.38
528.537	-26.78
528.733	-25.92
528.93	-20.09
529.126	-11.04
529.323	-12.07
529.519	-7.88
529.716	-9.37
529.912	-9.79
530.109	-10.1
530.305	-9.39
530.502	-6.41
530.698	-6.67
530.895	-6.15
531.091	-5.16
531.288	-7.35
531.484	-3.84
531.68	-5.62
531.877	-4.17
532.073	-0.13
532.269	-1.19
532.466	0.56
532.662	1.55
532.858	1
533.055	1.38
533.251	-1.3
533.447	-1.49
533.643	-0.56
533.84	1.17
534.036	0.89
534.232	3.8
534.428	-2.3
534.624	-3.55
534.821	-1.88
535.017	0.22
535.213	2.07
535.409	3.03
535.605	-0.74
535.801	-2.73
535.997	-4.16
536.193	-4.25
536.389	-5.54
536.586	-5.15
536.782	-1.71
536.978	0.03
537.174	-0.22
537.37	0.51
537.566	0.56
537.762	-2.86
537.958	-1.44
538.153	-2.13
538.349	-4.62
538.545	2.69
538.741	1.94
538.937	-0.49
539.133	2.23
539.329	2.46
539.525	1.73
539.721	4.02
539.916	11.53
540.112	10.4
540.308	12.78
540.504	14.49
540.699	15.92
540.895	12.74
541.091	12.45
541.287	12.63
541.482	8.13
541.678	10.28
541.874	12.71
542.069	13.17
542.265	14.61
542.461	13.36
542.656	13.99
542.852	13.64
543.048	14.2
543.243	13.15
543.439	11.15
543.634	10.54
543.83	9.37
544.025	5.68
544.221	7.97
544.417	7.89
544.612	8.45
544.807	6.96
545.003	5.22
545.198	1.88
545.394	2.45
545.589	6.77
545.785	5.35
545.98	2.39
546.176	2.6
546.371	0.08
546.566	1.06
546.762	-3.09
546.957	-2.43
547.152	-1.2
547.348	-1.54
547.543	-0.8
547.738	-1.89
547.933	-3.22
548.129	-0.62
548.324	-1.79
548.519	-2.59
548.714	-4.23
548.91	-6.31
549.105	-6.13
549.3	-3.92
549.495	-3.87
549.69	-5.74
549.885	-5.94
550.08	1.45
550.276	-0.04
550.471	2.68
550.666	1.01
550.861	1.84
551.056	1.47
551.251	-1.36
551.446	-0.81
551.641	-4.7
551.836	-4.7
552.031	-2.66
552.226	-5.57
552.421	-4.83
552.616	-6.05
552.811	-2.17
553.006	-1.81
553.201	-2.01
553.395	-2.59
553.59	-5.01
553.785	-2.7
553.98	-2.1
554.175	-7.28
554.37	-7.15
554.565	-8.77
554.759	-10.06
554.954	-8.56
555.149	-7.05
555.344	-5.88
555.538	-5.78
555.733	-2.97
555.928	2.11
556.122	1.8
556.317	1.23
556.512	-0.6
556.706	-0.38
556.901	-2.56
557.096	0.91
557.29	3.91
557.485	3.55
557.68	5.72
557.874	4.01
558.069	7.29
558.263	6.26
558.458	6.74
558.652	6.26
558.847	8.16
559.041	9.16
559.236	8.36
559.43	9.09
559.625	10.83
559.819	11.97
560.014	7.09
560.208	7.23
560.402	8.27
560.597	10.11
560.791	9.06
560.986	7.3
561.18	4.39
561.374	2.07
561.569	2.35
561.763	2.51
561.957	1.32
562.151	-3.58
562.346	-0.5
562.54	0.38
562.734	0.94
562.928	-3.41
563.123	-2.3
563.317	-3.47
563.511	-2.08
563.705	-7.53
563.899	-9.33
564.093	-9.5
564.288	-10.4
564.482	-9.03
564.676	-8.75
564.87	-6.9
565.064	-4.43
565.258	-3.29
565.452	-3.13
565.646	-0.86
565.84	-3.51
566.034	-3.7
566.228	-2.2
566.422	-0.99
566.616	-0.81
566.81	1.88
567.004	6.74
567.198	6.47
567.392	6.79
567.586	4.9
567.779	7.1
567.973	6.61
568.167	7.79
568.361	7.42
568.555	9.15
568.749	8.32
568.942	5.98
569.136	3.88
569.33	3.46
569.524	2.63
569.718	1.66
569.911	4.06
570.105	5.88
570.299	5.57
570.492	3.47
570.686	5.04
570.88	5.68
571.073	3.43
571.267	4.1
571.461	5.55
571.654	5.54
571.848	4.42
572.041	6.66
572.235	8.38
572.429	11.23
572.622	8.07
572.816	9.74
573.009	11.07
573.203	11.14
573.396	13.04
573.59	15.3
573.783	14.67
573.976	14.26
574.17	13.41
574.363	15.42
574.557	14.2
574.75	12.43
574.943	11.53
575.137	14.1
575.33	14.45
575.523	12.9
575.717	12.46
575.91	13.63
576.103	12.47
576.297	11.82
576.49	9.47
576.683	9.77
576.876	7.58
577.07	7.24
577.263	8.91
577.456	7.06
577.649	5.19
577.842	5.47
578.036	6.06
578.229	5.68
578.422	4.75
578.615	5.38
578.808	4.33
579.001	5.85
579.194	5.45
579.387	5.14
579.58	6.45
579.773	6.39
579.966	7.37
580.159	6.02
580.352	6.15
580.545	6.74
580.738	6.33
580.931	7.25
581.124	8.85
581.317	6.7
581.51	6.74
581.703	7.17
581.896	6.47
582.088	6.32
582.281	7.49
582.474	7.78
582.667	9.29
582.86	10.6
583.053	7.28
583.245	6.84
583.438	5.3
583.631	5.12
583.824	5.03
584.016	3.23
584.209	3.87
584.402	4.53
584.594	5.62
584.787	7.23
584.98	7.42
585.172	7.25
585.365	6.75
585.558	7.26
585.75	6.65
585.943	6.78
586.135	6.02
586.328	5.07
586.52	4.91
586.713	4.86
586.906	5.27
587.098	6.11
587.291	7.34
587.483	5.38
587.675	5.3
587.868	3.81
588.06	5.25
588.253	8.06
588.445	6.96
588.638	3.99
588.83	2.05
589.022	1.25
589.215	0.17
589.407	2.37
589.599	1.72
589.792	3.7
589.984	5.3
590.176	4.41
590.368	5.83
590.561	6.03
590.753	7.05
590.945	7.35
591.137	6.42
591.33	3.8
591.522	5.36
591.714	4.16
591.906	9.88
592.098	9.42
592.29	8.45
592.482	8.07
592.674	8.84
592.867	8.89
593.059	9.89
593.251	9.52
593.443	9.16
593.635	8.49
593.827	6.51
594.019	5.8
594.211	6.41
594.403	5.74
594.595	6.46
594.787	5.74
594.979	4.75
595.17	6.06
595.362	8.2
595.554	8.77
595.746	8.81
595.938	5.17
596.13	4.99
596.322	4.59
596.513	2.84
596.705	3.97
596.897	4.17
597.089	3.19
597.281	3.77
597.472	2.82
597.664	3.79
597.856	5.63
598.048	4.47
598.239	5.08
598.431	4.39
598.623	1.34
598.814	-2.37
599.006	-1.26
599.197	-1
599.389	-1.61
599.581	-2.86
599.772	-2.15
599.964	-1.19
600.155	-0.74
600.347	-1.69
600.538	0.04
600.73	1.69
600.921	2.14
601.113	2.66
601.304	3.52
601.496	6.82
601.687	6.49
601.879	5.51
602.07	7.13
602.262	6.77
602.453	7.17
602.644	7.01
602.836	8.21
603.027	7.65
603.218	7.56
603.41	5.86
603.601	6.12
603.792	5.17
603.983	5.04
604.175	5.15
604.366	5.71
604.557	7.22
604.748	4.02
604.94	3.94
605.131	2.81
605.322	1.38
605.513	0.04
605.704	1.29
605.895	1.66
606.086	1.17
606.278	1.38
606.469	2.36
606.66	6.28
606.851	7.54
607.042	7.35
607.233	7.56
607.424	7.16
607.615	7.03
607.806	7.23
607.997	5.86
608.188	6.36
608.379	5.86
608.57	4.6
608.761	5.34
608.952	6.17
609.142	6.61
609.333	6.34
609.524	5.94
609.715	5.34
609.906	4.79
610.097	6.31
610.287	5.24
610.478	3.92
610.669	3.65
610.86	4.27
611.051	3.84
611.241	4.03
611.432	4.86
611.623	4.76
611.813	5.6
612.004	7.8
612.195	6.66
612.385	7.13
612.576	6.71
612.767	7.89
612.957	7.06
613.148	7.82
613.338	8.04
613.529	7.45
613.72	6.16
613.91	6.72
614.101	4.75
614.291	5.47
614.482	6.72
614.672	3.57
614.863	2.74
615.053	2.73
615.243	3.16
615.434	4.41
615.624	3.93
615.815	3.61
616.005	3.07
616.195	1.29
616.386	-0.79
616.576	-0.09
616.766	-0.94
616.957	-0.64
617.147	-1.33
617.337	-2.64
617.528	-2.32
617.718	-1.41
617.908	-2.15
618.098	-2.02
618.289	-2.41
618.479	-4.48
618.669	-3.03
618.859	-2.6
619.049	-1.73
619.239	-2.82
619.43	-4.07
619.62	-4.77
619.81	-3.98
620	-3.48
620.19	-2.68
620.38	-1.65
620.57	-2.86
620.76	-3.14
620.95	-3.98
621.14	-4.08
621.33	-2.79
621.52	-3.25
621.71	-5.3
621.9	-5.26
622.09	-5.44
622.28	-3.46
622.47	-3.06
622.659	-4.07
622.849	-4.56
623.039	-4.9
623.229	-5.09
623.419	-4.46
623.609	-3.31
623.799	-4.07
623.988	-4.77
624.178	-4.28
624.368	-4.25
624.558	-2.98
624.747	-2.41
624.937	-0.58
625.127	-1.66
625.316	-1.96
625.506	-1.01
625.696	0.64
625.885	-0.03
626.075	0.11
626.265	-0.04
626.454	-0.28
626.644	1.44
626.833	-0.13
627.023	-0.43
627.212	-1.45
627.402	-0.19
627.591	1.21
627.781	1.51
627.97	2.47
628.16	3.99
628.349	5.89
628.539	4.79
628.728	5.21
628.918	4.64
629.107	6.33
629.296	5.96
629.486	6.13
629.675	6.96
629.865	7.66
630.054	8.24
630.243	6.81
630.432	8.21
630.622	7.38
630.811	10.96
631	10.97
631.19	13.06
631.379	11.86
631.568	10.92
631.757	11.84
631.946	10.87
632.136	10.64
632.325	9.14
632.514	9.15
632.703	8.97
632.892	7.54
633.081	6.53
633.27	7.39
633.459	7.22
633.648	6.42
633.837	6.35
634.026	6.1
634.215	8.15
634.404	7.15
634.593	9.96
634.782	9
634.971	9.18
635.16	7.67
635.349	8.23
635.538	8.04
635.727	6.2
635.916	5.24
636.105	5.59
636.294	5.95
636.482	6.16
636.671	4.61
636.86	7.22
637.049	8.96
637.238	8.82
637.426	7.78
637.615	7.1
637.804	7.5
637.993	7.15
638.181	6.82
638.37	7.79
638.559	6.03
638.747	5.44
638.936	6.13
639.125	7.84
639.313	7.49
639.502	8.46
639.691	8.56
639.879	7.61
640.068	6.25
640.256	5.11
640.445	5.86
640.633	8.17
640.822	6.45
641.01	5.81
641.199	7.15
641.387	8.34
641.576	9.5
641.764	10.87
641.953	11.19
642.141	11.27
642.329	11.57
642.518	11.54
642.706	11.44
642.894	9.45
643.083	8.11
643.271	8.61
643.459	9.23
643.648	10.37
643.836	11.35
644.024	10.99
644.213	11.59
644.401	10.86
644.589	7.84
644.777	8.84
644.965	9.94
645.154	8.34
645.342	6.95
645.53	7.18
645.718	5.45
645.906	5.76
646.094	4.28
646.282	3
646.47	2.44
646.658	2.11
646.846	2.76
647.034	4.96
647.223	4.87
647.411	3.39
647.599	1.84
647.786	2.33
647.974	2.8
648.162	1.72
648.35	0.5
648.538	3.98
648.726	4.3
648.914	2.36
649.102	3.62
649.29	5.5
649.478	5.2
649.665	5.64
649.853	5.54
650.041	5.45
650.229	6.4
650.417	6.9
650.604	7.21
650.792	8.14
650.98	5.86
651.168	4.89
651.355	5.56
651.543	5.66
651.731	4.71
651.918	3.76
652.106	5.88
652.294	5.54
652.481	4.4
652.669	3.7
652.856	4.62
653.044	2.95
653.231	1.81
653.419	1.89
653.606	2.83
653.794	4.11
653.981	5.28
654.169	4.25
654.356	3.63
654.544	3.4
654.731	2.61
654.919	2.02
655.106	2.63
655.294	2.68
655.481	5.09
655.668	6.62
655.856	6.37
656.043	5.57
656.23	7.13
656.418	7.32
656.605	6.53
656.792	5.97
656.979	7.18
657.167	7.96
657.354	7.84
657.541	5.98
657.728	6.07
657.916	4.6
658.103	4.23
658.29	4.95
658.477	4.95
658.664	5.32
658.851	6.52
659.038	6.08
659.225	5.61
659.412	4.35
659.6	3.12
659.787	5.62
659.974	4.95
660.161	4.8
660.348	3
660.535	5.59
660.722	4.9
660.909	3.89
661.095	3.79
661.282	3.35
661.469	4.89
661.656	3.35
661.843	4.53
662.03	5.18
662.217	5.01
662.404	6.17
662.59	6.49
662.777	6.05
662.964	7.33
663.151	7.26
663.338	7.83
663.524	7.01
663.711	5.18
663.898	5.98
664.085	6.83
664.271	7.73
664.458	5.08
664.645	5.44
664.831	7.37
665.018	6.87
665.204	7.21
665.391	6.28
665.578	5.65
665.764	4.81
665.951	5.19
666.137	4.97
666.324	4.24
666.51	3.2
666.697	2.91
666.883	1.83
667.07	1.99
667.256	-0.24
667.443	-0.76
667.629	-0.78
667.816	-1.22
668.002	-1.89
668.188	-2.03
668.375	-0.7
668.561	-0.42
668.747	-3.32
668.934	-3.79
669.12	-4.36
669.306	-3.64
669.493	-3.35
669.679	-1.42
669.865	-2.16
670.051	-3.22
670.238	-3.85
670.424	-4.1
670.61	-5.52
670.796	-3.59
670.982	-4.29
671.169	-3.16
671.355	-2.75
671.541	-2.7
671.727	-2.39
671.913	-2.29
672.099	-2.48
672.285	-3.62
672.471	-4.01
672.657	-2.24
672.843	0.17
673.029	0.52
673.215	1.02
673.401	2.44
673.587	-0.16
673.773	1.34
673.959	2.55
674.145	3.08
674.331	4.97
674.517	6.3
674.703	3.48
674.888	3.92
675.074	2.98
675.26	3.52
675.446	3.39
675.632	1.97
675.817	1.78
676.003	2.67
676.189	3.94
676.375	4.51
676.56	4.01
676.746	1.85
676.932	0.47
677.117	0.38
677.303	-0.35
677.489	0.73
677.674	-0.96
677.86	-1.13
678.046	0.06
678.231	-1.24
678.417	-1.85
678.602	-1.03
678.788	-1.68
678.973	-0.58
679.159	0.65
679.344	0.31
679.53	2.17
679.715	2.16
679.901	1.38
680.086	0.95
680.272	0.09
680.457	0.06
680.643	0.56
680.828	0.96
681.013	-0.24
681.199	-1.04
681.384	-0.45
681.569	-0.48
681.755	-1.2
681.94	-2.64
682.125	-3.17
682.31	-0.99
682.496	-1.72
682.681	-1.11
682.866	-1.92
683.051	-3.48
683.237	-2.5
683.422	-2.53
683.607	-2.96
683.792	-2.28
683.977	-2.06
684.162	-2.02
684.347	-1.49
684.532	-2.4
684.717	-1.87
684.903	-0.39
685.088	0.24
685.273	-0.56
685.458	-0.78
685.643	-0.67
685.828	-1.83
686.013	-0.32
686.198	-1.24
686.382	0.82
686.567	2.95
686.752	3.55
686.937	5.17
687.122	5.24
687.307	5.19
687.492	5.79
687.677	4.63
687.861	5.06
688.046	4.56
688.231	4.71
688.416	5.26
688.601	5.33
688.785	5.13
688.97	5.27
689.155	5.89
689.339	5.19
689.524	4.86
689.709	5.54
689.893	4.03
690.078	5.05
690.263	4.18
690.447	2.38
690.632	2.65
690.816	2.9
691.001	2.44
691.186	2.19
691.37	0.28
691.555	0.49
691.739	-0.39
691.924	0.79
692.108	-0.11
692.293	1.11
692.477	1.9
692.661	0.69
692.846	1.46
693.03	1.4
693.215	3.09
693.399	4.13
693.583	4.4
693.768	6.13
693.952	4.61
694.136	4.44
694.321	5.42
694.505	4.66
694.689	4.81
694.873	5.32
695.058	4.71
695.242	6.83
695.426	6.93
695.61	7.05
695.794	7.16
695.979	6.95
696.163	5.77
696.347	4.67
696.531	4.96
696.715	4.67
696.899	3.7
697.083	2.27
697.267	3.65
697.451	3.39
697.635	2.39
697.819	2
698.003	3
698.187	2.08
698.371	3.57
698.555	3.02
698.739	3.68
698.923	4.27
699.107	3.07
699.291	3.86
699.475	3.89
699.659	4.52
699.842	5.93
700.026	4.98
700.21	5.81
700.394	6.22
700.578	6.94
700.761	6.27
700.945	7.8
701.129	6.72
701.313	6.75
701.496	7.62
701.68	8.35
701.864	7.42
702.047	7.34
702.231	7.93
702.415	6.98
702.598	4.9
702.782	4.66
702.965	5.12
703.149	4.84
703.333	4.07
703.516	2.57
703.7	1.24
703.883	2.54
704.067	1.86
704.25	1.9
704.434	-0.12
704.617	1.14
704.801	-0.32
704.984	-0.52
705.167	-0.62
705.351	-2.4
705.534	-2.32
705.718	-2.19
705.901	-3.39
706.084	-4.22
706.268	-3.02
706.451	-2.63
706.634	-3
706.817	-4.35
707.001	-3.85
707.184	-3.59
707.367	-3.77
707.55	-3.69
707.734	-3.2
707.917	-2.94
708.1	-2.89
708.283	-1.77
708.466	-1.58
708.649	-0.08
708.832	-1.44
709.015	-0.35
709.199	1.4
709.382	1.21
709.565	0.15
709.748	2.5
709.931	2.21
710.114	1.22
710.297	1.44
710.48	2.06
710.663	3.45
710.846	2.74
711.028	1.35
711.211	1.2
711.394	2.24
711.577	1.63
711.76	0.55
711.943	0.63
712.126	-0.21
712.309	0.58
712.491	1.27
712.674	1.15
712.857	2.09
713.04	0.53
713.222	0.5
713.405	1.71
713.588	1.41
713.771	0.85
713.953	0.91
714.136	0.67
714.319	0.91
714.501	0.46
714.684	0.39
714.866	2.81
715.049	3.34
715.232	3.32
715.414	2.26
715.597	3.3
715.779	2.12
715.962	2.99
716.144	0.78
716.327	-0.51
716.509	-0.11
716.692	-2.38
716.874	-1.95
717.057	-1.21
717.239	-0.32
717.421	-0.61
717.604	-1.36
717.786	-0.92
717.968	-0.73
718.151	-2.54
718.333	-3.57
718.515	-2.31
718.698	-3.24
718.88	-4.06
719.062	-4.44
719.244	-3.4
719.427	-4.74
719.609	-2.89
719.791	-3.01
719.973	-1.56
720.155	-1.95
720.338	-0.79
720.52	0.32
720.702	1.38
720.884	2.16
721.066	1.46
721.248	-0.78
721.43	0.86
721.612	1.03
721.794	3
721.976	4.49
722.158	5.63
722.34	4.69
722.522	5.12
722.704	5.52
722.886	5.04
723.068	4.59
723.25	6.05
723.432	5.42
723.614	4.38
723.796	4.28
723.977	5.35
724.159	4.73
724.341	3.91
724.523	2.38
724.705	0.62
724.886	0.68
725.068	3.74
725.25	4.06
725.432	3.26
725.613	0.73
725.795	0.8
725.977	1.42
726.158	1.67
726.34	1.64
726.522	1.55
726.703	2.34
726.885	3.26
727.066	2.65
727.248	2.89
727.43	3.19
727.611	1.47
727.793	0.8
727.974	1.26
728.156	1.15
728.337	0.81
728.519	-0.13
728.7	0.46
728.882	-1.89
729.063	-2.4
729.244	-2.84
729.426	-2.57
729.607	-3.34
729.788	-3.44
729.97	-3.41
730.151	-3.97
730.332	-4.48
730.514	-5.79
730.695	-5.72
730.876	-5.05
731.058	-5.61
731.239	-4.37
731.42	-3.89
731.601	-5.3
731.782	-6.13
731.964	-5.36
732.145	-3.84
732.326	-4.24
732.507	-4.84
732.688	-2.32
732.869	-2.09
733.05	-0.36
733.231	1.89
733.412	0.1
733.593	-0.87
733.774	-1.11
733.955	0.25
734.136	1.53
734.317	2.11
734.498	2.55
734.679	0.94
734.86	-1.04
735.041	-2.39
735.222	-1.11
735.403	1.14
735.584	2.01
735.765	2.4
735.946	1.48
736.126	1.77
736.307	2.16
736.488	0.35
736.669	-1.63
736.849	-2.07
737.03	-1.4
737.211	1.59
737.392	2.83
737.572	2.51
737.753	0.8
737.934	-0.29
738.114	0.88
738.295	0.41
738.476	2.8
738.656	4.93
738.837	7.01
739.017	7.82
739.198	7.82
739.378	9.2
739.559	8.52
739.74	7.95
739.92	8.55
740.1	8.3
740.281	7.38
740.461	7.62
740.642	9.06
740.822	5.64
741.003	6.14
741.183	5.7
741.363	6.01
741.544	6.01
741.724	6.94
741.904	6.06
742.085	5.09
742.265	3.55
742.445	2.4
742.626	2.8
742.806	2.05
742.986	1.57
743.166	0.04
743.347	-1.69
743.527	-0.29
743.707	-2.17
743.887	-3.55
744.067	-3.91
744.247	-3.53
744.427	-4.07
744.608	-3.67
744.788	-3.33
744.968	-1.92
745.148	-0.68
745.328	-0.69
745.508	-1.76
745.688	-1.65
745.868	-2.13
746.048	-0.61
746.228	1.49
746.408	-1.69
746.588	-2
746.767	-0.43
746.947	0.31
747.127	0.47
747.307	-2.19
747.487	-1.58
747.667	-0.76
747.847	3.15
748.026	3.61
748.206	3.2
748.386	4.38
748.566	2.47
748.745	0.9
748.925	-0.1
749.105	0.81
749.285	1.31
749.464	0.91
749.644	1.4
749.824	2.01
750.003	1.24
750.183	1.15
750.362	0.99
750.542	-0.39
750.722	-2.17
750.901	-1.99
751.081	-0.3
751.26	1.72
751.44	2.03
751.619	-0.51
751.799	-2.43
751.978	-4.79
752.158	-5.73
752.337	-5.72
752.516	-5.25
752.696	-5.32
752.875	-3.49
753.055	-3.96
753.234	-3.09
753.413	-1.51
753.593	-1.92
753.772	-2.67
753.951	-1.29
754.13	-0.22
754.31	-0.66
754.489	0.38
754.668	2.41
754.847	2.78
755.027	2.83
755.206	3.18
755.385	2.86
755.564	4.44
755.743	5.74
755.922	6.25
756.101	6.23
756.28	6.5
756.46	6.66
756.639	4.02
756.818	4.85
756.997	4.6
757.176	4.09
757.355	3.48
757.534	2.96
757.713	3.23
757.892	3
758.07	3.76
758.249	5.55
758.428	4.39
758.607	4.78
758.786	5.6
758.965	5.02
759.144	6.01
759.323	4.75
759.501	3.65
759.68	4.29
759.859	5.6
760.038	6.49
760.216	5.54
760.395	6.54
760.574	7
760.753	6.87
760.931	8.23
761.11	8.49
761.289	8.11
761.467	7.74
761.646	6.58
761.824	6.18
762.003	3.23
762.182	3.55
762.36	3.44
762.539	2.61
762.717	2.99
762.896	3.37
763.074	4.4
763.253	6.63
763.431	7.08
763.61	7.13
763.788	5.12
763.966	6.46
764.145	7.39
764.323	6.77
764.502	6.34
764.68	4.54
764.858	3.45
765.037	6.15
765.215	5.89
765.393	6.48
765.571	7.59
765.75	8.43
765.928	7.47
766.106	6.75
766.284	6.5
766.463	5.42
766.641	3.83
766.819	4.57
766.997	4.22
767.175	2.75
767.353	2.39
767.531	3.22
767.71	2.37
767.888	1.71
768.066	0.9
768.244	0.85
768.422	0.95
768.6	3.24
768.778	0.79
768.956	-0.58
769.134	0.3
769.312	-1.13
769.489	-1.39
769.667	0.49
769.845	1.25
770.023	2.06
770.201	2.94
770.379	2.82
770.557	2.76
770.735	2.59
770.912	2.15
771.09	2.24
771.268	2.86
771.446	3.6
771.623	3.7
771.801	5.8
771.979	6.18
772.157	5.42
772.334	3.36
772.512	4.56
772.69	5.87
772.867	4.66
773.045	5.12
773.222	3.82
773.4	4.63
773.577	4.91
773.755	3.57
773.933	4.22
774.11	5.53
774.288	4.84
774.465	4.84
774.643	4.47
774.82	4.56
774.997	4.52
775.175	4.71
775.352	5.35
775.53	4.31
775.707	4.38
775.884	6.09
776.062	6.61
776.239	8.05
776.416	9.19
776.594	8.64
776.771	7.89
776.948	9.45
777.125	7.98
777.303	5.92
777.48	6.86
777.657	5.65
777.834	5.14
778.012	5.44
778.189	5.12
778.366	5.62
778.543	4.05
778.72	3.95
778.897	3.11
779.074	1.52
779.251	1.37
779.428	-0.68
779.605	-2.73
779.782	-3.02
779.959	-5.08
780.136	-6.99
780.313	-4.84
780.49	-6.82
780.667	-6.35
780.844	-6.56
781.021	-5.26
781.198	-6.77
781.375	-5.48
781.552	-6.21
781.728	-5.37
781.905	-5.91
782.082	-4.45
782.259	-4.35
782.436	-5.27
782.612	-5.93
782.789	-4.21
782.966	-6.89
783.143	-4.61
783.319	-3.63
783.496	-1.17
783.673	-1.59
783.849	0.15
784.026	-0.13
784.203	2.5
784.379	0.5
784.556	0.54
784.732	0.1
784.909	1.44
785.085	0.58
785.262	1.21
785.438	1.9
785.615	2.69
785.791	3.79
785.968	1.48
786.144	1.32
786.321	3.77
786.497	1.49
786.673	1.84
786.85	0.09
787.026	-1.16
787.203	-5.98
787.379	-6.11
787.555	-8.77
787.731	-9.32
787.908	-12.18
788.084	-8.02
788.26	-10.38
788.437	-7.51
788.613	-8.41
788.789	-9.85
788.965	-11.55
789.141	-12.3
789.317	-15.69
789.494	-17.95
789.67	-17.09
789.846	-16.18
790.022	-18.77
790.198	-18.14
790.374	-16.75
790.55	-16.76
790.726	-16.57
790.902	-13.1
791.078	-11.82
791.254	-10.51
791.43	-11.18
791.606	-8.9
791.782	-11.41
791.958	-10.43
792.134	-12.93
792.31	-12.92
792.486	-14.65
792.661	-13.88
792.837	-13.41
793.013	-11.51
793.189	-10.91
793.365	-8.45
793.54	-8.03
793.716	-7.79
793.892	-8.06
794.068	-8.3
794.243	-6.94
794.419	-7.96
794.595	-8.76
794.77	-9.22
794.946	-6.42
795.122	-6.98
795.297	-6.2
795.473	-5.36
795.648	-1.83
795.824	-2.94
796	-3.6
796.175	-1.13
796.351	-2.32
796.526	-2.57
796.702	1.16
796.877	1.52
797.052	2.85
797.228	1.22
797.403	-0.7
797.579	-0.74
797.754	-0.84
797.929	0.54
798.105	2.72
798.28	3.28
798.455	3.64
798.631	2.41
798.806	4.8
798.981	5.1
799.157	3.69
799.332	1.11
799.507	3.81
799.682	5.32
799.858	4.86
800.033	6.3
800.208	6.33
800.383	3.84
800.558	4.61
800.733	2.67
800.908	1.76
801.083	4.57
801.258	4.41
801.434	9.6
801.609	7.36
801.784	7.69
801.959	7.29
802.134	6.14
802.309	2.56
802.484	0.16
802.658	-1.42
802.833	-1.94
803.008	-2.19
803.183	-2.46
803.358	-0.87
803.533	-1.63
803.708	-2
803.883	-3.63
804.057	-6.39
804.232	-5.83
804.407	-4.14
804.582	-0.74
804.756	-2.09
804.931	-1.85
805.106	-7.49
805.281	-3.85
805.455	-5.71
805.63	-6.09
805.805	-6.44
805.979	-4.92
806.154	-3.55
806.328	-1.26
806.503	0.37
806.678	1.71
806.852	1.5
807.027	-1.73
807.201	-3.08
807.376	-1.06
807.55	0.77
807.725	1.19
807.899	1.95
808.074	1.03
808.248	0.68
808.422	-0.67
808.597	1.44
808.771	2.35
808.946	1.57
809.12	3.99
809.294	3.65
809.468	5.8
809.643	8.38
809.817	7.64
809.991	6.28
810.166	4.43
810.34	3.35
810.514	5.38
810.688	4.78
810.862	6.65
811.037	8.85
811.211	9.19
811.385	10.49
811.559	10.43
811.733	11.35
811.907	11.49
812.081	11.57
812.255	6.73
812.429	5.01
812.603	4.1
812.777	2.59
812.951	0.95
813.125	-2.55
813.299	-4.22
813.473	-7.03
813.647	-3.23
813.821	1.92
813.995	1.88
814.169	-0.55
814.343	1.22
814.516	3.12
814.69	0.42
814.864	-1.85
815.038	0.14
815.212	-0.61
815.385	-1.33
815.559	-1.98
815.733	-2.21
815.907	2.11
816.08	5.28
816.254	3.51
816.428	3.62
816.601	6.66
816.775	8.15
816.948	7.59
817.122	10.59
817.296	6.73
817.469	5.27
817.643	6.31
817.816	6.01
817.99	4.65
818.163	5.09
818.337	3.01
818.51	4.87
818.684	4.3
818.857	1.84
819.031	-0.16
819.204	-3.98
819.377	0.06
819.551	-1.27
819.724	-1.04
819.897	1.95
820.071	3.62
820.244	2.55
820.417	2.3
820.591	4.85
820.764	6.76
820.937	10.12
821.11	7.73
821.284	7.52
821.457	7.74
821.63	10.01
821.803	10.5
821.976	14.91
822.149	14.31
822.322	15.88
822.496	15.94
822.669	17.65
822.842	22.53
823.015	18.55
823.188	17.48
823.361	16.16
823.534	11.29
823.707	9.31
823.88	9.25
824.053	8.82
824.226	4.82
824.399	2.92
824.571	-0.99
824.744	-1.3
824.917	2
825.09	-0.9
825.263	0.48
825.436	2.34
825.608	0.67
825.781	0.71
825.954	-0.95
826.127	-0.56
826.299	-0.61
826.472	-1.8
826.645	1.39
826.818	4.8
826.99	1.62
827.163	4.17
827.336	3.53
827.508	2.08
827.681	3.67
827.853	4.31
828.026	5.27
828.198	8.87
828.371	9.63
828.544	6.6
828.716	4.82
828.889	-0.6
829.061	-4.7
829.233	-9.07
829.406	-11.03
829.578	-14.29
829.751	-10.05
829.923	-11.15
830.096	-15.4
830.268	-14.35
830.44	-17.19
830.613	-11.7
830.785	-12.34
830.957	-13.1
831.129	-10.75
831.302	-10.96
831.474	-12.6
831.646	-11.44
831.818	-15.98
831.991	-16.27
832.163	-16.92
832.335	-9.64
832.507	-9
832.679	-9.74
832.851	-9.28
833.023	-6.99
833.195	-0.95
833.368	-3.65
833.54	-1.67
833.712	1.28
833.884	1.11
834.056	-0.23
834.228	-0.89
834.4	3.58
834.571	6.94
834.743	6.13
834.915	5.76
835.087	7.29
835.259	7.12
835.431	7.52
835.603	7.08
835.775	6.68
835.946	4.92
836.118	5.84
836.29	6.96
836.462	7.73
836.634	-0.2
836.805	-10.24
836.977	-10.98
837.149	-12.74
837.32	-14.25
837.492	-13.19
837.664	-11.47
837.835	-17.45
838.007	-23.75
838.179	-25.29
838.35	-20.66
838.522	-13.85
838.693	-15.29
838.865	-17.28
839.036	-17.7
839.208	-15.84
839.379	-12.38
839.551	-11.42
839.722	-8.19
839.894	-13.13
840.065	-9.73
840.237	-7.48
840.408	-4.44
840.579	1.65
840.751	-0.9
840.922	0.3
841.093	-4.39
841.265	-7.56
841.436	0.34
841.607	0.72
841.778	-0.1
841.95	-4.26
842.121	-4.16
842.292	-1.19
842.463	-1.41
842.635	1.94
842.806	6.01
842.977	1.49
843.148	-3.82
843.319	-2.2
843.49	1.1
843.661	-4.25
843.832	0.16
844.003	4.19
844.174	0.3
844.345	2.13
844.516	-2.29
844.687	-0.34
844.858	7.01
845.029	1.81
845.2	0.23
845.371	1.77
845.542	2.6
845.713	-9.39
845.884	-9.29
846.055	-12.05
846.225	-15.12
846.396	-24.53
846.567	-19.31
846.738	-18.72
846.909	-18.74
847.079	-18.08
847.25	-10.96
847.421	-11.83
847.591	-20.56
847.762	-28.13
847.933	-32.27
848.103	-23.16
848.274	-27.42
848.445	-26.69
848.615	-22.25
848.786	-19.45
848.956	-21.65
849.127	-21.36
849.297	-12.37
849.468	-6.14
849.638	-6.65
849.809	-5.88
849.979	-4.79
850.15	-5.2
850.32	-3.13
850.491	-4.11
850.661	1.62
850.831	0.59
851.002	2.64
851.172	7.24
851.342	9.32
851.513	12.05
851.683	7.52
851.853	8.64
852.024	5.61
852.194	1.81
852.364	2.94
852.534	4.69
852.705	8.28
852.875	7.28
853.045	1.77
853.215	-0.66
853.385	2.59
853.555	4.11
853.725	0.49
853.895	2.13
854.066	3.96
854.236	-0.35
854.406	-8.02
854.576	-9.6
854.746	-16.75
854.916	-14.92
855.086	-14.36
855.256	-4.81
855.425	-6.67
855.595	0.24
855.765	-2.14
855.935	-10.77
856.105	-13.87
856.275	-15.77
856.445	-20.74
856.614	-21.37
856.784	-17.6
856.954	-20.57
857.124	-16.72
857.294	-14.16
857.463	-15.66
857.633	-15.62
857.803	-10.75
857.972	-4.14
858.142	-2.09
858.312	-0.03
858.481	-0.7
858.651	-3.03
858.821	-15.89
858.99	-13.99
859.16	-25.86
859.329	-22.47
859.499	-13.81
859.668	-6.65
859.838	-3.35
860.007	7.64
860.177	8.81
860.346	11.59
860.516	15.49
860.685	9.5
860.854	10.76
861.024	9.3
861.193	3.37
861.363	-4.62
861.532	-4.11
861.701	-4.33
861.87	-3.04
862.04	-4.19
862.209	-7.99
862.378	-3.98
862.547	0.72
862.717	5.56
862.886	7.41
863.055	7.46
863.224	8.54
863.393	8.15
863.563	2.18
863.732	0.84
863.901	-1.13
864.07	0.14
864.239	3.72
864.408	3.59
864.577	-0.28
864.746	0.49
864.915	8.08
865.084	8.58
865.253	7.53
865.422	11.01
865.591	12.12
865.76	15.08
865.929	17.97
866.097	20.05
866.266	15.17
866.435	9.25
866.604	2.34
866.773	-6.64
866.942	-12.16
867.11	-16.08
867.279	-16.54
867.448	-6.99
867.617	-15.61
867.785	-19.1
867.954	-34.08
868.123	-27.39
868.291	-30.67
868.46	-44.5
868.629	-46.57
868.797	-44.49
868.966	-65.17
869.134	-57.07
869.303	-40.82
869.472	-39.55
869.64	-48.56
869.809	-47.21
869.977	-41.12
870.146	-31.84
870.314	-34.64
870.482	-34.67
870.651	-38.78
870.819	-38.85
870.988	-37.62
871.156	-35.32
871.324	-41.89
871.493	-42.63
871.661	-29.58
871.829	-24.32
871.998	-17.31
872.166	-24.13
872.334	-19.6
872.502	-15.66
872.671	-21.86
872.839	-23.42
873.007	-13.49
873.175	-10.87
873.343	-7.52
873.512	-4.62
873.68	-9.83
873.848	-13.35
874.016	-15.53
874.184	-10.57
874.352	-14.04
874.52	-16.06
874.688	-19.48
874.856	-13.35
875.024	-10.57
875.192	-26.55
875.36	-34.61
875.528	-32.87
875.696	-24.4
875.864	-25.49
876.032	-24.98
876.199	-18.73
876.367	-24.35
876.535	-41.42
876.703	-48.5
876.871	-41.14
877.039	-37.11
877.206	-26.61
877.374	-10.99
877.542	1.24
877.71	4.39
877.877	9.81
878.045	11.69
878.213	10.71
878.38	17.91
878.548	26.22
878.715	42.98
878.883	47.68
879.051	42.69
879.218	37.67
879.386	31.13
879.553	25.28
879.721	10.5
879.888	19.08
880.056	30.55
880.223	29.68
880.391	25.61
880.558	8.58
880.726	17.45
880.893	-6.96
881.06	-27.21
881.228	-54.48
881.395	-49.14
881.562	-37.78
881.73	-74.02
881.897	-86.81
882.064	-73.35
882.231	-91.54
882.399	-104.61
882.566	-89.55
882.733	-109.56
882.9	-202.44
883.068	-129.7
883.235	-93.49
883.402	-99.56
883.569	-78.77
883.736	-19.68
883.903	-14.23
884.07	-8.66
884.237	-29.53
884.404	-12.74
884.571	-3.49
884.738	12.13
884.905	18.69
885.072	8.96
885.239	38.7
885.406	29.49
