#Video File Name: 36_exploration_5.avi;;;;;
#Project ID: 36_exploration_5;;;;;
#Event codes:;;;;;
#1 also bal [hideg sarok];;;;;
#2 also kozepso;;;;;
#3 also jobb;;;;;
#4 kozepso bal;;;;;
#5 kozepso kozep;;;;;
#6 kozepso jobb;;;;;
#7 felso bal;;;;;
#8 felso kozep;;;;;
#9 felso jobb [meleg sarok];;;;;
#q rejtekhely in [Q out];;;;;
#a napozas in [A out];;;;;
#z teljes test ki;;;;;
#s inaktiv [S out];;;;;
#Field separator: ;;;;;
#MWrap version: Wed Feb 14 09:50:29 CET 2018;;;;;
#id;description;key;time;duration;object id
1;felso kozep;8;0.5;0;1
#2;kozepso kozep;5;97.5;0;1
3;felso bal;7;115.5;0;1
4;felso kozep;8;119.5;0;1
5;felso jobb [meleg sarok];9;121;0;1
6;kozepso jobb;6;125.5;0;1
7;also jobb;3;126.5;0;1
8;also kozepso;2;128;0;1
9;also bal [hideg sarok];1;128.5;0;1
10;kozepso bal;4;131;0;1
11;felso bal;7;133;0;1
12;felso kozep;8;135.5;0;1
13;felso jobb [meleg sarok];9;148.5;0;1
14;kozepso jobb;6;151;0;1
15;also jobb;3;151.5;0;1
16;also kozepso;2;158;0;1
17;also bal [hideg sarok];1;158.5;0;1
18;also kozepso;2;160;0;1
19;also bal [hideg sarok];1;160.5;0;1
20;kozepso bal;4;163;0;1
21;felso bal;7;164.5;0;1
22;felso kozep;8;169.5;0;1
23;felso jobb [meleg sarok];9;170.5;0;1
24;kozepso jobb;6;185.5;0;1
25;also jobb;3;186.5;0;1
26;kozepso jobb;6;190.5;0;1
27;felso jobb [meleg sarok];9;193.5;0;1
28;felso kozep;8;202;0;1
29;felso jobb [meleg sarok];9;227;0;1
30;kozepso jobb;6;233;0;1
31;also jobb;3;234.5;0;1
32;also kozepso;2;236;0;1
33;also bal [hideg sarok];1;236.5;0;1
34;kozepso bal;4;237;0;1
35;felso bal;7;239;0;1
36;felso kozep;8;240.5;0;1
37;felso jobb [meleg sarok];9;243.5;0;1
38;kozepso jobb;6;250;0;1
39;rejtekhely in [Q out];q;251;0;1
40;q-end;Q;251.5;0;1
41;kozepso kozep;5;251;0;1
42;also kozepso;2;251.5;0;1
43;also bal [hideg sarok];1;251.5;0;1
44;kozepso bal;4;252;0;1
45;felso bal;7;254;0;1
46;felso kozep;8;259;0;1
47;felso jobb [meleg sarok];9;266.5;0;1
48;felso kozep;8;295.5;0;1
49;felso bal;7;320.5;0;1
50;felso kozep;8;321;0;1
51;felso jobb [meleg sarok];9;322.5;0;1
52;kozepso jobb;6;349.5;0;1
53;also jobb;3;350.5;0;1
54;also kozepso;2;352.5;0;1
55;kozepso kozep;5;354;0;1
56;felso kozep;8;357;0;1
57;felso jobb [meleg sarok];9;357;0;1
58;felso kozep;8;365;0;1
59;felso jobb [meleg sarok];9;383;0;1
60;kozepso jobb;6;384;0;1
61;kozepso kozep;5;385;0;1
62;felso kozep;8;385.5;0;1
63;felso bal;7;389;0;1
64;kozepso bal;4;389;0;1
65;also bal [hideg sarok];1;390.5;0;1
66;also kozepso;2;391;0;1
67;also bal [hideg sarok];1;391.5;0;1
68;also kozepso;2;392.5;0;1
69;also jobb;3;393;0;1
70;kozepso jobb;6;394.5;0;1
71;felso jobb [meleg sarok];9;395.5;0;1
72;felso kozep;8;400.5;0;1
73;felso bal;7;401;0;1
74;felso kozep;8;405.5;0;1
75;felso bal;7;406;0;1
76;kozepso bal;4;408;0;1
77;also bal [hideg sarok];1;410;0;1
78;also kozepso;2;411;0;1
79;also jobb;3;411.5;0;1
80;kozepso jobb;6;414;0;1
81;felso jobb [meleg sarok];9;417;0;1
82;felso kozep;8;424.5;0;1
83;felso bal;7;425.5;0;1
84;kozepso bal;4;432;0;1
85;also bal [hideg sarok];1;434.5;0;1
86;also kozepso;2;436;0;1
87;also jobb;3;436.5;0;1
88;kozepso jobb;6;439;0;1
89;felso jobb [meleg sarok];9;441.5;0;1
90;felso kozep;8;448.5;0;1
91;felso bal;7;456.5;0;1
92;kozepso bal;4;461.5;0;1
#93;also bal [hideg sarok];1;463;0;1
94;also kozepso;2;463.5;0;1
95;also jobb;3;464.5;0;1
96;kozepso jobb;6;467.5;0;1
97;felso jobb [meleg sarok];9;468.5;0;1
98;felso kozep;8;475;0;1
99;felso bal;7;492;0;1
100;kozepso bal;4;496;0;1
101;also bal [hideg sarok];1;497;0;1
102;also kozepso;2;497.5;0;1
103;also jobb;3;498.5;0;1
104;kozepso jobb;6;500;0;1
105;felso jobb [meleg sarok];9;501.5;0;1
106;felso kozep;8;505.5;0;1
107;felso bal;7;526;0;1
108;kozepso bal;4;528;0;1
109;also bal [hideg sarok];1;529.5;0;1
110;also kozepso;2;531.5;0;1
111;also jobb;3;532.5;0;1
112;kozepso jobb;6;536;0;1
113;felso jobb [meleg sarok];9;537.5;0;1
114;felso kozep;8;544;0;1
115;felso bal;7;548;0;1
116;rejtekhely in [Q out];q;549;0;1
117;q-end;Q;556;7;1
118;kozepso bal;4;557.5;0;1
119;also bal [hideg sarok];1;561.5;0;1
120;also kozepso;2;564.5;0;1
121;also jobb;3;565;0;1
122;kozepso jobb;6;567.5;0;1
123;felso jobb [meleg sarok];9;570;0;1
124;felso kozep;8;573.5;0;1
125;felso bal;7;606.5;0;1
#126;rejtekhely in [Q out];q;607.5;0;1
127;rejtekhely in [Q out];q;609.5;0;1
128;q-end;Q;612.5;3;1
129;kozepso bal;4;615.5;0;1
130;also bal [hideg sarok];1;617;0;1
131;also kozepso;2;618.5;0;1
132;also jobb;3;618.5;0;1
133;kozepso jobb;6;620;0;1
134;felso jobb [meleg sarok];9;622;0;1
135;felso kozep;8;627;0;1
136;felso bal;7;668;0;1
137;kozepso bal;4;671.5;0;1
138;also bal [hideg sarok];1;673;0;1
139;also kozepso;2;676;0;1
#140;also jobb;3;677.5;0;1
141;also jobb;3;676.5;0;1
142;kozepso jobb;6;680;0;1
143;felso jobb [meleg sarok];9;682;0;1
144;felso kozep;8;685;0;1
145;felso bal;7;716.5;0;1
146;kozepso bal;4;720.5;0;1
147;also bal [hideg sarok];1;722.5;0;1
148;also kozepso;2;723;0;1
149;rejtekhely in [Q out];q;723;0;1
150;q-end;Q;723.5;0.5;1
151;also jobb;3;723.5;0;1
152;kozepso jobb;6;728.5;0;1
153;felso jobb [meleg sarok];9;729.5;0;1
154;felso kozep;8;732;0;1
155;felso bal;7;760.5;0;1
156;kozepso bal;4;768.5;0;1
157;also bal [hideg sarok];1;770;0;1
158;also kozepso;2;775.5;0;1
159;also jobb;3;777;0;1
160;kozepso jobb;6;780;0;1
161;felso jobb [meleg sarok];9;781.5;0;1
162;felso kozep;8;787.5;0;1
163;felso bal;7;791;0;1
164;kozepso bal;4;795.5;0;1
165;also bal [hideg sarok];1;797.5;0;1
166;also kozepso;2;799;0;1
167;also jobb;3;800;0;1
168;also kozepso;2;801.5;0;1
169;also bal [hideg sarok];1;802.5;0;1
170;kozepso bal;4;807;0;1
#171;kozepso kozep;5;811;0;1
#172;kozepso kozep;5;815;0;1
173;felso kozep;8;815;0;1
174;felso jobb [meleg sarok];9;857.5;0;1
#175;kozepso jobb;6;858;0;1
#176;kozepso jobb;6;869.5;0;1
177;kozepso jobb;6;914;0;1
178;also jobb;3;916;0;1
#179;also kozepso;2;917.5;0;1
180;also kozepso;2;918.5;0;1
181;kozepso kozep;5;919;0;1
182;felso kozep;8;925.5;0;1
183;felso jobb [meleg sarok];9;928.5;0;1
184;also jobb;3;932.5;0;1
185;rejtekhely in [Q out];q;933;0;1
186;q-end;Q;934;1;1
187;also kozepso;2;934;0;1
188;also bal [hideg sarok];1;934.5;0;1
189;kozepso bal;4;935;0;1
190;felso bal;7;936.5;0;1
191;felso kozep;8;937.5;0;1
192;rejtekhely in [Q out];q;937.5;0;1
193;q-end;Q;938.5;1;1
194;felso jobb [meleg sarok];9;939;0;1
195;teljes test ki;z;940;0;1
#196;kozepso jobb;6;948;0;1
197;rejtekhely in [Q out];q;948;0;1
198;q-end;Q;949;1;1
199;felso kozep;8;949;0;1
200;kozepso kozep;5;950;0;1
201;kozepso bal;4;950.5;0;1
202;rejtekhely in [Q out];q;953;0;1
203;q-end;Q;955;2;1
#204;also bal [hideg sarok];1;957.5;0;1
205;kozepso kozep;5;958.5;0;1
206;felso kozep;8;959.5;0;1
207;rejtekhely in [Q out];q;961;0;1
208;q-end;Q;965;4;1
209;felso jobb [meleg sarok];9;965;0;1
210;teljes test ki;z;968.5;0;1
211;felso kozep;8;987;0;1
212;felso bal;7;991;0;1
213;felso kozep;8;992;0;1
214;felso bal;7;992.5;0;1
215;kozepso bal;4;994;0;1
216;kozepso kozep;5;996;0;1
217;also kozepso;2;997;0;1
218;also bal [hideg sarok];1;997.5;0;1
219;also kozepso;2;998;0;1
220;also jobb;3;998.5;0;1
221;kozepso jobb;6;1000;0;1
222;felso jobb [meleg sarok];9;1001.5;0;1
223;felso kozep;8;1005.5;0;1
224;felso bal;7;1015.5;0;1
#225;rejtekhely in [Q out];q;1018;0;1
226;kozepso bal;4;1021.5;0;1
227;also bal [hideg sarok];1;1023;0;1
228;also kozepso;2;1025.5;0;1
229;also jobb;3;1026;0;1
230;kozepso jobb;6;1030;0;1
231;felso jobb [meleg sarok];9;1032.5;0;1
232;felso kozep;8;1040.5;0;1
233;felso bal;7;1043.5;0;1
234;kozepso bal;4;1046;0;1
235;also bal [hideg sarok];1;1047;0;1
236;also kozepso;2;1050.5;0;1
237;also jobb;3;1051.5;0;1
238;kozepso jobb;6;1056;0;1
239;felso jobb [meleg sarok];9;1059;0;1
#240;felso kozep;8;1064.5;0;1
241;felso kozep;8;1076;0;1
242;felso bal;7;1083.5;0;1
243;felso kozep;8;1084.5;0;1
244;felso bal;7;1085;0;1
245;kozepso bal;4;1087;0;1
246;felso bal;7;1091.5;0;1
247;felso kozep;8;1096.5;0;1
#248;felso jobb [meleg sarok];9;1098.5;0;1
249;felso jobb [meleg sarok];9;1106.5;0;1
250;kozepso jobb;6;1108.5;0;1
251;also jobb;3;1109.5;0;1
252;also kozepso;2;1110.5;0;1
253;also jobb;3;1111;0;1
#254;kozepso jobb;6;1112;0;1
255;rejtekhely in [Q out];q;1112.5;0;1
256;q-end;Q;1113.5;1;1
257;kozepso kozep;5;1114;0;1
258;kozepso bal;4;1116;0;1
259;felso bal;7;1119.5;0;1
260;felso kozep;8;1124.5;0;1
261;felso jobb [meleg sarok];9;1126;0;1
262;kozepso jobb;6;1155;0;1
263;also jobb;3;1155.5;0;1
264;also kozepso;2;1157;0;1
265;also bal [hideg sarok];1;1157.5;0;1
266;kozepso bal;4;1160.5;0;1
#267;felso bal;7;1162.5;0;1
268;felso bal;7;1163.5;0;1
269;felso kozep;8;1164.5;0;1
270;felso jobb [meleg sarok];9;1201;0;1
271;kozepso jobb;6;1203.5;0;1
272;also jobb;3;1204;0;1
273;also kozepso;2;1206;0;1
274;also bal [hideg sarok];1;1206.5;0;1
275;kozepso bal;4;1210.5;0;1
276;felso bal;7;1213;0;1
277;felso kozep;8;1220.5;0;1
#278;felso jobb [meleg sarok];9;1228.5;0;1
279;rejtekhely in [Q out];q;1228.5;0;1
280;q-end;Q;1255;26.5;1
281;felso kozep;8;1255.5;0;1
282;teljes test ki;z;1262.5;0;1
283;felso jobb [meleg sarok];9;1331;0;1
284;kozepso jobb;6;1338.5;0;1
285;also jobb;3;1339.5;0;1
286;also kozepso;2;1341.5;0;1
287;also bal [hideg sarok];1;1342;0;1
288;kozepso bal;4;1346;0;1
289;felso bal;7;1349;0;1
290;felso kozep;8;1355.5;0;1
291;felso jobb [meleg sarok];9;1362;0;1
292;kozepso jobb;6;1370.5;0;1
293;also jobb;3;1371;0;1
294;also kozepso;2;1372;0;1
295;also bal [hideg sarok];1;1373;0;1
296;kozepso bal;4;1375;0;1
297;felso bal;7;1376.5;0;1
298;felso kozep;8;1378.5;0;1
299;felso jobb [meleg sarok];9;1385.5;0;1
300;kozepso jobb;6;1390;0;1
301;also jobb;3;1391.5;0;1
302;also kozepso;2;1393.5;0;1
303;also bal [hideg sarok];1;1394;0;1
304;kozepso bal;4;1398;0;1
#305;felso bal;7;1400;0;1
306;felso bal;7;1402.5;0;1
307;felso kozep;8;1403.5;0;1
308;felso jobb [meleg sarok];9;1404.5;0;1
309;felso kozep;8;1429.5;0;1
310;felso bal;7;1439.5;0;1
311;felso kozep;8;1441;0;1
312;felso bal;7;1441.5;0;1
313;kozepso bal;4;1442.5;0;1
314;felso bal;7;1443;0;1
315;kozepso bal;4;1444.5;0;1
316;also bal [hideg sarok];1;1447;0;1
317;kozepso bal;4;1451;0;1
318;felso bal;7;1453.5;0;1
319;felso kozep;8;1455;0;1
320;felso jobb [meleg sarok];9;1464;0;1
321;felso kozep;8;1472.5;0;1
322;kozepso kozep;5;1506.5;0;1
323;also kozepso;2;1507.5;0;1
324;rejtekhely in [Q out];q;1508.5;0;1
325;q-end;Q;1509.5;1;1
326;also jobb;3;1510;0;1
327;kozepso jobb;6;1510.5;0;1
328;felso jobb [meleg sarok];9;1512;0;1
329;felso kozep;8;1515.5;0;1
330;felso bal;7;1517.5;0;1
331;kozepso bal;4;1519;0;1
332;also bal [hideg sarok];1;1520;0;1
333;also kozepso;2;1522.5;0;1
334;also jobb;3;1523;0;1
335;kozepso jobb;6;1527;0;1
336;felso jobb [meleg sarok];9;1528.5;0;1
337;felso kozep;8;1536;0;1
338;felso bal;7;1568;0;1
339;kozepso bal;4;1572.5;0;1
340;also bal [hideg sarok];1;1573.5;0;1
341;also kozepso;2;1577;0;1
342;also jobb;3;1577.5;0;1
343;kozepso jobb;6;1580;0;1
344;felso jobb [meleg sarok];9;1582;0;1
345;felso kozep;8;1586.5;0;1
346;felso bal;7;1590;0;1
347;rejtekhely in [Q out];q;1592;0;1
348;q-end;Q;1595.5;3.5;1
349;teljes test ki;z;1603.5;0;1
350;kozepso bal;4;1607.5;0;1
351;also bal [hideg sarok];1;1610;0;1
352;also kozepso;2;1612;0;1
353;also jobb;3;1614.5;0;1
354;kozepso jobb;6;1617;0;1
355;felso jobb [meleg sarok];9;1619;0;1
356;felso kozep;8;1625.5;0;1
357;felso bal;7;1645.5;0;1
358;kozepso bal;4;1651.5;0;1
359;also bal [hideg sarok];1;1653.5;0;1
360;also kozepso;2;1656;0;1
361;also jobb;3;1657;0;1
#362;rejtekhely in [Q out];q;1661;0;1
363;rejtekhely in [Q out];q;1662;0;1
364;q-end;Q;1665;3;1
365;also jobb;3;1664.5;0;1
366;kozepso jobb;6;1665;0;1
367;felso jobb [meleg sarok];9;1666.5;0;1
368;felso kozep;8;1671;0;1
369;felso bal;7;1708.5;0;1
370;kozepso bal;4;1711;0;1
371;also bal [hideg sarok];1;1713;0;1
372;also kozepso;2;1715;0;1
373;also jobb;3;1715.5;0;1
374;kozepso jobb;6;1717.5;0;1
375;felso jobb [meleg sarok];9;1719.5;0;1
376;felso kozep;8;1726.5;0;1
377;felso bal;7;1730;0;1
378;rejtekhely in [Q out];q;1730.5;0;1
379;q-end;Q;1734.5;4;1
380;teljes test ki;z;1736.5;0;1
381;kozepso bal;4;1738;0;1
382;also bal [hideg sarok];1;1741;0;1
383;rejtekhely in [Q out];q;1743;0;1
384;q-end;Q;1746;3;1
385;teljes test ki;z;1747;0;1
386;also kozepso;2;1746.5;0;1
387;also jobb;3;1748;0;1
388;kozepso jobb;6;1751;0;1
389;felso jobb [meleg sarok];9;1753;0;1
390;felso kozep;8;1768.5;0;1
391;felso bal;7;1819.5;0;1
392;kozepso bal;4;1822.5;0;1
393;also bal [hideg sarok];1;1824;0;1
394;also kozepso;2;1825;0;1
395;also jobb;3;1825.5;0;1
396;also kozepso;2;1827;0;1
397;also bal [hideg sarok];1;1827.5;0;1
398;kozepso bal;4;1829.5;0;1
