Data from Transmission_09-55-46-637.txt Node
Date: Fri Aug 24 09:55:46 EEST 2018
User: tibor.sos
Spectrometer: USB4F01757
Scans to average: 10
Trigger mode: 4
Integration Time (sec): 1.000000E-2
Electric dark correction enabled: true
Boxcar width: 10
XAxis mode: Wavelengths
Number of Pixels in Spectrum: 3648
>>>>>Begin Spectral Data<<<<<
178.758	-125.92
178.974	-399.24
179.191	-482.6
179.407	-156.48
179.624	-136.77
179.84	-152.44
180.057	-180.16
180.273	-125.79
180.489	-100.41
180.706	-212.81
180.922	-146.54
181.138	-107.23
181.355	-11.52
181.571	19.9
181.787	73.27
182.004	110.05
182.22	109.83
182.436	128.82
182.653	112.32
182.869	82.61
183.085	49.17
183.301	57.78
183.518	53.57
183.734	37.47
183.95	47.62
184.166	51.48
184.383	56.99
184.599	58.7
184.815	37.69
185.031	18.32
185.247	37.67
185.463	33.03
185.68	44.51
185.896	47.97
186.112	67.12
186.328	62.02
186.544	40.4
186.76	55.59
186.976	54.9
187.192	54.35
187.408	45.42
187.624	70.6
187.84	55.57
188.056	57.98
188.272	58.63
188.488	36.5
188.704	33.76
188.92	41.82
189.136	29.26
189.352	16.14
189.568	34.01
189.784	34.25
190	58.21
190.216	63.77
190.432	9.02
190.648	12.11
190.864	-11.96
191.08	5.48
191.296	11.6
191.511	-5.21
191.727	-20.49
191.943	35.93
192.159	30.62
192.375	17.79
192.591	-7.94
192.806	34.2
193.022	11.57
193.238	42.51
193.454	105.38
193.669	149.52
193.885	175.23
194.101	150.94
194.317	79.33
194.532	-243.82
194.748	68.07
194.964	245.61
195.18	59.6
195.395	-4.92
195.611	29.86
195.827	68.96
196.042	-77.51
196.258	-34.53
196.473	-59.47
196.689	-85.64
196.905	-145.18
197.12	-1090.1
197.336	-437.37
197.551	587.06
197.767	-142100
197.982	-376.03
198.198	-1886.3
198.414	-1511.24
198.629	-312.47
198.845	-225.12
199.06	-175.56
199.276	-220.89
199.491	-1155.14
199.707	-231.06
199.922	-116.61
200.137	-139.55
200.353	-184.69
200.568	-89.1
200.784	-132.94
200.999	-136.82
201.215	-226.61
201.43	-236.24
201.645	-128.54
201.861	-131.1
202.076	-60.78
202.291	-80.02
202.507	-175.69
202.722	-114.68
202.937	-253.85
203.153	-230.6
203.368	-139.22
203.583	-82.29
203.798	-92.02
204.014	-108.28
204.229	-108.83
204.444	-96.98
204.659	-385.59
204.875	-527.41
205.09	2125.21
205.305	-4552.83
205.52	2264.23
205.735	1586.23
205.951	-11188
206.166	703.04
206.381	683.43
206.596	7070.91
206.811	2655.56
207.026	1353.87
207.241	466.55
207.457	-1094.39
207.672	-2698.35
207.887	2924.3
208.102	625.68
208.317	729.98
208.532	-1736.16
208.747	1930.6
208.962	1575.68
209.177	-2414.09
209.392	-1196.57
209.607	-334.15
209.822	-333.91
210.037	-254.78
210.252	-296.08
210.467	-458.48
210.682	-135.18
210.897	-64.59
211.112	-159.11
211.326	-55.89
211.541	-129.68
211.756	-43.45
211.971	-148.45
212.186	-113.94
212.401	-143.42
212.616	-164.51
212.831	-110.31
213.045	-135.47
213.26	-82.56
213.475	-40.67
213.69	-54.4
213.905	-24.04
214.119	-445.7
214.334	5218.52
214.549	479.76
214.764	-750.78
214.978	-419.45
215.193	-629.64
215.408	4146.15
215.622	-507.55
215.837	-2837.78
216.052	1472.41
216.266	340.51
216.481	434.4
216.696	271.85
216.91	-2766.67
217.125	-142.55
217.34	-313.47
217.554	-621.08
217.769	264.73
217.983	166.51
218.198	139.19
218.412	336.01
218.627	-23.39
218.842	41.03
219.056	-11.74
219.271	45.09
219.485	87.87
219.7	42.64
219.914	35.46
220.129	36.19
220.343	25.3
220.558	25.93
220.772	15.25
220.986	92.86
221.201	121.28
221.415	17.54
221.63	95.03
221.844	74.98
222.058	57.88
222.273	76.89
222.487	63.76
222.702	174.83
222.916	203.63
223.13	148.24
223.344	130.47
223.559	120.75
223.773	120.64
223.987	152.69
224.202	176.71
224.416	274.86
224.63	163.89
224.844	179.15
225.059	205
225.273	1621.21
225.487	-1741.6
225.701	-130.71
225.915	-91.37
226.13	-31.3
226.344	-15.12
226.558	-20.64
226.772	-11.92
226.986	-4.52
227.2	-4.95
227.415	3.91
227.629	-5.84
227.843	-62.09
228.057	6.04
228.271	7.16
228.485	-3.17
228.699	-20.5
228.913	-29.1
229.127	-52.3
229.341	-50.35
229.555	-71.14
229.769	-193.08
229.983	-287.74
230.197	-329.29
230.411	-513.09
230.625	-647.68
230.839	-512.99
231.053	-748.28
231.267	-1429.1
231.481	-1461.5
231.695	-861.56
231.909	-322.48
232.122	-124.22
232.336	-91.09
232.55	-228.41
232.764	-343.76
232.978	-404.66
233.192	-313.81
233.405	-487.84
233.619	-235.01
233.833	-147.93
234.047	-283.49
234.261	-517.67
234.474	-211.5
234.688	398.6
234.902	362.22
235.116	242.86
235.329	168.04
235.543	418.6
235.757	240.46
235.97	133.05
236.184	60.23
236.398	65.59
236.612	112.74
236.825	142.78
237.039	182.15
237.252	197.38
237.466	549.35
237.68	2354.24
237.893	-101300
238.107	-326.09
238.32	640.87
238.534	-91.37
238.748	18.23
238.961	18.02
239.175	-12.33
239.388	-58.29
239.602	-185.63
239.815	-83.46
240.029	-128.75
240.242	-104.06
240.456	-48.29
240.669	-137.67
240.882	-185.41
241.096	-322.69
241.309	-273.6
241.523	-470.27
241.736	-597.03
241.95	1877.65
242.163	-2409.77
242.376	-654.53
242.59	-2839.2
242.803	23633.33
243.016	1168.88
243.23	3352.1
243.443	25473.33
243.656	-3296.99
243.87	-483.26
244.083	-272.19
244.296	-225.74
244.509	-184.89
244.723	-185.37
244.936	-217.66
245.149	-287.37
245.362	-235.62
245.576	-113.4
245.789	-119.94
246.002	-63.21
246.215	-66.61
246.428	-27.86
246.641	-44.3
246.855	-90.04
247.068	-108.3
247.281	-144.25
247.494	-82.25
247.707	-79.85
247.92	-109.36
248.133	-69.37
248.346	-115.38
248.559	-61.79
248.772	-109.94
248.985	-70.96
249.198	-44.27
249.411	-53.05
249.624	-46.21
249.837	-47.71
250.05	-55.62
250.263	-70.19
250.476	-77.89
250.689	-58.74
250.902	-57.02
251.115	-67.86
251.328	-54.98
251.541	-39.27
251.754	-31.04
251.967	-24.96
252.18	-31.88
252.393	-31.05
252.605	-25.69
252.818	-21.56
253.031	-37.39
253.244	-20.25
253.457	-32.11
253.67	-37.87
253.882	-34.88
254.095	-20.54
254.308	-19.06
254.521	-14.65
254.733	-4.2
254.946	-1.39
255.159	-7.1
255.372	-7.99
255.584	-7.25
255.797	-13.28
256.01	-21.32
256.222	-10.06
256.435	-18.65
256.648	-5.62
256.86	-7.99
257.073	-5.24
257.285	-9.93
257.498	-10.64
257.711	-23.8
257.923	-31.07
258.136	-25.18
258.348	-22.69
258.561	-28.04
258.773	-46.98
258.986	-79.59
259.198	-91.97
259.411	-148.74
259.623	-104.59
259.836	-99.05
260.048	-74.97
260.261	-37.09
260.473	-33.18
260.686	-34.37
260.898	-10.58
261.111	-23.83
261.323	-21.97
261.535	-34.46
261.748	-29.92
261.96	-20.39
262.173	-11.25
262.385	7.26
262.597	6.06
262.81	13.87
263.022	-1.8
263.234	10.68
263.447	20.33
263.659	15.24
263.871	17.2
264.083	15.63
264.296	18.58
264.508	17.6
264.72	5.02
264.932	5.31
265.145	-4.18
265.357	-31.75
265.569	-35.98
265.781	-40.79
265.993	-52.36
266.205	-50.02
266.418	-60.66
266.63	-108.66
266.842	-99.33
267.054	-101.92
267.266	-104.38
267.478	-92.94
267.69	-84.76
267.902	-104.7
268.114	-108.23
268.326	-93
268.538	-82.78
268.75	-54.59
268.962	-55.65
269.174	-39.48
269.386	-7.64
269.598	4.75
269.81	9.99
270.022	13.2
270.234	15.55
270.446	22.77
270.658	20.85
270.87	30.08
271.082	33.21
271.294	25.62
271.506	23.81
271.718	25.48
271.929	26.23
272.141	29.93
272.353	34.35
272.565	30.03
272.777	31.36
272.989	36.44
273.2	34.18
273.412	32.24
273.624	30.86
273.836	20.16
274.047	20.44
274.259	25.28
274.471	24.79
274.683	24.19
274.894	29.31
275.106	29.4
275.318	22.85
275.529	22.21
275.741	21.35
275.953	26.12
276.164	24.16
276.376	29.06
276.588	24.12
276.799	16.82
277.011	22.78
277.222	16.63
277.434	0.56
277.646	-13.62
277.857	-4.38
278.069	6.19
278.28	11.01
278.492	4.69
278.703	1.45
278.915	8.65
279.126	-0.49
279.338	-5.47
279.549	-3.77
279.761	-6.23
279.972	-8.76
280.183	-14.07
280.395	-18.08
280.606	-30.62
280.818	-35.07
281.029	-30.71
281.24	-22.1
281.452	-32.68
281.663	-26.8
281.875	-28.53
282.086	-25.51
282.297	-39.55
282.508	-41.52
282.72	-34.48
282.931	-29.88
283.142	-28.95
283.354	-40.79
283.565	-31.59
283.776	-41.37
283.987	-66.98
284.199	-61.64
284.41	-42.38
284.621	-32.27
284.832	-23.4
285.043	-7.33
285.254	-13.08
285.466	-24.39
285.677	-30.07
285.888	-27.79
286.099	-37.03
286.31	-31.15
286.521	-36.37
286.732	-33.54
286.943	-30.92
287.154	-36.92
287.366	-44.64
287.577	-44.7
287.788	-45.92
287.999	-45.67
288.21	-56.29
288.421	-41
288.632	-35.95
288.843	-35.11
289.054	-31.24
289.264	-37.82
289.475	-35.93
289.686	-27.07
289.897	-23.48
290.108	-14.38
290.319	-10.17
290.53	-2.66
290.741	-8.7
290.952	-1.02
291.163	3.19
291.373	4.85
291.584	7.65
291.795	10.59
292.006	6.14
292.217	10.06
292.427	14.51
292.638	24.22
292.849	22.94
293.06	24.12
293.27	16.56
293.481	15.47
293.692	16.13
293.903	10.79
294.113	6.05
294.324	4.58
294.535	-13.17
294.745	-17.8
294.956	-16.66
295.167	-17.08
295.377	-24.65
295.588	-22.65
295.798	-22.25
296.009	-27.51
296.22	-29.43
296.43	-28.21
296.641	-35.34
296.851	-44.77
297.062	-49.65
297.272	-50.39
297.483	-60.08
297.693	-53.57
297.904	-58.44
298.114	-50.95
298.325	-42.96
298.535	-52.82
298.746	-54.04
298.956	-42
299.167	-43.03
299.377	-46.18
299.587	-43.67
299.798	-41.6
300.008	-46.05
300.219	-39.92
300.429	-31.99
300.639	-27.2
300.85	-23.28
301.06	-21.58
301.27	-10.3
301.481	-8.13
301.691	-9.69
301.901	-7.1
302.111	-7.84
302.322	-2.1
302.532	0.08
302.742	-6.89
302.952	-1.93
303.163	-4.97
303.373	-7.2
303.583	-0.31
303.793	0.21
304.003	9.55
304.214	10.08
304.424	8.16
304.634	-3.81
304.844	0.69
305.054	2.76
305.264	1.72
305.474	4.34
305.684	-6.86
305.894	-0.99
306.104	-2.04
306.314	-7.26
306.525	-8.93
306.735	-16.57
306.945	-25.53
307.155	-19.44
307.365	-13.7
307.575	-5.68
307.784	-5.71
307.994	-8.3
308.204	-13.51
308.414	-19.77
308.624	-21.39
308.834	-16.07
309.044	-9.72
309.254	-17.63
309.464	-19
309.674	-18.83
309.884	-21.51
310.093	-13.32
310.303	-17.29
310.513	-4.11
310.723	-0.15
310.933	1.32
311.142	3.48
311.352	6.36
311.562	5.59
311.772	6.31
311.981	2.11
312.191	6.74
312.401	11.31
312.611	13.67
312.82	9.12
313.03	13.69
313.24	12.68
313.449	15.66
313.659	15.69
313.869	13.54
314.078	15.38
314.288	15.67
314.497	12.21
314.707	11.12
314.917	3.12
315.126	8.97
315.336	8.19
315.545	4.05
315.755	9.97
315.964	5.48
316.174	7.23
316.383	11.88
316.593	9.2
316.802	0.44
317.012	-2.42
317.221	2.09
317.431	-2.37
317.64	-2.62
317.849	-10.9
318.059	-14.09
318.268	-7.43
318.478	-6.87
318.687	-4.46
318.896	-3.95
319.106	-6.54
319.315	-5.81
319.524	-19.84
319.734	-25.12
319.943	-21.68
320.152	-25.46
320.362	-25.35
320.571	-30
320.78	-33.79
320.989	-30.1
321.199	-22.57
321.408	-21.47
321.617	-24.32
321.826	-25.63
322.035	-33.38
322.245	-29.98
322.454	-23.71
322.663	-28.06
322.872	-34.62
323.081	-34.77
323.29	-35.46
323.5	-32.14
323.709	-28.81
323.918	-19.24
324.127	-17.06
324.336	-25.35
324.545	-32.51
324.754	-25.56
324.963	-22.87
325.172	-20.48
325.381	-25.91
325.59	-30.03
325.799	-35.84
326.008	-41.34
326.217	-42.28
326.426	-26.3
326.635	-20.19
326.844	-14.42
327.053	-10.99
327.262	-2.92
327.47	-12.49
327.679	-4.67
327.888	-5.05
328.097	-6.95
328.306	-9.44
328.515	-9.92
328.724	-1.59
328.932	-0.26
329.141	-1.92
329.35	-3.18
329.559	-7.96
329.768	-2.73
329.976	-5.46
330.185	-6.34
330.394	-1.68
330.602	-4.03
330.811	-14.63
331.02	-17.18
331.229	-25.02
331.437	-18.74
331.646	-21.57
331.855	-16.23
332.063	-21.52
332.272	-29.05
332.48	-37.33
332.689	-33.58
332.898	-32.52
333.106	-34.56
333.315	-32.02
333.523	-35.85
333.732	-36.93
333.94	-30.3
334.149	-35.33
334.357	-38.44
334.566	-32.33
334.774	-34.25
334.983	-25.78
335.191	-25.94
335.4	-26.46
335.608	-28.02
335.817	-43.95
336.025	-44.94
336.234	-52.62
336.442	-41.72
336.65	-23.77
336.859	-8.15
337.067	-10.24
337.275	-9.74
337.484	-8.66
337.692	-2.89
337.9	0.26
338.109	-0.16
338.317	-7.76
338.525	-6.21
338.734	5.37
338.942	7.07
339.15	8.71
339.358	-10.56
339.567	-0.67
339.775	-6.28
339.983	-10.52
340.191	-1.9
340.399	4.34
340.608	10.72
340.816	12.04
341.024	6.22
341.232	-2.74
341.44	-1.79
341.648	1.35
341.856	8.31
342.064	6.41
342.272	7.57
342.481	10.25
342.689	13.59
342.897	12.64
343.105	8.42
343.313	17.35
343.521	17.04
343.729	18.09
343.937	14.14
344.145	13.76
344.353	20.57
344.56	16.39
344.768	14.43
344.976	5.54
345.184	-2.38
345.392	-4.81
345.6	-2.83
345.808	-4.45
346.016	-10.47
346.224	-14.57
346.431	-14.31
346.639	-8.5
346.847	-10.93
347.055	-19.79
347.263	-28.06
347.471	-32.42
347.678	-46.11
347.886	-55.12
348.094	-44.45
348.302	-36.46
348.509	-38.06
348.717	-39.42
348.925	-35.24
349.132	-37.05
349.34	-30.06
349.548	-25.82
349.755	-24.63
349.963	-22.85
350.171	-33.09
350.378	-28.68
350.586	-35.08
350.793	-28.3
351.001	-30.31
351.209	-30.75
351.416	-12.89
351.624	-9.83
351.831	-14.92
352.039	-17.17
352.246	-13.01
352.454	-20.93
352.661	-18.86
352.869	-14.43
353.076	-9.35
353.284	-8.61
353.491	-6.92
353.699	-3.59
353.906	-0.14
354.113	3.78
354.321	-1.82
354.528	10.15
354.736	5.26
354.943	15.19
355.15	14.44
355.358	9.62
355.565	6.29
355.772	4.95
355.98	10.66
356.187	13.85
356.394	11.96
356.601	13.6
356.809	20.91
357.016	21.06
357.223	20
357.43	13.85
357.638	13.38
357.845	18.1
358.052	11.76
358.259	9.58
358.466	1.84
358.673	2.84
358.881	0.86
359.088	4.69
359.295	-10.61
359.502	-28.87
359.709	-25.43
359.916	-27.05
360.123	-30.32
360.33	-44.45
360.537	-42.64
360.744	-36.02
360.951	-43.4
361.158	-47.99
361.365	-52.57
361.572	-38.49
361.779	-33.67
361.986	-32.89
362.193	-40.55
362.4	-27.59
362.607	-35.25
362.814	-30.16
363.021	-26.26
363.228	-34
363.435	-34.68
363.641	-32.31
363.848	-28.36
364.055	-29.32
364.262	-13.42
364.469	-20.42
364.676	-10.69
364.882	-7.2
365.089	-9.03
365.296	-5.33
365.503	-5.88
365.709	-14.32
365.916	-25.83
366.123	-28.09
366.33	-33.09
366.536	-26.64
366.743	-31.92
366.95	-27.16
367.156	-26.51
367.363	-25.71
367.57	-28.08
367.776	-19.97
367.983	-14.82
368.19	-8.06
368.396	-5.44
368.603	-14.94
368.809	-2.51
369.016	-5.58
369.222	-10.59
369.429	-7.53
369.635	-6.17
369.842	-11.93
370.048	-3.64
370.255	5.3
370.461	13.42
370.668	13.35
370.874	5.81
371.081	11.18
371.287	13.03
371.494	8.76
371.7	6.55
371.906	6.43
372.113	3.66
372.319	5.88
372.526	8
372.732	0.17
372.938	-0.45
373.145	-4.3
373.351	-0.01
373.557	-3.74
373.763	-10.87
373.97	-7.54
374.176	-2.16
374.382	-0.6
374.588	-11.05
374.795	-18.02
375.001	-22.33
375.207	-26.2
375.413	-27.85
375.62	-28.36
375.826	-19.55
376.032	-17.69
376.238	-11.89
376.444	-18.08
376.65	-24.33
376.856	-34.48
377.062	-28.19
377.269	-21.03
377.475	-40.65
377.681	-47.19
377.887	-41.68
378.093	-50.81
378.299	-54.33
378.505	-55.67
378.711	-57.36
378.917	-49.13
379.123	-46.58
379.329	-28.5
379.535	-18.36
379.741	-21.42
379.947	-19.29
380.152	-20.69
380.358	-18.52
380.564	-22.68
380.77	-26.6
380.976	-26
381.182	-24.51
381.388	-19.99
381.594	-24.25
381.799	-8.6
382.005	-10.34
382.211	-4.56
382.417	3.97
382.623	1.95
382.828	1.5
383.034	-4.14
383.24	-7.46
383.445	-11.73
383.651	-25.87
383.857	-34.91
384.063	-31.65
384.268	-45.46
384.474	-37.75
384.68	-47.57
384.885	-40.37
385.091	-35.98
385.296	-33.67
385.502	-30.28
385.708	-36.09
385.913	-40.32
386.119	-49.71
386.324	-47.14
386.53	-49.18
386.735	-53.72
386.941	-34.96
387.146	-26.35
387.352	-18.15
387.557	-3.46
387.763	-5.74
387.968	-16.43
388.174	-3.95
388.379	-11.36
388.585	-13.52
388.79	-22.06
388.996	-20.25
389.201	-19.74
389.406	-22.49
389.612	-19.95
389.817	-17.01
390.022	-9.02
390.228	1.54
390.433	-2.29
390.638	-5.19
390.844	-11.16
391.049	-10.84
391.254	-20.69
391.459	-19.92
391.665	-30.02
391.87	-32.98
392.075	-22.88
392.28	-9.57
392.485	-19.38
392.691	-17.73
392.896	-18.56
393.101	-14.18
393.306	-6.13
393.511	-3.44
393.716	1.82
393.922	0.47
394.127	-8.46
394.332	-5.35
394.537	-7.9
394.742	-4.17
394.947	-8.91
395.152	-2.05
395.357	-1.64
395.562	2.23
395.767	-12.98
395.972	-6.72
396.177	-11.28
396.382	-4.18
396.587	-0.7
396.792	0.71
396.997	6.76
397.202	10.68
397.407	5.18
397.611	10.03
397.816	2.93
398.021	0.75
398.226	1.76
398.431	5.22
398.636	3.03
398.841	2.09
399.045	15.93
399.25	15.87
399.455	12.7
399.66	12.72
399.864	12.09
400.069	9.9
400.274	13.9
400.479	14.45
400.683	6.76
400.888	8.04
401.093	-3.41
401.297	-6.18
401.502	-10.47
401.707	-11.46
401.911	-13.01
402.116	-7.09
402.321	5.18
402.525	6.8
402.73	6.24
402.934	-0.02
403.139	1.68
403.344	-17.18
403.548	-15.69
403.753	-14.99
403.957	-27.88
404.162	-33.87
404.366	-10.28
404.571	-18.42
404.775	-16.42
404.98	-14.8
405.184	-21.19
405.388	-7.68
405.593	-12.29
405.797	-13.25
406.002	-2.61
406.206	-9.3
406.41	-10.6
406.615	-11.34
406.819	-14.04
407.023	-8.58
407.228	-5.97
407.432	-18.89
407.636	-28.44
407.841	-21.97
408.045	-23.66
408.249	-16.95
408.453	-18.77
408.658	-21.85
408.862	-14.59
409.066	-16.47
409.27	-19.83
409.474	-22.17
409.679	-34.28
409.883	-32.12
410.087	-52.89
410.291	-63.39
410.495	-66.07
410.699	-67.62
410.903	-86.81
411.108	-74.45
411.312	-79.41
411.516	-84.63
411.72	-68.91
411.924	-58.19
412.128	-66.09
412.332	-56.97
412.536	-61.04
412.74	-48.22
412.944	-45.65
413.148	-56.79
413.352	-63.17
413.556	-67.63
413.76	-66.97
413.964	-48.73
414.167	-46.19
414.371	-25.15
414.575	-24.54
414.779	-27.85
414.983	-24.11
415.187	-19.88
415.391	-29.17
415.594	-26.6
415.798	-35.96
416.002	-33.04
416.206	-26.37
416.41	-20.22
416.613	-33.3
416.817	-33.69
417.021	-31.07
417.225	-30.84
417.428	-36.01
417.632	-35.97
417.836	-26.11
418.039	-17.45
418.243	-19.21
418.447	-26.4
418.65	-26.54
418.854	-13.76
419.057	-0.59
419.261	2.95
419.465	8.85
419.668	26.22
419.872	22.32
420.075	39.77
420.279	37.09
420.482	36.05
420.686	32.03
420.889	26.51
421.093	35.56
421.296	36.3
421.5	28.57
421.703	22.78
421.907	31.36
422.11	30.45
422.314	19.76
422.517	10.6
422.72	20.23
422.924	20.18
423.127	8.26
423.33	4.33
423.534	7.96
423.737	2.4
423.94	-17.41
424.144	-6.42
424.347	-9.56
424.55	-14.52
424.754	-19.15
424.957	-21.25
425.16	-3.54
425.363	-7.09
425.567	-7.23
425.77	-1.05
425.973	10.21
426.176	2.05
426.379	2.18
426.582	12.9
426.786	20.34
426.989	9.67
427.192	14.24
427.395	21.58
427.598	13
427.801	11.58
428.004	9.51
428.207	14.26
428.41	10.4
428.613	5.14
428.816	14.03
429.019	14.72
429.222	10.2
429.425	9.53
429.628	10.25
429.831	12.74
430.034	11.04
430.237	8.46
430.44	10.9
430.643	6.35
430.846	4.02
431.049	2.61
431.252	8.73
431.454	4.23
431.657	-2.89
431.86	-0.21
432.063	-0.48
432.266	-2.92
432.469	-10.25
432.671	-11.91
432.874	-9.81
433.077	-27.22
433.28	-24.72
433.482	-23.11
433.685	-29.41
433.888	-36.12
434.09	-50.51
434.293	-69.88
434.496	-69.13
434.698	-74.1
434.901	-61.5
435.104	-59.69
435.306	-51.08
435.509	-63.39
435.712	-68.92
435.914	-89.18
436.117	-71.58
436.319	-49.82
436.522	-45.65
436.724	-41.41
436.927	-40.25
437.129	-34.85
437.332	-30.89
437.534	-28.43
437.737	-39.5
437.939	-24.43
438.142	-28.79
438.344	-18.47
438.547	-10.57
438.749	7.15
438.951	-3.76
439.154	-1.63
439.356	-7.22
439.558	-12.42
439.761	4.75
439.963	8.52
440.165	16.71
440.368	27.95
440.57	-1.65
440.772	-4.49
440.975	-18.96
441.177	-14.28
441.379	-15.89
441.581	-6.56
441.784	-12.04
441.986	2.2
442.188	-7.44
442.39	-8.67
442.592	-23.32
442.795	-15.85
442.997	-21.26
443.199	-21.79
443.401	-28.02
443.603	-27.3
443.805	-32.73
444.007	-36.37
444.209	-39.99
444.411	-27
444.613	-36.95
444.815	-22.39
445.017	-23.91
445.219	-16.54
445.421	-21.95
445.623	-22.03
445.825	-30.48
446.027	-37.01
446.229	-52.03
446.431	-41.94
446.633	-43.41
446.835	-34.94
447.037	-34.56
447.239	-40.52
447.441	-25.41
447.643	-13.63
447.844	-11.89
448.046	2.62
448.248	14.36
448.45	21.44
448.652	8.39
448.853	9.57
449.055	13.24
449.257	20.66
449.459	20.27
449.66	28.3
449.862	25.24
450.064	20.59
450.266	20.97
450.467	22.18
450.669	16.71
450.871	20.21
451.072	35.19
451.274	37.74
451.475	34.13
451.677	24.58
451.879	20.64
452.08	5.95
452.282	13.41
452.483	-2.09
452.685	2.18
452.886	13.47
453.088	2.9
453.289	-19.86
453.491	-27.34
453.692	-41.93
453.894	-26.09
454.095	-12.56
454.297	3.67
454.498	3.55
454.7	16.72
454.901	27.65
455.102	23.03
455.304	15.18
455.505	6.92
455.706	0.05
455.908	-6.17
456.109	-13.23
456.31	-7.73
456.512	-24.13
456.713	-21.34
456.914	-25.17
457.116	-34.8
457.317	-17.32
457.518	-19.75
457.719	-18.87
457.921	-13.68
458.122	-26.81
458.323	-34.5
458.524	-31.43
458.725	-32.33
458.926	-41.33
459.128	-58.95
459.329	-55.17
459.53	-63.95
459.731	-64.89
459.932	-75.8
460.133	-51.55
460.334	-37.21
460.535	-28.16
460.736	-24.08
460.937	-26.79
461.138	-35.68
461.339	-37.99
461.54	-44.45
461.741	-35.37
461.942	-25.96
462.143	-18.41
462.344	-20.8
462.545	-13.16
462.746	-19.88
462.947	-25.01
463.148	-21.8
463.348	-11.06
463.549	-23.42
463.75	-27.26
463.951	-24.31
464.152	-14.4
464.353	-26.58
464.553	-12.72
464.754	-15.73
464.955	-13.52
465.156	-7.96
465.356	-5.65
465.557	-7.3
465.758	-11.32
465.959	-8.11
466.159	-7.93
466.36	-12.73
466.561	-15.95
466.761	-23.27
466.962	-19.2
467.163	-5.85
467.363	-10.02
467.564	-8.79
467.764	3.06
467.965	5.6
468.166	-0.63
468.366	7.28
468.567	7.69
468.767	2.56
468.968	4.01
469.168	3.94
469.369	3.52
469.569	4.18
469.77	12.24
469.97	14.43
470.17	16.57
470.371	14.54
470.571	19.31
470.772	28.81
470.972	35.46
471.172	33.84
471.373	27.49
471.573	26.1
471.773	19.86
471.974	18.04
472.174	24.91
472.374	30.28
472.575	25.14
472.775	28.56
472.975	21.28
473.175	24.33
473.376	27.35
473.576	24.44
473.776	28.85
473.976	22.35
474.177	25.59
474.377	22.01
474.577	23.77
474.777	17.75
474.977	15.24
475.177	10.18
475.377	13.62
475.577	14.58
475.777	19.02
475.978	16.91
476.178	12.87
476.378	10.02
476.578	14.48
476.778	9.44
476.978	10.23
477.178	10.4
477.378	6.89
477.578	5.85
477.778	4.86
477.977	2.47
478.177	6.92
478.377	3.11
478.577	1.57
478.777	4.28
478.977	4.55
479.177	4.04
479.377	7.58
479.577	0.93
479.776	3.94
479.976	2.39
480.176	10.64
480.376	9.39
480.576	7.74
480.775	-0.05
480.975	5.27
481.175	-0.18
481.374	3.28
481.574	6.28
481.774	3.54
481.974	2.8
482.173	-0.05
482.373	-7.97
482.572	-3.59
482.772	-2.9
482.972	-4.43
483.171	-0.73
483.371	4.6
483.57	-0.38
483.77	1.53
483.97	-2.15
484.169	-3.24
484.369	-10.5
484.568	-7.38
484.768	-1.12
484.967	-0.22
485.167	2.5
485.366	1.1
485.566	-1.78
485.765	0.39
485.964	-4.29
486.164	-6.54
486.363	-9.37
486.563	-2.07
486.762	-5.5
486.961	1.36
487.161	0.27
487.36	-1.49
487.559	-7.12
487.759	-4.75
487.958	-9.32
488.157	-11.82
488.356	-10.27
488.556	-10.07
488.755	-14.47
488.954	-22.4
489.153	-21.42
489.353	-22.21
489.552	-19.79
489.751	-22.04
489.95	-24.89
490.149	-15.23
490.348	-11.45
490.548	-5.74
490.747	-16.16
490.946	-18.37
491.145	-25.07
491.344	-29.51
491.543	-30.92
491.742	-30.23
491.941	-26.82
492.14	-23.47
492.339	-24.6
492.538	-24.76
492.737	-19.59
492.936	-16.41
493.135	-14.42
493.334	-19.62
493.533	-26.91
493.732	-22.38
493.931	-11.8
494.13	-16.43
494.328	-21.81
494.527	-22.32
494.726	-26.52
494.925	-23.59
495.124	-20.92
495.323	-20.96
495.521	-21.26
495.72	-17.97
495.919	-19.03
496.118	-19.94
496.316	-19.04
496.515	-15.67
496.714	-18.8
496.913	-19.08
497.111	-20.65
497.31	-21.61
497.509	-17.19
497.707	-14.09
497.906	-13.62
498.105	-21.53
498.303	-20.54
498.502	-17.85
498.7	-16.2
498.899	-15.24
499.097	-16.06
499.296	-14.01
499.495	-11.95
499.693	-11.31
499.892	-17.1
500.09	-13.65
500.289	-10.96
500.487	-15.23
500.686	-15.47
500.884	-11.31
501.082	-13.74
501.281	-15.28
501.479	-11.78
501.678	-9.36
501.876	-13.29
502.074	-12.01
502.273	-11.09
502.471	-9.51
502.669	-9.02
502.868	-11.73
503.066	-7.84
503.264	-2.25
503.463	-2.13
503.661	-9.37
503.859	-7.75
504.057	-2.08
504.256	-0.84
504.454	-6.42
504.652	-0.04
504.85	0.34
505.048	0.46
505.246	0.27
505.445	0.25
505.643	-2.2
505.841	-0.98
506.039	3.23
506.237	-1.8
506.435	1.01
506.633	0.69
506.831	6.71
507.029	7.4
507.227	9.88
507.425	8.21
507.623	7.69
507.821	10.06
508.019	9.74
508.217	9.41
508.415	5.94
508.613	7.03
508.811	5.24
509.009	3.96
509.207	4.46
509.405	4.35
509.603	7.01
509.8	4.35
509.998	-0.68
510.196	2.02
510.394	0.88
510.592	-1.82
510.79	-1.83
510.987	-7.24
511.185	-3.06
511.383	-9.57
511.581	-7.55
511.778	-4.41
511.976	0.13
512.174	-0.47
512.371	-3.13
512.569	-2.42
512.767	1.84
512.964	-1.8
513.162	-2.67
513.36	-2.85
513.557	-3.7
513.755	-7.33
513.952	0.66
514.15	-1.29
514.348	-3.34
514.545	-1.76
514.743	3.51
514.94	7.62
515.138	5.79
515.335	2.55
515.533	4.56
515.73	0.82
515.927	-1.18
516.125	-3.6
516.322	-4.09
516.52	-0.27
516.717	2.66
516.915	2.08
517.112	6.68
517.309	5.63
517.507	7.07
517.704	7.26
517.901	12.27
518.099	8.12
518.296	12.69
518.493	12.39
518.69	14.37
518.888	11.27
519.085	10.98
519.282	12.36
519.479	12.6
519.676	8.45
519.874	7.76
520.071	4.28
520.268	6.59
520.465	9.09
520.662	9.55
520.859	8.91
521.056	6.27
521.254	1.74
521.451	6.15
521.648	1.6
521.845	3.41
522.042	2.12
522.239	2.82
522.436	1.23
522.633	-6.22
522.83	-6.51
523.027	-10.77
523.224	-12.72
523.421	-11.28
523.618	-9.93
523.815	-2.92
524.011	0.92
524.208	6.94
524.405	4.26
524.602	3.88
524.799	-1.5
524.996	-4.38
525.193	-4.29
525.389	-3.85
525.586	-6.18
525.783	-6.24
525.98	-7.18
526.176	-6.32
526.373	-8.48
526.57	-9.48
526.767	-5.34
526.963	-6.04
527.16	1.23
527.357	3.4
527.553	2.14
527.75	-1.32
527.947	-8.43
528.143	-9.94
528.34	-18.81
528.537	-17.62
528.733	-16.91
528.93	-13.76
529.126	-7.01
529.323	-7.82
529.519	-5.68
529.716	-8.32
529.912	-7.93
530.109	-4.96
530.305	-8.95
530.502	-3.95
530.698	-3.02
530.895	-4.07
531.091	-2.56
531.288	-1.76
531.484	-4.57
531.68	-6.29
531.877	-1.63
532.073	1.9
532.269	3.03
532.466	3.37
532.662	1.49
532.858	0.06
533.055	-1.31
533.251	-4.97
533.447	-4.23
533.643	-2.47
533.84	-2.33
534.036	-0.64
534.232	-0.01
534.428	-0.14
534.624	-0.53
534.821	0.53
535.017	4.4
535.213	3.52
535.409	1.98
535.605	1.91
535.801	4.18
535.997	2.26
536.193	1.73
536.389	-0.41
536.586	1.14
536.782	4.93
536.978	6.7
537.174	8.25
537.37	6.89
537.566	9.86
537.762	9.24
537.958	10.77
538.153	10.53
538.349	8.17
538.545	9.87
538.741	4.25
538.937	1.13
539.133	2.99
539.329	1.42
539.525	3.46
539.721	5.24
539.916	7.2
540.112	2.36
540.308	4.43
540.504	5.55
540.699	8.23
540.895	10.76
541.091	10.89
541.287	11.77
541.482	13.1
541.678	12.53
541.874	8.69
542.069	8.78
542.265	10.07
542.461	11
542.656	12.24
542.852	14.54
543.048	15.01
543.243	15.09
543.439	18.01
543.634	15.57
543.83	14.47
544.025	14.01
544.221	16.75
544.417	17.7
544.612	17.49
544.807	17.8
545.003	11.92
545.198	9.95
545.394	10.17
545.589	14.39
545.785	12.76
545.98	13.18
546.176	11.87
546.371	9.08
546.566	8.63
546.762	6.12
546.957	8.63
547.152	9
547.348	6.18
547.543	6.14
547.738	5.13
547.933	3.16
548.129	4.43
548.324	2.75
548.519	-0.84
548.714	-1.68
548.91	-0.92
549.105	-0.05
549.3	-0.05
549.495	-0.91
549.69	-5.99
549.885	-6.79
550.08	-1.54
550.276	-1.08
550.471	4.67
550.666	3.86
550.861	7.92
551.056	3.72
551.251	3.35
551.446	2.97
551.641	-0.6
551.836	0.32
552.031	3.22
552.226	1.36
552.421	2.2
552.616	1.39
552.811	3.8
553.006	-0.3
553.201	-0.58
553.395	0.97
553.59	2.39
553.785	6.27
553.98	4.13
554.175	1.04
554.37	0.78
554.565	-0.09
554.759	-0.25
554.954	-0.58
555.149	1.56
555.344	1.48
555.538	0.47
555.733	3.3
555.928	6.07
556.122	5.46
556.317	2.58
556.512	2.56
556.706	3.87
556.901	4.19
557.096	6.6
557.29	8.05
557.485	7.67
557.68	4.6
557.874	2.68
558.069	4.15
558.263	6.21
558.458	8.98
558.652	6.67
558.847	7.36
559.041	6.82
559.236	6.13
559.43	6.54
559.625	9.62
559.819	8
560.014	7.64
560.208	8.22
560.402	9.23
560.597	11.41
560.791	10.93
560.986	7.54
561.18	5.78
561.374	5.9
561.569	4.26
561.763	5.03
561.957	2.41
562.151	3.31
562.346	6.34
562.54	6.8
562.734	8.08
562.928	7.44
563.123	7.31
563.317	5.43
563.511	6.08
563.705	1.57
563.899	0.1
564.093	-1.73
564.288	-2.78
564.482	-1.64
564.676	-0.06
564.87	3.32
565.064	7.11
565.258	8.62
565.452	8.03
565.646	12.12
565.84	11.16
566.034	14.11
566.228	14.6
566.422	10.18
566.616	7.19
566.81	5.4
567.004	5.2
567.198	7.37
567.392	8.15
567.586	5.82
567.779	10.18
567.973	11.66
568.167	14.15
568.361	12.86
568.555	13.81
568.749	12.15
568.942	7.77
569.136	6.75
569.33	5.5
569.524	5.05
569.718	5.43
569.911	6.62
570.105	7.3
570.299	6.24
570.492	7.79
570.686	8.68
570.88	8.59
571.073	10.88
571.267	10.11
571.461	10.2
571.654	12.79
571.848	13.39
572.041	14.97
572.235	12.36
572.429	13.64
572.622	11.71
572.816	13.04
573.009	13.73
573.203	11.94
573.396	14.4
573.59	16.01
573.783	13.59
573.976	13.17
574.17	11.95
574.363	13.07
574.557	10.81
574.75	10.12
574.943	12.47
575.137	12.09
575.33	12.53
575.523	13.42
575.717	12.22
575.91	10.2
576.103	8.35
576.297	8.98
576.49	7.47
576.683	7.31
576.876	6.41
577.07	5.21
577.263	7.75
577.456	7.26
577.649	7.12
577.842	7.92
578.036	8.09
578.229	6.27
578.422	5.95
578.615	7.39
578.808	6.39
579.001	6.73
579.194	6.29
579.387	6.56
579.58	4.57
579.773	2.9
579.966	4.23
580.159	2.83
580.352	2.86
580.545	4.56
580.738	4.7
580.931	4.02
581.124	5.42
581.317	3.1
581.51	0.31
581.703	0.47
581.896	-1.34
582.088	-0.58
582.281	2.24
582.474	1.97
582.667	1.86
582.86	3.8
583.053	1.22
583.245	0.95
583.438	-1.42
583.631	3.29
583.824	4.93
584.016	4.65
584.209	4.89
584.402	5.48
584.594	5.71
584.787	6.28
584.98	5.15
585.172	5.98
585.365	6.14
585.558	7.7
585.75	6.64
585.943	9.28
586.135	9.66
586.328	9.95
586.52	11.5
586.713	11.12
586.906	12.13
587.098	11.06
587.291	12.13
587.483	11.13
587.675	10.18
587.868	9.08
588.06	7.57
588.253	10.49
588.445	10.37
588.638	9.22
588.83	10.15
589.022	11.06
589.215	10.53
589.407	12.44
589.599	13.39
589.792	13.96
589.984	12.58
590.176	11.58
590.368	11.27
590.561	9.07
590.753	9.79
590.945	8.51
591.137	9.65
591.33	7.19
591.522	9.63
591.714	6.8
591.906	9.9
592.098	12.05
592.29	9.24
592.482	9.47
592.674	10.91
592.867	10.44
593.059	9.4
593.251	9.84
593.443	9.07
593.635	7.62
593.827	4.93
594.019	4.66
594.211	4.23
594.403	4.11
594.595	5.17
594.787	4.78
594.979	4.74
595.17	5.52
595.362	8.2
595.554	7.43
595.746	8.92
595.938	7.21
596.13	6.19
596.322	7.7
596.513	5.37
596.705	4.8
596.897	4.14
597.089	5.17
597.281	5.77
597.472	5.46
597.664	4.41
597.856	8.18
598.048	6.75
598.239	6.78
598.431	5.18
598.623	3.75
598.814	1.35
599.006	2.43
599.197	3.61
599.389	2.36
599.581	1.04
599.772	0.32
599.964	0.65
600.155	-0.45
600.347	-0.47
600.538	1.46
600.73	2.4
600.921	2.84
601.113	3.18
601.304	3.85
601.496	4.76
601.687	6.34
601.879	3.86
602.07	6.49
602.262	7.42
602.453	8.73
602.644	8.21
602.836	9.1
603.027	7.39
603.218	5.49
603.41	4.76
603.601	5.28
603.792	5.29
603.983	5.96
604.175	6.4
604.366	5.32
604.557	5.66
604.748	4.75
604.94	4.93
605.131	3.56
605.322	3.63
605.513	3.86
605.704	3.86
605.895	4.97
606.086	4.99
606.278	4.41
606.469	4.67
606.66	6.07
606.851	6.57
607.042	6.55
607.233	7.2
607.424	6.84
607.615	7.09
607.806	7.96
607.997	8.26
608.188	10.61
608.379	10.75
608.57	8.71
608.761	7.89
608.952	7.46
609.142	9.01
609.333	7.14
609.524	6.52
609.715	6.37
609.906	5.65
610.097	6.17
610.287	5.84
610.478	4.43
610.669	6.26
610.86	6.84
611.051	6.42
611.241	8.07
611.432	8.43
611.623	8.88
611.813	9.13
612.004	8.63
612.195	6.88
612.385	6.71
612.576	7.23
612.767	8.51
612.957	8.1
613.148	7.35
613.338	6.77
613.529	5.34
613.72	5.16
613.91	4.88
614.101	4.41
614.291	5.79
614.482	6.69
614.672	4.09
614.863	3.36
615.053	4.65
615.243	2.71
615.434	3.48
615.624	2.74
615.815	2.55
616.005	2.38
616.195	1.66
616.386	0.02
616.576	1.3
616.766	1.31
616.957	1.61
617.147	1.2
617.337	0.61
617.528	1.25
617.718	0.96
617.908	1.76
618.098	1.79
618.289	1.23
618.479	0.57
618.669	2.02
618.859	2.51
619.049	3.34
619.239	4.13
619.43	3.19
619.62	2.02
619.81	3.1
620	2.89
620.19	2.57
620.38	4.54
620.57	4.93
620.76	4.57
620.95	5.61
621.14	5.24
621.33	7.42
621.52	7.02
621.71	6.2
621.9	6.5
622.09	6.46
622.28	6.99
622.47	6.49
622.659	5.48
622.849	5.14
623.039	5.13
623.229	5.35
623.419	6.2
623.609	6.45
623.799	3.82
623.988	3.28
624.178	4.81
624.368	3.37
624.558	2.1
624.747	1.32
624.937	0.34
625.127	0.21
625.316	-0.89
625.506	1.61
625.696	2.44
625.885	1.29
626.075	-0.23
626.265	-1.04
626.454	-0.65
626.644	0.4
626.833	0.78
627.023	-0.4
627.212	-1.51
627.402	-1.67
627.591	0.41
627.781	1.75
627.97	2.83
628.16	1.82
628.349	1.68
628.539	1.24
628.728	1.66
628.918	1.45
629.107	2.38
629.296	1.65
629.486	-1.01
629.675	0.37
629.865	0.78
630.054	1.44
630.243	1.92
630.432	1.26
630.622	0.84
630.811	2.33
631	2.11
631.19	3.74
631.379	3.51
631.568	3.68
631.757	3.22
631.946	2.99
632.136	4.69
632.325	5.3
632.514	5.76
632.703	5.1
632.892	3.61
633.081	4.78
633.27	5.28
633.459	6.9
633.648	5.83
633.837	6.58
634.026	6.65
634.215	6.17
634.404	7.43
634.593	8.73
634.782	7.57
634.971	7.73
635.16	4.8
635.349	4.69
635.538	3.22
635.727	2.72
635.916	1.53
636.105	0.99
636.294	2.08
636.482	3.2
636.671	3.55
636.86	5.77
637.049	5.78
637.238	6.05
637.426	5.99
637.615	5.32
637.804	4.27
637.993	5.13
638.181	6.37
638.37	7.19
638.559	6.63
638.747	6.07
638.936	6.46
639.125	8.19
639.313	8.34
639.502	9.13
639.691	9.12
639.879	8.83
640.068	8.44
640.256	6.36
640.445	7.19
640.633	7.94
640.822	6.98
641.01	8.76
641.199	9.12
641.387	9.35
641.576	10.08
641.764	11.55
641.953	10.38
642.141	10.42
642.329	9.77
642.518	8.82
642.706	10.04
642.894	9.37
643.083	9.84
643.271	10.41
643.459	9.34
643.648	9.66
643.836	10.15
644.024	9.91
644.213	12.2
644.401	9.81
644.589	8.74
644.777	9.19
644.965	7.13
645.154	6.75
645.342	6.15
645.53	6.81
645.718	6.86
645.906	6.37
646.094	5.9
646.282	5.09
646.47	6.59
646.658	5.74
646.846	5.35
647.034	6.13
647.223	5.2
647.411	5.8
647.599	3.88
647.786	3.83
647.974	3.26
648.162	2.35
648.35	2.82
648.538	3.24
648.726	3.52
648.914	3.73
649.102	4.31
649.29	3.93
649.478	4.65
649.665	4.53
649.853	5.96
650.041	4.6
650.229	4.61
650.417	2.93
650.604	1.88
650.792	4.71
650.98	3.49
651.168	3.31
651.355	4.85
651.543	5.92
651.731	5.84
651.918	5.05
652.106	5.46
652.294	5.68
652.481	5.26
652.669	4.9
652.856	4.46
653.044	4.66
653.231	3.45
653.419	2.49
653.606	2.5
653.794	2.41
653.981	3.49
654.169	3.98
654.356	4.01
654.544	4.81
654.731	3.55
654.919	2.94
655.106	2.59
655.294	1.72
655.481	2.58
655.668	3.72
655.856	3.83
656.043	4.56
656.23	5.16
656.418	6.65
656.605	7.41
656.792	7.04
656.979	7.52
657.167	9.71
657.354	9.98
657.541	9.33
657.728	8.04
657.916	8.23
658.103	7.73
658.29	8.19
658.477	8.97
658.664	8.11
658.851	8.09
659.038	7.83
659.225	8.13
659.412	9.46
659.6	8.86
659.787	10.2
659.974	8.79
660.161	8.71
660.348	7.1
660.535	8.84
660.722	7.58
660.909	5.28
661.095	5.33
661.282	4.51
661.469	4.85
661.656	4.9
661.843	4.81
662.03	4.09
662.217	5.31
662.404	4.97
662.59	5.14
662.777	5.33
662.964	6.87
663.151	6.45
663.338	6
663.524	5.64
663.711	4.53
663.898	4.88
664.085	4.81
664.271	4.6
664.458	3.37
664.645	4.61
664.831	6.07
665.018	4.43
665.204	4.81
665.391	4.64
665.578	4.39
665.764	2.57
665.951	3.24
666.137	1.92
666.324	2.01
666.51	1.15
666.697	1.01
666.883	0.77
667.07	0.14
667.256	-0.44
667.443	-1.43
667.629	-0.85
667.816	-1
668.002	-1.82
668.188	-1.12
668.375	-1.61
668.561	-2.05
668.747	-3.19
668.934	-3.13
669.12	-2.6
669.306	-3.29
669.493	-2.51
669.679	0.64
669.865	-1.11
670.051	-1.66
670.238	-2.09
670.424	-3.2
670.61	-3.76
670.796	-2.94
670.982	-3.76
671.169	-4.83
671.355	-5.11
671.541	-4.59
671.727	-5.15
671.913	-4.51
672.099	-4.13
672.285	-5.49
672.471	-5.35
672.657	-5.98
672.843	-4.92
673.029	-4.71
673.215	-3.07
673.401	-1.07
673.587	-3.78
673.773	-1.32
673.959	-0.22
674.145	-0.11
674.331	1.27
674.517	2.11
674.703	1.67
674.888	1.6
675.074	1.39
675.26	2.97
675.446	2.25
675.632	1.62
675.817	1.21
676.003	1.03
676.189	1
676.375	1.11
676.56	3.52
676.746	3.41
676.932	0.1
677.117	-1.21
677.303	-2.66
677.489	-3.03
677.674	-4.61
677.86	-4.1
678.046	-4.52
678.231	-4.41
678.417	-5.05
678.602	-5.28
678.788	-3.55
678.973	-2.14
679.159	-1.3
679.344	-0.78
679.53	1.3
679.715	1.6
679.901	0.84
680.086	1.47
680.272	0.44
680.457	-2.08
680.643	-2.19
680.828	-0.33
681.013	-0.12
681.199	0.29
681.384	1.37
681.569	2.44
681.755	1.65
681.94	2.44
682.125	1.93
682.31	3.29
682.496	2.38
682.681	2.58
682.866	2.22
683.051	0.02
683.237	0.23
683.422	-0.74
683.607	-2.71
683.792	-2.38
683.977	-2.83
684.162	-2.63
684.347	-2.23
684.532	-2.73
684.717	-2.7
684.903	-3.33
685.088	-3.29
685.273	-4.14
685.458	-4.99
685.643	-4.96
685.828	-6.34
686.013	-4.36
686.198	-5.57
686.382	-4.45
686.567	-4.45
686.752	-4.36
686.937	-2.49
687.122	-3.26
687.307	-2.91
687.492	-1.68
687.677	-2.24
687.861	-3.03
688.046	-3.26
688.231	-2.06
688.416	-0.6
688.601	0.3
688.785	2.3
688.97	1.48
689.155	2.78
689.339	2.19
689.524	1.76
689.709	1.57
689.893	1.26
690.078	3.29
690.263	2.67
690.447	2.52
690.632	1.3
690.816	2.43
691.001	3.22
691.186	1.42
691.37	1.46
691.555	2.38
691.739	4.61
691.924	5.11
692.108	4.9
692.293	3.46
692.477	4.11
692.661	3.54
692.846	3.2
693.03	3.87
693.215	4.35
693.399	4.98
693.583	5.73
693.768	4.56
693.952	2.36
694.136	1.35
694.321	1.43
694.505	2.7
694.689	1.38
694.873	1.43
695.058	1.9
695.242	3.04
695.426	2.82
695.61	2.62
695.794	2.93
695.979	1.65
696.163	1.39
696.347	1.09
696.531	0.18
696.715	1.55
696.899	0.9
697.083	0.59
697.267	0.72
697.451	0.33
697.635	2.15
697.819	2.9
698.003	4.44
698.187	3.79
698.371	4.97
698.555	5.08
698.739	5.88
698.923	7.25
699.107	6.6
699.291	6.27
699.475	5.62
699.659	6.06
699.842	7.26
700.026	7.54
700.21	6.48
700.394	6.34
700.578	6.39
700.761	5.73
700.945	6.86
701.129	6.55
701.313	6.46
701.496	6.35
701.68	5.95
701.864	5.4
702.047	6.02
702.231	6.16
702.415	5.67
702.598	3.11
702.782	3.89
702.965	3.35
703.149	2.78
703.333	1.44
703.516	0.65
703.7	0.12
703.883	0.79
704.067	0.32
704.25	0.6
704.434	-1.78
704.617	-2.22
704.801	-2.07
704.984	-1.89
705.167	-2.13
705.351	-3.35
705.534	-2.94
705.718	-2.93
705.901	-4.83
706.084	-5.74
706.268	-5.39
706.451	-5.39
706.634	-5.93
706.817	-6.63
707.001	-6.64
707.184	-5.11
707.367	-5.52
707.55	-5.24
707.734	-5.28
707.917	-4.15
708.1	-4.43
708.283	-2.27
708.466	-1.63
708.649	-1.82
708.832	-1.47
709.015	-0.69
709.199	-0.01
709.382	-0.53
709.565	-0.39
709.748	1.22
709.931	0.78
710.114	0.52
710.297	1.14
710.48	1.42
710.663	2.62
710.846	3.72
711.028	3.31
711.211	4.59
711.394	6.01
711.577	6.27
711.76	3.76
711.943	3.52
712.126	4.26
712.309	5.16
712.491	6.22
712.674	4.89
712.857	5.49
713.04	3.97
713.222	4.52
713.405	4.39
713.588	3.93
713.771	3.28
713.953	2.62
714.136	3.39
714.319	3.21
714.501	3.72
714.684	3.04
714.866	3.74
715.049	2.7
715.232	0.98
715.414	-0.7
715.597	1.36
715.779	1.38
715.962	1.72
716.144	0.29
716.327	0.28
716.509	0.63
716.692	-1.66
716.874	-1.39
717.057	-2.06
717.239	-1.31
717.421	-0.09
717.604	-1.71
717.786	-0.13
717.968	-1.81
718.151	-2.13
718.333	-3.63
718.515	-2.27
718.698	-2.57
718.88	-1.56
719.062	-1.19
719.244	0.23
719.427	-0.27
719.609	0.97
719.791	0.29
719.973	1.15
720.155	-1.4
720.338	-0
720.52	1.06
720.702	1.99
720.884	3.49
721.066	3.25
721.248	-0.3
721.43	2.26
721.612	2.35
721.794	4.23
721.976	4.47
722.158	4.59
722.34	3.34
722.522	3.17
722.704	2.96
722.886	2.66
723.068	2.74
723.25	4.85
723.432	4.13
723.614	4.71
723.796	4.68
723.977	4.51
724.159	3.81
724.341	4.09
724.523	3.22
724.705	1.99
724.886	2.21
725.068	4.87
725.25	5.75
725.432	4.01
725.613	3.61
725.795	4.09
725.977	4.22
726.158	4.8
726.34	4.1
726.522	4.35
726.703	5.99
726.885	6.48
727.066	3.94
727.248	5.84
727.43	4.15
727.611	4.02
727.793	5.33
727.974	4.81
728.156	4.15
728.337	2.35
728.519	1.74
728.7	2.14
728.882	1.04
729.063	0.09
729.244	0.95
729.426	1.94
729.607	1.59
729.788	2.31
729.97	2.22
730.151	3.2
730.332	2
730.514	1.26
730.695	1.92
730.876	3.25
731.058	2.04
731.239	3.16
731.42	3.72
731.601	3.71
731.782	2.97
731.964	4.07
732.145	6.36
732.326	5.41
732.507	5.45
732.688	7.7
732.869	8.54
733.05	8.19
733.231	7.86
733.412	6.26
733.593	6.4
733.774	5.04
733.955	4.52
734.136	5.11
734.317	3.81
734.498	2.59
734.679	1.94
734.86	0.58
735.041	-0.42
735.222	-2.01
735.403	-3.08
735.584	-2.43
735.765	-2.65
735.946	-2.52
736.126	-2.07
736.307	-2.17
736.488	-3.5
736.669	-7.58
736.849	-6.9
737.03	-5.18
737.211	-4.4
737.392	-3.98
737.572	-4.67
737.753	-4.61
737.934	-3.05
738.114	-0.95
738.295	-0.46
738.476	-1.05
738.656	0.56
738.837	2.31
739.017	3.17
739.198	4.6
739.378	5.76
739.559	5.86
739.74	4.53
739.92	5.74
740.1	4.34
740.281	1.46
740.461	4.43
740.642	5.01
740.822	2.02
741.003	3.47
741.183	1.96
741.363	4.46
741.544	4.39
741.724	2.35
741.904	0.61
742.085	1.1
742.265	1.54
742.445	0.01
742.626	0.26
742.806	0.79
742.986	0.36
743.166	-1.16
743.347	-2.49
743.527	1.08
743.707	0.13
743.887	0.21
744.067	2.24
744.247	1.8
744.427	1.82
744.608	1.87
744.788	1.1
744.968	3.48
745.148	3.07
745.328	2.41
745.508	3.24
745.688	3.66
745.868	1.11
746.048	0.82
746.228	2.6
746.408	0.57
746.588	-0.65
746.767	1.06
746.947	2.12
747.127	1.94
747.307	-2.57
747.487	-1.46
747.667	-0.61
747.847	-0.29
748.026	-1.95
748.206	-3.12
748.386	-0.71
748.566	-1.75
748.745	-2.63
748.925	-2.58
749.105	-1.3
749.285	-2.06
749.464	-2.99
749.644	-0.65
749.824	0.57
750.003	0.24
750.183	-0.55
750.362	0.03
750.542	-1.85
750.722	-4.14
750.901	-3.04
751.081	-1.02
751.26	0.29
751.44	0.76
751.619	0.6
751.799	1.56
751.978	0.56
752.158	-1.74
752.337	-0.04
752.516	-0.68
752.696	-1.18
752.875	-0.87
753.055	-1.2
753.234	-0.05
753.413	-0.64
753.593	-0.11
753.772	-1.76
753.951	-0.02
754.13	0.79
754.31	0.17
754.489	1.99
754.668	1.29
754.847	1.39
755.027	1.25
755.206	0.41
755.385	0.4
755.564	1.67
755.743	1.89
755.922	2.57
756.101	1.2
756.28	2.23
756.46	1.4
756.639	-0.51
756.818	0.67
756.997	1.11
757.176	0.68
757.355	0.01
757.534	0.07
757.713	-0.33
757.892	-1.59
758.07	-0.67
758.249	-0.19
758.428	-0.33
758.607	-0.53
758.786	-1.39
758.965	-1.27
759.144	0.04
759.323	-2.43
759.501	-2.24
759.68	-2.49
759.859	-1.51
760.038	-1.79
760.216	-1.38
760.395	-0.55
760.574	-1.06
760.753	-0.5
760.931	0.93
761.11	1.36
761.289	2.03
761.467	2.3
761.646	2.24
761.824	1.3
762.003	0.07
762.182	-0.46
762.36	0.05
762.539	0.95
762.717	1.42
762.896	0.55
763.074	1.78
763.253	2.05
763.431	2.48
763.61	1.58
763.788	0.44
763.966	0.22
764.145	1.13
764.323	1.12
764.502	-0.88
764.68	-1.9
764.858	-4.63
765.037	-3.35
765.215	-3.77
765.393	-2.13
765.571	-0.2
765.75	0.65
765.928	1.25
766.106	-0.94
766.284	-2.27
766.463	-2.71
766.641	-3.93
766.819	-2.83
766.997	-1.47
767.175	-0.57
767.353	0.04
767.531	1.54
767.71	1.84
767.888	1.28
768.066	0.71
768.244	2.43
768.422	2.11
768.6	5.59
768.778	2.8
768.956	2.5
769.134	2.21
769.312	1.42
769.489	-0.29
769.667	0.1
769.845	2.2
770.023	3.17
770.201	4.09
770.379	4.2
770.557	3.99
770.735	3.51
770.912	1.68
771.09	2.05
771.268	0.79
771.446	0.19
771.623	0.77
771.801	2.29
771.979	1.25
772.157	1.64
772.334	-1.17
772.512	0.18
772.69	1.29
772.867	-0.26
773.045	1.05
773.222	1.19
773.4	1.81
773.577	0.91
773.755	0.25
773.933	-0.78
774.11	-1.2
774.288	-1.78
774.465	-2.85
774.643	-2.71
774.82	-1.19
774.997	-1.08
775.175	-1.08
775.352	1.09
775.53	0.87
775.707	0.9
775.884	0.37
776.062	2.26
776.239	2.65
776.416	1.72
776.594	2.14
776.771	0.8
776.948	3.54
777.125	2.82
777.303	2.05
777.48	1.78
777.657	0.95
777.834	2.26
778.012	1.82
778.189	0.86
778.366	1.31
778.543	-2.52
778.72	-2.14
778.897	-2.17
779.074	-4.24
779.251	-4.25
779.428	-4.15
779.605	-5.47
779.782	-5.96
779.959	-7.26
780.136	-7.28
780.313	-5.61
780.49	-8.3
780.667	-9.52
780.844	-9.14
781.021	-7.86
781.198	-8.76
781.375	-6.48
781.552	-7.11
781.728	-8.24
781.905	-6.65
782.082	-6.26
782.259	-5.72
782.436	-6.61
782.612	-6.53
782.789	-8.57
782.966	-10.89
783.143	-12
783.319	-9.34
783.496	-8.93
783.673	-9.26
783.849	-8.46
784.026	-9.32
784.203	-6.95
784.379	-9.05
784.556	-7.3
784.732	-6.99
784.909	-4.47
785.085	-5.92
785.262	-5.47
785.438	-3.55
785.615	-3.68
785.791	-3.8
785.968	-3.12
786.144	-2.48
786.321	-0.94
786.497	-1.84
786.673	-1.25
786.85	-1.32
787.026	-4.21
787.203	-5.62
787.379	-4.02
787.555	-5.68
787.731	-7.87
787.908	-8.41
788.084	-6.39
788.26	-10.08
788.437	-9.17
788.613	-12.72
788.789	-14.09
788.965	-16.59
789.141	-17.51
789.317	-20.19
789.494	-20.72
789.67	-19.48
789.846	-18.67
790.022	-22.61
790.198	-22.29
790.374	-18.78
790.55	-19.13
790.726	-18.76
790.902	-16.02
791.078	-14.66
791.254	-13.32
791.43	-10.11
791.606	-10.67
791.782	-11.11
791.958	-10.37
792.134	-10.79
792.31	-8.86
792.486	-9.72
792.661	-8.73
792.837	-4.57
793.013	-2.84
793.189	-1.82
793.365	-2.42
793.54	0.31
793.716	3.3
793.892	5.19
794.068	3.27
794.243	2.63
794.419	3.23
794.595	0.63
794.77	-2.09
794.946	-1.15
795.122	-2.5
795.297	-2.05
795.473	-2.19
795.648	0.26
795.824	-0.39
796	-0.4
796.175	2.03
796.351	1.89
796.526	-1.66
796.702	0.26
796.877	-0.44
797.052	-1.4
797.228	-6.75
797.403	-7.38
797.579	-7.13
797.754	-7.12
797.929	-3.35
798.105	-0.41
798.28	0.36
798.455	3.01
798.631	1.25
798.806	0.43
798.981	0.36
799.157	1.68
799.332	-3.21
799.507	-1.52
799.682	-1.95
799.858	-0.84
800.033	2.11
800.208	3.13
800.383	2.45
800.558	3.34
800.733	3.79
800.908	5.1
801.083	4.74
801.258	2.6
801.434	5.09
801.609	4.61
801.784	1.15
801.959	0.68
802.134	-1.31
802.309	-3.18
802.484	-4.85
802.658	-5.78
802.833	-7.6
803.008	-3.95
803.183	-6.43
803.358	-6.65
803.533	-6.16
803.708	-9.08
803.883	-8.56
804.057	-13.83
804.232	-12.98
804.407	-9.09
804.582	-7.64
804.756	-7.87
804.931	-5.5
805.106	-10.14
805.281	-11.09
805.455	-9.5
805.63	-9.14
805.805	-7.39
805.979	-3.27
806.154	-0.59
806.328	1.79
806.503	4.3
806.678	5.27
806.852	6.36
807.027	7.58
807.201	4.55
807.376	6.13
807.55	5.8
807.725	6.8
807.899	7.85
808.074	7.21
808.248	5.85
808.422	5.87
808.597	6.04
808.771	7.81
808.946	10.81
809.12	12.3
809.294	11.03
809.468	9.78
809.643	8.17
809.817	8.89
809.991	7.75
810.166	5.78
810.34	3.7
810.514	5.6
810.688	5.79
810.862	3.63
811.037	5.72
811.211	6.14
811.385	7.92
811.559	6.67
811.733	6.14
811.907	3.65
812.081	4.85
812.255	3.06
812.429	1.68
812.603	0.15
812.777	-0.01
812.951	-0.43
813.125	0.5
813.299	0.04
813.473	-3.5
813.647	-1.74
813.821	0.18
813.995	1.89
814.169	-2.06
814.343	-2.41
814.516	1.61
814.69	0.97
814.864	-0.46
815.038	0.8
815.212	-0.57
815.385	-3.22
815.559	1.12
815.733	-0.68
815.907	0.83
816.08	4.16
816.254	0.44
816.428	-0.96
816.601	0.88
816.775	-0.14
816.948	-2.61
817.122	2.34
817.296	0.38
817.469	0.6
817.643	0.02
817.816	2.8
817.99	1.04
818.163	1.65
818.337	-0.01
818.51	0.27
818.684	4.85
818.857	4.08
819.031	2.49
819.204	1.83
819.377	3.76
819.551	-0.68
819.724	-2.22
819.897	3.69
820.071	3.65
820.244	-0.52
820.417	1.91
820.591	3.16
820.764	2.62
820.937	6.6
821.11	2.86
821.284	3.62
821.457	5.44
821.63	7.61
821.803	6.11
821.976	7.18
822.149	7.6
822.322	3.35
822.496	5.09
822.669	8.85
822.842	5.89
823.015	6.51
823.188	8.16
823.361	5.96
823.534	0.42
823.707	-0.62
823.88	1.88
824.053	-0.53
824.226	2.85
824.399	0.22
824.571	-1.38
824.744	-1.41
824.917	1.13
825.09	-2.37
825.263	-3.09
825.436	0.29
825.608	-2.97
825.781	-2.36
825.954	-1.25
826.127	-3.9
826.299	-6.71
826.472	-3.7
826.645	-4.77
826.818	-2.71
826.99	0.07
827.163	4.05
827.336	4.38
827.508	6.81
827.681	5.28
827.853	3.7
828.026	3.8
828.198	6.01
828.371	8.73
828.544	6.03
828.716	5.26
828.889	3.18
829.061	-1.43
829.233	1.16
829.406	-0.83
829.578	-4
829.751	-3.08
829.923	-0.93
830.096	-3.3
830.268	-2.17
830.44	-0.8
830.613	-3.33
830.785	-3.47
830.957	-8.53
831.129	-8.3
831.302	-4.71
831.474	-8.87
831.646	-4.88
831.818	-8.14
831.991	-9.09
832.163	-8.52
832.335	-7.82
832.507	-5.24
832.679	-5.72
832.851	-5.73
833.023	-6.18
833.195	-5.36
833.368	-7.15
833.54	-7.17
833.712	-7.07
833.884	-5.23
834.056	-8.64
834.228	-9.68
834.4	-9.41
834.571	-4.58
834.743	-6.6
834.915	-8.03
835.087	-4.37
835.259	-5.29
835.431	-8.29
835.603	-9.91
835.775	-11.02
835.946	-10.92
836.118	-9.4
836.29	-7.65
836.462	-13.35
836.634	-14.52
836.805	-16.08
836.977	-9.41
837.149	-7.32
837.32	-6.13
837.492	-7.87
837.664	-8.31
837.835	-5.71
838.007	-12.75
838.179	-12.23
838.35	-6.4
838.522	-3.26
838.693	-4.93
838.865	-10.41
839.036	-14.01
839.208	-8.6
839.379	-9.01
839.551	-8.18
839.722	-8.26
839.894	-13.4
840.065	-8.06
840.237	-5.14
840.408	-0.98
840.579	0.2
840.751	-3.44
840.922	-4.73
841.093	-7.78
841.265	-8.51
841.436	-7.26
841.607	-2.17
841.778	-3.01
841.95	-7.77
842.121	-9.63
842.292	-6.04
842.463	-4.4
842.635	4.01
842.806	1.66
842.977	1.64
843.148	-1.74
843.319	-5.81
843.49	-0.72
843.661	-6.58
843.832	-7.36
844.003	-12.98
844.174	-19.7
844.345	-16.34
844.516	-23.46
844.687	-24.71
844.858	-16.45
845.029	-16.09
845.2	-16.32
845.371	-16.8
845.542	-20.68
845.713	-26.27
845.884	-29.55
846.055	-36.26
846.225	-39.23
846.396	-44.16
846.567	-38.54
846.738	-38.71
846.909	-34
847.079	-31.62
847.25	-23.77
847.421	-26.6
847.591	-30.86
847.762	-30.08
847.933	-36.74
848.103	-24.78
848.274	-27.35
848.445	-32.54
848.615	-31.24
848.786	-38.93
848.956	-31.19
849.127	-21.98
849.297	-7.06
849.468	-2.36
849.638	3.14
849.809	1.3
849.979	0.64
850.15	-1.92
850.32	2.5
850.491	6.32
850.661	6.61
850.831	6.04
851.002	8.72
851.172	14.13
851.342	14.99
851.513	15.94
851.683	15.65
851.853	17.3
852.024	19.78
852.194	16.01
852.364	20.34
852.534	17.55
852.705	19.87
852.875	16.21
853.045	14.43
853.215	12.78
853.385	16.79
853.555	19.38
853.725	17.07
853.895	10.89
854.066	7.81
854.236	6.62
854.406	3.01
854.576	1.56
854.746	-1.05
854.916	-0.29
855.086	-3.29
855.256	-2.57
855.425	0.86
855.595	0.4
855.765	1.76
855.935	-4.3
856.105	-6.43
856.275	-9.22
856.445	-17.34
856.614	-20.09
856.784	-17.72
856.954	-22.24
857.124	-23.79
857.294	-22.98
857.463	-18.41
857.633	-16.44
857.803	-19.93
857.972	-18.66
858.142	-18.02
858.312	-15.05
858.481	-10.31
858.651	-11.11
858.821	-12.79
858.99	-12.77
859.16	-16.41
859.329	-9.33
859.499	-5.89
859.668	-4.6
859.838	-6.31
860.007	5.34
860.177	12.94
860.346	16.03
860.516	15.19
860.685	14.31
860.854	13.4
861.024	10.88
861.193	11.08
861.363	9.13
861.532	10.8
861.701	10.74
861.87	9.71
862.04	1.56
862.209	2.61
862.378	4.71
862.547	2.29
862.717	-0.7
862.886	-3.01
863.055	-0.81
863.224	1.74
863.393	0.07
863.563	-6.69
863.732	-10.66
863.901	-15.58
864.07	-10.44
864.239	-7.09
864.408	-7.25
864.577	-6.73
864.746	-5.05
864.915	1.29
865.084	4.05
865.253	3.77
865.422	4.08
865.591	6.95
865.76	5.45
865.929	1.46
866.097	3.74
866.266	10.13
866.435	7.46
866.604	-0.18
866.773	1.76
866.942	-4.73
867.11	-8.13
867.279	-2.86
867.448	9.35
867.617	9.18
867.785	9.47
867.954	7.09
868.123	9.58
868.291	-4.37
868.46	-2.36
868.629	8.61
868.797	12.03
868.966	0.62
869.134	-1.28
869.303	12.82
869.472	6.06
869.64	3.39
869.809	6.44
869.977	9.45
870.146	8.63
870.314	12.34
870.482	17.36
870.651	13.44
870.819	-0.34
870.988	-9.59
871.156	-13.7
871.324	-21.62
871.493	-26.57
871.661	-15.45
871.829	-3.53
871.998	-9.91
872.166	-25.48
872.334	-26.48
872.502	-3.7
872.671	-6.64
872.839	-7.6
873.007	1.39
873.175	0.42
873.343	-6.24
873.512	-4.45
873.68	5.48
873.848	-1.95
874.016	-3.11
874.184	2.41
874.352	6.48
874.52	19.04
874.688	17.95
874.856	26.46
875.024	31.87
875.192	23.13
875.36	15.34
875.528	14.31
875.696	17.1
875.864	16.22
876.032	7.57
876.199	6.74
876.367	7.46
876.535	3.29
876.703	9.65
876.871	19.72
877.039	27.65
877.206	24.48
877.374	21.31
877.542	24.69
877.71	23.08
877.877	27.35
878.045	20.1
878.213	19.03
878.38	15.07
878.548	21.61
878.715	31.58
878.883	38.61
879.051	37.13
879.218	20.42
879.386	16.78
879.553	15.17
879.721	21.49
879.888	22.55
880.056	26.95
880.223	16.89
880.391	5.56
880.558	-20.18
880.726	-2.47
880.893	-1.43
881.06	-2.94
881.228	-10.7
881.395	-7.85
881.562	3.92
881.73	-15.1
881.897	-28.89
882.064	-18.88
882.231	-40.7
882.399	-61.64
882.566	-52.08
882.733	-42.2
882.9	-79.4
883.068	-50.83
883.235	-47.12
883.402	-90.8
883.569	-57.26
883.736	-19.62
883.903	-16.73
884.07	-10.47
884.237	-32.09
884.404	-36.09
884.571	-43
884.738	-27.41
884.905	-22.91
885.072	-43.58
885.239	-12.96
885.406	2.84
