Data from Transmission_09-26-20-486.txt Node
Date: Fri Aug 24 09:26:20 EEST 2018
User: tibor.sos
Spectrometer: USB4F01757
Scans to average: 10
Trigger mode: 4
Integration Time (sec): 1.000000E-2
Electric dark correction enabled: true
Boxcar width: 10
XAxis mode: Wavelengths
Number of Pixels in Spectrum: 3648
>>>>>Begin Spectral Data<<<<<
178.758	-93.8
178.974	-353.44
179.191	-498.14
179.407	-157.43
179.624	-137.41
179.84	-135.96
180.057	-161.62
180.273	-104.8
180.489	-114.3
180.706	-229.63
180.922	-153.38
181.138	-91.83
181.355	5.9
181.571	47.43
181.787	40.24
182.004	75.49
182.22	97.79
182.436	59.66
182.653	44.08
182.869	22.07
183.085	14.12
183.301	60.1
183.518	66.81
183.734	81.63
183.95	97.88
184.166	112.7
184.383	110.49
184.599	114.94
184.815	68.88
185.031	59.97
185.247	92.15
185.463	89
185.68	91.33
185.896	79.92
186.112	128.09
186.328	139.7
186.544	132.99
186.76	122.78
186.976	129.53
187.192	150.48
187.408	167.45
187.624	192.8
187.84	132.99
188.056	111.17
188.272	99.22
188.488	92.98
188.704	100.64
188.92	139.37
189.136	110.19
189.352	155.58
189.568	202.28
189.784	213.18
190	202.46
190.216	205.86
190.432	216.74
190.648	209.96
190.864	444.89
191.08	365.22
191.296	186.73
191.511	194.36
191.727	240.55
191.943	292.86
192.159	180.45
192.375	209.82
192.591	291.81
192.806	408.71
193.022	261.7
193.238	484.51
193.454	305.63
193.669	445.11
193.885	393.21
194.101	402.95
194.317	141.65
194.532	308.99
194.748	-392.44
194.964	333.99
195.18	171.52
195.395	167.95
195.611	166.39
195.827	306.29
196.042	557.03
196.258	276.85
196.473	152.57
196.689	236.09
196.905	215.29
197.12	347.52
197.336	235.94
197.551	-247.45
197.767	71500
197.982	323.24
198.198	2650.68
198.414	2192.13
198.629	518.94
198.845	409.15
199.06	444.19
199.276	293.69
199.491	922.7
199.707	251.28
199.922	169.03
200.137	172.71
200.353	158.21
200.568	136.52
200.784	149.69
200.999	164.72
201.215	217.47
201.43	243.66
201.645	230.14
201.861	231.58
202.076	188.15
202.291	201.81
202.507	181.19
202.722	110.38
202.937	191.93
203.153	205.64
203.368	137.17
203.583	113.62
203.798	120.84
204.014	140.11
204.229	140.82
204.444	156.74
204.659	217.42
204.875	465.73
205.09	-1007.56
205.305	1658.49
205.52	-578.05
205.735	-607.78
205.951	3820
206.166	-42.28
206.381	-8.1
206.596	-710.91
206.811	-1.75
207.026	52.03
207.241	101.66
207.457	-85.05
207.672	5.79
207.887	75.7
208.102	89.56
208.317	90.16
208.532	-341.81
208.747	623.5
208.962	432.82
209.177	-800.67
209.392	-585.98
209.607	-159
209.822	-172.63
210.037	-140.94
210.252	-150.72
210.467	-268.46
210.682	-43.36
210.897	-44.61
211.112	-129.04
211.326	-58.91
211.541	-84.45
211.756	-24.52
211.971	-130.87
212.186	-138.63
212.401	-147.58
212.616	-131.97
212.831	-110.31
213.045	-177.47
213.26	-88.77
213.475	-79.84
213.69	-97.91
213.905	-114.34
214.119	-642.99
214.334	4803.7
214.549	458.7
214.764	-748.7
214.978	-318.43
215.193	-332.41
215.408	2423.08
215.622	-329.43
215.837	-2171.11
216.052	870.11
216.266	251.39
216.481	208.27
216.696	42.72
216.91	1912.12
217.125	282.98
217.34	758.03
217.554	780
217.769	-199.3
217.983	-38.9
218.198	-192.93
218.412	-282.64
218.627	337.42
218.842	191.59
219.056	109.43
219.271	112.3
219.485	95.77
219.7	100.3
219.914	134.57
220.129	271.48
220.343	156.74
220.558	36.34
220.772	74.79
220.986	116.51
221.201	40.04
221.415	136.9
221.63	125.62
221.844	141.81
222.058	149.67
222.273	127.32
222.487	105.56
222.702	192.94
222.916	174.02
223.13	143.17
223.344	148.46
223.559	118.73
223.773	125.11
223.987	129.33
224.202	164.36
224.416	281.8
224.63	219.27
224.844	192.09
225.059	109.22
225.273	295.96
225.487	-23.2
225.701	96.11
225.915	77.87
226.13	87.71
226.344	102.17
226.558	112.12
226.772	104.26
226.986	89.95
227.2	110.59
227.415	116.55
227.629	155.16
227.843	166.58
228.057	142.78
228.271	130.76
228.485	145.2
228.699	176.51
228.913	225.47
229.127	204.39
229.341	207.68
229.555	266.8
229.769	369.01
229.983	378.92
230.197	317.29
230.411	448.06
230.625	417.36
230.839	312.31
231.053	447.48
231.267	850.26
231.481	698.12
231.695	554.65
231.909	276.06
232.122	144.66
232.336	177.49
232.55	199.11
232.764	234.9
232.978	206.15
233.192	244.77
233.405	75.08
233.619	159.96
233.833	85.44
234.047	97.31
234.261	110.73
234.474	116.76
234.688	-193.02
234.902	-115.24
235.116	-92.24
235.329	-32.22
235.543	-67.65
235.757	2.84
235.97	19.96
236.184	43.1
236.398	47.03
236.612	51.96
236.825	90.15
237.039	146.25
237.252	114.87
237.466	338.1
237.68	862.71
237.893	-53700
238.107	-221.74
238.32	435.65
238.534	2.64
238.748	6.9
238.961	9.48
239.175	20.55
239.388	-25.47
239.602	-186.8
239.815	-94.68
240.029	-247.15
240.242	-148.19
240.456	-91.38
240.669	-72.16
240.882	-62.78
241.096	-199.83
241.309	-133.77
241.523	-108.5
241.736	-324.26
241.95	818.44
242.163	-1372.18
242.376	-392.27
242.59	-1668
242.803	15926.67
243.016	881.27
243.23	1970.59
243.443	17100
243.656	-2042.86
243.87	-340.12
244.083	-146.06
244.296	-109.42
244.509	-76.36
244.723	-93
244.936	-64
245.149	-177.22
245.362	-206.04
245.576	-91.49
245.789	-70.73
246.002	-55.73
246.215	-32.5
246.428	-13.27
246.641	-0.73
246.855	-15.95
247.068	-67.44
247.281	-76.56
247.494	-9.92
247.707	-40.94
247.92	-47.1
248.133	-56.17
248.346	-71.44
248.559	-31.94
248.772	-71.78
248.985	-24.59
249.198	-2.26
249.411	-14.65
249.624	11.46
249.837	21.1
250.05	24.25
250.263	13.97
250.476	5.19
250.689	14.42
250.902	7.61
251.115	-1.42
251.328	14.46
251.541	28.54
251.754	39.05
251.967	40.57
252.18	33.79
252.393	40.88
252.605	51.76
252.818	53.41
253.031	41.44
253.244	48.68
253.457	36.25
253.67	36.03
253.882	41.42
254.095	43.06
254.308	41.37
254.521	36.46
254.733	30.9
254.946	29.62
255.159	21.84
255.372	23.85
255.584	23.75
255.797	21.33
256.01	17.38
256.222	11.26
256.435	-3.87
256.648	8.84
256.86	5.1
257.073	1.22
257.285	-7.63
257.498	-15.48
257.711	-18.64
257.923	-12.17
258.136	-9.07
258.348	-7.72
258.561	-20.42
258.773	-36.5
258.986	-60.16
259.198	-71.98
259.411	-96.49
259.623	-52.74
259.836	-49.23
260.048	-40.05
260.261	-14.06
260.473	-9.94
260.686	-2.77
260.898	2.02
261.111	-1.88
261.323	0.96
261.535	7.51
261.748	11.29
261.96	22.92
262.173	29.92
262.385	40.67
262.597	36.09
262.81	37.64
263.022	31.17
263.234	38.23
263.447	44.79
263.659	50.97
263.871	50.6
264.083	47.91
264.296	49.69
264.508	48.03
264.72	39.6
264.932	35.67
265.145	26.36
265.357	29.64
265.569	24.56
265.781	32.51
265.993	38.65
266.205	50.23
266.418	18.03
266.63	-1.78
266.842	-9.08
267.054	-0.2
267.266	-0.88
267.478	10.33
267.69	8.51
267.902	0.23
268.114	-18.89
268.326	-25.63
268.538	-23.79
268.75	-14.26
268.962	-8.03
269.174	-2.85
269.386	20.12
269.598	34.18
269.81	32.39
270.022	27.75
270.234	20.65
270.446	20.24
270.658	17.36
270.87	27.52
271.082	32.59
271.294	34.35
271.506	31.25
271.718	30.62
271.929	32.36
272.141	39.34
272.353	39.09
272.565	39.62
272.777	42.3
272.989	40.87
273.2	41.6
273.412	40.36
273.624	45.69
273.836	41.18
274.047	42.31
274.259	41.74
274.471	49.79
274.683	47.4
274.894	47.74
275.106	49.71
275.318	45.26
275.529	41.16
275.741	31.13
275.953	36.71
276.164	40.91
276.376	41.89
276.588	35.72
276.799	39.66
277.011	42.35
277.222	47.76
277.434	45.98
277.646	42.61
277.857	47.75
278.069	44.58
278.28	43.96
278.492	31.04
278.703	22.74
278.915	19.8
279.126	25.9
279.338	30.42
279.549	28.31
279.761	29.87
279.972	29.89
280.183	32
280.395	30.52
280.606	21.21
280.818	17.73
281.029	25.72
281.24	25.11
281.452	23.49
281.663	22.22
281.875	21.66
282.086	26.62
282.297	22.05
282.508	16.3
282.72	21.12
282.931	29.11
283.142	34.74
283.354	32.06
283.565	27.6
283.776	26.26
283.987	19.86
284.199	20.2
284.41	33
284.621	43.65
284.832	40.8
285.043	43.55
285.254	33.33
285.466	26.37
285.677	22.36
285.888	24.34
286.099	16.1
286.31	21.51
286.521	1.78
286.732	1.48
286.943	11.64
287.154	9.49
287.366	5.35
287.577	10.04
287.788	14.22
287.999	11.31
288.21	-1.59
288.421	8.92
288.632	6.26
288.843	-0.71
289.054	0.86
289.264	-0.12
289.475	-5.52
289.686	10.37
289.897	4.95
290.108	11.16
290.319	3.49
290.53	9.53
290.741	3.89
290.952	11.48
291.163	14.19
291.373	8.56
291.584	11.71
291.795	12.56
292.006	8.02
292.217	10.99
292.427	20.95
292.638	28.81
292.849	26.87
293.06	30.6
293.27	32.61
293.481	28.01
293.692	30.29
293.903	38.28
294.113	36.1
294.324	40.76
294.535	31.43
294.745	35.61
294.956	32.35
295.167	31.59
295.377	39.06
295.588	39.48
295.798	41.47
296.009	29.66
296.22	31.81
296.43	30.06
296.641	25.5
296.851	12.78
297.062	7.81
297.272	2.27
297.483	-0.83
297.693	-4.61
297.904	-1.29
298.114	2.16
298.325	1.48
298.535	-7.23
298.746	-8.08
298.956	-4.33
299.167	-0.73
299.377	1.54
299.587	6.37
299.798	0.73
300.008	-3.88
300.219	-4.84
300.429	5.83
300.639	-1.01
300.85	2.06
301.06	1.56
301.27	10.42
301.481	11.51
301.691	12.29
301.901	10.71
302.111	12.52
302.322	12.89
302.532	8.61
302.742	4.3
302.952	7.6
303.163	1.6
303.373	-0.94
303.583	-5.1
303.793	-6.24
304.003	-0.26
304.214	8.61
304.424	9.06
304.634	7.99
304.844	7.23
305.054	14.54
305.264	8.51
305.474	11.8
305.684	11.25
305.894	17.47
306.104	23.77
306.314	22.97
306.525	22.9
306.735	15.77
306.945	9.09
307.155	7.3
307.365	14.98
307.575	20.68
307.784	22.18
307.994	23.32
308.204	18.19
308.414	20.84
308.624	14.32
308.834	16.56
309.044	15.44
309.254	20.46
309.464	21.45
309.674	19.76
309.884	15.26
310.093	13.1
310.303	10.32
310.513	15.22
310.723	20.94
310.933	20.02
311.142	24.22
311.352	25.64
311.562	29.29
311.772	25.01
311.981	25.59
312.191	24.3
312.401	24.49
312.611	28
312.82	22.95
313.03	23.73
313.24	20.88
313.449	23.44
313.659	18.32
313.869	10.49
314.078	17.04
314.288	20.17
314.497	19.69
314.707	21.97
314.917	19.61
315.126	20.69
315.336	25.98
315.545	20.45
315.755	25.92
315.964	22.08
316.174	22.49
316.383	19.11
316.593	20.67
316.802	16.07
317.012	18.28
317.221	23.66
317.431	21.26
317.64	23.56
317.849	18.15
318.059	16.87
318.268	22.53
318.478	22.04
318.687	19.08
318.896	18.51
319.106	14.31
319.315	11.91
319.524	0.33
319.734	-9.2
319.943	-4.55
320.152	-9.53
320.362	-11.53
320.571	-11.32
320.78	-10.3
320.989	-4.33
321.199	1.8
321.408	0.75
321.617	-4.03
321.826	-2.08
322.035	-6.66
322.245	0.5
322.454	2.01
322.663	-2.17
322.872	-3.42
323.081	-8.22
323.29	-5.37
323.5	-4.45
323.709	-7.09
323.918	-1.4
324.127	-2.68
324.336	-11.16
324.545	-11.35
324.754	-10.13
324.963	-9.27
325.172	-5.24
325.381	-10.81
325.59	-15.76
325.799	-15.95
326.008	-22.07
326.217	-26.65
326.426	-20.39
326.635	-23.34
326.844	-26.33
327.053	-11.16
327.262	-9.9
327.47	-5.85
327.679	-5.34
327.888	-8.78
328.097	-3.98
328.306	4.68
328.515	8.04
328.724	19.46
328.932	13.06
329.141	14.65
329.35	12.16
329.559	3.49
329.768	3.55
329.976	6.78
330.185	-2.15
330.394	5.2
330.602	10.92
330.811	7.93
331.02	6.93
331.229	9.63
331.437	7.68
331.646	3.1
331.855	7.75
332.063	6.53
332.272	14.27
332.48	9.75
332.689	1.59
332.898	1.35
333.106	-7.22
333.315	-0.48
333.523	-6.12
333.732	-9.08
333.94	-3.6
334.149	0.25
334.357	-1.76
334.566	4.37
334.774	-4.69
334.983	-6.66
335.191	-12.54
335.4	-17.6
335.608	-24.25
335.817	-38.59
336.025	-31.41
336.234	-52.62
336.442	-41.8
336.65	-45.64
336.859	-28.96
337.067	-29.56
337.275	-19.24
337.484	-12.98
337.692	-8.77
337.9	3.58
338.109	13.36
338.317	14.58
338.525	17.32
338.734	19.48
338.942	18.14
339.15	20.87
339.358	13.13
339.567	23.72
339.775	31.31
339.983	39.28
340.191	34.59
340.399	34.4
340.608	45.12
340.816	47.9
341.024	42.4
341.232	40.83
341.44	39.32
341.648	34.92
341.856	35.77
342.064	37.27
342.272	32.71
342.481	30.55
342.689	28.49
342.897	22.28
343.105	23.82
343.313	31.36
343.521	32.48
343.729	32.08
343.937	26.46
344.145	25.77
344.353	30.3
344.56	31.61
344.768	28.52
344.976	22.51
345.184	14.01
345.392	18.22
345.6	25.14
345.808	23.78
346.016	21.24
346.224	24.03
346.431	27.27
346.639	28.06
346.847	31.75
347.055	29.09
347.263	31.96
347.471	27
347.678	28.02
347.886	26.44
348.094	35.81
348.302	40.79
348.509	34.43
348.717	28.5
348.925	36.56
349.132	35.74
349.34	33.92
349.548	34.83
349.755	36.18
349.963	27.05
350.171	19.53
350.378	20.34
350.586	14.3
350.793	11.32
351.001	11
351.209	8.72
351.416	17.26
351.624	18.85
351.831	13.53
352.039	9.13
352.246	3.29
352.454	-13.68
352.661	-18.86
352.869	-19.21
353.076	-27.24
353.284	-27.11
353.491	-18.43
353.699	-18
353.906	-12.03
354.113	-9.89
354.321	-11.96
354.528	-4.03
354.736	-8.92
354.943	-2.51
355.15	-5.09
355.358	-14.49
355.565	-21.46
355.772	-30.05
355.98	-23.69
356.187	-18.72
356.394	-23.25
356.601	-14.75
356.809	-4.04
357.016	4.97
357.223	4.61
357.43	2.65
357.638	-0.53
357.845	-0.77
358.052	-6.79
358.259	-9.21
358.466	-11.33
358.673	-4.96
358.881	-7.58
359.088	-8.21
359.295	-4.56
359.502	-13.38
359.709	-5.27
359.916	-8.48
360.123	-5.31
360.33	-19.46
360.537	-15.14
360.744	-13.12
360.951	-19.36
361.158	-21.65
361.365	-26.47
361.572	-18.92
361.779	-11.36
361.986	-9.87
362.193	-9.3
362.4	-1.72
362.607	-10.73
362.814	-11.86
363.021	-10.89
363.228	-13.18
363.435	-5.55
363.641	-10.94
363.848	-4.35
364.055	-1.14
364.262	3.05
364.469	-7.62
364.676	2.3
364.882	4.1
365.089	2.88
365.296	12.75
365.503	12.13
365.709	6.29
365.916	8.09
366.123	10.65
366.33	4.43
366.536	3.52
366.743	1.92
366.95	1.22
367.156	3.09
367.363	4.09
367.57	3.29
367.776	-1.69
367.983	3.39
368.19	-1.46
368.396	-4.14
368.603	-11.62
368.809	-0.12
369.016	-4.41
369.222	-6.34
369.429	3.2
369.635	-0.96
369.842	-2.22
370.048	3.46
370.255	6.63
370.461	5.38
370.668	15.82
370.874	17.12
371.081	16.39
371.287	23.9
371.494	21.55
371.7	18.33
371.906	17.32
372.113	19.8
372.319	19.94
372.526	25.8
372.732	27.19
372.938	32.65
373.145	29.09
373.351	29.46
373.557	29.95
373.763	27.75
373.97	27.51
374.176	33.45
374.382	28.48
374.588	29.6
374.795	27.1
375.001	18.31
375.207	14.03
375.413	19.16
375.62	16.86
375.826	17.52
376.032	25.51
376.238	27.82
376.444	27.15
376.65	20.6
376.856	22.92
377.062	24.49
377.269	31.24
377.475	34.12
377.681	33.36
377.887	30.2
378.093	26.48
378.299	32.32
378.505	25.01
378.711	31.83
378.917	17.4
379.123	17.38
379.329	19.47
379.535	17.2
379.741	20.33
379.947	21.17
380.152	27.35
380.358	22.62
380.564	17.8
380.77	16.34
380.976	20.57
381.182	17.78
381.388	22.85
381.594	14.31
381.799	16.4
382.005	21.55
382.211	25.3
382.417	28.13
382.623	15.44
382.828	18.69
383.034	15.4
383.24	23.45
383.445	26.19
383.651	22.33
383.857	24.67
384.063	16.77
384.268	15.74
384.474	21.16
384.68	27.3
384.885	39.1
385.091	35.57
385.296	38.38
385.502	42.52
385.708	33.48
385.913	50.54
386.119	44.57
386.324	38.5
386.53	35.9
386.735	29.75
386.941	42.32
387.146	48.25
387.352	51.46
387.557	47.99
387.763	51.07
387.968	46.67
388.174	48.42
388.379	58.69
388.585	50.69
388.79	37.82
388.996	30.91
389.201	30.85
389.406	28.03
389.612	21.3
389.817	19.62
390.022	32.51
390.228	26.58
390.433	31.96
390.638	26.9
390.844	33.01
391.049	34.87
391.254	39.96
391.459	32.35
391.665	25.86
391.87	24.14
392.075	31.82
392.28	34.75
392.485	27.78
392.691	27.39
392.896	27.75
393.101	24.2
393.306	29.15
393.511	28.17
393.716	35.21
393.922	30.58
394.127	21.16
394.332	24.34
394.537	22.39
394.742	23.38
394.947	26.2
395.152	24.33
395.357	21.34
395.562	14.5
395.767	6.8
395.972	16.13
396.177	18.62
396.382	11.96
396.587	12.85
396.792	20.51
396.997	18.11
397.202	21.52
397.407	22.67
397.611	20.85
397.816	20.88
398.021	18.51
398.226	19.74
398.431	29.16
398.636	19.54
398.841	20.51
399.045	21.92
399.25	17.82
399.455	10.8
399.66	12.51
399.864	15.07
400.069	19.56
400.274	14.85
400.479	17.03
400.683	13.17
400.888	10.27
401.093	0.73
401.297	6.02
401.502	1.36
401.707	1.53
401.911	10.78
402.116	10.52
402.321	16.07
402.525	20.14
402.73	13.02
402.934	12.48
403.139	13.41
403.344	7.46
403.548	15.72
403.753	16.93
403.957	9.29
404.162	3.04
404.366	7.61
404.571	8.11
404.775	0.31
404.98	-0.77
405.184	11.14
405.388	22.08
405.593	8.84
405.797	8.65
406.002	14.09
406.206	-1.73
406.41	2.87
406.615	8.84
406.819	6.46
407.023	10.87
407.228	12.92
407.432	4.2
407.636	1.78
407.841	5.68
408.045	12.35
408.249	18.18
408.453	24.03
408.658	20.29
408.862	25.6
409.066	15.33
409.27	14.94
409.474	11.49
409.679	0.53
409.883	4.51
410.087	-5.26
410.291	-5.71
410.495	6.93
410.699	-0.85
410.903	-9.89
411.108	1.94
411.312	-14.03
411.516	-24.48
411.72	-22.1
411.924	-19.41
412.128	-23.98
412.332	-34.32
412.536	-27.57
412.74	-22.04
412.944	-15.86
413.148	-28.78
413.352	-16.08
413.556	-6.22
413.76	-8.43
413.964	5.85
414.167	17.63
414.371	32.72
414.575	32.39
414.779	30.32
414.983	36.81
415.187	38.07
415.391	25.46
415.594	34.46
415.798	27.44
416.002	32.74
416.206	34.87
416.41	40.26
416.613	47.49
416.817	36.75
417.021	38.17
417.225	41.12
417.428	46.69
417.632	37.86
417.836	30.91
418.039	29.16
418.243	26.53
418.447	6.08
418.65	-3.48
418.854	1.06
419.057	7.65
419.261	-7.1
419.465	-13.87
419.668	2.9
419.872	5.62
420.075	11.01
420.279	19.5
420.482	19.96
420.686	18.68
420.889	18.28
421.093	31.94
421.296	27.86
421.5	23.38
421.703	17.08
421.907	23.32
422.11	19.99
422.314	23.37
422.517	22.72
422.72	38.4
422.924	34.95
423.127	30.2
423.33	32.12
423.534	47.01
423.737	49.27
423.94	43.7
424.144	38.99
424.347	39.07
424.55	32.76
424.754	34.88
424.957	34.86
425.16	31.35
425.363	21.35
425.567	24.48
425.77	22.23
425.973	25.86
426.176	11.41
426.379	22.38
426.582	31.07
426.786	36.86
426.989	31.03
427.192	43.01
427.395	41.74
427.598	34.14
427.801	30.97
428.004	24.21
428.207	23.69
428.41	21.44
428.613	22.5
428.816	27.92
429.019	29.19
429.222	17.13
429.425	20.26
429.628	20.7
429.831	16.46
430.034	18.16
430.237	17.54
430.44	23.07
430.643	17.15
430.846	12.55
431.049	5.32
431.252	9.09
431.454	4.63
431.657	2.24
431.86	5.5
432.063	8.07
432.266	5.91
432.469	7.43
432.671	4.92
432.874	5.66
433.077	-1.86
433.28	4.47
433.482	18.94
433.685	12.61
433.888	11.66
434.09	16.14
434.293	7.15
434.496	15.13
434.698	16.12
434.901	19.73
435.104	15.36
435.306	19.66
435.509	18.29
435.712	21.24
435.914	10.56
436.117	13.75
436.319	9
436.522	13.95
436.724	3.32
436.927	1.8
437.129	6.48
437.332	10.2
437.534	2.93
437.737	-11.66
437.939	-2.75
438.142	-3.71
438.344	-11.15
438.547	-13.86
438.749	-6.39
438.951	-7.19
439.154	-3.66
439.356	0.3
439.558	-2.32
439.761	-3.55
439.963	-5.16
440.165	5.67
440.368	1.96
440.57	-3.8
440.772	-11.78
440.975	-4.8
441.177	2.26
441.379	-9.73
441.581	-1.13
441.784	-2.74
441.986	11.97
442.188	0.17
442.39	2.74
442.592	3.13
442.795	9.65
442.997	4.59
443.199	11.65
443.401	5.85
443.603	2.06
443.805	0.99
444.007	9.29
444.209	-1.79
444.411	5.74
444.613	5.65
444.815	11.6
445.017	16.86
445.219	22.84
445.421	24.42
445.623	23.66
445.825	19.48
446.027	21.64
446.229	15.26
446.431	24.02
446.633	20.39
446.835	20.32
447.037	21.34
447.239	15.18
447.441	14.99
447.643	13.29
447.844	8.59
448.046	10.72
448.248	7.44
448.45	32.67
448.652	22.75
448.853	35.84
449.055	29.68
449.257	31.34
449.459	30.79
449.66	38.84
449.862	45.94
450.064	47.34
450.266	43.98
450.467	42.93
450.669	56.01
450.871	59.31
451.072	71.04
451.274	79.25
451.475	77.62
451.677	68.14
451.879	85.02
452.08	75.06
452.282	67.58
452.483	74.83
452.685	57.08
452.886	55.19
453.088	37.12
453.289	33.2
453.491	19.68
453.692	-1.11
453.894	-11.03
454.095	-3.46
454.297	-18.61
454.498	-19.86
454.7	-20.47
454.901	-22.84
455.102	-8.33
455.304	-11.91
455.505	-6.64
455.706	-8.57
455.908	-13.74
456.109	-12.91
456.31	1.79
456.512	-12.62
456.713	-5.58
456.914	-5.92
457.116	-13.07
457.317	-4.8
457.518	-1.25
457.719	6.72
457.921	18.05
458.122	15.59
458.323	12.95
458.524	24.18
458.725	24.85
458.926	23.01
459.128	17.02
459.329	12.02
459.53	12.58
459.731	4.24
459.932	-1.32
460.133	-3.83
460.334	2.21
460.535	-1.38
460.736	11.07
460.937	5.4
461.138	1.21
461.339	15.37
461.54	12.46
461.741	8.36
461.942	1.95
462.143	5.96
462.344	-1.51
462.545	-2.96
462.746	-12.98
462.947	-13.75
463.148	-9.29
463.348	-0.62
463.549	0.81
463.75	-0.92
463.951	4.05
464.152	3.33
464.353	9.62
464.553	9.99
464.754	15.92
464.955	15.22
465.156	18.06
465.356	17.64
465.557	11
465.758	10.1
465.959	18.31
466.159	16.18
466.36	14.75
466.561	18.65
466.761	21.32
466.962	25.05
467.163	29.23
467.363	26.41
467.564	28.21
467.764	28.99
467.965	26.33
468.166	23.62
468.366	23.94
468.567	23.44
468.767	25.51
468.968	22.19
469.168	18.47
469.369	9.86
469.569	7.18
469.77	3.65
469.97	2.18
470.17	3.62
470.371	6.26
470.571	-0.24
470.772	1.23
470.972	-0.62
471.172	2.3
471.373	-1.28
471.573	0.67
471.773	-5.35
471.974	-6.31
472.174	-8.32
472.374	0.39
472.575	5.04
472.775	6.82
472.975	1.92
473.175	6.04
473.376	8.59
473.576	13.26
473.776	22.37
473.976	28.34
474.177	34.63
474.377	30.94
474.577	29.21
474.777	28.02
474.977	30.22
475.177	25.05
475.377	26.07
475.577	26.17
475.777	26.62
475.978	29.23
476.178	27.3
476.378	28.78
476.578	33.15
476.778	24.62
476.978	21.29
477.178	24.9
477.378	19.51
477.578	19.12
477.778	14.66
477.977	13.22
478.177	7.67
478.377	0.03
478.577	1.65
478.777	9.4
478.977	7.6
479.177	6.47
479.377	5.52
479.577	-1.4
479.776	0.7
479.976	-1.13
480.176	-0.41
480.376	2.13
480.576	4.81
480.775	-8.91
480.975	0.99
481.175	4.4
481.374	2.5
481.574	9.53
481.774	9.52
481.974	13.34
482.173	10.09
482.373	4.39
482.572	10.63
482.772	8.45
482.972	2.73
483.171	5.3
483.371	10.92
483.57	13.99
483.77	16.47
483.97	16.22
484.169	16.58
484.369	16.81
484.568	14.8
484.768	16.85
484.967	24.99
485.167	22.8
485.366	18.47
485.566	13.74
485.765	11.13
485.964	8.53
486.164	10.04
486.363	9.05
486.563	17.38
486.762	15.35
486.961	15.97
487.161	16.84
487.36	15.79
487.559	13.52
487.759	7.36
487.958	2.49
488.157	-3.15
488.356	3.46
488.556	-0.19
488.755	0.76
488.954	-2.57
489.153	-1.93
489.353	-1.2
489.552	3.68
489.751	6.53
489.95	7.1
490.149	6.64
490.348	6.12
490.548	11.23
490.747	7.09
490.946	8.6
491.145	9.97
491.344	5.35
491.543	6.69
491.742	5.58
491.941	8.87
492.14	13.08
492.339	15
492.538	11.03
492.737	16.41
492.936	13.92
493.135	11.55
493.334	1.69
493.533	-0.26
493.732	1.42
493.931	10.09
494.13	5.98
494.328	8.51
494.527	6.53
494.726	-1.15
494.925	-0.7
495.124	2.55
495.323	4.12
495.521	6.07
495.72	6.94
495.919	8.72
496.118	9.57
496.316	6.36
496.515	6.1
496.714	3.21
496.913	4.31
497.111	8.33
497.31	5.56
497.509	10.75
497.707	12.62
497.906	16.39
498.105	9.24
498.303	11.36
498.502	13.85
498.7	17.96
498.899	17.35
499.097	19.99
499.296	17.17
499.495	16.77
499.693	22.95
499.892	23.32
500.09	22.25
500.289	25
500.487	24.41
500.686	28.99
500.884	28.49
501.082	28.68
501.281	28.48
501.479	33.98
501.678	33.15
501.876	29.77
502.074	28.01
502.273	24.56
502.471	24.09
502.669	22.3
502.868	16.9
503.066	21.36
503.264	20.89
503.463	17.75
503.661	12.49
503.859	8.32
504.057	11.07
504.256	11.53
504.454	8.19
504.652	7.2
504.85	5.96
505.048	9.15
505.246	6.97
505.445	5.8
505.643	3.72
505.841	3.41
506.039	2.81
506.237	-2.2
506.435	2.63
506.633	1.18
506.831	5.29
507.029	4.9
507.227	5.02
507.425	7.56
507.623	11.07
507.821	12.62
508.019	15.18
508.217	13.19
508.415	14.49
508.613	13.54
508.811	18.03
509.009	16.74
509.207	15.99
509.405	15.04
509.603	15.05
509.8	14.28
509.998	13.44
510.196	12.87
510.394	13.49
510.592	14.75
510.79	16.98
510.987	8.36
511.185	12.33
511.383	9.92
511.581	5.81
511.778	9.13
511.976	11.35
512.174	8.09
512.371	8.96
512.569	3.67
512.767	4.8
512.964	0.05
513.162	1.39
513.36	-4.43
513.557	-6.14
513.755	-7.79
513.952	-4.84
514.15	-9.36
514.348	-4.42
514.545	-5.69
514.743	-6.15
514.94	-4.8
515.138	-2.55
515.335	-2.27
515.533	-1.99
515.73	2.38
515.927	-0.8
516.125	-2.16
516.322	2.16
516.52	-0.85
516.717	5.78
516.915	4.82
517.112	6.76
517.309	5.13
517.507	11.23
517.704	11.96
517.901	13.44
518.099	10.11
518.296	14.63
518.493	15.77
518.69	16.63
518.888	17.77
519.085	16.58
519.282	22.13
519.479	19.49
519.676	17.08
519.874	11.77
520.071	9.35
520.268	13.16
520.465	12.63
520.662	14.64
520.859	12.39
521.056	13.15
521.254	16.81
521.451	18.35
521.648	17.21
521.845	16.15
522.042	17.18
522.239	20.07
522.436	17.7
522.633	15.04
522.83	19.12
523.027	15.8
523.224	17.16
523.421	11.69
523.618	12.87
523.815	18.31
524.011	20.06
524.208	23.06
524.405	19.46
524.602	18.17
524.799	13.79
524.996	10.96
525.193	12.34
525.389	6.11
525.586	7.84
525.783	4.38
525.98	9.38
526.176	8.61
526.373	7.54
526.57	11.06
526.767	7.76
526.963	3.2
527.16	4.95
527.357	6
527.553	6.74
527.75	7.75
527.947	1.21
528.143	6.2
528.34	4.65
528.537	8.48
528.733	9.38
528.93	11.22
529.126	13.93
529.323	11.19
529.519	11
529.716	9.34
529.912	11.07
530.109	10.65
530.305	6.89
530.502	6.55
530.698	6.83
530.895	6.64
531.091	9.88
531.288	7.22
531.484	4.09
531.68	3.96
531.877	5.21
532.073	10.61
532.269	9.09
532.466	8.48
532.662	6.07
532.858	5.58
533.055	6.55
533.251	7.47
533.447	8.33
533.643	12.35
533.84	13.68
534.036	15.7
534.232	15.06
534.428	14.76
534.624	16.4
534.821	17.19
535.017	18.62
535.213	15.73
535.409	18.23
535.605	19.87
535.801	22.06
535.997	20.58
536.193	15.18
536.389	14.98
536.586	14.99
536.782	17.34
536.978	16.81
537.174	18.96
537.37	16.74
537.566	17.83
537.762	15.33
537.958	14.94
538.153	10.45
538.349	7.4
538.545	9.22
538.741	8.55
538.937	3.5
539.133	4.71
539.329	6.33
539.525	6.35
539.721	8.29
539.916	6.07
540.112	6.4
540.308	8.68
540.504	8.48
540.699	9.51
540.895	6.62
541.091	9.62
541.287	8.94
541.482	7.13
541.678	7.54
541.874	7.08
542.069	6.36
542.265	10.61
542.461	11.81
542.656	13.2
542.852	10.68
543.048	13.17
543.243	12.25
543.439	15.34
543.634	14.8
543.83	13.91
544.025	15.06
544.221	13.68
544.417	16.97
544.612	18.01
544.807	16.84
545.003	18.19
545.198	14.49
545.394	12.87
545.589	17.49
545.785	16.47
545.98	16.4
546.176	16.46
546.371	13.99
546.566	15.3
546.762	12.22
546.957	15
547.152	14.3
547.348	13
547.543	13.65
547.738	10.57
547.933	9.04
548.129	7.48
548.324	4.95
548.519	0.85
548.714	-1.72
548.91	0.52
549.105	-2.07
549.3	0.86
549.495	2.3
549.69	-0.68
549.885	-3.07
550.08	1.19
550.276	1.93
550.471	5.42
550.666	4.07
550.861	7.06
551.056	5.02
551.251	7.18
551.446	13.82
551.641	10.51
551.836	13.88
552.031	14.03
552.226	14.72
552.421	18.03
552.616	20.51
552.811	22.48
553.006	20.69
553.201	19.66
553.395	18.13
553.59	18.06
553.785	18
553.98	19.32
554.175	13.96
554.37	12.62
554.565	12.25
554.759	10.87
554.954	10.11
555.149	10.22
555.344	7.24
555.538	3.57
555.733	4.21
555.928	6.94
556.122	6.66
556.317	5.81
556.512	4.57
556.706	4.59
556.901	5.94
557.096	7.57
557.29	10.7
557.485	12.19
557.68	10.85
557.874	9.37
558.069	9.03
558.263	11.53
558.458	14.05
558.652	12.78
558.847	14.61
559.041	15.74
559.236	15.23
559.43	15.14
559.625	13.08
559.819	12.96
560.014	10.96
560.208	10.32
560.402	11.94
560.597	13.23
560.791	11.61
560.986	11.35
561.18	12.38
561.374	11.86
561.569	8.86
561.763	10.26
561.957	8.16
562.151	7.61
562.346	8.01
562.54	6.76
562.734	6.67
562.928	5.51
563.123	8.05
563.317	9.21
563.511	10.43
563.705	11.38
563.899	12.19
564.093	12.9
564.288	15.15
564.482	16.42
564.676	18.87
564.87	22.97
565.064	19.49
565.258	18.42
565.452	17.45
565.646	19.72
565.84	16.6
566.034	20.44
566.228	20.38
566.422	20.36
566.616	21.18
566.81	21.26
567.004	22.28
567.198	18.7
567.392	16.81
567.586	15.65
567.779	16.88
567.973	14.44
568.167	14.26
568.361	12.49
568.555	10.56
568.749	9.99
568.942	6.94
569.136	12.8
569.33	10.38
569.524	11.16
569.718	11.66
569.911	13.82
570.105	13.43
570.299	14.2
570.492	13.67
570.686	13.12
570.88	13.12
571.073	11.86
571.267	12.89
571.461	13.83
571.654	15.73
571.848	15.62
572.041	16.91
572.235	16.22
572.429	17.12
572.622	15.87
572.816	14.88
573.009	14.91
573.203	11.51
573.396	12.77
573.59	13.79
573.783	13.3
573.976	12.82
574.17	13.3
574.363	12.38
574.557	10.06
574.75	8.28
574.943	9.43
575.137	11.78
575.33	12.12
575.523	11.9
575.717	9.67
575.91	7.5
576.103	6.79
576.297	5.43
576.49	5.36
576.683	5.23
576.876	4.24
577.07	2.29
577.263	3.81
577.456	3.15
577.649	2.92
577.842	4.08
578.036	3.77
578.229	3.35
578.422	4.16
578.615	5.77
578.808	5.98
579.001	6.64
579.194	4.6
579.387	5.04
579.58	4.63
579.773	5.98
579.966	7.72
580.159	7.13
580.352	8.44
580.545	8.47
580.738	8.4
580.931	8.23
581.124	9.73
581.317	6.5
581.51	5.68
581.703	5.21
581.896	3.74
582.088	5.39
582.281	5.96
582.474	5.32
582.667	7.06
582.86	6.55
583.053	4.94
583.245	5.88
583.438	5.45
583.631	7.29
583.824	7.26
584.016	6.52
584.209	6.07
584.402	7.01
584.594	7.14
584.787	7.58
584.98	8.89
585.172	9.43
585.365	10.2
585.558	12.01
585.75	12.36
585.943	12.42
586.135	11.65
586.328	10.4
586.52	12.09
586.713	12.47
586.906	15.01
587.098	14.79
587.291	15.72
587.483	13.55
587.675	13.8
587.868	12.3
588.06	11.77
588.253	15.19
588.445	14.35
588.638	13.05
588.83	14.36
589.022	12.91
589.215	12.95
589.407	14.64
589.599	15.86
589.792	15.7
589.984	15.85
590.176	15.81
590.368	16.6
590.561	17.64
590.753	18.25
590.945	16.93
591.137	15.44
591.33	12.6
591.522	14.9
591.714	12.85
591.906	15.89
592.098	17.54
592.29	16.06
592.482	16.22
592.674	16.69
592.867	16.84
593.059	16.49
593.251	18.05
593.443	16.83
593.635	14.56
593.827	12.57
594.019	10.99
594.211	12.12
594.403	13.48
594.595	10.97
594.787	10.08
594.979	8.9
595.17	10
595.362	12.01
595.554	11.95
595.746	12.74
595.938	11.43
596.13	10.11
596.322	10.73
596.513	8.8
596.705	11.32
596.897	9.42
597.089	11.4
597.281	9.72
597.472	9.46
597.664	8.74
597.856	10.79
598.048	12.58
598.239	10.63
598.431	8.22
598.623	8.28
598.814	5.25
599.006	6.81
599.197	8.18
599.389	7.5
599.581	5.71
599.772	5.09
599.964	5.44
600.155	5.47
600.347	3.77
600.538	6.13
600.73	3.82
600.921	3.68
601.113	3.07
601.304	4.05
601.496	6.15
601.687	7.77
601.879	5.28
602.07	6.42
602.262	7.28
602.453	8.65
602.644	7.16
602.836	9.63
603.027	8.29
603.218	6.76
603.41	6.74
603.601	7.4
603.792	8.48
603.983	10.27
604.175	10.24
604.366	10.83
604.557	10.06
604.748	11.26
604.94	12.1
605.131	10.55
605.322	10.23
605.513	11.09
605.704	10.81
605.895	13.09
606.086	10.61
606.278	10.69
606.469	12.72
606.66	15
606.851	12.97
607.042	12.4
607.233	11.67
607.424	13.02
607.615	13.43
607.806	12.73
607.997	10.97
608.188	12.05
608.379	11.38
608.57	10.79
608.761	10.12
608.952	10.34
609.142	11.48
609.333	11.32
609.524	10.59
609.715	11.27
609.906	8.49
610.097	10.01
610.287	9.61
610.478	7.64
610.669	6.78
610.86	7.51
611.051	8.36
611.241	10.64
611.432	9.27
611.623	10.12
611.813	9.69
612.004	9.78
612.195	9.66
612.385	8.95
612.576	9.06
612.767	9.94
612.957	9.4
613.148	9.58
613.338	8.14
613.529	5.14
613.72	4.75
613.91	8.01
614.101	7.36
614.291	8.93
614.482	9.74
614.672	8.53
614.863	8.82
615.053	8.55
615.243	8.49
615.434	8.9
615.624	7.54
615.815	8.27
616.005	6.08
616.195	4.62
616.386	3.7
616.576	4.67
616.766	3.06
616.957	4.09
617.147	3.51
617.337	2.28
617.528	3.68
617.718	2.77
617.908	0.55
618.098	0.58
618.289	1.26
618.479	-0.04
618.669	2.3
618.859	3.26
619.049	4.91
619.239	5.02
619.43	4.13
619.62	3.44
619.81	3.99
620	5.64
620.19	6
620.38	6.66
620.57	5.94
620.76	6.75
620.95	5.93
621.14	5.63
621.33	7.4
621.52	7.54
621.71	6.88
621.9	7.16
622.09	7.24
622.28	6.49
622.47	6.59
622.659	4.22
622.849	4.25
623.039	4.44
623.229	3.87
623.419	4.28
623.609	3.94
623.799	2.31
623.988	2.64
624.178	4.31
624.368	4.62
624.558	5.48
624.747	5.1
624.937	5.98
625.127	4.8
625.316	3.87
625.506	4.34
625.696	5.95
625.885	6.3
626.075	6.86
626.265	7.07
626.454	7.83
626.644	9.23
626.833	6.96
627.023	5.33
627.212	4.61
627.402	5.5
627.591	7.46
627.781	7.1
627.97	7.43
628.16	5.93
628.349	5.86
628.539	4.41
628.728	4.53
628.918	4.22
629.107	5.07
629.296	6.27
629.486	5.97
629.675	5.91
629.865	6.51
630.054	6.36
630.243	4.84
630.432	3.74
630.622	5.02
630.811	8.24
631	9.45
631.19	10.31
631.379	9.04
631.568	7.3
631.757	8.82
631.946	7.83
632.136	9.58
632.325	9.24
632.514	10.83
632.703	10.34
632.892	9.2
633.081	9.11
633.27	8.74
633.459	8.41
633.648	8.73
633.837	7.63
634.026	7.73
634.215	9.38
634.404	9.95
634.593	10.66
634.782	11.05
634.971	9.48
635.16	7.82
635.349	8.27
635.538	9.74
635.727	9.14
635.916	9.94
636.105	9.73
636.294	10.61
636.482	10.33
636.671	11.29
636.86	12.41
637.049	13.66
637.238	12.58
637.426	12.97
637.615	11.21
637.804	12.29
637.993	11.98
638.181	10.08
638.37	10.87
638.559	9.49
638.747	7.67
638.936	8.38
639.125	9.89
639.313	9.83
639.502	9.06
639.691	8.43
639.879	6.3
640.068	5.06
640.256	3.38
640.445	1.75
640.633	2.65
640.822	1.85
641.01	2.32
641.199	3.29
641.387	3.45
641.576	4.12
641.764	4.48
641.953	3.99
642.141	4.64
642.329	4.17
642.518	4.04
642.706	4.21
642.894	4.52
643.083	4.65
643.271	3.51
643.459	5.57
643.648	7.02
643.836	8.76
644.024	7.7
644.213	9.74
644.401	9.83
644.589	7.69
644.777	7.6
644.965	8.2
645.154	8.24
645.342	9.12
645.53	10.6
645.718	9.37
645.906	8.38
646.094	9.22
646.282	9.53
646.47	9.56
646.658	9.17
646.846	8.93
647.034	8.07
647.223	9.27
647.411	7.66
647.599	5.17
647.786	4.83
647.974	4.58
648.162	4.18
648.35	4.4
648.538	5.65
648.726	6.05
648.914	4.68
649.102	6.16
649.29	6.01
649.478	5.05
649.665	5.67
649.853	6.55
650.041	4.94
650.229	4
650.417	3.65
650.604	3.03
650.792	3.4
650.98	2.89
651.168	2.27
651.355	3.23
651.543	3.82
651.731	3.08
651.918	2.29
652.106	2.52
652.294	3.12
652.481	3.69
652.669	3.51
652.856	3.93
653.044	2.99
653.231	0.89
653.419	1.32
653.606	1.34
653.794	1.5
653.981	3.56
654.169	4.18
654.356	3.26
654.544	3.71
654.731	3.79
654.919	4.34
655.106	4.68
655.294	3.74
655.481	5.48
655.668	7.19
655.856	8.3
656.043	8.78
656.23	9
656.418	8.39
656.605	9.29
656.792	8.9
656.979	9.66
657.167	11.69
657.354	11.69
657.541	11.18
657.728	12.61
657.916	10.67
658.103	9.14
658.29	9.61
658.477	10.52
658.664	10.59
658.851	9.98
659.038	10.35
659.225	9.88
659.412	10.01
659.6	9.02
659.787	9.03
659.974	7.38
660.161	8
660.348	6.96
660.535	8.64
660.722	8.81
660.909	7.41
661.095	5.97
661.282	6.71
661.469	8.1
661.656	6.37
661.843	7.68
662.03	7.74
662.217	8.26
662.404	7.75
662.59	6.57
662.777	6.86
662.964	7.04
663.151	8.04
663.338	8.61
663.524	8.78
663.711	9.74
663.898	9.63
664.085	9.16
664.271	9.85
664.458	7.18
664.645	7.43
664.831	8.53
665.018	9.02
665.204	8.22
665.391	7.27
665.578	8.22
665.764	8.21
665.951	9.89
666.137	9.82
666.324	9.64
666.51	10.46
666.697	10.08
666.883	9.14
667.07	9.74
667.256	9.16
667.443	8.98
667.629	8.3
667.816	8.4
668.002	8.29
668.188	8.86
668.375	8.95
668.561	8.1
668.747	6.11
668.934	7.22
669.12	6.9
669.306	7.16
669.493	6.55
669.679	6.69
669.865	5.94
670.051	6.67
670.238	7.22
670.424	7.25
670.61	7.95
670.796	8.32
670.982	6.09
671.169	5.51
671.355	4.09
671.541	4.42
671.727	5.27
671.913	4.02
672.099	4.29
672.285	3.3
672.471	4.44
672.657	5.81
672.843	5.55
673.029	4.92
673.215	5.81
673.401	7.47
673.587	6.9
673.773	7.2
673.959	7.33
674.145	6.6
674.331	6.88
674.517	6.82
674.703	6.64
674.888	8.4
675.074	8.54
675.26	10.32
675.446	9.76
675.632	9.33
675.817	10.81
676.003	9.8
676.189	10.36
676.375	8.83
676.56	9.67
676.746	8.02
676.932	7.33
677.117	6.14
677.303	4.54
677.489	5.28
677.674	4.83
677.86	3.85
678.046	5.36
678.231	4.66
678.417	4.67
678.602	4.57
678.788	3.62
678.973	3.51
679.159	3.33
679.344	2.74
679.53	2.8
679.715	0.75
679.901	0.43
680.086	0.77
680.272	0.91
680.457	-0.32
680.643	0.53
680.828	2.51
681.013	2.91
681.199	2.66
681.384	1.81
681.569	2.11
681.755	3.06
681.94	1.79
682.125	2.94
682.31	3.42
682.496	2.47
682.681	3.65
682.866	3.16
683.051	2.58
683.237	3.85
683.422	3.47
683.607	4.58
683.792	6.19
683.977	7.05
684.162	7.3
684.347	6.97
684.532	6.67
684.717	6.15
684.903	4.66
685.088	5.03
685.273	3.62
685.458	2.7
685.643	1.55
685.828	1.73
686.013	1.19
686.198	0.15
686.382	1.42
686.567	2.15
686.752	1.19
686.937	2.13
687.122	1.99
687.307	2.96
687.492	2.96
687.677	1.22
687.861	-0.56
688.046	-0.7
688.231	0.84
688.416	1.96
688.601	1.65
688.785	3.67
688.97	4.15
689.155	6.83
689.339	7.29
689.524	6.16
689.709	6.18
689.893	6.83
690.078	8.3
690.263	8.56
690.447	7.11
690.632	7.55
690.816	7.05
691.001	7.08
691.186	6.62
691.37	6.52
691.555	7.48
691.739	7.91
691.924	8.36
692.108	7.13
692.293	6.36
692.477	6.07
692.661	4.37
692.846	4.41
693.03	3.7
693.215	4.37
693.399	5.57
693.583	4.5
693.768	3.38
693.952	1.67
694.136	1.16
694.321	2.14
694.505	2.66
694.689	2.11
694.873	2.98
695.058	2.21
695.242	3.72
695.426	2.44
695.61	1.92
695.794	2.54
695.979	2.58
696.163	2.5
696.347	3.35
696.531	4.12
696.715	4.17
696.899	2.63
697.083	0.59
697.267	0.48
697.451	0.96
697.635	1.46
697.819	2.06
698.003	2.37
698.187	1.72
698.371	2.53
698.555	3.95
698.739	4.42
698.923	5.38
699.107	4.83
699.291	4.87
699.475	5.78
699.659	5.68
699.842	5.52
700.026	5.85
700.21	5.56
700.394	5.77
700.578	5.93
700.761	6.72
700.945	9.08
701.129	9.78
701.313	10.05
701.496	10.98
701.68	11.32
701.864	10.42
702.047	11.83
702.231	12.85
702.415	11.25
702.598	8.27
702.782	8.96
702.965	8.99
703.149	9.74
703.333	9.74
703.516	10.16
703.7	10.82
703.883	10.14
704.067	8.78
704.25	7.89
704.434	5.74
704.617	5.39
704.801	5.35
704.984	4.63
705.167	3.82
705.351	2.52
705.534	2.99
705.718	4.41
705.901	1.89
706.084	0.15
706.268	0.78
706.451	1.37
706.634	1.43
706.817	-0.56
707.001	-0.98
707.184	-1.51
707.367	-3.16
707.55	-3.34
707.734	-2.1
707.917	-0.4
708.1	0.35
708.283	2.31
708.466	3.71
708.649	2.17
708.832	2.25
709.015	4.86
709.199	5.73
709.382	4.86
709.565	4.44
709.748	5.64
709.931	5.54
710.114	5.58
710.297	6.36
710.48	4.59
710.663	5.98
710.846	6.03
711.028	7.12
711.211	6.37
711.394	6.24
711.577	6.01
711.76	5.48
711.943	5.16
712.126	5.97
712.309	5.69
712.491	6.24
712.674	5.21
712.857	4.96
713.04	3.84
713.222	3.89
713.405	3.61
713.588	4.12
713.771	4.96
713.953	4.54
714.136	5.07
714.319	6.21
714.501	4.98
714.684	4.64
714.866	4.5
715.049	5.62
715.232	4.92
715.414	3.02
715.597	3.13
715.779	3.51
715.962	3.55
716.144	2.11
716.327	3.28
716.509	3.92
716.692	1.68
716.874	2.53
717.057	2.78
717.239	3.5
717.421	3.27
717.604	1.53
717.786	2.87
717.968	1.84
718.151	-0.42
718.333	-0.08
718.515	-0.59
718.698	-1.13
718.88	-1.27
719.062	-1
719.244	0.32
719.427	-0.16
719.609	0.4
719.791	-2.29
719.973	-1.27
720.155	-3.16
720.338	-3.49
720.52	-3.34
720.702	-4.34
720.884	-4.2
721.066	-5.05
721.248	-8.31
721.43	-7.47
721.612	-8.12
721.794	-6
721.976	-3.43
722.158	-2.69
722.34	-1.53
722.522	-2.31
722.704	-1.55
722.886	-1.68
723.068	-2.34
723.25	-1.27
723.432	-0.92
723.614	1.54
723.796	1.44
723.977	1.28
724.159	1.98
724.341	1.77
724.523	1.41
724.705	-0.52
724.886	0.23
725.068	3.65
725.25	5.78
725.432	5.63
725.613	5.75
725.795	5.16
725.977	4.51
726.158	5.03
726.34	4.81
726.522	5.38
726.703	5.58
726.885	6.92
727.066	6.13
727.248	6.68
727.43	5.5
727.611	4.31
727.793	5.24
727.974	4.62
728.156	5.65
728.337	5.52
728.519	6.17
728.7	6.92
728.882	5.04
729.063	2.9
729.244	2.65
729.426	1.93
729.607	2.97
729.788	4.35
729.97	3.51
730.151	4.2
730.332	3.22
730.514	4.74
730.695	5.74
730.876	5.5
731.058	3.96
731.239	4.84
731.42	5.9
731.601	5.78
731.782	6.21
731.964	6.26
732.145	6.55
732.326	6.4
732.507	3.97
732.688	4.86
732.869	7.42
733.05	7.87
733.231	7.63
733.412	5.7
733.593	5.28
733.774	5.45
733.955	5.01
734.136	4.47
734.317	1.68
734.498	0.2
734.679	1.34
734.86	0.11
735.041	-0.16
735.222	-0.51
735.403	-0.4
735.584	-0.46
735.765	-0.16
735.946	1
736.126	-0.1
736.307	1.67
736.488	1.32
736.669	-3.48
736.849	-4.53
737.03	-4.11
737.211	-2.96
737.392	-2.48
737.572	-4.62
737.753	-4.34
737.934	-2.05
738.114	0.23
738.295	-1.61
738.476	-3.09
738.656	-1.88
738.837	-1.72
739.017	-0.32
739.198	0.9
739.378	3.12
739.559	2.44
739.74	2.82
739.92	3.75
740.1	2.86
740.281	2.55
740.461	4.62
740.642	5.09
740.822	3.23
741.003	3.19
741.183	2.08
741.363	5.44
741.544	5.26
741.724	3.92
741.904	2.79
742.085	2.84
742.265	3.53
742.445	3.54
742.626	3.26
742.806	2.8
742.986	1.82
743.166	1.24
743.347	1.02
743.527	1.69
743.707	0.66
743.887	1.22
744.067	-1.11
744.247	-1.22
744.427	-0.54
744.608	0.05
744.788	0.73
744.968	2.3
745.148	2.11
745.328	1.63
745.508	1.13
745.688	0.57
745.868	1.92
746.048	0.23
746.228	1.23
746.408	2.08
746.588	2.39
746.767	3.32
746.947	3.23
747.127	2.53
747.307	-1.56
747.487	1.43
747.667	1.69
747.847	4.73
748.026	4.72
748.206	4.91
748.386	6.49
748.566	7.4
748.745	6.51
748.925	5.87
749.105	7.89
749.285	7.84
749.464	9.2
749.644	8.03
749.824	9.15
750.003	9.47
750.183	8.56
750.362	7.39
750.542	4.9
750.722	2.96
750.901	2.91
751.081	5.37
751.26	3.73
751.44	2.83
751.619	1.71
751.799	2.15
751.978	-0.16
752.158	-0.11
752.337	-1.39
752.516	-1.76
752.696	-2.53
752.875	-2.65
753.055	-1.98
753.234	-2.27
753.413	-0.68
753.593	2.01
753.772	1.26
753.951	1.8
754.13	2.51
754.31	2.43
754.489	3.51
754.668	4.27
754.847	4.71
755.027	6.09
755.206	6.99
755.385	6.49
755.564	7.93
755.743	9.14
755.922	7.9
756.101	8.28
756.28	9.69
756.46	10.02
756.639	8.87
756.818	8.03
756.997	8.61
757.176	8.22
757.355	5.23
757.534	5.06
757.713	5
757.892	4.97
758.07	5.95
758.249	5.29
758.428	4.88
758.607	3.83
758.786	3.73
758.965	2.3
759.144	4.05
759.323	3.33
759.501	3
759.68	3.13
759.859	2.56
760.038	1.4
760.216	0.79
760.395	0.79
760.574	1.45
760.753	1.15
760.931	1.45
761.11	2.93
761.289	2.41
761.467	1.03
761.646	1.39
761.824	2.07
762.003	1.47
762.182	1.2
762.36	1.93
762.539	1.99
762.717	2.79
762.896	1.84
763.074	0.78
763.253	1.25
763.431	2.17
763.61	2.87
763.788	2.91
763.966	4.49
764.145	5.15
764.323	5.04
764.502	4.16
764.68	4.06
764.858	1.32
765.037	2.6
765.215	3.93
765.393	3.25
765.571	3.01
765.75	3.83
765.928	3.28
766.106	1.05
766.284	0.97
766.463	0.85
766.641	1.32
766.819	2.97
766.997	2.47
767.175	1.46
767.353	0.87
767.531	1.51
767.71	0.58
767.888	0.25
768.066	-0.98
768.244	-0.58
768.422	-1.04
768.6	2.39
768.778	2.3
768.956	0.9
769.134	0.84
769.312	0.39
769.489	0.56
769.667	1.83
769.845	4.46
770.023	5.21
770.201	6.2
770.379	5.52
770.557	3.87
770.735	4.3
770.912	3.75
771.09	3.45
771.268	3.62
771.446	3.34
771.623	5.33
771.801	6.69
771.979	7.83
772.157	6.09
772.334	5.48
772.512	3.56
772.69	4.32
772.867	4.49
773.045	4.98
773.222	2.88
773.4	3.32
773.577	2.31
773.755	1.48
773.933	0.85
774.11	0.98
774.288	1.25
774.465	1.26
774.643	2.17
774.82	4.89
774.997	4.14
775.175	2.83
775.352	3.56
775.53	4.08
775.707	3.12
775.884	5.12
776.062	5.28
776.239	5.23
776.416	6.1
776.594	4.98
776.771	4.51
776.948	7.24
777.125	7.36
777.303	5.75
777.48	5.43
777.657	4.53
777.834	4.39
778.012	4.34
778.189	4.39
778.366	2.37
778.543	-2.48
778.72	-2.34
778.897	-0.17
779.074	-3.56
779.251	-5.01
779.428	-5.64
779.605	-5.19
779.782	-5.36
779.959	-3.49
780.136	-5.02
780.313	-4.05
780.49	-4.23
780.667	-3.91
780.844	-4.15
781.021	-3.13
781.198	-3.02
781.375	-1.44
781.552	-1.3
781.728	-1.65
781.905	-0.63
782.082	1.85
782.259	3.46
782.436	4.73
782.612	3.03
782.789	3.32
782.966	3.4
783.143	3.56
783.319	4.72
783.496	4.38
783.673	5
783.849	4.64
784.026	4.78
784.203	5.86
784.379	4.86
784.556	4.99
784.732	5.33
784.909	4.83
785.085	2.87
785.262	4.05
785.438	4.69
785.615	2.67
785.791	2.91
785.968	2.05
786.144	0.78
786.321	2.65
786.497	0.91
786.673	0.26
786.85	-0.39
787.026	-2.71
787.203	-3.7
787.379	-5.22
787.555	-6.15
787.731	-7.74
787.908	-8
788.084	-7.61
788.26	-6.7
788.437	-6.59
788.613	-7.59
788.789	-6.3
788.965	-8.15
789.141	-7.7
789.317	-8.48
789.494	-9.61
789.67	-7.76
789.846	-7.8
790.022	-11.07
790.198	-9.49
790.374	-9.08
790.55	-8.98
790.726	-10.92
790.902	-9.49
791.078	-9.44
791.254	-6.12
791.43	-4.26
791.606	-6.33
791.782	-7.35
791.958	-10.59
792.134	-9.14
792.31	-8.42
792.486	-10.52
792.661	-10.17
792.837	-9
793.013	-8.46
793.189	-9.06
793.365	-8.16
793.54	-4.72
793.716	-0.96
793.892	0.62
794.068	0.1
794.243	1.66
794.419	5.01
794.595	2.68
794.77	1.74
794.946	2.38
795.122	2
795.297	3.55
795.473	4.47
795.648	7.19
795.824	4.78
796	6.41
796.175	8.51
796.351	7.52
796.526	6.02
796.702	6.45
796.877	7.39
797.052	6.89
797.228	3.75
797.403	0.98
797.579	0.7
797.754	1.32
797.929	2.27
798.105	0.27
798.28	1.14
798.455	2.49
798.631	0.83
798.806	1.66
798.981	2.61
799.157	-0.24
799.332	-4.61
799.507	-0.45
799.682	-0.68
799.858	-1.83
800.033	-0.34
800.208	0.03
800.383	2.29
800.558	3.8
800.733	3.88
800.908	3.77
801.083	3.49
801.258	1
801.434	3.36
801.609	0.86
801.784	3.92
801.959	5.87
802.134	6.41
802.309	5.41
802.484	3.2
802.658	3.44
802.833	4.11
803.008	7.12
803.183	4.63
803.358	3.99
803.533	4.65
803.708	4.76
803.883	4.21
804.057	0.3
804.232	1.97
804.407	1.38
804.582	3.96
804.756	5.13
804.931	6.7
805.106	3.73
805.281	6.72
805.455	3.98
805.63	2.57
805.805	2.77
805.979	5.43
806.154	6.97
806.328	4.94
806.503	7.66
806.678	8.52
806.852	8.5
807.027	8.13
807.201	6.22
807.376	6.81
807.55	8.04
807.725	8.98
807.899	7.25
808.074	5.69
808.248	2.32
808.422	1.98
808.597	2.27
808.771	5.65
808.946	6.48
809.12	9.09
809.294	7.25
809.468	7.63
809.643	7.66
809.817	7.71
809.991	9.12
810.166	9.14
810.34	9.01
810.514	10.65
810.688	10.77
810.862	12.86
811.037	13.79
811.211	15.06
811.385	14.77
811.559	15.52
811.733	17.37
811.907	17.1
812.081	16.99
812.255	15.79
812.429	13.96
812.603	13.18
812.777	12.15
812.951	12.91
813.125	9.77
813.299	6.8
813.473	4.44
813.647	6.26
813.821	5.91
813.995	5.56
814.169	5.13
814.343	7.51
814.516	7.84
814.69	7.79
814.864	3.07
815.038	5.75
815.212	4.97
815.385	5.16
815.559	6.98
815.733	6.48
815.907	7.2
816.08	9.16
816.254	7.52
816.428	6.24
816.601	8.53
816.775	11.03
816.948	11.25
817.122	13.78
817.296	9.76
817.469	10
817.643	11.81
817.816	10.38
817.99	6.8
818.163	5.98
818.337	1.89
818.51	1.42
818.684	-0.06
818.857	0.82
819.031	-1.23
819.204	-3.63
819.377	0.64
819.551	1.99
819.724	1.3
819.897	-0.31
820.071	0.66
820.244	-1.12
820.417	-1.65
820.591	-0.54
820.764	2.33
820.937	4.84
821.11	2.52
821.284	0.95
821.457	7.21
821.63	9.56
821.803	8.25
821.976	14.32
822.149	18.87
822.322	23.13
822.496	20.22
822.669	21.61
822.842	24.17
823.015	22.56
823.188	21.71
823.361	19.56
823.534	18.14
823.707	17.91
823.88	17.93
824.053	16.78
824.226	16.97
824.399	14.3
824.571	12.9
824.744	13.3
824.917	12.4
825.09	7.29
825.263	9.47
825.436	11.82
825.608	6.27
825.781	4.8
825.954	3.47
826.127	5.28
826.299	4.24
826.472	1.5
826.645	2.54
826.818	3.52
826.99	2.43
827.163	6.52
827.336	5.84
827.508	4.82
827.681	4.8
827.853	4.34
828.026	5.61
828.198	9.53
828.371	11.82
828.544	13.79
828.716	13.81
828.889	8.42
829.061	7.64
829.233	8.54
829.406	7.39
829.578	3.85
829.751	2.86
829.923	3.15
830.096	1.9
830.268	0.34
830.44	0.92
830.613	2.56
830.785	1.01
830.957	0.68
831.129	3.71
831.302	3.31
831.474	2.48
831.646	5.42
831.818	3.52
831.991	1.12
832.163	0.36
832.335	0.36
832.507	1.2
832.679	0.92
832.851	2.25
833.023	4.23
833.195	6.68
833.368	3.65
833.54	4
833.712	5.25
833.884	9.89
834.056	6.26
834.228	4.15
834.4	10.89
834.571	13.21
834.743	11.67
834.915	11.56
835.087	10.33
835.259	8.1
835.431	6.15
835.603	2.71
835.775	-0.01
835.946	-2.21
836.118	-0.51
836.29	-2
836.462	-5.05
836.634	-7.47
836.805	-13.78
836.977	-7.65
837.149	-6.87
837.32	-8.8
837.492	-9.86
837.664	-7.25
837.835	-4.58
838.007	-10.99
838.179	-10.88
838.35	-8.39
838.522	-2.63
838.693	-3.32
838.865	-11.87
839.036	-15.41
839.208	-8.45
839.379	-6.03
839.551	-3.01
839.722	-1.73
839.894	-0.66
840.065	-1.99
840.237	1.2
840.408	3.86
840.579	5.07
840.751	3.78
840.922	7.36
841.093	4.72
841.265	3.26
841.436	6.44
841.607	7.7
841.778	6.81
841.95	7.73
842.121	5.62
842.292	6.72
842.463	12.45
842.635	17.26
842.806	17.49
842.977	16.19
843.148	13.98
843.319	15.32
843.49	14.6
843.661	12.9
843.832	13.44
844.003	16.68
844.174	15.72
844.345	16.05
844.516	9.19
844.687	5.96
844.858	11.3
845.029	8.61
845.2	4.95
845.371	3.78
845.542	1.49
845.713	-4.83
845.884	-2.46
846.055	-6.85
846.225	-8.34
846.396	-16.2
846.567	-12.44
846.738	-15.64
846.909	-15.21
847.079	-16.77
847.25	-7.1
847.421	-13.53
847.591	-19.91
847.762	-22.89
847.933	-27.76
848.103	-20.99
848.274	-21.48
848.445	-24.46
848.615	-26.53
848.786	-25.91
848.956	-24.3
849.127	-21.2
849.297	-12.92
849.468	-8.9
849.638	-5.32
849.809	-3.75
849.979	-0.01
850.15	1.22
850.32	8.3
850.491	11.75
850.661	14.76
850.831	16.61
851.002	18.54
851.172	21.96
851.342	23.24
851.513	23.54
851.683	26.77
851.853	29.47
852.024	29.69
852.194	30.23
852.364	33.04
852.534	34.97
852.705	34.65
852.875	32.43
853.045	33.02
853.215	33.33
853.385	30.51
853.555	36.45
853.725	36.33
853.895	29.78
854.066	24.5
854.236	27.22
854.406	25.17
854.576	30.78
854.746	27.72
854.916	26.91
855.086	29.36
855.256	28.22
855.425	22.89
855.595	24.26
855.765	21.37
855.935	18.38
856.105	14.58
856.275	19.91
856.445	20.04
856.614	15.9
856.784	16.87
856.954	20.71
857.124	16.37
857.294	21.15
857.463	28.27
857.633	31.63
857.803	23.72
857.972	19.05
858.142	20.55
858.312	25.9
858.481	28.69
858.651	27.1
858.821	26.5
858.99	26.25
859.16	17.9
859.329	26.52
859.499	24.28
859.668	31.24
859.838	24.54
860.007	31.16
860.177	29.36
860.346	35.75
860.516	36.11
860.685	30.92
860.854	26.43
861.024	21.08
861.193	20.51
861.363	27.62
861.532	32.27
861.701	25.78
861.87	20.91
862.04	11.02
862.209	14.5
862.378	13.48
862.547	14.61
862.717	19.07
862.886	17.92
863.055	20.43
863.224	16.85
863.393	13.02
863.563	9.62
863.732	19.88
863.901	11.73
864.07	10.51
864.239	12.87
864.408	11.99
864.577	16.58
864.746	18.79
864.915	18.49
865.084	19.05
865.253	21.88
865.422	21.6
865.591	27.47
865.76	26.07
865.929	25.99
866.097	27.87
866.266	26.09
866.435	20.15
866.604	20.66
866.773	20.05
866.942	23.38
867.11	23
867.279	11.07
867.448	21.89
867.617	28.67
867.785	32.34
867.954	27.85
868.123	21.33
868.291	12.06
868.46	6.74
868.629	12.3
868.797	15.26
868.966	16.41
869.134	21.35
869.303	20.84
869.472	22.9
869.64	19.26
869.809	22.3
869.977	25.51
870.146	26.3
870.314	30.78
870.482	35.1
870.651	31.93
870.819	31.92
870.988	25.3
871.156	25.59
871.324	18.25
871.493	14.39
871.661	14.07
871.829	25.97
871.998	32.65
872.166	18.19
872.334	12.11
872.502	14.36
872.671	11.04
872.839	20.97
873.007	21.74
873.175	19.77
873.343	20.26
873.512	22.84
873.68	14.17
873.848	3.62
874.016	7.23
874.184	6.06
874.352	-2.39
874.52	3.59
874.688	-7.61
874.856	4.22
875.024	10.95
875.192	17.13
875.36	11.68
875.528	8.02
875.696	22.41
875.864	24.74
876.032	22.38
876.199	24.27
876.367	23.47
876.535	15.46
876.703	29.25
876.871	34.35
877.039	40.13
877.206	45.85
877.374	54.71
877.542	50.24
877.71	46.4
877.877	64.66
878.045	71.91
878.213	77.35
878.38	81.47
878.548	83.62
878.715	82.13
878.883	76.17
879.051	81.29
879.218	67.06
879.386	60
879.553	56.31
879.721	56.64
879.888	46.92
880.056	58.07
880.223	46.55
880.391	43.43
880.558	25.73
880.726	29.6
880.893	17.56
881.06	12.19
881.228	1.03
881.395	-8.91
881.562	-8.92
881.73	-24.8
881.897	-43.75
882.064	-34.6
882.231	-56.31
882.399	-66.46
882.566	-62.84
882.733	-55.04
882.9	-115.61
883.068	-72.54
883.235	-65.63
883.402	-51
883.569	-44.87
883.736	-13.47
883.903	-8.19
884.07	-4.54
884.237	-17.49
884.404	-9.68
884.571	-14.1
884.738	8.52
884.905	14.26
885.072	6.46
885.239	8.8
885.406	16.66
