Data from Transmission_09-26-21-036.txt Node
Date: Fri Aug 24 09:26:21 EEST 2018
User: tibor.sos
Spectrometer: USB4F01757
Scans to average: 10
Trigger mode: 4
Integration Time (sec): 1.000000E-2
Electric dark correction enabled: true
Boxcar width: 10
XAxis mode: Wavelengths
Number of Pixels in Spectrum: 3648
>>>>>Begin Spectral Data<<<<<
178.758	4.03
178.974	-83.97
179.191	-109.09
179.407	-41.14
179.624	-18.55
179.84	-13.16
180.057	-33.64
180.273	8.7
180.489	-0
180.706	-72.22
180.922	-56.8
181.138	-50.27
181.355	3.21
181.571	-9.18
181.787	-6.44
182.004	-16.61
182.22	-32.9
182.436	-11.53
182.653	-8.67
182.869	-38.91
183.085	-30.12
183.301	-27.89
183.518	12.61
183.734	9.22
183.95	12.19
184.166	11.88
184.383	11.05
184.599	7.51
184.815	-15.3
185.031	-14.97
185.247	2.82
185.463	4
185.68	-9.56
185.896	-12.7
186.112	29.89
186.328	44.55
186.544	62.74
186.76	80.63
186.976	78.9
187.192	79.67
187.408	94.58
187.624	94.37
187.84	67.06
188.056	69.26
188.272	81.74
188.488	88.64
188.704	91.62
188.92	99.59
189.136	78.82
189.352	91.24
189.568	105.63
189.784	140.39
190	132.18
190.216	168
190.432	161.15
190.648	159.04
190.864	252.34
191.08	241.02
191.296	72.1
191.511	58.53
191.727	23.22
191.943	64.23
192.159	46.97
192.375	58.06
192.591	57.33
192.806	50.46
193.022	30.64
193.238	-42.69
193.454	50.19
193.669	201.15
193.885	201.1
194.101	280.97
194.317	98.57
194.532	85.39
194.748	406.72
194.964	55.52
195.18	9.03
195.395	-74.91
195.611	-89.49
195.827	-3.93
196.042	-22.49
196.258	158.88
196.473	84.58
196.689	33.75
196.905	37.65
197.12	-661.39
197.336	-444.13
197.551	614.9
197.767	-97200
197.982	-229.54
198.198	-1720.55
198.414	-1424.72
198.629	-296.54
198.845	-238.27
199.06	-189.25
199.276	-117.21
199.491	-925.41
199.707	-110.6
199.922	10.07
200.137	32.71
200.353	-14.91
200.568	-16.46
200.784	-16.33
200.999	-18.12
201.215	-11.72
201.43	-32.78
201.645	21.41
201.861	63.36
202.076	50.81
202.291	47.18
202.507	-21.56
202.722	-5.75
202.937	-150.09
203.153	-66.32
203.368	16.88
203.583	48.38
203.798	16.85
204.014	24.27
204.229	20.17
204.444	5.66
204.659	-121.29
204.875	-185.67
205.09	1035.29
205.305	-3539.62
205.52	1274.8
205.735	737.72
205.951	-6352
206.166	543.8
206.381	457.25
206.596	3512.73
206.811	1319.3
207.026	637.64
207.241	232.5
207.457	-304.05
207.672	-1523.97
207.887	2246.73
208.102	656.37
208.317	612.65
208.532	-1270.06
208.747	1501.64
208.962	1025.48
209.177	-1634.9
209.392	-628.04
209.607	-163.07
209.822	-63.55
210.037	-77.84
210.252	-99.35
210.467	-161.28
210.682	-15.48
210.897	-47.33
211.112	-153.38
211.326	-139.11
211.541	-202.12
211.756	-97.86
211.971	-222.08
212.186	-120.26
212.401	-141.86
212.616	-138.8
212.831	-133.73
213.045	-244.24
213.26	-147.52
213.475	-180.55
213.69	-234.29
213.905	-392.03
214.119	-1428.05
214.334	15229.63
214.549	1638.87
214.764	-2016.58
214.978	-1205.46
215.193	-1380.24
215.408	7620.51
215.622	-1012.83
215.837	-4835.56
216.052	2331.03
216.266	561.01
216.481	686.93
216.696	473.32
216.91	-5078.79
217.125	-446.2
217.34	-777.2
217.554	-942.7
217.769	506.73
217.983	237.84
218.198	351.52
218.412	569.77
218.627	-223.61
218.842	-99.37
219.056	-167.3
219.271	-138.48
219.485	-201.41
219.7	-213.37
219.914	-71.93
220.129	-123.35
220.343	-98.14
220.558	-130.44
220.772	-166.63
220.986	-81.55
221.201	-109.09
221.415	263.33
221.63	186.3
221.844	151.13
222.058	143.53
222.273	190.64
222.487	180.63
222.702	272.7
222.916	276.72
223.13	174.16
223.344	175.53
223.559	90.19
223.773	119.57
223.987	164.03
224.202	179.65
224.416	320.26
224.63	271.89
224.844	291.4
225.059	316.78
225.273	2892.93
225.487	-1984
225.701	-189.82
225.915	-154.49
226.13	-97.42
226.344	-66.4
226.558	-73.73
226.772	-23.95
226.986	-9.3
227.2	-16.98
227.415	-14.33
227.629	-38.7
227.843	-85.17
228.057	-57.1
228.271	-27.3
228.485	-46.27
228.699	-66.38
228.913	-76.67
229.127	-65.88
229.341	-67.07
229.555	-90.92
229.769	-118.5
229.983	-237.37
230.197	-164.02
230.411	-260.12
230.625	-408.8
230.839	-332.31
231.053	-602.65
231.267	-1288.89
231.481	-1359.62
231.695	-670.27
231.909	-242.92
232.122	-101.14
232.336	-70.64
232.55	-102.42
232.764	-261.84
232.978	-213.78
233.192	-346.55
233.405	-643.16
233.619	-474.63
233.833	-221.72
234.047	-452.21
234.261	-916.09
234.474	-540.35
234.688	1696.74
234.902	1335.87
235.116	776.72
235.329	564.83
235.543	1123.45
235.757	602.44
235.97	380.9
236.184	396.57
236.398	272.7
236.612	306.02
236.825	430.02
237.039	617.11
237.252	566.28
237.466	2290.91
237.68	8284.75
237.893	-436800
238.107	-1554.15
238.32	3634.78
238.534	-853.72
238.748	-558.58
238.961	-408.54
239.175	-474.28
239.388	-562.05
239.602	-966.57
239.815	-408.86
240.029	-684.99
240.242	-430.77
240.456	-318.51
240.669	-351.28
240.882	-374.14
241.096	-594.76
241.309	-428.54
241.523	-666.19
241.736	-939.13
241.95	2391.06
242.163	-2881.2
242.376	-875.06
242.59	-3619.2
242.803	26906.67
243.016	1394.56
243.23	3784.87
243.443	28373.33
243.656	-3076.69
243.87	-509.67
244.083	-277.77
244.296	-287.93
244.509	-220.01
244.723	-240.17
244.936	-235.06
245.149	-342.54
245.362	-342.29
245.576	-165.87
245.789	-145.62
246.002	-95.03
246.215	-102.78
246.428	-75.64
246.641	-93.88
246.855	-116.42
247.068	-110.77
247.281	-139.78
247.494	-34.32
247.707	-35.16
247.92	-54.07
248.133	-40.9
248.346	-40.64
248.559	-20.47
248.772	-36.96
248.985	-16.61
249.198	-0.11
249.411	4.21
249.624	9.84
249.837	17.66
250.05	4.68
250.263	-22.49
250.476	-28.41
250.689	-18.81
250.902	-17.97
251.115	-22.05
251.328	-15.31
251.541	-5.39
251.754	-4.15
251.967	-2.23
252.18	-18.6
252.393	-22.79
252.605	-28.18
252.818	-28.76
253.031	-31.06
253.244	-28.47
253.457	-44.25
253.67	-48.48
253.882	-48.45
254.095	-33.37
254.308	-32.25
254.521	-32.98
254.733	-21.77
254.946	-13.61
255.159	-13.09
255.372	-15.17
255.584	-19.31
255.797	-30.63
256.01	-47.19
256.222	-47.71
256.435	-63.59
256.648	-33.9
256.86	-42.14
257.073	-42.7
257.285	-43.88
257.498	-64.86
257.711	-59.65
257.923	-43.28
258.136	-48.22
258.348	-44.9
258.561	-56.82
258.773	-72.03
258.986	-112.19
259.198	-142.72
259.411	-217.45
259.623	-178.16
259.836	-165.81
260.048	-142.83
260.261	-81.85
260.473	-69.71
260.686	-65.2
260.898	-75.08
261.111	-86.99
261.323	-57.32
261.535	-43.41
261.748	-37.39
261.96	-19.78
262.173	-15.52
262.385	-24.76
262.597	-24.16
262.81	-21.24
263.022	-22.27
263.234	-10.82
263.447	1.49
263.659	10.38
263.871	15.1
264.083	24.65
264.296	25.5
264.508	21.3
264.72	10.69
264.932	12.44
265.145	5.31
265.357	1.52
265.569	-1.9
265.781	-12.06
265.993	-20.21
266.205	-38.86
266.418	-60.48
266.63	-90.08
266.842	-69.65
267.054	-61.42
267.266	-60.52
267.478	-52.86
267.69	-51.63
267.902	-67.95
268.114	-91.28
268.326	-87.36
268.538	-109.31
268.75	-84.04
268.962	-87.49
269.174	-62.89
269.386	-32.12
269.598	-19.22
269.81	-9.62
270.022	-10.18
270.234	-3.66
270.446	0.66
270.658	5.29
270.87	15.12
271.082	20.59
271.294	20.54
271.506	16.95
271.718	14.28
271.929	11.79
272.141	13.83
272.353	19.76
272.565	19.72
272.777	21.6
272.989	22.55
273.2	20.5
273.412	20.65
273.624	15.96
273.836	11.47
274.047	13.03
274.259	15.8
274.471	19.21
274.683	12.61
274.894	14.48
275.106	13.96
275.318	6.85
275.529	7.71
275.741	1.41
275.953	10.17
276.164	16.33
276.376	14.11
276.588	10.35
276.799	7.34
277.011	14.56
277.222	18.97
277.434	4.24
277.646	1.12
277.857	13.01
278.069	11.79
278.28	9.89
278.492	0.15
278.703	-1.61
278.915	-2.42
279.126	-2.41
279.338	-13.08
279.549	-5.27
279.761	-6.11
279.972	-9.66
280.183	-8.25
280.395	-15.04
280.606	-20.64
280.818	-25.56
281.029	-21.94
281.24	-19
281.452	-26.07
281.663	-33.24
281.875	-26.45
282.086	-31.09
282.297	-42.52
282.508	-39.49
282.72	-43.64
282.931	-37.21
283.142	-42.12
283.354	-53.55
283.565	-52.24
283.776	-49.01
283.987	-77.41
284.199	-67.26
284.41	-55.83
284.621	-41.91
284.832	-33.59
285.043	-26.27
285.254	-37.03
285.466	-51.08
285.677	-49.18
285.888	-49.56
286.099	-47.87
286.31	-44.66
286.521	-48.26
286.732	-50.35
286.943	-49.9
287.154	-35.86
287.366	-33.55
287.577	-33.39
287.788	-29.24
287.999	-27.56
288.21	-36.77
288.421	-22.63
288.632	-31.5
288.843	-29.36
289.054	-32.25
289.264	-41.62
289.475	-50.28
289.686	-32.73
289.897	-23.41
290.108	-22.64
290.319	-22.7
290.53	-16.93
290.741	-19.08
290.952	-10.62
291.163	-5.21
291.373	-2.83
291.584	-5.79
291.795	-11.76
292.006	-8.67
292.217	-5.55
292.427	-1.4
292.638	3.69
292.849	-5.37
293.06	0.7
293.27	-8.89
293.481	-8.54
293.692	-6.61
293.903	-8.13
294.113	-10.05
294.324	-12.75
294.535	-23.53
294.745	-26.84
294.956	-26.63
295.167	-30.61
295.377	-32.83
295.588	-31.43
295.798	-33.48
296.009	-43.5
296.22	-43.5
296.43	-43.21
296.641	-53.26
296.851	-61.49
297.062	-62.72
297.272	-53.23
297.483	-65.16
297.693	-60.37
297.904	-59.38
298.114	-45.58
298.325	-37.39
298.535	-46.88
298.746	-49.41
298.956	-44.44
299.167	-49.9
299.377	-58.04
299.587	-54.97
299.798	-59.94
300.008	-69.88
300.219	-57.36
300.429	-50.43
300.639	-42.93
300.85	-45.58
301.06	-40.99
301.27	-31.59
301.481	-31.74
301.691	-32.06
301.901	-20.32
302.111	-19.53
302.322	-22.97
302.532	-31.71
302.742	-37.84
302.952	-33.97
303.163	-33.51
303.373	-32.84
303.583	-24.97
303.793	-14.78
304.003	-6.31
304.214	-6.05
304.424	-5.4
304.634	-17.91
304.844	-19.47
305.054	-17.88
305.264	-17.66
305.474	-19.59
305.684	-26.81
305.894	-18.23
306.104	-24.02
306.314	-26.45
306.525	-30.78
306.735	-28.47
306.945	-26.7
307.155	-21.21
307.365	-18.24
307.575	-13.34
307.784	-11.45
307.994	-13.38
308.204	-24.11
308.414	-26.81
308.624	-22.87
308.834	-16.99
309.044	-13.07
309.254	-8.27
309.464	-5.56
309.674	-4.65
309.884	-6.62
310.093	-4.14
310.303	-7.53
310.513	-0.56
310.723	-0.41
310.933	2.31
311.142	3.69
311.352	3.56
311.562	5.96
311.772	5.56
311.981	1.65
312.191	-0.37
312.401	3.33
312.611	7.86
312.82	6.68
313.03	5.49
313.24	5.07
313.449	7.25
313.659	2.43
313.869	-0.55
314.078	-1.25
314.288	-3.68
314.497	-9.57
314.707	-8.99
314.917	-14.83
315.126	-9.24
315.336	-5.74
315.545	-11.46
315.755	-8.23
315.964	-13.48
316.174	-13.8
316.383	-14.35
316.593	-14.31
316.802	-14.82
317.012	-21.37
317.221	-18.94
317.431	-21.58
317.64	-25.22
317.849	-33.49
318.059	-32.82
318.268	-30.76
318.478	-27.71
318.687	-22.69
318.896	-17.43
319.106	-21.21
319.315	-22.65
319.524	-34.26
319.734	-41.18
319.943	-38.05
320.152	-36.12
320.362	-36.74
320.571	-34.52
320.78	-32.77
320.989	-27.66
321.199	-26.93
321.408	-18.08
321.617	-18.75
321.826	-15.37
322.035	-16.46
322.245	-8.94
322.454	-4.59
322.663	-5.94
322.872	-12.12
323.081	-12.91
323.29	-16.73
323.5	-11.37
323.709	-6.65
323.918	-5.68
324.127	-8.31
324.336	-13.67
324.545	-16.06
324.754	-11.76
324.963	-18.71
325.172	-18.66
325.381	-28.62
325.59	-32.37
325.799	-42.39
326.008	-55.15
326.217	-54.6
326.426	-40.24
326.635	-42.91
326.844	-44.73
327.053	-34.02
327.262	-27.84
327.47	-28.13
327.679	-20.17
327.888	-20.06
328.097	-20.91
328.306	-15.91
328.515	-5.88
328.724	-0.51
328.932	-4.57
329.141	-11.79
329.35	-6.74
329.559	-5.8
329.768	4.26
329.976	9.3
330.185	13.99
330.394	20.65
330.602	18.37
330.811	3.4
331.02	2.2
331.229	0.53
331.437	-1.42
331.646	-2.22
331.855	0.62
332.063	-2.8
332.272	-7.86
332.48	-10.94
332.689	-14.46
332.898	-17.41
333.106	-18.62
333.315	-13.49
333.523	-11.3
333.732	-9.49
333.94	-10.87
334.149	-12.18
334.357	-18.72
334.566	-17.79
334.774	-17.71
334.983	-15.09
335.191	-15.38
335.4	-23.61
335.608	-24.82
335.817	-39.72
336.025	-30.05
336.234	-41.89
336.442	-24.87
336.65	-24.89
336.859	-14.47
337.067	-15.58
337.275	-13.53
337.484	-16.75
337.692	-17.38
337.9	-10.78
338.109	-12.21
338.317	-14.68
338.525	-13.98
338.734	-5.24
338.942	-13.33
339.15	-31.75
339.358	-48.68
339.567	-21.43
339.775	-18.59
339.983	-21.23
340.191	-21.59
340.399	-36.03
340.608	-13.59
340.816	-19.89
341.024	-15.5
341.232	-28.51
341.44	-20.75
341.648	-17.38
341.856	-12.83
342.064	-17.68
342.272	-24.15
342.481	-32.37
342.689	-30.32
342.897	-30.85
343.105	-31.88
343.313	-15.67
343.521	-5.75
343.729	-6.61
343.937	-12.28
344.145	-9.7
344.353	-6.95
344.56	-4.78
344.768	-6.44
344.976	-22.57
345.184	-24.97
345.392	-25.9
345.6	-16.54
345.808	-17.81
346.016	-27.96
346.224	-24.27
346.431	-14.62
346.639	-6.96
346.847	1.81
347.055	-2.7
347.263	-7.39
347.471	-15.3
347.678	-31.77
347.886	-39.72
348.094	-23
348.302	-21.87
348.509	-30.78
348.717	-30.82
348.925	-23.83
349.132	-17.94
349.34	-6.66
349.548	-1.65
349.755	-0.61
349.963	-3.6
350.171	-12.81
350.378	-8.68
350.586	-13.68
350.793	-18.38
351.001	-26.77
351.209	-26.45
351.416	-13.26
351.624	-10.59
351.831	-15.4
352.039	-13.15
352.246	-23.1
352.454	-33.82
352.661	-36.32
352.869	-23.84
353.076	-25.43
353.284	-25.85
353.491	-17.84
353.699	-20.49
353.906	-18.86
354.113	-16.63
354.321	-18.85
354.528	-15.57
354.736	-19.91
354.943	-19.19
355.15	-19.84
355.358	-23.68
355.565	-24.71
355.772	-32.64
355.98	-25.77
356.187	-17.76
356.394	-20.44
356.601	-11.48
356.809	-4.34
357.016	-1.4
357.223	-4.92
357.43	-4.4
357.638	-7.87
357.845	-8.37
358.052	-15.93
358.259	-16.64
358.466	-18.6
358.673	-25.11
358.881	-28.31
359.088	-25.11
359.295	-23.05
359.502	-28.98
359.709	-24.13
359.916	-29.4
360.123	-26.89
360.33	-44.63
360.537	-48.17
360.744	-44.33
360.951	-47.71
361.158	-54.63
361.365	-58.67
361.572	-44.44
361.779	-39.81
361.986	-40.53
362.193	-46.23
362.4	-38.01
362.607	-56.66
362.814	-57.82
363.021	-48
363.228	-48.25
363.435	-46.43
363.641	-51.82
363.848	-50.02
364.055	-54.7
364.262	-48.3
364.469	-51
364.676	-41.33
364.882	-37.39
365.089	-32.12
365.296	-26.22
365.503	-24.92
365.709	-32.84
365.916	-42.27
366.123	-44.3
366.33	-45.48
366.536	-40.67
366.743	-47.54
366.95	-43.23
367.156	-41.43
367.363	-38.69
367.57	-43.56
367.776	-37.78
367.983	-34.54
368.19	-30.25
368.396	-24.42
368.603	-25.89
368.809	-20.43
369.016	-16.7
369.222	-28.42
369.429	-26.86
369.635	-22.05
369.842	-27.87
370.048	-15.79
370.255	-7.45
370.461	-3.81
370.668	-2.75
370.874	-7.73
371.081	0.32
371.287	1.88
371.494	-0.3
371.7	1
371.906	0.38
372.113	-5.89
372.319	-11.93
372.526	-12.84
372.732	-15.14
372.938	-20.65
373.145	-20.37
373.351	-13.86
373.557	-6.66
373.763	-18.79
373.97	-22.26
374.176	-14.79
374.382	-16.94
374.588	-26.75
374.795	-32.94
375.001	-40.47
375.207	-46.16
375.413	-48.96
375.62	-42.85
375.826	-40.37
376.032	-47.79
376.238	-38.55
376.444	-36.98
376.65	-33.77
376.856	-51.11
377.062	-46.88
377.269	-30.26
377.475	-43.56
377.681	-54.74
377.887	-50.98
378.093	-48.53
378.299	-41.71
378.505	-46.26
378.711	-56.79
378.917	-48.99
379.123	-42.24
379.329	-36.42
379.535	-27.89
379.741	-26.41
379.947	-26.07
380.152	-29.12
380.358	-25.13
380.564	-26.2
380.77	-29.37
380.976	-31.51
381.182	-26.03
381.388	-25.47
381.594	-42.53
381.799	-31.46
382.005	-28.65
382.211	-26.47
382.417	-21.57
382.623	-30.57
382.828	-23.09
383.034	-21.96
383.24	-26.79
383.445	-35.38
383.651	-30.33
383.857	-34.55
384.063	-30.01
384.268	-41.85
384.474	-28
384.68	-36.7
384.885	-32.42
385.091	-25.85
385.296	-15.49
385.502	-7.73
385.708	-12.03
385.913	0.42
386.119	-11.03
386.324	-13.52
386.53	-10.78
386.735	-22.55
386.941	-11.82
387.146	-19.96
387.352	-19.1
387.557	-10.12
387.763	-2.2
387.968	-4.9
388.174	7.1
388.379	2.44
388.585	-1.5
388.79	-13.92
388.996	-12.52
389.201	-13.87
389.406	-24.31
389.612	-33.58
389.817	-35.65
390.022	-36.79
390.228	-25.1
390.433	-23.04
390.638	-14.13
390.844	-16.4
391.049	-9.59
391.254	-11.55
391.459	-9.52
391.665	-13.92
391.87	-17.06
392.075	-11.24
392.28	-8.28
392.485	-21.4
392.691	-27.11
392.896	-23.36
393.101	-20.73
393.306	-11.03
393.511	-12.73
393.716	-7.24
393.922	-6.56
394.127	-7.12
394.332	8.4
394.537	2.25
394.742	3.24
394.947	-1.32
395.152	4.22
395.357	3.2
395.562	2.55
395.767	-0.9
395.972	7.71
396.177	3.72
396.382	1.1
396.587	1.49
396.792	7.19
396.997	15.83
397.202	21.77
397.407	23.86
397.611	20.19
397.816	26.11
398.021	26.17
398.226	25.81
398.431	27.46
398.636	17.39
398.841	20.83
399.045	23.35
399.25	19.44
399.455	16.96
399.66	25.2
399.864	20.08
400.069	14.23
400.274	12.03
400.479	11.43
400.683	11.87
400.888	2.34
401.093	-10.32
401.297	-11.21
401.502	-22.55
401.707	-29.14
401.911	-18.68
402.116	-32.46
402.321	-30.11
402.525	-33.57
402.73	-32.55
402.934	-27.22
403.139	-31.89
403.344	-29.05
403.548	-32.02
403.753	-33.01
403.957	-62.2
404.162	-71.78
404.366	-56.39
404.571	-58.79
404.775	-54.63
404.98	-56.55
405.184	-43.33
405.388	-30.34
405.593	-32.27
405.797	-30.64
406.002	-20.91
406.206	-26.19
406.41	-21
406.615	-13.01
406.819	-6.87
407.023	-4.74
407.228	-0.27
407.432	-4.66
407.636	-17.81
407.841	-12.93
408.045	-21.51
408.249	-17.86
408.453	-3.19
408.658	-3.97
408.862	10.56
409.066	7.62
409.27	10.58
409.474	9.11
409.679	5.22
409.883	-7.14
410.087	-8.58
410.291	-12.83
410.495	-19.7
410.699	-25.06
410.903	-36.08
411.108	-28.97
411.312	-34.25
411.516	-54.35
411.72	-41.16
411.924	-33.67
412.128	-24.52
412.332	-15.72
412.536	-11.33
412.74	-17.72
412.944	-20.16
413.148	-32.68
413.352	-39.07
413.556	-49.63
413.76	-53.37
413.964	-41.3
414.167	-16.97
414.371	-12.63
414.575	-12.32
414.779	-18.73
414.983	-9.49
415.187	-11.48
415.391	-30.3
415.594	-26.58
415.798	-27.97
416.002	-29.72
416.206	-24.27
416.41	-34.97
416.613	-42.41
416.817	-47.67
417.021	-45.63
417.225	-39.06
417.428	-39.65
417.632	-39.73
417.836	-39.49
418.039	-25.8
418.243	-25.61
418.447	-44.68
418.65	-43.16
418.854	-33.44
419.057	-26.7
419.261	-27.77
419.465	-20.7
419.668	-6.12
419.872	-3.61
420.075	8.21
420.279	5.05
420.482	14.67
420.686	14.66
420.889	11.41
421.093	18.1
421.296	14.7
421.5	7.21
421.703	0.31
421.907	4.34
422.11	-0.91
422.314	-14.99
422.517	-23.24
422.72	-24.72
422.924	-25.26
423.127	-28.92
423.33	-34.36
423.534	-54.64
423.737	-53.89
423.94	-59.6
424.144	-53.01
424.347	-47.22
424.55	-55.61
424.754	-73.08
424.957	-82.98
425.16	-58.7
425.363	-63.52
425.567	-54.35
425.77	-46.64
425.973	-40.44
426.176	-41.99
426.379	-30.06
426.582	-11.88
426.786	-6.6
426.989	-6.36
427.192	0.32
427.395	0.22
427.598	3.66
427.801	13.49
428.004	6.49
428.207	17.9
428.41	14.63
428.613	12.6
428.816	16.23
429.019	20.63
429.222	16.84
429.425	18.99
429.628	24.84
429.831	18.92
430.034	16.24
430.237	13.2
430.44	15.64
430.643	15.04
430.846	8.12
431.049	8.6
431.252	10.5
431.454	6.45
431.657	-0.48
431.86	-1.14
432.063	-4.38
432.266	-0.53
432.469	-13.73
432.671	-9.82
432.874	3.05
433.077	-9.83
433.28	-10.93
433.482	-6.42
433.685	-16.34
433.888	-24.66
434.09	-32.57
434.293	-47.64
434.496	-42.02
434.698	-56.33
434.901	-42.59
435.104	-42.23
435.306	-34.15
435.509	-39.41
435.712	-35.92
435.914	-50.59
436.117	-33.58
436.319	-25.66
436.522	-28.85
436.724	-26.9
436.927	-37.48
437.129	-50.5
437.332	-41.23
437.534	-37.63
437.737	-49.99
437.939	-29.41
438.142	-31.96
438.344	-30.52
438.547	-36.84
438.749	-25.49
438.951	-25.95
439.154	-36.96
439.356	-39.59
439.558	-54.81
439.761	-49.11
439.963	-40.47
440.165	-17.84
440.368	-28.04
440.57	-58.03
440.772	-57.61
440.975	-67.24
441.177	-41.09
441.379	-41.19
441.581	-35.01
441.784	-42.44
441.986	-22.89
442.188	-36.94
442.39	-36.55
442.592	-32.86
442.795	-15.28
442.997	-25.4
443.199	-21.12
443.401	-15.16
443.603	-12.83
443.805	-19.87
444.007	-12.12
444.209	-14.55
444.411	-10.02
444.613	-3.74
444.815	8.61
445.017	10.6
445.219	19.55
445.421	12.56
445.623	8.55
445.825	-2.56
446.027	-12.37
446.229	-30.15
446.431	-20.42
446.633	-28.67
446.835	-27.41
447.037	-26.95
447.239	-31.4
447.441	-32.34
447.643	-38.27
447.844	-49.74
448.046	-34.95
448.248	-39.65
448.45	-50.82
448.652	-60
448.853	-59.54
449.055	-54.19
449.257	-57.6
449.459	-73.35
449.66	-73.53
449.862	-59.04
450.064	-32.57
450.266	-28.77
450.467	-20.24
450.669	-20.97
450.871	-25.02
451.072	-12.61
451.274	-35.58
451.475	-20.87
451.677	-6.32
451.879	-6.99
452.08	-3.31
452.282	-6.98
452.483	-18.51
452.685	-7.9
452.886	-5.14
453.088	-21.01
453.289	-29.44
453.491	-34.82
453.692	-44.06
453.894	-27.22
454.095	-34.18
454.297	-51.14
454.498	-32.2
454.7	-25.07
454.901	-29.32
455.102	-25.43
455.304	-25.37
455.505	-16.69
455.706	-18.12
455.908	-26.36
456.109	-30.46
456.31	-23.52
456.512	-25.2
456.713	-16.64
456.914	-19.06
457.116	-32.17
457.317	-24.89
457.518	-27.94
457.719	-22.84
457.921	-16.01
458.122	-20.73
458.323	-23.2
458.524	-16.86
458.725	-11.67
458.926	-15.1
459.128	-10.18
459.329	4.83
459.53	-4.05
459.731	-10.08
459.932	-22.65
460.133	-20.42
460.334	-3.18
460.535	-6.3
460.736	-4.95
460.937	-15.09
461.138	-8.55
461.339	-3.15
461.54	1.51
461.741	-0.64
461.942	3.68
462.143	0.64
462.344	-11.71
462.545	-11.02
462.746	-19.94
462.947	-32.9
463.148	-31.64
463.348	-24.37
463.549	-29.83
463.75	-31.94
463.951	-20.82
464.152	-21.35
464.353	-18.26
464.553	-15.17
464.754	-12.37
464.955	-18.55
465.156	-11.81
465.356	-20.77
465.557	-26.72
465.758	-29.7
465.959	-28.05
466.159	-32.66
466.36	-32.2
466.561	-20.11
466.761	-21.63
466.962	-16.52
467.163	-9.27
467.363	-12.6
467.564	-20.24
467.764	-23.75
467.965	-22.44
468.166	-31.31
468.366	-15.98
468.567	-19.7
468.767	-19.18
468.968	-18.51
469.168	-15.04
469.369	-14.52
469.569	-17.4
469.77	-13.3
469.97	-22.04
470.17	-17.3
470.371	-21.2
470.571	-22.06
470.772	-15.96
470.972	-10.89
471.172	-2.42
471.373	-12.05
471.573	-7.59
471.773	-7.79
471.974	-2.58
472.174	-1.59
472.374	2.95
472.575	-6.13
472.775	-1.84
472.975	-16.78
473.175	-18.99
473.376	-18.9
473.576	-14.2
473.776	-4.8
473.976	-4.41
474.177	4.16
474.377	1.36
474.577	2.67
474.777	8.08
474.977	-5.73
475.177	-8.78
475.377	-8.61
475.577	-0.49
475.777	-4.2
475.978	-8.62
476.178	-8.81
476.378	-3.56
476.578	-1.62
476.778	-4.36
476.978	-4.4
477.178	1.28
477.378	-0.41
477.578	-2.08
477.778	-6.98
477.977	-7.01
478.177	-6.93
478.377	-9.81
478.577	-7.13
478.777	2.18
478.977	-0.89
479.177	4.38
479.377	5.95
479.577	-2.34
479.776	-4.35
479.976	-2.23
480.176	2.77
480.376	-1.05
480.576	-8.17
480.775	-14.96
480.975	-7.23
481.175	-11.55
481.374	-12.49
481.574	-10.01
481.774	-8.85
481.974	-9.31
482.173	-13.24
482.373	-16.6
482.572	-17.4
482.772	-18.09
482.972	-24.94
483.171	-27.5
483.371	-23.7
483.57	-27.29
483.77	-21.49
483.97	-21.87
484.169	-23.26
484.369	-24.72
484.568	-23.48
484.768	-17.69
484.967	-8.86
485.167	-6.58
485.366	-7.08
485.566	-6.25
485.765	-5.29
485.964	-9.96
486.164	-9.12
486.363	-12.5
486.563	-9.68
486.762	-6.57
486.961	-8.71
487.161	-5.44
487.36	-7.79
487.559	-9.51
487.759	-10.47
487.958	-14.83
488.157	-17.56
488.356	-13.47
488.556	-12.56
488.755	-11.76
488.954	-11.41
489.153	-20.43
489.353	-24.02
489.552	-25.08
489.751	-29.76
489.95	-30.78
490.149	-27.74
490.348	-23.74
490.548	-16.18
490.747	-20.19
490.946	-21.54
491.145	-22.25
491.344	-24.92
491.543	-17.72
491.742	-16.7
491.941	-16.48
492.14	-15.89
492.339	-14.89
492.538	-17.72
492.737	-11.61
492.936	-11.15
493.135	-14.53
493.334	-14.79
493.533	-17.19
493.732	-10.74
493.931	-1.91
494.13	-3.54
494.328	1.24
494.527	0.73
494.726	-6.36
494.925	-5.66
495.124	-4.15
495.323	0.57
495.521	-3.07
495.72	-4.26
495.919	-3.56
496.118	-0.19
496.316	1.96
496.515	0.6
496.714	0.82
496.913	0.23
497.111	-0.57
497.31	-3.44
497.509	1.8
497.707	2.13
497.906	0.25
498.105	-7.39
498.303	-8.52
498.502	-8.56
498.7	-5.96
498.899	-5.9
499.097	-4.29
499.296	-4.59
499.495	-12.83
499.693	-9.21
499.892	-8.96
500.09	-11.64
500.289	-3.37
500.487	-4.84
500.686	-2.08
500.884	-1.37
501.082	-3.93
501.281	-9.02
501.479	-0.96
501.678	-1.08
501.876	3.31
502.074	3.48
502.273	8.53
502.471	11.11
502.669	9.77
502.868	5.12
503.066	10
503.264	8.59
503.463	3.13
503.661	6.17
503.859	5.74
504.057	6.1
504.256	7.56
504.454	0.64
504.652	-1.46
504.85	-1.65
505.048	-3.58
505.246	-6.74
505.445	-4.71
505.643	-7.35
505.841	-8.02
506.039	-14.83
506.237	-16.13
506.435	-15.21
506.633	-14.1
506.831	-14.29
507.029	-14.11
507.227	-10.01
507.425	-8.93
507.623	-6.46
507.821	-8.72
508.019	-4.16
508.217	-2.91
508.415	-7.32
508.613	-7.77
508.811	-3.74
509.009	-4.11
509.207	0.95
509.405	3.43
509.603	4.84
509.8	2.04
509.998	1.72
510.196	3.35
510.394	2.58
510.592	0.03
510.79	-5.08
510.987	-8.46
511.185	-5.68
511.383	-11.34
511.581	-11.87
511.778	-7.45
511.976	-0.73
512.174	-6.98
512.371	-13.13
512.569	-7.78
512.767	-8.79
512.964	-12.73
513.162	-14.89
513.36	-18.22
513.557	-21.85
513.755	-17.69
513.952	-14.69
514.15	-19
514.348	-17.11
514.545	-15
514.743	-7.45
514.94	0.15
515.138	2.77
515.335	0.44
515.533	1.18
515.73	2.6
515.927	-2.12
516.125	-7.33
516.322	-4.49
516.52	-1.53
516.717	-1.26
516.915	3.71
517.112	2.01
517.309	3.81
517.507	4.35
517.704	4.35
517.901	2.83
518.099	2.57
518.296	8.54
518.493	9.77
518.69	9.73
518.888	7.55
519.085	4.31
519.282	3.43
519.479	4.15
519.676	0.78
519.874	-3.32
520.071	-1.47
520.268	1.81
520.465	4.65
520.662	5.97
520.859	3.96
521.056	1.35
521.254	6.95
521.451	5.81
521.648	2.03
521.845	1.95
522.042	0.49
522.239	-1.01
522.436	-4.55
522.633	-11.2
522.83	-11.19
523.027	-17.83
523.224	-16.18
523.421	-13.27
523.618	-15.69
523.815	-7.67
524.011	-5.07
524.208	-1.07
524.405	-0.59
524.602	-4.39
524.799	-9.55
524.996	-12.62
525.193	-13.65
525.389	-16.22
525.586	-14.14
525.783	-15.07
525.98	-11.3
526.176	-10.46
526.373	-12.88
526.57	-14.77
526.767	-12.94
526.963	-15.21
527.16	-8.13
527.357	-6.4
527.553	-8.76
527.75	-7.47
527.947	-15.37
528.143	-10.18
528.34	-16.97
528.537	-21.11
528.733	-17.19
528.93	-16.42
529.126	-9.62
529.323	-5.8
529.519	-3.37
529.716	-9.19
529.912	-6.26
530.109	-5.18
530.305	-5.81
530.502	-2.73
530.698	-1.94
530.895	-2.47
531.091	-0.73
531.288	-3.22
531.484	-3.24
531.68	-4.99
531.877	-4.17
532.073	-1.21
532.269	-5.49
532.466	-3.52
532.662	-1.48
532.858	-3.45
533.055	-2.06
533.251	-2.33
533.447	-3.76
533.643	-2.72
533.84	-1.54
534.036	-2.84
534.232	-2.63
534.428	-6.38
534.624	-5.53
534.821	-3.8
535.017	1.18
535.213	3.13
535.409	4.7
535.605	3.85
535.801	2.15
535.997	1.76
536.193	-0.84
536.389	2.8
536.586	2.42
536.782	2.34
536.978	-0.1
537.174	1.54
537.37	0.53
537.566	-0.75
537.762	-3.77
537.958	-0.81
538.153	2.71
538.349	3.02
538.545	8.02
538.741	8.72
538.937	6.11
539.133	3.11
539.329	0.5
539.525	-2.54
539.721	-4.52
539.916	1.99
540.112	-0.48
540.308	3.3
540.504	1.63
540.699	3.16
540.895	3.35
541.091	8.99
541.287	10.48
541.482	10.77
541.678	12.97
541.874	12.76
542.069	14.4
542.265	13.3
542.461	14.41
542.656	11.97
542.852	12.37
543.048	14.77
543.243	15.68
543.439	18.48
543.634	18.19
543.83	18.02
544.025	18.43
544.221	19.57
544.417	19.21
544.612	19.76
544.807	19.15
545.003	17.69
545.198	13.52
545.394	9.98
545.589	12.7
545.785	11.78
545.98	11.55
546.176	8.55
546.371	5.75
546.566	4.32
546.762	7.42
546.957	5.44
547.152	2.54
547.348	-0.16
547.543	-0.04
547.738	-1.94
547.933	-2.31
548.129	-2.77
548.324	-2.46
548.519	-5.39
548.714	-7.6
548.91	-6.28
549.105	-5.76
549.3	-4.01
549.495	-1.91
549.69	-7.56
549.885	-7.87
550.08	-4.43
550.276	-3.39
550.471	1.81
550.666	-1.15
550.861	-2.72
551.056	-4.51
551.251	-2.65
551.446	1.1
551.641	-0.69
551.836	4.29
552.031	6.5
552.226	5.38
552.421	7.13
552.616	9.12
552.811	10.75
553.006	8.55
553.201	9.42
553.395	11.87
553.59	11.91
553.785	11.22
553.98	13.8
554.175	11.3
554.37	10.95
554.565	10.04
554.759	12.23
554.954	8.59
555.149	12.92
555.344	13.26
555.538	13.07
555.733	14.1
555.928	14.11
556.122	14.88
556.317	13.72
556.512	11.76
556.706	9.13
556.901	10.65
557.096	10.1
557.29	10.19
557.485	8.21
557.68	4.71
557.874	8.27
558.069	5.36
558.263	4.55
558.458	5.21
558.652	6.28
558.847	6.79
559.041	9.37
559.236	6.22
559.43	5.28
559.625	5.02
559.819	1.3
560.014	-1.56
560.208	-2.98
560.402	-2.81
560.597	-1.25
560.791	1.31
560.986	1.65
561.18	2.92
561.374	-0.13
561.569	0.23
561.763	2.43
561.957	0.67
562.151	-1.97
562.346	1.17
562.54	2.2
562.734	-0.99
562.928	-3.09
563.123	-1.48
563.317	-1.84
563.511	-1.47
563.705	-2.21
563.899	0.66
564.093	1.68
564.288	1.12
564.482	2.58
564.676	1.82
564.87	3.66
565.064	4.15
565.258	4.05
565.452	4.94
565.646	4.28
565.84	3.08
566.034	2.51
566.228	5.92
566.422	3.5
566.616	4.78
566.81	4.94
567.004	6.98
567.198	7.61
567.392	7.45
567.586	7.24
567.779	9.61
567.973	7
568.167	8.63
568.361	8.45
568.555	8.65
568.749	8.2
568.942	4.92
569.136	6.11
569.33	6.28
569.524	6.31
569.718	6.69
569.911	8.39
570.105	9.4
570.299	8.01
570.492	10.82
570.686	10.35
570.88	12.39
571.073	10.6
571.267	8.82
571.461	9.98
571.654	10.92
571.848	9.95
572.041	12.75
572.235	12.71
572.429	15.13
572.622	14.09
572.816	13.99
573.009	15.33
573.203	12.52
573.396	13.29
573.59	15.7
573.783	16.04
573.976	15.79
574.17	15.28
574.363	14.1
574.557	11.07
574.75	11.12
574.943	11.4
575.137	13.12
575.33	15.5
575.523	15.9
575.717	13.52
575.91	11.81
576.103	10.52
576.297	9.32
576.49	9.07
576.683	8.29
576.876	7.62
577.07	6.96
577.263	8.47
577.456	7.38
577.649	5.9
577.842	7.45
578.036	9.04
578.229	9.59
578.422	10.08
578.615	10.44
578.808	8.23
579.001	9.61
579.194	9.59
579.387	10.08
579.58	8.6
579.773	10.1
579.966	11.19
580.159	10.57
580.352	10.29
580.545	9.72
580.738	8.6
580.931	9.36
581.124	9.45
581.317	6.18
581.51	4.32
581.703	3.88
581.896	2.28
582.088	-1.17
582.281	-0.01
582.474	0.27
582.667	0.93
582.86	1.51
583.053	-1.05
583.245	-2.17
583.438	-4.91
583.631	-2.47
583.824	-3.49
584.016	-2.62
584.209	-3.97
584.402	-3.81
584.594	-2.48
584.787	-0.18
584.98	-0.74
585.172	0.28
585.365	1.64
585.558	3.68
585.75	5.6
585.943	4.92
586.135	6.85
586.328	6.5
586.52	9.92
586.713	10.41
586.906	11.04
587.098	12.05
587.291	14
587.483	11.88
587.675	10.81
587.868	10.75
588.06	9.6
588.253	13.21
588.445	14.68
588.638	11.66
588.83	11.78
589.022	12.9
589.215	11.83
589.407	13.67
589.599	14.86
589.792	13.56
589.984	14.89
590.176	14.69
590.368	14.53
590.561	12.78
590.753	12.4
590.945	11.5
591.137	9.62
591.33	6.7
591.522	10.55
591.714	9.62
591.906	11.61
592.098	10.9
592.29	8.16
592.482	9.23
592.674	10.87
592.867	12.46
593.059	10.43
593.251	10.81
593.443	9.55
593.635	7.36
593.827	5.66
594.019	5.35
594.211	5.9
594.403	5.12
594.595	4.7
594.787	3.19
594.979	3.82
595.17	4.1
595.362	6.81
595.554	5.24
595.746	6.16
595.938	5.73
596.13	6.65
596.322	7.06
596.513	3.95
596.705	4.13
596.897	0.92
597.089	2.41
597.281	2.64
597.472	2.75
597.664	2.6
597.856	4.24
598.048	4.63
598.239	4.37
598.431	5.1
598.623	4.31
598.814	3.44
599.006	4.13
599.197	5.11
599.389	3.67
599.581	2.98
599.772	2.23
599.964	1.28
600.155	-0.31
600.347	-1.17
600.538	-0.57
600.73	-0.4
600.921	1.31
601.113	1.44
601.304	2.1
601.496	3.92
601.687	5.19
601.879	4.28
602.07	3.3
602.262	2.66
602.453	1.73
602.644	1.84
602.836	3.02
603.027	1.12
603.218	0.67
603.41	-0.77
603.601	0.46
603.792	0.97
603.983	1.86
604.175	2.85
604.366	2.24
604.557	3
604.748	3.39
604.94	2.36
605.131	1.97
605.322	2.17
605.513	1.13
605.704	1.32
605.895	0.77
606.086	0.35
606.278	1.36
606.469	2.33
606.66	3.38
606.851	1.74
607.042	2.76
607.233	2.46
607.424	5.2
607.615	5.93
607.806	5.84
607.997	6.11
608.188	5.96
608.379	6.8
608.57	4.79
608.761	3.48
608.952	4.64
609.142	6.05
609.333	5.61
609.524	6.15
609.715	6.61
609.906	5.94
610.097	8.23
610.287	6.18
610.478	6.01
610.669	7.37
610.86	9.22
611.051	9.17
611.241	8.24
611.432	6.49
611.623	6.78
611.813	6.27
612.004	4.9
612.195	6.57
612.385	7.39
612.576	10.27
612.767	11.42
612.957	10.41
613.148	9.38
613.338	8.67
613.529	8.15
613.72	8.04
613.91	9.55
614.101	6.79
614.291	8.83
614.482	9.31
614.672	7.07
614.863	6.8
615.053	6.41
615.243	8.7
615.434	8.67
615.624	6.92
615.815	6.77
616.005	7.16
616.195	5.12
616.386	2.76
616.576	1.51
616.766	1.48
616.957	3.47
617.147	2.84
617.337	2.71
617.528	1.37
617.718	0.46
617.908	-0.55
618.098	0.93
618.289	1.19
618.479	-1.1
618.669	-0.31
618.859	1.44
619.049	2.67
619.239	1.17
619.43	0.81
619.62	0.56
619.81	2.15
620	2.5
620.19	3.32
620.38	3.73
620.57	4.81
620.76	5.05
620.95	3.96
621.14	3.93
621.33	3.99
621.52	4.5
621.71	4.24
621.9	4.12
622.09	3.79
622.28	3.34
622.47	3.85
622.659	1.8
622.849	0.1
623.039	-0.41
623.229	-0.79
623.419	-0.59
623.609	-0.32
623.799	-1.92
623.988	-2.44
624.178	-1.75
624.368	-0.8
624.558	-0.07
624.747	-1.21
624.937	-0.66
625.127	-1.12
625.316	-0.88
625.506	0.01
625.696	0.21
625.885	-0.2
626.075	-1.4
626.265	-1.05
626.454	-0.22
626.644	1.31
626.833	1.46
627.023	2.02
627.212	1.57
627.402	3.46
627.591	4.49
627.781	6.07
627.97	7.52
628.16	6.8
628.349	6.39
628.539	3.73
628.728	4.79
628.918	3.36
629.107	3.4
629.296	2.1
629.486	0.82
629.675	1.75
629.865	2.26
630.054	3.87
630.243	2.24
630.432	0.78
630.622	1.88
630.811	2.19
631	2.03
631.19	4.59
631.379	1.42
631.568	-0.28
631.757	-0.64
631.946	-2.14
632.136	-1.15
632.325	-2.3
632.514	-0.87
632.703	-2.22
632.892	-2
633.081	-3.21
633.27	-1.83
633.459	-1.85
633.648	-3.59
633.837	-3.42
634.026	-2.38
634.215	-1.18
634.404	-0.21
634.593	0.47
634.782	0.35
634.971	-0.92
635.16	-4.42
635.349	-2.72
635.538	-0.06
635.727	-1.15
635.916	-1.53
636.105	-1.24
636.294	0.92
636.482	-0.29
636.671	0.44
636.86	1.93
637.049	3.09
637.238	2.57
637.426	3.88
637.615	4.07
637.804	5.33
637.993	4.58
638.181	4.2
638.37	5.01
638.559	4.13
638.747	4
638.936	4.98
639.125	7.24
639.313	6.7
639.502	5.15
639.691	5.25
639.879	4.85
640.068	3.43
640.256	1.82
640.445	3.16
640.633	2.83
640.822	1.26
641.01	3.02
641.199	4.5
641.387	4.37
641.576	4.99
641.764	5.14
641.953	4.35
642.141	4.42
642.329	4.2
642.518	3.66
642.706	3.51
642.894	2.43
643.083	1.55
643.271	1.64
643.459	1.97
643.648	1.84
643.836	2.54
644.024	2.67
644.213	3.68
644.401	2.34
644.589	3.23
644.777	4.06
644.965	3.58
645.154	2.19
645.342	2.35
645.53	2.25
645.718	1.97
645.906	1.79
646.094	2.13
646.282	1.6
646.47	2.08
646.658	1.06
646.846	-0.75
647.034	0.13
647.223	0.95
647.411	1.88
647.599	1.35
647.786	1.95
647.974	1.51
648.162	1.04
648.35	0.93
648.538	0.74
648.726	1.75
648.914	1.92
649.102	2.64
649.29	2.31
649.478	2.34
649.665	2.3
649.853	2.83
650.041	2.31
650.229	2.37
650.417	1.81
650.604	1.59
650.792	4.67
650.98	4.35
651.168	2.84
651.355	2.41
651.543	2.57
651.731	1.31
651.918	0.95
652.106	2.22
652.294	2.7
652.481	2.53
652.669	1.19
652.856	0.13
653.044	0.38
653.231	-0.46
653.419	-1.36
653.606	-1.76
653.794	-0.54
653.981	-0.23
654.169	-0.66
654.356	-1.8
654.544	0.32
654.731	0.55
654.919	-0.5
655.106	0.66
655.294	0.05
655.481	1.31
655.668	2.7
655.856	2.63
656.043	2.62
656.23	3.19
656.418	3.44
656.605	3.97
656.792	4.64
656.979	4.28
657.167	5.21
657.354	7
657.541	7.08
657.728	5.98
657.916	5.55
658.103	5.96
658.29	7.33
658.477	7.35
658.664	6.14
658.851	7.04
659.038	6.85
659.225	6.6
659.412	6.08
659.6	5.56
659.787	7.27
659.974	5.61
660.161	6.34
660.348	4.52
660.535	5.51
660.722	4.13
660.909	2.83
661.095	1.44
661.282	0.48
661.469	0.46
661.656	0.03
661.843	0.26
662.03	-0.05
662.217	0.09
662.404	0.52
662.59	0.43
662.777	-0.92
662.964	-1.05
663.151	-1.28
663.338	-0.08
663.524	-0.45
663.711	-1.66
663.898	-0.59
664.085	-0.97
664.271	-0.54
664.458	-1.74
664.645	-0.97
664.831	0.85
665.018	0.98
665.204	1.55
665.391	1.18
665.578	0.74
665.764	0.18
665.951	0.17
666.137	0.45
666.324	-0.14
666.51	-0.95
666.697	-0.64
666.883	-0.97
667.07	0.27
667.256	-1.52
667.443	-2.64
667.629	-2.03
667.816	-3.19
668.002	-4.74
668.188	-4.19
668.375	-3.89
668.561	-4.23
668.747	-6.53
668.934	-5.11
669.12	-5.53
669.306	-4.46
669.493	-4.71
669.679	-2.58
669.865	-1.95
670.051	-2.72
670.238	-2.18
670.424	-2.8
670.61	-2.67
670.796	-1.69
670.982	-2.54
671.169	-2.87
671.355	-2.35
671.541	-3.99
671.727	-2.43
671.913	-1.96
672.099	-1.9
672.285	-3.26
672.471	-2.18
672.657	-1.29
672.843	-1.6
673.029	-0.95
673.215	-0.12
673.401	2.9
673.587	-1.24
673.773	-1.6
673.959	-1.63
674.145	-2.78
674.331	-0.77
674.517	-0.3
674.703	0.44
674.888	1.36
675.074	1.67
675.26	2.96
675.446	4.38
675.632	3.59
675.817	4.02
676.003	4.43
676.189	4.86
676.375	3.13
676.56	3.18
676.746	3.98
676.932	1.78
677.117	0.8
677.303	-1.63
677.489	1.52
677.674	-0.26
677.86	0.19
678.046	-0.02
678.231	-0.3
678.417	-0.06
678.602	-1.86
678.788	-2.79
678.973	-1.89
679.159	-1.06
679.344	-1.07
679.53	-0.96
679.715	-1.23
679.901	-1.96
680.086	-2.28
680.272	-1.28
680.457	-0.54
680.643	-2.33
680.828	-0.61
681.013	-0.85
681.199	-0.54
681.384	-0.73
681.569	1.51
681.755	1.39
681.94	1.62
682.125	0.42
682.31	1.82
682.496	1.29
682.681	1.87
682.866	1.23
683.051	-0.63
683.237	-0.93
683.422	-0.99
683.607	-0.91
683.792	0.09
683.977	0.69
684.162	-0.64
684.347	-0.75
684.532	0.35
684.717	-1.03
684.903	-1.65
685.088	-0.24
685.273	-1.49
685.458	-2.83
685.643	-1.65
685.828	-2.8
686.013	-0.3
686.198	-2.65
686.382	-1.11
686.567	-0.87
686.752	-1.56
686.937	0.69
687.122	0.67
687.307	1.17
687.492	2.24
687.677	1.77
687.861	0.33
688.046	1.92
688.231	2.07
688.416	2.68
688.601	3.27
688.785	5.09
688.97	4.01
689.155	6.31
689.339	6.93
689.524	4.52
689.709	4.66
689.893	4.05
690.078	5.01
690.263	4.7
690.447	3.86
690.632	3.64
690.816	2.47
691.001	3.35
691.186	2.97
691.37	1.19
691.555	1.93
691.739	3.19
691.924	3.49
692.108	2.48
692.293	1.97
692.477	2.56
692.661	0.78
692.846	1.54
693.03	0.18
693.215	0.17
693.399	1.74
693.583	2.82
693.768	2.78
693.952	2.01
694.136	1.83
694.321	1.84
694.505	2.56
694.689	2.32
694.873	1.96
695.058	2.09
695.242	3.01
695.426	2.76
695.61	2.55
695.794	2.36
695.979	2.52
696.163	2.34
696.347	2.91
696.531	3.15
696.715	3.73
696.899	3.56
697.083	3.12
697.267	3.02
697.451	3.27
697.635	2.9
697.819	2.81
698.003	1.89
698.187	1.65
698.371	2.43
698.555	2.63
698.739	3.28
698.923	3.9
699.107	3.88
699.291	2.61
699.475	2.65
699.659	2.22
699.842	2.69
700.026	2.31
700.21	1.26
700.394	1.77
700.578	0.15
700.761	0.85
700.945	2.81
701.129	3.84
701.313	2.71
701.496	3.42
701.68	4.54
701.864	5.46
702.047	6.18
702.231	6.92
702.415	7.02
702.598	4.83
702.782	3.16
702.965	3.06
703.149	3.59
703.333	2.31
703.516	3.58
703.7	3.16
703.883	3.27
704.067	3.64
704.25	3.09
704.434	1.42
704.617	-0.09
704.801	-1.85
704.984	-4.77
705.167	-3.91
705.351	-5.44
705.534	-6.75
705.718	-6.51
705.901	-7.67
706.084	-8.25
706.268	-8.92
706.451	-7.46
706.634	-6.48
706.817	-7.43
707.001	-7.83
707.184	-6.4
707.367	-8.19
707.55	-6.99
707.734	-7.22
707.917	-7.63
708.1	-6.95
708.283	-4.21
708.466	-2.72
708.649	-2.27
708.832	-1.89
709.015	-1.48
709.199	-0.29
709.382	0.95
709.565	0.54
709.748	1.43
709.931	0.67
710.114	0.11
710.297	-1.31
710.48	-2.53
710.663	-1.1
710.846	0.04
711.028	-0.44
711.211	-0.49
711.394	-1.63
711.577	-1.99
711.76	-2.64
711.943	-2.17
712.126	-1.81
712.309	-0.26
712.491	1.02
712.674	1.53
712.857	2.49
713.04	1.18
713.222	0.82
713.405	0.62
713.588	0.59
713.771	0.55
713.953	1.55
714.136	2.77
714.319	4.4
714.501	3.09
714.684	2.98
714.866	4.04
715.049	5.6
715.232	5.88
715.414	6.61
715.597	8.39
715.779	7.29
715.962	6.38
716.144	3.65
716.327	3.18
716.509	2.78
716.692	0.12
716.874	0.23
717.057	0.62
717.239	1.28
717.421	2.34
717.604	1.99
717.786	2.94
717.968	2.77
718.151	1.5
718.333	0.58
718.515	0.03
718.698	-1.24
718.88	-2.86
719.062	-2.62
719.244	-2.61
719.427	-5.22
719.609	-5.08
719.791	-6.44
719.973	-5.16
720.155	-7.25
720.338	-6.82
720.52	-6.15
720.702	-5.76
720.884	-5.48
721.066	-6.28
721.248	-10.7
721.43	-10.26
721.612	-12.43
721.794	-11.93
721.976	-10.19
722.158	-8.79
722.34	-10.01
722.522	-8.99
722.704	-7.28
722.886	-8.42
723.068	-8.48
723.25	-6.67
723.432	-5.88
723.614	-3.81
723.796	-4.04
723.977	-2.11
724.159	-1.9
724.341	-2.14
724.523	-2.62
724.705	-3.54
724.886	-3.7
725.068	-0.44
725.25	0.81
725.432	1.24
725.613	0.46
725.795	-0.3
725.977	0.24
726.158	1.14
726.34	0.64
726.522	-0.01
726.703	1.36
726.885	2.58
727.066	1.94
727.248	3.54
727.43	2.88
727.611	2.64
727.793	1.65
727.974	1.36
728.156	1.6
728.337	0.47
728.519	-0.96
728.7	-0.4
728.882	-0.86
729.063	-2.29
729.244	-2.59
729.426	-1.34
729.607	-0.69
729.788	-1.11
729.97	-0.53
730.151	-0.19
730.332	0.96
730.514	1.17
730.695	1.05
730.876	2.59
731.058	-0.31
731.239	0.44
731.42	0.67
731.601	-0.87
731.782	-0.62
731.964	-0.12
732.145	1.97
732.326	1.71
732.507	1.12
732.688	2.32
732.869	4.35
733.05	5.81
733.231	6.16
733.412	3.88
733.593	4.17
733.774	4.88
733.955	4.84
734.136	2.79
734.317	1.27
734.498	1.83
734.679	-0.06
734.86	-1.3
735.041	-1.95
735.222	-1.92
735.403	-0.8
735.584	-1.36
735.765	-1.23
735.946	-2.04
736.126	-2.46
736.307	-1.65
736.488	-2.82
736.669	-7.4
736.849	-8.98
737.03	-8.12
737.211	-6.22
737.392	-6.23
737.572	-9.6
737.753	-10.1
737.934	-7.78
738.114	-5.81
738.295	-8.31
738.476	-7.29
738.656	-4.58
738.837	-4.13
739.017	-4.66
739.198	-3.41
739.378	-2.93
739.559	-2.6
739.74	-1.1
739.92	-0.44
740.1	-1.54
740.281	-3.75
740.461	-2
740.642	-1.12
740.822	-3.49
741.003	-2.38
741.183	-3.63
741.363	-1.39
741.544	-1.38
741.724	-2.68
741.904	-3.74
742.085	-3.68
742.265	-3.74
742.445	-4.59
742.626	-4.49
742.806	-4.28
742.986	-5.82
743.166	-5.95
743.347	-8.42
743.527	-8.86
743.707	-8.64
743.887	-8.65
744.067	-7.08
744.247	-5.35
744.427	-5.94
744.608	-6.51
744.788	-6.15
744.968	-4.34
745.148	-3.15
745.328	-3.5
745.508	-4.45
745.688	-4.09
745.868	-4.62
746.048	-5.65
746.228	-4.83
746.408	-5.31
746.588	-5.43
746.767	-4.65
746.947	-3.96
747.127	-2.58
747.307	-5.66
747.487	-4.16
747.667	-3.42
747.847	-2.5
748.026	-3.31
748.206	-2.38
748.386	-0.24
748.566	-0.8
748.745	-1.08
748.925	-1.57
749.105	-1.14
749.285	-0.47
749.464	-1.49
749.644	-1.58
749.824	-0.81
750.003	-2.16
750.183	-4.77
750.362	-4.29
750.542	-5.75
750.722	-6.98
750.901	-7.76
751.081	-6.29
751.26	-6.2
751.44	-6.71
751.619	-7.72
751.799	-9.28
751.978	-10.8
752.158	-13.36
752.337	-14.07
752.516	-14.07
752.696	-14.2
752.875	-13.76
753.055	-13.91
753.234	-11.85
753.413	-10.89
753.593	-9.56
753.772	-7.94
753.951	-5.71
754.13	-6
754.31	-5.53
754.489	-4.91
754.668	-4.03
754.847	-3.68
755.027	-2.94
755.206	-1
755.385	-0.36
755.564	2.5
755.743	2.42
755.922	2.67
756.101	2.84
756.28	3.45
756.46	3.28
756.639	1.71
756.818	2.66
756.997	2.34
757.176	2.75
757.355	1.93
757.534	0.96
757.713	1.26
757.892	0.84
758.07	1.99
758.249	2.85
758.428	3.2
758.607	2.73
758.786	3.45
758.965	2.1
759.144	2.61
759.323	0.93
759.501	1.48
759.68	2.29
759.859	2.62
760.038	3
760.216	3.35
760.395	4.15
760.574	4.16
760.753	4.47
760.931	5.91
761.11	6.21
761.289	6.37
761.467	5.68
761.646	5.93
761.824	5.97
762.003	4.22
762.182	3.36
762.36	4.37
762.539	3.07
762.717	2.97
762.896	2.5
763.074	1.57
763.253	1.63
763.431	2.73
763.61	2.83
763.788	0.87
763.966	-0.52
764.145	0.29
764.323	-0.09
764.502	-1.81
764.68	-2.54
764.858	-3.81
765.037	-3.39
765.215	-2.97
765.393	-2.96
765.571	-3.27
765.75	-1.85
765.928	-2.35
766.106	-3.18
766.284	-4.04
766.463	-3.71
766.641	-4.06
766.819	-1.82
766.997	-2.27
767.175	-3.85
767.353	-4.14
767.531	-2.5
767.71	-0.57
767.888	-1.8
768.066	-3.33
768.244	-2.04
768.422	-2.75
768.6	0.01
768.778	-0.42
768.956	-0.76
769.134	0.15
769.312	0.82
769.489	-0.49
769.667	2.04
769.845	3.23
770.023	4.18
770.201	4.28
770.379	3.17
770.557	2.67
770.735	2.75
770.912	2.46
771.09	2.51
771.268	2.3
771.446	0.37
771.623	1.72
771.801	4.07
771.979	2.52
772.157	1.22
772.334	-1.09
772.512	-1.39
772.69	-2.86
772.867	-4.13
773.045	-4.07
773.222	-4.64
773.4	-5.15
773.577	-6.57
773.755	-6.7
773.933	-7.69
774.11	-7.22
774.288	-8.06
774.465	-7.58
774.643	-6.82
774.82	-6.17
774.997	-7.77
775.175	-7.13
775.352	-5.93
775.53	-6.33
775.707	-5.65
775.884	-5.23
776.062	-4.04
776.239	-4.65
776.416	-2.05
776.594	-3.04
776.771	-4.17
776.948	-1.98
777.125	-4.33
777.303	-5.78
777.48	-6.21
777.657	-5.62
777.834	-3.68
778.012	-3.24
778.189	-3.03
778.366	-5.04
778.543	-9.14
778.72	-7.7
778.897	-6.95
779.074	-9.02
779.251	-8.58
779.428	-8.29
779.605	-8.43
779.782	-10.33
779.959	-11.63
780.136	-12.87
780.313	-11.26
780.49	-13.02
780.667	-11.74
780.844	-10.26
781.021	-9.18
781.198	-9.64
781.375	-8.46
781.552	-10.5
781.728	-10.41
781.905	-10.71
782.082	-7.55
782.259	-6.11
782.436	-7.53
782.612	-9.65
782.789	-10.45
782.966	-12.82
783.143	-12.26
783.319	-11.03
783.496	-8.41
783.673	-7.11
783.849	-5.78
784.026	-4.45
784.203	-2.17
784.379	-3.79
784.556	-3.9
784.732	-4.72
784.909	-6.13
785.085	-6.45
785.262	-5.67
785.438	-5.52
785.615	-5.01
785.791	-7.14
785.968	-6.76
786.144	-5.02
786.321	-3.46
786.497	-2.73
786.673	-2.55
786.85	-5
787.026	-4.67
787.203	-7.35
787.379	-8.27
787.555	-9.06
787.731	-8.99
787.908	-10.71
788.084	-10.26
788.26	-12.35
788.437	-10.23
788.613	-9.29
788.789	-12.07
788.965	-11.64
789.141	-11.94
789.317	-14.88
789.494	-14.84
789.67	-14.28
789.846	-14.02
790.022	-16.15
790.198	-16.53
790.374	-15.14
790.55	-13.9
790.726	-17.49
790.902	-16.02
791.078	-12.61
791.254	-13.11
791.43	-16.25
791.606	-15.85
791.782	-19
791.958	-17.65
792.134	-17.31
792.31	-16.27
792.486	-15.37
792.661	-15.19
792.837	-13.07
793.013	-11.6
793.189	-11.3
793.365	-10.58
793.54	-9.37
793.716	-7.95
793.892	-6.93
794.068	-9.79
794.243	-9.02
794.419	-8.43
794.595	-10.16
794.77	-11.27
794.946	-10.05
795.122	-9.17
795.297	-9.46
795.473	-6.89
795.648	-5.27
795.824	-6.96
796	-6.48
796.175	-4.28
796.351	-6.74
796.526	-8.06
796.702	-6.03
796.877	-4.72
797.052	-3.14
797.228	-7.12
797.403	-7.31
797.579	-4.48
797.754	-2.03
797.929	-1.21
798.105	0.17
798.28	2.45
798.455	2.05
798.631	0.44
798.806	1.31
798.981	1.94
799.157	1.66
799.332	-1.14
799.507	2.06
799.682	3.71
799.858	4.38
800.033	6.47
800.208	6.09
800.383	3.36
800.558	2.4
800.733	-0.2
800.908	1.47
801.083	2.75
801.258	0.64
801.434	0.38
801.609	-1.55
801.784	-1.06
801.959	-1.83
802.134	-0.79
802.309	-1.4
802.484	-3.73
802.658	-2.95
802.833	-2.53
803.008	-1.21
803.183	-4.5
803.358	-6.23
803.533	-6.99
803.708	-7.21
803.883	-7.44
804.057	-7.38
804.232	-6.72
804.407	-6.21
804.582	-5.25
804.756	-7.19
804.931	-7.17
805.106	-7.12
805.281	-4.29
805.455	-5.65
805.63	-4.52
805.805	-5.35
805.979	-1.98
806.154	-0.77
806.328	-2.78
806.503	-3.37
806.678	-4.34
806.852	-4.55
807.027	-6.99
807.201	-9.22
807.376	-7.99
807.55	-6.71
807.725	-5.8
807.899	-3.56
808.074	-2.04
808.248	-1.37
808.422	0.12
808.597	-2.4
808.771	-5.1
808.946	-4.37
809.12	-1.16
809.294	-3.08
809.468	-2.86
809.643	-2.41
809.817	-3.73
809.991	-2.98
810.166	-0.9
810.34	-0.53
810.514	2.34
810.688	4.8
810.862	4.03
811.037	5.01
811.211	3.34
811.385	3.45
811.559	2.03
811.733	2.98
811.907	0.5
812.081	-0.64
812.255	-0.48
812.429	3.13
812.603	0.41
812.777	0.39
812.951	0.02
813.125	-3.43
813.299	-8.61
813.473	-9.97
813.647	-5.59
813.821	-8.48
813.995	-3.96
814.169	-7.24
814.343	-8.64
814.516	-5.35
814.69	-5.09
814.864	-5.36
815.038	-4.45
815.212	-5.57
815.385	-7.6
815.559	-6.15
815.733	-7.76
815.907	-6.86
816.08	-4.97
816.254	-5.08
816.428	-7.11
816.601	-4.96
816.775	0.83
816.948	0.4
817.122	5.04
817.296	1
817.469	3.97
817.643	-0.16
817.816	0.31
817.99	-1.17
818.163	-1.34
818.337	-4.7
818.51	-5.54
818.684	-5.27
818.857	-3.48
819.031	-3.28
819.204	-2.89
819.377	-2.78
819.551	-3.09
819.724	-5.17
819.897	-4.21
820.071	-5.76
820.244	-11.35
820.417	-16.13
820.591	-12.07
820.764	-15.41
820.937	-12.89
821.11	-14.9
821.284	-12.09
821.457	-7.06
821.63	-2.98
821.803	-3.6
821.976	-0.12
822.149	3.11
822.322	3.55
822.496	-0.46
822.669	-1.26
822.842	0.6
823.015	0.05
823.188	1.21
823.361	-1.8
823.534	-5.34
823.707	-4.82
823.88	-2.57
824.053	-2.65
824.226	-3.55
824.399	-2.05
824.571	-1.8
824.744	0.29
824.917	-0.12
825.09	-4.95
825.263	-7.75
825.436	-6.76
825.608	-10.86
825.781	-10.92
825.954	-9.87
826.127	-9.58
826.299	-10.88
826.472	-14.17
826.645	-11.16
826.818	-10.26
826.99	-12.14
827.163	-11.7
827.336	-11.62
827.508	-10.31
827.681	-8.59
827.853	-10.71
828.026	-9.64
828.198	-9.05
828.371	-8.3
828.544	-10.29
828.716	-8.98
828.889	-10.69
829.061	-15.14
829.233	-15.84
829.406	-15.64
829.578	-19.93
829.751	-18.05
829.923	-17.42
830.096	-20.3
830.268	-20.17
830.44	-21.58
830.613	-18.43
830.785	-13.13
830.957	-15.62
831.129	-15.21
831.302	-15.04
831.474	-16.37
831.646	-17.2
831.818	-17.74
831.991	-20.21
832.163	-20.39
832.335	-19.66
832.507	-17.25
832.679	-14.52
832.851	-12.19
833.023	-14.02
833.195	-14.32
833.368	-15.61
833.54	-11.55
833.712	-10.64
833.884	-7.3
834.056	-6.94
834.228	-8.45
834.4	-3.82
834.571	2.79
834.743	3.04
834.915	0.14
835.087	5.41
835.259	10.02
835.431	6.77
835.603	2.44
835.775	1.57
835.946	1.43
836.118	2.55
836.29	0.11
836.462	-3.71
836.634	-2.46
836.805	-2.37
836.977	0.09
837.149	-1.93
837.32	1.15
837.492	-3.47
837.664	-8.4
837.835	-6.85
838.007	-12.19
838.179	-14.49
838.35	-10.02
838.522	-3.79
838.693	-10.35
838.865	-18.02
839.036	-17.93
839.208	-13.27
839.379	-9.97
839.551	-10.11
839.722	-7.38
839.894	-9.25
840.065	-4.88
840.237	-5.06
840.408	-4.26
840.579	-3.17
840.751	-5.13
840.922	-5.07
841.093	-5.61
841.265	-3.12
841.436	-0.57
841.607	-2.82
841.778	-6.39
841.95	-9.97
842.121	-9.57
842.292	-5.1
842.463	0.43
842.635	4.13
842.806	5.79
842.977	2.85
843.148	2.12
843.319	-2.31
843.49	0.92
843.661	-9.37
843.832	-12.12
844.003	-10.63
844.174	-12.07
844.345	-13.62
844.516	-21.49
844.687	-17.51
844.858	-13.63
845.029	-13.85
845.2	-8.47
845.371	-10.55
845.542	-14.58
845.713	-24.28
845.884	-26.44
846.055	-35.33
846.225	-37.74
846.396	-39.56
846.567	-31.26
846.738	-35.68
846.909	-34.96
847.079	-32.78
847.25	-18.46
847.421	-20.89
847.591	-28.94
847.762	-34.56
847.933	-39.65
848.103	-32.17
848.274	-42.4
848.445	-45.12
848.615	-50.41
848.786	-55.03
848.956	-43.13
849.127	-37.16
849.297	-24.8
849.468	-21.49
849.638	-18.11
849.809	-20.3
849.979	-19.76
850.15	-22.82
850.32	-17.25
850.491	-17.39
850.661	-15.75
850.831	-17.2
851.002	-15.7
851.172	-13
851.342	-12.44
851.513	-6.58
851.683	-4.64
851.853	-1.46
852.024	-4.7
852.194	-0.72
852.364	0.1
852.534	-1.95
852.705	0.26
852.875	-7.61
853.045	-11.79
853.215	-14.92
853.385	-14.11
853.555	-14.39
853.725	-17.91
853.895	-24.15
854.066	-22.4
854.236	-23.52
854.406	-32.98
854.576	-29.95
854.746	-33.14
854.916	-23.89
855.086	-27.22
855.256	-27.05
855.425	-29.1
855.595	-19.21
855.765	-24.09
855.935	-31.7
856.105	-32.34
856.275	-35.01
856.445	-32.02
856.614	-26.85
856.784	-17.02
856.954	-16.93
857.124	-20.32
857.294	-21.49
857.463	-15.86
857.633	-13.87
857.803	-17.42
857.972	-9.74
858.142	-7.68
858.312	-2.6
858.481	-4.24
858.651	-7.93
858.821	-9.3
858.99	-4.09
859.16	-12.71
859.329	-8.29
859.499	-3.3
859.668	-3.82
859.838	-4.17
860.007	6.09
860.177	5.68
860.346	-3.39
860.516	-8.52
860.685	-10.79
860.854	-8.27
861.024	-15.43
861.193	-18.03
861.363	-13.9
861.532	-16.14
861.701	-15.76
861.87	-17.11
862.04	-22.8
862.209	-20.58
862.378	-19.89
862.547	-22.54
862.717	-16.51
862.886	-16.06
863.055	-17.35
863.224	-18.15
863.393	-18.77
863.563	-27.03
863.732	-24.3
863.901	-21.5
864.07	-21.29
864.239	-16.22
864.408	-16.67
864.577	-13.93
864.746	-10.04
864.915	-13.14
865.084	-8.24
865.253	-14.37
865.422	-13.22
865.591	-12.64
865.76	-13.43
865.929	-19.33
866.097	-16.04
866.266	-24.08
866.435	-29.17
866.604	-26.99
866.773	-14.8
866.942	-24.29
867.11	-25.68
867.279	-30.21
867.448	-29.06
867.617	-16.44
867.785	-25.41
867.954	-29.55
868.123	-19.2
868.291	-41.97
868.46	-42.18
868.629	-46.76
868.797	-37.11
868.966	-33.96
869.134	-27.75
869.303	-16.04
869.472	-16.96
869.64	-24.67
869.809	-13.32
869.977	-6.65
870.146	-19.72
870.314	-31.45
870.482	-28.25
870.651	-34.4
870.819	-39.76
870.988	-38.62
871.156	-44.37
871.324	-44.97
871.493	-45.68
871.661	-40.19
871.829	-20.49
871.998	-23.8
872.166	-32.71
872.334	-40.63
872.502	-51
872.671	-54.82
872.839	-60.29
873.007	-47.52
873.175	-41.64
873.343	-50.72
873.512	-57.06
873.68	-48.65
873.848	-48.36
874.016	-43.91
874.184	-40.19
874.352	-40.41
874.52	-35.89
874.688	-34.54
874.856	-23.09
875.024	-24.8
875.192	-27.96
875.36	-41.49
875.528	-33.99
875.696	-24.22
875.864	-12.65
876.032	-0.28
876.199	-12.22
876.367	-8.53
876.535	-18.98
876.703	-14.59
876.871	-0
877.039	5.14
877.206	10.6
877.374	8.41
877.542	19.84
877.71	16.98
877.877	21.2
878.045	34.14
878.213	31.81
878.38	46.05
878.548	52.71
878.715	40.32
878.883	36.49
879.051	29.88
879.218	28.66
879.386	23.84
879.553	22.74
879.721	17.73
879.888	21.09
880.056	18.74
880.223	3.67
880.391	-21.36
880.558	-18.23
880.726	-9.1
880.893	-21.44
881.06	-30.71
881.228	-44.12
881.395	-20.67
881.562	-34.37
881.73	-56.94
881.897	-101.57
882.064	-81.62
882.231	-73.6
882.399	-58
882.566	-55.55
882.733	-57.24
882.9	-141.14
883.068	-104.8
883.235	-69.36
883.402	-94.29
883.569	-58.89
883.736	-15.32
883.903	-3.51
884.07	-8.73
884.237	-23.83
884.404	-11.21
884.571	-15.06
884.738	-3.11
884.905	-16.17
885.072	-12.26
885.239	-0.5
885.406	7.91
