Data from Transmission_09-26-18-286.txt Node
Date: Fri Aug 24 09:26:18 EEST 2018
User: tibor.sos
Spectrometer: USB4F01757
Scans to average: 10
Trigger mode: 4
Integration Time (sec): 1.000000E-2
Electric dark correction enabled: true
Boxcar width: 10
XAxis mode: Wavelengths
Number of Pixels in Spectrum: 3648
>>>>>Begin Spectral Data<<<<<
178.758	1.21
178.974	-52.67
179.191	-44.68
179.407	0.48
179.624	-3.44
179.84	-19.79
180.057	-13.18
180.273	4.65
180.489	19.14
180.706	-31.17
180.922	-12.75
181.138	-0.08
181.355	49.91
181.571	53.22
181.787	67.11
182.004	84.86
182.22	108.22
182.436	142.9
182.653	124.78
182.869	124.19
183.085	160.68
183.301	157.71
183.518	123.41
183.734	120.64
183.95	155.15
184.166	185.79
184.383	186.42
184.599	195.7
184.815	167.66
185.031	161.07
185.247	178.97
185.463	199.42
185.68	223.53
185.896	245.82
186.112	330.13
186.328	275.06
186.544	309.73
186.76	314.7
186.976	248.57
187.192	249.44
187.408	326.17
187.624	355.41
187.84	245.84
188.056	211.93
188.272	189.64
188.488	198.38
188.704	171.47
188.92	202.26
189.136	163.65
189.352	200.93
189.568	228.43
189.784	234.57
190	201.25
190.216	200.4
190.432	196.55
190.648	226.44
190.864	566.9
191.08	471.72
191.296	217.19
191.511	250.32
191.727	322.52
191.943	343.15
192.159	229.74
192.375	281.68
192.591	413.68
192.806	685.44
193.022	433.56
193.238	880.38
193.454	663.64
193.669	990.98
193.885	956.88
194.101	1362.73
194.317	827.19
194.532	6124.72
194.748	-4442.86
194.964	1724.36
195.18	785.82
195.395	716.33
195.611	586.78
195.827	1144.79
196.042	2113.65
196.258	1108.78
196.473	698.83
196.689	778.28
196.905	1144.24
197.12	4137.62
197.336	1394.66
197.551	-1544.71
197.767	413900
197.982	1097.09
198.198	6502.74
198.414	4951.69
198.629	1053.81
198.845	696.67
199.06	730.5
199.276	524.44
199.491	1984.32
199.707	433.5
199.922	272.77
200.137	305.35
200.353	304.12
200.568	255.71
200.784	293.91
200.999	327.47
201.215	522.27
201.43	515.62
201.645	419.81
201.861	464.82
202.076	378.09
202.291	452.18
202.507	491.42
202.722	382.36
202.937	862.85
203.153	741.71
203.368	501.6
203.583	305.55
203.798	347.01
204.014	340.26
204.229	394.25
204.444	472.67
204.659	924.52
204.875	1519.94
205.09	-3316.81
205.305	7530.19
205.52	-3030.08
205.735	-2198.2
205.951	12348
206.166	-662.03
206.381	-409.6
206.596	-4449.09
206.811	-1452.05
207.026	-839.48
207.241	-175.92
207.457	706.23
207.672	1625.62
207.887	-2335.51
208.102	-363.88
208.317	-482.2
208.532	1470.62
208.747	-1398.36
208.962	-808.88
209.177	1529.53
209.392	534.27
209.607	329.27
209.822	422.3
210.037	435.43
210.252	556.73
210.467	827.74
210.682	410.82
210.897	401.67
211.112	510.96
211.326	395.76
211.541	489.4
211.756	255.22
211.971	428.19
212.186	330.5
212.401	326.17
212.616	332.54
212.831	275.79
213.045	422.32
213.26	259.5
213.475	261.39
213.69	304.87
213.905	421.12
214.119	1168.78
214.334	-6366.67
214.549	-508.1
214.764	530.05
214.978	700
215.193	701.58
215.408	-4500
215.622	780
215.837	4735.56
216.052	-2481.61
216.266	-508.1
216.481	-606.67
216.696	-308.18
216.91	7293.94
217.125	772.95
217.34	1245.08
217.554	1251.35
217.769	-597.45
217.983	-286.13
218.198	-727.88
218.412	-1289.71
218.627	925.39
218.842	574.03
219.056	478.94
219.271	431.86
219.485	558.39
219.7	576.97
219.914	421.48
220.129	715.69
220.343	381.05
220.558	275.72
220.772	343.7
220.986	281.65
221.201	525.15
221.415	-479.95
221.63	-210.43
221.844	-205.12
222.058	-211.8
222.273	-196.28
222.487	-139.5
222.702	-129.29
222.916	-107.54
223.13	-60.57
223.344	-88.63
223.559	-17.67
223.773	-15.61
223.987	-43.2
224.202	-60.51
224.416	-86.57
224.63	-75.65
224.844	-123.83
225.059	-142.79
225.273	-2508.08
225.487	1765.6
225.701	254.49
225.915	202.02
226.13	184.43
226.344	173.36
226.558	188.3
226.772	156.31
226.986	170.15
227.2	177.81
227.415	181.6
227.629	226.58
227.843	248.8
228.057	197.8
228.271	159.97
228.485	208.11
228.699	246.94
228.913	275.44
229.127	293.19
229.341	311.54
229.555	447.09
229.769	585.13
229.983	722.12
230.197	696.09
230.411	989.57
230.625	1017.85
230.839	709.57
231.053	1097.88
231.267	2465.08
231.481	1868.08
231.695	1163.66
231.909	611.24
232.122	323.32
232.336	329.91
232.55	485.48
232.764	666
232.978	557.73
233.192	552.12
233.405	637.99
233.619	462.68
233.833	216.24
234.047	432.05
234.261	604.1
234.474	435.67
234.688	-914.88
234.902	-470.79
235.116	-236.16
235.329	-122.08
235.543	-384.64
235.757	-83.22
235.97	-117.19
236.184	-126.26
236.398	-51.38
236.612	-46.23
236.825	-97.42
237.039	-119.85
237.252	-144.82
237.466	-770.13
237.68	-4879.66
237.893	308700
238.107	1156.92
238.32	-2374.78
238.534	559.95
238.748	486.9
238.961	392.92
239.175	442.47
239.388	475.73
239.602	691.79
239.815	387.44
240.029	413.32
240.242	359.8
240.456	186.39
240.669	201.74
240.882	179.73
241.096	265.1
241.309	171.58
241.523	221.42
241.736	338.44
241.95	-741.34
242.163	742.11
242.376	191.39
242.59	328.8
242.803	-6340
243.016	-263.14
243.23	-856.3
243.443	-8233.33
243.656	597.74
243.87	167.24
244.083	139.5
244.296	149.05
244.509	158.97
244.723	139.89
244.936	154.13
245.149	157.27
245.362	120.02
245.576	69.06
245.789	80.44
246.002	68.22
246.215	55.36
246.428	67.23
246.641	75.63
246.855	101.09
247.068	122.51
247.281	60
247.494	48.18
247.707	43.6
247.92	21.01
248.133	22.88
248.346	28.72
248.559	38.34
248.772	17.24
248.985	17.01
249.198	33.07
249.411	40.85
249.624	49.55
249.837	51.8
250.05	75.29
250.263	63.19
250.476	73.8
250.689	64.93
250.902	54.75
251.115	43.61
251.328	50.3
251.541	47.1
251.754	54.06
251.967	58.3
252.18	59.88
252.393	59.42
252.605	64.63
252.818	70.92
253.031	70.77
253.244	70
253.457	71.67
253.67	69.22
253.882	64.85
254.095	64.78
254.308	74.46
254.521	73.71
254.733	69.05
254.946	70.97
255.159	75.83
255.372	71.59
255.584	72.97
255.797	74.51
256.01	75.85
256.222	70.5
256.435	70.13
256.648	73.84
256.86	83.04
257.073	93.41
257.285	84.3
257.498	93.96
257.711	99.95
257.923	88.08
258.136	95.43
258.348	84.73
258.561	85.2
258.773	73.34
258.986	62.42
259.198	79.5
259.411	73.05
259.623	64.05
259.836	80.56
260.048	67.7
260.261	76.32
260.473	77.02
260.686	71.1
260.898	65.84
261.111	44.09
261.323	40.06
261.535	24.08
261.748	28.72
261.96	34.86
262.173	30.03
262.385	32.2
262.597	31.92
262.81	39.74
263.022	47.3
263.234	50.84
263.447	57.74
263.659	57.15
263.871	60.22
264.083	61.22
264.296	62.11
264.508	66.58
264.72	63.83
264.932	62.33
265.145	66.62
265.357	67.61
265.569	76.83
265.781	78.21
265.993	102.9
266.205	117.25
266.418	111.97
266.63	130.23
266.842	133.07
267.054	127.27
267.266	112.09
267.478	95.46
267.69	84.83
267.902	56.81
268.114	71.34
268.326	39.83
268.538	35.34
268.75	17.71
268.962	13.66
269.174	5.83
269.386	16.04
269.598	33.13
269.81	39.68
270.022	34.32
270.234	35.94
270.446	40.64
270.658	38.61
270.87	42.4
271.082	43.75
271.294	41.91
271.506	38.38
271.718	38.08
271.929	39.99
272.141	44.24
272.353	45.97
272.565	46.47
272.777	53.5
272.989	55.7
273.2	66.9
273.412	63.71
273.624	61.44
273.836	59.36
274.047	56.44
274.259	59.9
274.471	65.2
274.683	62.19
274.894	63.69
275.106	68.53
275.318	64.54
275.529	66.01
275.741	64.48
275.953	74.42
276.164	79.35
276.376	79.05
276.588	74.03
276.799	79.34
277.011	76.73
277.222	81.49
277.434	76.75
277.646	62.77
277.857	69.65
278.069	80.65
278.28	82.23
278.492	72.46
278.703	53.33
278.915	56.32
279.126	56.97
279.338	43.04
279.549	36.36
279.761	32.93
279.972	31.72
280.183	30.39
280.395	26.44
280.606	18.7
280.818	15.82
281.029	25.82
281.24	26.14
281.452	23.49
281.663	19.89
281.875	27.58
282.086	31.02
282.297	24.85
282.508	25.18
282.72	28.02
282.931	28.88
283.142	35.45
283.354	27.78
283.565	37.29
283.776	48.68
283.987	44.65
284.199	48.49
284.41	55.66
284.621	66.63
284.832	55.82
285.043	55.83
285.254	60.04
285.466	46.63
285.677	48.2
285.888	41.86
286.099	41.44
286.31	34.04
286.521	28.98
286.732	36.37
286.943	34.59
287.154	28.99
287.366	25.96
287.577	23.01
287.788	28.45
287.999	20.84
288.21	13.92
288.421	25.84
288.632	20.94
288.843	22.71
289.054	21.04
289.264	23.16
289.475	21.13
289.686	24.23
289.897	25.45
290.108	29.17
290.319	31.53
290.53	34.63
290.741	36.73
290.952	42.8
291.163	45.21
291.373	46.74
291.584	49.62
291.795	51.31
292.006	58.5
292.217	51.45
292.427	55.72
292.638	58.12
292.849	52.78
293.06	61.95
293.27	57.26
293.481	54.58
293.692	52.34
293.903	48.7
294.113	47.19
294.324	45.54
294.535	41.96
294.745	42.06
294.956	42.72
295.167	34.86
295.377	28.99
295.588	30.37
295.798	25.36
296.009	25.54
296.22	28.66
296.43	19.79
296.641	21.47
296.851	21.74
297.062	11.19
297.272	13.45
297.483	7.62
297.693	12.03
297.904	6.66
298.114	9.29
298.325	12.72
298.535	5.72
298.746	8.1
298.956	9.95
299.167	6.11
299.377	2.8
299.587	11.86
299.798	14.75
300.008	4.99
300.219	8.3
300.429	14.04
300.639	13.74
300.85	17.63
301.06	10.31
301.27	14.17
301.481	25.29
301.691	26.52
301.901	28.71
302.111	26.33
302.322	31.91
302.532	34.17
302.742	35.43
302.952	40.4
303.163	36.34
303.373	37.36
303.583	42.96
303.793	40.73
304.003	38.3
304.214	33.38
304.424	33.26
304.634	29.88
304.844	24.87
305.054	33.16
305.264	33.45
305.474	38.63
305.684	37.38
305.894	37.57
306.104	40.26
306.314	38.18
306.525	36.99
306.735	39.16
306.945	34.66
307.155	36.23
307.365	35.83
307.575	40.6
307.784	40.8
307.994	35.59
308.204	32.81
308.414	30.13
308.624	34.06
308.834	37.93
309.044	42.56
309.254	42.55
309.464	39.34
309.674	32.47
309.884	30.1
310.093	33.57
310.303	31.88
310.513	32.8
310.723	34.81
310.933	34.7
311.142	33.16
311.352	35.64
311.562	36.37
311.772	32.33
311.981	32.37
312.191	31.78
312.401	34.8
312.611	38.98
312.82	39.63
313.03	37.67
313.24	37.49
313.449	38.47
313.659	39.07
313.869	36.64
314.078	42.9
314.288	45.43
314.497	41.89
314.707	41.28
314.917	39.5
315.126	38.78
315.336	39.04
315.545	33.77
315.755	36.53
315.964	34.46
316.174	42.61
316.383	44.68
316.593	42.45
316.802	42.15
317.012	38.03
317.221	38.44
317.431	41.05
317.64	38.07
317.849	34.39
318.059	36.12
318.268	39.71
318.478	39.42
318.687	38.25
318.896	40.37
319.106	39.53
319.315	36.15
319.524	33.07
319.734	26.84
319.943	33.74
320.152	32.46
320.362	32.1
320.571	28.74
320.78	29.06
320.989	35.27
321.199	32.18
321.408	32.26
321.617	29.57
321.826	27.36
322.035	23.18
322.245	21.8
322.454	21.34
322.663	16.67
322.872	11.24
323.081	13.35
323.29	11.01
323.5	9.01
323.709	13.34
323.918	12.2
324.127	18.58
324.336	16.66
324.545	7.35
324.754	12.83
324.963	12.92
325.172	9.14
325.381	8.16
325.59	10.84
325.799	10.77
326.008	8.22
326.217	7.98
326.426	25.3
326.635	33.31
326.844	27.06
327.053	37.45
327.262	42.87
327.47	35.54
327.679	38.13
327.888	37.38
328.097	35.34
328.306	41.83
328.515	41.69
328.724	45
328.932	47.38
329.141	45.3
329.35	44.06
329.559	47.43
329.768	45.16
329.976	48.53
330.185	51.05
330.394	52.42
330.602	52.1
330.811	37.83
331.02	35.69
331.229	46.09
331.437	44.3
331.646	42.58
331.855	44.91
332.063	42.24
332.272	44.7
332.48	45.43
332.689	45.02
332.898	36.32
333.106	34.75
333.315	42.61
333.523	37.61
333.732	40.65
333.94	43.31
334.149	47.48
334.357	44.17
334.566	44.26
334.774	52.43
334.983	52.69
335.191	62.2
335.4	59.77
335.608	53.19
335.817	43.91
336.025	59.13
336.234	67.63
336.442	65.32
336.65	70.5
336.859	61.95
337.067	58.29
337.275	74.99
337.484	64.2
337.692	58.26
337.9	69.7
338.109	67.44
338.317	66.45
338.525	59.02
338.734	63.73
338.942	58.97
339.15	43.07
339.358	47.35
339.567	57.89
339.775	53.66
339.983	54.21
340.191	55.95
340.399	47.94
340.608	46.37
340.816	46.53
341.024	39.91
341.232	43.19
341.44	51.49
341.648	44.87
341.856	47.76
342.064	51.43
342.272	43.44
342.481	45.83
342.689	43.49
342.897	44.18
343.105	41.07
343.313	51.5
343.521	52.77
343.729	47.55
343.937	39.45
344.145	38.15
344.353	43.17
344.56	42.35
344.768	33.15
344.976	30.79
345.184	24.6
345.392	26.98
345.6	25.24
345.808	24.09
346.016	32.76
346.224	38.47
346.431	36.39
346.639	34.67
346.847	37.54
347.055	41.5
347.263	40.47
347.471	41.98
347.678	33.99
347.886	34.42
348.094	39.57
348.302	46.96
348.509	54.35
348.717	44.65
348.925	55.67
349.132	67.02
349.34	61.73
349.548	64.16
349.755	68.26
349.963	71.27
350.171	65.67
350.378	61.77
350.586	61.12
350.793	68.82
351.001	76.59
351.209	70.31
351.416	63.97
351.624	62.95
351.831	59.88
352.039	57.93
352.246	54.55
352.454	50.14
352.661	42.2
352.869	34.43
353.076	34.95
353.284	30.29
353.491	33.99
353.699	34.63
353.906	34.13
354.113	31.9
354.321	34.34
354.528	39.63
354.736	32.03
354.943	29.12
355.15	22.39
355.358	15.57
355.565	5.56
355.772	8.2
355.98	17.1
356.187	21.53
356.394	19.6
356.601	23.06
356.809	32.33
357.016	38.6
357.223	43.89
357.43	43.64
357.638	42.16
357.845	41.71
358.052	42.23
358.259	46.77
358.466	53.36
358.673	44.75
358.881	40.67
359.088	36.26
359.295	40.98
359.502	40.78
359.709	51.12
359.916	60.09
360.123	51.44
360.33	44.99
360.537	41.76
360.744	45.46
360.951	43.98
361.158	40.9
361.365	42.44
361.572	41.61
361.779	50.11
361.986	56.78
362.193	55.02
362.4	50.83
362.607	43.57
362.814	30.43
363.021	35.99
363.228	35.6
363.435	41.36
363.641	40.94
363.848	50.95
364.055	47.85
364.262	48.85
364.469	46.82
364.676	42.74
364.882	39.15
365.089	34.74
365.296	38.73
365.503	34.32
365.709	28.8
365.916	30.52
366.123	25.38
366.33	25.35
366.536	29.24
366.743	26.47
366.95	31.36
367.156	38.97
367.363	32.83
367.57	33.68
367.776	34.41
367.983	40.82
368.19	34.13
368.396	33.23
368.603	32.51
368.809	47.43
369.016	52.65
369.222	54.17
369.429	59.39
369.635	56.14
369.842	58.9
370.048	63.82
370.255	58.41
370.461	55.56
370.668	46
370.874	40.61
371.081	44.77
371.287	44.53
371.494	44.19
371.7	53.92
371.906	50.68
372.113	51.82
372.319	52.59
372.526	49.69
372.732	48.53
372.938	46.18
373.145	40.64
373.351	40.22
373.557	46.77
373.763	44.08
373.97	40.25
374.176	41.33
374.382	40.92
374.588	46.32
374.795	49.66
375.001	53.56
375.207	56.27
375.413	58.01
375.62	60.82
375.826	64.25
376.032	58.64
376.238	54.91
376.444	55.46
376.65	37.96
376.856	44.93
377.062	45.15
377.269	52.2
377.475	52.4
377.681	54.15
377.887	39.53
378.093	31.6
378.299	41.76
378.505	40.39
378.711	32.38
378.917	21.36
379.123	22.47
379.329	22.99
379.535	18.58
379.741	21.39
379.947	25.5
380.152	26.96
380.358	25.5
380.564	27.95
380.77	20.88
380.976	29.71
381.182	30.11
381.388	31.99
381.594	18.39
381.799	19.08
382.005	16.75
382.211	23.35
382.417	29.95
382.623	23
382.828	29.28
383.034	32.93
383.24	40.31
383.445	35.25
383.651	39.57
383.857	43.24
384.063	33.31
384.268	16.55
384.474	13.63
384.68	11.72
384.885	9.76
385.091	16.54
385.296	19.85
385.502	21.25
385.708	11.82
385.913	19.57
386.119	18.22
386.324	23.42
386.53	21.36
386.735	17.94
386.941	33.13
387.146	30.78
387.352	29.23
387.557	28.29
387.763	35.24
387.968	27.84
388.174	29.28
388.379	30.2
388.585	40.05
388.79	37.82
388.996	37.6
389.201	48.65
389.406	38.81
389.612	31.57
389.817	29.78
390.022	40.84
390.228	39.85
390.433	42.43
390.638	34.63
390.844	37.81
391.049	42.66
391.254	37.94
391.459	35.94
391.665	35.43
391.87	36.06
392.075	36.19
392.28	44.57
392.485	49.65
392.691	52.4
392.896	46.11
393.101	50.12
393.306	59.4
393.511	58.19
393.716	63.13
393.922	58.74
394.127	53.28
394.332	53.32
394.537	52.12
394.742	52.82
394.947	57.92
395.152	54.36
395.357	48.84
395.562	52.88
395.767	52.7
395.972	54.11
396.177	50.98
396.382	47.43
396.587	42.35
396.792	40.98
396.997	36.94
397.202	47.77
397.407	48.05
397.611	39.36
397.816	37.61
398.021	37.85
398.226	37.54
398.431	43.29
398.636	44.2
398.841	44.86
399.045	49
399.25	49.3
399.455	51.19
399.66	50.6
399.864	39.84
400.069	38.26
400.274	39.74
400.479	39.69
400.683	37.73
400.888	41.87
401.093	35.7
401.297	40.09
401.502	26.47
401.707	22.38
401.911	33.43
402.116	43.9
402.321	49.8
402.525	60.46
402.73	64.86
402.934	63.33
403.139	72.48
403.344	59.57
403.548	62.65
403.753	59.5
403.957	60.71
404.162	70.93
404.366	74.18
404.571	58.45
404.775	72.43
404.98	75.57
405.184	71.64
405.388	72.54
405.593	70.5
405.797	56.69
406.002	62.78
406.206	59.92
406.41	61.15
406.615	64.31
406.819	59.14
407.023	52.54
407.228	47.22
407.432	41.38
407.636	49.45
407.841	46.65
408.045	50.08
408.249	46.44
408.453	47.9
408.658	50.86
408.862	64.82
409.066	58.7
409.27	61.74
409.474	57.46
409.679	52.52
409.883	59.31
410.087	78.16
410.291	68.53
410.495	58.16
410.699	38.52
410.903	30.4
411.108	28.79
411.312	11.79
411.516	14.03
411.72	23.82
411.924	16.26
412.128	16.22
412.332	20.82
412.536	42.27
412.74	49.11
412.944	43.38
413.148	30.22
413.352	22.14
413.556	17.88
413.76	22.12
413.964	36.29
414.167	39.87
414.371	36.9
414.575	39.79
414.779	40.28
414.983	46.48
415.187	41.72
415.391	44.61
415.594	63.02
415.798	53.41
416.002	52.64
416.206	55.6
416.41	55.54
416.613	49
416.817	40.36
417.021	35.43
417.225	39.44
417.428	39.37
417.632	35.45
417.836	43.51
418.039	44.06
418.243	42.47
418.447	26.04
418.65	35.42
418.854	39.38
419.057	45.22
419.261	39.55
419.465	49.78
419.668	54.67
419.872	53.62
420.075	66.96
420.279	67.23
420.482	64.25
420.686	65.12
420.889	62.3
421.093	60.65
421.296	66.02
421.5	55.32
421.703	60.27
421.907	70.64
422.11	65.38
422.314	69.43
422.517	64.68
422.72	73.83
422.924	69.13
423.127	68.46
423.33	70.57
423.534	81.18
423.737	74.92
423.94	71.03
424.144	68.77
424.347	63.84
424.55	57.51
424.754	61.14
424.957	63.14
425.16	65.36
425.363	61.09
425.567	61.19
425.77	71.98
425.973	76.53
426.176	67.76
426.379	65.45
426.582	69.27
426.786	77.4
426.989	81.76
427.192	94.33
427.395	88.27
427.598	81.15
427.801	81.3
428.004	79.93
428.207	84.75
428.41	88.73
428.613	88.41
428.816	95.24
429.019	103.03
429.222	97.05
429.425	100.64
429.628	95.31
429.831	90.94
430.034	83.69
430.237	79.72
430.44	78.88
430.643	77.02
430.846	77.15
431.049	73.55
431.252	67.67
431.454	60.15
431.657	55.93
431.86	63.95
432.063	64.11
432.266	64.44
432.469	58.96
432.671	54.13
432.874	51.32
433.077	40.71
433.28	34.62
433.482	33.7
433.685	25.06
433.888	23.44
434.09	19.11
434.293	21.99
434.496	20.56
434.698	25.96
434.901	36.97
435.104	30.46
435.306	29.66
435.509	31.74
435.712	39.62
435.914	34.46
436.117	34.18
436.319	37.43
436.522	33.29
436.724	40.37
436.927	35.85
437.129	39.67
437.332	48.66
437.534	53.71
437.737	58.59
437.939	63.05
438.142	67.25
438.344	66.01
438.547	74.27
438.749	74.39
438.951	63.63
439.154	60.96
439.356	61.49
439.558	63.6
439.761	64.89
439.963	45.66
440.165	56.64
440.368	60.1
440.57	51.56
440.772	54.58
440.975	39.44
441.177	39.3
441.379	40.39
441.581	39.9
441.784	29.54
441.986	37.52
442.188	24.18
442.39	30.83
442.592	24.33
442.795	23.21
442.997	19.77
443.199	21.93
443.401	20.09
443.603	26.73
443.805	16.2
444.007	15.43
444.209	17.37
444.411	15.3
444.613	12.52
444.815	22.12
445.017	25.06
445.219	26.71
445.421	29.41
445.623	28.34
445.825	20.04
446.027	11.43
446.229	2.31
446.431	12.51
446.633	2.11
446.835	1.9
447.037	6.65
447.239	5.3
447.441	11.32
447.643	13.52
447.844	-0.27
448.046	21.21
448.248	17.47
448.45	23.85
448.652	13.06
448.853	23.29
449.055	17.92
449.257	20.58
449.459	21.11
449.66	17.04
449.862	20.04
450.064	30.11
450.266	39.4
450.467	32.7
450.669	39.6
450.871	51.1
451.072	71.31
451.274	62.08
451.475	48.96
451.677	49.44
451.879	61.02
452.08	64.81
452.282	58.88
452.483	74.21
452.685	70.67
452.886	80.99
453.088	60.25
453.289	59.78
453.491	64.79
453.692	66.79
453.894	75.27
454.095	71.66
454.297	82.4
454.498	84.21
454.7	100.26
454.901	88.5
455.102	66.37
455.304	58.78
455.505	50.79
455.706	61.94
455.908	60.15
456.109	51.1
456.31	42.14
456.512	34.87
456.713	36.62
456.914	34.87
457.116	31.95
457.317	50.66
457.518	50.72
457.719	46.09
457.921	48.23
458.122	48.4
458.323	46.07
458.524	41.15
458.725	42.68
458.926	41.61
459.128	35.62
459.329	38.34
459.53	38.57
459.731	43.46
459.932	34.37
460.133	39.27
460.334	50.37
460.535	65.75
460.736	77.18
460.937	74.97
461.138	73.46
461.339	73.65
461.54	58.7
461.741	57.67
461.942	50.76
462.143	54.83
462.344	56.03
462.545	56.72
462.746	60.91
462.947	51.99
463.148	58.32
463.348	63.74
463.549	65.99
463.75	70.65
463.951	79.88
464.152	82.76
464.353	82.54
464.553	79.51
464.754	76.61
464.955	74.49
465.156	68.54
465.356	66.86
465.557	65.2
465.758	70.01
465.959	70.6
466.159	71.35
466.36	65.47
466.561	62.99
466.761	63.26
466.962	57.21
467.163	63.35
467.363	54.87
467.564	61.88
467.764	64.08
467.965	58.22
468.166	49.49
468.366	55.38
468.567	53.79
468.767	58.14
468.968	55.61
469.168	49.5
469.369	54.94
469.569	52.83
469.77	54.27
469.97	56.75
470.17	54.07
470.371	58.21
470.571	57.79
470.772	54.32
470.972	56.08
471.172	60.48
471.373	51.12
471.573	53.97
471.773	47.81
471.974	47.55
472.174	44.01
472.374	45.47
472.575	45.66
472.775	46.57
472.975	34.73
473.175	37.79
473.376	39.98
473.576	35.99
473.776	44.3
473.976	41.79
474.177	38.97
474.377	34.93
474.577	34.46
474.777	39.38
474.977	38.16
475.177	37.96
475.377	36.15
475.577	42.24
475.777	44.48
475.978	43.29
476.178	41.76
476.378	43.84
476.578	48.88
476.778	42.38
476.978	42.28
477.178	46.17
477.378	41.91
477.578	40.7
477.778	42.61
477.977	37.08
478.177	37.61
478.377	39.22
478.577	44.11
478.777	50.04
478.977	43.22
479.177	42.15
479.377	43.57
479.577	37.89
479.776	34.72
479.976	36.06
480.176	34.16
480.376	31.49
480.576	29.02
480.775	22.02
480.975	23.47
481.175	20.66
481.374	21.97
481.574	23.82
481.774	21.48
481.974	23.04
482.173	23.8
482.373	18.72
482.572	21.44
482.772	22.87
482.972	20.62
483.171	26.95
483.371	30.15
483.57	26.71
483.77	31.44
483.97	33.1
484.169	34.04
484.369	33.31
484.568	33.3
484.768	38.26
484.967	39.43
485.167	41.47
485.366	44.03
485.566	41.72
485.765	44.37
485.964	42.65
486.164	39.26
486.363	37.45
486.563	38.1
486.762	37.1
486.961	36.57
487.161	36.55
487.36	29.05
487.559	28.11
487.759	25.04
487.958	21.49
488.157	19.31
488.356	19.01
488.556	18.51
488.755	19.33
488.954	16.81
489.153	17.76
489.353	17.57
489.552	15.26
489.751	8.74
489.95	6.91
490.149	8.1
490.348	8.4
490.548	10.71
490.747	7.66
490.946	6.42
491.145	3.07
491.344	-1.65
491.543	2.31
491.742	-0.92
491.941	-1.3
492.14	-1.79
492.339	-1.09
492.538	-5.64
492.737	-4.66
492.936	-2.2
493.135	-4.74
493.334	-5.31
493.533	-10.38
493.732	-4.2
493.931	2.44
494.13	-3.25
494.328	1.98
494.527	2.91
494.726	0.77
494.925	-1.04
495.124	0.13
495.323	3.06
495.521	4.08
495.72	7
495.919	11.88
496.118	13.53
496.316	17.61
496.515	18.81
496.714	17.2
496.913	19.65
497.111	18.69
497.31	15.28
497.509	15.96
497.707	15.71
497.906	15.73
498.105	15.89
498.303	21.2
498.502	19.35
498.7	18.77
498.899	17.28
499.097	22.68
499.296	22.48
499.495	24.51
499.693	27.47
499.892	26.88
500.09	22.99
500.289	24.48
500.487	24.76
500.686	23.9
500.884	25.89
501.082	26.8
501.281	23.65
501.479	28.41
501.678	30.45
501.876	32.48
502.074	30.9
502.273	32.56
502.471	32.1
502.669	30.39
502.868	34.47
503.066	37.19
503.264	36.54
503.463	34.34
503.661	27.4
503.859	27.04
504.057	26.77
504.256	24.93
504.454	27.81
504.652	28.03
504.85	29.98
505.048	33.74
505.246	30.29
505.445	30.9
505.643	32.78
505.841	32.83
506.039	34.68
506.237	33.68
506.435	32.77
506.633	30.34
506.831	38.21
507.029	37.1
507.227	35.61
507.425	37.82
507.623	41.71
507.821	44.71
508.019	44.35
508.217	44.26
508.415	48.55
508.613	43.17
508.811	41.94
509.009	41.39
509.207	35.9
509.405	37.23
509.603	39.85
509.8	37.59
509.998	35.2
510.196	33.26
510.394	35.31
510.592	36.16
510.79	36.91
510.987	30.71
511.185	28.44
511.383	28.11
511.581	30.28
511.778	30.15
511.976	32.24
512.174	32.41
512.371	31.18
512.569	30.29
512.767	33.29
512.964	32.64
513.162	32.17
513.36	29.34
513.557	28.38
513.755	27.21
513.952	28.64
514.15	29.26
514.348	30.18
514.545	26.64
514.743	25.74
514.94	26.83
515.138	26.13
515.335	27.85
515.533	32.45
515.73	30.1
515.927	27.55
516.125	23.17
516.322	24.54
516.52	26.64
516.717	21.54
516.915	24.33
517.112	26.78
517.309	26.25
517.507	33.93
517.704	32.66
517.901	33.67
518.099	27.14
518.296	29.99
518.493	30.57
518.69	32.53
518.888	34.59
519.085	34.83
519.282	36.88
519.479	34.56
519.676	24.99
519.874	21.01
520.071	19.42
520.268	20.76
520.465	20.58
520.662	21.61
520.859	23.73
521.056	24.06
521.254	23.28
521.451	25.19
521.648	21.6
521.845	25.07
522.042	24.96
522.239	31.87
522.436	26.57
522.633	20.91
522.83	23.04
523.027	20.71
523.224	17.8
523.421	19.94
523.618	22.46
523.815	30.32
524.011	32.37
524.208	36.66
524.405	39.76
524.602	39.58
524.799	35.21
524.996	36.5
525.193	34.8
525.389	34.41
525.586	30.46
525.783	29.05
525.98	26.26
526.176	25.64
526.373	21.95
526.57	24.14
526.767	27.76
526.963	24.31
527.16	25.63
527.357	31.59
527.553	27.96
527.75	26.07
527.947	25.07
528.143	25.6
528.34	25.77
528.537	23.18
528.733	24.2
528.93	29.2
529.126	32.37
529.323	32.29
529.519	29.64
529.716	28.1
529.912	29.27
530.109	30.31
530.305	30.9
530.502	32.4
530.698	33.31
530.895	29.39
531.091	30.8
531.288	27.91
531.484	27.49
531.68	28.39
531.877	28.91
532.073	28.92
532.269	27.33
532.466	26.32
532.662	25.1
532.858	22.08
533.055	21.61
533.251	17.47
533.447	18.84
533.643	21.29
533.84	21.59
534.036	21.5
534.232	22.08
534.428	20.87
534.624	21.25
534.821	20.19
535.017	21.88
535.213	22.18
535.409	26.28
535.605	24.44
535.801	23.32
535.997	27.75
536.193	27.02
536.389	29.29
536.586	30.05
536.782	32.85
536.978	34.06
537.174	33.5
537.37	36.38
537.566	35.3
537.762	35.99
537.958	38.54
538.153	38.35
538.349	37.87
538.545	39.5
538.741	37.51
538.937	35.99
539.133	38.54
539.329	38.64
539.525	35.32
539.721	35.09
539.916	34.69
540.112	30.36
540.308	34.38
540.504	36.5
540.699	39.39
540.895	37.9
541.091	39.95
541.287	38.23
541.482	36.99
541.678	36.91
541.874	32.96
542.069	32.24
542.265	33.3
542.461	31.44
542.656	30.86
542.852	29.16
543.048	32.22
543.243	34.39
543.439	33.65
543.634	34.73
543.83	33.78
544.025	32.72
544.221	33.92
544.417	31.98
544.612	29.65
544.807	28.19
545.003	27.55
545.198	28.65
545.394	31.2
545.589	33.39
545.785	31.45
545.98	32.52
546.176	31.07
546.371	29.09
546.566	29.64
546.762	29.44
546.957	33.62
547.152	31.2
547.348	27.98
547.543	27.67
547.738	25.46
547.933	25.89
548.129	27.91
548.324	28.88
548.519	26.84
548.714	27.15
548.91	25.94
549.105	24.5
549.3	22.27
549.495	20.23
549.69	18.34
549.885	19.51
550.08	18.43
550.276	21.86
550.471	23.64
550.666	23.39
550.861	24.43
551.056	21.92
551.251	24.07
551.446	27.69
551.641	24.45
551.836	23.4
552.031	23.01
552.226	22.75
552.421	21.54
552.616	23.01
552.811	25.12
553.006	23.63
553.201	24.58
553.395	24.2
553.59	24.25
553.785	24.05
553.98	24.94
554.175	24.44
554.37	22.42
554.565	23.71
554.759	24.55
554.954	21.26
555.149	20.28
555.344	20.88
555.538	17.67
555.733	20.06
555.928	22.7
556.122	23.79
556.317	20.07
556.512	21.93
556.706	22.38
556.901	20.29
557.096	20.43
557.29	23.18
557.485	21.71
557.68	17.85
557.874	17.36
558.069	15.79
558.263	17.08
558.458	17.11
558.652	15.53
558.847	14.98
559.041	17.41
559.236	17.68
559.43	17.04
559.625	20.13
559.819	20.29
560.014	18.66
560.208	17.21
560.402	20.37
560.597	19.7
560.791	18.49
560.986	19.42
561.18	18.8
561.374	18.13
561.569	17.35
561.763	19.64
561.957	17.77
562.151	18.23
562.346	18.78
562.54	21.58
562.734	19.3
562.928	18.13
563.123	20.14
563.317	21.94
563.511	23.32
563.705	19.91
563.899	19.64
564.093	18.39
564.288	18.84
564.482	17.89
564.676	18.45
564.87	21.45
565.064	19.41
565.258	20.6
565.452	17.35
565.646	20.61
565.84	19.99
566.034	20.1
566.228	19.76
566.422	20.95
566.616	18.74
566.81	20.83
567.004	23.2
567.198	19.97
567.392	17.75
567.586	13.42
567.779	13.95
567.973	13.21
568.167	15.52
568.361	15.62
568.555	17.55
568.749	16.33
568.942	13.54
569.136	18.17
569.33	17.37
569.524	18.22
569.718	17.25
569.911	18.28
570.105	19.78
570.299	18.76
570.492	18.61
570.686	18.97
570.88	17.67
571.073	16.32
571.267	15.59
571.461	16.2
571.654	19.61
571.848	20.62
572.041	21.6
572.235	21.23
572.429	21.55
572.622	18.92
572.816	18.86
573.009	19.79
573.203	16.15
573.396	18.29
573.59	19.06
573.783	18.56
573.976	18.65
574.17	18.31
574.363	19.22
574.557	18.03
574.75	15.09
574.943	17.67
575.137	18.87
575.33	20.57
575.523	20.38
575.717	19.23
575.91	17.43
576.103	16.9
576.297	17.18
576.49	17.36
576.683	18.34
576.876	19.58
577.07	17.89
577.263	20.03
577.456	16.96
577.649	16.2
577.842	16.74
578.036	17.23
578.229	17.32
578.422	16.65
578.615	16.6
578.808	17.44
579.001	17.56
579.194	18.39
579.387	19.15
579.58	19.03
579.773	18.47
579.966	19.67
580.159	18.51
580.352	18.88
580.545	19.02
580.738	17.64
580.931	15.4
581.124	18.03
581.317	14.89
581.51	16.6
581.703	17.9
581.896	17.28
582.088	17.76
582.281	19
582.474	18.97
582.667	20.35
582.86	21.23
583.053	19.03
583.245	19.25
583.438	19.07
583.631	18.86
583.824	19.24
584.016	18.97
584.209	20.28
584.402	19.36
584.594	20.15
584.787	22.87
584.98	23.33
585.172	21.83
585.365	20.91
585.558	21.21
585.75	20.84
585.943	21.53
586.135	22.05
586.328	20.5
586.52	21.45
586.713	20.58
586.906	19.98
587.098	22.46
587.291	20.77
587.483	19.02
587.675	19.77
587.868	17.86
588.06	18.43
588.253	18.91
588.445	18.37
588.638	15.72
588.83	15.19
589.022	13.03
589.215	13.15
589.407	15.34
589.599	15.71
589.792	16.53
589.984	16.11
590.176	15.29
590.368	16.52
590.561	17.11
590.753	18.15
590.945	17.77
591.137	15.44
591.33	14.95
591.522	15.4
591.714	12.5
591.906	18.07
592.098	17.26
592.29	16.39
592.482	18.96
592.674	19.91
592.867	18.33
593.059	19.27
593.251	19.15
593.443	20
593.635	17.21
593.827	15.88
594.019	15.43
594.211	14.32
594.403	14.99
594.595	14.3
594.787	13.84
594.979	15.36
595.17	15.49
595.362	16.39
595.554	17.55
595.746	19.64
595.938	16.75
596.13	17.66
596.322	18.24
596.513	14.88
596.705	15.07
596.897	15.64
597.089	16.32
597.281	15.64
597.472	15.74
597.664	15.99
597.856	17.05
598.048	17.62
598.239	18.18
598.431	15.84
598.623	14.72
598.814	12.37
599.006	13.44
599.197	14.58
599.389	13.14
599.581	11.41
599.772	12.03
599.964	11.15
600.155	10.81
600.347	9.96
600.538	12
600.73	12.65
600.921	12.74
601.113	13.64
601.304	15.61
601.496	15.29
601.687	16.44
601.879	13.86
602.07	13.72
602.262	13.24
602.453	13.55
602.644	13.95
602.836	14.95
603.027	14.83
603.218	14.33
603.41	16.14
603.601	16.24
603.792	15.77
603.983	16.61
604.175	16.99
604.366	17.03
604.557	17.62
604.748	17.08
604.94	17.02
605.131	15.45
605.322	14.51
605.513	13.63
605.704	13.96
605.895	15.62
606.086	15.45
606.278	15.79
606.469	17.47
606.66	18.46
606.851	17.38
607.042	15.79
607.233	13.66
607.424	13.42
607.615	15
607.806	15.24
607.997	15.29
608.188	14.72
608.379	14.15
608.57	13.39
608.761	13.25
608.952	12.89
609.142	12.92
609.333	13.34
609.524	13.56
609.715	14.12
609.906	12.99
610.097	12.91
610.287	10.87
610.478	9.87
610.669	10.79
610.86	13.18
611.051	12.65
611.241	15.4
611.432	14.14
611.623	13.2
611.813	12.14
612.004	13.59
612.195	13.83
612.385	15.09
612.576	15.41
612.767	14.88
612.957	15.21
613.148	15.65
613.338	14.38
613.529	12.88
613.72	12.02
613.91	12.19
614.101	13.5
614.291	15.9
614.482	17.71
614.672	15.62
614.863	14.46
615.053	14.99
615.243	14
615.434	14.31
615.624	12.98
615.815	15.24
616.005	13.09
616.195	12.34
616.386	11.34
616.576	11.12
616.766	12.79
616.957	13.9
617.147	14.75
617.337	13.69
617.528	14.12
617.718	13.52
617.908	13.29
618.098	11.08
618.289	12.95
618.479	9.68
618.669	10.73
618.859	12.39
619.049	12.48
619.239	13.73
619.43	13.66
619.62	14.69
619.81	13.94
620	15.51
620.19	15.77
620.38	15.76
620.57	15.45
620.76	14.66
620.95	13.91
621.14	13.6
621.33	13.81
621.52	16.14
621.71	16.03
621.9	15.9
622.09	16.23
622.28	14.03
622.47	13.67
622.659	11.93
622.849	10.16
623.039	10.22
623.229	8.49
623.419	9.2
623.609	7.23
623.799	6.78
623.988	5.29
624.178	5.6
624.368	5.5
624.558	5.37
624.747	4.94
624.937	4.56
625.127	2.9
625.316	3.49
625.506	2.88
625.696	3.94
625.885	5
626.075	5.82
626.265	6.94
626.454	7.87
626.644	9.28
626.833	8.59
627.023	9.04
627.212	8.74
627.402	9.47
627.591	11.73
627.781	10.98
627.97	12.17
628.16	11.12
628.349	11.17
628.539	11.42
628.728	11.49
628.918	11.86
629.107	12.8
629.296	12.08
629.486	11.73
629.675	11.77
629.865	10.27
630.054	10.7
630.243	8.96
630.432	9.72
630.622	9.56
630.811	10.18
631	10.34
631.19	12.22
631.379	11.64
631.568	10.83
631.757	12.44
631.946	12.04
632.136	14.14
632.325	13.94
632.514	14.11
632.703	14.9
632.892	14.26
633.081	14.45
633.27	15.58
633.459	14.74
633.648	13.31
633.837	13.41
634.026	12.48
634.215	14.82
634.404	14.41
634.593	16.31
634.782	18.15
634.971	17.68
635.16	17.16
635.349	16.9
635.538	17.92
635.727	15.92
635.916	14.99
636.105	15
636.294	16.84
636.482	16.07
636.671	14.61
636.86	15.97
637.049	16.58
637.238	16.07
637.426	17.17
637.615	16.88
637.804	18.17
637.993	18.21
638.181	16.52
638.37	16.59
638.559	15.64
638.747	15.22
638.936	15.82
639.125	15.57
639.313	16.18
639.502	15.31
639.691	14.59
639.879	13.63
640.068	12.93
640.256	11.51
640.445	11.72
640.633	13.05
640.822	11.62
641.01	11.05
641.199	11.5
641.387	11.54
641.576	13.05
641.764	14.05
641.953	12.54
642.141	13.01
642.329	13.59
642.518	12.8
642.706	11.54
642.894	10.85
643.083	11.17
643.271	11.28
643.459	12.43
643.648	15.41
643.836	16.49
644.024	17.04
644.213	16.64
644.401	16.9
644.589	16.62
644.777	17.31
644.965	18.74
645.154	18.69
645.342	18.44
645.53	19.18
645.718	18.88
645.906	19.85
646.094	19.12
646.282	17.05
646.47	17.57
646.658	17.26
646.846	18.56
647.034	19.69
647.223	20.64
647.411	20.8
647.599	18.02
647.786	18.95
647.974	17.15
648.162	17.75
648.35	18.17
648.538	17.56
648.726	18.37
648.914	17.91
649.102	18.1
649.29	17.67
649.478	16.87
649.665	16.72
649.853	17.45
650.041	17.52
650.229	19.68
650.417	19.11
650.604	20.19
650.792	18.89
650.98	17.32
651.168	14.66
651.355	14.16
651.543	14.65
651.731	13.15
651.918	13.52
652.106	13.63
652.294	13.02
652.481	14.09
652.669	13.12
652.856	13.52
653.044	13.32
653.231	12.72
653.419	13.26
653.606	12.37
653.794	12.68
653.981	13.39
654.169	12.35
654.356	12.28
654.544	12.01
654.731	11.52
654.919	10.66
655.106	11.28
655.294	11.81
655.481	13.34
655.668	14.19
655.856	13.6
656.043	13.35
656.23	13.69
656.418	13.67
656.605	14.19
656.792	13.38
656.979	13.84
657.167	14.51
657.354	14.27
657.541	14.08
657.728	13.37
657.916	11.66
658.103	11.99
658.29	11.95
658.477	12.81
658.664	13.76
658.851	14.19
659.038	14.67
659.225	13.59
659.412	13.21
659.6	12.78
659.787	14.1
659.974	13.55
660.161	14.52
660.348	12.11
660.535	14
660.722	12.27
660.909	11.45
661.095	12.76
661.282	12.81
661.469	13.22
661.656	13.27
661.843	14.27
662.03	14.14
662.217	14.84
662.404	14.5
662.59	13.34
662.777	12.85
662.964	11.92
663.151	12.56
663.338	11.48
663.524	11.87
663.711	10.59
663.898	11.39
664.085	11.39
664.271	12.78
664.458	9.99
664.645	11.3
664.831	12.12
665.018	11.67
665.204	11.62
665.391	11.54
665.578	11.53
665.764	11.19
665.951	10.81
666.137	9.37
666.324	9.51
666.51	9.35
666.697	10.64
666.883	11.26
667.07	10.17
667.256	12.52
667.443	11.31
667.629	11.62
667.816	10.91
668.002	9.31
668.188	9.32
668.375	10.44
668.561	10.41
668.747	9.31
668.934	7.86
669.12	7.74
669.306	8.32
669.493	8.93
669.679	10.28
669.865	10.49
670.051	10.55
670.238	10.78
670.424	10.9
670.61	11.07
670.796	11.74
670.982	11
671.169	8.57
671.355	9.25
671.541	10.13
671.727	9.83
671.913	10.68
672.099	10.56
672.285	7.77
672.471	8.09
672.657	8.86
672.843	10.51
673.029	11.03
673.215	11.16
673.401	11.55
673.587	9.35
673.773	10.11
673.959	10.68
674.145	9.05
674.331	11.62
674.517	11.18
674.703	10.06
674.888	12.17
675.074	12.08
675.26	13.23
675.446	12.41
675.632	12.62
675.817	10.81
676.003	10.71
676.189	12.78
676.375	12.03
676.56	11.6
676.746	10.68
676.932	9.64
677.117	8.39
677.303	8.04
677.489	9.44
677.674	8.01
677.86	7.12
678.046	8.82
678.231	6.63
678.417	6.41
678.602	7.47
678.788	6.16
678.973	8.03
679.159	7.98
679.344	8.91
679.53	8.3
679.715	9.6
679.901	9.35
680.086	9.78
680.272	10.17
680.457	8.73
680.643	9.23
680.828	9.74
681.013	10.5
681.199	9.89
681.384	9.57
681.569	10.94
681.755	10.94
681.94	9.75
682.125	9.43
682.31	10.56
682.496	11.05
682.681	12.39
682.866	11.17
683.051	10.21
683.237	9.46
683.422	10.8
683.607	9.46
683.792	11.34
683.977	10.24
684.162	9.8
684.347	10.5
684.532	9.78
684.717	9.15
684.903	8.9
685.088	9.48
685.273	10.01
685.458	9.27
685.643	11.36
685.828	10.77
686.013	11.64
686.198	10.44
686.382	8.76
686.567	9.09
686.752	7.94
686.937	8.24
687.122	8.52
687.307	8.29
687.492	9.14
687.677	7.37
687.861	8.32
688.046	7.63
688.231	8.33
688.416	9.26
688.601	9.09
688.785	9.98
688.97	9.9
689.155	10.76
689.339	9.47
689.524	7.96
689.709	8.47
689.893	8.68
690.078	9.71
690.263	10.28
690.447	9.74
690.632	10.75
690.816	12.04
691.001	12.57
691.186	12.39
691.37	13.49
691.555	13.46
691.739	13.87
691.924	14.41
692.108	14.58
692.293	13.65
692.477	14.83
692.661	14.3
692.846	13.55
693.03	11.95
693.215	13.35
693.399	14.12
693.583	14.67
693.768	14.53
693.952	14.28
694.136	14.51
694.321	15.38
694.505	15.27
694.689	13.38
694.873	13.42
695.058	14.02
695.242	14.97
695.426	15.28
695.61	13.47
695.794	13.59
695.979	12.22
696.163	12.22
696.347	11.51
696.531	9.44
696.715	9.64
696.899	10.74
697.083	9.47
697.267	9.11
697.451	9.09
697.635	9.65
697.819	9.57
698.003	9.53
698.187	8.02
698.371	7.85
698.555	9.62
698.739	9.71
698.923	9.35
699.107	6.64
699.291	5.56
699.475	5.88
699.659	6.02
699.842	7.27
700.026	6.63
700.21	7.2
700.394	9.34
700.578	9.51
700.761	9.55
700.945	11.16
701.129	10.56
701.313	9.88
701.496	9.78
701.68	9.55
701.864	9.56
702.047	10.31
702.231	12.88
702.415	12.05
702.598	10.89
702.782	10.35
702.965	12.27
703.149	14.11
703.333	14.14
703.516	15.35
703.7	13.85
703.883	15.22
704.067	15.72
704.25	14.49
704.434	14.28
704.617	13.86
704.801	12.97
704.984	13.62
705.167	14.62
705.351	14.2
705.534	14.64
705.718	15.11
705.901	14.3
706.084	12.4
706.268	11.98
706.451	11.64
706.634	11.1
706.817	9.84
707.001	8.76
707.184	9.18
707.367	6.83
707.55	8.85
707.734	7.54
707.917	7.15
708.1	8.24
708.283	8.91
708.466	10.02
708.649	10.61
708.832	10.83
709.015	11.05
709.199	10.15
709.382	8.92
709.565	8.48
709.748	8.31
709.931	7.43
710.114	7.6
710.297	7.97
710.48	8.8
710.663	9.2
710.846	9.37
711.028	9.07
711.211	10.15
711.394	10.41
711.577	10.24
711.76	8.69
711.943	8.81
712.126	7.14
712.309	6.55
712.491	7.36
712.674	6.73
712.857	6.94
713.04	7.92
713.222	8.39
713.405	8.45
713.588	9.34
713.771	9.62
713.953	9.68
714.136	9.48
714.319	10.46
714.501	10.44
714.684	9.2
714.866	8.88
715.049	8.58
715.232	7.77
715.414	7.29
715.597	8.59
715.779	7.34
715.962	8.93
716.144	7.96
716.327	8.24
716.509	9.53
716.692	8.74
716.874	8.73
717.057	9.03
717.239	9.49
717.421	9.21
717.604	6.68
717.786	6.76
717.968	6.3
718.151	5.55
718.333	4.58
718.515	5.8
718.698	6.02
718.88	6.39
719.062	5.99
719.244	7.97
719.427	7.2
719.609	8.47
719.791	7.25
719.973	7.62
720.155	5.47
720.338	4.52
720.52	5.72
720.702	6.6
720.884	7.87
721.066	6.41
721.248	3.49
721.43	5.78
721.612	5.87
721.794	7.74
721.976	7.63
722.158	8.81
722.34	8.82
722.522	9.89
722.704	9.96
722.886	10.13
723.068	8.93
723.25	9.77
723.432	9.79
723.614	11.96
723.796	12.22
723.977	12.17
724.159	12.02
724.341	10.22
724.523	7.15
724.705	5.29
724.886	5.75
725.068	9.02
725.25	9.9
725.432	9.48
725.613	8.62
725.795	8.98
725.977	9.35
726.158	9.79
726.34	8.81
726.522	9.43
726.703	10.2
726.885	10.48
727.066	9.64
727.248	10.04
727.43	7.92
727.611	7.59
727.793	8.55
727.974	7.94
728.156	9.28
728.337	10.3
728.519	10.37
728.7	11.56
728.882	9.74
729.063	10.69
729.244	9.84
729.426	10.25
729.607	10.23
729.788	9.56
729.97	9.5
730.151	9.35
730.332	10.09
730.514	9.21
730.695	11.55
730.876	11.61
731.058	11.03
731.239	12.47
731.42	12.8
731.601	12.02
731.782	12.54
731.964	11.99
732.145	13.18
732.326	11.82
732.507	10.76
732.688	12.78
732.869	12.1
733.05	13.87
733.231	14.17
733.412	11.83
733.593	12.02
733.774	12.82
733.955	13.27
734.136	13.27
734.317	13.49
734.498	13.01
734.679	12.53
734.86	11.71
735.041	12.06
735.222	12.3
735.403	13.46
735.584	14.06
735.765	14.62
735.946	12.93
736.126	12.99
736.307	14.11
736.488	10.65
736.669	7.83
736.849	6.08
737.03	5.83
737.211	8.83
737.392	8.58
737.572	6
737.753	5.43
737.934	3.99
738.114	5.19
738.295	3.3
738.476	3
738.656	4.49
738.837	4.47
739.017	3.93
739.198	4.34
739.378	6.12
739.559	5.16
739.74	7.07
739.92	7.56
740.1	6.97
740.281	8.74
740.461	11.59
740.642	12.67
740.822	11.27
741.003	11.71
741.183	11.74
741.363	13.26
741.544	13.47
741.724	12.89
741.904	10.92
742.085	10.61
742.265	11.8
742.445	11.34
742.626	10.88
742.806	11.18
742.986	10.13
743.166	8.18
743.347	8.32
743.527	8.67
743.707	8.34
743.887	7.11
744.067	7.21
744.247	7.76
744.427	7.77
744.608	8.53
744.788	9.19
744.968	10.01
745.148	10.75
745.328	10.81
745.508	10.68
745.688	11.34
745.868	11.93
746.048	12.63
746.228	13.67
746.408	12.6
746.588	13.22
746.767	14.16
746.947	16.29
747.127	16.08
747.307	13.94
747.487	14.74
747.667	15.62
747.847	16.87
748.026	15.37
748.206	14.86
748.386	15.31
748.566	12.76
748.745	12.58
748.925	12.15
749.105	11.9
749.285	12.45
749.464	13.97
749.644	14.38
749.824	13.58
750.003	12.94
750.183	11.86
750.362	11.4
750.542	9.33
750.722	6.98
750.901	7.06
751.081	7.62
751.26	8.66
751.44	7.99
751.619	7.92
751.799	7.91
751.978	6.45
752.158	6.9
752.337	7.5
752.516	6.92
752.696	5.84
752.875	7.56
753.055	7.14
753.234	6.29
753.413	6.46
753.593	6.44
753.772	6.53
753.951	8.31
754.13	8.86
754.31	9.64
754.489	9.13
754.668	9.81
754.847	11.71
755.027	11.42
755.206	12.11
755.385	11.71
755.564	12.64
755.743	14.1
755.922	13.12
756.101	13.02
756.28	14.25
756.46	14.16
756.639	12.41
756.818	12.94
756.997	13.32
757.176	12.31
757.355	12.79
757.534	11.6
757.713	10.03
757.892	9.2
758.07	9.02
758.249	10.24
758.428	9.34
758.607	8.15
758.786	8.5
758.965	7.58
759.144	7.44
759.323	5.49
759.501	4.76
759.68	4.44
759.859	5.12
760.038	5.19
760.216	4.85
760.395	5.11
760.574	5.74
760.753	6.25
760.931	7.09
761.11	7.59
761.289	7.92
761.467	8.84
761.646	8.47
761.824	9.5
762.003	8.83
762.182	8.38
762.36	8.83
762.539	8.9
762.717	8.99
762.896	9.47
763.074	10.17
763.253	10.4
763.431	11.58
763.61	11.39
763.788	10.15
763.966	10.35
764.145	10.2
764.323	9.61
764.502	8.71
764.68	8.4
764.858	5.63
765.037	7.33
765.215	7.21
765.393	7.11
765.571	7.1
765.75	7.76
765.928	8.55
766.106	6.86
766.284	7.15
766.463	7.64
766.641	6.98
766.819	8
766.997	8.05
767.175	8.6
767.353	8.46
767.531	9.68
767.71	11.64
767.888	11.73
768.066	11.52
768.244	10.49
768.422	11.78
768.6	15.41
768.778	13.61
768.956	12.9
769.134	13.37
769.312	12.95
769.489	10.9
769.667	11.39
769.845	12.95
770.023	12.72
770.201	13.65
770.379	14.24
770.557	14.25
770.735	13.76
770.912	11.92
771.09	11.6
771.268	11.89
771.446	10.37
771.623	11.69
771.801	12.72
771.979	12.74
772.157	10.1
772.334	8.28
772.512	9.45
772.69	10.85
772.867	11.65
773.045	11.66
773.222	12.82
773.4	13.47
773.577	12.49
773.755	11.91
773.933	11.12
774.11	9.54
774.288	9.86
774.465	11.58
774.643	11.96
774.82	12.83
774.997	11.57
775.175	11.49
775.352	12.57
775.53	11.22
775.707	11.85
775.884	13.19
776.062	12.94
776.239	11.95
776.416	12.6
776.594	11.29
776.771	10.98
776.948	9.24
777.125	9.22
777.303	9.02
777.48	10.03
777.657	9.25
777.834	9.97
778.012	8.01
778.189	7.3
778.366	7.67
778.543	5.72
778.72	6.27
778.897	7.64
779.074	5.75
779.251	7.64
779.428	6.56
779.605	5.88
779.782	5.16
779.959	4.53
780.136	3.11
780.313	4.88
780.49	3.58
780.667	6.67
780.844	5.85
781.021	7.15
781.198	5.88
781.375	6.53
781.552	6.5
781.728	6.72
781.905	6.42
782.082	7.18
782.259	7.85
782.436	7.29
782.612	6.12
782.789	5.84
782.966	5.01
783.143	5.92
783.319	7.61
783.496	9.74
783.673	10.93
783.849	11.63
784.026	10.17
784.203	11.46
784.379	9.89
784.556	11.45
784.732	10.53
784.909	10.45
785.085	10.37
785.262	10.64
785.438	11.91
785.615	13.33
785.791	12.62
785.968	14.26
786.144	15.31
786.321	16.41
786.497	14.63
786.673	12.84
786.85	11.84
787.026	8.75
787.203	7.4
787.379	6.27
787.555	5.31
787.731	5.82
787.908	4.88
788.084	7.07
788.26	3.69
788.437	5.7
788.613	8.05
788.789	7.28
788.965	7.16
789.141	5.83
789.317	2.61
789.494	3.06
789.67	2.87
789.846	2.7
790.022	0.43
790.198	4.26
790.374	4.39
790.55	3.81
790.726	5.43
790.902	5.58
791.078	7.61
791.254	7.66
791.43	7.73
791.606	8.45
791.782	8.47
791.958	10.22
792.134	9.18
792.31	7.61
792.486	9.46
792.661	9.87
792.837	12.72
793.013	15.37
793.189	15.66
793.365	14.87
793.54	14.64
793.716	16.1
793.892	17.33
794.068	16.71
794.243	17.97
794.419	18.73
794.595	19.47
794.77	20.21
794.946	22.04
795.122	21.61
795.297	22.15
795.473	21.55
795.648	20.37
795.824	19.81
796	20.08
796.175	19.51
796.351	19.76
796.526	20.2
796.702	19.5
796.877	19.67
797.052	20.35
797.228	20.81
797.403	18.78
797.579	14.43
797.754	14.81
797.929	17.59
798.105	18.07
798.28	17.31
798.455	17.17
798.631	15.15
798.806	15.21
798.981	15.46
799.157	14.62
799.332	16.87
799.507	19.23
799.682	19.84
799.858	19.82
800.033	19.75
800.208	17.52
800.383	17.77
800.558	15.97
800.733	15.96
800.908	16.2
801.083	19.37
801.258	19.68
801.434	22.59
801.609	20.48
801.784	21.06
801.959	21.86
802.134	18.63
802.309	19.56
802.484	20.11
802.658	20.14
802.833	19.18
803.008	17.75
803.183	14.17
803.358	13.58
803.533	12.45
803.708	11.95
803.883	12.22
804.057	9.81
804.232	11.84
804.407	12.42
804.582	12.67
804.756	8.93
804.931	9.56
805.106	7.53
805.281	7.63
805.455	5.55
805.63	5.06
805.805	4.31
805.979	5.49
806.154	6.15
806.328	5.46
806.503	6.9
806.678	7.63
806.852	9.59
807.027	8.75
807.201	7.64
807.376	8.7
807.55	10.19
807.725	10.6
807.899	12.7
808.074	12.89
808.248	13.62
808.422	14.36
808.597	14.9
808.771	17
808.946	20.19
809.12	22.21
809.294	22.1
809.468	24.6
809.643	23.28
809.817	24.04
809.991	23.31
810.166	23.83
810.34	22.47
810.514	22.83
810.688	23.17
810.862	22.07
811.037	22.36
811.211	21.74
811.385	22.09
811.559	22.12
811.733	21.23
811.907	18.18
812.081	18.85
812.255	17.19
812.429	16.17
812.603	13.89
812.777	11.92
812.951	11.41
813.125	9.63
813.299	7.68
813.473	3.96
813.647	9.15
813.821	9.16
813.995	11.94
814.169	12.12
814.343	12.39
814.516	15.8
814.69	12.82
814.864	11.27
815.038	13.36
815.212	12.73
815.385	12.06
815.559	14.23
815.733	13.91
815.907	15.37
816.08	15.83
816.254	17.04
816.428	18.07
816.601	19.2
816.775	20.06
816.948	19.01
817.122	20.14
817.296	19.42
817.469	20.28
817.643	20.6
817.816	18.57
817.99	17.16
818.163	17.92
818.337	18.17
818.51	20.84
818.684	24.26
818.857	23.8
819.031	24.44
819.204	21.48
819.377	24.4
819.551	23.89
819.724	22.85
819.897	20.68
820.071	21.16
820.244	19.85
820.417	20.08
820.591	23.34
820.764	24.81
820.937	24.34
821.11	21.36
821.284	21.96
821.457	24.87
821.63	22.82
821.803	22.56
821.976	28.05
822.149	27.13
822.322	26.26
822.496	25.22
822.669	24.04
822.842	27.09
823.015	24.86
823.188	22.7
823.361	25.07
823.534	23.31
823.707	22.28
823.88	23.5
824.053	22.19
824.226	23.12
824.399	23.14
824.571	22.83
824.744	24.08
824.917	23.57
825.09	19.48
825.263	22.49
825.436	26.37
825.608	22.25
825.781	22.18
825.954	24.11
826.127	22.26
826.299	24.14
826.472	23.43
826.645	24.85
826.818	30.16
826.99	28.26
827.163	29.53
827.336	31.41
827.508	30.38
827.681	33.55
827.853	34.56
828.026	35.75
828.198	36.13
828.371	34.66
828.544	32.9
828.716	35.74
828.889	34.83
829.061	32.67
829.233	32.93
829.406	34.88
829.578	28.69
829.751	31.26
829.923	31.2
830.096	28.68
830.268	28.28
830.44	25.51
830.613	24.93
830.785	26.75
830.957	26.74
831.129	28.41
831.302	28.19
831.474	26.89
831.646	27.09
831.818	23.96
831.991	26.03
832.163	24.93
832.335	24.03
832.507	22.56
832.679	19.69
832.851	20.01
833.023	17.79
833.195	18.3
833.368	18.13
833.54	18.03
833.712	19.86
833.884	23.69
834.056	23.52
834.228	23.58
834.4	28.21
834.571	25.39
834.743	22.44
834.915	21.96
835.087	22.82
835.259	21.13
835.431	23.6
835.603	21.98
835.775	22.64
835.946	26.88
836.118	29.74
836.29	30.04
836.462	31.43
836.634	32.93
836.805	33.07
836.977	33.73
837.149	35.85
837.32	36.48
837.492	33.45
837.664	31.84
837.835	31
838.007	20.6
838.179	24.18
838.35	30.53
838.522	33.58
838.693	31.19
838.865	30.64
839.036	26.38
839.208	26.69
839.379	28.68
839.551	27.17
839.722	25.87
839.894	27.51
840.065	26.17
840.237	24.12
840.408	25.54
840.579	27.59
840.751	24.42
840.922	25.11
841.093	22.47
841.265	23.32
841.436	23.5
841.607	28.9
841.778	29.28
841.95	23.9
842.121	22.63
842.292	21.49
842.463	24.18
842.635	27.28
842.806	28.1
842.977	26.88
843.148	27.81
843.319	30.1
843.49	29.79
843.661	32.46
843.832	35.23
844.003	37.78
844.174	33.66
844.345	38.74
844.516	36.42
844.687	41.47
844.858	44.48
845.029	46.39
845.2	42.83
845.371	42.55
845.542	46.66
845.713	39.69
845.884	41.47
846.055	36.95
846.225	43.14
846.396	42.15
846.567	40.36
846.738	34.95
846.909	32.28
847.079	27.8
847.25	28.95
847.421	26.06
847.591	19.31
847.762	19.5
847.933	9.91
848.103	12.69
848.274	8.03
848.445	6.65
848.615	7.27
848.786	8.97
848.956	4.77
849.127	1.33
849.297	12.72
849.468	15.16
849.638	20.46
849.809	15.44
849.979	12.38
850.15	10.76
850.32	10.38
850.491	10.73
850.661	17.48
850.831	15.7
851.002	16.91
851.172	23.13
851.342	21.11
851.513	27.37
851.683	29.48
851.853	32.07
852.024	30.88
852.194	30.75
852.364	28.43
852.534	30.91
852.705	35.65
852.875	34.3
853.045	32.24
853.215	32.62
853.385	34.82
853.555	43.23
853.725	40.02
853.895	38.21
854.066	35.33
854.236	33.05
854.406	36.4
854.576	39.65
854.746	32.38
854.916	39.69
855.086	38.84
855.256	40.27
855.425	40.81
855.595	42.06
855.765	41.44
855.935	38.57
856.105	38.51
856.275	29.57
856.445	20.59
856.614	21.03
856.784	25.75
856.954	23.31
857.124	18.58
857.294	29.13
857.463	36.13
857.633	43.96
857.803	41.05
857.972	38.12
858.142	36.96
858.312	43.45
858.481	38.25
858.651	30.61
858.821	29.97
858.99	26.65
859.16	19.03
859.329	20.62
859.499	25.19
859.668	19.94
859.838	24.06
860.007	33.83
860.177	38.42
860.346	35.71
860.516	38.67
860.685	35.29
860.854	29.64
861.024	27.13
861.193	17.76
861.363	17.77
861.532	18.29
861.701	19.65
861.87	18.62
862.04	19.2
862.209	26.52
862.378	25.29
862.547	27.85
862.717	33.24
862.886	31.7
863.055	30.85
863.224	33.96
863.393	30.44
863.563	26.19
863.732	28.13
863.901	25.45
864.07	24.31
864.239	27.36
864.408	29.39
864.577	30.59
864.746	37.7
864.915	43.6
865.084	45.54
865.253	48
865.422	49.27
865.591	46.94
865.76	43.95
865.929	43.16
866.097	46.23
866.266	47.44
866.435	49.89
866.604	48.82
866.773	44.4
866.942	48.34
867.11	55.86
867.279	50.22
867.448	60.93
867.617	69.05
867.785	72.02
867.954	70.97
868.123	65.02
868.291	59.11
868.46	55.11
868.629	60.49
868.797	53.24
868.966	61.24
869.134	59.35
869.303	63.94
869.472	62.16
869.64	58.2
869.809	55.2
869.977	47.9
870.146	53.87
870.314	61.12
870.482	65.54
870.651	59.22
870.819	57.9
870.988	49.58
871.156	45.61
871.324	48.07
871.493	51.67
871.661	61.38
871.829	68.34
871.998	67.09
872.166	63.63
872.334	72.44
872.502	60.52
872.671	58.38
872.839	60.97
873.007	59.51
873.175	53.98
873.343	53.85
873.512	60.47
873.68	60.8
873.848	53.91
874.016	52.47
874.184	55.62
874.352	48.86
874.52	55.21
874.688	57.6
874.856	56.92
875.024	57.95
875.192	54.85
875.36	54.34
875.528	56.62
875.696	56.91
875.864	54.91
876.032	55.52
876.199	62.69
876.367	56.2
876.535	56.81
876.703	58.08
876.871	62
877.039	71.07
877.206	74.04
877.374	83.07
877.542	83.69
877.71	89.76
877.877	105.67
878.045	107.97
878.213	99.05
878.38	104.37
878.548	101.72
878.715	100.19
878.883	102.18
879.051	116.17
879.218	97.75
879.386	83.61
879.553	82.71
879.721	69.28
879.888	78.64
880.056	100.64
880.223	118.7
880.391	132.72
880.558	119.06
880.726	104.16
880.893	103.67
881.06	91.65
881.228	83.27
881.395	65.37
881.562	68.31
881.73	70.19
881.897	69.91
882.064	63
882.231	45.36
882.399	44.74
882.566	33.75
882.733	72.29
882.9	112.68
883.068	124.67
883.235	153.59
883.402	162.18
883.569	111.63
883.736	97.13
883.903	93.92
884.07	98.66
884.237	105.25
884.404	102.89
884.571	120.34
884.738	116.91
884.905	129.54
885.072	131.92
885.239	130.56
885.406	119.87
