Data from Transmission_09-20-22-365.txt Node
Date: Fri Aug 24 09:20:22 EEST 2018
User: tibor.sos
Spectrometer: USB4F01757
Scans to average: 10
Trigger mode: 4
Integration Time (sec): 1.000000E-2
Electric dark correction enabled: true
Boxcar width: 10
XAxis mode: Wavelengths
Number of Pixels in Spectrum: 3648
>>>>>Begin Spectral Data<<<<<
178.758	-33.72
178.974	-81.68
179.191	-194.09
179.407	-11.95
179.624	-24.46
179.84	-6.92
180.057	-37.91
180.273	12.59
180.489	30.72
180.706	13.73
180.922	17.28
181.138	84.37
181.355	101.2
181.571	112.42
181.787	190.48
182.004	164.37
182.22	212.44
182.436	202.13
182.653	143.94
182.869	116.6
183.085	122.95
183.301	163.33
183.518	112.18
183.734	108.51
183.95	117.6
184.166	134.22
184.383	124.87
184.599	139.92
184.815	113.41
185.031	99.33
185.247	95.87
185.463	111.73
185.68	87.89
185.896	89.21
186.112	136.16
186.328	124.61
186.544	134.67
186.76	134.49
186.976	136.67
187.192	151.43
187.408	180.48
187.624	225.17
187.84	153.29
188.056	122.7
188.272	128.94
188.488	126.16
188.704	115.31
188.92	121.81
189.136	94.15
189.352	111.43
189.568	130.46
189.784	173.11
190	167.08
190.216	185.54
190.432	210.1
190.648	195.18
190.864	334.49
191.08	239.75
191.296	112.91
191.511	82.66
191.727	119.79
191.943	155.88
192.159	107.04
192.375	110.29
192.591	188.86
192.806	308.71
193.022	206.66
193.238	469.19
193.454	363.38
193.669	543.95
193.885	539.82
194.101	746.92
194.317	362.16
194.532	1912.36
194.748	-1020.17
194.964	470.82
195.18	281.81
195.395	281.63
195.611	287.41
195.827	570.14
196.042	1033.73
196.258	623.95
196.473	455.51
196.689	574.87
196.905	723.29
197.12	2493.07
197.336	836.3
197.551	-840
197.767	204200
197.982	636.8
198.198	4468.49
198.414	3251.69
198.629	668.36
198.845	520.8
199.06	560.49
199.276	444.42
199.491	1594.59
199.707	337.39
199.922	219.33
200.137	214.28
200.353	199.05
200.568	176.12
200.784	193.36
200.999	183.05
201.215	208.44
201.43	294.75
201.645	227.79
201.861	283.97
202.076	260.36
202.291	326.67
202.507	329.81
202.722	206.07
202.937	347.09
203.153	351.79
203.368	214.6
203.583	146.6
203.798	188.17
204.014	166.02
204.229	205.67
204.444	244.86
204.659	464.95
204.875	805.61
205.09	-1860.5
205.305	2909.43
205.52	-1666.67
205.735	-1855.09
205.951	10136
206.166	-444.05
206.381	-208.29
206.596	-2207.27
206.811	-695.91
207.026	-468.63
207.241	-158.72
207.457	717.13
207.672	1869.42
207.887	-2921.5
208.102	-579.96
208.317	-526.93
208.532	1483.62
208.747	-1054.64
208.962	-882.63
209.177	1738.26
209.392	759.5
209.607	302.21
209.822	377.84
210.037	281.44
210.252	257.52
210.467	358.08
210.682	206.33
210.897	218.23
211.112	270.32
211.326	184.54
211.541	184.92
211.756	85.98
211.971	136.55
212.186	115.47
212.401	59.33
212.616	45.07
212.831	56.92
213.045	76.04
213.26	85.59
213.475	43.29
213.69	63.88
213.905	87.38
214.119	64.25
214.334	-688.89
214.549	-78.54
214.764	102.59
214.978	242.32
215.193	301.19
215.408	-1164.1
215.622	296.6
215.837	1880
216.052	-990.8
216.266	-214.18
216.481	-162.67
216.696	-9.49
216.91	2830.3
217.125	259.57
217.34	442.49
217.554	500.54
217.769	-133.18
217.983	-54.29
218.198	-154.75
218.412	-248.87
218.627	358.57
218.842	138.77
219.056	59.58
219.271	92.75
219.485	56.14
219.7	95.99
219.914	149.65
220.129	224.24
220.343	125.08
220.558	70.95
220.772	51.14
220.986	52.4
221.201	-46.03
221.415	192.71
221.63	118.57
221.844	106.3
222.058	85.17
222.273	82.71
222.487	91.08
222.702	159.52
222.916	125.71
223.13	82
223.344	55.41
223.559	29.95
223.773	43.42
223.987	-20.04
224.202	-24.27
224.416	27.95
224.63	36.53
224.844	29.11
225.059	21.39
225.273	-325.25
225.487	238.4
225.701	138.21
225.915	69.17
226.13	67.89
226.344	95.49
226.558	68.95
226.772	74.32
226.986	77.96
227.2	88.14
227.415	76.16
227.629	68.53
227.843	87.75
228.057	74.77
228.271	62.55
228.485	57.39
228.699	54.51
228.913	75.28
229.127	78.58
229.341	96.14
229.555	119.94
229.769	187.74
229.983	235.87
230.197	254.11
230.411	399.59
230.625	529.58
230.839	347.01
231.053	353.85
231.267	847.62
231.481	592.49
231.695	441.44
231.909	236.2
232.122	140.05
232.336	137.63
232.55	206.62
232.764	290.42
232.978	218.62
233.192	265.92
233.405	264.44
233.619	241.93
233.833	73.68
234.047	162.38
234.261	155.84
234.474	164.13
234.688	-105.12
234.902	-154.29
235.116	-82.19
235.329	-45.44
235.543	-426.42
235.757	-105.82
235.97	-67.43
236.184	-44.34
236.398	-26.42
236.612	18.35
236.825	31.15
237.039	85.53
237.252	82.72
237.466	125.54
237.68	44.07
237.893	-25800
238.107	15.02
238.32	-492.17
238.534	212.47
238.748	233.98
238.961	185.05
239.175	216.44
239.388	143.93
239.602	173.02
239.815	104.28
240.029	-3.81
240.242	4.93
240.456	61.31
240.669	82.5
240.882	53.87
241.096	196.51
241.309	193.82
241.523	306.19
241.736	360.18
241.95	-872.63
242.163	1216.54
242.376	488.74
242.59	984
242.803	-6866.67
243.016	-15.11
243.23	-321.01
243.443	-1400
243.656	-248.12
243.87	-11.83
244.083	35.96
244.296	23.23
244.509	19.21
244.723	62
244.936	45.53
245.149	-25.07
245.362	-26.87
245.576	13.08
245.789	9.72
246.002	22.13
246.215	24.27
246.428	5.74
246.641	3.93
246.855	-31.28
247.068	-19.63
247.281	-57
247.494	11.3
247.707	-1.88
247.92	-13.69
248.133	-8.16
248.346	-2.09
248.559	-1.79
248.772	-20.77
248.985	-0.36
249.198	-8.41
249.411	-21.62
249.624	-0.64
249.837	3.87
250.05	-3.39
250.263	-18.7
250.476	-18.56
250.689	0.47
250.902	-2.95
251.115	-16.87
251.328	-0.46
251.541	5.56
251.754	16.65
251.967	19.5
252.18	16.62
252.393	25.67
252.605	34.22
252.818	41.51
253.031	39.34
253.244	38.04
253.457	38.71
253.67	52.52
253.882	65.08
254.095	60.92
254.308	60.04
254.521	53.53
254.733	51.22
254.946	48.79
255.159	48.79
255.372	48.81
255.584	56.1
255.797	47.47
256.01	44.94
256.222	42.77
256.435	33.11
256.648	39.46
256.86	31.28
257.073	39.2
257.285	24.02
257.498	14.35
257.711	14.01
257.923	12.19
258.136	0.86
258.348	-8.94
258.561	-10.44
258.773	-26.56
258.986	-28.54
259.198	-41.37
259.411	-86.01
259.623	-70.29
259.836	-46.57
260.048	-38.44
260.261	-11.4
260.473	-6.15
260.686	-15.06
260.898	-15.31
261.111	-20.46
261.323	-9.55
261.535	-11.44
261.748	-12.43
261.96	4.78
262.173	11.67
262.385	16.2
262.597	12.36
262.81	18.29
263.022	16.36
263.234	22.41
263.447	24.21
263.659	24.36
263.871	29.08
264.083	27.28
264.296	16.75
264.508	15.66
264.72	15.69
264.932	26.75
265.145	26.08
265.357	33.29
265.569	25.53
265.781	18.05
265.993	7.7
266.205	18.94
266.418	5.81
266.63	-18.8
266.842	-19.34
267.054	-5.36
267.266	1.06
267.478	3.96
267.69	9
267.902	-9.08
268.114	-10.85
268.326	-23.37
268.538	-14.61
268.75	20.95
268.962	22.24
269.174	22.49
269.386	10.93
269.598	17.17
269.81	11.59
270.022	14.13
270.234	17.48
270.446	27.87
270.658	23.12
270.87	25.68
271.082	29.27
271.294	31.67
271.506	32.41
271.718	28.84
271.929	26.06
272.141	28.84
272.353	31.55
272.565	30.6
272.777	30.14
272.989	28.49
273.2	29.04
273.412	34.19
273.624	29.83
273.836	33.04
274.047	37.86
274.259	45.07
274.471	45.78
274.683	47.63
274.894	47
275.106	57.06
275.318	52.28
275.529	56.37
275.741	50.7
275.953	55.05
276.164	53.94
276.376	58.38
276.588	64.79
276.799	69.39
277.011	75.51
277.222	90.04
277.434	88.81
277.646	80.98
277.857	73.37
278.069	80.47
278.28	73.08
278.492	71.51
278.703	55.77
278.915	56.24
279.126	59.1
279.338	53.54
279.549	45
279.761	48.73
279.972	40
280.183	47.61
280.395	45.75
280.606	44.02
280.818	39.13
281.029	33.5
281.24	32
281.452	25.36
281.663	23.95
281.875	17.03
282.086	24.39
282.297	18.42
282.508	22.48
282.72	24.87
282.931	21.01
283.142	15.12
283.354	7.28
283.565	0.44
283.776	9.58
283.987	3.19
284.199	-8.81
284.41	-0.19
284.621	-8.01
284.832	-1.31
285.043	7.66
285.254	1.48
285.466	-3.3
285.677	1.14
285.888	9.79
286.099	14.17
286.31	21.86
286.521	15.14
286.732	13.61
286.943	5.42
287.154	9.35
287.366	7.06
287.577	14.84
287.788	15.39
287.999	15.98
288.21	-0.08
288.421	3.15
288.632	2.38
288.843	11.12
289.054	14.05
289.264	4.54
289.475	4.32
289.686	13.27
289.897	13.7
290.108	14.88
290.319	11.3
290.53	10.75
290.741	10.81
290.952	12.02
291.163	16.54
291.373	15.66
291.584	18
291.795	17.13
292.006	17.81
292.217	22.54
292.427	26.63
292.638	30.1
292.849	26.18
293.06	32.74
293.27	26.07
293.481	25.45
293.692	30.62
293.903	30.28
294.113	25.52
294.324	28.09
294.535	18.58
294.745	17.76
294.956	17.87
295.167	18.15
295.377	17.38
295.588	20.67
295.798	20.39
296.009	9.67
296.22	9.2
296.43	3.76
296.641	-6.55
296.851	-15.36
297.062	-15.56
297.272	-1.89
297.483	-5.12
297.693	-10.06
297.904	-8.4
298.114	-0.27
298.325	2.42
298.535	-0.72
298.746	-6.68
298.956	1.48
299.167	0.29
299.377	-1.04
299.587	1.08
299.798	4.73
300.008	-6.17
300.219	-2.19
300.429	6.45
300.639	1.92
300.85	5.66
301.06	5.77
301.27	15.53
301.481	16.94
301.691	6.25
301.901	11.34
302.111	17.16
302.322	14.57
302.532	10.59
302.742	10.85
302.952	10.67
303.163	10.33
303.373	10.53
303.583	14.88
303.793	15.15
304.003	14.37
304.214	15.11
304.424	19.21
304.634	17.07
304.844	15.95
305.054	21.85
305.264	20.35
305.474	24.01
305.684	21.54
305.894	28.53
306.104	28.94
306.314	32.68
306.525	27.79
306.735	33.8
306.945	23.35
307.155	22.26
307.365	23.63
307.575	24.12
307.784	24.66
307.994	22.47
308.204	16.64
308.414	13.93
308.624	10.35
308.834	12.27
309.044	11.27
309.254	12.94
309.464	16.05
309.674	19.55
309.884	19.53
310.093	22.45
310.303	18.95
310.513	26.35
310.723	23.63
310.933	28.96
311.142	28.53
311.352	32.17
311.562	30.47
311.772	29.45
311.981	33.79
312.191	26.63
312.401	28.46
312.611	28.78
312.82	27.57
313.03	29.51
313.24	26.78
313.449	25.34
313.659	19.45
313.869	14.64
314.078	13.1
314.288	13.51
314.497	4.03
314.707	3.22
314.917	-6.83
315.126	-5.21
315.336	-4.92
315.545	-10.97
315.755	-6.31
315.964	-5.62
316.174	-3.56
316.383	-7.97
316.593	-2.43
316.802	-0.71
317.012	4.21
317.221	10.02
317.431	8.14
317.64	10.5
317.849	10.75
318.059	7.06
318.268	12.02
318.478	17.28
318.687	16.08
318.896	22.55
319.106	24.28
319.315	27.56
319.524	18.43
319.734	15.54
319.943	17.47
320.152	13.84
320.362	9.33
320.571	10.93
320.78	9.94
320.989	12.33
321.199	8.37
321.408	10.95
321.617	7.9
321.826	9.4
322.035	7.71
322.245	15.83
322.454	21.22
322.663	17.36
322.872	11.86
323.081	10.21
323.29	4.43
323.5	-1.86
323.709	-4.18
323.918	4.88
324.127	-1.53
324.336	-9.31
324.545	-13.91
324.754	-6.38
324.963	-8.42
325.172	-8.68
325.381	-7.78
325.59	-6.17
325.799	-8.41
326.008	-11.44
326.217	-12.48
326.426	-3.07
326.635	-5.8
326.844	0.03
327.053	6.18
327.262	8.81
327.47	10.91
327.679	18.92
327.888	25.17
328.097	24.85
328.306	27.15
328.515	37.51
328.724	44.29
328.932	48.49
329.141	45.96
329.35	40.92
329.559	45.09
329.768	43.56
329.976	39.98
330.185	39.37
330.394	38.86
330.602	40.6
330.811	32.1
331.02	25.99
331.229	21.38
331.437	25.23
331.646	22.87
331.855	20.41
332.063	17.15
332.272	18.87
332.48	22.67
332.689	19.6
332.898	14.34
333.106	18.11
333.315	16.76
333.523	6.69
333.732	11.68
333.94	13.32
334.149	14.15
334.357	14.68
334.566	14.34
334.774	22.47
334.983	23.67
335.191	20.13
335.4	22.89
335.608	26.34
335.817	19.74
336.025	31.5
336.234	43.88
336.442	42.64
336.65	30.32
336.859	32.38
337.067	28.94
337.275	36.96
337.484	24.23
337.692	22.36
337.9	41.49
338.109	41.48
338.317	33.55
338.525	36.01
338.734	43.04
338.942	46.25
339.15	32.85
339.358	26
339.567	31.61
339.775	24.82
339.983	34.91
340.191	33.29
340.399	26.35
340.608	26.92
340.816	25.56
341.024	26.83
341.232	16.15
341.44	22.27
341.648	16.32
341.856	17.19
342.064	24.87
342.272	18.23
342.481	19.71
342.689	26.76
342.897	24.62
343.105	19.5
343.313	23.52
343.521	24.03
343.729	19.1
343.937	19.93
344.145	24.33
344.353	20.87
344.56	17.64
344.768	18.96
344.976	12.35
345.184	5.16
345.392	5.13
345.6	6.6
345.808	3.17
346.016	11.16
346.224	17.37
346.431	14.54
346.639	14.28
346.847	12.6
347.055	5.43
347.263	-0.79
347.471	0.78
347.678	-13.54
347.886	-20.36
348.094	-12.32
348.302	-7.94
348.509	-15.92
348.717	-11.45
348.925	-11.06
349.132	-13.25
349.34	-10.58
349.548	-4.58
349.755	1.3
349.963	-2.81
350.171	-7.99
350.378	-13.78
350.586	-17.5
350.793	-17.85
351.001	-9.64
351.209	-7.22
351.416	3.15
351.624	7.05
351.831	2.31
352.039	4.6
352.246	8.93
352.454	6.13
352.661	-2.02
352.869	13.82
353.076	2.04
353.284	5.22
353.491	13.39
353.699	15.07
353.906	21.1
354.113	14.7
354.321	18.61
354.528	25.76
354.736	20.62
354.943	20.28
355.15	20.65
355.358	7.74
355.565	8.98
355.772	9.25
355.98	19.64
356.187	21.85
356.394	24.75
356.601	27.64
356.809	31.91
357.016	39.75
357.223	31.19
357.43	30.68
357.638	28.7
357.845	26.56
358.052	23.18
358.259	26.03
358.466	24.77
358.673	24.31
358.881	19.47
359.088	19.97
359.295	24.65
359.502	24.95
359.709	34.16
359.916	31.03
360.123	27.47
360.33	14.04
360.537	16.07
360.744	18.03
360.951	8.19
361.158	13.47
361.365	13.19
361.572	22.68
361.779	29.92
361.986	38.81
362.193	33.05
362.4	31.59
362.607	19.03
362.814	18.88
363.021	24.31
363.228	21.84
363.435	33.22
363.641	27.25
363.848	27.56
364.055	25.29
364.262	27.53
364.469	23.42
364.676	30.24
364.882	31.64
365.089	27.06
365.296	29.59
365.503	23.53
365.709	14.81
365.916	7.37
366.123	9.92
366.33	5.59
366.536	11.54
366.743	16.08
366.95	20.87
367.156	23.69
367.363	21.57
367.57	24.74
367.776	21.77
367.983	25.49
368.19	21.82
368.396	22.26
368.603	14.95
368.809	21.73
369.016	17.23
369.222	7.77
369.429	13.46
369.635	11.02
369.842	13.61
370.048	20.92
370.255	26.69
370.461	18.75
370.668	17.6
370.874	11.43
371.081	13.28
371.287	21.03
371.494	17.95
371.7	20.32
371.906	19.92
372.113	18
372.319	13.67
372.526	19.89
372.732	16.81
372.938	17.28
373.145	14.5
373.351	17.17
373.557	18.05
373.763	12.71
373.97	18.73
374.176	21.31
374.382	19.53
374.588	15.05
374.795	23.28
375.001	22.68
375.207	24.48
375.413	24.59
375.62	14.86
375.826	19.69
376.032	14.33
376.238	11.32
376.444	3.64
376.65	9.15
376.856	-2.06
377.062	6.08
377.269	11.85
377.475	4.55
377.681	-0.96
377.887	-0.96
378.093	-10.15
378.299	-9.34
378.505	-14.96
378.711	-12.95
378.917	-13.05
379.123	-17.36
379.329	-13.98
379.535	-14.41
379.741	-19.61
379.947	-17.39
380.152	-13.97
380.358	-13.74
380.564	-17.24
380.77	-21.14
380.976	-26.48
381.182	-20.32
381.388	-23.38
381.594	-26.6
381.799	-10.68
382.005	-9.28
382.211	-7.36
382.417	4.21
382.623	-2.51
382.828	1.15
383.034	-4.21
383.24	-0.14
383.445	-1.69
383.651	3.1
383.857	3.3
384.063	8.18
384.268	-3.41
384.474	-9.63
384.68	-7.05
384.885	-0.92
385.091	6.54
385.296	11.75
385.502	9.7
385.708	6.83
385.913	6.49
386.119	-6.34
386.324	-10.86
386.53	1.27
386.735	-6.2
386.941	7.69
387.146	3.74
387.352	8.1
387.557	13.06
387.763	23.05
387.968	14.89
388.174	23.17
388.379	20.28
388.585	27.17
388.79	28.78
388.996	23.47
389.201	26.42
389.406	27.25
389.612	25.11
389.817	32.9
390.022	36.83
390.228	36.07
390.433	41.18
390.638	45.66
390.844	46.08
391.049	41.92
391.254	41.62
391.459	42.19
391.665	45.33
391.87	39.28
392.075	40.44
392.28	40.89
392.485	37.74
392.691	39.28
392.896	42
393.101	39.94
393.306	45.84
393.511	47.46
393.716	49.13
393.922	46.03
394.127	45.45
394.332	47.8
394.537	48.67
394.742	44.86
394.947	47.01
395.152	42.56
395.357	40.46
395.562	40.24
395.767	33.68
395.972	33.21
396.177	38.1
396.382	34.17
396.587	33.13
396.792	30.37
396.997	33.59
397.202	35.32
397.407	37.5
397.611	32.86
397.816	29.67
398.021	23.66
398.226	22.29
398.431	18.16
398.636	16.38
398.841	23.36
399.045	27.89
399.25	18.35
399.455	12.68
399.66	15.33
399.864	12.18
400.069	15.12
400.274	16.94
400.479	18.11
400.683	14.12
400.888	19.01
401.093	11.59
401.297	7.85
401.502	8.38
401.707	3.83
401.911	15.8
402.116	18.03
402.321	37.95
402.525	45.47
402.73	50.65
402.934	47.23
403.139	42.27
403.344	28.62
403.548	25.62
403.753	25.82
403.957	23.68
404.162	17.39
404.366	23.19
404.571	13.66
404.775	2.47
404.98	1.04
405.184	-5.89
405.388	9.81
405.593	10.49
405.797	1.71
406.002	14.69
406.206	1.81
406.41	5.62
406.615	-2.02
406.819	-3.64
407.023	-7.63
407.228	-9.96
407.432	-16.6
407.636	-16.23
407.841	-3.04
408.045	5.74
408.249	2.9
408.453	9.05
408.658	4.07
408.862	10.65
409.066	10.14
409.27	7.02
409.474	11.34
409.679	4.91
409.883	-2.72
410.087	-12.74
410.291	-24
410.495	-21.56
410.699	-28.1
410.903	-29.84
411.108	-13.02
411.312	-14.05
411.516	-11.38
411.72	-2.87
411.924	-4.11
412.128	-17.07
412.332	-24.49
412.536	-17.14
412.74	-6.56
412.944	-7.99
413.148	-8.19
413.352	-10.08
413.556	-3.86
413.76	-5.67
413.964	-1.72
414.167	18.42
414.371	24.98
414.575	25.5
414.779	21.4
414.983	28.37
415.187	23.96
415.391	12.7
415.594	23.51
415.798	18.16
416.002	14.2
416.206	18.61
416.41	22.83
416.613	22.39
416.817	26.05
417.021	28.73
417.225	37.58
417.428	30.5
417.632	25.7
417.836	22.9
418.039	25.92
418.243	27.88
418.447	8.75
418.65	11.61
418.854	18.17
419.057	26.1
419.261	19.06
419.465	20.35
419.668	29.05
419.872	23.89
420.075	25.33
420.279	27.06
420.482	28.1
420.686	30.06
420.889	32.91
421.093	34.11
421.296	27.58
421.5	15.67
421.703	15.71
421.907	25.28
422.11	17.47
422.314	15.26
422.517	7.82
422.72	25.42
422.924	24.01
423.127	22.28
423.33	17.98
423.534	29.81
423.737	28.11
423.94	17.93
424.144	28.03
424.347	34.67
424.55	34.88
424.754	31.33
424.957	28.32
425.16	24.79
425.363	14.77
425.567	15.82
425.77	29.54
425.973	34.11
426.176	18.68
426.379	27.6
426.582	31.66
426.786	40.07
426.989	30.83
427.192	35.61
427.395	33.87
427.598	36.65
427.801	29.58
428.004	26.24
428.207	30.88
428.41	28.04
428.613	21.18
428.816	28.07
429.019	30.65
429.222	26.46
429.425	29.64
429.628	29.57
429.831	27.13
430.034	25.56
430.237	22.17
430.44	31.67
430.643	27.55
430.846	25.6
431.049	20.08
431.252	20.48
431.454	18.9
431.657	13.54
431.86	15.01
432.063	22.96
432.266	25.51
432.469	18.82
432.671	11.19
432.874	14.75
433.077	1.2
433.28	3.25
433.482	7.97
433.685	-3.1
433.888	-4.06
434.09	-4.58
434.293	-11.04
434.496	-9.9
434.698	-7.95
434.901	7.15
435.104	-9.15
435.306	-8.86
435.509	-14.54
435.712	-14.98
435.914	-23.61
436.117	-15.31
436.319	-10.62
436.522	-10.95
436.724	-2.8
436.927	-3.2
437.129	-6.74
437.332	5.73
437.534	-1.4
437.737	-14.35
437.939	2.77
438.142	0.55
438.344	-0.58
438.547	-1.6
438.749	4.1
438.951	-12.1
439.154	-28.97
439.356	-16.04
439.558	-17.95
439.761	-4.64
439.963	-9.21
440.165	3.3
440.368	-4.21
440.57	-24.8
440.772	-29.97
440.975	-39.59
441.177	-28.48
441.379	-23.02
441.581	-19.59
441.784	-20.36
441.986	-7.51
442.188	-21.13
442.39	-21.22
442.592	-23.27
442.795	-15.3
442.997	-17.11
443.199	-17.13
443.401	-10.29
443.603	-8.6
443.805	-10.7
444.007	-9.91
444.209	-6.95
444.411	-1.57
444.613	0.58
444.815	10.14
445.017	7.24
445.219	12.5
445.421	9.65
445.623	10.23
445.825	2.98
446.027	-4.05
446.229	-16.69
446.431	-6.91
446.633	-6.79
446.835	-10.79
447.037	-12.65
447.239	-9.14
447.441	2.28
447.643	1.7
447.844	-7.23
448.046	-2.77
448.248	-4.24
448.45	-6.78
448.652	-8.19
448.853	-3.54
449.055	-4.2
449.257	6.01
449.459	0.7
449.66	0.04
449.862	-6.49
450.064	-7.43
450.266	3.85
450.467	16.87
450.669	19.49
450.871	19.55
451.072	34.36
451.274	32.51
451.475	30.9
451.677	30.88
451.879	17.38
452.08	-0.48
452.282	4.52
452.483	11.32
452.685	6.47
452.886	6.62
453.088	-1.2
453.289	-21.01
453.491	-43.49
453.692	-52.61
453.894	-21.37
454.095	-15.38
454.297	-6.98
454.498	-2.91
454.7	17.93
454.901	27.35
455.102	31.75
455.304	32.15
455.505	23.84
455.706	15.28
455.908	12.27
456.109	14.91
456.31	29.16
456.512	26.99
456.713	23.57
456.914	24.87
457.116	18.95
457.317	24.31
457.518	19.83
457.719	25.13
457.921	24.61
458.122	9.01
458.323	13.8
458.524	19.92
458.725	20.96
458.926	7.65
459.128	3.69
459.329	-2.02
459.53	-6.84
459.731	-11.04
459.932	-16.34
460.133	-9.2
460.334	10.93
460.535	18.24
460.736	18.55
460.937	8.47
461.138	9.28
461.339	3.77
461.54	-1.05
461.741	1.97
461.942	4.89
462.143	6.4
462.344	8.02
462.545	-0.58
462.746	-7.61
462.947	-15.63
463.148	-12.25
463.348	-19.63
463.549	-19.64
463.75	-20.85
463.951	-4.77
464.152	-6.93
464.353	-14.72
464.553	-17
464.754	-12.88
464.955	-15.42
465.156	-13.34
465.356	-10.38
465.557	-7.78
465.758	-6.33
465.959	0.99
466.159	-0.98
466.36	3.1
466.561	3
466.761	5.81
466.962	9.5
467.163	14.55
467.363	13.57
467.564	19.62
467.764	24.07
467.965	23.44
468.166	13.55
468.366	20.81
468.567	20.45
468.767	29.38
468.968	25.29
469.168	25.59
469.369	32.61
469.569	25.32
469.77	18.03
469.97	17.31
470.17	12.2
470.371	13.63
470.571	4.7
470.772	14.25
470.972	14.77
471.172	15.84
471.373	12.12
471.573	13.55
471.773	6.31
471.974	1.96
472.174	-2.81
472.374	7.73
472.575	7.48
472.775	11.07
472.975	2.19
473.175	-3.02
473.376	0.12
473.576	1.47
473.776	7.54
473.976	7.17
474.177	12.37
474.377	13.5
474.577	15.39
474.777	16.05
474.977	9.95
475.177	7.35
475.377	6.83
475.577	16.38
475.777	15.85
475.978	18.77
476.178	20.02
476.378	25.03
476.578	23.87
476.778	19.75
476.978	19.8
477.178	16.14
477.378	22.08
477.578	24.15
477.778	22.46
477.977	16.98
478.177	22.54
478.377	15.33
478.577	16.47
478.777	16.22
478.977	14.08
479.177	12.87
479.377	10.41
479.577	5.19
479.776	4.6
479.976	0.27
480.176	-0.99
480.376	-0.87
480.576	-6.35
480.775	-10.27
480.975	-7.39
481.175	-10.57
481.374	-7.29
481.574	-6.51
481.774	-7.04
481.974	-3.11
482.173	1.39
482.373	-1.46
482.572	-3.64
482.772	-3.72
482.972	-5.97
483.171	-2.85
483.371	3.12
483.57	2.74
483.77	6.9
483.97	0.22
484.169	5.88
484.369	4.18
484.568	3.75
484.768	10.65
484.967	11.56
485.167	12.02
485.366	13.64
485.566	10.1
485.765	10.86
485.964	6.8
486.164	1.35
486.363	0.95
486.563	4.15
486.762	8.6
486.961	8.9
487.161	9.46
487.36	7.04
487.559	6.4
487.759	11.51
487.958	8.07
488.157	4.32
488.356	0.89
488.556	1.62
488.755	0.56
488.954	-5.97
489.153	-4.99
489.353	-6.42
489.552	-8.69
489.751	-12.47
489.95	-9.77
490.149	-9.52
490.348	-7.64
490.548	-1.67
490.747	-8.34
490.946	-6.06
491.145	-7.93
491.344	-5.89
491.543	-3.68
491.742	-2.16
491.941	-8.47
492.14	-7.89
492.339	-4.21
492.538	-1.5
492.737	5.84
492.936	10.59
493.135	15.55
493.334	11.41
493.533	9.61
493.732	15.88
493.931	22.9
494.13	14.83
494.328	15.57
494.527	21.18
494.726	13.24
494.925	12.55
495.124	11.77
495.323	14.17
495.521	12.14
495.72	14.86
495.919	11.66
496.118	13.21
496.316	16.16
496.515	14.33
496.714	10.94
496.913	10.88
497.111	9.46
497.31	5.65
497.509	11.13
497.707	12.68
497.906	14.52
498.105	12.78
498.303	14.39
498.502	14.94
498.7	12.77
498.899	14.04
499.097	17.63
499.296	15.85
499.495	16.87
499.693	18.61
499.892	14.81
500.09	15.04
500.289	18.14
500.487	10.84
500.686	13.3
500.884	11.36
501.082	9.2
501.281	4.38
501.479	8.02
501.678	6.18
501.876	4.4
502.074	2.52
502.273	2.19
502.471	3.47
502.669	2.25
502.868	-2.13
503.066	-3.45
503.264	-3.45
503.463	-4.69
503.661	-6.54
503.859	-5.62
504.057	-0.73
504.256	-1.79
504.454	-2.79
504.652	-0.66
504.85	0.49
505.048	1.73
505.246	-1.96
505.445	0.74
505.643	-2.56
505.841	-0.99
506.039	1.3
506.237	-0.87
506.435	3.04
506.633	2.48
506.831	4.57
507.029	6.75
507.227	9.78
507.425	11
507.623	10.35
507.821	8.56
508.019	10.95
508.217	7.66
508.415	8.34
508.613	4.6
508.811	9.94
509.009	7.18
509.207	8.21
509.405	11.95
509.603	10.47
509.8	7.79
509.998	4.71
510.196	5.91
510.394	3.01
510.592	-3.61
510.79	-7.17
510.987	-7.93
511.185	-4.88
511.383	-8.92
511.581	-9.79
511.778	-5.16
511.976	-3.18
512.174	-10.01
512.371	-12.14
512.569	-8.5
512.767	-5.15
512.964	-9.21
513.162	-7.75
513.36	-7.34
513.557	-12.77
513.755	-11.1
513.952	-5.4
514.15	-5.91
514.348	-4.42
514.545	-0.74
514.743	7.02
514.94	12.27
515.138	10.81
515.335	8.64
515.533	9.51
515.73	9.74
515.927	8.12
516.125	8.63
516.322	13.44
516.52	15.78
516.717	13.82
516.915	12.36
517.112	11.29
517.309	13.81
517.507	14.34
517.704	14.79
517.901	13.62
518.099	13.36
518.296	16.52
518.493	17.39
518.69	19.55
518.888	18.17
519.085	16.55
519.282	15.51
519.479	16.8
519.676	14.49
519.874	10.42
520.071	8.86
520.268	8.71
520.465	7.32
520.662	6.93
520.859	8.45
521.056	8.6
521.254	12.24
521.451	13.99
521.648	15.35
521.845	15.1
522.042	16.35
522.239	15.23
522.436	12.69
522.633	4.51
522.83	0.68
523.027	-1.91
523.224	-0.75
523.421	2.67
523.618	-1.01
523.815	5.64
524.011	8.77
524.208	9.84
524.405	8.96
524.602	9.41
524.799	5.58
524.996	-0.94
525.193	0.08
525.389	-4.47
525.586	-9.56
525.783	-18.17
525.98	-16.06
526.176	-16.51
526.373	-19.9
526.57	-18.22
526.767	-14.75
526.963	-14.25
527.16	-11.1
527.357	-12.91
527.553	-11.61
527.75	-10.8
527.947	-14.87
528.143	-11.05
528.34	-10.37
528.537	-9.82
528.733	-10.59
528.93	-7.29
529.126	1.08
529.323	-1.09
529.519	4.47
529.716	3.29
529.912	6
530.109	5.57
530.305	2.2
530.502	5.17
530.698	3.16
530.895	2.02
531.091	3.48
531.288	3.59
531.484	5.53
531.68	3.88
531.877	4.55
532.073	3.7
532.269	1.95
532.466	2.93
532.662	3.57
532.858	1.89
533.055	0.67
533.251	-0.22
533.447	0.68
533.643	1.5
533.84	2.22
534.036	3.03
534.232	8.93
534.428	7.37
534.624	7.4
534.821	9.19
535.017	10.96
535.213	9.56
535.409	9.26
535.605	8.28
535.801	7.47
535.997	5.98
536.193	6.41
536.389	6.82
536.586	5.99
536.782	5.38
536.978	6.64
537.174	11.37
537.37	10.2
537.566	11.06
537.762	7.45
537.958	6.77
538.153	8.84
538.349	3.19
538.545	11.74
538.741	10.87
538.937	7.87
539.133	9.65
539.329	10.04
539.525	11.59
539.721	12.78
539.916	12.83
540.112	14.28
540.308	16.56
540.504	17.66
540.699	21.84
540.895	23.56
541.091	25.51
541.287	26.15
541.482	25.1
541.678	25.34
541.874	25.35
542.069	26.75
542.265	27.92
542.461	27.56
542.656	25.58
542.852	24.41
543.048	24.46
543.243	23.97
543.439	27.07
543.634	23.22
543.83	21.41
544.025	22.11
544.221	21.96
544.417	21.42
544.612	24.07
544.807	23.73
545.003	21.89
545.198	18.4
545.394	16.22
545.589	18.56
545.785	15.93
545.98	16.19
546.176	16.47
546.371	14.04
546.566	16.91
546.762	14.33
546.957	15.24
547.152	17.39
547.348	18.22
547.543	14.68
547.738	16.71
547.933	13.93
548.129	13.74
548.324	11.76
548.519	10.11
548.714	5.52
548.91	2.7
549.105	3.2
549.3	4.86
549.495	4.6
549.69	2.53
549.885	4.78
550.08	6.98
550.276	7.9
550.471	12.01
550.666	9.25
550.861	11.31
551.056	9.62
551.251	10.77
551.446	11.33
551.641	13.11
551.836	12.75
552.031	15.93
552.226	15.51
552.421	17.03
552.616	15.23
552.811	16.44
553.006	16.97
553.201	14.3
553.395	11.94
553.59	12.4
553.785	12.17
553.98	12.96
554.175	10.48
554.37	9.41
554.565	6.26
554.759	5.59
554.954	3.28
555.149	5.35
555.344	4.85
555.538	2.15
555.733	0.14
555.928	3.01
556.122	4.6
556.317	2.22
556.512	2.83
556.706	5.78
556.901	7.86
557.096	8.19
557.29	11.07
557.485	12.6
557.68	8.94
557.874	10.81
558.069	9.93
558.263	10.57
558.458	8.7
558.652	8.75
558.847	9.28
559.041	12.68
559.236	9.34
559.43	6.34
559.625	9.51
559.819	11.29
560.014	7.47
560.208	6.58
560.402	8.69
560.597	9.22
560.791	7.66
560.986	5.45
561.18	3.78
561.374	3.32
561.569	4.65
561.763	8.79
561.957	6.5
562.151	4.63
562.346	4.14
562.54	8
562.734	7.49
562.928	6.22
563.123	5.59
563.317	4.66
563.511	8.44
563.705	3.82
563.899	2.69
564.093	4.57
564.288	5.11
564.482	5.26
564.676	7.44
564.87	8.15
565.064	7.81
565.258	8
565.452	7.27
565.646	8.96
565.84	7.6
566.034	8.29
566.228	10.27
566.422	10.98
566.616	11.34
566.81	13.16
567.004	16.8
567.198	16.16
567.392	20.05
567.586	18.26
567.779	23.35
567.973	24.29
568.167	25.52
568.361	22.85
568.555	24.72
568.749	22.18
568.942	22.01
569.136	23.8
569.33	25.33
569.524	25.32
569.718	23.28
569.911	24.26
570.105	24.51
570.299	22.76
570.492	23.35
570.686	21.29
570.88	21.31
571.073	18.45
571.267	19.59
571.461	19.87
571.654	17.36
571.848	14.56
572.041	13.66
572.235	10.52
572.429	11.88
572.622	8.52
572.816	8.41
573.009	8.29
573.203	6.79
573.396	6.8
573.59	8.05
573.783	7.5
573.976	5.94
574.17	5.95
574.363	7.02
574.557	5.41
574.75	3.93
574.943	3.66
575.137	4.68
575.33	4.38
575.523	4.38
575.717	5.69
575.91	6.64
576.103	6.86
576.297	8.3
576.49	8.56
576.683	10.52
576.876	10.19
577.07	10.12
577.263	11.11
577.456	11.68
577.649	11.04
577.842	11.95
578.036	13.37
578.229	13.92
578.422	12.76
578.615	14.28
578.808	13.56
579.001	15.05
579.194	15.71
579.387	15.32
579.58	15.48
579.773	15.42
579.966	15.78
580.159	15.61
580.352	15.87
580.545	14.59
580.738	14.65
580.931	13.88
581.124	15.21
581.317	12.12
581.51	10.52
581.703	11.7
581.896	11.09
582.088	12.03
582.281	12.58
582.474	14.98
582.667	13.87
582.86	14.99
583.053	12.93
583.245	12.94
583.438	13.2
583.631	14.69
583.824	14.6
584.016	13.38
584.209	13.66
584.402	13.76
584.594	14.94
584.787	14.16
584.98	15.65
585.172	16.2
585.365	17.08
585.558	17.71
585.75	16.59
585.943	17.48
586.135	15.22
586.328	16.18
586.52	15.86
586.713	15.42
586.906	16.85
587.098	17.77
587.291	18.7
587.483	16.5
587.675	15.54
587.868	15.65
588.06	14.85
588.253	15.98
588.445	15.84
588.638	15.44
588.83	15.35
589.022	16.19
589.215	14.63
589.407	16.98
589.599	16.94
589.792	17.36
589.984	17.31
590.176	17.29
590.368	15.23
590.561	15.72
590.753	17.38
590.945	17.76
591.137	16.42
591.33	13.63
591.522	17.1
591.714	17.09
591.906	19.04
592.098	19.94
592.29	19.93
592.482	21.1
592.674	20.67
592.867	20.73
593.059	18.86
593.251	17.99
593.443	16.03
593.635	13.4
593.827	11.36
594.019	11.16
594.211	10.88
594.403	11.82
594.595	12.35
594.787	10.56
594.979	10.61
595.17	10.84
595.362	12.5
595.554	11.69
595.746	9.36
595.938	7.81
596.13	8.03
596.322	7.83
596.513	5.67
596.705	6.76
596.897	7.36
597.089	8.53
597.281	9.5
597.472	9.58
597.664	10.45
597.856	12.13
598.048	11
598.239	10.91
598.431	10.57
598.623	9.28
598.814	7.4
599.006	7.38
599.197	8.69
599.389	8.29
599.581	6.68
599.772	7.42
599.964	8.52
600.155	8.07
600.347	7.19
600.538	7.58
600.73	7.75
600.921	8.08
601.113	7.48
601.304	8.7
601.496	10.61
601.687	12.73
601.879	11.69
602.07	12.45
602.262	13.55
602.453	12.5
602.644	10.42
602.836	13.01
603.027	13.38
603.218	11.25
603.41	10.81
603.601	13.46
603.792	14.16
603.983	13.2
604.175	14.09
604.366	14.11
604.557	15.64
604.748	13.21
604.94	12.9
605.131	11.71
605.322	9.56
605.513	10.04
605.704	9.87
605.895	10.92
606.086	10.99
606.278	10.98
606.469	13.82
606.66	16.92
606.851	16.23
607.042	15.63
607.233	16.66
607.424	16.62
607.615	15.2
607.806	14.45
607.997	14.31
608.188	14.63
608.379	13.21
608.57	12.1
608.761	14.33
608.952	14.61
609.142	17.17
609.333	17.33
609.524	16.71
609.715	16.29
609.906	16.17
610.097	16.71
610.287	14.37
610.478	12.92
610.669	11.11
610.86	11.6
611.051	10.9
611.241	11.88
611.432	11.48
611.623	11.14
611.813	10.6
612.004	11.38
612.195	11.23
612.385	12.37
612.576	11.57
612.767	11.1
612.957	9.2
613.148	8.51
613.338	8.58
613.529	7.46
613.72	7.24
613.91	6.47
614.101	4.29
614.291	6.59
614.482	6.34
614.672	6.96
614.863	7.06
615.053	7.06
615.243	7.14
615.434	8.15
615.624	7.6
615.815	8.92
616.005	7.62
616.195	6.54
616.386	6.08
616.576	7.54
616.766	8.11
616.957	10.6
617.147	9.73
617.337	8.27
617.528	7.77
617.718	7.41
617.908	7.1
618.098	8.09
618.289	9.97
618.479	9.25
618.669	8.51
618.859	8.77
619.049	10.45
619.239	10.29
619.43	9.39
619.62	9.05
619.81	9.39
620	10.21
620.19	9.15
620.38	8.44
620.57	8.07
620.76	6.7
620.95	6.22
621.14	5.94
621.33	7.89
621.52	7.63
621.71	7.41
621.9	8.3
622.09	8.08
622.28	7.44
622.47	7.48
622.659	7.66
622.849	8.41
623.039	7.81
623.229	7.33
623.419	8.94
623.609	9.23
623.799	7.9
623.988	7.86
624.178	8.75
624.368	9.43
624.558	9.88
624.747	10.86
624.937	10.29
625.127	9.23
625.316	9.49
625.506	11.42
625.696	11.95
625.885	12.07
626.075	12.08
626.265	11.59
626.454	12.37
626.644	13.4
626.833	11.52
627.023	10.93
627.212	10.76
627.402	11.09
627.591	12.08
627.781	12
627.97	11.53
628.16	12.07
628.349	12.67
628.539	11.03
628.728	11.89
628.918	11.75
629.107	13.95
629.296	12.17
629.486	10.99
629.675	11.53
629.865	11.49
630.054	12.08
630.243	11.11
630.432	9.95
630.622	9.37
630.811	10.74
631	10.79
631.19	10.01
631.379	7.89
631.568	7.12
631.757	8.48
631.946	8.67
632.136	9.15
632.325	8.08
632.514	10.21
632.703	9.23
632.892	8.14
633.081	7.12
633.27	9.12
633.459	8.79
633.648	7.34
633.837	7.06
634.026	5.84
634.215	6.41
634.404	6.98
634.593	7.42
634.782	7.55
634.971	5.75
635.16	5.9
635.349	8.93
635.538	8.62
635.727	6.79
635.916	6
636.105	6.4
636.294	8.76
636.482	7.98
636.671	7.14
636.86	8.96
637.049	9.02
637.238	8.56
637.426	8.91
637.615	8.37
637.804	8.19
637.993	8.95
638.181	7.84
638.37	8.76
638.559	7.96
638.747	7.47
638.936	9.46
639.125	11.45
639.313	9.51
639.502	10.01
639.691	10.87
639.879	9.73
640.068	8.35
640.256	6.45
640.445	6.93
640.633	7.93
640.822	7.21
641.01	7.49
641.199	8.43
641.387	9.7
641.576	11.79
641.764	12.63
641.953	12.22
642.141	13.45
642.329	13.82
642.518	14.47
642.706	13.67
642.894	12.93
643.083	11.16
643.271	11.18
643.459	12.99
643.648	12.88
643.836	13.81
644.024	13.55
644.213	13.93
644.401	13.01
644.589	11.78
644.777	12.08
644.965	12.51
645.154	11.97
645.342	10.39
645.53	9.69
645.718	8.77
645.906	9.26
646.094	10.21
646.282	9.34
646.47	9.36
646.658	9.86
646.846	9.2
647.034	10.3
647.223	10.65
647.411	9.96
647.599	9.35
647.786	12.4
647.974	13.5
648.162	12.73
648.35	12.01
648.538	13.19
648.726	14.3
648.914	13.95
649.102	14.17
649.29	14.64
649.478	16.23
649.665	17.68
649.853	16.87
650.041	15.29
650.229	15.77
650.417	15.3
650.604	15.69
650.792	16.47
650.98	15.43
651.168	13.46
651.355	13.8
651.543	13.41
651.731	11.31
651.918	11.28
652.106	11.89
652.294	12.16
652.481	12.29
652.669	11.33
652.856	12.1
653.044	11.95
653.231	11.29
653.419	9.44
653.606	8.65
653.794	10.37
653.981	10.73
654.169	10.25
654.356	9.06
654.544	8.83
654.731	9.04
654.919	8.21
655.106	8.75
655.294	8.66
655.481	10.84
655.668	11.29
655.856	9.67
656.043	10.6
656.23	10.77
656.418	10.44
656.605	10.17
656.792	10.79
656.979	9.94
657.167	10.36
657.354	10.45
657.541	10.51
657.728	8.56
657.916	8.06
658.103	6.74
658.29	7.94
658.477	8.62
658.664	8.44
658.851	9.52
659.038	10.16
659.225	8.65
659.412	7.67
659.6	7.38
659.787	9.51
659.974	8.3
660.161	8.84
660.348	6.98
660.535	8.93
660.722	6.84
660.909	7.39
661.095	8.69
661.282	8.78
661.469	8.56
661.656	8.79
661.843	10.45
662.03	11.2
662.217	11.99
662.404	12.09
662.59	12.75
662.777	11.8
662.964	12.8
663.151	13.82
663.338	14.42
663.524	13.61
663.711	11.96
663.898	11.87
664.085	11.31
664.271	12.09
664.458	9.47
664.645	10.3
664.831	10.6
665.018	9.72
665.204	9.43
665.391	9.61
665.578	9.31
665.764	7.04
665.951	6.34
666.137	5.02
666.324	4.74
666.51	2.87
666.697	3.5
666.883	3.52
667.07	2.04
667.256	1.36
667.443	2.49
667.629	2.04
667.816	2.02
668.002	1.81
668.188	3.13
668.375	2.97
668.561	2.09
668.747	-0.47
668.934	-0.1
669.12	0.25
669.306	-0.6
669.493	0.02
669.679	1.59
669.865	2.49
670.051	2.61
670.238	2.97
670.424	4.2
670.61	3.25
670.796	2.5
670.982	2.76
671.169	2.83
671.355	1.8
671.541	3.47
671.727	3.51
671.913	3.54
672.099	2.97
672.285	3.15
672.471	4.87
672.657	6.81
672.843	6.25
673.029	6.34
673.215	6.96
673.401	9.18
673.587	8.03
673.773	8.11
673.959	8.55
674.145	7.64
674.331	7.76
674.517	8.71
674.703	8.5
674.888	9.45
675.074	8.75
675.26	8.86
675.446	8.25
675.632	7.08
675.817	7.7
676.003	8.16
676.189	8.28
676.375	6.15
676.56	5.19
676.746	4.72
676.932	2.52
677.117	3.6
677.303	1.53
677.489	2.03
677.674	1.1
677.86	1.23
678.046	2.06
678.231	1.42
678.417	1.72
678.602	1.95
678.788	1.67
678.973	3.33
679.159	3.44
679.344	3.7
679.53	5.2
679.715	3.75
679.901	3.26
680.086	3.24
680.272	4.17
680.457	4.81
680.643	4.78
680.828	5.87
681.013	4.2
681.199	3.87
681.384	3.92
681.569	5.44
681.755	5.77
681.94	5.05
682.125	3.39
682.31	5.08
682.496	5.17
682.681	4.85
682.866	3.14
683.051	3.03
683.237	3.63
683.422	3.95
683.607	4.04
683.792	4.89
683.977	5.2
684.162	3.84
684.347	4.47
684.532	4.08
684.717	4.15
684.903	3.92
685.088	3.67
685.273	2.27
685.458	-0.11
685.643	0.46
685.828	-0.66
686.013	2.3
686.198	0.47
686.382	-0.32
686.567	1.09
686.752	1.95
686.937	2.99
687.122	2.65
687.307	3.04
687.492	4.14
687.677	2.71
687.861	3.41
688.046	2.75
688.231	2.21
688.416	4.13
688.601	4.22
688.785	5.61
688.97	7
689.155	9.38
689.339	11.03
689.524	8.69
689.709	9.85
689.893	8.44
690.078	9
690.263	9.39
690.447	8.35
690.632	8.46
690.816	8.44
691.001	7.84
691.186	6.46
691.37	6.42
691.555	6.82
691.739	6.5
691.924	6.88
692.108	7.33
692.293	7.17
692.477	8.17
692.661	6.76
692.846	5.61
693.03	5.42
693.215	4.44
693.399	5.61
693.583	5.59
693.768	6.15
693.952	4.67
694.136	4.27
694.321	4.67
694.505	3.82
694.689	4.13
694.873	4.37
695.058	4.12
695.242	4.08
695.426	4.67
695.61	3.22
695.794	4.56
695.979	3.66
696.163	2.69
696.347	1.58
696.531	0.81
696.715	2.09
696.899	1.53
697.083	2.09
697.267	2.94
697.451	2.57
697.635	3.01
697.819	2.2
698.003	2.58
698.187	2.32
698.371	4.29
698.555	3.66
698.739	5.11
698.923	5.99
699.107	6.07
699.291	5.26
699.475	5.86
699.659	6.16
699.842	7.63
700.026	7.66
700.21	7.56
700.394	10.12
700.578	9.04
700.761	9.11
700.945	10.25
701.129	9.34
701.313	8.82
701.496	8.77
701.68	10.28
701.864	9.69
702.047	10.18
702.231	8.88
702.415	8.89
702.598	7.93
702.782	8.09
702.965	8.35
703.149	8.61
703.333	8.95
703.516	9.42
703.7	8.5
703.883	8.61
704.067	8.56
704.25	6.62
704.434	5.52
704.617	4.92
704.801	3.21
704.984	3.51
705.167	4.65
705.351	4.32
705.534	5.18
705.718	6.09
705.901	5.23
706.084	5.03
706.268	3.67
706.451	2.47
706.634	2.36
706.817	0.63
707.001	-0.08
707.184	1.23
707.367	0.17
707.55	0.48
707.734	0.75
707.917	0.68
708.1	1.85
708.283	4.14
708.466	4.54
708.649	5.33
708.832	4.63
709.015	4.9
709.199	5.26
709.382	4.12
709.565	2.6
709.748	3.68
709.931	3.23
710.114	4
710.297	5.16
710.48	4.65
710.663	5.68
710.846	6.98
711.028	5.88
711.211	5.67
711.394	5.58
711.577	4.54
711.76	4.49
711.943	3.77
712.126	2.75
712.309	3.74
712.491	3.93
712.674	3.94
712.857	4.32
713.04	3.49
713.222	2.71
713.405	3.47
713.588	2.93
713.771	3.52
713.953	2.27
714.136	1.81
714.319	2.13
714.501	2.37
714.684	0.77
714.866	0.45
715.049	0.69
715.232	0.39
715.414	1.46
715.597	2.53
715.779	2.6
715.962	4.07
716.144	2.28
716.327	2.91
716.509	4.26
716.692	2.22
716.874	2.14
717.057	3.3
717.239	3.66
717.421	3.74
717.604	1.94
717.786	4.33
717.968	4.13
718.151	2.87
718.333	1.31
718.515	2.13
718.698	1.22
718.88	1.52
719.062	0.71
719.244	0.54
719.427	-0.67
719.609	-0.04
719.791	-2.21
719.973	-2.01
720.155	-2.95
720.338	-4.81
720.52	-3.94
720.702	-2.89
720.884	-2.55
721.066	-2.31
721.248	-5.6
721.43	-2.79
721.612	-5.43
721.794	-4.17
721.976	-1.85
722.158	-0.21
722.34	0.51
722.522	2.36
722.704	2.7
722.886	2.7
723.068	2.16
723.25	4.44
723.432	3.84
723.614	5.54
723.796	5.78
723.977	5.96
724.159	6.84
724.341	6.07
724.523	3.66
724.705	3.23
724.886	3.63
725.068	7.5
725.25	7.39
725.432	8.37
725.613	7.4
725.795	6.67
725.977	6.67
726.158	6.38
726.34	6.46
726.522	6.24
726.703	7.41
726.885	7.33
727.066	4.47
727.248	5.83
727.43	4.86
727.611	4.54
727.793	3.56
727.974	2.38
728.156	2.84
728.337	2.43
728.519	1.34
728.7	1.49
728.882	0.35
729.063	-0.35
729.244	0.6
729.426	-0.13
729.607	0.75
729.788	0.17
729.97	-0.51
730.151	-0.1
730.332	0.01
730.514	0.48
730.695	2.27
730.876	4.2
731.058	2.42
731.239	2.2
731.42	2.03
731.601	2.97
731.782	3.35
731.964	4.32
732.145	4.86
732.326	3.23
732.507	3.06
732.688	3.25
732.869	4.58
733.05	4
733.231	5.21
733.412	3.29
733.593	4.41
733.774	4.36
733.955	4.62
734.136	6.04
734.317	4.32
734.498	5.04
734.679	3.84
734.86	3.19
735.041	4.29
735.222	4.07
735.403	5.12
735.584	5.67
735.765	5.59
735.946	6.18
736.126	7.52
736.307	7.66
736.488	6.57
736.669	2.92
736.849	1.55
737.03	1.83
737.211	2.32
737.392	2.25
737.572	1.13
737.753	-0.69
737.934	-0.83
738.114	1.46
738.295	-1.77
738.476	-0.92
738.656	1.67
738.837	1.1
739.017	1.94
739.198	0.64
739.378	1.18
739.559	1.34
739.74	2.99
739.92	3.63
740.1	3.12
740.281	2.99
740.461	5.72
740.642	8.42
740.822	6.81
741.003	8.22
741.183	6.36
741.363	8.52
741.544	8.83
741.724	7.12
741.904	4.95
742.085	6.05
742.265	5.52
742.445	4.73
742.626	5.62
742.806	5.06
742.986	5.28
743.166	4.11
743.347	3.15
743.527	3.75
743.707	2.07
743.887	0.77
744.067	0.07
744.247	-1.45
744.427	-2.15
744.608	-1.26
744.788	-1.67
744.968	-0.02
745.148	-0.56
745.328	-0.89
745.508	-1.53
745.688	0.26
745.868	1.18
746.048	0.67
746.228	1
746.408	-0.77
746.588	0.1
746.767	0.51
746.947	2.58
747.127	2.39
747.307	0.37
747.487	2.6
747.667	3.72
747.847	4.92
748.026	5.34
748.206	4.85
748.386	5.95
748.566	5.17
748.745	5
748.925	4.2
749.105	5.42
749.285	5.78
749.464	5.2
749.644	4.29
749.824	5.76
750.003	5.67
750.183	5.4
750.362	5.61
750.542	4.43
750.722	3.23
750.901	3.19
751.081	2.75
751.26	2.52
751.44	2.39
751.619	1.52
751.799	1.59
751.978	-0.61
752.158	-1.68
752.337	-2.39
752.516	-1.42
752.696	-0.58
752.875	-1.04
753.055	-0.84
753.234	-0.19
753.413	-0.07
753.593	0.65
753.772	0.28
753.951	1.28
754.13	0.78
754.31	-0.43
754.489	-0.91
754.668	-0.71
754.847	0.47
755.027	1.18
755.206	2.04
755.385	2.99
755.564	4.36
755.743	5.48
755.922	5.54
756.101	6.69
756.28	6.91
756.46	6.03
756.639	4.49
756.818	4.85
756.997	3.88
757.176	4.1
757.355	2.6
757.534	2.42
757.713	2.52
757.892	2.79
758.07	3.9
758.249	4.41
758.428	4.37
758.607	4.34
758.786	4.81
758.965	3.23
759.144	3.58
759.323	1.77
759.501	1.41
759.68	1.32
759.859	1.93
760.038	1.44
760.216	2.72
760.395	4.99
760.574	5.3
760.753	6.7
760.931	7.33
761.11	8.15
761.289	8.38
761.467	8.52
761.646	8.86
761.824	9.62
762.003	8.65
762.182	8.5
762.36	8.72
762.539	8.45
762.717	9.89
762.896	9.78
763.074	10.08
763.253	10.25
763.431	10.87
763.61	9.83
763.788	10.07
763.966	9.36
764.145	8.28
764.323	8.01
764.502	6.69
764.68	6.88
764.858	6.02
765.037	6.27
765.215	6.61
765.393	7.05
765.571	7.27
765.75	8.8
765.928	7.62
766.106	6.39
766.284	6.1
766.463	4.36
766.641	3.6
766.819	3.96
766.997	5.8
767.175	6.42
767.353	6.57
767.531	6.59
767.71	6.4
767.888	5.91
768.066	5.57
768.244	6.26
768.422	5.58
768.6	7.09
768.778	5.22
768.956	4.09
769.134	3.62
769.312	3.51
769.489	3.21
769.667	5.38
769.845	6.31
770.023	5.4
770.201	6.51
770.379	6.38
770.557	7.84
770.735	6.73
770.912	5.58
771.09	5.09
771.268	4.7
771.446	5.33
771.623	6.44
771.801	9.11
771.979	8.39
772.157	7.76
772.334	5.9
772.512	6.33
772.69	5.71
772.867	5.07
773.045	4.91
773.222	3.41
773.4	4.53
773.577	4.97
773.755	6.21
773.933	6.86
774.11	6.49
774.288	6.49
774.465	5.63
774.643	4.89
774.82	7.32
774.997	6.43
775.175	5.44
775.352	6.57
775.53	4.96
775.707	4.64
775.884	3.79
776.062	5.66
776.239	7.71
776.416	8.89
776.594	8.25
776.771	7.93
776.948	8.21
777.125	7.22
777.303	6.27
777.48	4.84
777.657	3.43
777.834	5.53
778.012	3.1
778.189	3.16
778.366	3.17
778.543	0.02
778.72	1.6
778.897	2.25
779.074	-0.33
779.251	0.14
779.428	0.42
779.605	0.31
779.782	0.22
779.959	-0.62
780.136	-0.49
780.313	2.48
780.49	2.25
780.667	4.58
780.844	4.06
781.021	5.17
781.198	5.63
781.375	7.56
781.552	5.98
781.728	5.49
781.905	6.51
782.082	8.07
782.259	8.09
782.436	7.43
782.612	6.32
782.789	7.48
782.966	4.65
783.143	5.73
783.319	6.74
783.496	6.15
783.673	5.37
783.849	4.78
784.026	3.51
784.203	3.84
784.379	1.66
784.556	2.59
784.732	1.27
784.909	2.68
785.085	1.9
785.262	3.69
785.438	7.39
785.615	6.72
785.791	5.75
785.968	5.92
786.144	6
786.321	8.52
786.497	7.71
786.673	8.52
786.85	6.54
787.026	6.17
787.203	7.2
787.379	5.61
787.555	5.11
787.731	4.98
787.908	3.79
788.084	6.19
788.26	6.56
788.437	9.23
788.613	8.96
788.789	7.31
788.965	4.79
789.141	1.57
789.317	-0.15
789.494	0.4
789.67	0.54
789.846	0.75
790.022	-1.23
790.198	-1.94
790.374	-1.68
790.55	-0.91
790.726	-0.64
790.902	-0.49
791.078	2.68
791.254	2.53
791.43	2.33
791.606	3.13
791.782	1.91
791.958	-1.1
792.134	-4.06
792.31	-5.64
792.486	-5.67
792.661	-3.22
792.837	0.95
793.013	4.01
793.189	3.14
793.365	3.84
793.54	5.84
793.716	7.57
793.892	11.68
794.068	9.88
794.243	10.03
794.419	10.79
794.595	7.89
794.77	7.16
794.946	8.83
795.122	9.11
795.297	9.93
795.473	10.59
795.648	11.56
795.824	11.98
796	12.27
796.175	13.69
796.351	12.97
796.526	10.61
796.702	10.64
796.877	11.9
797.052	12.47
797.228	10.38
797.403	8.34
797.579	6.81
797.754	7.83
797.929	10.34
798.105	8.98
798.28	9.87
798.455	11.19
798.631	10.36
798.806	11.52
798.981	12.06
799.157	11.79
799.332	12.48
799.507	13.24
799.682	14.22
799.858	13.6
800.033	13
800.208	12.69
800.383	12.31
800.558	11.11
800.733	9.14
800.908	8.64
801.083	9.58
801.258	7.69
801.434	12.61
801.609	12.2
801.784	13.24
801.959	13.88
802.134	11.87
802.309	10.4
802.484	8.59
802.658	7.83
802.833	7.11
803.008	9.32
803.183	10.29
803.358	10.02
803.533	10.46
803.708	10.8
803.883	10.48
804.057	9.67
804.232	11.01
804.407	12.77
804.582	14.23
804.756	13.68
804.931	10.3
805.106	4.5
805.281	4.59
805.455	2.21
805.63	2.11
805.805	1.57
805.979	4.28
806.154	4.43
806.328	4.71
806.503	4.15
806.678	1.27
806.852	-0.42
807.027	0.71
807.201	-2.34
807.376	0.03
807.55	0.71
807.725	-1.15
807.899	0.83
808.074	1.57
808.248	0.46
808.422	0.52
808.597	3.36
808.771	5.35
808.946	4.55
809.12	9.73
809.294	10.72
809.468	12.57
809.643	13.6
809.817	14.82
809.991	13.92
810.166	17.05
810.34	17.22
810.514	19.96
810.688	18.16
810.862	19.33
811.037	18.9
811.211	21.22
811.385	23.73
811.559	23.38
811.733	22.67
811.907	23.49
812.081	22.78
812.255	20.51
812.429	18.45
812.603	21.74
812.777	20.51
812.951	17.93
813.125	19.4
813.299	18.45
813.473	15.49
813.647	17.25
813.821	12.9
813.995	12.6
814.169	9.85
814.343	10.99
814.516	14.11
814.69	15
814.864	10.07
815.038	10.16
815.212	8.92
815.385	8.58
815.559	10.15
815.733	11.75
815.907	14.87
816.08	16.54
816.254	13.57
816.428	12.42
816.601	13.23
816.775	13.02
816.948	9.87
817.122	12.48
817.296	10.78
817.469	14.52
817.643	17.99
817.816	18.25
817.99	16.55
818.163	15.78
818.337	13.39
818.51	16.35
818.684	19.24
818.857	19.71
819.031	18.85
819.204	13.97
819.377	12.92
819.551	12.3
819.724	11.13
819.897	11.42
820.071	11.25
820.244	8.68
820.417	7.02
820.591	7.32
820.764	7.44
820.937	10.99
821.11	7.24
821.284	5.62
821.457	10.63
821.63	11.37
821.803	10.38
821.976	11.6
822.149	11.71
822.322	9.31
822.496	6.43
822.669	10.37
822.842	13.51
823.015	13.22
823.188	11.31
823.361	12.36
823.534	9.91
823.707	8.81
823.88	11.36
824.053	9.32
824.226	12.33
824.399	11.74
824.571	11.22
824.744	14.14
824.917	15.77
825.09	9.26
825.263	12.83
825.436	14.49
825.608	13.45
825.781	14.97
825.954	16.3
826.127	17.84
826.299	15.32
826.472	13.04
826.645	13.91
826.818	16.62
826.99	16.16
827.163	16.43
827.336	15.8
827.508	16.11
827.681	18.1
827.853	16.76
828.026	16.26
828.198	14.91
828.371	15.49
828.544	12
828.716	13.11
828.889	6.22
829.061	0.21
829.233	1.64
829.406	-1.28
829.578	-3.28
829.751	-1.31
829.923	-4.51
830.096	-5.88
830.268	-6.72
830.44	-7.44
830.613	-6.59
830.785	-5.64
830.957	-3.11
831.129	-2.17
831.302	-0.59
831.474	-1.34
831.646	-1.35
831.818	-1.45
831.991	-2.1
832.163	0.97
832.335	3.55
832.507	9.33
832.679	12.11
832.851	11.31
833.023	11.53
833.195	13.71
833.368	13.55
833.54	16.58
833.712	18.07
833.884	20.54
834.056	19.87
834.228	19.79
834.4	24.03
834.571	26.59
834.743	26.78
834.915	24.95
835.087	25.86
835.259	26.09
835.431	21.51
835.603	17.18
835.775	15.32
835.946	11.27
836.118	8.51
836.29	8.37
836.462	4.46
836.634	7.42
836.805	6.84
836.977	3.48
837.149	4.24
837.32	3.68
837.492	1.78
837.664	1.73
837.835	-0.32
838.007	-5.99
838.179	-10.45
838.35	-5.6
838.522	-0.73
838.693	-0.52
838.865	-5.25
839.036	-6.48
839.208	-2.65
839.379	0.67
839.551	2.6
839.722	3.57
839.894	2.66
840.065	4.38
840.237	1.08
840.408	0.99
840.579	3.94
840.751	2.99
840.922	3.35
841.093	3.24
841.265	2.95
841.436	9.72
841.607	9.44
841.778	11.77
841.95	9.33
842.121	9.21
842.292	10.24
842.463	13.94
842.635	17.39
842.806	18.08
842.977	15.55
843.148	14.14
843.319	12.32
843.49	14.8
843.661	12
843.832	14.91
844.003	18.71
844.174	23.62
844.345	23.97
844.516	22.69
844.687	18.58
844.858	23.59
845.029	22.88
845.2	22.73
845.371	19.18
845.542	14.6
845.713	4.29
845.884	1.82
846.055	-1.73
846.225	5.05
846.396	2.01
846.567	6.91
846.738	7.16
846.909	8.59
847.079	8.48
847.25	15.7
847.421	13.5
847.591	3.45
847.762	1.75
847.933	-4.24
848.103	3.3
848.274	0.91
848.445	-3.29
848.615	-12.21
848.786	-8.71
848.956	-3.47
849.127	0.76
849.297	12.93
849.468	14.21
849.638	14.1
849.809	9.11
849.979	10.76
850.15	8.25
850.32	13.74
850.491	13.58
850.661	13.76
850.831	15.1
851.002	20.03
851.172	22.02
851.342	20.35
851.513	21.39
851.683	15.97
851.853	18.2
852.024	18
852.194	19.52
852.364	20.49
852.534	16.62
852.705	20.87
852.875	14.6
853.045	14.81
853.215	18.03
853.385	20.66
853.555	21.46
853.725	16.82
853.895	11.78
854.066	13.74
854.236	16.31
854.406	11.3
854.576	3.35
854.746	2.05
854.916	8.42
855.086	11.56
855.256	18.62
855.425	25.11
855.595	32.26
855.765	32.61
855.935	29.58
856.105	29.53
856.275	25.42
856.445	27.38
856.614	25.13
856.784	24.14
856.954	25.85
857.124	28.94
857.294	29.88
857.463	30.89
857.633	29.34
857.803	29.1
857.972	29.52
858.142	35.53
858.312	41.65
858.481	35.58
858.651	32.02
858.821	28.83
858.99	24.38
859.16	17.94
859.329	21.73
859.499	22.55
859.668	26.2
859.838	28.27
860.007	36.32
860.177	37.24
860.346	39.65
860.516	35
860.685	27.93
860.854	33.17
861.024	31.65
861.193	35.74
861.363	32.53
861.532	31.88
861.701	32.5
861.87	29.86
862.04	34.02
862.209	36.16
862.378	38.98
862.547	38.39
862.717	35.38
862.886	33.86
863.055	34.53
863.224	36.4
863.393	31.31
863.563	23.79
863.732	24.02
863.901	17.17
864.07	18.12
864.239	18.79
864.408	12.75
864.577	15.22
864.746	18.41
864.915	16.45
865.084	19.49
865.253	15.11
865.422	14.94
865.591	11.47
865.76	15.59
865.929	17.54
866.097	17.59
866.266	19.73
866.435	20.14
866.604	11.78
866.773	9.68
866.942	8.03
867.11	12.01
867.279	15.14
867.448	29.09
867.617	28.51
867.785	25.67
867.954	28.15
868.123	27.76
868.291	13.09
868.46	17.25
868.629	7.67
868.797	-1.69
868.966	-1.87
869.134	-1.3
869.303	0.17
869.472	0.27
869.64	-4.98
869.809	-10.62
869.977	-16.22
870.146	-9.86
870.314	-11.67
870.482	-9.53
870.651	-15.37
870.819	-14.4
870.988	-17.48
871.156	-11.58
871.324	-15.86
871.493	-17.12
871.661	-9.23
871.829	-10.71
871.998	-14.83
872.166	-22.8
872.334	-0.28
872.502	-1.84
872.671	-2.14
872.839	-1.65
873.007	-9.23
873.175	-1.36
873.343	8.31
873.512	8.68
873.68	8.87
873.848	12.74
874.016	23.18
874.184	24.57
874.352	19.26
874.52	24.22
874.688	17.27
874.856	26.38
875.024	26.37
875.192	19.63
875.36	14.54
875.528	20.35
875.696	34.4
875.864	20.33
876.032	24.4
876.199	20.69
876.367	27.07
876.535	27.97
876.703	26.98
876.871	31.53
877.039	44.11
877.206	49.91
877.374	36.88
877.542	30.83
877.71	27.87
877.877	31.72
878.045	33.31
878.213	32.26
878.38	36.51
878.548	38.41
878.715	46.83
878.883	61.24
879.051	63.66
879.218	54.82
879.386	63.77
879.553	64.83
879.721	72.81
879.888	69.24
880.056	76.45
880.223	84.94
880.391	77.68
880.558	70.45
880.726	63.41
880.893	74.16
881.06	63.27
881.228	68.58
881.395	60.55
881.562	50.9
881.73	53.18
881.897	47.72
882.064	50.48
882.231	27.62
882.399	29.74
882.566	29.72
882.733	34.69
882.9	7.91
883.068	8.88
883.235	-1.18
883.402	-14.95
883.569	2.16
883.736	9.23
883.903	14.39
884.07	16.03
884.237	8.58
884.404	13.19
884.571	24.62
884.738	32.05
884.905	34.88
885.072	36.38
885.239	37.21
885.406	37.78
