Data from Transmission_09-20-24-345.txt Node
Date: Fri Aug 24 09:20:24 EEST 2018
User: tibor.sos
Spectrometer: USB4F01757
Scans to average: 10
Trigger mode: 4
Integration Time (sec): 1.000000E-2
Electric dark correction enabled: true
Boxcar width: 10
XAxis mode: Wavelengths
Number of Pixels in Spectrum: 3648
>>>>>Begin Spectral Data<<<<<
178.758	-2.38
178.974	-109.92
179.191	-43.2
179.407	-3.94
179.624	-3.2
179.84	-10.33
180.057	-23.87
180.273	9.3
180.489	32.84
180.706	4.78
180.922	33.53
181.138	49.65
181.355	62.35
181.571	78.6
181.787	138
182.004	156.2
182.22	212.24
182.436	200.64
182.653	187.95
182.869	157.08
183.085	176.97
183.301	154.94
183.518	113.68
183.734	82.72
183.95	106.79
184.166	127.55
184.383	134.56
184.599	143.35
184.815	127.89
185.031	108.72
185.247	116.07
185.463	128.26
185.68	131.39
185.896	147.22
186.112	158.76
186.328	141.08
186.544	139.75
186.76	153.7
186.976	156.58
187.192	156.01
187.408	187.67
187.624	216.33
187.84	183.19
188.056	174.53
188.272	180.28
188.488	195.09
188.704	176.46
188.92	214.29
189.136	181.5
189.352	196.71
189.568	232.54
189.784	250.93
190	217.49
190.216	212.78
190.432	216.18
190.648	236.91
190.864	522.7
191.08	449.43
191.296	188.7
191.511	191.01
191.727	199.12
191.943	231.95
192.159	151.38
192.375	150.86
192.591	195.58
192.806	305.33
193.022	172.19
193.238	358
193.454	247.89
193.669	308.64
193.885	320.73
194.101	541.55
194.317	293.16
194.532	1334.83
194.748	-1045.38
194.964	626.63
195.18	366.88
195.395	322.21
195.611	231.01
195.827	508.45
196.042	889.96
196.258	510.98
196.473	289.57
196.689	407.18
196.905	544
197.12	1651.49
197.336	530.96
197.551	-541.18
197.767	191600
197.982	512.35
198.198	3446.58
198.414	2705.62
198.629	450.81
198.845	394.68
199.06	420.8
199.276	349.54
199.491	914.59
199.707	210.48
199.922	173.45
200.137	239.11
200.353	230.29
200.568	190.61
200.784	201.52
200.999	234.33
201.215	339.51
201.43	354.42
201.645	276.81
201.861	258.89
202.076	235.29
202.291	230.82
202.507	209.9
202.722	131.21
202.937	262.66
203.153	274.87
203.368	197.04
203.583	169.2
203.798	213.45
204.014	235.83
204.229	242.71
204.444	295.95
204.659	517.85
204.875	783.8
205.09	-1942.86
205.305	4920.75
205.52	-2377.24
205.735	-1595.21
205.951	11600
206.166	-735.19
206.381	-637.29
206.596	-5934.55
206.811	-1740.35
207.026	-1257.56
207.241	-359.67
207.457	1104.05
207.672	2978.51
207.887	-3173.83
208.102	-501.04
208.317	-311.01
208.532	720.9
208.747	-732.24
208.962	-338.22
209.177	510.07
209.392	236.76
209.607	151.45
209.822	150.07
210.037	98.54
210.252	156.34
210.467	168.46
210.682	109.41
210.897	66.61
211.112	118.73
211.326	87.84
211.541	99.41
211.756	70.86
211.971	65.59
212.186	41.25
212.401	54.72
212.616	84.09
212.831	98.74
213.045	157.8
213.26	95.79
213.475	133.71
213.69	165.36
213.905	266.14
214.119	409.05
214.334	-2237.04
214.549	-286.64
214.764	290.16
214.978	262.12
215.193	439.53
215.408	-3630.77
215.622	608.3
215.837	3635.56
216.052	-1958.62
216.266	-513.42
216.481	-629.33
216.696	-373.81
216.91	7612.12
217.125	755.02
217.34	1374.09
217.554	1563.24
217.769	-679.35
217.983	-243.01
218.198	-491.31
218.412	-704.82
218.627	756.35
218.842	460.73
219.056	337.81
219.271	309.27
219.485	467.7
219.7	415.45
219.914	281.32
220.129	384.31
220.343	252.35
220.558	177.62
220.772	186.31
220.986	177.37
221.201	225.15
221.415	-169.48
221.63	-87.39
221.844	-73.89
222.058	-67.99
222.273	-67.24
222.487	-61.36
222.702	-56.46
222.916	-92.6
223.13	-20.31
223.344	-31.57
223.559	4.26
223.773	1.02
223.987	-0.8
224.202	-16.28
224.416	-35.54
224.63	-97.08
224.844	-97.7
225.059	-116.58
225.273	-1903.03
225.487	1459.2
225.701	216.84
225.915	143.35
226.13	121.54
226.344	127.55
226.558	162.89
226.772	144.48
226.986	141.8
227.2	162.98
227.415	153.64
227.629	183.14
227.843	175.26
228.057	149.38
228.271	125.37
228.485	147.22
228.699	173.08
228.913	199.25
229.127	157.15
229.341	167.01
229.555	203.26
229.769	242.45
229.983	287.59
230.197	284.52
230.411	418
230.625	378.48
230.839	198.97
231.053	84.88
231.267	376.72
231.481	210.33
231.695	124.92
231.909	148.91
232.122	49.96
232.336	93.87
232.55	174.78
232.764	158.41
232.978	116.95
233.192	92.65
233.405	-110.64
233.619	-54.51
233.833	-46.58
234.047	-91.36
234.261	-180.44
234.474	-20.27
234.688	122.79
234.902	213.33
235.116	132.63
235.329	80.62
235.543	157.41
235.757	142.35
235.97	103.15
236.184	117.6
236.398	134.12
236.612	133.72
236.825	188.22
237.039	345.93
237.252	307.85
237.466	981.82
237.68	2657.63
237.893	-119600
238.107	-219.76
238.32	403.48
238.534	29.74
238.748	42.48
238.961	40.05
239.175	0.61
239.388	62.91
239.602	132.55
239.815	109.9
240.029	202.11
240.242	172.42
240.456	164.54
240.669	233.78
240.882	235.06
241.096	493.54
241.309	411.89
241.523	672.57
241.736	841.19
241.95	-1718.44
242.163	2174.44
242.376	569.54
242.59	1776
242.803	-16106.67
243.016	-582.48
243.23	-1835.29
243.443	-11040
243.656	1190.98
243.87	262.05
244.083	173.6
244.296	152.47
244.509	132.98
244.723	115.61
244.936	87.31
245.149	37.69
245.362	36.79
245.576	2.76
245.789	-27.76
246.002	4.92
246.215	-3.79
246.428	31.11
246.641	19.99
246.855	75.64
247.068	39.58
247.281	-25.2
247.494	6.53
247.707	16.4
247.92	17.79
248.133	9.54
248.346	-4.61
248.559	16.55
248.772	-10.93
248.985	23.26
249.198	24.41
249.411	22.05
249.624	27.54
249.837	25.05
250.05	44.62
250.263	46.26
250.476	36.98
250.689	36.06
250.902	23.38
251.115	5.89
251.328	1.24
251.541	17.15
251.754	28.21
251.967	27.97
252.18	15.43
252.393	4.47
252.605	12.59
252.818	12.44
253.031	3.44
253.244	9.33
253.457	-3.49
253.67	-7.93
253.882	0.33
254.095	10.33
254.308	17.64
254.521	6.09
254.733	5.32
254.946	5.69
255.159	8.53
255.372	4.32
255.584	11.88
255.797	10.28
256.01	-9.34
256.222	-15.76
256.435	-13.65
256.648	1.55
256.86	13.83
257.073	25.1
257.285	23.45
257.498	24.6
257.711	29.88
257.923	24.3
258.136	29.31
258.348	20.78
258.561	12.97
258.773	-8.84
258.986	-20.53
259.198	-6.28
259.411	-23.95
259.623	-28.05
259.836	-16.18
260.048	-5.25
260.261	19.76
260.473	16.83
260.686	33.18
260.898	38.72
261.111	35.76
261.323	32.79
261.535	25.01
261.748	30.17
261.96	31.49
262.173	28.37
262.385	32.22
262.597	34.09
262.81	32.72
263.022	29.08
263.234	45.01
263.447	53.8
263.659	48.04
263.871	45.84
264.083	51.64
264.296	50.75
264.508	46.23
264.72	35.59
264.932	35.96
265.145	25.99
265.357	11.99
265.569	9.18
265.781	17.84
265.993	17.04
266.205	-3.8
266.418	-12.04
266.63	-33.09
266.842	-14.73
267.054	-21.75
267.266	-8.62
267.478	1.01
267.69	-3.55
267.902	-35.15
268.114	-40.55
268.326	-34.13
268.538	-25.76
268.75	-0.9
268.962	6.91
269.174	16.34
269.386	26.67
269.598	35.31
269.81	42.08
270.022	40.03
270.234	32.74
270.446	31.84
270.658	38.13
270.87	40.78
271.082	41.62
271.294	35.95
271.506	33.34
271.718	32.05
271.929	30.03
272.141	29.94
272.353	38.07
272.565	41.32
272.777	44.1
272.989	43.74
273.2	43.92
273.412	42.04
273.624	38.76
273.836	36.55
274.047	38.28
274.259	42.32
274.471	47.64
274.683	44.16
274.894	43.1
275.106	48.98
275.318	46.99
275.529	49.34
275.741	41.83
275.953	52.05
276.164	53.28
276.376	54.63
276.588	56.44
276.799	64.42
277.011	60.79
277.222	63.8
277.434	50.17
277.646	31.59
277.857	38.42
278.069	46.31
278.28	42.69
278.492	33.15
278.703	17.92
278.915	20.26
279.126	26.45
279.338	25.7
279.549	24.15
279.761	23.56
279.972	21.72
280.183	30.56
280.395	25.69
280.606	22.93
280.818	20.53
281.029	21.67
281.24	11.12
281.452	7.49
281.663	6.83
281.875	14.39
282.086	21.38
282.297	20.63
282.508	18.6
282.72	28.37
282.931	34.97
283.142	30.71
283.354	22.79
283.565	21.28
283.776	29.62
283.987	16.18
284.199	22.91
284.41	35.43
284.621	35.93
284.832	39.68
285.043	34.85
285.254	38.69
285.466	26.31
285.677	29.91
285.888	23.78
286.099	21.03
286.31	18.79
286.521	14.15
286.732	7.86
286.943	11.03
287.154	12.04
287.366	8.1
287.577	13.95
287.788	11.33
287.999	12.79
288.21	3.72
288.421	14.03
288.632	8.57
288.843	6.05
289.054	13.71
289.264	8.7
289.475	14.83
289.686	18.57
289.897	27.02
290.108	34.69
290.319	30.19
290.53	34.14
290.741	29.57
290.952	34.7
291.163	36.94
291.373	33.09
291.584	33.21
291.795	31.8
292.006	38.76
292.217	44.42
292.427	46.87
292.638	49.86
292.849	41.25
293.06	45.58
293.27	42.95
293.481	36.91
293.692	37.4
293.903	36.58
294.113	34.17
294.324	27.97
294.535	19.73
294.745	20.9
294.956	18.34
295.167	14.17
295.377	13.37
295.588	14.64
295.798	17.93
296.009	12.32
296.22	16.99
296.43	10.6
296.641	-2.86
296.851	-9.77
297.062	-14.2
297.272	-5.85
297.483	-3.36
297.693	-2.69
297.904	-1.33
298.114	-3.71
298.325	-1.35
298.535	-4.2
298.746	1.7
298.956	2.27
299.167	2.16
299.377	-0.24
299.587	5.53
299.798	3.28
300.008	-6.66
300.219	-5.49
300.429	0.69
300.639	1.37
300.85	7.28
301.06	10.58
301.27	16.98
301.481	22.63
301.691	21.24
301.901	21.63
302.111	22.84
302.322	17.69
302.532	22.19
302.742	19.4
302.952	14.8
303.163	8.13
303.373	6.2
303.583	11.93
303.793	16.95
304.003	21.74
304.214	23.99
304.424	29.99
304.634	25.28
304.844	24.31
305.054	27.19
305.264	21.21
305.474	22.17
305.684	19.28
305.894	14.98
306.104	13.33
306.314	12.06
306.525	8.13
306.735	12.91
306.945	-0.22
307.155	-1.79
307.365	5.51
307.575	5.95
307.784	2.09
307.994	-3.15
308.204	-4.05
308.414	-7.52
308.624	-8.3
308.834	-5.45
309.044	-1.03
309.254	1.4
309.464	-1.06
309.674	3.12
309.884	0.48
310.093	4.7
310.303	4.53
310.513	6.29
310.723	7.19
310.933	10.97
311.142	11.7
311.352	18.15
311.562	22.76
311.772	22.25
311.981	23.12
312.191	28.85
312.401	34.22
312.611	36.81
312.82	34.74
313.03	32.85
313.24	32.84
313.449	33.27
313.659	33.78
313.869	28.69
314.078	30.01
314.288	34.11
314.497	32.95
314.707	33.8
314.917	36.29
315.126	39.05
315.336	37.88
315.545	33.23
315.755	33.88
315.964	28.68
316.174	33.12
316.383	32.72
316.593	33.05
316.802	31.99
317.012	26.55
317.221	37.19
317.431	39.98
317.64	41.11
317.849	41.71
318.059	40.67
318.268	46.65
318.478	45.41
318.687	42.86
318.896	44.21
319.106	43.66
319.315	44.1
319.524	35.6
319.734	29.98
319.943	33.04
320.152	31.21
320.362	34.24
320.571	30.51
320.78	31.93
320.989	34.54
321.199	36.13
321.408	36.61
321.617	26.35
321.826	25.86
322.035	20.11
322.245	19.93
322.454	17.8
322.663	13.49
322.872	14.69
323.081	8.33
323.29	3.24
323.5	-0.26
323.709	-0.3
323.918	7.31
324.127	4.26
324.336	0.04
324.545	-3.56
324.754	-2.02
324.963	-0.72
325.172	6.09
325.381	6.46
325.59	5.04
325.799	4.58
326.008	0.93
326.217	-6.83
326.426	10.73
326.635	14.22
326.844	18.88
327.053	25.74
327.262	22.84
327.47	22.56
327.679	22.78
327.888	25.65
328.097	26.41
328.306	25.13
328.515	34.21
328.724	41.26
328.932	38.64
329.141	40.35
329.35	34.75
329.559	27.11
329.768	25.98
329.976	26.55
330.185	21.83
330.394	29.12
330.602	34.17
330.811	21.47
331.02	22.42
331.229	15.37
331.437	19.9
331.646	18.77
331.855	27.29
332.063	27.28
332.272	29.78
332.48	29.34
332.689	28.04
332.898	23.65
333.106	25.67
333.315	27.51
333.523	16.29
333.732	20.36
333.94	23.43
334.149	17.66
334.357	14.53
334.566	23.45
334.774	29.1
334.983	29.79
335.191	25.55
335.4	17.46
335.608	25.4
335.817	18.4
336.025	19.51
336.234	17.09
336.442	18.14
336.65	12.73
336.859	16.81
337.067	27.99
337.275	37.14
337.484	26.19
337.692	27.87
337.9	38.69
338.109	37.2
338.317	36.94
338.525	39.26
338.734	41.04
338.942	36.63
339.15	22.36
339.358	14.81
339.567	28.92
339.775	30.7
339.983	27.3
340.191	24.98
340.399	29.53
340.608	32.91
340.816	43.22
341.024	43.35
341.232	33.47
341.44	29.73
341.648	24.98
341.856	31.68
342.064	37.4
342.272	33.54
342.481	32.31
342.689	32.55
342.897	34.6
343.105	40.74
343.313	44.94
343.521	44.87
343.729	42.81
343.937	40.13
344.145	38.54
344.353	42.06
344.56	38.93
344.768	42.28
344.976	37.07
345.184	27.28
345.392	26.99
345.6	39.09
345.808	30.92
346.016	26.56
346.224	29.39
346.431	30.05
346.639	32.36
346.847	37.04
347.055	32.39
347.263	34.15
347.471	24.64
347.678	17.24
347.886	22.16
348.094	27.85
348.302	34.57
348.509	38.6
348.717	30.65
348.925	35.78
349.132	23.37
349.34	26.28
349.548	24.44
349.755	26.01
349.963	21.07
350.171	28.41
350.378	34.35
350.586	28.83
350.793	33.08
351.001	34.97
351.209	31.8
351.416	34.72
351.624	27.92
351.831	28.07
352.039	32.84
352.246	25.03
352.454	17.99
352.661	8.57
352.869	9.91
353.076	17.41
353.284	19.48
353.491	30.37
353.699	24.68
353.906	35.78
354.113	33.31
354.321	28.67
354.528	27.07
354.736	23.82
354.943	25.89
355.15	17.01
355.358	11.56
355.565	3.38
355.772	8.28
355.98	18.45
356.187	18.2
356.394	7.2
356.601	12.49
356.809	12.45
357.016	15.95
357.223	13.62
357.43	5.42
357.638	10.9
357.845	7.72
358.052	9.55
358.259	6.87
358.466	9.46
358.673	8.12
358.881	13.12
359.088	12.73
359.295	14.13
359.502	12.2
359.709	16.07
359.916	10.06
360.123	3.09
360.33	-11.11
360.537	-15.64
360.744	-4.13
360.951	-8.96
361.158	0.87
361.365	2.99
361.572	11.23
361.779	20.68
361.986	16.73
362.193	17.69
362.4	13.66
362.607	4.38
362.814	2.6
363.021	9.65
363.228	3.65
363.435	12.89
363.641	6.47
363.848	7.48
364.055	4.64
364.262	22.68
364.469	21.89
364.676	31.7
364.882	33.95
365.089	29.83
365.296	31.35
365.503	24.74
365.709	16.06
365.916	8.1
366.123	9.84
366.33	2.96
366.536	4.6
366.743	6.15
366.95	7.96
367.156	11.83
367.363	9.73
367.57	9.28
367.776	4.81
367.983	14.8
368.19	18.2
368.396	20.87
368.603	12.14
368.809	25.37
369.016	15.64
369.222	16.19
369.429	19.97
369.635	22.63
369.842	25.01
370.048	36.84
370.255	36.59
370.461	31.18
370.668	33.79
370.874	33.82
371.081	34.41
371.287	43.35
371.494	38.21
371.7	36.76
371.906	36.22
372.113	34.07
372.319	29.84
372.526	30.15
372.732	29.25
372.938	29.47
373.145	20.14
373.351	25.33
373.557	21.15
373.763	24.84
373.97	20.8
374.176	27.22
374.382	28.24
374.588	30.57
374.795	31.25
375.001	28.26
375.207	23.11
375.413	26.57
375.62	20.13
375.826	28.6
376.032	36.39
376.238	34.58
376.444	35.72
376.65	26.25
376.856	21.69
377.062	19.56
377.269	31.8
377.475	33.63
377.681	31.87
377.887	31.67
378.093	15.38
378.299	28.71
378.505	17.56
378.711	14.56
378.917	12.83
379.123	15.26
379.329	21.46
379.535	23.34
379.741	20.04
379.947	18.01
380.152	16.63
380.358	14.05
380.564	17.56
380.77	12.8
380.976	16.5
381.182	16.52
381.388	26.34
381.594	17.86
381.799	22.12
382.005	16.34
382.211	18.86
382.417	24.08
382.623	17.46
382.828	24.66
383.034	21.16
383.24	21.49
383.445	19.94
383.651	17.69
383.857	13.6
384.063	18.98
384.268	12.61
384.474	17.34
384.68	16.91
384.885	18.53
385.091	25.03
385.296	27.46
385.502	33.65
385.708	21.28
385.913	21.91
386.119	18.24
386.324	40.57
386.53	41.88
386.735	42.96
386.941	40.47
387.146	32.87
387.352	35.29
387.557	34.52
387.763	29.69
387.968	21.96
388.174	27.64
388.379	22.25
388.585	20.21
388.79	10.68
388.996	6.48
389.201	-4.33
389.406	-17.43
389.612	-21.31
389.817	-15.32
390.022	-13.4
390.228	-10.94
390.433	-7.7
390.638	-16.04
390.844	-14.97
391.049	-14.47
391.254	-11.78
391.459	-9.36
391.665	-17.27
391.87	-14.77
392.075	2.88
392.28	9.61
392.485	1.26
392.691	0.3
392.896	-3.39
393.101	-2.34
393.306	6.66
393.511	13.16
393.716	26.09
393.922	29.46
394.127	30.55
394.332	40.37
394.537	43.86
394.742	38.46
394.947	42.33
395.152	41.08
395.357	37.39
395.562	32.68
395.767	31.14
395.972	32.29
396.177	25.78
396.382	19.96
396.587	20.12
396.792	25.13
396.997	35.15
397.202	47.07
397.407	45.76
397.611	41.97
397.816	36.31
398.021	34.62
398.226	30.7
398.431	25.71
398.636	23.58
398.841	19.04
399.045	19.67
399.25	13.64
399.455	16.33
399.66	25.77
399.864	26.72
400.069	27.45
400.274	33.82
400.479	39.81
400.683	39.36
400.888	37.81
401.093	29.97
401.297	25.69
401.502	11.44
401.707	12.43
401.911	20.31
402.116	20.07
402.321	22.38
402.525	26.9
402.73	29.13
402.934	22.63
403.139	31.5
403.344	29.21
403.548	30.58
403.753	21.54
403.957	10.18
404.162	1.11
404.366	14.42
404.571	3.27
404.775	-1.25
404.98	-4.34
405.184	4.08
405.388	15.39
405.593	7.2
405.797	16.26
406.002	21.96
406.206	18.12
406.41	27.58
406.615	32.65
406.819	32.53
407.023	33.69
407.228	39.07
407.432	34.71
407.636	36.06
407.841	40.01
408.045	48.65
408.249	45.59
408.453	50.44
408.658	43.17
408.862	52
409.066	49.35
409.27	52.88
409.474	48.63
409.679	35.78
409.883	31.54
410.087	26.09
410.291	22.93
410.495	11.84
410.699	-1.08
410.903	-16.69
411.108	-13.79
411.312	-31.13
411.516	-50.5
411.72	-34.27
411.924	-28.88
412.128	-28.9
412.332	-39.8
412.536	-34.44
412.74	-36.29
412.944	-37.47
413.148	-54.03
413.352	-59.45
413.556	-70.07
413.76	-75.74
413.964	-58.39
414.167	-42.59
414.371	-33.87
414.575	-28.96
414.779	-36.47
414.983	-30.89
415.187	-26.97
415.391	-30.66
415.594	-19.11
415.798	-19.1
416.002	-27.09
416.206	-17.7
416.41	-16.19
416.613	-20.77
416.817	-27.41
417.021	-21.41
417.225	-2
417.428	0.94
417.632	-3.14
417.836	1.13
418.039	17.51
418.243	20.63
418.447	5.94
418.65	11.33
418.854	3.39
419.057	16.19
419.261	27.77
419.465	34.08
419.668	32.28
419.872	35.73
420.075	43.11
420.279	40.97
420.482	35.64
420.686	37.26
420.889	53.54
421.093	57.98
421.296	57.93
421.5	36.1
421.703	34.98
421.907	45.15
422.11	40.3
422.314	35.94
422.517	28.25
422.72	36.85
422.924	27.19
423.127	27.71
423.33	22.91
423.534	13.42
423.737	15.59
423.94	13.21
424.144	18.16
424.347	27.74
424.55	23.32
424.754	20.31
424.957	10.04
425.16	2.79
425.363	7.29
425.567	4
425.77	9.95
425.973	14.23
426.176	6.14
426.379	19.9
426.582	29.01
426.786	30.89
426.989	34.99
427.192	44.19
427.395	43.35
427.598	44.96
427.801	39.71
428.004	33.12
428.207	33.03
428.41	26.82
428.613	22.02
428.816	34.49
429.019	35.1
429.222	32.85
429.425	33.88
429.628	29.89
429.831	29.41
430.034	31.21
430.237	32.75
430.44	35.57
430.643	29.75
430.846	25.87
431.049	28.41
431.252	27.17
431.454	27.49
431.657	23.87
431.86	24.31
432.063	21.89
432.266	23.9
432.469	23.32
432.671	26.88
432.874	29.81
433.077	17.04
433.28	22.96
433.482	23.29
433.685	15.26
433.888	15.38
434.09	7.95
434.293	-1.23
434.496	-6.5
434.698	-18.98
434.901	-8.91
435.104	-6.48
435.306	-1.35
435.509	-11.65
435.712	-12.28
435.914	-25.42
436.117	-21.19
436.319	-8.13
436.522	-16.17
436.724	-14.87
436.927	-25.37
437.129	-25.25
437.332	-15.84
437.534	-19.65
437.737	-25.94
437.939	-4.78
438.142	-7.63
438.344	0.31
438.547	-2.68
438.749	12.03
438.951	16.64
439.154	13.36
439.356	2.24
439.558	-2.39
439.761	4.59
439.963	5.77
440.165	15.42
440.368	15.79
440.57	8.17
440.772	27.5
440.975	14.16
441.177	26.75
441.379	20.9
441.581	21.63
441.784	13.96
441.986	28.59
442.188	20.67
442.39	21.69
442.592	16.95
442.795	26.44
442.997	17.42
443.199	15.62
443.401	18.87
443.603	29.64
443.805	25
444.007	25.56
444.209	23.06
444.411	36.38
444.613	31
444.815	35.3
445.017	32.97
445.219	34.4
445.421	35.68
445.623	36.6
445.825	31.86
446.027	29.2
446.229	15.14
446.431	19.48
446.633	13.88
446.835	12.97
447.037	6.81
447.239	9.8
447.441	15.09
447.643	14.07
447.844	5.94
448.046	13.3
448.248	20.14
448.45	22.87
448.652	8.87
448.853	15.78
449.055	3.09
449.257	1.43
449.459	3.35
449.66	-1.7
449.862	-6.18
450.064	-0.16
450.266	6.38
450.467	6.38
450.669	7.68
450.871	7.04
451.072	21.71
451.274	16.33
451.475	11.9
451.677	17.72
451.879	9.5
452.08	-6.73
452.282	5.08
452.483	3.52
452.685	7.99
452.886	11.89
453.088	5.23
453.289	6.03
453.491	9.18
453.692	0.4
453.894	13.21
454.095	29.68
454.297	24.7
454.498	19.32
454.7	22.19
454.901	24.01
455.102	29.47
455.304	25.51
455.505	26.88
455.706	24.69
455.908	16.43
456.109	9.3
456.31	12.12
456.512	5.55
456.713	-2.4
456.914	-11.48
457.116	-24.2
457.317	-18.94
457.518	-19.08
457.719	-21.67
457.921	-17.09
458.122	-28.88
458.323	-31.63
458.524	-22.53
458.725	-19.76
458.926	-15.23
459.128	-28.39
459.329	-34.85
459.53	-42.57
459.731	-47.12
459.932	-52.56
460.133	-44.8
460.334	-22.73
460.535	-0.46
460.736	1.27
460.937	-5.65
461.138	-2.08
461.339	11.73
461.54	11.04
461.741	10.09
461.942	16.75
462.143	22.05
462.344	28.5
462.545	20.6
462.746	14.54
462.947	9.1
463.148	11.04
463.348	20.06
463.549	21.96
463.75	26.07
463.951	26.83
464.152	19.84
464.353	18.77
464.553	16.24
464.754	11.84
464.955	9.58
465.156	16.47
465.356	20.43
465.557	11.01
465.758	11.83
465.959	14.66
466.159	12.32
466.36	6.87
466.561	6.65
466.761	9.5
466.962	13.52
467.163	20.46
467.363	18.12
467.564	21.03
467.764	24.14
467.965	26.19
468.166	25.4
468.366	42.24
468.567	42.96
468.767	49.74
468.968	46.88
469.168	52.3
469.369	59.05
469.569	53.7
469.77	53.13
469.97	52.96
470.17	55.32
470.371	52.97
470.571	54.61
470.772	55.53
470.972	62.97
471.172	59.64
471.373	53.88
471.573	55.02
471.773	49.42
471.974	44.74
472.174	43.13
472.374	44.47
472.575	37.09
472.775	34.32
472.975	23.13
473.175	25.28
473.376	20.2
473.576	20.12
473.776	24.87
473.976	23.66
474.177	28.13
474.377	21.42
474.577	22.27
474.777	21.46
474.977	15.7
475.177	7.5
475.377	8.99
475.577	12.86
475.777	9.18
475.978	9.06
476.178	10.95
476.378	12.18
476.578	14.26
476.778	12.18
476.978	10.79
477.178	11.5
477.378	10.26
477.578	11.6
477.778	14.11
477.977	8.39
478.177	9.94
478.377	7.54
478.577	10.29
478.777	15.56
478.977	16.57
479.177	17.08
479.377	20.89
479.577	17.55
479.776	16.55
479.976	12.82
480.176	16.85
480.376	15.97
480.576	16.04
480.775	9.42
480.975	9.05
481.175	13.15
481.374	16.06
481.574	17.65
481.774	19.5
481.974	15.05
482.173	15.47
482.373	10.2
482.572	11
482.772	13.07
482.972	12.47
483.171	14.81
483.371	19.09
483.57	16.01
483.77	19.08
483.97	18.55
484.169	24.68
484.369	25.69
484.568	23.28
484.768	22.39
484.967	23.42
485.167	27.51
485.366	24.93
485.566	24.48
485.765	26.82
485.964	21.36
486.164	20.74
486.363	18.35
486.563	21.81
486.762	20.96
486.961	19.7
487.161	17.4
487.36	16.12
487.559	11.9
487.759	11.3
487.958	5.7
488.157	4.15
488.356	0.15
488.556	-3.32
488.755	-1.38
488.954	-4.46
489.153	-7.04
489.353	-9.13
489.552	-6.79
489.751	-5.6
489.95	-8.73
490.149	-9.16
490.348	-5.38
490.548	-0.97
490.747	-5.06
490.946	-0.54
491.145	0.78
491.344	-2.11
491.543	0.12
491.742	-0.63
491.941	-5.95
492.14	-5.33
492.339	-2.19
492.538	0.66
492.737	2.38
492.936	1.76
493.135	3.34
493.334	3.95
493.533	3.68
493.732	10.35
493.931	11.09
494.13	10.42
494.328	13.99
494.527	11.31
494.726	8.03
494.925	5.94
495.124	1.33
495.323	1.57
495.521	4.09
495.72	0.86
495.919	5.04
496.118	9.01
496.316	13.38
496.515	14.81
496.714	11.46
496.913	13.73
497.111	15.87
497.31	14.61
497.509	17.08
497.707	15.4
497.906	10.46
498.105	2.53
498.303	2.57
498.502	3.09
498.7	4.91
498.899	4.48
499.097	10.95
499.296	12.49
499.495	13.18
499.693	13.44
499.892	18.46
500.09	11.4
500.289	14.82
500.487	14.18
500.686	12.39
500.884	11.65
501.082	12.23
501.281	8.41
501.479	9.13
501.678	10.14
501.876	8.17
502.074	10.87
502.273	17.07
502.471	16.9
502.669	11.34
502.868	8.55
503.066	11.98
503.264	13.85
503.463	11.67
503.661	8.75
503.859	12.39
504.057	13.13
504.256	14
504.454	13.11
504.652	9.09
504.85	10.06
505.048	14.77
505.246	9.29
505.445	6.85
505.643	8
505.841	5.54
506.039	5.21
506.237	1.8
506.435	2.34
506.633	2.96
506.831	9.82
507.029	13.43
507.227	15.22
507.425	13.26
507.623	15.16
507.821	14.13
508.019	11.96
508.217	11.8
508.415	14.39
508.613	12.41
508.811	13.78
509.009	11.25
509.207	11.8
509.405	13.88
509.603	16.18
509.8	14.88
509.998	16.68
510.196	19.42
510.394	17.41
510.592	16.41
510.79	15.44
510.987	12.7
511.185	11.71
511.383	8.68
511.581	8.9
511.778	9.28
511.976	10.49
512.174	6.37
512.371	2.38
512.569	1.69
512.767	5.8
512.964	5.72
513.162	4.96
513.36	1.7
513.557	-2.99
513.755	-3.83
513.952	0.91
514.15	-3.15
514.348	-3.34
514.545	0.12
514.743	0.06
514.94	3.77
515.138	4.06
515.335	2.79
515.533	4.68
515.73	3.32
515.927	4.88
516.125	5.02
516.322	11.58
516.52	14.93
516.717	13.52
516.915	11.04
517.112	11.5
517.309	12.62
517.507	14.52
517.704	17.75
517.901	18.28
518.099	16.42
518.296	20.46
518.493	22.12
518.69	24.21
518.888	26.29
519.085	24.63
519.282	24.77
519.479	24
519.676	22.1
519.874	19.76
520.071	14.63
520.268	17.48
520.465	14.37
520.662	12.93
520.859	13.24
521.056	13.13
521.254	14.19
521.451	16.84
521.648	15.98
521.845	17.23
522.042	19.18
522.239	18.9
522.436	15.87
522.633	9.88
522.83	9.67
523.027	4.82
523.224	4.67
523.421	3.51
523.618	3.72
523.815	8.05
524.011	12.85
524.208	18.8
524.405	15.73
524.602	17.95
524.799	15.94
524.996	14.42
525.193	12.98
525.389	11.22
525.586	8.88
525.783	5.72
525.98	5.11
526.176	5.47
526.373	4.95
526.57	7.46
526.767	10.37
526.963	8.72
527.16	15.98
527.357	18.21
527.553	22.06
527.75	27.14
527.947	23.01
528.143	21.96
528.34	19.43
528.537	19.14
528.733	15.72
528.93	19.26
529.126	24.95
529.323	27.22
529.519	26.07
529.716	25.46
529.912	29.19
530.109	30.41
530.305	29.21
530.502	28.77
530.698	28.85
530.895	28.1
531.091	29.61
531.288	27.01
531.484	25.38
531.68	22.74
531.877	20.51
532.073	22.37
532.269	23.73
532.466	24.75
532.662	26.11
532.858	22.9
533.055	22.3
533.251	22.18
533.447	20.36
533.643	24.08
533.84	22.38
534.036	20.08
534.232	20.58
534.428	19.51
534.624	17.84
534.821	16.26
535.017	19.43
535.213	17.09
535.409	17.96
535.605	18.17
535.801	15.46
535.997	12.92
536.193	10.85
536.389	10.82
536.586	6.52
536.782	6.92
536.978	10.18
537.174	11.18
537.37	10.09
537.566	11.07
537.762	6.33
537.958	8.11
538.153	7.95
538.349	6.38
538.545	8.72
538.741	9.01
538.937	9.37
539.133	7.47
539.329	6.48
539.525	6.39
539.721	5.97
539.916	13.13
540.112	10.9
540.308	13.99
540.504	13.46
540.699	22.22
540.895	22.69
541.091	22.43
541.287	21.96
541.482	21.53
541.678	25.5
541.874	26.65
542.069	25.96
542.265	29.21
542.461	30.44
542.656	29
542.852	28.19
543.048	28.55
543.243	31.97
543.439	35.86
543.634	35.18
543.83	36.14
544.025	33.51
544.221	36.43
544.417	35.65
544.612	36.76
544.807	33.61
545.003	30.48
545.198	29.42
545.394	31.27
545.589	33.31
545.785	28.63
545.98	25.25
546.176	24.43
546.371	19.8
546.566	18.23
546.762	18.68
546.957	20.27
547.152	18.57
547.348	14.12
547.543	10.85
547.738	9.51
547.933	6.25
548.129	6.2
548.324	7.22
548.519	3.01
548.714	0.73
548.91	0.98
549.105	2.4
549.3	3.67
549.495	2.87
549.69	0.2
549.885	1.95
550.08	7.48
550.276	9.96
550.471	17.14
550.666	17.63
550.861	17.65
551.056	14.8
551.251	14.56
551.446	15.65
551.641	15.9
551.836	19.28
552.031	22.73
552.226	23.62
552.421	19.58
552.616	23
552.811	23.65
553.006	21.36
553.201	20.41
553.395	21.49
553.59	20.03
553.785	19.8
553.98	19.75
554.175	17.79
554.37	15.52
554.565	11.25
554.759	9.44
554.954	8.43
555.149	9.42
555.344	11.97
555.538	9.91
555.733	9.79
555.928	10.06
556.122	10.05
556.317	7.45
556.512	9.53
556.706	7.55
556.901	6.27
557.096	7.28
557.29	8.25
557.485	7.24
557.68	3.37
557.874	4.05
558.069	5.31
558.263	5.76
558.458	8.71
558.652	10.99
558.847	11.88
559.041	16.13
559.236	16.34
559.43	15.86
559.625	18.84
559.819	19.38
560.014	15
560.208	14.72
560.402	16.09
560.597	17.16
560.791	17.88
560.986	19.2
561.18	18.17
561.374	19.27
561.569	20
561.763	21.82
561.957	21.13
562.151	17.49
562.346	19.17
562.54	19.39
562.734	17.74
562.928	17.71
563.123	13.96
563.317	15.16
563.511	15.81
563.705	11.74
563.899	12.63
564.093	12.85
564.288	12.73
564.482	13.99
564.676	15.65
564.87	18.21
565.064	18.17
565.258	19.79
565.452	18.31
565.646	19.05
565.84	20.14
566.034	18.71
566.228	20.46
566.422	19.9
566.616	18.5
566.81	19.31
567.004	20.13
567.198	21.45
567.392	19.32
567.586	16.43
567.779	21.1
567.973	19.22
568.167	21.16
568.361	21.54
568.555	20.93
568.749	19.14
568.942	17.14
569.136	18.75
569.33	17.01
569.524	17.72
569.718	16.92
569.911	16.35
570.105	17.97
570.299	17.39
570.492	16.82
570.686	18.33
570.88	18.32
571.073	17.23
571.267	18.77
571.461	19.06
571.654	19.5
571.848	16.74
572.041	18.74
572.235	17.11
572.429	16.85
572.622	15.01
572.816	16.25
573.009	16.09
573.203	15.23
573.396	17.49
573.59	18.17
573.783	17.95
573.976	17.8
574.17	16.52
574.363	17.19
574.557	15.54
574.75	12.68
574.943	13.34
575.137	16.28
575.33	14.41
575.523	13.63
575.717	13.8
575.91	15.27
576.103	14.1
576.297	15.29
576.49	14.55
576.683	15.1
576.876	13.56
577.07	12.76
577.263	13.33
577.456	13.04
577.649	11.91
577.842	12.6
578.036	14.02
578.229	16.58
578.422	16
578.615	17.41
578.808	17.42
579.001	19.38
579.194	18.3
579.387	20.46
579.58	20.91
579.773	20.65
579.966	19.52
580.159	19.39
580.352	19.1
580.545	19.87
580.738	19.47
580.931	17.7
581.124	17.51
581.317	14.22
581.51	12.75
581.703	13.43
581.896	12.21
582.088	12.31
582.281	11.79
582.474	12.51
582.667	14.06
582.86	15.14
583.053	12.04
583.245	12.54
583.438	9.94
583.631	12.31
583.824	11.79
584.016	12.67
584.209	11.79
584.402	11.76
584.594	12.5
584.787	14.62
584.98	17.64
585.172	19.42
585.365	21.23
585.558	21.51
585.75	20.24
585.943	19.98
586.135	18.8
586.328	17.84
586.52	18.83
586.713	18.22
586.906	18.04
587.098	19.94
587.291	18.82
587.483	17.86
587.675	17.17
587.868	17.64
588.06	17.09
588.253	20.09
588.445	19.76
588.638	17.39
588.83	15.84
589.022	13.32
589.215	13.65
589.407	15.31
589.599	16.04
589.792	18.25
589.984	18.56
590.176	19.89
590.368	20.07
590.561	20.97
590.753	23.21
590.945	23.1
591.137	21.4
591.33	19.16
591.522	20.97
591.714	20.41
591.906	20.93
592.098	21.05
592.29	19.02
592.482	20.96
592.674	20.67
592.867	21.9
593.059	23.15
593.251	22.5
593.443	21.32
593.635	19.33
593.827	17.35
594.019	17.16
594.211	16.79
594.403	18.04
594.595	18.01
594.787	14.79
594.979	13.36
595.17	12.7
595.362	15.11
595.554	15.1
595.746	14.64
595.938	15.01
596.13	14.33
596.322	14.57
596.513	10.7
596.705	12.54
596.897	11.1
597.089	11.39
597.281	9.97
597.472	11.08
597.664	11.11
597.856	12.54
598.048	12.69
598.239	12.44
598.431	10.66
598.623	8.88
598.814	5.33
599.006	8.48
599.197	10.14
599.389	9.69
599.581	7.93
599.772	8.41
599.964	8.35
600.155	9.38
600.347	8.35
600.538	10.25
600.73	9.55
600.921	9.67
601.113	8.99
601.304	10.8
601.496	9.82
601.687	10.76
601.879	9.46
602.07	10.58
602.262	9.56
602.453	10.07
602.644	8.78
602.836	11.95
603.027	10.13
603.218	9.69
603.41	10.01
603.601	11.7
603.792	11.58
603.983	10.54
604.175	11.6
604.366	11.04
604.557	12.45
604.748	14.08
604.94	15.23
605.131	13.24
605.322	13.2
605.513	13.44
605.704	14.47
605.895	15.32
606.086	14.76
606.278	16.23
606.469	17.72
606.66	18.27
606.851	18.42
607.042	18.73
607.233	18.14
607.424	17.15
607.615	17.66
607.806	16.9
607.997	18.59
608.188	18.9
608.379	19.71
608.57	17.8
608.761	17
608.952	16.56
609.142	19.97
609.333	19.34
609.524	19.02
609.715	19.13
609.906	18.7
610.097	20.04
610.287	18.13
610.478	16.09
610.669	18.08
610.86	17.68
611.051	17.34
611.241	17.91
611.432	19.02
611.623	18.54
611.813	18.88
612.004	18.48
612.195	18.47
612.385	18.82
612.576	19.93
612.767	19.74
612.957	18.7
613.148	16.99
613.338	16.09
613.529	15.45
613.72	13.77
613.91	13.9
614.101	12.86
614.291	14.52
614.482	16.07
614.672	14.61
614.863	15.1
615.053	15.55
615.243	15.97
615.434	16.98
615.624	15.37
615.815	16.01
616.005	14.95
616.195	13.84
616.386	12.35
616.576	11.6
616.766	12.19
616.957	13.24
617.147	13.15
617.337	12.83
617.528	13.55
617.718	13.43
617.908	13.76
618.098	13.77
618.289	14.36
618.479	12.54
618.669	13.63
618.859	15.04
619.049	14.81
619.239	14.64
619.43	13.57
619.62	14.28
619.81	15.42
620	14.95
620.19	14.28
620.38	15.16
620.57	16.62
620.76	16.54
620.95	16.45
621.14	17.43
621.33	18.62
621.52	18.12
621.71	17.57
621.9	16.26
622.09	16.28
622.28	16.3
622.47	16.32
622.659	15.17
622.849	14.06
623.039	15.47
623.229	14.22
623.419	13.15
623.609	13.23
623.799	12.02
623.988	12.09
624.178	12.69
624.368	12.32
624.558	12.05
624.747	11.25
624.937	11.24
625.127	8.73
625.316	8.04
625.506	10.18
625.696	10.99
625.885	12.02
626.075	10.54
626.265	9.88
626.454	9.88
626.644	10.13
626.833	8.78
627.023	7.48
627.212	8.61
627.402	9
627.591	10.42
627.781	10
627.97	9.78
628.16	9.35
628.349	8.81
628.539	7.99
628.728	8.21
628.918	7.58
629.107	9.47
629.296	8.03
629.486	5.5
629.675	7.15
629.865	6.7
630.054	7.79
630.243	6.95
630.432	6.74
630.622	6.77
630.811	7.45
631	7.92
631.19	7.33
631.379	7.96
631.568	7
631.757	7.29
631.946	7.28
632.136	8.81
632.325	9.38
632.514	11.41
632.703	11.3
632.892	11.37
633.081	10.6
633.27	11.86
633.459	12.89
633.648	10.79
633.837	11.26
634.026	10.98
634.215	12.18
634.404	11.64
634.593	13.6
634.782	14.33
634.971	13.74
635.16	12.41
635.349	11.13
635.538	10.27
635.727	8.85
635.916	7.86
636.105	6.75
636.294	6.94
636.482	4.89
636.671	3.44
636.86	4.66
637.049	5
637.238	5.97
637.426	5.74
637.615	5.37
637.804	4.79
637.993	4.87
638.181	3.88
638.37	5.1
638.559	4.27
638.747	3.57
638.936	4.07
639.125	5.69
639.313	6.44
639.502	6.47
639.691	6.43
639.879	6.51
640.068	6.26
640.256	6.11
640.445	6.95
640.633	9.27
640.822	7.32
641.01	8.39
641.199	6.85
641.387	8.39
641.576	10.72
641.764	13.45
641.953	13.73
642.141	13.35
642.329	14.16
642.518	12.83
642.706	12.93
642.894	12
643.083	10.91
643.271	11.49
643.459	12.11
643.648	12.46
643.836	13.16
644.024	12.99
644.213	13.47
644.401	11.96
644.589	10.69
644.777	12.22
644.965	12.77
645.154	13.32
645.342	10.93
645.53	9.32
645.718	7.71
645.906	7.64
646.094	8.55
646.282	6.72
646.47	8.12
646.658	8.7
646.846	10.48
647.034	10.89
647.223	10.56
647.411	11.3
647.599	11.48
647.786	12.04
647.974	12.01
648.162	11.13
648.35	11.31
648.538	9.94
648.726	10.11
648.914	8.55
649.102	9.1
649.29	11.21
649.478	11.96
649.665	10.72
649.853	10.95
650.041	10.15
650.229	10.99
650.417	10.8
650.604	10.39
650.792	10.75
650.98	10.27
651.168	9.18
651.355	9.02
651.543	8.49
651.731	8.19
651.918	7.96
652.106	8.53
652.294	8.7
652.481	11.05
652.669	9.4
652.856	10.63
653.044	10.63
653.231	9.1
653.419	8.67
653.606	9.64
653.794	9.3
653.981	9.51
654.169	8.98
654.356	7.5
654.544	6.53
654.731	6.24
654.919	6.68
655.106	6.66
655.294	6.86
655.481	8.67
655.668	9.86
655.856	8.4
656.043	8.56
656.23	9.42
656.418	8.79
656.605	10.38
656.792	10.25
656.979	10.24
657.167	11.13
657.354	11.18
657.541	11.37
657.728	10.44
657.916	8.59
658.103	8.84
658.29	9.45
658.477	11.54
658.664	10.53
658.851	10.64
659.038	9.85
659.225	8.69
659.412	9.01
659.6	7.95
659.787	10.49
659.974	10.62
660.161	10.5
660.348	9.87
660.535	11.16
660.722	9.93
660.909	8.33
661.095	8.28
661.282	9.07
661.469	9.92
661.656	10.77
661.843	13.39
662.03	12.16
662.217	12.88
662.404	12.19
662.59	11.78
662.777	11.96
662.964	14.29
663.151	13.67
663.338	13.05
663.524	12.27
663.711	11.78
663.898	12.41
664.085	12.59
664.271	12.75
664.458	10.55
664.645	10.53
664.831	12.33
665.018	10.64
665.204	9.99
665.391	9.28
665.578	8.9
665.764	8.38
665.951	9.7
666.137	8.39
666.324	7.98
666.51	7.09
666.697	6.52
666.883	5.71
667.07	6.4
667.256	6.64
667.443	6.3
667.629	6.53
667.816	5.5
668.002	4.53
668.188	4.86
668.375	5.21
668.561	5.06
668.747	2.51
668.934	4.91
669.12	4.71
669.306	4.2
669.493	3.89
669.679	5.21
669.865	4.9
670.051	5.19
670.238	5.98
670.424	6.95
670.61	7.05
670.796	7.81
670.982	8.02
671.169	7.96
671.355	8.63
671.541	8.13
671.727	7.79
671.913	7.33
672.099	7.11
672.285	7.31
672.471	7.37
672.657	8.41
672.843	8.05
673.029	8.32
673.215	9.58
673.401	11.41
673.587	8.95
673.773	9.73
673.959	10.84
674.145	9.58
674.331	9.65
674.517	10.62
674.703	9.72
674.888	10.43
675.074	9.31
675.26	9.9
675.446	9.18
675.632	9.43
675.817	9.88
676.003	9.87
676.189	9.94
676.375	9.76
676.56	10.54
676.746	9.2
676.932	8.17
677.117	6.18
677.303	5.17
677.489	5.42
677.674	4.39
677.86	3.64
678.046	5.69
678.231	5.01
678.417	4.06
678.602	3.01
678.788	1.47
678.973	2.69
679.159	2.95
679.344	3.93
679.53	2.85
679.715	2.57
679.901	2.14
680.086	1.82
680.272	1.89
680.457	0.92
680.643	0.93
680.828	1.51
681.013	1.88
681.199	2.29
681.384	3.19
681.569	3.66
681.755	3.24
681.94	1.94
682.125	1.91
682.31	3.58
682.496	3.75
682.681	4.18
682.866	3.57
683.051	3.46
683.237	3.59
683.422	6.18
683.607	6.48
683.792	7.77
683.977	7.57
684.162	7.22
684.347	8.88
684.532	8.84
684.717	9.04
684.903	9.51
685.088	9.45
685.273	8.67
685.458	8.18
685.643	9.13
685.828	8.23
686.013	8.65
686.198	7.13
686.382	8.23
686.567	9.23
686.752	9.34
686.937	9.08
687.122	8.99
687.307	7.38
687.492	7.68
687.677	6.84
687.861	8
688.046	7.9
688.231	7.59
688.416	8.59
688.601	7.54
688.785	8.47
688.97	7.97
689.155	8.64
689.339	9.49
689.524	8.01
689.709	8.34
689.893	8.89
690.078	9.35
690.263	9.98
690.447	10.26
690.632	9.1
690.816	9.66
691.001	8.71
691.186	9.17
691.37	9.42
691.555	9.87
691.739	9.26
691.924	9.09
692.108	9.28
692.293	8.29
692.477	10.04
692.661	8.83
692.846	8.92
693.03	8.67
693.215	7.69
693.399	9
693.583	9.4
693.768	8.79
693.952	8.63
694.136	7.12
694.321	6.91
694.505	7.59
694.689	6.24
694.873	7.16
695.058	5.44
695.242	6.43
695.426	6.36
695.61	5.71
695.794	7.44
695.979	5.79
696.163	4.77
696.347	3.5
696.531	3.09
696.715	3.54
696.899	4.19
697.083	2.59
697.267	2.24
697.451	2.14
697.635	2.67
697.819	2.34
698.003	3.83
698.187	3.14
698.371	4.11
698.555	4.95
698.739	6.18
698.923	7.15
699.107	5.95
699.291	5.05
699.475	4.51
699.659	4.49
699.842	6.16
700.026	7.36
700.21	7.87
700.394	8.73
700.578	8.7
700.761	8.16
700.945	10.6
701.129	10.4
701.313	9.15
701.496	9.94
701.68	9.75
701.864	8.69
702.047	9.36
702.231	9.47
702.415	8.94
702.598	6.63
702.782	7.05
702.965	7.7
703.149	8.03
703.333	8.42
703.516	7.08
703.7	6.37
703.883	5.99
704.067	5.62
704.25	4.85
704.434	2.79
704.617	2.93
704.801	3.01
704.984	3.54
705.167	5.42
705.351	4.3
705.534	4.69
705.718	5.6
705.901	3.64
706.084	3.05
706.268	3.35
706.451	5.33
706.634	5.3
706.817	2.95
707.001	3.21
707.184	2.66
707.367	2.38
707.55	2.1
707.734	3.03
707.917	3.58
708.1	3.56
708.283	5.85
708.466	6.06
708.649	4.54
708.832	3.61
709.015	3.18
709.199	3.11
709.382	2.41
709.565	1.54
709.748	3.8
709.931	3.96
710.114	3.83
710.297	3.17
710.48	2.26
710.663	3.75
710.846	3.69
711.028	4.4
711.211	4.38
711.394	5.23
711.577	5.59
711.76	4.6
711.943	5.67
712.126	4.54
712.309	5.61
712.491	6.49
712.674	6.43
712.857	7.78
713.04	7.36
713.222	8.72
713.405	8.86
713.588	8.05
713.771	7.96
713.953	7.41
714.136	7.19
714.319	8.6
714.501	8.57
714.684	8.2
714.866	9.25
715.049	10.23
715.232	9.37
715.414	7.28
715.597	9.03
715.779	7.45
715.962	9.03
716.144	7.66
716.327	9.17
716.509	9.62
716.692	8.23
716.874	8.46
717.057	7.67
717.239	8.6
717.421	8.67
717.604	7.71
717.786	8.93
717.968	7.72
718.151	6.23
718.333	6.42
718.515	6.56
718.698	6.57
718.88	7.25
719.062	6.98
719.244	8.79
719.427	6.57
719.609	7.72
719.791	6.69
719.973	5.54
720.155	3.01
720.338	2.51
720.52	2.89
720.702	3.43
720.884	3.84
721.066	3.47
721.248	0.21
721.43	0.96
721.612	-0.31
721.794	1.76
721.976	3.55
722.158	3.85
722.34	3.69
722.522	2.28
722.704	0.53
722.886	0.69
723.068	0.25
723.25	1.48
723.432	0.85
723.614	2.65
723.796	3.44
723.977	3.62
724.159	4.27
724.341	3.93
724.523	1.79
724.705	0.56
724.886	-0.19
725.068	4.17
725.25	4.92
725.432	5.58
725.613	4.66
725.795	4.32
725.977	4.28
726.158	5.16
726.34	5.33
726.522	5.44
726.703	5.47
726.885	6.99
727.066	5.35
727.248	5.89
727.43	3.83
727.611	4.75
727.793	5.23
727.974	5.85
728.156	4.76
728.337	6.07
728.519	7.13
728.7	7.82
728.882	5.27
729.063	5.23
729.244	5.05
729.426	4.7
729.607	4.23
729.788	3.4
729.97	3.47
730.151	3.07
730.332	3.7
730.514	5.44
730.695	5.62
730.876	5.72
731.058	5.36
731.239	5.01
731.42	3.69
731.601	3.02
731.782	1.91
731.964	2.83
732.145	2.99
732.326	0.14
732.507	-0.23
732.688	2.38
732.869	3.57
733.05	3.8
733.231	4.83
733.412	3.68
733.593	5.09
733.774	4.66
733.955	5.15
734.136	5.36
734.317	3.3
734.498	1.6
734.679	3.31
734.86	2.93
735.041	3.81
735.222	5.66
735.403	7.05
735.584	7.66
735.765	8.73
735.946	9.08
736.126	10.25
736.307	10.91
736.488	10.52
736.669	7.47
736.849	6.48
737.03	6.95
737.211	8.44
737.392	8.24
737.572	6.22
737.753	6.31
737.934	5.88
738.114	7.79
738.295	8.1
738.476	7.92
738.656	9.17
738.837	9.78
739.017	11.06
739.198	10.21
739.378	10.76
739.559	10.54
739.74	10.53
739.92	10.48
740.1	9.45
740.281	6.66
740.461	7.49
740.642	9.53
740.822	8.3
741.003	7.86
741.183	7.26
741.363	10.04
741.544	10.46
741.724	10.15
741.904	8.67
742.085	8.24
742.265	8.08
742.445	7.99
742.626	7.77
742.806	6.51
742.986	6.77
743.166	5.65
743.347	3.62
743.527	4.85
743.707	4.86
743.887	5.46
744.067	4.99
744.247	5.68
744.427	5.15
744.608	3.84
744.788	4.8
744.968	5.8
745.148	4.05
745.328	3.71
745.508	2.32
745.688	2
745.868	2.13
746.048	0.19
746.228	-0.55
746.408	-1.32
746.588	-1.64
746.767	-0.97
746.947	-0.37
747.127	0.91
747.307	-1.82
747.487	-0.48
747.667	-1.48
747.847	1.05
748.026	-0.11
748.206	-0.42
748.386	1.06
748.566	1.11
748.745	0.65
748.925	1.65
749.105	1.83
749.285	3.18
749.464	4.42
749.644	3.77
749.824	5.79
750.003	5.1
750.183	4.2
750.362	3.36
750.542	2.17
750.722	1.23
750.901	0.48
751.081	1.52
751.26	0.6
751.44	0.68
751.619	0.72
751.799	1.22
751.978	-1.03
752.158	-1.79
752.337	-3.4
752.516	-3.22
752.696	-3.47
752.875	-3.3
753.055	-2.55
753.234	-3.07
753.413	-1.65
753.593	-0.81
753.772	-0.32
753.951	1.19
754.13	1.92
754.31	1.2
754.489	1.27
754.668	2.39
754.847	3.29
755.027	4.91
755.206	6.11
755.385	5.6
755.564	7.76
755.743	9.74
755.922	9.67
756.101	9.77
756.28	9.1
756.46	8.63
756.639	7
756.818	7.15
756.997	7.24
757.176	7.01
757.355	5.12
757.534	5.19
757.713	5.14
757.892	4.5
758.07	6.25
758.249	7.5
758.428	6.88
758.607	5.47
758.786	5.67
758.965	5.54
759.144	6.41
759.323	4.28
759.501	3.35
759.68	4.77
759.859	6.31
760.038	5.62
760.216	5.37
760.395	7.02
760.574	6.35
760.753	6.47
760.931	6.48
761.11	7.41
761.289	6.83
761.467	5.35
761.646	5.36
761.824	3.89
762.003	1.61
762.182	0.31
762.36	0.33
762.539	-0.08
762.717	-0.17
762.896	-0.9
763.074	-1.14
763.253	-1
763.431	-0.28
763.61	-1.65
763.788	-1.5
763.966	-0.8
764.145	-0.35
764.323	-0.14
764.502	0.06
764.68	-0.19
764.858	-0.59
765.037	0.35
765.215	0.99
765.393	1.67
765.571	3.5
765.75	4.17
765.928	4.62
766.106	5.53
766.284	5.73
766.463	5.19
766.641	5.59
766.819	6.64
766.997	7.14
767.175	6.43
767.353	6.42
767.531	7.89
767.71	7.99
767.888	6.47
768.066	5.35
768.244	5.18
768.422	5.53
768.6	7.7
768.778	7.15
768.956	6.7
769.134	6.45
769.312	6.73
769.489	6.41
769.667	7.78
769.845	7.79
770.023	7.33
770.201	7.01
770.379	6.45
770.557	6.46
770.735	6.35
770.912	5.08
771.09	5.1
771.268	4.39
771.446	3.07
771.623	3.53
771.801	5.16
771.979	3.98
772.157	3.32
772.334	0.43
772.512	2.99
772.69	3.93
772.867	3.36
773.045	2.55
773.222	3.43
773.4	3.73
773.577	3.73
773.755	4.18
773.933	5.42
774.11	4.64
774.288	4.29
774.465	4.94
774.643	4.98
774.82	7.02
774.997	8.02
775.175	7.93
775.352	9.05
775.53	9.42
775.707	10.39
775.884	10.84
776.062	12.43
776.239	11.42
776.416	11.95
776.594	11.3
776.771	11.88
776.948	11.65
777.125	10.97
777.303	10
777.48	8.52
777.657	8.4
777.834	10.09
778.012	9.99
778.189	9.99
778.366	10.06
778.543	5.19
778.72	4.6
778.897	7.73
779.074	6.41
779.251	8.24
779.428	6.96
779.605	5.86
779.782	5.2
779.959	4.05
780.136	3.95
780.313	5.13
780.49	3.89
780.667	4.72
780.844	4.21
781.021	5.47
781.198	5.15
781.375	6
781.552	5.19
781.728	3.96
781.905	4.37
782.082	4.25
782.259	6.87
782.436	5.98
782.612	3.39
782.789	4.68
782.966	1.29
783.143	2.55
783.319	3.54
783.496	4.82
783.673	4.73
783.849	5.23
784.026	4.38
784.203	4.24
784.379	3.12
784.556	5.46
784.732	4.29
784.909	5.66
785.085	5.06
785.262	3.98
785.438	7.22
785.615	6.35
785.791	8.5
785.968	7.38
786.144	7.18
786.321	10.05
786.497	9.04
786.673	8.44
786.85	6.96
787.026	6.6
787.203	5.22
787.379	4.99
787.555	1.95
787.731	1.52
787.908	0.81
788.084	2.66
788.26	2.82
788.437	5.01
788.613	2.72
788.789	-0.26
788.965	2.05
789.141	-1.09
789.317	-0.77
789.494	-3.28
789.67	-1.51
789.846	0.07
790.022	-4.28
790.198	-4.82
790.374	-4.24
790.55	-5.42
790.726	-6.06
790.902	-6.54
791.078	-4.18
791.254	-3.02
791.43	-1.66
791.606	-0.97
791.782	-2.27
791.958	-5.41
792.134	-5.24
792.31	-1.16
792.486	0.37
792.661	-1.74
792.837	1.25
793.013	1.51
793.189	2.05
793.365	1.5
793.54	1.76
793.716	4.29
793.892	5.18
794.068	5.13
794.243	9.35
794.419	8.99
794.595	8.33
794.77	6.56
794.946	9.39
795.122	10.05
795.297	11.7
795.473	13.24
795.648	14.85
795.824	11.45
796	10.64
796.175	12.02
796.351	13.6
796.526	13.81
796.702	13.18
796.877	12.31
797.052	12.12
797.228	10.3
797.403	8.43
797.579	8.29
797.754	9.9
797.929	9.26
798.105	11.7
798.28	11.07
798.455	11.62
798.631	8.57
798.806	8.01
798.981	8.56
799.157	7.29
799.332	5.71
799.507	9.89
799.682	9.08
799.858	8.81
800.033	9.87
800.208	8.44
800.383	9.43
800.558	11.81
800.733	11.58
800.908	12.29
801.083	14.77
801.258	14.1
801.434	14.65
801.609	12.93
801.784	13.54
801.959	15.09
802.134	14.89
802.309	14.11
802.484	11.98
802.658	10.17
802.833	11.05
803.008	12.92
803.183	11.25
803.358	12.32
803.533	12.32
803.708	9.18
803.883	7.54
804.057	3.71
804.232	3.88
804.407	5.59
804.582	6.49
804.756	5.2
804.931	6.14
805.106	4.83
805.281	5.28
805.455	2.55
805.63	2.83
805.805	2.03
805.979	6.08
806.154	6.34
806.328	7.18
806.503	6.56
806.678	5.89
806.852	8.64
807.027	8.17
807.201	5.16
807.376	6.75
807.55	7.95
807.725	9.77
807.899	8.85
808.074	8.41
808.248	7.67
808.422	7.13
808.597	5.94
808.771	5.51
808.946	10.46
809.12	13.36
809.294	11.87
809.468	12.36
809.643	8.87
809.817	10.47
809.991	9.23
810.166	9.97
810.34	9.58
810.514	7.44
810.688	6.53
810.862	8.6
811.037	7.75
811.211	9.1
811.385	9.17
811.559	10.94
811.733	12.24
811.907	10.5
812.081	9.49
812.255	8.01
812.429	7.37
812.603	4.21
812.777	4.1
812.951	3.94
813.125	4.7
813.299	7.51
813.473	5.28
813.647	8.01
813.821	6.86
813.995	5.29
814.169	3.99
814.343	5.23
814.516	7.11
814.69	10.39
814.864	10.27
815.038	10.37
815.212	9.11
815.385	6.77
815.559	10.51
815.733	13.57
815.907	14.77
816.08	17.76
816.254	14.18
816.428	13.47
816.601	16.64
816.775	17.37
816.948	14.6
817.122	17.4
817.296	13.97
817.469	14.77
817.643	16.79
817.816	17.69
817.99	18.26
818.163	16.46
818.337	12.84
818.51	11.7
818.684	13.22
818.857	13.75
819.031	15.58
819.204	10.31
819.377	9.02
819.551	8
819.724	4.51
819.897	10.54
820.071	11.34
820.244	6.18
820.417	3.78
820.591	5.98
820.764	9.14
820.937	15.85
821.11	12.99
821.284	16.28
821.457	17.96
821.63	18.78
821.803	19.8
821.976	24.38
822.149	26.56
822.322	27.76
822.496	27.1
822.669	28.86
822.842	33.95
823.015	33.08
823.188	32.13
823.361	37.6
823.534	31.45
823.707	25.73
823.88	27.37
824.053	28.25
824.226	30.09
824.399	29.04
824.571	24.9
824.744	27.31
824.917	25.03
825.09	21.9
825.263	19.92
825.436	22.24
825.608	18.95
825.781	16.02
825.954	15.18
826.127	13.98
826.299	13.02
826.472	9.19
826.645	11.16
826.818	17.04
826.99	11.78
827.163	16
827.336	20.36
827.508	20.23
827.681	19.94
827.853	17.55
828.026	12.85
828.198	11.89
828.371	15.02
828.544	14.35
828.716	14.72
828.889	11.13
829.061	8.44
829.233	8.65
829.406	9.3
829.578	8.34
829.751	11.38
829.923	9.24
830.096	10.63
830.268	9.98
830.44	2.11
830.613	5.64
830.785	5.13
830.957	2.46
831.129	5.06
831.302	8
831.474	7.04
831.646	12.28
831.818	15.37
831.991	11.28
832.163	13.12
832.335	14.73
832.507	18.93
832.679	17.01
832.851	17.45
833.023	17.74
833.195	18.53
833.368	15.06
833.54	17.52
833.712	15.44
833.884	17.25
834.056	22.22
834.228	18.34
834.4	23.74
834.571	27.46
834.743	22.15
834.915	19.16
835.087	22.05
835.259	21.92
835.431	19.16
835.603	20.94
835.775	17.86
835.946	17.26
836.118	16.23
836.29	18.08
836.462	17.77
836.634	16.97
836.805	14.86
836.977	16.48
837.149	12.54
837.32	13.85
837.492	14.27
837.664	12.16
837.835	16
838.007	7.05
838.179	3.93
838.35	12.13
838.522	10.07
838.693	9.96
838.865	5.93
839.036	-0.73
839.208	2.46
839.379	1.82
839.551	1.68
839.722	3.14
839.894	1.83
840.065	0.46
840.237	1.44
840.408	0.63
840.579	4.24
840.751	4.5
840.922	6.72
841.093	2.31
841.265	5.16
841.436	9.91
841.607	13.04
841.778	13.23
841.95	12.34
842.121	17.1
842.292	17.83
842.463	20.92
842.635	26.78
842.806	25.38
842.977	30.94
843.148	30.39
843.319	34.4
843.49	36.35
843.661	37.17
843.832	36.07
844.003	39.71
844.174	42.92
844.345	45.58
844.516	40.94
844.687	42.57
844.858	42.79
845.029	34.31
845.2	32.44
845.371	31.63
845.542	27.17
845.713	22.1
845.884	17.26
846.055	6.45
846.225	8.75
846.396	4.29
846.567	5.58
846.738	5.69
846.909	-1.21
847.079	-1.17
847.25	4.2
847.421	-0.04
847.591	-6.58
847.762	-14.97
847.933	-20.43
848.103	-13.83
848.274	-15.72
848.445	-19.12
848.615	-15.54
848.786	-9.23
848.956	-1
849.127	-0.6
849.297	6.48
849.468	11.67
849.638	20.31
849.809	18.83
849.979	20.8
850.15	18.73
850.32	26.59
850.491	35.64
850.661	36.74
850.831	36.29
851.002	42.27
851.172	45.28
851.342	46.6
851.513	46.48
851.683	46.6
851.853	49.51
852.024	47.65
852.194	46.42
852.364	41.27
852.534	40.36
852.705	45.74
852.875	47.86
853.045	48.55
853.215	49.31
853.385	54.7
853.555	60.54
853.725	59.68
853.895	50.49
854.066	41.59
854.236	38.73
854.406	37.59
854.576	35.27
854.746	33.52
854.916	37.05
855.086	34.5
855.256	37.82
855.425	33.12
855.595	37.66
855.765	32.72
855.935	33.22
856.105	27.24
856.275	29.58
856.445	18.62
856.614	15.82
856.784	13.7
856.954	9.99
857.124	3.37
857.294	-1
857.463	2.02
857.633	8.84
857.803	11.6
857.972	15.51
858.142	18.83
858.312	26.54
858.481	26.09
858.651	24.9
858.821	19.55
858.99	24.4
859.16	20.57
859.329	26
859.499	26.3
859.668	29.95
859.838	24.97
860.007	36.21
860.177	38.04
860.346	44.83
860.516	43.13
860.685	45.02
860.854	49.8
861.024	46.32
861.193	44.1
861.363	39.06
861.532	32.73
861.701	28.86
861.87	25.9
862.04	26.39
862.209	28.41
862.378	33.5
862.547	30.29
862.717	30
862.886	33
863.055	31.26
863.224	28.76
863.393	27.71
863.563	23.25
863.732	25.3
863.901	22.12
864.07	25.13
864.239	29.06
864.408	23.54
864.577	30.11
864.746	32.23
864.915	36.67
865.084	43.74
865.253	41.78
865.422	39.88
865.591	40.22
865.76	37.18
865.929	35.23
866.097	35.19
866.266	31.12
866.435	21.58
866.604	19.18
866.773	13.09
866.942	9.91
867.11	9.45
867.279	2.08
867.448	9.71
867.617	5.14
867.785	1.09
867.954	-2.24
868.123	-1.84
868.291	-3.71
868.46	-9.19
868.629	-9.05
868.797	-9.69
868.966	-15.7
869.134	-5.68
869.303	5.88
869.472	7.35
869.64	2.89
869.809	15.12
869.977	29.81
870.146	31.86
870.314	51.59
870.482	47.62
870.651	40.5
870.819	45.92
870.988	36.05
871.156	34.71
871.324	28.8
871.493	26.97
871.661	27.24
871.829	31.36
871.998	29.12
872.166	22.14
872.334	34.03
872.502	34.46
872.671	28.89
872.839	34.02
873.007	27.33
873.175	36.78
873.343	25.25
873.512	11.07
873.68	13.18
873.848	-0.22
874.016	4.85
874.184	13.95
874.352	17.55
874.52	27.99
874.688	28.85
874.856	33.39
875.024	32.14
875.192	25.1
875.36	22.3
875.528	31.21
875.696	43.06
875.864	48.64
876.032	53.29
876.199	52
876.367	56.14
876.535	66.41
876.703	52.15
876.871	61.62
877.039	69.86
877.206	76.18
877.374	79.42
877.542	85.46
877.71	79.21
877.877	80.86
878.045	78.82
878.213	77.53
878.38	80.9
878.548	86.84
878.715	88.62
878.883	92.48
879.051	101.64
879.218	77.59
879.386	69.56
879.553	67.16
879.721	66.91
879.888	69.21
880.056	72.5
880.223	78.27
880.391	75.38
880.558	73.7
880.726	79.22
880.893	73.41
881.06	68.25
881.228	67.58
881.395	60.15
881.562	66.31
881.73	61.03
881.897	71.26
882.064	67.89
882.231	59.17
882.399	38.76
882.566	28.28
882.733	41.75
882.9	35.12
883.068	43.61
883.235	38.45
883.402	32.38
883.569	30.07
883.736	53.9
883.903	55.78
884.07	56.33
884.237	37.8
884.404	44.75
884.571	41.31
884.738	45.56
884.905	44.14
885.072	32.08
885.239	53.99
885.406	42.33
