Data from Transmission_09-42-45-625.txt Node
Date: Fri Aug 24 09:42:45 EEST 2018
User: tibor.sos
Spectrometer: USB4F01757
Scans to average: 10
Trigger mode: 4
Integration Time (sec): 1.000000E-2
Electric dark correction enabled: true
Boxcar width: 10
XAxis mode: Wavelengths
Number of Pixels in Spectrum: 3648
>>>>>Begin Spectral Data<<<<<
178.758	-80.33
178.974	-293.13
179.191	-338.23
179.407	-80.86
179.624	-59.55
179.84	-57.89
180.057	-92.84
180.273	-56.22
180.489	-23.39
180.706	-123.15
180.922	-96.75
181.138	-51.14
181.355	-21.95
181.571	-0.55
181.787	28.9
182.004	77.23
182.22	103.61
182.436	85.06
182.653	65.34
182.869	62.07
183.085	60.03
183.301	78.05
183.518	84.23
183.734	88.51
183.95	83
184.166	80.63
184.383	89.91
184.599	97.5
184.815	58.71
185.031	34.2
185.247	53.84
185.463	73.7
185.68	47.51
185.896	64.32
186.112	81.59
186.328	98.48
186.544	86.15
186.76	107.35
186.976	99.85
187.192	90.52
187.408	85.84
187.624	109.2
187.84	117.81
188.056	83.29
188.272	82.34
188.488	98.94
188.704	102.4
188.92	111.8
189.136	88.98
189.352	115.65
189.568	148.86
189.784	157.6
190	156.7
190.216	190.61
190.432	189.64
190.648	209.32
190.864	339.17
191.08	305.86
191.296	150.68
191.511	149.96
191.727	223.13
191.943	263.18
192.159	170.84
192.375	152.35
192.591	210.07
192.806	313.78
193.022	146.96
193.238	240.45
193.454	145.07
193.669	280.42
193.885	182.2
194.101	225.47
194.317	172.5
194.532	261.8
194.748	147.06
194.964	150.99
195.18	74.4
195.395	39.02
195.611	23
195.827	7.27
196.042	71.08
196.258	108.78
196.473	74.74
196.689	0.18
196.905	43.53
197.12	-169.31
197.336	-144.84
197.551	178.43
197.767	2500
197.982	106.78
198.198	976.71
198.414	1407.87
198.629	297.69
198.845	139.93
199.06	93.07
199.276	94.22
199.491	95.68
199.707	53.71
199.922	71.41
200.137	103.27
200.353	106.66
200.568	96.99
200.784	89.2
200.999	90.94
201.215	124.85
201.43	116.39
201.645	145.07
201.861	158.31
202.076	139.22
202.291	170.14
202.507	149.28
202.722	101.6
202.937	160.04
203.153	102.74
203.368	75.37
203.583	109.52
203.798	105.62
204.014	127.69
204.229	153.59
204.444	198.4
204.659	220.43
204.875	382.87
205.09	-236.13
205.305	409.43
205.52	64.23
205.735	-338.32
205.951	1892
206.166	23.04
206.381	73.63
206.596	63.64
206.811	427.49
207.026	107.38
207.241	90.04
207.457	22.74
207.672	162.81
207.887	-602.8
208.102	115.87
208.317	79.39
208.532	-329.38
208.747	565.57
208.962	563.32
209.177	-772.48
209.392	-410.9
209.607	-22.18
209.822	-2
210.037	27.56
210.252	-2.48
210.467	-31.74
210.682	53.91
210.897	62.84
211.112	37.32
211.326	81.53
211.541	122.14
211.756	63.3
211.971	66.13
212.186	31.15
212.401	8.4
212.616	24.26
212.831	23.55
213.045	5.4
213.26	11.31
213.475	39.82
213.69	63.79
213.905	62.82
214.119	-185.97
214.334	3981.48
214.549	566.4
214.764	-637.82
214.978	-276.79
215.193	-303.16
215.408	2561.54
215.622	-401.13
215.837	-3028.89
216.052	2058.62
216.266	501.01
216.481	492.53
216.696	270.87
216.91	-2978.79
217.125	-158.97
217.34	-270.98
217.554	-47.03
217.769	-43.85
217.983	21.97
218.198	-35.76
218.412	-4.18
218.627	229.18
218.842	151.19
219.056	86.36
219.271	86.04
219.485	62.76
219.7	4.9
219.914	71.23
220.129	87.17
220.343	65.83
220.558	6.33
220.772	46.22
220.986	47.81
221.201	0.19
221.415	114.58
221.63	115.09
221.844	86.57
222.058	110.2
222.273	121.39
222.487	122.24
222.702	243.81
222.916	250.2
223.13	197.09
223.344	153.99
223.559	132.31
223.773	132.33
223.987	148.84
224.202	149.43
224.416	229.14
224.63	149.37
224.844	126.55
225.059	84.3
225.273	552.53
225.487	-412
225.701	13.04
225.915	24.01
226.13	81.62
226.344	67.83
226.558	57.62
226.772	54.48
226.986	53.18
227.2	44.16
227.415	59.82
227.629	95.21
227.843	63.32
228.057	77.93
228.271	73.11
228.485	75.13
228.699	59.86
228.913	59.85
229.127	62
229.341	45.35
229.555	50.66
229.769	40.07
229.983	25.26
230.197	33.05
230.411	23.93
230.625	-172.86
230.839	-124.27
231.053	-224.67
231.267	-355.03
231.481	-482.16
231.695	18.32
231.909	65.55
232.122	8.25
232.336	3.26
232.55	-11.08
232.764	-23.69
232.978	1.68
233.192	29.62
233.405	-140.73
233.619	-107.13
233.833	-61.7
234.047	-71.21
234.261	-196.53
234.474	-112.87
234.688	459.07
234.902	352.7
235.116	174.07
235.329	180.1
235.543	260.65
235.757	240.19
235.97	125.6
236.184	164.32
236.398	139.22
236.612	143.95
236.825	173.61
237.039	279.09
237.252	299.37
237.466	1073.16
237.68	4167.8
237.893	-231500
238.107	-650.99
238.32	1014.78
238.534	-345.08
238.748	-160.53
238.961	-88.52
239.175	-147.18
239.388	-190.6
239.602	-342.23
239.815	-25.26
240.029	-58.99
240.242	-2.76
240.456	-13.22
240.669	-8.09
240.882	-9.3
241.096	-25.65
241.309	-0.36
241.523	44.78
241.736	77.12
241.95	86.59
242.163	187.22
242.376	110.6
242.59	-162.4
242.803	-300
243.016	107.25
243.23	-31.09
243.443	2740
243.656	-164.66
243.87	-52.38
244.083	-40.3
244.296	-65.22
244.509	-34.59
244.723	-62.35
244.936	-88.05
245.149	-153.25
245.362	-165.83
245.576	-85.43
245.789	-120.82
246.002	-74.91
246.215	-101.3
246.428	-76.18
246.641	-99.89
246.855	-159.61
247.068	-147.09
247.281	-199.49
247.494	-81
247.707	-112.35
247.92	-115.8
248.133	-83.95
248.346	-68.26
248.559	-28.61
248.772	-58.37
248.985	-36.51
249.198	-7.44
249.411	-4.06
249.624	-0.91
249.837	20.23
250.05	20.99
250.263	22.78
250.476	4.05
250.689	7.82
250.902	17.6
251.115	18.15
251.328	21.37
251.541	23.19
251.754	30.11
251.967	28.06
252.18	22.44
252.393	19.97
252.605	27.27
252.818	20.86
253.031	12.78
253.244	13.64
253.457	4.13
253.67	-4.97
253.882	-2.65
254.095	12.65
254.308	5.85
254.521	5.97
254.733	4.08
254.946	14.6
255.159	12.63
255.372	6.95
255.584	6.8
255.797	9.52
256.01	-6.09
256.222	-1.14
256.435	-1.47
256.648	8.73
256.86	3.6
257.073	0.38
257.285	-15.11
257.498	-22.26
257.711	-17.65
257.923	-13.57
258.136	-3.33
258.348	-1.35
258.561	-12.65
258.773	-27.41
258.986	-58.51
259.198	-65.49
259.411	-125.3
259.623	-76.8
259.836	-69.62
260.048	-45.07
260.261	-18.21
260.473	-8.65
260.686	-18.89
260.898	-25.28
261.111	-35.12
261.323	-12.6
261.535	-14.43
261.748	-0.8
261.96	1.86
262.173	7.89
262.385	13.31
262.597	6.59
262.81	4.96
263.022	-2.69
263.234	11.08
263.447	14.17
263.659	22.59
263.871	29.23
264.083	22.33
264.296	21.21
264.508	14.71
264.72	2.48
264.932	5.67
265.145	-4.91
265.357	-6.98
265.569	-14.17
265.781	-22.57
265.993	-29.04
266.205	-29.95
266.418	-30.91
266.63	-53.83
266.842	-44.33
267.054	-14.83
267.266	-6.19
267.478	6.81
267.69	-5.75
267.902	5.13
268.114	-7.3
268.326	-5.95
268.538	-11.31
268.75	-1.67
268.962	-13.3
269.174	4.54
269.386	13.27
269.598	28.48
269.81	28.93
270.022	27.02
270.234	27.32
270.446	23.91
270.658	16.8
270.87	23.17
271.082	26
271.294	25.52
271.506	19.92
271.718	17.65
271.929	19.79
272.141	20.58
272.353	19.96
272.565	21.75
272.777	21.79
272.989	26.54
273.2	27.68
273.412	32.22
273.624	32.23
273.836	28.2
274.047	27.53
274.259	29.5
274.471	36.39
274.683	30
274.894	35.45
275.106	36.44
275.318	28.98
275.529	19.57
275.741	14.72
275.953	18.16
276.164	21.01
276.376	20.09
276.588	19.82
276.799	20.27
277.011	17.49
277.222	10.06
277.434	-4.15
277.646	-18.86
277.857	-23.9
278.069	-34.11
278.28	-35.29
278.492	-45.1
278.703	-39.26
278.915	-35.42
279.126	-38.76
279.338	-35.61
279.549	-23.89
279.761	-14.01
279.972	-5.12
280.183	-8.24
280.395	-7.71
280.606	-12.52
280.818	-15.22
281.029	-16
281.24	-15.31
281.452	-21.19
281.663	-17.56
281.875	-6.5
282.086	-4.27
282.297	-5.09
282.508	-3.11
282.72	5.26
282.931	14
283.142	3.46
283.354	-7.29
283.565	-6.26
283.776	-12.1
283.987	-37.25
284.199	-28.1
284.41	-19.6
284.621	-7.57
284.832	-6.22
285.043	-6.34
285.254	-23.37
285.466	-27.38
285.677	-14.9
285.888	-17.71
286.099	-17.47
286.31	-21.26
286.521	-22.32
286.732	-21.29
286.943	-8.13
287.154	-13.25
287.366	-22.87
287.577	-17.88
287.788	-13.27
287.999	-12.67
288.21	-20.63
288.421	-9.41
288.632	-13.2
288.843	-8.83
289.054	-14.83
289.264	-25.93
289.475	-22.4
289.686	-7.76
289.897	-7.14
290.108	-10.57
290.319	-11.85
290.53	-12.77
290.741	-15.65
290.952	-13.08
291.163	-11.56
291.373	-20.76
291.584	-15.13
291.795	-14.06
292.006	-9.94
292.217	-9.78
292.427	-8.34
292.638	-6.46
292.849	-5.98
293.06	-3.79
293.27	-15.17
293.481	-13.12
293.692	-5.65
293.903	-8.79
294.113	-8.52
294.324	-10.47
294.535	-16.56
294.745	-12.44
294.956	-6.7
295.167	-9.31
295.377	-12.01
295.588	-8.78
295.798	-6.52
296.009	-15.17
296.22	-17.28
296.43	-20.9
296.641	-24.97
296.851	-26.01
297.062	-27.99
297.272	-26.45
297.483	-35.57
297.693	-30.78
297.904	-29.44
298.114	-20.27
298.325	-11.6
298.535	-18.43
298.746	-15.1
298.956	-7.77
299.167	-12.41
299.377	-17.74
299.587	-8.64
299.798	-10.41
300.008	-18.65
300.219	-14.67
300.429	-7.45
300.639	-4.36
300.85	-2.91
301.06	-2.28
301.27	5.04
301.481	6.36
301.691	1.4
301.901	11.33
302.111	11.3
302.322	7.46
302.532	-0.99
302.742	-8.14
302.952	-7.28
303.163	-9.17
303.373	-23
303.583	-14.25
303.793	-17.16
304.003	-19.36
304.214	-14.67
304.424	-13.95
304.634	-19.89
304.844	-16.53
305.054	-15.36
305.264	-16.05
305.474	-10.78
305.684	-16.21
305.894	-5.85
306.104	-4.13
306.314	-15
306.525	-18.46
306.735	-17.48
306.945	-20.67
307.155	-15.53
307.365	-10.63
307.575	-12.23
307.784	-3.02
307.994	-1.24
308.204	3.78
308.414	7.39
308.624	8.07
308.834	15.47
309.044	20.64
309.254	21.43
309.464	23.73
309.674	23.02
309.884	16.32
310.093	19.41
310.303	14.33
310.513	18.56
310.723	22.03
310.933	26.75
311.142	25
311.352	26.72
311.562	31.8
311.772	29.9
311.981	28.39
312.191	24.18
312.401	25.42
312.611	26.14
312.82	21.15
313.03	22.35
313.24	20.2
313.449	20.07
313.659	15.15
313.869	5.87
314.078	5.96
314.288	7.81
314.497	4.06
314.707	7.22
314.917	1.85
315.126	10.12
315.336	4.51
315.545	1.07
315.755	1.36
315.964	-1.86
316.174	-0.9
316.383	4.1
316.593	6.14
316.802	0.58
317.012	0.13
317.221	8.03
317.431	4.65
317.64	5.11
317.849	-1.06
318.059	-3.89
318.268	8.24
318.478	11.13
318.687	12.63
318.896	13.19
319.106	4.66
319.315	4.33
319.524	-7.19
319.734	-6.92
319.943	-2.24
320.152	2.2
320.362	-5.27
320.571	-9.85
320.78	-18.14
320.989	-12.79
321.199	-8.34
321.408	-7.63
321.617	-13.81
321.826	-11.67
322.035	-16.13
322.245	-9.44
322.454	-5.22
322.663	-7.14
322.872	-14.13
323.081	-19.04
323.29	-25.71
323.5	-17.98
323.709	-16.64
323.918	-13.54
324.127	-14.62
324.336	-20.82
324.545	-23.97
324.754	-20.74
324.963	-17.31
325.172	-7.11
325.381	-6.54
325.59	-6.62
325.799	-12.49
326.008	-13.43
326.217	-15.15
326.426	-6.18
326.635	-13.38
326.844	-9.86
327.053	-9.06
327.262	-2.35
327.47	4.79
327.679	8.26
327.888	3.49
328.097	4.41
328.306	7.04
328.515	11.86
328.724	15.91
328.932	11.42
329.141	18.01
329.35	12.18
329.559	9.83
329.768	9.75
329.976	9.13
330.185	11.77
330.394	9.86
330.602	13.08
330.811	6.21
331.02	5.17
331.229	1.99
331.437	6.87
331.646	7.25
331.855	7.85
332.063	8.36
332.272	8.06
332.48	3.08
332.689	-0.56
332.898	-9.58
333.106	-7.74
333.315	-4.07
333.523	-1.57
333.732	1.49
333.94	2.07
334.149	-4.05
334.357	-5.68
334.566	-3.78
334.774	0.41
334.983	-2.05
335.191	-7.43
335.4	-4.82
335.608	-6.68
335.817	-18.23
336.025	-17.05
336.234	-19.99
336.442	-17.05
336.65	-7.33
336.859	6.49
337.067	2.56
337.275	12.25
337.484	7.6
337.692	14.79
337.9	11.49
338.109	16.39
338.317	17.73
338.525	19.42
338.734	17.19
338.942	15.37
339.15	12.18
339.358	2.02
339.567	14.33
339.775	15.2
339.983	0.39
340.191	-14.27
340.399	-15.36
340.608	-6.54
340.816	-10.91
341.024	-6.66
341.232	-22.18
341.44	-15.99
341.648	-13
341.856	-8.14
342.064	-17.21
342.272	-24.54
342.481	-21.58
342.689	-19.77
342.897	-18.74
343.105	-19.8
343.313	-5.58
343.521	2.09
343.729	2.55
343.937	-4.72
344.145	-9.04
344.353	6.47
344.56	8.71
344.768	5.03
344.976	-0.95
345.184	-5.43
345.392	-8.79
345.6	-2.02
345.808	-0.45
346.016	-4.12
346.224	-2.77
346.431	1.92
346.639	2.23
346.847	1.31
347.055	-2.32
347.263	-5.38
347.471	-2.18
347.678	-25.17
347.886	-40.84
348.094	-31.45
348.302	-20.23
348.509	-20.96
348.717	-21.34
348.925	-10.52
349.132	-8.6
349.34	-9.65
349.548	3.94
349.755	7.47
349.963	1.47
350.171	-3.48
350.378	-1.08
350.586	-6.98
350.793	-3.66
351.001	1.94
351.209	-5.51
351.416	-5.34
351.624	-6.35
351.831	-12.82
352.039	-4.95
352.246	-5.34
352.454	-13.21
352.661	-17.94
352.869	-13.06
353.076	-21.61
353.284	-18.94
353.491	-14.05
353.699	-15.08
353.906	-14.51
354.113	-19.74
354.321	-14.06
354.528	-10.74
354.736	-13.14
354.943	-6.58
355.15	-9.67
355.358	-15.24
355.565	-17.89
355.772	-18.43
355.98	-15.83
356.187	-8.56
356.394	-13.01
356.601	-10.96
356.809	0.06
357.016	7.74
357.223	12.79
357.43	12.09
357.638	7.78
357.845	11.06
358.052	7.01
358.259	4.33
358.466	9.48
358.673	6.42
358.881	6.08
359.088	7.05
359.295	0.52
359.502	-1.02
359.709	1.12
359.916	12.38
360.123	14.31
360.33	6.64
360.537	6.01
360.744	8.73
360.951	8.6
361.158	3.85
361.365	4.71
361.572	5.73
361.779	12.27
361.986	13.11
362.193	3.54
362.4	5.01
362.607	-4.56
362.814	-7.6
363.021	-5.15
363.228	-8.05
363.435	-10.05
363.641	-1.75
363.848	-4.89
364.055	-2.24
364.262	-2.36
364.469	-1.02
364.676	12.06
364.882	10.17
365.089	8.43
365.296	12.44
365.503	11.88
365.709	1.15
365.916	-3.08
366.123	0.01
366.33	0.27
366.536	5.27
366.743	8.56
366.95	6.27
367.156	7.43
367.363	1.36
367.57	-0.86
367.776	-1.83
367.983	-0.21
368.19	3.46
368.396	0.48
368.603	-3.04
368.809	7.71
369.016	2.41
369.222	1.2
369.429	5.12
369.635	1.96
369.842	-0.26
370.048	11.06
370.255	12.82
370.461	11.07
370.668	13.04
370.874	8.87
371.081	15.78
371.287	28.35
371.494	26.54
371.7	33.6
371.906	33.45
372.113	35.19
372.319	30.3
372.526	35.71
372.732	35.07
372.938	32.24
373.145	26.94
373.351	25.66
373.557	21.68
373.763	25.11
373.97	27.75
374.176	30.97
374.382	27.61
374.588	30.1
374.795	24.27
375.001	16.06
375.207	12.21
375.413	5.18
375.62	0.51
375.826	4.19
376.032	5.45
376.238	9.98
376.444	8.03
376.65	2.45
376.856	-14.46
377.062	-15.39
377.269	-5.08
377.475	-19.79
377.681	-22.07
377.887	-14.8
378.093	-27.28
378.299	-20.05
378.505	-25.46
378.711	-20.55
378.917	-22.31
379.123	-13.89
379.329	-3.29
379.535	0.16
379.741	-3.18
379.947	-2.76
380.152	-4.72
380.358	-5.07
380.564	-9.98
380.77	-18.75
380.976	-13.15
381.182	-6.84
381.388	-2
381.594	0.67
381.799	5.57
382.005	3.86
382.211	6.79
382.417	11.6
382.623	-3.58
382.828	3.67
383.034	0.62
383.24	-8.9
383.445	-13.65
383.651	-19.2
383.857	-22.36
384.063	-10.76
384.268	-21.24
384.474	-11.85
384.68	-21.69
384.885	-10.99
385.091	6.27
385.296	5.12
385.502	8.84
385.708	0.14
385.913	-3.49
386.119	-7.86
386.324	3.05
386.53	5.63
386.735	-1.54
386.941	16.77
387.146	13.96
387.352	11.06
387.557	24.88
387.763	28.17
387.968	17.71
388.174	23.16
388.379	14.01
388.585	13.16
388.79	0.55
388.996	12.68
389.201	16.54
389.406	7.2
389.612	-0.29
389.817	-0.33
390.022	10.55
390.228	14.54
390.433	15.35
390.638	11.52
390.844	10.64
391.049	13.47
391.254	11.28
391.459	6.54
391.665	-6.56
391.87	-8.29
392.075	-4.97
392.28	0.7
392.485	-1.36
392.691	-0.22
392.896	-0.4
393.101	9.09
393.306	10.28
393.511	2.03
393.716	5.15
393.922	8.1
394.127	6.09
394.332	6.46
394.537	1.93
394.742	4.28
394.947	0.99
395.152	3.35
395.357	6.56
395.562	8.01
395.767	6.11
395.972	22.52
396.177	18.02
396.382	25.42
396.587	28.25
396.792	24.52
396.997	29.14
397.202	35.78
397.407	28.82
397.611	28.13
397.816	31.6
398.021	29.81
398.226	31.83
398.431	32.41
398.636	31.12
398.841	29.28
399.045	29.3
399.25	24.67
399.455	24.75
399.66	24.13
399.864	22.77
400.069	20.85
400.274	19.13
400.479	24.81
400.683	14.61
400.888	13.78
401.093	7.06
401.297	4.27
401.502	-13.2
401.707	-12.34
401.911	-12.84
402.116	-19.36
402.321	-9.22
402.525	-12.43
402.73	-8.5
402.934	-3.14
403.139	-1.83
403.344	2.54
403.548	7.28
403.753	1.33
403.957	-14.9
404.162	-18.62
404.366	-10.41
404.571	-15.44
404.775	-30.1
404.98	-31.8
405.184	-28.38
405.388	-15.44
405.593	-13.61
405.797	-4.28
406.002	6.82
406.206	2.62
406.41	6.37
406.615	8.21
406.819	17.02
407.023	16.78
407.228	14.02
407.432	9.62
407.636	-0.54
407.841	1.49
408.045	6.68
408.249	9.28
408.453	14.75
408.658	16.47
408.862	20.17
409.066	20.77
409.27	23.9
409.474	26.63
409.679	21.65
409.883	17.62
410.087	12.72
410.291	-2.19
410.495	0.68
410.699	0.27
410.903	-6.89
411.108	-10.51
411.312	-17.36
411.516	-10.56
411.72	2.94
411.924	9.52
412.128	14.27
412.332	11.38
412.536	13.28
412.74	17.66
412.944	16.13
413.148	11.58
413.352	15.46
413.556	18.95
413.76	14.66
413.964	15.57
414.167	24.96
414.371	32.33
414.575	32.24
414.779	29.1
414.983	26.1
415.187	22.92
415.391	14.85
415.594	21.38
415.798	9.54
416.002	3.91
416.206	5.77
416.41	4.29
416.613	-3.07
416.817	-9.56
417.021	-13.34
417.225	-12.23
417.428	-19.8
417.632	-18.96
417.836	-26.63
418.039	-20.1
418.243	-3.95
418.447	-29.53
418.65	-26.74
418.854	-7.18
419.057	3.85
419.261	1.08
419.465	2.74
419.668	15.16
419.872	13.41
420.075	17.1
420.279	17.31
420.482	16.24
420.686	20.86
420.889	26.55
421.093	34.78
421.296	22.03
421.5	18.46
421.703	20.6
421.907	28.01
422.11	42.83
422.314	46.32
422.517	34.63
422.72	49.3
422.924	37.48
423.127	20.59
423.33	13.52
423.534	21.33
423.737	25.75
423.94	19.5
424.144	31.06
424.347	35.75
424.55	36.85
424.754	45.42
424.957	38.52
425.16	35.87
425.363	36.34
425.567	49.08
425.77	49.35
425.973	50.35
426.176	40.3
426.379	30.85
426.582	35.04
426.786	39.78
426.989	37.85
427.192	57.88
427.395	56.1
427.598	54.18
427.801	49.72
428.004	47.05
428.207	49.63
428.41	44.59
428.613	38.2
428.816	40.64
429.019	36.32
429.222	30.86
429.425	32.45
429.628	36.24
429.831	35.44
430.034	36.36
430.237	37.21
430.44	36.62
430.643	32.96
430.846	28.67
431.049	28.62
431.252	33.22
431.454	26.31
431.657	27.67
431.86	31.22
432.063	33.48
432.266	31.47
432.469	27.99
432.671	26.5
432.874	35.66
433.077	27.83
433.28	36.7
433.482	38.7
433.685	36.42
433.888	27.78
434.09	20.47
434.293	20.58
434.496	19.39
434.698	19.23
434.901	26.09
435.104	25.51
435.306	25.89
435.509	22.45
435.712	18.26
435.914	15.81
436.117	22.86
436.319	28.57
436.522	26.06
436.724	29.94
436.927	22.83
437.129	10.9
437.332	24.39
437.534	10.9
437.737	3.64
437.939	5.7
438.142	4.13
438.344	16.14
438.547	6.42
438.749	14.04
438.951	12.54
439.154	10.17
439.356	9.3
439.558	7.92
439.761	-2.8
439.963	-6.54
440.165	-3.25
440.368	-10.04
440.57	-36.94
440.772	-36.8
440.975	-53.15
441.177	-34.32
441.379	-34.58
441.581	-32.76
441.784	-37.13
441.986	-12.54
442.188	-19.54
442.39	-20.98
442.592	-25.2
442.795	-14.98
442.997	-21.79
443.199	-22.32
443.401	-22.13
443.603	-20.94
443.805	-39.78
444.007	-37.2
444.209	-32.62
444.411	-22.65
444.613	-21.42
444.815	-9
445.017	-11.27
445.219	-1.2
445.421	-10.4
445.623	-12.61
445.825	-20.71
446.027	-22.01
446.229	-39.11
446.431	-29.52
446.633	-28.81
446.835	-27.83
447.037	-24.64
447.239	-17.88
447.441	-12.52
447.643	-12.91
447.844	-26.23
448.046	-4.19
448.248	7.41
448.45	7.76
448.652	5.88
448.853	8.99
449.055	-4.04
449.257	-8.64
449.459	-23.62
449.66	-8.29
449.862	-5.26
450.064	3.48
450.266	7.41
450.467	1.76
450.669	-6.94
450.871	-12.89
451.072	-4.3
451.274	-13.91
451.475	-17.92
451.677	-14
451.879	-31.18
452.08	-35.97
452.282	-25.12
452.483	-48.67
452.685	-42.76
452.886	-39.18
453.088	-53.07
453.289	-60.18
453.491	-57.74
453.692	-67.19
453.894	-62.18
454.095	-52.37
454.297	-77.32
454.498	-71.63
454.7	-61.01
454.901	-33.33
455.102	-24.26
455.304	-25.63
455.505	-20.84
455.706	-27.68
455.908	-27.09
456.109	-26.02
456.31	-16.27
456.512	-24.64
456.713	-11.44
456.914	-12.24
457.116	-21.64
457.317	-8.46
457.518	-5.52
457.719	-1.58
457.921	2.87
458.122	-5.93
458.323	-5.57
458.524	5.46
458.725	13.03
458.926	9.25
459.128	-1.35
459.329	-1.24
459.53	-9.83
459.731	-17.73
459.932	-20.84
460.133	-21.94
460.334	-6.34
460.535	-7.04
460.736	-5.15
460.937	-16.7
461.138	-18.85
461.339	-15.15
461.54	-24.22
461.741	-20.45
461.942	-23.96
462.143	-17.86
462.344	-21.71
462.545	-23.25
462.746	-34.01
462.947	-42.81
463.148	-34.71
463.348	-25.1
463.549	-21.25
463.75	-15.89
463.951	-12.06
464.152	-9.9
464.353	-8.16
464.553	1.53
464.754	5.22
464.955	3.22
465.156	7.35
465.356	5.9
465.557	3.28
465.758	7.78
465.959	11.11
466.159	18.17
466.36	12.99
466.561	16.99
466.761	16.26
466.962	16.54
467.163	22.84
467.363	16.53
467.564	17.17
467.764	12.85
467.965	8.3
468.166	6.49
468.366	14.17
468.567	15.91
468.767	10.43
468.968	7.04
469.168	9.88
469.369	11.57
469.569	11.99
469.77	9.8
469.97	0.92
470.17	-1.52
470.371	-7.05
470.571	-13.89
470.772	-3.84
470.972	3.09
471.172	14.27
471.373	5.6
471.573	7.8
471.773	6.3
471.974	14.45
472.174	20.61
472.374	30.79
472.575	27.52
472.775	23.68
472.975	15.81
473.175	11.5
473.376	7.87
473.576	7.7
473.776	9.25
473.976	6.79
474.177	12.09
474.377	9.92
474.577	7.94
474.777	13.01
474.977	4.66
475.177	-3.65
475.377	-6.8
475.577	-1.96
475.777	1.09
475.978	-3.37
476.178	-9.4
476.378	-9.64
476.578	-14.68
476.778	-16.08
476.978	-14.55
477.178	-8.82
477.378	-1.28
477.578	0.82
477.778	-0.1
477.977	-2.89
478.177	-1.23
478.377	-3.87
478.577	-3.92
478.777	-0.27
478.977	0.55
479.177	3.34
479.377	3.08
479.577	0.83
479.776	3.29
479.976	-4.04
480.176	2.3
480.376	4.93
480.576	0.76
480.775	-7.19
480.975	-5.79
481.175	-7.47
481.374	-5.74
481.574	-5.69
481.774	-4.97
481.974	-4.07
482.173	-1.36
482.373	-3.79
482.572	0.56
482.772	2.68
482.972	5.46
483.171	5.67
483.371	7.41
483.57	12.89
483.77	16.42
483.97	11.95
484.169	13.16
484.369	7.61
484.568	9.09
484.768	14.52
484.967	18.19
485.167	17.68
485.366	15.6
485.566	13
485.765	12.84
485.964	10.1
486.164	9.51
486.363	9.41
486.563	12.53
486.762	8.19
486.961	7.01
487.161	7.18
487.36	2.2
487.559	-1.22
487.759	-7.47
487.958	-11.73
488.157	-11.09
488.356	-7.4
488.556	-3.17
488.755	-6.84
488.954	-8.84
489.153	-7.39
489.353	-2.48
489.552	-1.68
489.751	-5.35
489.95	-3.29
490.149	-8.22
490.348	-9.9
490.548	-10.63
490.747	-19.65
490.946	-17.74
491.145	-13.75
491.344	-19.04
491.543	-19.72
491.742	-18.79
491.941	-16.19
492.14	-16.41
492.339	-17
492.538	-12.66
492.737	-11.33
492.936	-6.25
493.135	-4.95
493.334	-11.89
493.533	-18.91
493.732	-10.65
493.931	-1.12
494.13	-6.39
494.328	3.24
494.527	6.76
494.726	2.11
494.925	2.41
495.124	4.2
495.323	2.07
495.521	0.56
495.72	5.13
495.919	7.66
496.118	8.1
496.316	9.85
496.515	14.51
496.714	8.57
496.913	9.9
497.111	9.19
497.31	4.6
497.509	10.7
497.707	10.54
497.906	10.65
498.105	5.14
498.303	6.5
498.502	0.59
498.7	-3.32
498.899	4.46
499.097	6.61
499.296	8.05
499.495	4.92
499.693	8.4
499.892	5.72
500.09	2.02
500.289	3.66
500.487	3.71
500.686	-1.55
500.884	0.83
501.082	-2.79
501.281	-6.55
501.479	-5.65
501.678	-6.38
501.876	-5.42
502.074	-5.2
502.273	-6.16
502.471	-8.7
502.669	-6.64
502.868	-5.11
503.066	-6.89
503.264	-3.84
503.463	-4.89
503.661	-4.23
503.859	-4.12
504.057	3.23
504.256	6.56
504.454	4.41
504.652	3.6
504.85	4.89
505.048	8.39
505.246	4.53
505.445	6.54
505.643	9.07
505.841	10.83
506.039	9.68
506.237	6.15
506.435	9.74
506.633	9.12
506.831	12.08
507.029	12.39
507.227	13.53
507.425	14.33
507.623	13.64
507.821	11.17
508.019	11.83
508.217	8.36
508.415	5.12
508.613	5.29
508.811	3.04
509.009	3.29
509.207	1.72
509.405	3.38
509.603	3.36
509.8	3.12
509.998	-1.57
510.196	-1.16
510.394	-4.63
510.592	-6.07
510.79	-4.12
510.987	-7.22
511.185	-4.49
511.383	-10.39
511.581	-12.82
511.778	-7.77
511.976	-5.49
512.174	-9.5
512.371	-13.18
512.569	-10.62
512.767	-8.14
512.964	-9.78
513.162	-8.85
513.36	-11.4
513.557	-13.08
513.755	-13.54
513.952	-11.7
514.15	-9.77
514.348	-8.6
514.545	-4.98
514.743	0.75
514.94	3.19
515.138	1.38
515.335	1.71
515.533	5.29
515.73	10.01
515.927	7.5
516.125	9.04
516.322	11.24
516.52	13.08
516.717	12.56
516.915	13.22
517.112	15.18
517.309	13.39
517.507	16.62
517.704	15.97
517.901	15.22
518.099	11.23
518.296	7.36
518.493	9.38
518.69	8.51
518.888	6.86
519.085	5.05
519.282	10
519.479	10.35
519.676	6.91
519.874	-1.33
520.071	-0.37
520.268	0.8
520.465	0.6
520.662	3.67
520.859	3.38
521.056	1.88
521.254	5.66
521.451	5.68
521.648	4.02
521.845	4.36
522.042	5.88
522.239	6.94
522.436	8.62
522.633	4.6
522.83	8
523.027	2.09
523.224	3.6
523.421	0.79
523.618	-3.65
523.815	3.51
524.011	8.32
524.208	9.28
524.405	9.1
524.602	12.02
524.799	6.78
524.996	2.41
525.193	2.09
525.389	-3.1
525.586	-2.58
525.783	-4.67
525.98	-2.61
526.176	-4.62
526.373	-1.81
526.57	4.78
526.767	-0.38
526.963	-2.16
527.16	5.25
527.357	4.7
527.553	8.64
527.75	9.48
527.947	-1.14
528.143	2.9
528.34	0.52
528.537	-4.18
528.733	-7.33
528.93	-4.63
529.126	4.45
529.323	-1.85
529.519	2.25
529.716	-2.51
529.912	-3.03
530.109	0.93
530.305	0.96
530.502	1.66
530.698	-1.39
530.895	1.36
531.091	0.76
531.288	-1.16
531.484	-2.07
531.68	-4.86
531.877	-2.59
532.073	2.66
532.269	1.13
532.466	-1.06
532.662	2.98
532.858	4.69
533.055	4.03
533.251	2.48
533.447	7.31
533.643	9.65
533.84	12.57
534.036	14.04
534.232	14.23
534.428	11.26
534.624	8.62
534.821	10.36
535.017	13.49
535.213	11.22
535.409	12.82
535.605	13.39
535.801	11.36
535.997	11.05
536.193	8.89
536.389	6.41
536.586	9.14
536.782	9.24
536.978	6.71
537.174	7.34
537.37	5.74
537.566	5.7
537.762	0.38
537.958	1.05
538.153	-0.32
538.349	-6.08
538.545	-0.61
538.741	-0.36
538.937	-3.17
539.133	-2.8
539.329	0.03
539.525	-0.98
539.721	0.62
539.916	4.55
540.112	3.51
540.308	6.74
540.504	7.88
540.699	8.34
540.895	8.55
541.091	11.77
541.287	11.41
541.482	11.99
541.678	11.06
541.874	11.7
542.069	11.34
542.265	11.65
542.461	13.09
542.656	14.16
542.852	14.84
543.048	15.86
543.243	17.44
543.439	14.63
543.634	11.14
543.83	9.24
544.025	9.37
544.221	11.38
544.417	11.05
544.612	10.38
544.807	9.09
545.003	7.28
545.198	5.47
545.394	5.58
545.589	7.98
545.785	6.13
545.98	5.17
546.176	5.72
546.371	4.48
546.566	3.74
546.762	0.77
546.957	1.62
547.152	1.05
547.348	-0.43
547.543	0.97
547.738	0.71
547.933	-1.24
548.129	-2.89
548.324	-3.58
548.519	-7.54
548.714	-5.53
548.91	-4.34
549.105	-3.38
549.3	-2.56
549.495	0.49
549.69	-3.74
549.885	-1.33
550.08	4.66
550.276	4.52
550.471	7.92
550.666	10.16
550.861	10.84
551.056	8.41
551.251	8.04
551.446	6.94
551.641	6.89
551.836	7.12
552.031	9.82
552.226	10.65
552.421	9.59
552.616	11.02
552.811	13.71
553.006	13.52
553.201	9.63
553.395	7.31
553.59	4.15
553.785	5.3
553.98	5.76
554.175	1.05
554.37	0.49
554.565	-0.04
554.759	-1.19
554.954	-0.87
555.149	3
555.344	2.67
555.538	4.43
555.733	7.4
555.928	7.63
556.122	6.73
556.317	4.02
556.512	3.56
556.706	2.67
556.901	1.59
557.096	0.34
557.29	3.48
557.485	3.55
557.68	2.85
557.874	3.09
558.069	2.4
558.263	3.27
558.458	5.51
558.652	3.86
558.847	5.55
559.041	8.71
559.236	3.18
559.43	3.9
559.625	3.67
559.819	1.91
560.014	3.53
560.208	4.29
560.402	6.37
560.597	5.3
560.791	6.56
560.986	4.91
561.18	5.25
561.374	6.06
561.569	6.17
561.763	6.5
561.957	5.3
562.151	3.3
562.346	4.27
562.54	5.61
562.734	6.84
562.928	3.79
563.123	1.33
563.317	3.29
563.511	2.61
563.705	1.33
563.899	0.59
564.093	0.81
564.288	0.92
564.482	0.53
564.676	3.87
564.87	2.99
565.064	3.17
565.258	3.4
565.452	0.98
565.646	3.36
565.84	0.24
566.034	1.88
566.228	2.94
566.422	3.51
566.616	-0.1
566.81	-0.48
567.004	1.69
567.198	0.91
567.392	0.77
567.586	0.47
567.779	0.64
567.973	0.78
568.167	3.69
568.361	4.04
568.555	4
568.749	1.39
568.942	0.95
569.136	4.3
569.33	3.1
569.524	3.8
569.718	4.4
569.911	8.49
570.105	8.72
570.299	10.27
570.492	10.72
570.686	12.59
570.88	12.44
571.073	11.59
571.267	13.29
571.461	14.22
571.654	14.47
571.848	14.01
572.041	14.96
572.235	14.45
572.429	16
572.622	14.97
572.816	15.56
573.009	17.39
573.203	12.72
573.396	15.15
573.59	14.24
573.783	12.85
573.976	12.55
574.17	12.61
574.363	11.87
574.557	10.03
574.75	8.22
574.943	9.26
575.137	11.6
575.33	10.76
575.523	9.21
575.717	8.62
575.91	7.24
576.103	7.6
576.297	5.07
576.49	2.76
576.683	4.06
576.876	4.09
577.07	2.76
577.263	6.08
577.456	5.02
577.649	5.46
577.842	6.7
578.036	6.36
578.229	6.24
578.422	6.36
578.615	7.62
578.808	7.4
579.001	7.98
579.194	6.85
579.387	8.17
579.58	9.24
579.773	9.7
579.966	12.51
580.159	9.91
580.352	12.05
580.545	13.38
580.738	12.79
580.931	11.57
581.124	13.91
581.317	10.68
581.51	9.68
581.703	9.02
581.896	8.85
582.088	8.31
582.281	8.49
582.474	7.19
582.667	7.41
582.86	7.17
583.053	4.31
583.245	5
583.438	1.6
583.631	0.78
583.824	1.67
584.016	0.29
584.209	0.93
584.402	0.77
584.594	0.69
584.787	2.12
584.98	3.09
585.172	2.05
585.365	2.34
585.558	2.43
585.75	4.02
585.943	4.58
586.135	4.64
586.328	4.75
586.52	5.2
586.713	3.3
586.906	3
587.098	4.47
587.291	4.93
587.483	4.6
587.675	5.95
587.868	4.5
588.06	3.76
588.253	5.14
588.445	3.73
588.638	2.6
588.83	1.86
589.022	-0.3
589.215	-1.82
589.407	0.96
589.599	2.69
589.792	2.99
589.984	1.64
590.176	1.17
590.368	2.29
590.561	3.86
590.753	6
590.945	6.12
591.137	4.99
591.33	2.41
591.522	5.05
591.714	2.71
591.906	6.06
592.098	6.83
592.29	8.27
592.482	9.45
592.674	7.83
592.867	7.72
593.059	9.46
593.251	10.4
593.443	10.67
593.635	9.89
593.827	7.98
594.019	7.43
594.211	7.29
594.403	6.95
594.595	7.35
594.787	5.73
594.979	5.99
595.17	7.01
595.362	7.43
595.554	7.53
595.746	7.14
595.938	3.68
596.13	4.29
596.322	4.6
596.513	2.86
596.705	4.09
596.897	1.92
597.089	2.53
597.281	1.15
597.472	0.26
597.664	-0.49
597.856	-0.16
598.048	-0.23
598.239	-0.53
598.431	-3.04
598.623	-4.28
598.814	-6.41
599.006	-5.56
599.197	-4.41
599.389	-4.89
599.581	-6.81
599.772	-4.68
599.964	-2.03
600.155	-2.73
600.347	-4.51
600.538	-3.33
600.73	-2.25
600.921	-2.57
601.113	-4.74
601.304	-3.46
601.496	-2.9
601.687	-3.52
601.879	-3.97
602.07	-2.07
602.262	-1.11
602.453	-0.93
602.644	-1.42
602.836	0.26
603.027	-1.19
603.218	-3.85
603.41	-4.64
603.601	-3.17
603.792	-5.37
603.983	-7.85
604.175	-7.16
604.366	-6.75
604.557	-4.18
604.748	-5.78
604.94	-2.77
605.131	-2.2
605.322	-2.44
605.513	-1.81
605.704	-1.28
605.895	-0.41
606.086	-2.59
606.278	-2.27
606.469	-0.79
606.66	0.22
606.851	0.24
607.042	1
607.233	1.38
607.424	2.23
607.615	2.11
607.806	2.37
607.997	4.63
608.188	4.33
608.379	3.15
608.57	1.03
608.761	1.89
608.952	0.77
609.142	0.97
609.333	0.73
609.524	-0.94
609.715	1.25
609.906	2.13
610.097	3.44
610.287	3.27
610.478	3.88
610.669	3.96
610.86	3.21
611.051	3.49
611.241	3.12
611.432	3.69
611.623	2.81
611.813	3.76
612.004	3.39
612.195	3.99
612.385	4.06
612.576	4.95
612.767	6.14
612.957	6.19
613.148	7.08
613.338	6.95
613.529	6.08
613.72	4.48
613.91	3.16
614.101	2.46
614.291	3.54
614.482	2.53
614.672	1.48
614.863	2.54
615.053	1.66
615.243	2.19
615.434	2.92
615.624	3.3
615.815	3.78
616.005	2.5
616.195	0.44
616.386	-0.97
616.576	-1.9
616.766	-2.08
616.957	-1.27
617.147	-1.24
617.337	-1.79
617.528	-2.14
617.718	-2.54
617.908	-2.95
618.098	-1.61
618.289	-2.31
618.479	-1.66
618.669	0.25
618.859	0.33
619.049	1.34
619.239	3.11
619.43	3.47
619.62	4.35
619.81	5.36
620	6.91
620.19	7.6
620.38	8.1
620.57	7.76
620.76	5.79
620.95	5.61
621.14	4.77
621.33	5.21
621.52	7.51
621.71	6.83
621.9	8.56
622.09	7.79
622.28	8.45
622.47	8.66
622.659	7.06
622.849	7.05
623.039	6.48
623.229	4.64
623.419	5
623.609	3.35
623.799	1.05
623.988	0.55
624.178	1.32
624.368	1.74
624.558	2.74
624.747	3.49
624.937	4.23
625.127	3.92
625.316	3.01
625.506	3.58
625.696	4.66
625.885	2.34
626.075	1.87
626.265	2.28
626.454	1.83
626.644	2.69
626.833	1.27
627.023	2.17
627.212	2.86
627.402	3
627.591	3.78
627.781	5.04
627.97	3.72
628.16	3.88
628.349	3.68
628.539	2.14
628.728	4.15
628.918	2.79
629.107	4.08
629.296	4.93
629.486	3.23
629.675	3.04
629.865	4.55
630.054	6.23
630.243	3.69
630.432	4.2
630.622	4.2
630.811	5.68
631	4.87
631.19	5.85
631.379	4.02
631.568	4.59
631.757	5.4
631.946	6.94
632.136	7.15
632.325	7.44
632.514	8.63
632.703	5.61
632.892	5.57
633.081	5.76
633.27	6.75
633.459	6.29
633.648	5.56
633.837	4.49
634.026	3.3
634.215	5.21
634.404	4.62
634.593	5.91
634.782	6.2
634.971	6.99
635.16	6.19
635.349	5.39
635.538	4.99
635.727	2.42
635.916	0.01
636.105	0.54
636.294	0.6
636.482	2.03
636.671	3.3
636.86	4.27
637.049	4.29
637.238	3.14
637.426	3.92
637.615	3.02
637.804	3.51
637.993	3.61
638.181	2.87
638.37	2.79
638.559	1.54
638.747	0.29
638.936	1.14
639.125	2.01
639.313	3.56
639.502	3.93
639.691	4.39
639.879	3.62
640.068	2.35
640.256	1.6
640.445	-0.71
640.633	0.45
640.822	-0.07
641.01	1.42
641.199	1.12
641.387	1.88
641.576	2.85
641.764	5.01
641.953	4.75
642.141	5.56
642.329	6.44
642.518	4.84
642.706	7.04
642.894	5.65
643.083	6.07
643.271	6.59
643.459	6.21
643.648	8.47
643.836	10.54
644.024	11.3
644.213	13.01
644.401	12.5
644.589	10.1
644.777	9.46
644.965	9.8
645.154	8.71
645.342	8.04
645.53	9.6
645.718	10.46
645.906	8.26
646.094	7.84
646.282	7.18
646.47	8.3
646.658	6.61
646.846	5.28
647.034	4.58
647.223	3.85
647.411	5.25
647.599	2.52
647.786	1.91
647.974	0.06
648.162	-1.54
648.35	-2.05
648.538	-0.35
648.726	1.56
648.914	0.1
649.102	3.48
649.29	4.05
649.478	3.16
649.665	1.56
649.853	3.72
650.041	4.13
650.229	4.41
650.417	4.61
650.604	4.62
650.792	6.9
650.98	5.99
651.168	4.97
651.355	3.76
651.543	4.6
651.731	4.87
651.918	5.85
652.106	6.5
652.294	7.48
652.481	7.74
652.669	6.41
652.856	5.87
653.044	3.95
653.231	2.54
653.419	2.7
653.606	2.29
653.794	4.33
653.981	4.28
654.169	3.47
654.356	2.24
654.544	2.85
654.731	1.53
654.919	2.52
655.106	3.93
655.294	4.71
655.481	5.81
655.668	6.63
655.856	6.84
656.043	7.32
656.23	6.57
656.418	5.94
656.605	6.39
656.792	7.08
656.979	8.14
657.167	9.3
657.354	9.42
657.541	8.65
657.728	6.1
657.916	6.16
658.103	5.59
658.29	7.1
658.477	6.06
658.664	7.34
658.851	6.97
659.038	5.97
659.225	4.07
659.412	4.34
659.6	3.16
659.787	4.31
659.974	4.09
660.161	6.17
660.348	5.23
660.535	6.9
660.722	5.28
660.909	3.9
661.095	4.06
661.282	4.09
661.469	5.06
661.656	5.82
661.843	4.9
662.03	5.52
662.217	5.16
662.404	6.24
662.59	5.13
662.777	4.08
662.964	4.26
663.151	5.17
663.338	4.43
663.524	4.52
663.711	1.44
663.898	1.52
664.085	0.94
664.271	1.85
664.458	0.85
664.645	1.2
664.831	2.47
665.018	2.41
665.204	1.58
665.391	1.48
665.578	0.18
665.764	0.16
665.951	-0.62
666.137	-0.89
666.324	-0.66
666.51	-0.15
666.697	-1.03
666.883	0.16
667.07	0.97
667.256	1.23
667.443	1.71
667.629	3.27
667.816	3.09
668.002	2.08
668.188	2.99
668.375	1.96
668.561	2.1
668.747	-0.31
668.934	-0.47
669.12	0.2
669.306	0.09
669.493	0.43
669.679	-0.14
669.865	0.69
670.051	-0.07
670.238	-0.1
670.424	-0.95
670.61	-0.2
670.796	-1.52
670.982	-3.05
671.169	-3.79
671.355	-4.72
671.541	-4.79
671.727	-5.34
671.913	-4.1
672.099	-5
672.285	-5.45
672.471	-4.67
672.657	-3.14
672.843	-2.94
673.029	-3.13
673.215	-1.89
673.401	0.38
673.587	0.42
673.773	0.83
673.959	1.94
674.145	2.13
674.331	2.79
674.517	2.53
674.703	4
674.888	5.58
675.074	6.19
675.26	6.05
675.446	5.02
675.632	4.21
675.817	3.53
676.003	2.75
676.189	2.81
676.375	1.68
676.56	1.54
676.746	0.71
676.932	-0.26
677.117	-1.44
677.303	-3.54
677.489	-2.64
677.674	-4.05
677.86	-5.66
678.046	-5.89
678.231	-5.43
678.417	-4.66
678.602	-6.49
678.788	-7.7
678.973	-7.1
679.159	-5.07
679.344	-5.11
679.53	-3.94
679.715	-3.74
679.901	-2.7
680.086	-2.94
680.272	-1.91
680.457	-2.57
680.643	-2.45
680.828	-1.93
681.013	-2.38
681.199	-1.8
681.384	-0.64
681.569	0.59
681.755	0.94
681.94	1.13
682.125	0.78
682.31	1.71
682.496	1.78
682.681	2.44
682.866	2.29
683.051	1.55
683.237	2.76
683.422	2.89
683.607	1.94
683.792	2.39
683.977	3.77
684.162	2.16
684.347	3.68
684.532	3.63
684.717	4.09
684.903	4.16
685.088	4.12
685.273	2.52
685.458	1.32
685.643	3.06
685.828	2.74
686.013	3.05
686.198	1.48
686.382	2.84
686.567	1.76
686.752	0.67
686.937	0.21
687.122	0.55
687.307	0.65
687.492	1.53
687.677	0.19
687.861	-0.68
688.046	-0.6
688.231	-2.3
688.416	-1.52
688.601	-2.15
688.785	-0.4
688.97	0.02
689.155	0.32
689.339	0.67
689.524	0.14
689.709	0.35
689.893	1.02
690.078	1.65
690.263	1.11
690.447	1.85
690.632	2.67
690.816	4.23
691.001	4.22
691.186	3.82
691.37	3.67
691.555	4.93
691.739	4.89
691.924	5.25
692.108	6.49
692.293	6.04
692.477	7.39
692.661	6.67
692.846	5.65
693.03	5.83
693.215	6.27
693.399	5.63
693.583	4.76
693.768	4.31
693.952	3.72
694.136	2.19
694.321	2.65
694.505	2.86
694.689	2.22
694.873	2.29
695.058	1.52
695.242	2.13
695.426	1.79
695.61	1.3
695.794	1.16
695.979	0.04
696.163	-0.37
696.347	-0.48
696.531	-0.91
696.715	-1.01
696.899	-1.4
697.083	-1.74
697.267	-1.42
697.451	-1.2
697.635	-0.92
697.819	-0.56
698.003	1.69
698.187	0.14
698.371	0.11
698.555	-0.08
698.739	0.27
698.923	1.12
699.107	0.85
699.291	0.79
699.475	0.59
699.659	1.37
699.842	2.32
700.026	2.62
700.21	3.92
700.394	3.71
700.578	4.77
700.761	4.64
700.945	5.9
701.129	5.7
701.313	5.07
701.496	4.05
701.68	3.66
701.864	3.04
702.047	4.86
702.231	5.29
702.415	3.56
702.598	1.31
702.782	0.84
702.965	0.68
703.149	0.89
703.333	1.21
703.516	1.21
703.7	-0.09
703.883	0.88
704.067	-1.4
704.25	-2.12
704.434	-4.64
704.617	-5.98
704.801	-7.31
704.984	-6.7
705.167	-5.63
705.351	-6.15
705.534	-5.12
705.718	-3.71
705.901	-5.62
706.084	-6.69
706.268	-5.21
706.451	-5.01
706.634	-4.58
706.817	-6.16
707.001	-7.83
707.184	-7.14
707.367	-7.9
707.55	-6.48
707.734	-6.46
707.917	-5.81
708.1	-6.11
708.283	-2.68
708.466	-1.1
708.649	-0.14
708.832	-0.16
709.015	0.74
709.199	2.17
709.382	2.65
709.565	0.93
709.748	3.04
709.931	3.93
710.114	4.39
710.297	4.76
710.48	5.9
710.663	6.58
710.846	6.57
711.028	6.18
711.211	5.43
711.394	5.48
711.577	3.9
711.76	2.24
711.943	2.85
712.126	1.32
712.309	1.18
712.491	0.96
712.674	-0.29
712.857	0.47
713.04	-0.03
713.222	0.11
713.405	-0.33
713.588	0.17
713.771	1.64
713.953	0.87
714.136	1.22
714.319	0.72
714.501	0.03
714.684	0.22
714.866	0.82
715.049	1.9
715.232	1.62
715.414	1.41
715.597	1.92
715.779	2.33
715.962	3.57
716.144	4.11
716.327	4.53
716.509	5.46
716.692	3.25
716.874	2.56
717.057	1.25
717.239	1.5
717.421	1
717.604	-2.53
717.786	-2.48
717.968	-2.93
718.151	-4.49
718.333	-3.86
718.515	-3.87
718.698	-4.81
718.88	-5.16
719.062	-5.53
719.244	-6.14
719.427	-6.13
719.609	-6.53
719.791	-9.86
719.973	-10.19
720.155	-12.32
720.338	-12.57
720.52	-10.71
720.702	-9.17
720.884	-7.83
721.066	-7.37
721.248	-10.93
721.43	-9.53
721.612	-10.48
721.794	-6.76
721.976	-4.9
722.158	-4.83
722.34	-3.93
722.522	-3.77
722.704	-2.72
722.886	-2.89
723.068	-1.1
723.25	0.27
723.432	-0.27
723.614	1.9
723.796	1.17
723.977	1.55
724.159	1.35
724.341	-0.63
724.523	-2.95
724.705	-4.24
724.886	-4.91
725.068	-2.12
725.25	-0.92
725.432	-0.54
725.613	-3.04
725.795	-3.38
725.977	-2.05
726.158	-2.46
726.34	-2.01
726.522	-3.25
726.703	-2.45
726.885	-2.15
727.066	-3.13
727.248	-0.36
727.43	0.16
727.611	1.67
727.793	2.07
727.974	2.46
728.156	2.99
728.337	1.8
728.519	1.26
728.7	3.07
728.882	1.2
729.063	-0.77
729.244	-0.88
729.426	-1.08
729.607	-0.81
729.788	-2.72
729.97	-2.65
730.151	-2.96
730.332	-1.99
730.514	-2.17
730.695	-0.83
730.876	-0.47
731.058	-2.5
731.239	-1.83
731.42	-2.41
731.601	-3.37
731.782	-4.07
731.964	-3.53
732.145	-1.39
732.326	-1.93
732.507	-4.11
732.688	-3.11
732.869	-0.46
733.05	0.32
733.231	0.53
733.412	-1.45
733.593	-0.17
733.774	-0.06
733.955	0.06
734.136	0.54
734.317	-0.3
734.498	-1.94
734.679	-2.49
734.86	-3.59
735.041	-4
735.222	-4.58
735.403	-3.43
735.584	-1.9
735.765	-1.06
735.946	-1.55
736.126	-0.79
736.307	0.88
736.488	0.93
736.669	-2.75
736.849	-4.19
737.03	-3.37
737.211	-1.4
737.392	-0.84
737.572	-3.7
737.753	-4
737.934	-3.94
738.114	-2.35
738.295	-1.46
738.476	-1.16
738.656	0.44
738.837	0.66
739.017	2.33
739.198	2.95
739.378	3.03
739.559	1.78
739.74	2.91
739.92	3.23
740.1	2.52
740.281	0.37
740.461	2.5
740.642	4.94
740.822	2.77
741.003	3.2
741.183	1.89
741.363	5.2
741.544	5.96
741.724	4.87
741.904	3.96
742.085	4.47
742.265	4.94
742.445	5.04
742.626	5.56
742.806	4.34
742.986	3.3
743.166	2.11
743.347	1.74
743.527	1.69
743.707	1.09
743.887	0.58
744.067	1.89
744.247	1.16
744.427	-0.59
744.608	0.14
744.788	0.42
744.968	1.78
745.148	2.78
745.328	0.78
745.508	0.81
745.688	0.45
745.868	-0.99
746.048	-2.03
746.228	-2.7
746.408	-3.93
746.588	-4.58
746.767	-2.51
746.947	-1.52
747.127	-1.41
747.307	-2.36
747.487	-1.87
747.667	-2.1
747.847	0.39
748.026	0.92
748.206	1.36
748.386	2.89
748.566	2.24
748.745	1.94
748.925	0.93
749.105	3.82
749.285	4.27
749.464	3.84
749.644	3.28
749.824	3.86
750.003	3.78
750.183	2.71
750.362	4.02
750.542	2.33
750.722	1.49
750.901	1.12
751.081	0.76
751.26	1.38
751.44	1.92
751.619	-0.48
751.799	-0.77
751.978	-2.63
752.158	-2.99
752.337	-3.62
752.516	-3.02
752.696	-3.63
752.875	-4.76
753.055	-4.41
753.234	-3.1
753.413	-1.23
753.593	-0.11
753.772	-0.26
753.951	1.34
754.13	1.76
754.31	1.08
754.489	1.46
754.668	3.58
754.847	3.95
755.027	4.23
755.206	3.68
755.385	4.21
755.564	5.86
755.743	6.95
755.922	5.03
756.101	4.01
756.28	4.03
756.46	3.66
756.639	2.74
756.818	2.94
756.997	3.34
757.176	1.55
757.355	0.45
757.534	0
757.713	-0.48
757.892	-2.22
758.07	-1.68
758.249	-1.92
758.428	-2.5
758.607	-1.98
758.786	-1.26
758.965	-1.21
759.144	0.09
759.323	-2.34
759.501	-2.67
759.68	-1.11
759.859	0.34
760.038	0.11
760.216	0.07
760.395	1.25
760.574	0.41
760.753	0.62
760.931	2.42
761.11	3.41
761.289	4.26
761.467	3.31
761.646	3.27
761.824	4.1
762.003	2.68
762.182	2.9
762.36	2.12
762.539	1.16
762.717	1.41
762.896	0.27
763.074	0.34
763.253	0.15
763.431	1.85
763.61	2.28
763.788	1.74
763.966	2.11
764.145	2.77
764.323	3.81
764.502	1.86
764.68	1.01
764.858	-0.56
765.037	-0.3
765.215	0.58
765.393	1.4
765.571	1.96
765.75	3.06
765.928	0.83
766.106	0.77
766.284	0.56
766.463	0.07
766.641	-0.33
766.819	-0.04
766.997	0.46
767.175	-1.41
767.353	-2.12
767.531	-1.04
767.71	-1.26
767.888	-2.35
768.066	-3.89
768.244	-1.68
768.422	-1.68
768.6	0.51
768.778	-0.38
768.956	-1.48
769.134	-1.56
769.312	-3.15
769.489	-3.57
769.667	-0.93
769.845	0.07
770.023	0.96
770.201	1.74
770.379	2.12
770.557	3.28
770.735	3.26
770.912	2.24
771.09	2.92
771.268	3.31
771.446	3
771.623	3.08
771.801	4.38
771.979	2.79
772.157	1.52
772.334	-1.36
772.512	0.64
772.69	1.23
772.867	1.34
773.045	1.44
773.222	1.41
773.4	1.59
773.577	2.08
773.755	1.01
773.933	0.96
774.11	1.32
774.288	1.83
774.465	1.72
774.643	2.34
774.82	2.75
774.997	1.08
775.175	-0.15
775.352	1.43
775.53	0.68
775.707	2.07
775.884	3.14
776.062	6.23
776.239	4.85
776.416	6.85
776.594	5.6
776.771	5.97
776.948	6.5
777.125	5.31
777.303	3.19
777.48	2.73
777.657	2.53
777.834	2.01
778.012	-0.01
778.189	0.15
778.366	-0.48
778.543	-3.08
778.72	-2.05
778.897	1.35
779.074	-1.04
779.251	0.47
779.428	0.18
779.605	-0.92
779.782	-1.1
779.959	-1.25
780.136	-4.23
780.313	-1.19
780.49	-2.23
780.667	-1.35
780.844	-2.83
781.021	-1.7
781.198	-1.54
781.375	-0.73
781.552	-0.84
781.728	0.36
781.905	1.49
782.082	3.2
782.259	2.55
782.436	1.81
782.612	-1
782.789	-0.74
782.966	-4.02
783.143	-4.92
783.319	-3.21
783.496	-3.46
783.673	-3.88
783.849	-2.88
784.026	-3.14
784.203	-3.01
784.379	-4.42
784.556	-2.09
784.732	-1.87
784.909	-0.63
785.085	-2.4
785.262	-2.21
785.438	-1.51
785.615	-1.35
785.791	-0.61
785.968	0.17
786.144	0.48
786.321	2.97
786.497	1.54
786.673	1.91
786.85	2.74
787.026	1.28
787.203	-0.23
787.379	-1.37
787.555	-0.53
787.731	-1.54
787.908	-1.93
788.084	-0.25
788.26	-1.84
788.437	-0.48
788.613	-1.74
788.789	-0.89
788.965	-1.67
789.141	-3.79
789.317	-6.28
789.494	-8.99
789.67	-8.27
789.846	-9.65
790.022	-12.81
790.198	-12
790.374	-9.87
790.55	-11.77
790.726	-12.67
790.902	-11.08
791.078	-9.06
791.254	-12.13
791.43	-11.92
791.606	-13.23
791.782	-14.47
791.958	-16.23
792.134	-17.75
792.31	-18.12
792.486	-17.93
792.661	-18.16
792.837	-14.28
793.013	-13.01
793.189	-11.26
793.365	-10.33
793.54	-7.14
793.716	-4.74
793.892	-4.11
794.068	-7.05
794.243	-6.14
794.419	-5.09
794.595	-4.65
794.77	-4.58
794.946	-1.12
795.122	-3.14
795.297	-1.69
795.473	-0.41
795.648	3.05
795.824	3.25
796	3.13
796.175	3.86
796.351	4.44
796.526	0.91
796.702	1.83
796.877	0.39
797.052	-0.1
797.228	-2.69
797.403	-4.49
797.579	-3.49
797.754	-0.51
797.929	0.88
798.105	3.07
798.28	-1.27
798.455	-1.01
798.631	-2.93
798.806	-1.9
798.981	0.35
799.157	-1.37
799.332	-4.46
799.507	-3.89
799.682	-3.32
799.858	-5.01
800.033	-4.08
800.208	-1.68
800.383	-3.05
800.558	-0.92
800.733	0.85
800.908	3.1
801.083	5.68
801.258	5.4
801.434	7.66
801.609	7.91
801.784	6.89
801.959	10.37
802.134	10.82
802.309	11.41
802.484	11.75
802.658	10.14
802.833	11.49
803.008	13.51
803.183	10.98
803.358	11.16
803.533	11.65
803.708	12.12
803.883	8.03
804.057	8.37
804.232	10.91
804.407	11.9
804.582	12.06
804.756	10.91
804.931	9.83
805.106	6.53
805.281	3.69
805.455	3.64
805.63	1.2
805.805	1.68
805.979	3.82
806.154	6.68
806.328	6.65
806.503	5.86
806.678	5.45
806.852	6.56
807.027	7.21
807.201	8.5
807.376	8.36
807.55	12.98
807.725	10.95
807.899	10.7
808.074	8.79
808.248	8.43
808.422	8.51
808.597	9.05
808.771	10.79
808.946	14.11
809.12	15.3
809.294	16.11
809.468	16.71
809.643	17.33
809.817	14.65
809.991	13.38
810.166	15.62
810.34	13.4
810.514	15.2
810.688	13.75
810.862	11.55
811.037	12.23
811.211	9.87
811.385	11.64
811.559	7.57
811.733	8.64
811.907	8.52
812.081	6.78
812.255	4.41
812.429	3.13
812.603	-0.7
812.777	-2.65
812.951	-6.17
813.125	-9.92
813.299	-15.98
813.473	-19.36
813.647	-13.33
813.821	-15.19
813.995	-12.19
814.169	-14.28
814.343	-12.78
814.516	-10.49
814.69	-10.07
814.864	-11.34
815.038	-9.15
815.212	-7.14
815.385	-9.88
815.559	-11.98
815.733	-11.28
815.907	-9.44
816.08	-10.41
816.254	-6.48
816.428	-7.48
816.601	-3.66
816.775	-3.23
816.948	-1.89
817.122	2.24
817.296	1.62
817.469	3.19
817.643	3.43
817.816	3.44
817.99	0.59
818.163	-0.21
818.337	-2.75
818.51	-0.52
818.684	0.72
818.857	1.94
819.031	3.24
819.204	2.73
819.377	1.84
819.551	1.07
819.724	2.62
819.897	-0.55
820.071	-0.07
820.244	-3.57
820.417	-2.72
820.591	-5.52
820.764	-6.4
820.937	-8.46
821.11	-13.11
821.284	-10.2
821.457	-4.42
821.63	-0.88
821.803	1.14
821.976	3.54
822.149	6.22
822.322	4.77
822.496	2.88
822.669	4.98
822.842	5.92
823.015	7.36
823.188	10.25
823.361	11.79
823.534	11.45
823.707	11.24
823.88	12.96
824.053	11.65
824.226	13.45
824.399	14.97
824.571	16
824.744	19.47
824.917	18.07
825.09	12.59
825.263	12.92
825.436	15.5
825.608	14.69
825.781	14.09
825.954	12.89
826.127	10.86
826.299	10.54
826.472	10.24
826.645	9.79
826.818	9.11
826.99	2.73
827.163	2.96
827.336	1.64
827.508	1.57
827.681	0.67
827.853	2.27
828.026	1.16
828.198	2.1
828.371	0.67
828.544	-1.71
828.716	1.56
828.889	-1.76
829.061	-9.23
829.233	-11.56
829.406	-13.74
829.578	-13.91
829.751	-10.6
829.923	-11.18
830.096	-13.25
830.268	-13.4
830.44	-12.91
830.613	-5.35
830.785	-3.56
830.957	-5.32
831.129	-2.28
831.302	0.03
831.474	1.26
831.646	3.9
831.818	1.5
831.991	2.2
832.163	2.41
832.335	3.81
832.507	6.13
832.679	7.84
832.851	8.48
833.023	6.8
833.195	5.11
833.368	0.79
833.54	0.08
833.712	1.4
833.884	5.23
834.056	4.82
834.228	2.81
834.4	4.37
834.571	8.61
834.743	3.89
834.915	3.52
835.087	0.49
835.259	-1.43
835.431	0.09
835.603	-0.35
835.775	-0.16
835.946	-4.57
836.118	-6.33
836.29	-6.98
836.462	-5.88
836.634	-2.01
836.805	-2.05
836.977	4.37
837.149	7.2
837.32	8.8
837.492	2.6
837.664	3.27
837.835	4.4
838.007	-0.24
838.179	-2.23
838.35	2.53
838.522	7.16
838.693	6.72
838.865	3.5
839.036	-2.15
839.208	1.28
839.379	4.07
839.551	4.36
839.722	4.6
839.894	6.35
840.065	3.86
840.237	2.49
840.408	5.34
840.579	5.05
840.751	-0.37
840.922	-2.49
841.093	0.64
841.265	-1.17
841.436	2.12
841.607	5.68
841.778	5.21
841.95	1.9
842.121	-1.34
842.292	-0.11
842.463	5.53
842.635	9.72
842.806	2.92
842.977	-2.97
843.148	-5.72
843.319	-5.22
843.49	-7.13
843.661	-11.93
843.832	-8.89
844.003	-11.42
844.174	-9.57
844.345	-2.54
844.516	-6.24
844.687	-6.79
844.858	-2.89
845.029	-12.36
845.2	-16.79
845.371	-15.69
845.542	-15.81
845.713	-19.41
845.884	-19.39
846.055	-25.38
846.225	-24.84
846.396	-21.72
846.567	-16.69
846.738	-14.22
846.909	-11.51
847.079	-9.9
847.25	-1.67
847.421	-5.32
847.591	-7.66
847.762	-14.04
847.933	-22.44
848.103	-10.42
848.274	-11.87
848.445	-8.86
848.615	-2.28
848.786	1.91
848.956	1.45
849.127	6.89
849.297	13.31
849.468	13.77
849.638	12.1
849.809	7.79
849.979	9.99
850.15	8.68
850.32	6.44
850.491	7.6
850.661	10.37
850.831	10.9
851.002	13.97
851.172	14.04
851.342	15.58
851.513	20.3
851.683	14.32
851.853	14.4
852.024	12.62
852.194	10.71
852.364	11.58
852.534	13.27
852.705	18.24
852.875	18.26
853.045	19.37
853.215	22.2
853.385	26.3
853.555	25.98
853.725	26.33
853.895	27.68
854.066	27.22
854.236	23.85
854.406	25.87
854.576	25.44
854.746	22.84
854.916	24.79
855.086	21.51
855.256	30.9
855.425	28.58
855.595	28.15
855.765	25.36
855.935	24.79
856.105	23.66
856.275	15.65
856.445	11.33
856.614	6.01
856.784	7.48
856.954	6.77
857.124	6.88
857.294	11.9
857.463	13.61
857.633	13.92
857.803	14.94
857.972	17.74
858.142	15.23
858.312	21.67
858.481	18.66
858.651	16.95
858.821	11.87
858.99	11.88
859.16	8.9
859.329	14.55
859.499	15.27
859.668	13.88
859.838	14.89
860.007	18.9
860.177	23.58
860.346	21.5
860.516	22.77
860.685	19.17
860.854	15.61
861.024	15.52
861.193	15.86
861.363	14.99
861.532	11.61
861.701	9.01
861.87	6.15
862.04	6.75
862.209	7.79
862.378	6.45
862.547	8.3
862.717	8.94
862.886	8.59
863.055	11.79
863.224	6.92
863.393	3.05
863.563	-4.37
863.732	0.4
863.901	0.19
864.07	0.86
864.239	6.02
864.408	6.19
864.577	0.79
864.746	2.43
864.915	3.21
865.084	5.34
865.253	6.46
865.422	10.97
865.591	10.67
865.76	7.7
865.929	6.83
866.097	4.45
866.266	0.76
866.435	-2.08
866.604	-3.92
866.773	7.04
866.942	4.85
867.11	9.93
867.279	8.33
867.448	3.79
867.617	4.96
867.785	0.81
867.954	-9
868.123	1.4
868.291	-8.28
868.46	-9.5
868.629	-16.4
868.797	-11.25
868.966	-34.76
869.134	-23.16
869.303	-9.41
869.472	-4.12
869.64	-5.12
869.809	0.82
869.977	5.77
870.146	-4.4
870.314	-10.51
870.482	-4.42
870.651	-10.93
870.819	-21.28
870.988	-17.13
871.156	-14.36
871.324	-23.28
871.493	-21.17
871.661	-13.34
871.829	-8.8
871.998	-5.37
872.166	-16.18
872.334	-26.6
872.502	-3.45
872.671	-6.29
872.839	7.14
873.007	5.2
873.175	6.35
873.343	-2.84
873.512	-9.41
873.68	-7.58
873.848	-0.43
874.016	0.3
874.184	5.95
874.352	11.83
874.52	15.82
874.688	12.73
874.856	19.78
875.024	23.16
875.192	16.96
875.36	10.86
875.528	6.6
875.696	21.25
875.864	23.63
876.032	16.59
876.199	12.09
876.367	1.39
876.535	3.16
876.703	6.58
876.871	19.68
877.039	30.54
877.206	40.62
877.374	31.13
877.542	35.22
877.71	35.43
877.877	39.95
878.045	39.04
878.213	42.35
878.38	38.94
878.548	39.27
878.715	44.18
878.883	52.27
879.051	56.71
879.218	44.12
879.386	41.95
879.553	39.55
879.721	38.18
879.888	30.17
880.056	36.32
880.223	28.36
880.391	15.68
880.558	17.76
880.726	21
880.893	25.66
881.06	27.04
881.228	10.96
881.395	6.8
881.562	19.03
881.73	-4.69
881.897	-5.94
882.064	4.52
882.231	0.56
882.399	-8.79
882.566	-11.98
882.733	-5.69
882.9	-25.09
883.068	-3.01
883.235	-0.75
883.402	22.51
883.569	22.03
883.736	43.71
883.903	45.91
884.07	40.09
884.237	35.3
884.404	33.27
884.571	30.11
884.738	45.67
884.905	47.06
885.072	42.78
885.239	50.33
885.406	58.05
