Data from Transmission_09-38-22-755.txt Node
Date: Fri Aug 24 09:38:22 EEST 2018
User: tibor.sos
Spectrometer: USB4F01757
Scans to average: 10
Trigger mode: 4
Integration Time (sec): 1.000000E-2
Electric dark correction enabled: true
Boxcar width: 10
XAxis mode: Wavelengths
Number of Pixels in Spectrum: 3648
>>>>>Begin Spectral Data<<<<<
178.758	99.38
178.974	135.11
179.191	240.79
179.407	162.73
179.624	103.52
179.84	84.8
180.057	62.36
180.273	59.52
180.489	63.95
180.706	52.31
180.922	56.2
181.138	56.64
181.355	43.38
181.571	39.35
181.787	74.25
182.004	102.68
182.22	120.86
182.436	111.1
182.653	103.52
182.869	66.2
183.085	91.02
183.301	70.3
183.518	73.35
183.734	69.6
183.95	75.8
184.166	88.85
184.383	109.77
184.599	123.86
184.815	113.07
185.031	116.8
185.247	128.31
185.463	128.76
185.68	121.06
185.896	158.85
186.112	199.94
186.328	181.29
186.544	163.82
186.76	170.97
186.976	162.57
187.192	157.21
187.408	212.39
187.624	230.91
187.84	182.87
188.056	160.43
188.272	142.29
188.488	133.52
188.704	131.39
188.92	134.67
189.136	124.92
189.352	133.08
189.568	143.59
189.784	164.58
190	180.14
190.216	176.86
190.432	172.13
190.648	190.04
190.864	384.23
191.08	362.93
191.296	181.14
191.511	158.53
191.727	215.39
191.943	181.75
192.159	127.56
192.375	155.68
192.591	250.37
192.806	374.12
193.022	258.53
193.238	493.8
193.454	401.15
193.669	516.12
193.885	549.17
194.101	794.91
194.317	379.81
194.532	1601.12
194.748	-1281.51
194.964	550.99
195.18	216.94
195.395	217.65
195.611	235.28
195.827	456.78
196.042	965.86
196.258	482.44
196.473	382.53
196.689	456.19
196.905	534.82
197.12	1098.02
197.336	354.8
197.551	-405.1
197.767	160100
197.982	401.21
198.198	3228.77
198.414	2558.43
198.629	497.23
198.845	374.88
199.06	454.94
199.276	283.44
199.491	811.35
199.707	268.57
199.922	179.24
200.137	171.38
200.353	162.49
200.568	139.42
200.784	144.84
200.999	147.04
201.215	210.2
201.43	208.07
201.645	183.38
201.861	203.4
202.076	168.54
202.291	197.34
202.507	229.37
202.722	142.14
202.937	250.84
203.153	242.91
203.368	232.27
203.583	147.85
203.798	192.24
204.014	204.21
204.229	230.18
204.444	256.46
204.659	521.51
204.875	851.4
205.09	-2031.09
205.305	4062.26
205.52	-1958.54
205.735	-1528.74
205.951	10196
206.166	-588.61
206.381	-455.93
206.596	-4649.09
206.811	-1270.76
207.026	-880.07
207.241	-222.18
207.457	878.82
207.672	1977.69
207.887	-1929.91
208.102	-368.48
208.317	-415.22
208.532	753.11
208.747	-680.33
208.962	-435.91
209.177	1163.09
209.392	447.66
209.607	230.55
209.822	317.36
210.037	230.93
210.252	277.25
210.467	426.55
210.682	257.26
210.897	219.19
211.112	316.56
211.326	235.72
211.541	259.72
211.756	115.46
211.971	147.16
212.186	137.47
212.401	127.66
212.616	117.28
212.831	96.64
213.045	194.6
213.26	122.47
213.475	147.98
213.69	111.14
213.905	156.84
214.119	317.19
214.334	-1292.59
214.549	-230.36
214.764	417.1
214.978	274.74
215.193	322.92
215.408	-1889.74
215.622	98.49
215.837	713.33
216.052	-217.24
216.266	-220
216.481	-156
216.696	-25.04
216.91	3142.42
217.125	422.19
217.34	663.73
217.554	850.27
217.769	-262.88
217.983	-68.27
218.198	-255.56
218.412	-392.6
218.627	391.31
218.842	290.21
219.056	184.65
219.271	138.93
219.485	227.5
219.7	234.92
219.914	228.67
220.129	428.7
220.343	256.85
220.558	162.45
220.772	186.91
220.986	230.07
221.201	359.96
221.415	-281.78
221.63	-39.82
221.844	-57.85
222.058	-29.56
222.273	-23.4
222.487	12.94
222.702	98.93
222.916	82.23
223.13	103.58
223.344	98.42
223.559	51.09
223.773	52.01
223.987	61.78
224.202	74.68
224.416	131.2
224.63	78.98
224.844	46.89
225.059	30.52
225.273	-126.26
225.487	-191.2
225.701	57.08
225.915	37.09
226.13	108.73
226.344	118.48
226.558	130.37
226.772	133.05
226.986	114.94
227.2	144.99
227.415	154.51
227.629	193.77
227.843	210.03
228.057	162.53
228.271	146.99
228.485	163.4
228.699	177.57
228.913	192.47
229.127	176.82
229.341	175.78
229.555	257.02
229.769	383.31
229.983	486.85
230.197	477.68
230.411	669.33
230.625	735.7
230.839	487.01
231.053	697.35
231.267	1388.89
231.481	1360.09
231.695	781.08
231.909	324.82
232.122	178.43
232.336	185.92
232.55	224.33
232.764	285.9
232.978	275.79
233.192	308.46
233.405	377.2
233.619	323.06
233.833	126.88
234.047	51.63
234.261	19.24
234.474	114.81
234.688	-132.56
234.902	-174.29
235.116	121.87
235.329	92.81
235.543	150.67
235.757	122.19
235.97	85.48
236.184	44.81
236.398	51.38
236.612	73.35
236.825	82.57
237.039	128.72
237.252	147.75
237.466	333.77
237.68	838.98
237.893	-42700
238.107	-214.62
238.32	569.57
238.534	82.73
238.748	120.53
238.961	51.4
239.175	41.55
239.388	-42.22
239.602	-12.61
239.815	51.55
240.029	88.16
240.242	54.72
240.456	33.4
240.669	-4.4
240.882	-25.37
241.096	-17.28
241.309	-54.58
241.523	-57.17
241.736	-44.62
241.95	403.91
242.163	-693.98
242.376	-262.91
242.59	-1090.4
242.803	2606.67
243.016	272.81
243.23	1081.51
243.443	7220
243.656	-1012.78
243.87	-155.12
244.083	-54.47
244.296	-72.82
244.509	-27.07
244.723	-31.56
244.936	-52.32
245.149	-71.64
245.362	-37.42
245.576	-6.33
245.789	23.03
246.002	24.45
246.215	31.79
246.428	42.83
246.641	72.38
246.855	107.78
247.068	144.69
247.281	62.78
247.494	71.87
247.707	106.52
247.92	131.6
248.133	119.07
248.346	147.01
248.559	127.12
248.772	122.85
248.985	71.25
249.198	69.8
249.411	87.24
249.624	77.62
249.837	80.72
250.05	94.21
250.263	92.42
250.476	86.6
250.689	72.77
250.902	66.67
251.115	52.07
251.328	62.01
251.541	54.3
251.754	57.31
251.967	57.47
252.18	41.47
252.393	35.1
252.605	32.99
252.818	29.2
253.031	14.22
253.244	23.79
253.457	30.79
253.67	18.82
253.882	30.29
254.095	43.79
254.308	39.5
254.521	27.46
254.733	32.43
254.946	28.73
255.159	27.34
255.372	34.61
255.584	34.25
255.797	25.9
256.01	12.75
256.222	11.47
256.435	-5.31
256.648	16.5
256.86	10.43
257.073	16.46
257.285	15.24
257.498	33.67
257.711	25.56
257.923	14.15
258.136	28.07
258.348	13.36
258.561	-14.03
258.773	-25.87
258.986	-27.34
259.198	-46.22
259.411	-75.32
259.623	-60.48
259.836	-53.43
260.048	-34.13
260.261	-2.43
260.473	-2.87
260.686	8.27
260.898	28.71
261.111	11.16
261.323	16.2
261.535	11.42
261.748	9.76
261.96	11.6
262.173	16.11
262.385	12.18
262.597	16.27
262.81	20.43
263.022	28.3
263.234	34.51
263.447	34.11
263.659	29.45
263.871	30.48
264.083	29.75
264.296	24.79
264.508	20.95
264.72	10.76
264.932	13.07
265.145	-0.18
265.357	-10.17
265.569	-10.07
265.781	-12.3
265.993	-23.25
266.205	-34.32
266.418	-57.93
266.63	-85.53
266.842	-66.76
267.054	-72.57
267.266	-58.22
267.478	-60.46
267.69	-37.01
267.902	-40.87
268.114	-42.61
268.326	-40.21
268.538	-33.2
268.75	-25.39
268.962	-19.84
269.174	-14.96
269.386	13.36
269.598	20.66
269.81	21.45
270.022	14.69
270.234	19.73
270.446	20.87
270.658	21.12
270.87	30.53
271.082	27.92
271.294	29.82
271.506	22.05
271.718	15.67
271.929	15.51
272.141	17.91
272.353	22.52
272.565	21.46
272.777	26.85
272.989	28.92
273.2	35.07
273.412	35.53
273.624	33.22
273.836	29.62
274.047	29.65
274.259	29.86
274.471	36.03
274.683	31.27
274.894	32.71
275.106	33.7
275.318	32.94
275.529	38.36
275.741	35.09
275.953	44.97
276.164	51.01
276.376	58.15
276.588	56.62
276.799	60.13
277.011	68.59
277.222	71.97
277.434	55.15
277.646	39.93
277.857	38.75
278.069	43.77
278.28	32.81
278.492	31.31
278.703	27.25
278.915	31.18
279.126	32.83
279.338	23.48
279.549	31.49
279.761	26.21
279.972	25.39
280.183	23.73
280.395	21.56
280.606	13.82
280.818	8.59
281.029	11.06
281.24	5.1
281.452	-3.28
281.663	-7.87
281.875	0.88
282.086	2.18
282.297	-5.2
282.508	-5.18
282.72	-5.68
282.931	-2.39
283.142	-0.46
283.354	-4.53
283.565	-8.1
283.776	3.88
283.987	-23.84
284.199	-28.7
284.41	-12.83
284.621	-9.02
284.832	-9.19
285.043	0.14
285.254	-6.05
285.466	-19.46
285.677	-5.74
285.888	-6.32
286.099	-10.77
286.31	-1.6
286.521	-7.79
286.732	-5.57
286.943	-2.43
287.154	6.8
287.366	9.85
287.577	11.62
287.788	5
287.999	10.95
288.21	2.27
288.421	15.2
288.632	18.61
288.843	19.57
289.054	21.63
289.264	17.86
289.475	16.35
289.686	22.11
289.897	20.21
290.108	19.99
290.319	23.68
290.53	31.36
290.741	28.66
290.952	29.68
291.163	33.62
291.373	35.45
291.584	43.76
291.795	38.08
292.006	39.96
292.217	40.99
292.427	40.9
292.638	49.51
292.849	49.6
293.06	53.67
293.27	47.72
293.481	50.06
293.692	53.36
293.903	55.76
294.113	55.22
294.324	55.66
294.535	49.95
294.745	43.03
294.956	47.22
295.167	37.68
295.377	45.99
295.588	44.66
295.798	44.74
296.009	30.95
296.22	35.45
296.43	30.51
296.641	30.14
296.851	24.2
297.062	11.66
297.272	7.62
297.483	5.05
297.693	9.52
297.904	5.72
298.114	13.79
298.325	10.26
298.535	4.27
298.746	6.43
298.956	10.75
299.167	14.37
299.377	11.07
299.587	19.18
299.798	12.34
300.008	9.92
300.219	5.72
300.429	8.34
300.639	4.81
300.85	12.39
301.06	10.79
301.27	21.88
301.481	26.58
301.691	29.46
301.901	31.37
302.111	25.16
302.322	29.68
302.532	21.1
302.742	22.24
302.952	26.1
303.163	26.79
303.373	27.08
303.583	28.55
303.793	26.41
304.003	23.88
304.214	26.48
304.424	24.08
304.634	18.24
304.844	16.99
305.054	19.89
305.264	15.23
305.474	18.62
305.684	11.08
305.894	15.73
306.104	17.34
306.314	11.92
306.525	17.54
306.735	14.14
306.945	17.72
307.155	16.17
307.365	16.36
307.575	20.51
307.784	20.37
307.994	19.31
308.204	15.79
308.414	17.87
308.624	12.51
308.834	16.68
309.044	27.04
309.254	29.06
309.464	28.85
309.674	30.34
309.884	30.99
310.093	33.23
310.303	28.44
310.513	29.47
310.723	31.99
310.933	30.52
311.142	29.09
311.352	30.25
311.562	36.53
311.772	38.19
311.981	30.24
312.191	28.36
312.401	29.96
312.611	34.32
312.82	30.45
313.03	34.23
313.24	34.69
313.449	34.56
313.659	31.43
313.869	28.15
314.078	22.86
314.288	20.3
314.497	15.3
314.707	20.45
314.917	19.27
315.126	23.77
315.336	20.74
315.545	17.56
315.755	18.85
315.964	15.13
316.174	14.04
316.383	15.95
316.593	18.43
316.802	17.06
317.012	14.27
317.221	19.37
317.431	17.14
317.64	16.28
317.849	9.59
318.059	11.84
318.268	16.87
318.478	26.24
318.687	22.7
318.896	23.52
319.106	21.93
319.315	19.42
319.524	7.13
319.734	3.14
319.943	7.83
320.152	9.03
320.362	4.97
320.571	1.81
320.78	3.04
320.989	5.61
321.199	4.83
321.408	8.53
321.617	5.4
321.826	8.07
322.035	2.05
322.245	6.68
322.454	10.72
322.663	10.64
322.872	-1.81
323.081	-0.73
323.29	-3.32
323.5	-8.36
323.709	-5.48
323.918	0.58
324.127	-3
324.336	-3.92
324.545	-7.49
324.754	1.05
324.963	-2.04
325.172	-1.52
325.381	-3.77
325.59	1.16
325.799	-4.1
326.008	-10.63
326.217	-6.76
326.426	7.71
326.635	5.79
326.844	1.53
327.053	11.68
327.262	19.18
327.47	13.76
327.679	15.93
327.888	16.39
328.097	16.85
328.306	18.07
328.515	25.27
328.724	28.94
328.932	28.82
329.141	25.32
329.35	26.57
329.559	29.18
329.768	28.8
329.976	21.82
330.185	22.69
330.394	24.54
330.602	17.14
330.811	6.21
331.02	7.41
331.229	7.19
331.437	6.7
331.646	2.72
331.855	10
332.063	12.88
332.272	18.2
332.48	19.18
332.689	14.99
332.898	14.64
333.106	8.25
333.315	13.14
333.523	10.81
333.732	10.82
333.94	11.99
334.149	9.5
334.357	18.67
334.566	20.1
334.774	25.79
334.983	36.01
335.191	35.68
335.4	25.51
335.608	29.58
335.817	18.42
336.025	26.69
336.234	27.47
336.442	33.43
336.65	25.24
336.859	24.9
337.067	28.29
337.275	39.61
337.484	34.78
337.692	27.55
337.9	38.37
338.109	43.07
338.317	33.69
338.525	39.51
338.734	29.85
338.942	23.01
339.15	21.24
339.358	16.74
339.567	24.98
339.775	29.89
339.983	20.35
340.191	20.33
340.399	24.88
340.608	28.16
340.816	20.97
341.024	25.27
341.232	19.05
341.44	23.8
341.648	17.56
341.856	22.58
342.064	24.97
342.272	21.02
342.481	18.62
342.689	27.01
342.897	29.41
343.105	28.88
343.313	37.47
343.521	38.04
343.729	29.09
343.937	25.01
344.145	25.52
344.353	29.96
344.56	26.19
344.768	21.5
344.976	14.81
345.184	16.25
345.392	15.28
345.6	20
345.808	22.98
346.016	27.19
346.224	29.29
346.431	32.67
346.639	30.6
346.847	29.55
347.055	30.76
347.263	28.47
347.471	25.53
347.678	13.8
347.886	8.56
348.094	21.38
348.302	30.85
348.509	28.44
348.717	22.02
348.925	28.69
349.132	34.11
349.34	35.37
349.548	36.62
349.755	34.76
349.963	24.49
350.171	14.12
350.378	18.59
350.586	12.73
350.793	7.68
351.001	3.92
351.209	8.04
351.416	7.65
351.624	5.94
351.831	1.75
352.039	4.58
352.246	-4.44
352.454	-11.74
352.661	-15.95
352.869	-17
353.076	-21.89
353.284	-12.58
353.491	-3.18
353.699	-6.31
353.906	-8.35
354.113	1.35
354.321	5.91
354.528	9.54
354.736	-2.25
354.943	-1.37
355.15	-1.66
355.358	-6.21
355.565	-5.84
355.772	-3.89
355.98	3.44
356.187	6.08
356.394	-0.7
356.601	10.71
356.809	20.48
357.016	27.32
357.223	30.93
357.43	31.94
357.638	27.43
357.845	22.87
358.052	22.39
358.259	24.14
358.466	21.3
358.673	28.67
358.881	29.64
359.088	29.08
359.295	35.01
359.502	31.97
359.709	28.41
359.916	25.22
360.123	24.47
360.33	11.31
360.537	16.83
360.744	26.35
360.951	18
361.158	14.6
361.365	8.84
361.572	10.39
361.779	17
361.986	22
362.193	23.67
362.4	22.91
362.607	15.31
362.814	16.02
363.021	12.52
363.228	11.85
363.435	14.2
363.641	7.1
363.848	8.44
364.055	15.73
364.262	20.81
364.469	15.35
364.676	18.23
364.882	21.16
365.089	17.34
365.296	17.81
365.503	18.7
365.709	10.58
365.916	10.44
366.123	9.65
366.33	11.29
366.536	9.51
366.743	7.62
366.95	8.56
367.156	8.25
367.363	10.75
367.57	8.31
367.776	10.86
367.983	11.98
368.19	13.21
368.396	13.69
368.603	7.08
368.809	16.78
369.016	20.22
369.222	19.81
369.429	22.51
369.635	26.85
369.842	20.87
370.048	31.8
370.255	30.57
370.461	33.05
370.668	25.41
370.874	25.32
371.081	31.45
371.287	34.36
371.494	27.82
371.7	21.09
371.906	20.92
372.113	19.09
372.319	19.83
372.526	23.01
372.732	19.75
372.938	17.85
373.145	10.1
373.351	10.72
373.557	8.96
373.763	3.56
373.97	5.6
374.176	15.57
374.382	11.57
374.588	9.94
374.795	12.09
375.001	13.67
375.207	12.38
375.413	12.01
375.62	15.9
375.826	27.32
376.032	32.18
376.238	29.69
376.444	27.66
376.65	24.94
376.856	18.56
377.062	21.59
377.269	24.64
377.475	24.09
377.681	17.38
377.887	16.09
378.093	11.07
378.299	14.34
378.505	8.57
378.711	10.81
378.917	13.28
379.123	12.26
379.329	17.1
379.535	22.02
379.741	17.32
379.947	14.25
380.152	14.5
380.358	13.1
380.564	13.74
380.77	12.98
380.976	17.26
381.182	17.44
381.388	22.55
381.594	28.06
381.799	24.91
382.005	33.45
382.211	36.05
382.417	40.34
382.623	32.74
382.828	36.38
383.034	37.39
383.24	39.88
383.445	36.75
383.651	33.6
383.857	25.52
384.063	31.28
384.268	27.43
384.474	29.93
384.68	32.51
384.885	39.41
385.091	43.12
385.296	42.35
385.502	48.65
385.708	47.68
385.913	46.08
386.119	52.11
386.324	52.55
386.53	60.83
386.735	61.44
386.941	71.01
387.146	61.88
387.352	55.01
387.557	51
387.763	54.33
387.968	49.05
388.174	50.93
388.379	52.92
388.585	54.08
388.79	49.52
388.996	44.84
389.201	51.09
389.406	39
389.612	27.7
389.817	31.35
390.022	25.08
390.228	26.07
390.433	25.03
390.638	15.88
390.844	11.96
391.049	12.58
391.254	11.97
391.459	13.72
391.665	7.07
391.87	-0.68
392.075	5.83
392.28	9.25
392.485	0.97
392.691	-6.93
392.896	-6.29
393.101	-1.7
393.306	10.44
393.511	2.9
393.716	6.06
393.922	8.86
394.127	-2.42
394.332	6.52
394.537	10.43
394.742	10.65
394.947	16.02
395.152	15.08
395.357	17.16
395.562	17.88
395.767	12.63
395.972	17.5
396.177	20.14
396.382	22.81
396.587	21.62
396.792	24.21
396.997	33.97
397.202	35.07
397.407	29.21
397.611	25.44
397.816	26.35
398.021	25.32
398.226	27.18
398.431	32.32
398.636	25.14
398.841	26.52
399.045	30.38
399.25	27.74
399.455	27.69
399.66	24.03
399.864	17.31
400.069	11.86
400.274	14.66
400.479	16.96
400.683	12.44
400.888	11.66
401.093	4.65
401.297	2.36
401.502	1.79
401.707	3.88
401.911	3.21
402.116	5.4
402.321	20.34
402.525	22.33
402.73	18.88
402.934	20.7
403.139	13.84
403.344	14.19
403.548	13.57
403.753	15.57
403.957	14.43
404.162	12.73
404.366	30.29
404.571	22.8
404.775	27.88
404.98	27.67
405.184	39.81
405.388	43.19
405.593	40.92
405.797	27.23
406.002	30.33
406.206	24.61
406.41	29.48
406.615	30.55
406.819	27.96
407.023	34.73
407.228	31.2
407.432	31.53
407.636	20.99
407.841	31.19
408.045	32.25
408.249	30.41
408.453	32.42
408.658	28.39
408.862	38.04
409.066	38.67
409.27	38.37
409.474	35.54
409.679	36.76
409.883	22.08
410.087	28.51
410.291	28.65
410.495	29.24
410.699	7.51
410.903	0.74
411.108	3.77
411.312	-9.85
411.516	-14.59
411.72	-7.22
411.924	3.29
412.128	-13.35
412.332	-19.47
412.536	-2.65
412.74	1.38
412.944	2.6
413.148	-9.91
413.352	-22.76
413.556	-22.57
413.76	-32.33
413.964	-23.9
414.167	4.07
414.371	9.29
414.575	5.7
414.779	4.9
414.983	20.17
415.187	20.73
415.391	17.51
415.594	33.23
415.798	31.62
416.002	32.9
416.206	42.23
416.41	50.4
416.613	52.13
416.817	38.48
417.021	38.2
417.225	40.04
417.428	38.06
417.632	40.8
417.836	43.87
418.039	52.54
418.243	46.04
418.447	25.61
418.65	30.88
418.854	33.79
419.057	29.34
419.261	19.04
419.465	19.86
419.668	27.4
419.872	11.91
420.075	23.32
420.279	20.43
420.482	11.43
420.686	16.69
420.889	27.7
421.093	37.15
421.296	31.85
421.5	28.66
421.703	30.59
421.907	36.04
422.11	33.97
422.314	29.45
422.517	21.34
422.72	34.71
422.924	31.42
423.127	37.67
423.33	42.02
423.534	39.54
423.737	29.22
423.94	25.27
424.144	36.35
424.347	29.95
424.55	25.83
424.754	33.03
424.957	27.24
425.16	21.76
425.363	19.71
425.567	26.37
425.77	24.55
425.973	28.54
426.176	23.59
426.379	24.79
426.582	31.59
426.786	41.66
426.989	41.86
427.192	48.16
427.395	49.84
427.598	49.87
427.801	53.37
428.004	49.88
428.207	53.31
428.41	46.15
428.613	52.01
428.816	52.92
429.019	51.74
429.222	47.49
429.425	45.54
429.628	43.06
429.831	41.32
430.034	42.69
430.237	35.27
430.44	33.42
430.643	27.21
430.846	27.28
431.049	23.68
431.252	22.14
431.454	16.23
431.657	8.21
431.86	7.01
432.063	4.44
432.266	12.39
432.469	7.11
432.671	11.24
432.874	12.75
433.077	5.43
433.28	9.04
433.482	16.5
433.685	9.94
433.888	3.83
434.09	-0.87
434.293	-9.54
434.496	-1.41
434.698	-1.75
434.901	15.53
435.104	13.69
435.306	17.24
435.509	13
435.712	21.14
435.914	6.92
436.117	12.88
436.319	24.03
436.522	19.11
436.724	21
436.927	19.46
437.129	12.54
437.332	19.72
437.534	11.51
437.737	-4.37
437.939	10.71
438.142	12.77
438.344	24.63
438.547	34.18
438.749	41.84
438.951	40.47
439.154	34.11
439.356	31.77
439.558	41.24
439.761	48.24
439.963	37.32
440.165	40.21
440.368	37.9
440.57	25.3
440.772	33.35
440.975	23.65
441.177	31.74
441.379	42.51
441.581	36.59
441.784	35.3
441.986	49.15
442.188	35.9
442.39	42.58
442.592	32.07
442.795	38.62
442.997	32.5
443.199	29.22
443.401	35.6
443.603	34.23
443.805	24.13
444.007	29.82
444.209	31.41
444.411	38.73
444.613	39.59
444.815	42.87
445.017	38.67
445.219	42.09
445.421	40.33
445.623	33.49
445.825	34.44
446.027	29.4
446.229	20.37
446.431	35.57
446.633	23.69
446.835	25.36
447.037	13.13
447.239	11.98
447.441	14.47
447.643	10.53
447.844	1.02
448.046	10.68
448.248	5.62
448.45	10.09
448.652	1.94
448.853	14.37
449.055	14.87
449.257	17.01
449.459	11.85
449.66	6.01
449.862	12.47
450.064	21.81
450.266	26.38
450.467	24.32
450.669	21.55
450.871	42.11
451.072	50.82
451.274	58.7
451.475	52.3
451.677	51.69
451.879	43.96
452.08	46.81
452.282	44.28
452.483	50.06
452.685	49.05
452.886	54.23
453.088	35.65
453.289	26.5
453.491	21.86
453.692	7.17
453.894	24.82
454.095	30.99
454.297	30.04
454.498	37.23
454.7	50.06
454.901	45.84
455.102	29.78
455.304	30.96
455.505	22.01
455.706	22.48
455.908	22.19
456.109	28.23
456.31	33.73
456.512	30.16
456.713	30.33
456.914	24.59
457.116	9.19
457.317	14.93
457.518	14.54
457.719	15.87
457.921	21.68
458.122	10.38
458.323	4.98
458.524	6.89
458.725	2.83
458.926	0.89
459.128	0.86
459.329	-2.36
459.53	-14.46
459.731	-9.98
459.932	-13.91
460.133	-12.54
460.334	-7.29
460.535	-1.04
460.736	2.72
460.937	-8.8
461.138	-10.53
461.339	4.71
461.54	10.41
461.741	10.18
461.942	19
462.143	24.06
462.344	25.74
462.545	27.32
462.746	25.2
462.947	28.22
463.148	15.84
463.348	16.85
463.549	16.24
463.75	20.76
463.951	28.58
464.152	28.07
464.353	35.26
464.553	40.71
464.754	33.94
464.955	31.56
465.156	34.27
465.356	35.08
465.557	33.51
465.758	27.52
465.959	32.6
466.159	24.39
466.36	23.8
466.561	28.56
466.761	29.52
466.962	29.21
467.163	35.38
467.363	35.12
467.564	38.45
467.764	41.45
467.965	36.59
468.166	33.55
468.366	38.51
468.567	34.55
468.767	33.34
468.968	37.72
469.168	38.89
469.369	46.05
469.569	42.17
469.77	37.6
469.97	34.09
470.17	35.73
470.371	36.19
470.571	40.72
470.772	43.33
470.972	45.72
471.172	48.92
471.373	43.53
471.573	45.23
471.773	44.94
471.974	45.59
472.174	45.08
472.374	42.28
472.575	40.45
472.775	40.39
472.975	26.99
473.175	27.92
473.376	22.94
473.576	16.17
473.776	24.34
473.976	27.53
474.177	44.1
474.377	39.7
474.577	40.81
474.777	30.77
474.977	26.14
475.177	19.87
475.377	16.73
475.577	21.34
475.777	26.35
475.978	25.16
476.178	21.51
476.378	22.48
476.578	29.85
476.778	29.08
476.978	29.72
477.178	36.31
477.378	33.36
477.578	38.2
477.778	37.58
477.977	29.55
478.177	27.84
478.377	15.89
478.577	19.12
478.777	25.69
478.977	29.91
479.177	25.23
479.377	29.35
479.577	26.83
479.776	25.29
479.976	21.36
480.176	19.55
480.376	24.82
480.576	24.93
480.775	13.62
480.975	11.49
481.175	6.94
481.374	7.53
481.574	10.54
481.774	14.12
481.974	20.13
482.173	21.94
482.373	21.82
482.572	23.58
482.772	23.92
482.972	19.24
483.171	19.69
483.371	29.95
483.57	28.12
483.77	32.12
483.97	27.55
484.169	26.71
484.369	26
484.568	25.04
484.768	25.98
484.967	30.87
485.167	31.47
485.366	34.43
485.566	30.87
485.765	29.7
485.964	24
486.164	16.99
486.363	20.05
486.563	18.53
486.762	22.58
486.961	20.67
487.161	20.75
487.36	18.53
487.559	10.17
487.759	7.16
487.958	5
488.157	2.62
488.356	4.35
488.556	7.79
488.755	4.67
488.954	6.46
489.153	1.97
489.353	3.33
489.552	-0.34
489.751	0.05
489.95	1.82
490.149	-4.59
490.348	4.98
490.548	0.16
490.747	2.13
490.946	0.47
491.145	0.44
491.344	1.5
491.543	5.6
491.742	10
491.941	11.87
492.14	4.66
492.339	8.75
492.538	11.36
492.737	9.74
492.936	12.92
493.135	12.32
493.334	13.29
493.533	11.62
493.732	18.66
493.931	23.92
494.13	21.27
494.328	25.75
494.527	22.87
494.726	24.03
494.925	19.71
495.124	22.28
495.323	23.86
495.521	21.29
495.72	16.74
495.919	14.45
496.118	16.86
496.316	18.5
496.515	17.51
496.714	12.48
496.913	14.03
497.111	8.92
497.31	5
497.509	2.07
497.707	4.13
497.906	1.9
498.105	-5.09
498.303	-7.37
498.502	-7.59
498.7	-8.67
498.899	-9.23
499.097	-8.09
499.296	-11.3
499.495	-10.84
499.693	-9.62
499.892	-10.09
500.09	-10.53
500.289	-6.01
500.487	-4.76
500.686	-1.69
500.884	0.42
501.082	-1.97
501.281	4.27
501.479	9.78
501.678	18.26
501.876	16.54
502.074	15.04
502.273	15.63
502.471	17.13
502.669	16.93
502.868	20.65
503.066	27.56
503.264	30.08
503.463	27.17
503.661	20.76
503.859	21.91
504.057	24.46
504.256	22.9
504.454	21.99
504.652	24.68
504.85	25.3
505.048	26.52
505.246	25.6
505.445	22.07
505.643	21.75
505.841	15.93
506.039	13.85
506.237	14.86
506.435	16.68
506.633	17.76
506.831	24.18
507.029	22.11
507.227	19.12
507.425	19.04
507.623	21.77
507.821	22.22
508.019	23.58
508.217	21.97
508.415	21.63
508.613	20.33
508.811	19.09
509.009	14.77
509.207	15.71
509.405	13.83
509.603	13.98
509.8	9.26
509.998	8.79
510.196	12.25
510.394	8.89
510.592	8.55
510.79	11.12
510.987	5.87
511.185	11.06
511.383	9.63
511.581	7.78
511.778	6.51
511.976	11.39
512.174	6.29
512.371	0.13
512.569	2.99
512.767	4.79
512.964	1.94
513.162	1.27
513.36	0.12
513.557	1.73
513.755	2.59
513.952	8.49
514.15	6.76
514.348	8.37
514.545	12.11
514.743	18.55
514.94	19.86
515.138	19.71
515.335	14.98
515.533	14.96
515.73	15.66
515.927	17.04
516.125	13.88
516.322	14.39
516.52	23.56
516.717	23.04
516.915	18.85
517.112	18.16
517.309	21.63
517.507	21.82
517.704	21.78
517.901	18.49
518.099	18.07
518.296	23.85
518.493	21.23
518.69	21.35
518.888	17.03
519.085	15.23
519.282	14.11
519.479	13.93
519.676	10.3
519.874	5.27
520.071	0.81
520.268	3.98
520.465	8.19
520.662	8.66
520.859	9.1
521.056	10.03
521.254	15.23
521.451	15.39
521.648	15.13
521.845	15.37
522.042	19.76
522.239	19.64
522.436	14.26
522.633	15.49
522.83	13.66
523.027	10.03
523.224	11.03
523.421	13.55
523.618	13.89
523.815	19.31
524.011	21.7
524.208	26.93
524.405	26.36
524.602	22.4
524.799	15.24
524.996	9.51
525.193	10.33
525.389	4.56
525.586	0.52
525.783	-1.2
525.98	2.47
526.176	2.51
526.373	-0.41
526.57	4.68
526.767	3.7
526.963	3.54
527.16	12.37
527.357	10.51
527.553	9.63
527.75	11.3
527.947	4.07
528.143	4.33
528.34	1.99
528.537	-0.03
528.733	6.12
528.93	11.03
529.126	19.91
529.323	18.05
529.519	21.83
529.716	18.83
529.912	21.07
530.109	15.21
530.305	12.83
530.502	14.86
530.698	8.73
530.895	4.89
531.091	6.22
531.288	1.96
531.484	0.7
531.68	2.97
531.877	4.34
532.073	8.74
532.269	9.46
532.466	12.03
532.662	13.46
532.858	9.51
533.055	10.22
533.251	6.79
533.447	8.89
533.643	11.77
533.84	12.97
534.036	10.99
534.232	14.89
534.428	14.26
534.624	12.86
534.821	15.38
535.017	21.92
535.213	22.26
535.409	21.7
535.605	23.26
535.801	19.9
535.997	17.9
536.193	16.18
536.389	16.56
536.586	14.58
536.782	15.51
536.978	15.77
537.174	13.78
537.37	16.49
537.566	16.07
537.762	9.73
537.958	14.08
538.153	13.23
538.349	11.59
538.545	13.75
538.741	16.99
538.937	16.26
539.133	9.75
539.329	11.32
539.525	14.09
539.721	12.16
539.916	15.54
540.112	13.41
540.308	14.57
540.504	15.71
540.699	17.84
540.895	16.64
541.091	20.45
541.287	20.7
541.482	19.46
541.678	19.65
541.874	23.4
542.069	21.26
542.265	26.07
542.461	27.92
542.656	25.82
542.852	21.69
543.048	21.78
543.243	26.4
543.439	25.69
543.634	24.85
543.83	25.53
544.025	25.35
544.221	26.71
544.417	28.35
544.612	29.56
544.807	27.54
545.003	24.81
545.198	22.33
545.394	24.19
545.589	24.61
545.785	24.06
545.98	23.25
546.176	22.81
546.371	16.75
546.566	13.98
546.762	13.42
546.957	13.9
547.152	12.6
547.348	11.02
547.543	13.14
547.738	12.03
547.933	11.67
548.129	11.84
548.324	10.45
548.519	6.85
548.714	3.07
548.91	3.87
549.105	4.71
549.3	5.12
549.495	6.34
549.69	7.22
549.885	7.99
550.08	9.04
550.276	11.36
550.471	18.77
550.666	21.31
550.861	24.23
551.056	26.14
551.251	28.98
551.446	29.81
551.641	24.68
551.836	25.99
552.031	25.45
552.226	22.62
552.421	23.89
552.616	24.66
552.811	26.08
553.006	24.25
553.201	22.37
553.395	22.85
553.59	20.8
553.785	16.75
553.98	16.66
554.175	14.82
554.37	14.92
554.565	13.54
554.759	11.83
554.954	10.7
555.149	9.05
555.344	8.88
555.538	7.2
555.733	9.54
555.928	10.26
556.122	10.65
556.317	10.15
556.512	10.87
556.706	10.09
556.901	10.51
557.096	11.84
557.29	14.97
557.485	14.48
557.68	13.43
557.874	14.6
558.069	13.32
558.263	15.53
558.458	14.02
558.652	12.25
558.847	10.64
559.041	11.85
559.236	11.22
559.43	11.03
559.625	9.69
559.819	8.05
560.014	5.74
560.208	4.59
560.402	6.11
560.597	3.58
560.791	3.68
560.986	4.27
561.18	2.83
561.374	2.8
561.569	1.89
561.763	3.73
561.957	4.61
562.151	4.37
562.346	5.71
562.54	8.43
562.734	7.08
562.928	6.35
563.123	7.8
563.317	9.28
563.511	10.87
563.705	9.2
563.899	11.5
564.093	11.27
564.288	13.45
564.482	12.87
564.676	16.19
564.87	18.58
565.064	16.69
565.258	17.6
565.452	17.4
565.646	17.79
565.84	13.93
566.034	13.79
566.228	13.9
566.422	11.59
566.616	8.95
566.81	10.78
567.004	12.88
567.198	11.93
567.392	10.5
567.586	7.24
567.779	10.02
567.973	7.73
568.167	9.36
568.361	8.39
568.555	9.08
568.749	7.29
568.942	5.85
569.136	8.9
569.33	8.12
569.524	6.88
569.718	9.77
569.911	14.39
570.105	14.18
570.299	14.1
570.492	14.08
570.686	15.59
570.88	14.77
571.073	13.25
571.267	12.12
571.461	12.88
571.654	14.72
571.848	14.04
572.041	15.93
572.235	15.88
572.429	16.7
572.622	15.39
572.816	15.18
573.009	14.93
573.203	12.56
573.396	14.13
573.59	13.99
573.783	10.56
573.976	6.61
574.17	6.66
574.363	6.48
574.557	5.46
574.75	3.97
574.943	6.56
575.137	9.11
575.33	9.19
575.523	8.12
575.717	5.55
575.91	5.13
576.103	3.79
576.297	2.12
576.49	1.33
576.683	2.69
576.876	1.86
577.07	-0.32
577.263	1.53
577.456	1.56
577.649	2.1
577.842	3.19
578.036	6.23
578.229	5.71
578.422	5.62
578.615	5.33
578.808	5.04
579.001	3.9
579.194	2.76
579.387	3.88
579.58	4.42
579.773	3.8
579.966	4.62
580.159	5
580.352	7.6
580.545	8.36
580.738	7.06
580.931	6.31
581.124	8.29
581.317	5.34
581.51	3.96
581.703	4.26
581.896	4.23
582.088	3.38
582.281	4.84
582.474	6.06
582.667	8.36
582.86	8.65
583.053	7.59
583.245	8.06
583.438	7.25
583.631	8.77
583.824	10.65
584.016	10.9
584.209	8.38
584.402	7
584.594	7.79
584.787	9.33
584.98	9.33
585.172	10.86
585.365	11.07
585.558	11.18
585.75	11.42
585.943	11.61
586.135	9.75
586.328	8.78
586.52	9.88
586.713	8.42
586.906	7.6
587.098	7.65
587.291	9.28
587.483	7.52
587.675	8.28
587.868	8.76
588.06	8.52
588.253	12.24
588.445	13.46
588.638	11.52
588.83	10.63
589.022	12.18
589.215	10.61
589.407	12.09
589.599	14.04
589.792	14.78
589.984	16.31
590.176	16.65
590.368	18.11
590.561	16.49
590.753	18.52
590.945	20.38
591.137	18.6
591.33	17.75
591.522	18.86
591.714	16.84
591.906	18.64
592.098	18.46
592.29	16.78
592.482	17.06
592.674	18.62
592.867	18.1
593.059	17.78
593.251	17.94
593.443	18.02
593.635	16.06
593.827	14.6
594.019	12.21
594.211	12.95
594.403	12.55
594.595	14.32
594.787	12.61
594.979	11.79
595.17	13.34
595.362	12.92
595.554	12.5
595.746	12.32
595.938	10.33
596.13	9.57
596.322	9.94
596.513	7.03
596.705	6.34
596.897	6.77
597.089	7.95
597.281	7.46
597.472	7.08
597.664	7.81
597.856	9.33
598.048	10.64
598.239	10.27
598.431	8.64
598.623	5.55
598.814	4.18
599.006	5.15
599.197	5.84
599.389	5.82
599.581	5.34
599.772	6.36
599.964	7.3
600.155	6.97
600.347	6.35
600.538	5.35
600.73	6.32
600.921	6.54
601.113	6.41
601.304	6.17
601.496	7.2
601.687	7.56
601.879	5.97
602.07	5.82
602.262	6.79
602.453	6.3
602.644	6.88
602.836	7.34
603.027	6.61
603.218	5.89
603.41	5.54
603.601	5.72
603.792	4.2
603.983	3.64
604.175	4.13
604.366	4.54
604.557	7.02
604.748	5.71
604.94	6.14
605.131	4.27
605.322	5.47
605.513	5.14
605.704	4.67
605.895	6.36
606.086	4.89
606.278	5.24
606.469	7.23
606.66	9.38
606.851	8.9
607.042	7.16
607.233	7.8
607.424	7.53
607.615	8.81
607.806	9.03
607.997	9.47
608.188	11.28
608.379	11.41
608.57	11.46
608.761	12.69
608.952	12.72
609.142	13.82
609.333	14.22
609.524	14.32
609.715	14.6
609.906	13.17
610.097	15.39
610.287	12.79
610.478	12.47
610.669	11.77
610.86	12.15
611.051	14.68
611.241	14.75
611.432	14.34
611.623	14.76
611.813	14.54
612.004	14.24
612.195	14.32
612.385	13.15
612.576	13.06
612.767	11.59
612.957	11.31
613.148	11.22
613.338	9.64
613.529	9.82
613.72	10.34
613.91	10.41
614.101	8.66
614.291	10.33
614.482	10.72
614.672	10.13
614.863	11.19
615.053	8.84
615.243	8.84
615.434	9.51
615.624	8.4
615.815	8.57
616.005	6.9
616.195	4.27
616.386	3.74
616.576	4.97
616.766	6.5
616.957	7.04
617.147	7.15
617.337	6.57
617.528	5.95
617.718	5.62
617.908	5.63
618.098	6.72
618.289	8.33
618.479	7.31
618.669	7.15
618.859	7.31
619.049	8.96
619.239	9.25
619.43	8.66
619.62	7.52
619.81	8.91
620	9.69
620.19	10.28
620.38	11.7
620.57	10.58
620.76	8.22
620.95	7.83
621.14	8.62
621.33	9.86
621.52	9.5
621.71	7.49
621.9	8.46
622.09	7.48
622.28	5.65
622.47	6.9
622.659	6.1
622.849	5.32
623.039	5.55
623.229	5.03
623.419	6.15
623.609	7.55
623.799	6.14
623.988	5.27
624.178	6.11
624.368	4.87
624.558	5.16
624.747	6.45
624.937	6.62
625.127	3.41
625.316	2.76
625.506	3.65
625.696	5.55
625.885	4.6
626.075	5.05
626.265	7.1
626.454	7.51
626.644	8.44
626.833	8.33
627.023	8.22
627.212	8.2
627.402	9.5
627.591	9.7
627.781	9.6
627.97	11.91
628.16	11.5
628.349	11.33
628.539	10.17
628.728	9.96
628.918	10.75
629.107	12.76
629.296	12.06
629.486	11.14
629.675	11.97
629.865	11.87
630.054	12.58
630.243	10.41
630.432	10.44
630.622	10.94
630.811	12.83
631	12.04
631.19	12.32
631.379	9.7
631.568	8.84
631.757	9.88
631.946	8.88
632.136	8.94
632.325	7.11
632.514	8.17
632.703	7.93
632.892	4.91
633.081	5.1
633.27	5.84
633.459	7.44
633.648	6.68
633.837	7.96
634.026	7.69
634.215	8.65
634.404	7.37
634.593	7.93
634.782	7.15
634.971	7.07
635.16	5.06
635.349	5.97
635.538	6.81
635.727	5.25
635.916	3.67
636.105	4.97
636.294	8.23
636.482	8.11
636.671	9.05
636.86	11.96
637.049	11.12
637.238	11.09
637.426	10.58
637.615	9.15
637.804	8.64
637.993	9.4
638.181	9.87
638.37	10.38
638.559	9.6
638.747	9.98
638.936	10.66
639.125	12.15
639.313	11.82
639.502	11.17
639.691	12.6
639.879	13.19
640.068	12.22
640.256	10.92
640.445	10.74
640.633	11.14
640.822	10.27
641.01	11.73
641.199	13.93
641.387	14.29
641.576	15.41
641.764	17.58
641.953	15.75
642.141	15.13
642.329	15.54
642.518	15.65
642.706	14.17
642.894	13.5
643.083	13.79
643.271	13.6
643.459	12.98
643.648	13.7
643.836	13.13
644.024	13.05
644.213	13.25
644.401	12.56
644.589	10.67
644.777	11.77
644.965	11.77
645.154	10.86
645.342	9.94
645.53	10.32
645.718	8.25
645.906	9.25
646.094	9.55
646.282	8.7
646.47	8.8
646.658	9.03
646.846	7.91
647.034	8.27
647.223	9.08
647.411	12.14
647.599	9.82
647.786	9.98
647.974	10.78
648.162	9.96
648.35	9.49
648.538	10.59
648.726	9.59
648.914	8
649.102	8.55
649.29	8.85
649.478	7.59
649.665	8.35
649.853	8.21
650.041	7.6
650.229	8.34
650.417	7.4
650.604	6.84
650.792	9.79
650.98	9.36
651.168	8.92
651.355	7.38
651.543	7.49
651.731	8.31
651.918	6.76
652.106	8.1
652.294	8.87
652.481	9.69
652.669	9.31
652.856	10.91
653.044	10.58
653.231	8.63
653.419	8.08
653.606	7.84
653.794	7.75
653.981	8.23
654.169	7.1
654.356	6.34
654.544	6.68
654.731	4.68
654.919	4.74
655.106	4.73
655.294	4.96
655.481	6.81
655.668	7.5
655.856	6.8
656.043	5.96
656.23	5.37
656.418	5.37
656.605	5.72
656.792	5.78
656.979	5
657.167	6.83
657.354	8.65
657.541	7.6
657.728	7.96
657.916	6.33
658.103	6.36
658.29	7.65
658.477	8.35
658.664	9.55
658.851	8.45
659.038	8.3
659.225	7.82
659.412	7.72
659.6	6.51
659.787	9.2
659.974	9.33
660.161	10.71
660.348	8.82
660.535	10.93
660.722	9.41
660.909	8.07
661.095	8.54
661.282	7.68
661.469	8.66
661.656	7.68
661.843	9.8
662.03	9.2
662.217	9.86
662.404	9.91
662.59	8.76
662.777	10.55
662.964	11.05
663.151	10.73
663.338	10.58
663.524	11.6
663.711	8.2
663.898	8.67
664.085	7.63
664.271	7.91
664.458	5.22
664.645	4.85
664.831	7.04
665.018	6.02
665.204	6.86
665.391	6.19
665.578	6.76
665.764	5.42
665.951	5.64
666.137	5.85
666.324	5.91
666.51	5.54
666.697	3.09
666.883	3
667.07	2.92
667.256	2.99
667.443	1.62
667.629	3.39
667.816	2.32
668.002	3.79
668.188	4.45
668.375	5.82
668.561	5.35
668.747	3.66
668.934	3.72
669.12	3.08
669.306	3.82
669.493	3.74
669.679	5.29
669.865	4.79
670.051	2.88
670.238	2.03
670.424	1.22
670.61	1.48
670.796	3.71
670.982	2.54
671.169	1.34
671.355	0.49
671.541	1
671.727	2.41
671.913	0.72
672.099	0.49
672.285	-1.75
672.471	-0.45
672.657	0.41
672.843	1.94
673.029	1.71
673.215	1.21
673.401	2.63
673.587	0.74
673.773	3
673.959	4.71
674.145	4.88
674.331	6.18
674.517	6.67
674.703	4.55
674.888	5.32
675.074	4.75
675.26	6.75
675.446	6.37
675.632	6.29
675.817	8.33
676.003	9.15
676.189	10.73
676.375	11.16
676.56	10.73
676.746	9.93
676.932	8.68
677.117	8.03
677.303	7.2
677.489	6.7
677.674	4.91
677.86	4.14
678.046	4.47
678.231	4
678.417	4.52
678.602	4.2
678.788	4.57
678.973	5.83
679.159	5.38
679.344	4.32
679.53	4.87
679.715	2.65
679.901	2.48
680.086	3.18
680.272	2.52
680.457	2.85
680.643	3.69
680.828	5.09
681.013	4.4
681.199	2.88
681.384	3.52
681.569	4.08
681.755	4.93
681.94	5.25
682.125	4.46
682.31	5.85
682.496	4.84
682.681	5.2
682.866	5.73
683.051	5.25
683.237	5.53
683.422	4.95
683.607	5.29
683.792	4.76
683.977	3.34
684.162	2.36
684.347	1.92
684.532	1.62
684.717	1.25
684.903	2.23
685.088	3.5
685.273	3.36
685.458	2.45
685.643	2.62
685.828	2
686.013	4.4
686.198	2.67
686.382	4.43
686.567	4.93
686.752	4.19
686.937	5.33
687.122	6.87
687.307	6.8
687.492	6.3
687.677	6.45
687.861	6.92
688.046	8.23
688.231	9.38
688.416	9.23
688.601	9.51
688.785	9.74
688.97	10.86
689.155	12.09
689.339	11.87
689.524	9.95
689.709	9.27
689.893	8.88
690.078	9.29
690.263	8.59
690.447	8.15
690.632	6.99
690.816	6.88
691.001	7.17
691.186	6.93
691.37	7.31
691.555	7.47
691.739	7.27
691.924	6.65
692.108	5.99
692.293	5.99
692.477	5.86
692.661	6.46
692.846	6.23
693.03	5.95
693.215	6.45
693.399	7.41
693.583	7.51
693.768	7.3
693.952	6.65
694.136	6.48
694.321	6.69
694.505	7.36
694.689	7.35
694.873	6.21
695.058	5.86
695.242	6.32
695.426	5.54
695.61	4.07
695.794	3.92
695.979	4.15
696.163	2.59
696.347	2.42
696.531	0.91
696.715	-0.07
696.899	-0.17
697.083	-0.76
697.267	0.24
697.451	0.52
697.635	0.29
697.819	0.17
698.003	0.59
698.187	0.15
698.371	0.17
698.555	-0.11
698.739	0.52
698.923	1.75
699.107	2.55
699.291	2.24
699.475	2.8
699.659	3.9
699.842	3.62
700.026	4.19
700.21	4.21
700.394	5.02
700.578	6.68
700.761	6.54
700.945	8.45
701.129	6.77
701.313	5.76
701.496	7.91
701.68	8.9
701.864	8.74
702.047	9.07
702.231	12.09
702.415	11.57
702.598	10.57
702.782	10.54
702.965	9.96
703.149	10.59
703.333	11.02
703.516	10.96
703.7	10.23
703.883	10.3
704.067	9.99
704.25	8.46
704.434	6.23
704.617	6.22
704.801	5.27
704.984	5.12
705.167	5.02
705.351	2.32
705.534	1.87
705.718	2.51
705.901	2.18
706.084	-0.2
706.268	0.46
706.451	1.19
706.634	-0.01
706.817	-1.63
707.001	-2.33
707.184	-2.92
707.367	-3.74
707.55	-2.46
707.734	-1.39
707.917	-1.24
708.1	0.56
708.283	2.6
708.466	2.85
708.649	3.39
708.832	4.97
709.015	7.15
709.199	8.96
709.382	9.35
709.565	8.9
709.748	9.9
709.931	9.89
710.114	9.11
710.297	10.01
710.48	10.61
710.663	12.73
710.846	13.28
711.028	14.1
711.211	14.03
711.394	14.93
711.577	13.38
711.76	12.57
711.943	11.94
712.126	10.55
712.309	11.82
712.491	12.56
712.674	11.17
712.857	12.38
713.04	10.73
713.222	10.9
713.405	10.69
713.588	10.12
713.771	10.42
713.953	11.04
714.136	10.93
714.319	12.16
714.501	10.8
714.684	9.88
714.866	11.14
715.049	11.72
715.232	10.36
715.414	10.15
715.597	10.04
715.779	10.02
715.962	11.47
716.144	9.21
716.327	8.81
716.509	9.14
716.692	6.15
716.874	7.02
717.057	6.32
717.239	6.65
717.421	6.58
717.604	4.62
717.786	5.73
717.968	4.68
718.151	2.96
718.333	2.32
718.515	3.66
718.698	2.84
718.88	1.72
719.062	1.28
719.244	2.38
719.427	3.04
719.609	3.52
719.791	3.04
719.973	3.04
720.155	1.81
720.338	1.6
720.52	1.9
720.702	1.79
720.884	2.29
721.066	2.33
721.248	-0.29
721.43	0.67
721.612	-0.69
721.794	1.49
721.976	2.37
722.158	3.6
722.34	2.69
722.522	2.24
722.704	2.93
722.886	3.47
723.068	3.63
723.25	5.94
723.432	5.83
723.614	5.47
723.796	7.37
723.977	6.68
724.159	6.98
724.341	6.85
724.523	6.12
724.705	5.88
724.886	6.02
725.068	8.84
725.25	9.66
725.432	9.42
725.613	7.82
725.795	8.04
725.977	9.13
726.158	10.01
726.34	9.97
726.522	10.44
726.703	10.93
726.885	11.93
727.066	9.72
727.248	10.72
727.43	11.29
727.611	10.57
727.793	12.41
727.974	12.97
728.156	13.62
728.337	13.56
728.519	12.06
728.7	12.88
728.882	11.2
729.063	9.96
729.244	10.06
729.426	11.3
729.607	10.89
729.788	10.64
729.97	9.73
730.151	8.93
730.332	8.1
730.514	8.34
730.695	7.45
730.876	6.69
731.058	5.16
731.239	4.61
731.42	3.82
731.601	1.73
731.782	1.02
731.964	1.08
732.145	1.24
732.326	0.81
732.507	-0.18
732.688	0.37
732.869	2.31
733.05	3.18
733.231	3.31
733.412	1.99
733.593	1.03
733.774	2.64
733.955	3.98
734.136	4.91
734.317	5.1
734.498	6.3
734.679	7.95
734.86	7.06
735.041	5.84
735.222	7.61
735.403	8.78
735.584	8.59
735.765	9.17
735.946	9.22
736.126	10.96
736.307	11.21
736.488	10.68
736.669	7.52
736.849	7.78
737.03	8.1
737.211	8.48
737.392	9.25
737.572	7.96
737.753	6.42
737.934	5.95
738.114	5.65
738.295	3.22
738.476	3.04
738.656	5.39
738.837	5.44
739.017	5.09
739.198	5.35
739.378	7.05
739.559	6.8
739.74	7.23
739.92	6.96
740.1	6.38
740.281	6.19
740.461	7.07
740.642	7.08
740.822	3.82
741.003	4.76
741.183	2.89
741.363	3.42
741.544	3.75
741.724	2.6
741.904	1.15
742.085	1.58
742.265	0.74
742.445	0.33
742.626	1.11
742.806	0.06
742.986	0.13
743.166	-1.18
743.347	-2.64
743.527	-0.41
743.707	-2.41
743.887	-1.48
744.067	-1.99
744.247	-1.06
744.427	-1.61
744.608	-0.07
744.788	0.28
744.968	2.07
745.148	1.98
745.328	1.52
745.508	2.35
745.688	2.66
745.868	2.45
746.048	2.01
746.228	2.63
746.408	3.47
746.588	3.5
746.767	4.16
746.947	4.13
747.127	4.48
747.307	1.22
747.487	2.57
747.667	0.81
747.847	3.43
748.026	4.01
748.206	3.37
748.386	3.93
748.566	3.39
748.745	2.71
748.925	2.47
749.105	3.89
749.285	2.97
749.464	3.53
749.644	2.71
749.824	3.77
750.003	2.62
750.183	1.7
750.362	2.13
750.542	1.78
750.722	1.62
750.901	1.46
751.081	1.65
751.26	4.4
751.44	5.56
751.619	4.45
751.799	3.26
751.978	2.46
752.158	2.32
752.337	2.32
752.516	1.55
752.696	2.42
752.875	2.29
753.055	4.01
753.234	4.04
753.413	4.53
753.593	4.81
753.772	4.31
753.951	4.41
754.13	4.42
754.31	3.28
754.489	3.96
754.668	4.81
754.847	6.67
755.027	5.15
755.206	4.5
755.385	4.14
755.564	6.45
755.743	7.15
755.922	6.23
756.101	5.11
756.28	7.18
756.46	6.4
756.639	5.15
756.818	4.94
756.997	5.77
757.176	6.62
757.355	5.47
757.534	5.39
757.713	5.88
757.892	4.54
758.07	5.74
758.249	5.74
758.428	4.98
758.607	4.13
758.786	4.75
758.965	5.2
759.144	6.75
759.323	4.59
759.501	3.55
759.68	4.21
759.859	5.98
760.038	4.78
760.216	5.02
760.395	5.79
760.574	5.55
760.753	5.85
760.931	6.47
761.11	7.87
761.289	7.13
761.467	6.32
761.646	7.47
761.824	8.12
762.003	6.93
762.182	6.95
762.36	6.8
762.539	6.35
762.717	7.44
762.896	6.35
763.074	6.21
763.253	6.63
763.431	7.99
763.61	6.95
763.788	7.54
763.966	7.46
764.145	8.12
764.323	8.59
764.502	6.49
764.68	6.22
764.858	4.55
765.037	6.71
765.215	7.78
765.393	8.06
765.571	6.94
765.75	8.23
765.928	7.24
766.106	6.16
766.284	6.66
766.463	5.39
766.641	5.59
766.819	7.59
766.997	8.68
767.175	7.31
767.353	8.1
767.531	7.84
767.71	8.66
767.888	8.44
768.066	6.49
768.244	7.74
768.422	7.73
768.6	10.21
768.778	8.72
768.956	8.02
769.134	8.14
769.312	8.18
769.489	5.69
769.667	7.82
769.845	9.33
770.023	8.93
770.201	9.81
770.379	9.6
770.557	9.72
770.735	9.59
770.912	9.08
771.09	8.41
771.268	8.56
771.446	7.77
771.623	9.26
771.801	11.38
771.979	10.9
772.157	9.4
772.334	8.2
772.512	10.25
772.69	10.27
772.867	9.64
773.045	10.72
773.222	12.34
773.4	13.16
773.577	12.41
773.755	12.64
773.933	11.18
774.11	10.26
774.288	8.94
774.465	9.14
774.643	10.25
774.82	11.75
774.997	11.15
775.175	10.59
775.352	10.08
775.53	10.53
775.707	10.17
775.884	11.03
776.062	10.98
776.239	8.48
776.416	10.1
776.594	8.57
776.771	6.06
776.948	7.79
777.125	6.28
777.303	5.55
777.48	5.62
777.657	5.31
777.834	6.79
778.012	5.8
778.189	6.27
778.366	5.13
778.543	2.26
778.72	2.61
778.897	5.42
779.074	5.17
779.251	4.68
779.428	4.99
779.605	4.55
779.782	3.64
779.959	5.28
780.136	2.93
780.313	6.87
780.49	5.34
780.667	5.51
780.844	4.83
781.021	5.92
781.198	4.08
781.375	5.92
781.552	4.23
781.728	4.56
781.905	4.7
782.082	5.48
782.259	5.96
782.436	4.78
782.612	2.61
782.789	-0.58
782.966	-3.11
783.143	-1.48
783.319	0.41
783.496	2.55
783.673	2.45
783.849	4.01
784.026	2.88
784.203	6.45
784.379	4.18
784.556	5.3
784.732	3.11
784.909	5.1
785.085	5.41
785.262	7.93
785.438	8.11
785.615	7.83
785.791	7.86
785.968	7.5
786.144	9.1
786.321	11.57
786.497	12.45
786.673	11.98
786.85	10.59
787.026	9.9
787.203	7.9
787.379	6.41
787.555	4.65
787.731	2.31
787.908	0.79
788.084	3.59
788.26	3.61
788.437	7.9
788.613	5.64
788.789	4.16
788.965	1.75
789.141	1.7
789.317	-1.63
789.494	-2.44
789.67	-1.09
789.846	-0.97
790.022	-2.02
790.198	-1.89
790.374	-0.73
790.55	-1.7
790.726	-3.16
790.902	-1.54
791.078	1.91
791.254	0.86
791.43	1.92
791.606	3.55
791.782	2.19
791.958	1.02
792.134	-0.53
792.31	0.45
792.486	-1.17
792.661	0.89
792.837	3.96
793.013	4.65
793.189	6.6
793.365	8.1
793.54	7.81
793.716	6.58
793.892	7.39
794.068	8.69
794.243	9.76
794.419	10.52
794.595	7.35
794.77	6.67
794.946	10.15
795.122	8.92
795.297	8.78
795.473	8.24
795.648	9.6
795.824	8.72
796	10.53
796.175	12.09
796.351	10.69
796.526	10.79
796.702	12.74
796.877	11.75
797.052	10.43
797.228	9.16
797.403	10.31
797.579	12.14
797.754	11.16
797.929	12.27
798.105	13.83
798.28	15.52
798.455	15.11
798.631	12.48
798.806	15.82
798.981	14.52
799.157	13.97
799.332	12.17
799.507	13.71
799.682	12.57
799.858	12.06
800.033	13.12
800.208	12.51
800.383	13.49
800.558	13.94
800.733	13.2
800.908	12.15
801.083	11.52
801.258	10.03
801.434	11.37
801.609	10.88
801.784	11.07
801.959	11.55
802.134	9.6
802.309	10.26
802.484	6.75
802.658	6.92
802.833	5.15
803.008	7.67
803.183	5.99
803.358	5.12
803.533	7.67
803.708	6.38
803.883	6.2
804.057	3.25
804.232	3.04
804.407	6.43
804.582	10.7
804.756	7.28
804.931	4.81
805.106	3.8
805.281	6.22
805.455	6.07
805.63	6.33
805.805	6.43
805.979	9.41
806.154	11.72
806.328	13.19
806.503	15.24
806.678	13.96
806.852	14.41
807.027	16.39
807.201	10.96
807.376	11.58
807.55	11.99
807.725	11.67
807.899	11.48
808.074	10.37
808.248	10.76
808.422	12.13
808.597	12.78
808.771	13.25
808.946	14.32
809.12	13.92
809.294	14.26
809.468	16.02
809.643	14.9
809.817	16.76
809.991	16.88
810.166	17.99
810.34	17.53
810.514	19.44
810.688	18.18
810.862	20.62
811.037	22.09
811.211	21.33
811.385	23.16
811.559	23.93
811.733	26.21
811.907	22.57
812.081	21.36
812.255	21.23
812.429	17.99
812.603	15.58
812.777	16.83
812.951	15.21
813.125	14.09
813.299	12.94
813.473	7.95
813.647	6.63
813.821	7.35
813.995	9
814.169	7.5
814.343	8.94
814.516	9.58
814.69	9.67
814.864	8.39
815.038	5.56
815.212	5.84
815.385	2.35
815.559	3.58
815.733	6.29
815.907	6.07
816.08	10.92
816.254	9.42
816.428	8.58
816.601	10.32
816.775	10.69
816.948	10.77
817.122	13.22
817.296	14.12
817.469	14.06
817.643	13.06
817.816	8.96
817.99	7.2
818.163	8.44
818.337	8.52
818.51	10.75
818.684	16.73
818.857	17.31
819.031	16.72
819.204	14.22
819.377	14.7
819.551	15.85
819.724	17.51
819.897	18.04
820.071	13.95
820.244	13.15
820.417	13.22
820.591	13.35
820.764	13.4
820.937	12.69
821.11	10.86
821.284	12.15
821.457	17.09
821.63	15.76
821.803	14.22
821.976	14.31
822.149	17.2
822.322	15.38
822.496	14.8
822.669	15.05
822.842	17.14
823.015	15.83
823.188	16.42
823.361	12.2
823.534	10.97
823.707	11.22
823.88	11.06
824.053	9.75
824.226	9.07
824.399	7.96
824.571	7.67
824.744	7.35
824.917	7.14
825.09	4.64
825.263	8.28
825.436	10.47
825.608	7.56
825.781	5.61
825.954	6.19
826.127	5.39
826.299	4.88
826.472	5.48
826.645	5.57
826.818	5.97
826.99	7.58
827.163	6.8
827.336	8.95
827.508	8.5
827.681	11.06
827.853	10.28
828.026	10.4
828.198	11.06
828.371	12.31
828.544	11.78
828.716	12.02
828.889	7.1
829.061	4.26
829.233	4.99
829.406	1.4
829.578	-1.42
829.751	1.3
829.923	2.82
830.096	0.68
830.268	3.87
830.44	1.7
830.613	1.33
830.785	1.83
830.957	1.44
831.129	3.57
831.302	3.55
831.474	6.2
831.646	9.48
831.818	9.82
831.991	13.53
832.163	13.6
832.335	15.63
832.507	18.13
832.679	17.22
832.851	18.25
833.023	18.55
833.195	20.36
833.368	18.56
833.54	18.28
833.712	20.68
833.884	23.38
834.056	25.01
834.228	27.04
834.4	32.21
834.571	34.4
834.743	32.38
834.915	29.92
835.087	26.07
835.259	23.91
835.431	24.41
835.603	19.33
835.775	22.04
835.946	23.04
836.118	21.68
836.29	21.48
836.462	19.75
836.634	17.81
836.805	19.73
836.977	21.06
837.149	22
837.32	19.42
837.492	14.09
837.664	13.85
837.835	11.1
838.007	5.14
838.179	4.52
838.35	13.09
838.522	19.65
838.693	19.15
838.865	15.08
839.036	13.98
839.208	15.5
839.379	11.63
839.551	10.28
839.722	12.41
839.894	13.57
840.065	15.2
840.237	18.44
840.408	14.41
840.579	16.44
840.751	14.4
840.922	15.14
841.093	13.31
841.265	14.62
841.436	16.86
841.607	15.9
841.778	15.31
841.95	10.82
842.121	6.9
842.292	9.94
842.463	14.23
842.635	19.99
842.806	23.75
842.977	22.4
843.148	22.52
843.319	23.48
843.49	25.59
843.661	22.78
843.832	26.46
844.003	31.89
844.174	29.85
844.345	31.97
844.516	30.84
844.687	32.47
844.858	35.76
845.029	33.97
845.2	34.78
845.371	32.28
845.542	31.46
845.713	24.6
845.884	26.26
846.055	20.98
846.225	12.9
846.396	3.78
846.567	9.69
846.738	10.08
846.909	11
847.079	12.93
847.25	16.64
847.421	11.78
847.591	8.58
847.762	12.49
847.933	10.34
848.103	17.17
848.274	14.59
848.445	14.81
848.615	15
848.786	21.22
848.956	24.26
849.127	25.77
849.297	33.84
849.468	32.02
849.638	35.2
849.809	38.91
849.979	38.88
850.15	40.48
850.32	40.2
850.491	41.21
850.661	40.61
850.831	37.32
851.002	38.11
851.172	39.34
851.342	34.1
851.513	33.43
851.683	31.07
851.853	34.39
852.024	34.79
852.194	33.33
852.364	31.83
852.534	33.64
852.705	32.98
852.875	32.25
853.045	35.99
853.215	37.01
853.385	36.26
853.555	42.73
853.725	45.31
853.895	41.87
854.066	41.13
854.236	39.9
854.406	39.45
854.576	42.4
854.746	37.63
854.916	43.5
855.086	45.31
855.256	40.39
855.425	36.28
855.595	36.3
855.765	39.22
855.935	40.79
856.105	33.39
856.275	33.72
856.445	30.79
856.614	26.38
856.784	30.14
856.954	28.72
857.124	28.28
857.294	23.83
857.463	26.22
857.633	27.28
857.803	22.48
857.972	27.71
858.142	32.55
858.312	37.92
858.481	28.55
858.651	27.33
858.821	28.17
858.99	30.45
859.16	21.95
859.329	27.76
859.499	34.06
859.668	41.21
859.838	44.46
860.007	50.2
860.177	44.46
860.346	42.01
860.516	44.97
860.685	44.01
860.854	38.6
861.024	34.41
861.193	32.23
861.363	37.69
861.532	29.96
861.701	26.92
861.87	25.79
862.04	30.9
862.209	37.03
862.378	39.7
862.547	40.48
862.717	43.91
862.886	43.57
863.055	38.76
863.224	34.52
863.393	29.7
863.563	25.04
863.732	29.33
863.901	25.34
864.07	20.15
864.239	18.95
864.408	21.11
864.577	23.56
864.746	28.45
864.915	26.01
865.084	38.3
865.253	35.61
865.422	37.02
865.591	36.75
865.76	32.37
865.929	31.22
866.097	32.29
866.266	30.66
866.435	22.16
866.604	21.08
866.773	20.45
866.942	22.46
867.11	27.09
867.279	32.79
867.448	40.6
867.617	45.68
867.785	44.76
867.954	44.1
868.123	43.48
868.291	27.09
868.46	34.35
868.629	25.16
868.797	27.67
868.966	21.11
869.134	21.78
869.303	30.23
869.472	29.25
869.64	27.58
869.809	29.06
869.977	31.62
870.146	34.05
870.314	51.81
870.482	51.45
870.651	47.05
870.819	42.15
870.988	38.14
871.156	37.99
871.324	40.16
871.493	35.18
871.661	43.63
871.829	60.62
871.998	58.33
872.166	67.21
872.334	64.1
872.502	64.89
872.671	68.31
872.839	65.45
873.007	74.63
873.175	67.11
873.343	67.28
873.512	70.43
873.68	65.61
873.848	51.72
874.016	47.51
874.184	47.22
874.352	42.18
874.52	41.59
874.688	45.37
874.856	42.21
875.024	51.22
875.192	40.11
875.36	30.51
875.528	16.61
875.696	14.02
875.864	18.21
876.032	12.45
876.199	4.12
876.367	5.57
876.535	-4.81
876.703	-0.06
876.871	4.58
877.039	3.2
877.206	8.89
877.374	11.64
877.542	13.48
877.71	21.66
877.877	24.92
878.045	33.2
878.213	26.53
878.38	34.45
878.548	40.48
878.715	53.21
878.883	56.93
879.051	75.47
879.218	63.88
879.386	59.51
879.553	59.78
879.721	64.23
879.888	65.32
880.056	82.87
880.223	88.38
880.391	94.29
880.558	82.4
880.726	83.02
880.893	80.54
881.06	78.26
881.228	70.28
881.395	66.95
881.562	65.02
881.73	67.7
881.897	59.49
882.064	55.57
882.231	47.79
882.399	41.6
882.566	23.43
882.733	41.92
882.9	39.95
883.068	65.55
883.235	61.55
883.402	36.13
883.569	21.75
883.736	42.66
883.903	42.88
884.07	51.66
884.237	46.57
884.404	47.47
884.571	51.66
884.738	54.16
884.905	57.13
885.072	45.01
885.239	53.32
885.406	60.63
