Data from Transmission_09-38-19-345.txt Node
Date: Fri Aug 24 09:38:19 EEST 2018
User: tibor.sos
Spectrometer: USB4F01757
Scans to average: 10
Trigger mode: 4
Integration Time (sec): 1.000000E-2
Electric dark correction enabled: true
Boxcar width: 10
XAxis mode: Wavelengths
Number of Pixels in Spectrum: 3648
>>>>>Begin Spectral Data<<<<<
178.758	26.03
178.974	43.51
179.191	-4.66
179.407	6.92
179.624	-18.86
179.84	-6.43
180.057	-7.99
180.273	3.9
180.489	13.68
180.706	-14.81
180.922	-23.95
181.138	-28.28
181.355	16.28
181.571	12.37
181.787	34.15
182.004	15.81
182.22	18.86
182.436	27.32
182.653	-0.54
182.869	-14.35
183.085	-30.12
183.301	-13.69
183.518	3.31
183.734	8.47
183.95	22.36
184.166	38.19
184.383	36.36
184.599	30.87
184.815	13.96
185.031	0.42
185.247	3.62
185.463	2.46
185.68	-7.78
185.896	-14.01
186.112	3.59
186.328	11.42
186.544	11.25
186.76	22.26
186.976	34.8
187.192	60.37
187.408	75.28
187.624	94.13
187.84	76.69
188.056	55.6
188.272	58.38
188.488	46.81
188.704	50.76
188.92	39.47
189.136	28.69
189.352	35.22
189.568	36.09
189.784	51.03
190	70.14
190.216	93.43
190.432	79.96
190.648	74.32
190.864	57.54
191.08	98.34
191.296	45.45
191.511	51.68
191.727	20.05
191.943	17.19
192.159	6.21
192.375	-21.89
192.591	-38.98
192.806	-99.35
193.022	-39.3
193.238	-101.89
193.454	-27.14
193.669	-60.65
193.885	-43.3
194.101	-57.91
194.317	-24.17
194.532	-570.79
194.748	265.55
194.964	33.99
195.18	32.62
195.395	6.24
195.611	-5.83
195.827	40.86
196.042	-157.43
196.258	-4.79
196.473	-21.73
196.689	-17.95
196.905	48.94
197.12	71.29
197.336	-11.39
197.551	196.08
197.767	-38400
197.982	-97.82
198.198	49.32
198.414	-107.87
198.629	-38.8
198.845	-9.32
199.06	-38.82
199.276	-129.83
199.491	-674.59
199.707	-145.68
199.922	-34.04
200.137	0.89
200.353	-57.73
200.568	-6.96
200.784	-28.51
200.999	-39.15
201.215	-103.63
201.43	-189.5
201.645	-96.15
201.861	-80.08
202.076	-66.16
202.291	-122
202.507	-110.89
202.722	-65.44
202.937	-209.38
203.153	-156.58
203.368	-99.43
203.583	-25.12
203.798	-24.24
204.014	-23.7
204.229	-22.06
204.444	-40.34
204.659	-338.92
204.875	-404.98
205.09	1341.18
205.305	-3766.04
205.52	1495.93
205.735	972.46
205.951	-5632
206.166	339.24
206.381	206.4
206.596	1236.36
206.811	243.27
207.026	247.97
207.241	207.35
207.457	-332.71
207.672	-780.17
207.887	960.75
208.102	313.15
208.317	285.71
208.532	-700.56
208.747	638.25
208.962	599.23
209.177	-730.2
209.392	-367.6
209.607	-75.26
209.822	23.5
210.037	62.54
210.252	55.95
210.467	63.07
210.682	1.41
210.897	-63.45
211.112	-156.94
211.326	-157.21
211.541	-155.95
211.756	-23.08
211.971	-78.89
212.186	-75.82
212.401	-99.03
212.616	-74.87
212.831	-68.3
213.045	-152.09
213.26	-135.4
213.475	-111.85
213.69	-162.58
213.905	-296.41
214.119	-1547.51
214.334	16266.67
214.549	1860.73
214.764	-2070.47
214.978	-1287.37
215.193	-1413.44
215.408	7466.67
215.622	-1187.92
215.837	-6497.78
216.052	3668.97
216.266	877.97
216.481	968.53
216.696	589.2
216.91	-9575.76
217.125	-975.08
217.34	-1608.29
217.554	-1377.3
217.769	658
217.983	357.7
218.198	512.32
218.412	655.95
218.627	-315.37
218.842	-139.52
219.056	-159.28
219.271	-150.6
219.485	-230.75
219.7	-279.35
219.914	-159.04
220.129	-173.98
220.343	-95.51
220.558	-90.2
220.772	-146.94
220.986	-68.5
221.201	-159.38
221.415	309.79
221.63	189.87
221.844	136.69
222.058	193.01
222.273	166.19
222.487	189.07
222.702	303.6
222.916	320.32
223.13	165.5
223.344	138.6
223.559	97.14
223.773	102.08
223.987	119.97
224.202	119.37
224.416	202.38
224.63	178.48
224.844	173.96
225.059	187.24
225.273	1317.17
225.487	-1248
225.701	-96.21
225.915	-65.69
226.13	-27.34
226.344	-23.73
226.558	-37.23
226.772	-26.13
226.986	16.94
227.2	4.38
227.415	4.45
227.629	10.77
227.843	-16.25
228.057	4
228.271	-1.36
228.485	0.66
228.699	17.17
228.913	19.43
229.127	24.57
229.341	34.4
229.555	33.82
229.769	9.08
229.983	22.12
230.197	-10.04
230.411	-1.64
230.625	-49.88
230.839	36.24
231.053	61.54
231.267	105.82
231.481	-153.99
231.695	-2.4
231.909	89.34
232.122	46.93
232.336	59.51
232.55	61.66
232.764	44.12
232.978	-41.71
233.192	-159.47
233.405	-266.26
233.619	-153.46
233.833	-135.72
234.047	-193.47
234.261	-217.03
234.474	-138.01
234.688	163.72
234.902	160
235.116	237.74
235.329	267.52
235.543	459.3
235.757	278.76
235.97	197.13
236.184	170.12
236.398	157.6
236.612	167.86
236.825	224.7
237.039	328.19
237.252	274.76
237.466	1004.33
237.68	3816.95
237.893	-240800
238.107	-830.04
238.32	1753.04
238.534	-455.64
238.748	-311.5
238.961	-180.51
239.175	-293.46
239.388	-344.62
239.602	-459.82
239.815	-201.48
240.029	-367.02
240.242	-176.49
240.456	-114.79
240.669	-121.19
240.882	-87.76
241.096	-180.8
241.309	-109.39
241.523	-92.74
241.736	-156.52
241.95	435.75
242.163	-706.77
242.376	-163.36
242.59	-912
242.803	5333.33
243.016	349.24
243.23	934.45
243.443	7093.33
243.656	-619.55
243.87	-31.17
244.083	28.34
244.296	27.64
244.509	31.97
244.723	21.55
244.936	4.57
245.149	-3.66
245.362	17.67
245.576	27.43
245.789	48.71
246.002	54.89
246.215	69.39
246.428	60.87
246.641	106.01
246.855	135.41
247.068	82.04
247.281	17.29
247.494	39.51
247.707	20.94
247.92	-4.45
248.133	2.75
248.346	-25.48
248.559	-8.7
248.772	-35.17
248.985	-19.07
249.198	-3.9
249.411	2.11
249.624	-6.33
249.837	-10.97
250.05	-12.94
250.263	-36.24
250.476	-44.62
250.689	-31.7
250.902	-31.49
251.115	-47.93
251.328	-39.98
251.541	-24.52
251.754	-13.74
251.967	-19.46
252.18	-15.35
252.393	-12.07
252.605	-18.09
252.818	-19.25
253.031	-29.98
253.244	-21.25
253.457	-27.28
253.67	-35.4
253.882	-35.77
254.095	-20.39
254.308	-24.38
254.521	-28.15
254.733	-13.63
254.946	-16.71
255.159	-27.44
255.372	-33.48
255.584	-30.74
255.797	-40.28
256.01	-50.67
256.222	-45.47
256.435	-53.18
256.648	-41.52
256.86	-56.78
257.073	-50.21
257.285	-50.25
257.498	-56.35
257.711	-58.93
257.923	-53.45
258.136	-49.13
258.348	-48.92
258.561	-64.64
258.773	-85.9
258.986	-114.88
259.198	-145.06
259.411	-231.49
259.623	-149.26
259.836	-139.15
260.048	-123.04
260.261	-66.76
260.473	-60.83
260.686	-65.2
260.898	-65.04
261.111	-65.55
261.323	-43.72
261.535	-36.95
261.748	-30.24
261.96	-20.73
262.173	-22.41
262.385	-23.07
262.597	-27.26
262.81	-24.09
263.022	-25.77
263.234	-10.51
263.447	-7.51
263.659	-0.68
263.871	8.2
264.083	0.27
264.296	-1.25
264.508	-4.73
264.72	-19.64
264.932	-15.46
265.145	-30.92
265.357	-48.64
265.569	-67.13
265.781	-76.36
265.993	-111.55
266.205	-137.28
266.418	-138.75
266.63	-169.94
266.842	-146.34
267.054	-125.55
267.266	-107.74
267.478	-103.71
267.69	-96.16
267.902	-90.43
268.114	-135.13
268.326	-114.87
268.538	-117.18
268.75	-84.5
268.962	-90.76
269.174	-72.36
269.386	-48.81
269.598	-21.08
269.81	-2.65
270.022	-0.7
270.234	4.1
270.446	5.62
270.658	2.23
270.87	0.43
271.082	3.44
271.294	6.89
271.506	-0.7
271.718	-2.76
271.929	0.04
272.141	10.09
272.353	13.07
272.565	18.14
272.777	20.28
272.989	22.8
273.2	23.24
273.412	27.91
273.624	24
273.836	21.86
274.047	18.49
274.259	19.88
274.471	19.61
274.683	16.23
274.894	19.33
275.106	22.97
275.318	20.35
275.529	18.9
275.741	7.8
275.953	14.87
276.164	13.04
276.376	10.59
276.588	-3.66
276.799	-9.18
277.011	-4.94
277.222	-7.94
277.434	-16.68
277.646	-25.19
277.857	-30.31
278.069	-21.87
278.28	-23.05
278.492	-27.04
278.703	-32.98
278.915	-16.06
279.126	-22.77
279.338	-23.27
279.549	-18.88
279.761	-15.76
279.972	-8.6
280.183	-4.62
280.395	-7.12
280.606	-11.31
280.818	-12.51
281.029	-7.63
281.24	-3.92
281.452	-9.63
281.663	-14.19
281.875	-12.55
282.086	-14.49
282.297	-21.66
282.508	-23.96
282.72	-17.83
282.931	-10.72
283.142	-11.76
283.354	-23.25
283.565	-25.3
283.776	-29.09
283.987	-47.45
284.199	-36.54
284.41	-37.84
284.621	-37
284.832	-27.85
285.043	-18.64
285.254	-28.88
285.466	-36.17
285.677	-42.53
285.888	-40.59
286.099	-38.11
286.31	-28.22
286.521	-25.99
286.732	-23.91
286.943	-16.93
287.154	-22.16
287.366	-20.56
287.577	-11.54
287.788	-15.6
287.999	-12.29
288.21	-19.34
288.421	-10.47
288.632	-17.08
288.843	-10.18
289.054	-13.81
289.264	-12.73
289.475	-13.32
289.686	-4.71
289.897	-2.24
290.108	2.71
290.319	-0.83
290.53	2.65
290.741	-3.07
290.952	1.56
291.163	9.11
291.373	8.4
291.584	8.39
291.795	3.04
292.006	-3.74
292.217	1.03
292.427	7.7
292.638	14.16
292.849	11.35
293.06	19.95
293.27	14.56
293.481	18.33
293.692	12.62
293.903	12.46
294.113	10.8
294.324	9.42
294.535	-2.03
294.745	-2.39
294.956	1.42
295.167	-0.68
295.377	-3.99
295.588	-2.47
295.798	-2.94
296.009	-3.2
296.22	-4.46
296.43	-4.89
296.641	-8.81
296.851	-15.01
297.062	-21.96
297.272	-20.3
297.483	-26.16
297.693	-21.87
297.904	-21.82
298.114	-11.56
298.325	-7.23
298.535	-15.53
298.746	-17.49
298.956	-6.64
299.167	-8.37
299.377	-15.71
299.587	-11.07
299.798	-10.32
300.008	-21.57
300.219	-17.4
300.429	-23.94
300.639	-18.07
300.85	-11.79
301.06	-13.63
301.27	-4.46
301.481	-1
301.691	-7.41
301.901	-7.64
302.111	-12.39
302.322	-13.35
302.532	-20.62
302.742	-29.42
302.952	-26.41
303.163	-25.55
303.373	-37.38
303.583	-31.28
303.793	-25.12
304.003	-23.86
304.214	-23.35
304.424	-19.88
304.634	-25.28
304.844	-16.93
305.054	-11.95
305.264	-15.18
305.474	-10.13
305.684	-21.27
305.894	-15.25
306.104	-16.06
306.314	-20.75
306.525	-27.87
306.735	-32
306.945	-37.32
307.155	-38.34
307.365	-33.28
307.575	-31.25
307.784	-24.02
307.994	-25.46
308.204	-31.7
308.414	-29.76
308.624	-34.74
308.834	-34.03
309.044	-29.88
309.254	-24.35
309.464	-25.44
309.674	-18.61
309.884	-26.87
310.093	-20.95
310.303	-26.21
310.513	-13.48
310.723	-7.33
310.933	-2.76
311.142	2.09
311.352	5
311.562	11.49
311.772	7.46
311.981	7.57
312.191	3.71
312.401	5.51
312.611	8.15
312.82	5.24
313.03	8.45
313.24	11.4
313.449	10.77
313.659	1.11
313.869	-5.75
314.078	-11.98
314.288	-11.37
314.497	-14.8
314.707	-12.19
314.917	-18.99
315.126	-17.48
315.336	-14.3
315.545	-22.41
315.755	-22.09
315.964	-21.98
316.174	-18.85
316.383	-19.88
316.593	-15.42
316.802	-18.18
317.012	-22.83
317.221	-17.03
317.431	-19.76
317.64	-23.99
317.849	-32.3
318.059	-29.09
318.268	-19.66
318.478	-12.32
318.687	-5.05
318.896	-4.39
319.106	-4.87
319.315	-5.06
319.524	-15.81
319.734	-19.05
319.943	-10.7
320.152	-6.41
320.362	-7.9
320.571	-4.13
320.78	-7.69
320.989	-5.97
321.199	-7.59
321.408	-0.72
321.617	-4.44
321.826	-1.43
322.035	-2.88
322.245	2
322.454	8.62
322.663	1.03
322.872	-0.75
323.081	-2.43
323.29	-8.86
323.5	-9.02
323.709	-6.87
323.918	3.63
324.127	-3.14
324.336	-10.48
324.545	-21.29
324.754	-16.23
324.963	-22.72
325.172	-16.14
325.381	-17.31
325.59	-14.65
325.799	-13.07
326.008	-17.51
326.217	-19.05
326.426	-9.18
326.635	-12.26
326.844	-21.96
327.053	-15.06
327.262	-12.3
327.47	-16.98
327.679	-3.12
327.888	-6.8
328.097	-8.04
328.306	-9.13
328.515	0.24
328.724	6.86
328.932	10.08
329.141	5.87
329.35	10.18
329.559	7.29
329.768	10.25
329.976	10.86
330.185	6.02
330.394	6.01
330.602	4.06
330.811	-3.32
331.02	-1.61
331.229	2.51
331.437	9.11
331.646	3.07
331.855	8.55
332.063	-0.17
332.272	0.19
332.48	-1.74
332.689	-10.74
332.898	-12.11
333.106	-8.56
333.315	-6.33
333.523	-9.67
333.732	-12.97
333.94	-4.17
334.149	-9.33
334.357	-10.99
334.566	-8.12
334.774	-5.3
334.983	-3.24
335.191	-6.76
335.4	-13.69
335.608	-21.37
335.817	-35.5
336.025	-24.23
336.234	-33.21
336.442	-14.2
336.65	-16.16
336.859	-11.61
337.067	-7.26
337.275	-8.93
337.484	-16.49
337.692	-10.23
337.9	-4.56
338.109	-1.9
338.317	-17.79
338.525	-9.24
338.734	-1.31
338.942	-3.04
339.15	-9.14
339.358	-11.5
339.567	-0.22
339.775	2.58
339.983	-0.83
340.191	-5.57
340.399	-16.14
340.608	-2.09
340.816	-10.81
341.024	-14.23
341.232	-21.57
341.44	-13.72
341.648	-5.85
341.856	-0.62
342.064	-8.92
342.272	-16.22
342.481	-13.82
342.689	-10.75
342.897	-12.95
343.105	-19.14
343.313	-16.74
343.521	-17.09
343.729	-22.04
343.937	-30.04
344.145	-32.53
344.353	-25.42
344.56	-25.62
344.768	-23.86
344.976	-41.81
345.184	-43.62
345.392	-39.96
345.6	-35.64
345.808	-39.28
346.016	-46.3
346.224	-55.36
346.431	-48.2
346.639	-34.23
346.847	-38.28
347.055	-43.74
347.263	-50.05
347.471	-50.4
347.678	-57.02
347.886	-60.47
348.094	-52.07
348.302	-37.56
348.509	-31.22
348.717	-35.85
348.925	-36.94
349.132	-32.75
349.34	-24.57
349.548	-18.64
349.755	-19.89
349.963	-19.56
350.171	-20.58
350.378	-23.77
350.586	-23.25
350.793	-23.86
351.001	-31.32
351.209	-29.37
351.416	-17.83
351.624	-18.26
351.831	-30.14
352.039	-31.94
352.246	-33.21
352.454	-42.52
352.661	-51.53
352.869	-52.1
353.076	-48.37
353.284	-36.87
353.491	-41.81
353.699	-48.18
353.906	-48.04
354.113	-38.22
354.321	-40.3
354.528	-36.43
354.736	-36.47
354.943	-26.68
355.15	-18.17
355.358	-20.37
355.565	-22.58
355.772	-26.13
355.98	-19.38
356.187	-17.87
356.394	-16.54
356.601	-14.34
356.809	-3.46
357.016	4.06
357.223	-2.56
357.43	-5.42
357.638	-9.54
357.845	-4.64
358.052	-3.33
358.259	2.27
358.466	-0.89
358.673	0.44
358.881	-3.06
359.088	-6.28
359.295	-13.85
359.502	-35.11
359.709	-27.93
359.916	-27.69
360.123	-28.88
360.33	-42.1
360.537	-33.24
360.744	-26.14
360.951	-21.94
361.158	-26.88
361.365	-31.79
361.572	-19.63
361.779	-14.01
361.986	-5.45
362.193	-9.76
362.4	-8.16
362.607	-26.07
362.814	-19.03
363.021	-15.42
363.228	-19.49
363.435	-13.36
363.641	-17.27
363.848	-15.46
364.055	-18.9
364.262	-6.14
364.469	-2.86
364.676	2.97
364.882	0.21
365.089	-3.78
365.296	-2.49
365.503	-1.05
365.709	-7.58
365.916	-8.2
366.123	-10.77
366.33	-16.43
366.536	-14.75
366.743	-13.35
366.95	-10.37
367.156	-13.63
367.363	-16.42
367.57	-14.09
367.776	-15.48
367.983	-7.83
368.19	-0.1
368.396	2.56
368.603	-4.81
368.809	2.49
369.016	1.28
369.222	0.95
369.429	6.14
369.635	11.74
369.842	8.89
370.048	11.16
370.255	10.3
370.461	6.27
370.668	5.35
370.874	5.29
371.081	10.51
371.287	14.83
371.494	11.72
371.7	12.78
371.906	10.68
372.113	15.28
372.319	13.88
372.526	15.79
372.732	7.99
372.938	2.04
373.145	-1.89
373.351	-1.66
373.557	2.98
373.763	-5.95
373.97	-7.69
374.176	5.88
374.382	11.85
374.588	11.04
374.795	17.79
375.001	16.27
375.207	14.49
375.413	7.46
375.62	12.41
375.826	14.24
376.032	7.24
376.238	8.59
376.444	-5.36
376.65	-10.89
376.856	-22.74
377.062	-11.43
377.269	-0.66
377.475	-15.98
377.681	-16.44
377.887	-28.04
378.093	-36.08
378.299	-38.54
378.505	-50.38
378.711	-54.13
378.917	-46.34
379.123	-42.48
379.329	-27.15
379.535	-25.22
379.741	-23.93
379.947	-28.03
380.152	-25.56
380.358	-23.16
380.564	-25.84
380.77	-29.15
380.976	-28.46
381.182	-20.35
381.388	-20.3
381.594	-25
381.799	-11.56
382.005	-15.26
382.211	-8.68
382.417	-1.08
382.623	-10.43
382.828	-9.67
383.034	-14.76
383.24	-23.63
383.445	-32.07
383.651	-46.54
383.857	-55.77
384.063	-48.68
384.268	-62.09
384.474	-60.83
384.68	-58.48
384.885	-50.47
385.091	-39.69
385.296	-39.12
385.502	-41.93
385.708	-47.1
385.913	-54.2
386.119	-62.53
386.324	-68.02
386.53	-67.12
386.735	-70.1
386.941	-48.71
387.146	-46.89
387.352	-30.37
387.557	-18.18
387.763	-12.83
387.968	-14.57
388.174	-3.55
388.379	-9.04
388.585	-3.36
388.79	-3.76
388.996	-6.77
389.201	-14.03
389.406	-20.71
389.612	-27.99
389.817	-24.09
390.022	-10.53
390.228	-3.05
390.433	-5.91
390.638	-2.79
390.844	-3.89
391.049	-1.74
391.254	-2.25
391.459	-0.38
391.665	-12.91
391.87	-18.83
392.075	-11.35
392.28	-3.03
392.485	-12.37
392.691	-15.38
392.896	-25.68
393.101	-26.1
393.306	-19.6
393.511	-13.76
393.716	-4.16
393.922	8.25
394.127	6.13
394.332	7.28
394.537	3.72
394.742	1.78
394.947	2.87
395.152	2.71
395.357	1.22
395.562	-0.2
395.767	-10.58
395.972	5.47
396.177	9.09
396.382	3.24
396.587	-5.2
396.792	3.1
396.997	11.3
397.202	23.47
397.407	24.98
397.611	25.43
397.816	21.21
398.021	11.99
398.226	4.89
398.431	4.69
398.636	-1.5
398.841	1.54
399.045	9.47
399.25	3.41
399.455	0.74
399.66	2.63
399.864	4.07
400.069	4.02
400.274	4.31
400.479	5.47
400.683	7.98
400.888	9.74
401.093	-0.19
401.297	-0.31
401.502	-16.57
401.707	-17.97
401.911	-8.81
402.116	-4.31
402.321	15.47
402.525	17.05
402.73	13.84
402.934	14.72
403.139	20.92
403.344	21.73
403.548	26.94
403.753	29.65
403.957	31.49
404.162	23.83
404.366	27.48
404.571	14.82
404.775	13.3
404.98	6.51
405.184	13.47
405.388	28.22
405.593	20.91
405.797	26.68
406.002	27.66
406.206	20.53
406.41	19.06
406.615	14.46
406.819	21.02
407.023	28.46
407.228	25.49
407.432	13.87
407.636	8.13
407.841	13.06
408.045	7.49
408.249	-4.4
408.453	5.05
408.658	5.5
408.862	10.5
409.066	8.49
409.27	9.54
409.474	6.72
409.679	5.63
409.883	3.04
410.087	-6.78
410.291	-2.38
410.495	-16.14
410.699	-21.23
410.903	-22.17
411.108	-29.22
411.312	-37.71
411.516	-48.82
411.72	-36.92
411.924	-32.64
412.128	-39.16
412.332	-41.08
412.536	-28.29
412.74	-27.25
412.944	-29.65
413.148	-34.98
413.352	-44.39
413.556	-44.46
413.76	-51.19
413.964	-47.39
414.167	-34.21
414.371	-23.16
414.575	-27.37
414.779	-23.61
414.983	-13.17
415.187	-19.5
415.391	-27.5
415.594	-25.81
415.798	-26.23
416.002	-30.25
416.206	-23.57
416.41	-15.74
416.613	-13.51
416.817	-24.09
417.021	-18.6
417.225	-19.93
417.428	-29.53
417.632	-33.94
417.836	-38.52
418.039	-23.19
418.243	-23.44
418.447	-30.34
418.65	-31.42
418.854	-20.28
419.057	-8.31
419.261	-14.53
419.465	0.23
419.668	13.3
419.872	15.12
420.075	22.38
420.279	26.87
420.482	21.97
420.686	12.38
420.889	16
421.093	35.95
421.296	34.8
421.5	33.96
421.703	33.39
421.907	53.82
422.11	57.03
422.314	50.54
422.517	46.23
422.72	46.75
422.924	45.82
423.127	35.15
423.33	28.32
423.534	37.74
423.737	28.68
423.94	22.07
424.144	23.23
424.347	27.61
424.55	20.12
424.754	29.25
424.957	29.95
425.16	34.6
425.363	25.09
425.567	21.78
425.77	27.22
425.973	28.25
426.176	18.21
426.379	16.93
426.582	29.33
426.786	36.21
426.989	23.64
427.192	25.01
427.395	33.29
427.598	33.62
427.801	23.8
428.004	23.23
428.207	27.58
428.41	25.93
428.613	18.24
428.816	25.8
429.019	23.79
429.222	28.28
429.425	24.53
429.628	22.58
429.831	19.72
430.034	14.87
430.237	8.42
430.44	9.38
430.643	8.82
430.846	0.75
431.049	-2.62
431.252	10.05
431.454	11.58
431.657	5.32
431.86	4.61
432.063	9.59
432.266	6.87
432.469	1.98
432.671	-2.81
432.874	2.57
433.077	-7.43
433.28	-10.03
433.482	-13.82
433.685	-21.52
433.888	-25.69
434.09	-30.87
434.293	-36.56
434.496	-28.3
434.698	-32.97
434.901	-17.45
435.104	-17.02
435.306	-12.51
435.509	-26.43
435.712	-22.52
435.914	-33.59
436.117	-24.57
436.319	-20.11
436.522	-21.53
436.724	-27.78
436.927	-24.69
437.129	-28.2
437.332	-26.78
437.534	-24.11
437.737	-25.25
437.939	-15.16
438.142	-11.66
438.344	-2.41
438.547	-2.51
438.749	6.77
438.951	0.53
439.154	-1.35
439.356	-13.76
439.558	-11.02
439.761	2.21
439.963	-7.59
440.165	0.65
440.368	0.14
440.57	-14.61
440.772	-13.21
440.975	-6.99
441.177	-3.12
441.379	-1.56
441.581	6.99
441.784	-1.15
441.986	9
442.188	4.83
442.39	1.94
442.592	-8.08
442.795	-3.67
442.997	-3.15
443.199	0.88
443.401	-5.27
443.603	7.37
443.805	-2.59
444.007	-7.12
444.209	-1.83
444.411	7.46
444.613	8.52
444.815	15.12
445.017	10.7
445.219	16.76
445.421	13.78
445.623	9.55
445.825	1.39
446.027	-2.66
446.229	-11.86
446.431	-16
446.633	-22.83
446.835	-21.74
447.037	-25.16
447.239	-34.25
447.441	-35.22
447.643	-31.92
447.844	-42.88
448.046	-32.97
448.248	-25.11
448.45	-31.03
448.652	-51.5
448.853	-46.9
449.055	-48.09
449.257	-40.53
449.459	-55.57
449.66	-43.33
449.862	-34.31
450.064	-17.62
450.266	-7.7
450.467	-8.56
450.669	-7.12
450.871	1.45
451.072	18.64
451.274	22.16
451.475	6.32
451.677	9.68
451.879	11.48
452.08	4.59
452.282	7.06
452.483	-0
452.685	-1.19
452.886	11.21
453.088	-2.66
453.289	-10.02
453.491	-13.77
453.692	-34.49
453.894	-29.66
454.095	-24.11
454.297	-37.86
454.498	-30.87
454.7	-26.3
454.901	-5.86
455.102	-4.77
455.304	-13.62
455.505	-12.05
455.706	-1.02
455.908	-2.57
456.109	-2.05
456.31	4.94
456.512	-3.52
456.713	0.95
456.914	1.62
457.116	-4.45
457.317	-0.96
457.518	-4.75
457.719	-4.96
457.921	1.54
458.122	-7.2
458.323	-9.55
458.524	-2.41
458.725	0.23
458.926	-4.43
459.128	-14.36
459.329	-14.55
459.53	-11.87
459.731	-20.15
459.932	-36.02
460.133	-35.16
460.334	-28.37
460.535	-29.74
460.736	-23.91
460.937	-39.23
461.138	-44.98
461.339	-35.11
461.54	-27.56
461.741	-24.55
461.942	-23.12
462.143	-15.62
462.344	-20.51
462.545	-19.23
462.746	-26.98
462.947	-36.56
463.148	-33.62
463.348	-28.21
463.549	-28.45
463.75	-31.53
463.951	-23.96
464.152	-15.11
464.353	-17.69
464.553	-10.79
464.754	-4.67
464.955	-3.01
465.156	5.08
465.356	6.03
465.557	-4.08
465.758	-6.93
465.959	-3.36
466.159	-0.27
466.36	-2.1
466.561	2.09
466.761	5.28
466.962	4.64
467.163	8.16
467.363	4.77
467.564	3.92
467.764	0.99
467.965	-2.88
468.166	-7.31
468.366	-0.43
468.567	-1.01
468.767	-0.6
468.968	-9.01
469.168	-7.04
469.369	-5.89
469.569	-6.98
469.77	-3.14
469.97	-8.83
470.17	-2.97
470.371	0.16
470.571	-8.32
470.772	-4.02
470.972	-4.45
471.172	-2.82
471.373	-2.44
471.573	-0.83
471.773	1.5
471.974	1.29
472.174	1.94
472.374	8.54
472.575	5.47
472.775	11.36
472.975	-3.2
473.175	0.33
473.376	-4.53
473.576	-0.19
473.776	8.38
473.976	7.61
474.177	15.38
474.377	7.33
474.577	4.14
474.777	9.97
474.977	6.41
475.177	1.24
475.377	9.82
475.577	8.59
475.777	10.72
475.978	5.72
476.178	1.82
476.378	2.99
476.578	6.69
476.778	4.25
476.978	2.3
477.178	9.02
477.378	8.97
477.578	11.46
477.778	2.15
477.977	-4.84
478.177	-2.67
478.377	-7.42
478.577	-5.12
478.777	-2.58
478.977	-4.1
479.177	-2.53
479.377	-5.41
479.577	-15.91
479.776	-11.73
479.976	-13.86
480.176	-11.74
480.376	-3.99
480.576	-4.57
480.775	-9.95
480.975	-8.53
481.175	-9.28
481.374	-12.2
481.574	-7.4
481.774	-8.65
481.974	-2.42
482.173	-3.64
482.373	-13.44
482.572	-9.98
482.772	-9.92
482.972	-7.94
483.171	-5.84
483.371	1.88
483.57	0.99
483.77	3.81
483.97	3.36
484.169	6.34
484.369	4.4
484.568	1.72
484.768	4.73
484.967	2.59
485.167	7.15
485.366	8.45
485.566	10.05
485.765	9.52
485.964	7.96
486.164	5.78
486.363	9.3
486.563	14.13
486.762	14.1
486.961	15.27
487.161	10.96
487.36	5.93
487.559	0.58
487.759	0.66
487.958	0.37
488.157	-3.29
488.356	-3.8
488.556	0.25
488.755	-0.47
488.954	-1.91
489.153	-0.47
489.353	-5.77
489.552	-13.03
489.751	-17.7
489.95	-18.12
490.149	-19.97
490.348	-17.76
490.548	-21.24
490.747	-25.73
490.946	-23.64
491.145	-28.56
491.344	-29.73
491.543	-30.01
491.742	-30.86
491.941	-27.28
492.14	-28.64
492.339	-30.98
492.538	-30
492.737	-27.64
492.936	-24.3
493.135	-23.87
493.334	-24.04
493.533	-27.85
493.732	-13.1
493.931	-5.03
494.13	-10.68
494.328	-5.68
494.527	-5.29
494.726	-5.72
494.925	-7.86
495.124	-5.31
495.323	-4.4
495.521	-2.16
495.72	1.3
495.919	1.69
496.118	-1.17
496.316	1.61
496.515	2.76
496.714	-1.2
496.913	-0.77
497.111	0.77
497.31	-3.54
497.509	-1.31
497.707	2.61
497.906	-1.64
498.105	-10.94
498.303	-7.98
498.502	-11.59
498.7	-9.69
498.899	-11.02
499.097	-6.6
499.296	-9.9
499.495	-3.46
499.693	-1.88
499.892	-1.78
500.09	-2.99
500.289	6.19
500.487	2.52
500.686	6.02
500.884	5.79
501.082	1.81
501.281	-4.22
501.479	-0.71
501.678	-1.21
501.876	-3.69
502.074	-2.02
502.273	5.92
502.471	7.46
502.669	5.1
502.868	0.23
503.066	3.79
503.264	6.8
503.463	6.19
503.661	-1.17
503.859	-3.64
504.057	-0.22
504.256	-0.56
504.454	-7.94
504.652	-3.56
504.85	-1.75
505.048	3.77
505.246	3.22
505.445	5.15
505.643	2.46
505.841	1.83
506.039	2.64
506.237	-2.19
506.435	-4.76
506.633	-7.83
506.831	-1.72
507.029	0.99
507.227	6.61
507.425	7.28
507.623	5.83
507.821	7.54
508.019	10.63
508.217	9.81
508.415	8.5
508.613	8
508.811	4.91
509.009	2.1
509.207	1.57
509.405	3.46
509.603	5.53
509.8	6.08
509.998	5.37
510.196	4.29
510.394	6.33
510.592	6.27
510.79	8.2
510.987	2.14
511.185	2.66
511.383	-0.83
511.581	-4.78
511.778	-0.08
511.976	4.42
512.174	0.83
512.371	-2.44
512.569	-0.87
512.767	0.47
512.964	-2.36
513.162	-4.43
513.36	-6.78
513.557	-9.58
513.755	-6.2
513.952	-2.01
514.15	-1.01
514.348	1.84
514.545	2.75
514.743	5.96
514.94	7.34
515.138	10.14
515.335	10.1
515.533	8.35
515.73	8.59
515.927	4.99
516.125	1.32
516.322	4.66
516.52	6.83
516.717	9.54
516.915	9.26
517.112	12.08
517.309	11.14
517.507	12.64
517.704	12.86
517.901	5.76
518.099	4.08
518.296	6.56
518.493	10.6
518.69	11.34
518.888	12.04
519.085	10.31
519.282	11.84
519.479	14.62
519.676	12.85
519.874	12.75
520.071	13.43
520.268	15.06
520.465	12.81
520.662	14.91
520.859	12.47
521.056	11.99
521.254	14.61
521.451	17.27
521.648	17
521.845	19.51
522.042	22.87
522.239	24.97
522.436	23.39
522.633	16.3
522.83	13.77
523.027	6.97
523.224	9.89
523.421	11.88
523.618	8.8
523.815	12.71
524.011	12.87
524.208	16.2
524.405	14.89
524.602	17.98
524.799	10.52
524.996	6.8
525.193	8.48
525.389	5.78
525.586	5.65
525.783	3.62
525.98	1.51
526.176	4.12
526.373	0.8
526.57	3.02
526.767	3.34
526.963	2.2
527.16	9.18
527.357	9.68
527.553	5.56
527.75	4.59
527.947	-2.03
528.143	2.21
528.34	-2.31
528.537	-5.1
528.733	-7.55
528.93	0.07
529.126	7.3
529.323	5.86
529.519	8.48
529.716	4.15
529.912	4.05
530.109	3.13
530.305	-0.03
530.502	2.15
530.698	-2.85
530.895	-4.66
531.091	0.81
531.288	-3.22
531.484	-6.46
531.68	-7.04
531.877	-5.38
532.073	-4.47
532.269	-7
532.466	-4.23
532.662	-1.15
532.858	-1.37
533.055	-2.76
533.251	-4.03
533.447	-4.66
533.643	-2.04
533.84	-0.63
534.036	-1.31
534.232	1.77
534.428	0.2
534.624	0.32
534.821	4.98
535.017	9.52
535.213	6.54
535.409	10.72
535.605	11.49
535.801	12.15
535.997	10.01
536.193	11.12
536.389	8.1
536.586	4.62
536.782	3.27
536.978	3.23
537.174	3.88
537.37	5.54
537.566	8.65
537.762	4.7
537.958	3.28
538.153	4.24
538.349	2.38
538.545	4.13
538.741	2.56
538.937	-2.13
539.133	-5.8
539.329	-4.61
539.525	-7.59
539.721	-4.6
539.916	-0.98
540.112	-2.93
540.308	-2.45
540.504	2.9
540.699	8.02
540.895	9.35
541.091	13.51
541.287	14.31
541.482	9.45
541.678	9.03
541.874	7.84
542.069	10.12
542.265	13.3
542.461	13.9
542.656	14.87
542.852	15.11
543.048	15.33
543.243	15.12
543.439	12.59
543.634	9.63
543.83	6.06
544.025	4.11
544.221	7.11
544.417	10.66
544.612	11.4
544.807	11.09
545.003	9.82
545.198	6.43
545.394	4.11
545.589	10.6
545.785	10.31
545.98	11.51
546.176	12.19
546.371	6.16
546.566	4.3
546.762	3.04
546.957	4.54
547.152	4.59
547.348	4.42
547.543	7.72
547.738	7.82
547.933	9.04
548.129	11.05
548.324	11.51
548.519	7.02
548.714	3.95
548.91	3.87
549.105	3.85
549.3	2.8
549.495	4.49
549.69	-0.94
549.885	-1.27
550.08	2.75
550.276	1.7
550.471	8.01
550.666	10.08
550.861	12.07
551.056	8.76
551.251	8.52
551.446	11.34
551.641	10.02
551.836	12.74
552.031	14.12
552.226	13.18
552.421	12.63
552.616	12.83
552.811	17.04
553.006	15.84
553.201	12.63
553.395	14.14
553.59	11.55
553.785	12.33
553.98	11.71
554.175	5.53
554.37	6.89
554.565	7.15
554.759	8.45
554.954	7.02
555.149	7.79
555.344	8.59
555.538	6.55
555.733	6.24
555.928	10.47
556.122	10.03
556.317	8.88
556.512	9.11
556.706	11.07
556.901	9.58
557.096	7.89
557.29	10.68
557.485	10.22
557.68	10.4
557.874	12.23
558.069	11.64
558.263	14.48
558.458	14.37
558.652	13.81
558.847	10.91
559.041	13.43
559.236	11.13
559.43	9.68
559.625	13.56
559.819	12.84
560.014	9.63
560.208	10.45
560.402	10.25
560.597	9.23
560.791	10.13
560.986	9.21
561.18	10.1
561.374	10.82
561.569	9.14
561.763	10.68
561.957	8.58
562.151	9.84
562.346	9.96
562.54	10.36
562.734	8.03
562.928	6.93
563.123	6.12
563.317	8.8
563.511	10.55
563.705	7.34
563.899	7.99
564.093	7.34
564.288	4.75
564.482	4.83
564.676	6.28
564.87	5.5
565.064	6.66
565.258	7.87
565.452	8.86
565.646	11.4
565.84	9.72
566.034	13.18
566.228	12.07
566.422	12.35
566.616	10.74
566.81	9.64
567.004	11.56
567.198	11.5
567.392	11.27
567.586	10.41
567.779	11.59
567.973	12.07
568.167	13.85
568.361	14.01
568.555	13.76
568.749	14.48
568.942	12.47
569.136	12.81
569.33	10.74
569.524	9.72
569.718	9.68
569.911	10.87
570.105	8.61
570.299	8.35
570.492	9.89
570.686	12.61
570.88	13.61
571.073	12.55
571.267	11.27
571.461	11.25
571.654	12.32
571.848	11.5
572.041	10.73
572.235	8.65
572.429	10.38
572.622	10.4
572.816	10.62
573.009	12.13
573.203	10.37
573.396	12.5
573.59	13.5
573.783	12.32
573.976	10.28
574.17	11.91
574.363	12.43
574.557	10.08
574.75	8.51
574.943	10.9
575.137	12.77
575.33	13.3
575.523	12.72
575.717	10.37
575.91	9.56
576.103	10.08
576.297	9.95
576.49	9.3
576.683	8.71
576.876	8.46
577.07	6.96
577.263	8.2
577.456	7.61
577.649	6.96
577.842	8.54
578.036	10.76
578.229	9.44
578.422	9.88
578.615	9.99
578.808	9.26
579.001	10.2
579.194	10.32
579.387	10.08
579.58	10.82
579.773	12.53
579.966	13.65
580.159	12.24
580.352	13.8
580.545	14.73
580.738	14.97
580.931	15.25
581.124	17.57
581.317	15.08
581.51	13.69
581.703	13.39
581.896	11.91
582.088	11.51
582.281	11.97
582.474	12.81
582.667	13.03
582.86	13.18
583.053	12.02
583.245	12.94
583.438	13.09
583.631	12.77
583.824	13.32
584.016	12.12
584.209	11.92
584.402	11.75
584.594	11.02
584.787	12.05
584.98	10.71
585.172	11.56
585.365	11.7
585.558	12.41
585.75	11.88
585.943	13.14
586.135	13.99
586.328	13.99
586.52	14.45
586.713	14.89
586.906	15.93
587.098	15.26
587.291	13.95
587.483	11.22
587.675	12.1
587.868	8.65
588.06	9.5
588.253	12.95
588.445	12.48
588.638	9.99
588.83	10.54
589.022	9.54
589.215	7.54
589.407	8.98
589.599	9.99
589.792	11.81
589.984	12.65
590.176	11.47
590.368	11.19
590.561	9.92
590.753	10.45
590.945	9.76
591.137	7.42
591.33	6.46
591.522	8.75
591.714	7.08
591.906	11.97
592.098	11.96
592.29	10.38
592.482	10.77
592.674	11.58
592.867	10.75
593.059	11.55
593.251	11.21
593.443	11.48
593.635	9.43
593.827	6.96
594.019	6.07
594.211	5.57
594.403	6.2
594.595	6.47
594.787	4.69
594.979	5.56
595.17	7.05
595.362	7.49
595.554	8.45
595.746	9
595.938	7.08
596.13	7.05
596.322	7.41
596.513	4.13
596.705	6.15
596.897	5.83
597.089	7.08
597.281	7.83
597.472	7.04
597.664	7.1
597.856	7.84
598.048	7.78
598.239	6.96
598.431	5.93
598.623	4.64
598.814	4.42
599.006	4.61
599.197	5.76
599.389	6.73
599.581	6.01
599.772	7.77
599.964	8.99
600.155	8.04
600.347	7.45
600.538	9.72
600.73	9.72
600.921	10.31
601.113	9.5
601.304	10.31
601.496	11.27
601.687	11.46
601.879	10.82
602.07	10.47
602.262	11.72
602.453	11.37
602.644	10.48
602.836	10.69
603.027	8.13
603.218	6.01
603.41	4.88
603.601	4.78
603.792	2.89
603.983	3.11
604.175	2.59
604.366	3.35
604.557	4.17
604.748	2.15
604.94	2.78
605.131	0.8
605.322	-0.67
605.513	-0
605.704	1.33
605.895	2.65
606.086	1.97
606.278	2.85
606.469	5.21
606.66	8.13
606.851	7.65
607.042	8.55
607.233	9.22
607.424	9.59
607.615	10.24
607.806	11.04
607.997	10.51
608.188	12.67
608.379	11.65
608.57	10.5
608.761	11.44
608.952	10.26
609.142	11.05
609.333	11.75
609.524	10.89
609.715	11
609.906	9.99
610.097	10.77
610.287	9.72
610.478	8.19
610.669	7.93
610.86	9.59
611.051	9.32
611.241	10.58
611.432	10.68
611.623	11.78
611.813	11.07
612.004	11.23
612.195	11.19
612.385	11.62
612.576	13
612.767	12.92
612.957	14
613.148	15.13
613.338	13.33
613.529	12.93
613.72	12.75
613.91	12.45
614.101	12.09
614.291	12.98
614.482	14.57
614.672	12.5
614.863	12.54
615.053	11.05
615.243	9.43
615.434	9.46
615.624	7.65
615.815	7.64
616.005	6.88
616.195	6.44
616.386	5.63
616.576	5.21
616.766	5.49
616.957	4.63
617.147	3.29
617.337	3.01
617.528	4.42
617.718	4.2
617.908	4.2
618.098	3.95
618.289	3.24
618.479	2.83
618.669	4.37
618.859	3.05
619.049	6.4
619.239	7.71
619.43	6.64
619.62	6.43
619.81	7.57
620	7.54
620.19	5.93
620.38	6.01
620.57	5.62
620.76	4.68
620.95	6.17
621.14	7.33
621.33	7.94
621.52	7.76
621.71	6.71
621.9	6.83
622.09	6.96
622.28	8.12
622.47	5.65
622.659	3.87
622.849	3.79
623.039	3.48
623.229	2.88
623.419	4.99
623.609	5.32
623.799	5.2
623.988	5.1
624.178	6.5
624.368	5.75
624.558	6.37
624.747	6.4
624.937	5.65
625.127	3.94
625.316	4.54
625.506	4.07
625.696	6.01
625.885	5.57
626.075	5.43
626.265	4.93
626.454	6.58
626.644	8.17
626.833	8.17
627.023	7.34
627.212	7.32
627.402	6.41
627.591	7.32
627.781	6.4
627.97	6.88
628.16	6.47
628.349	7.54
628.539	5.55
628.728	7.76
628.918	8.43
629.107	10.08
629.296	9.71
629.486	9.66
629.675	10.51
629.865	11.64
630.054	11.61
630.243	10.31
630.432	9.87
630.622	9.92
630.811	10.59
631	9.89
631.19	10.07
631.379	9.29
631.568	8.61
631.757	10.04
631.946	9.26
632.136	10.45
632.325	8.3
632.514	9.67
632.703	8.06
632.892	6.6
633.081	6.03
633.27	6.3
633.459	6.15
633.648	3.28
633.837	2.65
634.026	2.32
634.215	3.76
634.404	4.31
634.593	5.49
634.782	6.16
634.971	6.96
635.16	6.73
635.349	7.33
635.538	7.8
635.727	4.6
635.916	4.02
636.105	2.16
636.294	4.27
636.482	4.41
636.671	3.37
636.86	5.17
637.049	5.98
637.238	6.6
637.426	5.43
637.615	4.91
637.804	4.76
637.993	5.99
638.181	5.27
638.37	4.49
638.559	3.74
638.747	3.35
638.936	3.29
639.125	3.47
639.313	3.31
639.502	2.84
639.691	4.32
639.879	3.14
640.068	4.19
640.256	2.77
640.445	2.79
640.633	4.38
640.822	3.2
641.01	3.45
641.199	2.83
641.387	4.95
641.576	6.56
641.764	7.91
641.953	6.57
642.141	6.62
642.329	7.62
642.518	6.76
642.706	6.08
642.894	6.06
643.083	6.39
643.271	6.1
643.459	6.84
643.648	7.93
643.836	8.75
644.024	7.5
644.213	9.13
644.401	8.41
644.589	8.27
644.777	8.36
644.965	9.52
645.154	8.04
645.342	7.42
645.53	6.34
645.718	5.81
645.906	6.71
646.094	6.44
646.282	5.86
646.47	6.73
646.658	7.56
646.846	7.49
647.034	8.23
647.223	8.52
647.411	7.51
647.599	5.96
647.786	7.67
647.974	7.59
648.162	6.26
648.35	5.79
648.538	5.25
648.726	4.45
648.914	2.77
649.102	4.08
649.29	4.53
649.478	6.03
649.665	6.14
649.853	6.35
650.041	7.03
650.229	6.91
650.417	5.55
650.604	4.61
650.792	6.08
650.98	3.94
651.168	3.32
651.355	4.32
651.543	3.96
651.731	2.48
651.918	2.38
652.106	3.89
652.294	3.77
652.481	4.29
652.669	4.66
652.856	5.26
653.044	6.92
653.231	5.93
653.419	5.09
653.606	5.42
653.794	5.43
653.981	5.69
654.169	5.49
654.356	4.61
654.544	5.47
654.731	4.34
654.919	4.25
655.106	4.9
655.294	5.21
655.481	7.49
655.668	9.05
655.856	8.38
656.043	8.87
656.23	10.42
656.418	11.04
656.605	11.19
656.792	11.74
656.979	9.81
657.167	10.62
657.354	10.68
657.541	10.75
657.728	10.8
657.916	9.64
658.103	9.33
658.29	11.98
658.477	12.69
658.664	12.54
658.851	13.86
659.038	13.45
659.225	11.82
659.412	11.47
659.6	11.22
659.787	13.85
659.974	11.61
660.161	11.18
660.348	9
660.535	10.99
660.722	8.95
660.909	9.11
661.095	8.7
661.282	8.43
661.469	9.08
661.656	7.88
661.843	9.25
662.03	9.19
662.217	8.76
662.404	7.22
662.59	7.83
662.777	8.51
662.964	8.05
663.151	9.11
663.338	9.98
663.524	8.81
663.711	6.85
663.898	7.04
664.085	6.47
664.271	6.7
664.458	4.72
664.645	5.46
664.831	6.15
665.018	5.45
665.204	6.1
665.391	6.22
665.578	6.48
665.764	6.06
665.951	7.79
666.137	6.73
666.324	7.73
666.51	7.53
666.697	6.58
666.883	6.74
667.07	6.01
667.256	4.24
667.443	3.59
667.629	3.66
667.816	3.41
668.002	3.51
668.188	3.88
668.375	4.44
668.561	4.34
668.747	3.01
668.934	3.66
669.12	3.53
669.306	2.19
669.493	2.39
669.679	3.19
669.865	2.22
670.051	0.99
670.238	0.87
670.424	-0.6
670.61	-0.94
670.796	0.38
670.982	-0.29
671.169	-0.48
671.355	0.39
671.541	-0.47
671.727	-0.02
671.913	0.67
672.099	0.61
672.285	-1.44
672.471	-2.79
672.657	-2.16
672.843	-1.64
673.029	-2.13
673.215	-1.9
673.401	-0.03
673.587	-2.1
673.773	-1.82
673.959	1.1
674.145	0.84
674.331	2.07
674.517	2.36
674.703	1.68
674.888	3.34
675.074	2.95
675.26	3.2
675.446	3.15
675.632	2.58
675.817	1.49
676.003	2.61
676.189	3.17
676.375	4.77
676.56	5.65
676.746	5.45
676.932	4.24
677.117	3.27
677.303	1.85
677.489	2.75
677.674	1.3
677.86	-0.04
678.046	0.9
678.231	-0.23
678.417	-1.45
678.602	-2.67
678.788	-2.8
678.973	-1.99
679.159	-0.94
679.344	0.34
679.53	1.37
679.715	1.75
679.901	1.29
680.086	1.54
680.272	3.04
680.457	2.5
680.643	2.24
680.828	4.38
681.013	5.23
681.199	6.42
681.384	6.41
681.569	6.93
681.755	6.85
681.94	5.14
682.125	5.36
682.31	7.56
682.496	8
682.681	8.02
682.866	7.48
683.051	6.78
683.237	6.12
683.422	7.18
683.607	6.32
683.792	6.98
683.977	7.13
684.162	3.13
684.347	4.19
684.532	3.82
684.717	2.8
684.903	2.47
685.088	2.42
685.273	1.51
685.458	0.63
685.643	2.65
685.828	2.01
686.013	3.43
686.198	2.55
686.382	3.54
686.567	3.73
686.752	3.57
686.937	3.21
687.122	3.83
687.307	3.5
687.492	4.79
687.677	3.12
687.861	4.56
688.046	5.85
688.231	4.85
688.416	4.84
688.601	5.26
688.785	5.5
688.97	4.85
689.155	6.33
689.339	7.57
689.524	4.58
689.709	5.43
689.893	5.58
690.078	5.35
690.263	3.88
690.447	3.66
690.632	2.74
690.816	4.21
691.001	3.84
691.186	2.81
691.37	0.8
691.555	2.38
691.739	1.78
691.924	2.48
692.108	1.95
692.293	2.78
692.477	3.58
692.661	3.52
692.846	2.28
693.03	2.17
693.215	2.18
693.399	3.04
693.583	2.9
693.768	2.59
693.952	2.11
694.136	2.72
694.321	4
694.505	4.89
694.689	3.24
694.873	4.05
695.058	4.09
695.242	6.84
695.426	6.75
695.61	6.87
695.794	7.08
695.979	7.68
696.163	7.13
696.347	5.7
696.531	5.66
696.715	6.73
696.899	5.34
697.083	4.87
697.267	5.62
697.451	4.97
697.635	4.24
697.819	5.13
698.003	5.89
698.187	3.95
698.371	5.08
698.555	5.98
698.739	6.89
698.923	6.26
699.107	5.71
699.291	5.88
699.475	5.63
699.659	5.38
699.842	5.1
700.026	4.43
700.21	3.9
700.394	4.8
700.578	4.8
700.761	6.29
700.945	6.83
701.129	6.84
701.313	7.19
701.496	9.38
701.68	8.76
701.864	8.77
702.047	10.35
702.231	12.34
702.415	12.57
702.598	10.26
702.782	11.67
702.965	12.17
703.149	10.91
703.333	10.29
703.516	10.81
703.7	9.79
703.883	10.46
704.067	11.58
704.25	10.25
704.434	9.26
704.617	8.79
704.801	9.07
704.984	8.28
705.167	8.84
705.351	5.96
705.534	5.82
705.718	4.88
705.901	3.89
706.084	1.43
706.268	0.08
706.451	0.22
706.634	-0.83
706.817	-2.82
707.001	-2.4
707.184	-2.57
707.367	-3.38
707.55	-2.12
707.734	-2.41
707.917	-2.96
708.1	-1.81
708.283	-1.63
708.466	-1.38
708.649	-2.62
708.832	-3.19
709.015	-3.21
709.199	-1.46
709.382	-0.8
709.565	0.11
709.748	1.02
709.931	1.06
710.114	2.07
710.297	3.37
710.48	3.86
710.663	4.86
710.846	5.98
711.028	6.99
711.211	6.12
711.394	5.62
711.577	4.86
711.76	3.82
711.943	3.79
712.126	4.18
712.309	5.2
712.491	6.82
712.674	8.17
712.857	8.53
713.04	8.19
713.222	8.31
713.405	7.43
713.588	6.82
713.771	6.42
713.953	5.24
714.136	4.49
714.319	5.32
714.501	3.58
714.684	2.67
714.866	2.61
715.049	2.64
715.232	3.2
715.414	3.13
715.597	4.52
715.779	4.07
715.962	5.47
716.144	4.3
716.327	4.82
716.509	4.71
716.692	3.26
716.874	2.35
717.057	2
717.239	2.56
717.421	3.35
717.604	2.15
717.786	3.87
717.968	3.56
718.151	1.97
718.333	2.26
718.515	2.31
718.698	0.93
718.88	2.34
719.062	1.26
719.244	2.32
719.427	0.97
719.609	0.84
719.791	0.02
719.973	-0.18
720.155	-1.65
720.338	-2.66
720.52	-1.47
720.702	-0.49
720.884	0.36
721.066	-0.48
721.248	-4.82
721.43	-3.7
721.612	-5.47
721.794	-4.03
721.976	-3.66
722.158	-1.69
722.34	-2.71
722.522	-1.24
722.704	-2.37
722.886	-1.74
723.068	-2.33
723.25	-0.51
723.432	-0.59
723.614	-0.15
723.796	0.16
723.977	1.28
724.159	2.78
724.341	2.93
724.523	2.1
724.705	1.58
724.886	2.65
725.068	6.37
725.25	7
725.432	7.53
725.613	4.89
725.795	5.63
725.977	4.52
726.158	4.61
726.34	5.77
726.522	5.92
726.703	5.82
726.885	6.63
727.066	5.24
727.248	6.49
727.43	6.21
727.611	6.03
727.793	4.54
727.974	2.61
728.156	1.69
728.337	1.33
728.519	-0.39
728.7	0.77
728.882	-1.15
729.063	-1.25
729.244	-1.32
729.426	0.71
729.607	0.35
729.788	0.47
729.97	1.45
730.151	-1.05
730.332	-0.5
730.514	0.97
730.695	1.08
730.876	2.23
731.058	0.98
731.239	0.97
731.42	1.81
731.601	1.74
731.782	1.89
731.964	2.06
732.145	2.47
732.326	1.89
732.507	1.16
732.688	2.63
732.869	3.76
733.05	3.72
733.231	3.58
733.412	1.73
733.593	3.05
733.774	1.7
733.955	3.05
734.136	1.52
734.317	-0.04
734.498	-0.29
734.679	-0.47
734.86	-2.16
735.041	-2.91
735.222	-3.53
735.403	-1.57
735.584	-1.36
735.765	-0.81
735.946	-1.64
736.126	-0.45
736.307	-0.31
736.488	-1.4
736.669	-4.69
736.849	-5.3
737.03	-3.73
737.211	-1.17
737.392	-1.55
737.572	-3.1
737.753	-4.79
737.934	-2.83
738.114	-1.59
738.295	-3.19
738.476	-3.21
738.656	-0.56
738.837	0.28
739.017	-0.09
739.198	-1.56
739.378	0.7
739.559	0.97
739.74	1.89
739.92	1.36
740.1	1.04
740.281	0.74
740.461	2.45
740.642	5.68
740.822	3.49
741.003	3.51
741.183	2.11
741.363	4.89
741.544	5.11
741.724	4.09
741.904	2.51
742.085	4.45
742.265	2.47
742.445	2.1
742.626	2.34
742.806	2.66
742.986	1.83
743.166	-0.11
743.347	-2.53
743.527	-0.7
743.707	-1.8
743.887	-2.74
744.067	-3.98
744.247	-5.45
744.427	-8.01
744.608	-6.88
744.788	-4.98
744.968	-3.07
745.148	-3.25
745.328	-3.71
745.508	-3.16
745.688	-2.08
745.868	-3.36
746.048	-1.89
746.228	-1.28
746.408	-3.32
746.588	-3.22
746.767	-0.55
746.947	-1.56
747.127	-0.98
747.307	-3.24
747.487	-1.03
747.667	-1.1
747.847	1.6
748.026	1.43
748.206	1.82
748.386	2.23
748.566	-0.55
748.745	0.66
748.925	1.33
749.105	3.32
749.285	3.58
749.464	3.3
749.644	3.47
749.824	4.15
750.003	2.72
750.183	2.44
750.362	2.04
750.542	-0.08
750.722	0.05
750.901	1.19
751.081	1.24
751.26	1.01
751.44	1.17
751.619	0.45
751.799	1.26
751.978	-1.25
752.158	-1.64
752.337	-1.4
752.516	-4.12
752.696	-4.44
752.875	-4.15
753.055	-4.72
753.234	-4.05
753.413	-3.03
753.593	-1.06
753.772	-1.1
753.951	0.12
754.13	0.15
754.31	0.88
754.489	1.75
754.668	2.33
754.847	2.87
755.027	2.76
755.206	3.44
755.385	4.12
755.564	6.2
755.743	8.09
755.922	7.75
756.101	7.21
756.28	9.19
756.46	8.7
756.639	6.14
756.818	7.74
756.997	8.46
757.176	8.09
757.355	5.6
757.534	6.36
757.713	6.47
757.892	7.31
758.07	7.86
758.249	7.8
758.428	7.85
758.607	6.62
758.786	6.94
758.965	5.74
759.144	6.01
759.323	2.64
759.501	2.36
759.68	2.08
759.859	3.52
760.038	2.29
760.216	1.88
760.395	2.93
760.574	1.77
760.753	1.47
760.931	2.28
761.11	3.78
761.289	2.61
761.467	2.11
761.646	1.95
761.824	1.56
762.003	0.94
762.182	-0.36
762.36	1.42
762.539	1.16
762.717	2.44
762.896	2.14
763.074	3.17
763.253	2.89
763.431	4.6
763.61	3.4
763.788	2.45
763.966	1.65
764.145	3.17
764.323	2.54
764.502	0.3
764.68	-1.43
764.858	-2.26
765.037	-0.46
765.215	1.24
765.393	1.12
765.571	1.17
765.75	1.15
765.928	1.43
766.106	-0.54
766.284	-0.16
766.463	-1.39
766.641	-2.01
766.819	-1.26
766.997	-1.71
767.175	-1.56
767.353	-1.17
767.531	-0.54
767.71	0.73
767.888	-0.44
768.066	-0.25
768.244	1.97
768.422	2.68
768.6	3.99
768.778	1.92
768.956	-0.08
769.134	-0.91
769.312	-1.3
769.489	-2.02
769.667	-1.26
769.845	-0.87
770.023	-1.41
770.201	-1.12
770.379	-1.84
770.557	-2.09
770.735	-1.74
770.912	-2.97
771.09	-2.41
771.268	-1.65
771.446	-2.35
771.623	-2.65
771.801	-1.51
771.979	-2.36
772.157	-3.82
772.334	-5.91
772.512	-4.01
772.69	-3.61
772.867	-3.59
773.045	-2.14
773.222	-1.02
773.4	-0.47
773.577	0.68
773.755	0.69
773.933	0.8
774.11	1.7
774.288	1.43
774.465	2.3
774.643	1.05
774.82	2.09
774.997	0.77
775.175	0.9
775.352	3.03
775.53	3.65
775.707	2.69
775.884	4.83
776.062	6.39
776.239	5.75
776.416	6.32
776.594	5.4
776.771	3.66
776.948	4.39
777.125	4.23
777.303	3.01
777.48	2.13
777.657	1.04
777.834	2.3
778.012	2.63
778.189	3.02
778.366	2.56
778.543	-2.48
778.72	-1.09
778.897	-0.09
779.074	-1.63
779.251	-2.73
779.428	-1.95
779.605	-2.61
779.782	-3.36
779.959	-3.37
780.136	-3.65
780.313	-2.12
780.49	-2.77
780.667	-2.31
780.844	-3.71
781.021	-3.63
781.198	-2.8
781.375	-1.19
781.552	-3.28
781.728	-2.54
781.905	-3.84
782.082	-1.41
782.259	1.67
782.436	1.97
782.612	0.93
782.789	0.35
782.966	-1.3
783.143	-1.28
783.319	-0.74
783.496	-0.45
783.673	-0.64
783.849	0.83
784.026	2.12
784.203	3.16
784.379	1.1
784.556	3.61
784.732	4.9
784.909	5.32
785.085	5.88
785.262	6.86
785.438	7.58
785.615	8.52
785.791	7.78
785.968	6.33
786.144	6.08
786.321	7.35
786.497	6.24
786.673	7.9
786.85	9.13
787.026	8.22
787.203	7.82
787.379	6.62
787.555	3.75
787.731	0.85
787.908	-0.98
788.084	0.56
788.26	-2.72
788.437	-1.76
788.613	-4.67
788.789	-6.77
788.965	-7.31
789.141	-8.7
789.317	-10.16
789.494	-12.17
789.67	-11.68
789.846	-12.56
790.022	-15.14
790.198	-13.11
790.374	-13.82
790.55	-14.16
790.726	-16.29
790.902	-16.02
791.078	-13.57
791.254	-11.84
791.43	-10.63
791.606	-8.57
791.782	-8.34
791.958	-7.82
792.134	-9.86
792.31	-8.48
792.486	-7.45
792.661	-8.77
792.837	-7.46
793.013	-6.82
793.189	-5.52
793.365	-4.98
793.54	-1.63
793.716	-0.55
793.892	0.2
794.068	-1.77
794.243	-2.15
794.419	-0
794.595	-1.18
794.77	-2.28
794.946	-2.35
795.122	-3.12
795.297	-3.7
795.473	-3.61
795.648	-3.45
795.824	-4.77
796	-1.44
796.175	-0.65
796.351	-1.46
796.526	-2.74
796.702	-1.31
796.877	-0.08
797.052	0.1
797.228	-3.28
797.403	-5.46
797.579	-5.39
797.754	-3.47
797.929	-2.97
798.105	-3.14
798.28	-4.05
798.455	-2.24
798.631	-3.43
798.806	-0.07
798.981	0.48
799.157	-1.04
799.332	0.36
799.507	1.44
799.682	0.21
799.858	-0.3
800.033	1.3
800.208	2.14
800.383	2.93
800.558	2.58
800.733	2.85
800.908	2.88
801.083	6.63
801.258	4.95
801.434	7.95
801.609	7.84
801.784	10.7
801.959	11.56
802.134	10.23
802.309	9.86
802.484	6.18
802.658	7.07
802.833	6.32
803.008	6.46
803.183	5.17
803.358	5.08
803.533	4.83
803.708	3.01
803.883	0.8
804.057	-3.37
804.232	-1.45
804.407	-1.7
804.582	0.38
804.756	-4.27
804.931	-2.85
805.106	-7.54
805.281	-9.21
805.455	-12.07
805.63	-11.97
805.805	-13.4
805.979	-11.63
806.154	-10.51
806.328	-11.64
806.503	-9.74
806.678	-10.68
806.852	-9.73
807.027	-11.05
807.201	-13.93
807.376	-11.29
807.55	-12.04
807.725	-11.69
807.899	-12.23
808.074	-12.98
808.248	-12.89
808.422	-11.98
808.597	-14.56
808.771	-11.81
808.946	-7.45
809.12	-5.23
809.294	-7.95
809.468	-4.03
809.643	-2.84
809.817	-1.74
809.991	-3.44
810.166	-4.27
810.34	-4.21
810.514	0.1
810.688	-0.16
810.862	1.69
811.037	3.1
811.211	3.86
811.385	6.83
811.559	5.52
811.733	6.33
811.907	2.71
812.081	0.15
812.255	-1.48
812.429	-3.09
812.603	-7.88
812.777	-9.8
812.951	-9.01
813.125	-12.68
813.299	-15.54
813.473	-18.64
813.647	-13.93
813.821	-11.06
813.995	-8.12
814.169	-14.13
814.343	-11.09
814.516	-8.17
814.69	-7.3
814.864	-6.42
815.038	-7.4
815.212	-1.68
815.385	-1.99
815.559	-0.93
815.733	3.76
815.907	7.65
816.08	10.57
816.254	11.09
816.428	12.47
816.601	12.68
816.775	12.83
816.948	13.42
817.122	15.58
817.296	12.84
817.469	11.81
817.643	8.63
817.816	9.33
817.99	8.39
818.163	5.22
818.337	1.03
818.51	0.15
818.684	1.56
818.857	-4.94
819.031	-6.4
819.204	-3.88
819.377	-1.57
819.551	-4.26
819.724	-6.99
819.897	-5.15
820.071	-5.53
820.244	-6.8
820.417	-5.88
820.591	-6.04
820.764	-6.22
820.937	-1.36
821.11	-3.92
821.284	-3.65
821.457	0.82
821.63	-1.95
821.803	-3.15
821.976	0.6
822.149	1.59
822.322	0.76
822.496	1.69
822.669	3.74
822.842	2.19
823.015	-0.61
823.188	0.52
823.361	-0.36
823.534	-0.99
823.707	-0.5
823.88	0.42
824.053	-1.48
824.226	-0.18
824.399	0.18
824.571	-5.71
824.744	-3.49
824.917	0.57
825.09	-2.44
825.263	-1.75
825.436	3.09
825.608	0.74
825.781	2.26
825.954	3.83
826.127	1.74
826.299	0.87
826.472	1.88
826.645	1.98
826.818	1.32
826.99	0.1
827.163	-1.63
827.336	-3.39
827.508	-4.76
827.681	-2.28
827.853	-2.61
828.026	-4.58
828.198	-1.54
828.371	-0.69
828.544	-7.09
828.716	-9
828.889	-10.48
829.061	-15.96
829.233	-16.5
829.406	-20.03
829.578	-25.03
829.751	-20.32
829.923	-21.6
830.096	-22.61
830.268	-24.8
830.44	-24.75
830.613	-23.36
830.785	-23.53
830.957	-25.66
831.129	-20.53
831.302	-21.1
831.474	-25.82
831.646	-19.42
831.818	-18.61
831.991	-21.2
832.163	-18.78
832.335	-14.21
832.507	-11
832.679	-8.17
832.851	-7.08
833.023	-6.53
833.195	-4.08
833.368	-9.93
833.54	-7.99
833.712	-8.64
833.884	-2.17
834.056	-4.7
834.228	-4.21
834.4	1.6
834.571	3.79
834.743	2.19
834.915	-1.54
835.087	1.55
835.259	0.18
835.431	-1.41
835.603	-3.94
835.775	-2.94
835.946	-2.97
836.118	-4.96
836.29	-9.12
836.462	-11.2
836.634	-10.6
836.805	-15.14
836.977	-10.93
837.149	-11
837.32	-9.72
837.492	-11.05
837.664	-8.24
837.835	-11.37
838.007	-17.29
838.179	-18.42
838.35	-17.69
838.522	-10.28
838.693	-10.68
838.865	-19.86
839.036	-22.59
839.208	-15.94
839.379	-14.83
839.551	-14.43
839.722	-11.72
839.894	-12.41
840.065	-11.83
840.237	-10.86
840.408	-7.65
840.579	-4.67
840.751	-7.5
840.922	-9.52
841.093	-15.41
841.265	-15.64
841.436	-10.61
841.607	-9.37
841.778	-8.27
841.95	-9.12
842.121	-11.78
842.292	-9.73
842.463	-4.62
842.635	-2.84
842.806	-6.83
842.977	-9.05
843.148	-14.67
843.319	-15.66
843.49	-11.11
843.661	-18.7
843.832	-16.22
844.003	-11.97
844.174	-13.37
844.345	-8.17
844.516	-9.55
844.687	-6.06
844.858	3.02
845.029	4.43
845.2	4.77
845.371	2.97
845.542	1.99
845.713	-2.95
845.884	-4.55
846.055	-9.11
846.225	-6.63
846.396	-7.19
846.567	-6.56
846.738	-4.25
846.909	-3.92
847.079	-8.58
847.25	2.3
847.421	-4.02
847.591	-14.37
847.762	-17.74
847.933	-19.62
848.103	-19.47
848.274	-25.44
848.445	-30.05
848.615	-31.18
848.786	-38.32
848.956	-29.07
849.127	-30.88
849.297	-22.68
849.468	-17.99
849.638	-14.36
849.809	-16.29
849.979	-17.11
850.15	-11.05
850.32	-9.96
850.491	-13.31
850.661	-6.58
850.831	-7.32
851.002	-5.2
851.172	-6.2
851.342	-8.64
851.513	-9.13
851.683	-3.9
851.853	-0.79
852.024	-4.47
852.194	-5.97
852.364	-1.29
852.534	-1.82
852.705	3.2
852.875	-0
853.045	-3.06
853.215	-6.12
853.385	-1.58
853.555	4.37
853.725	-5.87
853.895	-8.58
854.066	-7.31
854.236	-10.42
854.406	-13.72
854.576	-11.74
854.746	-11.67
854.916	-3.41
855.086	-9.92
855.256	-6.79
855.425	-5.13
855.595	2.64
855.765	-1.45
855.935	-6.88
856.105	-12.42
856.275	-8.96
856.445	-13.85
856.614	-17.61
856.784	-4.82
856.954	-7.03
857.124	-11.02
857.294	-10.03
857.463	-6.78
857.633	-4.84
857.803	-5.29
857.972	-2.54
858.142	-1.55
858.312	2.95
858.481	1.04
858.651	-0.17
858.821	-3.52
858.99	-3.16
859.16	-12.71
859.329	-11.8
859.499	-5.26
859.668	-2.46
859.838	-8.25
860.007	7.28
860.177	13.47
860.346	6
860.516	2.56
860.685	-1.86
860.854	3.54
861.024	2.9
861.193	-0.04
861.363	3.71
861.532	-5.03
861.701	-6.05
861.87	-4.78
862.04	-7.31
862.209	3.19
862.378	6.36
862.547	6.91
862.717	9.69
862.886	13.98
863.055	7.33
863.224	3.25
863.393	2.91
863.563	-5.68
863.732	-7.98
863.901	-14.25
864.07	-12.78
864.239	-6.13
864.408	-9.88
864.577	-13.76
864.746	-5.08
864.915	-10.06
865.084	-3.32
865.253	0.58
865.422	0.17
865.591	-2.07
865.76	-5.46
865.929	-10.11
866.097	-10.27
866.266	-16.28
866.435	-23.4
866.604	-19.18
866.773	-13.09
866.942	-15.7
867.11	-22.68
867.279	-19.68
867.448	-5.19
867.617	0.74
867.785	-2.97
867.954	-7.27
868.123	-0.54
868.291	-18.29
868.46	-4.34
868.629	-4.36
868.797	-10.64
868.966	-17.07
869.134	-8.04
869.303	-1.94
869.472	-3.53
869.64	-9.12
869.809	-9.33
869.977	-7.48
870.146	-12.38
870.314	-9.81
870.482	-8.12
870.651	-5.91
870.819	-11.99
870.988	-21.35
871.156	-23.98
871.324	-30.29
871.493	-37.14
871.661	-27.51
871.829	-17.37
871.998	-30.14
872.166	-43.97
872.334	-46
872.502	-39.59
872.671	-51.47
872.839	-52.79
873.007	-52.07
873.175	-44.22
873.343	-44.65
873.512	-38.35
873.68	-27.37
873.848	-39.29
874.016	-28.57
874.184	-24.03
874.352	-17.55
874.52	-3.26
874.688	-16.8
874.856	-12.07
875.024	-7.84
875.192	-19.38
875.36	-40.24
875.528	-36.47
875.696	-22.82
875.864	-18.74
876.032	-18.04
876.199	-16.78
876.367	-24.13
876.535	-33.83
876.703	-36.26
876.871	-25.33
877.039	-25.14
877.206	-20.42
877.374	-8.87
877.542	-17.94
877.71	-20.4
877.877	-30.29
878.045	-38.15
878.213	-23.52
878.38	-25.44
878.548	-11.14
878.715	-3.23
878.883	5.2
879.051	10.51
879.218	-3.14
879.386	-3.48
879.553	-6.49
879.721	-4.63
879.888	-4.61
880.056	-1.87
880.223	-2.14
880.391	1.49
880.558	-9.82
880.726	1.44
880.893	-6.41
881.06	-6.84
881.228	-6.93
881.395	3.15
881.562	1.72
881.73	-1.53
881.897	2.19
882.064	13.1
882.231	10.5
882.399	20.98
882.566	13.26
882.733	40.21
882.9	55.07
883.068	59.4
883.235	43.78
883.402	46.88
883.569	54.3
883.736	54.94
883.903	47.37
884.07	53.72
884.237	44.07
884.404	44.44
884.571	57.84
884.738	53.06
884.905	59.5
885.072	65.21
885.239	57.81
885.406	62.28
