Data from Transmission_09-38-22-095.txt Node
Date: Fri Aug 24 09:38:22 EEST 2018
User: tibor.sos
Spectrometer: USB4F01757
Scans to average: 10
Trigger mode: 4
Integration Time (sec): 1.000000E-2
Electric dark correction enabled: true
Boxcar width: 10
XAxis mode: Wavelengths
Number of Pixels in Spectrum: 3648
>>>>>Begin Spectral Data<<<<<
178.758	-81.54
178.974	-198.47
179.191	-299.15
179.407	-83.77
179.624	-56.75
179.84	-63.26
180.057	-80.32
180.273	-55.47
180.489	-61.18
180.706	-124.85
180.922	-101.45
181.138	-53.57
181.355	15.01
181.571	28.43
181.787	-3.22
182.004	-1.74
182.22	-62.39
182.436	-62.97
182.653	-25.86
182.869	-29.06
183.085	-52.28
183.301	-44.54
183.518	-20.1
183.734	-20.79
183.95	-33.72
184.166	-37.92
184.383	-16.1
184.599	-21.94
184.815	-25.18
185.031	-28.87
185.247	-6.37
185.463	-13
185.68	-6.72
185.896	-27.37
186.112	-30.01
186.328	-1.24
186.544	22.39
186.76	59.11
186.976	84.78
187.192	93.39
187.408	107.56
187.624	134.66
187.84	121.67
188.056	98.92
188.272	103.88
188.488	99.89
188.704	111.06
188.92	136.38
189.136	116.65
189.352	134.73
189.568	178.51
189.784	165.27
190	176.73
190.216	171.97
190.432	182.28
190.648	179.71
190.864	439.17
191.08	356.43
191.296	166.92
191.511	144.61
191.727	147.58
191.943	155.88
192.159	99.27
192.375	95.3
192.591	147.26
192.806	239.53
193.022	134.05
193.238	131.84
193.454	67.35
193.669	112.48
193.885	86.97
194.101	-48.79
194.317	-61.37
194.532	-1485.39
194.748	1349.58
194.964	-334.84
195.18	-87.58
195.395	-126.53
195.611	-165.87
195.827	-303.73
196.042	-670.68
196.258	-226.35
196.473	-227.02
196.689	-359.43
196.905	-459.76
197.12	-2564.36
197.336	-992.88
197.551	1003.14
197.767	-234200
197.982	-566.1
198.198	-2956.16
198.414	-2348.31
198.629	-372.75
198.845	-259.23
199.06	-158.41
199.276	-163.21
199.491	-915.68
199.707	-171.25
199.922	-56.23
200.137	-44.16
200.353	-86.76
200.568	-57.62
200.784	-100.07
200.999	-107.67
201.215	-150.29
201.43	-156.47
201.645	-98.22
201.861	-135.08
202.076	-120.89
202.291	-141.34
202.507	-141.91
202.722	-97.85
202.937	-289.31
203.153	-256.75
203.368	-159.41
203.583	-132.32
203.798	-128.46
204.014	-112.92
204.229	-135.38
204.444	-166.45
204.659	-563.87
204.875	-596.26
205.09	2146.22
205.305	-4954.72
205.52	2008.13
205.735	1342.51
205.951	-9576
206.166	533.16
206.381	398.87
206.596	3160
206.811	1247.95
207.026	625.09
207.241	281.61
207.457	-595.02
207.672	-1743.8
207.887	1758.88
208.102	406.26
208.317	533.49
208.532	-1302.82
208.747	1231.69
208.962	945.95
209.177	-1198.66
209.392	-695.95
209.607	-117.77
209.822	-99.6
210.037	-119.91
210.252	-148.24
210.467	-259.08
210.682	-107.48
210.897	-93.78
211.112	-259.11
211.326	-184.17
211.541	-273.5
211.756	-119.45
211.971	-274.17
212.186	-209.59
212.401	-235.09
212.616	-227.93
212.831	-191.37
213.045	-272.58
213.26	-191.43
213.475	-164.51
213.69	-247.69
213.905	-419.92
214.119	-1999.1
214.334	17192.59
214.549	1756.28
214.764	-2305.7
214.978	-1465.53
215.193	-1863.24
215.408	12979.49
215.622	-1665.66
215.837	-8795.56
216.052	4048.28
216.266	905.82
216.481	937.07
216.696	563.34
216.91	-7739.39
217.125	-568.39
217.34	-939.9
217.554	-1289.73
217.769	624.13
217.983	412.46
218.198	601.62
218.412	880.39
218.627	-327.39
218.842	-139.77
219.056	-108.12
219.271	-43.89
219.485	-54.44
219.7	-42.5
219.914	25.77
220.129	-3.21
220.343	-52.35
220.558	-124.02
220.772	-129.89
220.986	-65.85
221.201	-126.5
221.415	350.34
221.63	219.86
221.844	133.5
222.058	138.81
222.273	146.51
222.487	170.09
222.702	248.47
222.916	254.91
223.13	159.67
223.344	167.17
223.559	142.79
223.773	177.02
223.987	231.32
224.202	240.09
224.416	298.81
224.63	214.01
224.844	132.94
225.059	107.75
225.273	733.33
225.487	-584
225.701	-19.8
225.915	-9.88
226.13	-2.87
226.344	24.3
226.558	-3.06
226.772	-15.34
226.986	14.03
227.2	10.94
227.415	25.44
227.629	15.86
227.843	-16.37
228.057	7.28
228.271	27.5
228.485	22.97
228.699	16.88
228.913	-16.55
229.127	-21.99
229.341	-59.34
229.555	-92.63
229.769	-201.36
229.983	-342.9
230.197	-296.51
230.411	-453.58
230.625	-517.85
230.839	-449.57
231.053	-675.33
231.267	-1118.52
231.481	-1080.75
231.695	-523.12
231.909	-191.24
232.122	-114
232.336	-132.22
232.55	-261.66
232.764	-426.4
232.978	-443.58
233.192	-507.35
233.405	-648.63
233.619	-412.16
233.833	-230.46
234.047	-354.32
234.261	-608.83
234.474	-320.08
234.688	1024.19
234.902	848.89
235.116	544.27
235.329	427.47
235.543	717.52
235.757	425.17
235.97	280.61
236.184	354.52
236.398	277.98
236.612	297.95
236.825	366.59
237.039	445.41
237.252	412.36
237.466	1593.94
237.68	5345.76
237.893	-317800
238.107	-1186.56
238.32	2450.43
238.534	-686.33
238.748	-421.59
238.961	-293.99
239.175	-375.34
239.388	-394.19
239.602	-692.67
239.815	-319.94
240.029	-673.57
240.242	-396.23
240.456	-308.91
240.669	-228.25
240.882	-169.05
241.096	-253.75
241.309	-229.49
241.523	-403.19
241.736	-615.56
241.95	1755.31
242.163	-2684.21
242.376	-803.97
242.59	-3236.8
242.803	30013.33
243.016	1574.02
243.23	4492.44
243.443	35533.33
243.656	-4004.51
243.87	-740.84
244.083	-409.39
244.296	-338.5
244.509	-239.49
244.723	-287.89
244.936	-257.76
245.149	-398.35
245.362	-424.35
245.576	-242.32
245.789	-271.42
246.002	-181.7
246.215	-221.08
246.428	-149.64
246.641	-181.36
246.855	-261.63
247.068	-280.45
247.281	-253.33
247.494	-87.15
247.707	-117.43
247.92	-149.68
248.133	-106.83
248.346	-123.12
248.559	-86.74
248.772	-152.51
248.985	-109.86
249.198	-66.15
249.411	-82.69
249.624	-79.75
249.837	-75.21
250.05	-71.8
250.263	-82.94
250.476	-88.51
250.689	-57.63
250.902	-59.94
251.115	-61.34
251.328	-51.02
251.541	-30.79
251.754	-17.12
251.967	-25.63
252.18	-31.54
252.393	-31.78
252.605	-35.29
252.818	-28.38
253.031	-36.76
253.244	-17.74
253.457	-28.72
253.67	-37.4
253.882	-29.14
254.095	-9.46
254.308	-11.7
254.521	-19.08
254.733	-9
254.946	-9.79
255.159	-18.59
255.372	-25.34
255.584	-23.67
255.797	-24.36
256.01	-41.21
256.222	-48.41
256.435	-60.14
256.648	-38.21
256.86	-40.55
257.073	-27.89
257.285	-33.49
257.498	-40.74
257.711	-43.47
257.923	-40.27
258.136	-25.47
258.348	-26.81
258.561	-45.58
258.773	-61.08
258.986	-78.77
259.198	-100.77
259.411	-170.06
259.623	-111.6
259.836	-91.31
260.048	-74.71
260.261	-27.42
260.473	-24.01
260.686	-32.6
260.898	-22.89
261.111	-27.67
261.323	-15.6
261.535	-26.8
261.748	-24.89
261.96	-15
262.173	-15.66
262.385	-16.14
262.597	-23.24
262.81	-21.59
263.022	-21.91
263.234	-7.04
263.447	0.43
263.659	5.98
263.871	12.68
264.083	9.99
264.296	8.75
264.508	7.09
264.72	-6.46
264.932	-2.1
265.145	-13.79
265.357	-30.24
265.569	-38.8
265.781	-49.99
265.993	-67.8
266.205	-79.9
266.418	-95.41
266.63	-146.3
266.842	-125.32
267.054	-103.08
267.266	-87.03
267.478	-115.3
267.69	-96.35
267.902	-111.92
268.114	-139.54
268.326	-116.84
268.538	-137
268.75	-103.64
268.962	-106.82
269.174	-99.69
269.386	-82.69
269.598	-55.17
269.81	-37.92
270.022	-33.68
270.234	-26.06
270.446	-19.06
270.658	-21.13
270.87	-13.98
271.082	-6.81
271.294	-4.45
271.506	-15.41
271.718	-15.98
271.929	-9.59
272.141	-12.3
272.353	-7.17
272.565	-6.8
272.777	-7.75
272.989	-5.73
273.2	-7.37
273.412	-7.24
273.624	-12.07
273.836	-13.17
274.047	-8.5
274.259	-8.74
274.471	-4.61
274.683	-8.57
274.894	-10.99
275.106	-6
275.318	-14.79
275.529	-13.73
275.741	-20.86
275.953	-6.91
276.164	-2.2
276.376	4.87
276.588	-0.48
276.799	-6.68
277.011	-2.25
277.222	-2.56
277.434	-3.92
277.646	-10.84
277.857	-7.44
278.069	1.51
278.28	0.8
278.492	-2.67
278.703	-5.15
278.915	-3.98
279.126	-2.71
279.338	0.95
279.549	-1.97
279.761	1.61
279.972	2.57
280.183	5.73
280.395	7.29
280.606	-7.49
280.818	-13.9
281.029	-14.81
281.24	-8.89
281.452	-11.54
281.663	-13.31
281.875	-7.2
282.086	-3.5
282.297	-14.7
282.508	-13.43
282.72	-11.31
282.931	-9.55
283.142	-6.8
283.354	-17.16
283.565	-27.86
283.776	-25.18
283.987	-48.05
284.199	-48.04
284.41	-37.49
284.621	-26.24
284.832	-24.69
285.043	-15.17
285.254	-23.93
285.466	-25.34
285.677	-22.26
285.888	-28.95
286.099	-35.55
286.31	-36.69
286.521	-45.22
286.732	-45.51
286.943	-49.55
287.154	-52.74
287.366	-53.96
287.577	-64.71
287.788	-59.51
287.999	-51.77
288.21	-60.54
288.421	-41.73
288.632	-44.06
288.843	-53.56
289.054	-56.98
289.264	-62.86
289.475	-61.78
289.686	-46.82
289.897	-37.56
290.108	-32.35
290.319	-29.68
290.53	-17.78
290.741	-18.32
290.952	-16.23
291.163	-5.85
291.373	-1.13
291.584	6.18
291.795	3.54
292.006	13.37
292.217	15.55
292.427	21.12
292.638	27.72
292.849	20.82
293.06	20.4
293.27	25.39
293.481	22.3
293.692	20.14
293.903	16.96
294.113	14.81
294.324	14.37
294.535	4.09
294.745	0.86
294.956	-1.66
295.167	-3.13
295.377	1
295.588	1.03
295.798	-4.28
296.009	-12.49
296.22	-10.75
296.43	-14.12
296.641	-23.42
296.851	-31.5
297.062	-39.4
297.272	-26.9
297.483	-29.93
297.693	-27.91
297.904	-27.34
298.114	-18.34
298.325	-15.33
298.535	-27.91
298.746	-29.95
298.956	-24.5
299.167	-23.83
299.377	-36.44
299.587	-35.94
299.798	-42.03
300.008	-55.17
300.219	-46.53
300.429	-43.46
300.639	-40.22
300.85	-37.16
301.06	-35.22
301.27	-21.42
301.481	-15.49
301.691	-31.05
301.901	-20.11
302.111	-20.98
302.322	-14.83
302.532	-17.97
302.742	-24.06
302.952	-16.27
303.163	-17.56
303.373	-23.11
303.583	-14.59
303.793	-5.42
304.003	-4.41
304.214	-2.96
304.424	0.37
304.634	-7.39
304.844	-7.27
305.054	-7.3
305.264	-12.58
305.474	-9.62
305.684	-17.36
305.894	-16.53
306.104	-9.68
306.314	-23.78
306.525	-33.39
306.735	-36.56
306.945	-51.4
307.155	-42.81
307.365	-36.98
307.575	-33.05
307.784	-28.36
307.994	-32.84
308.204	-33.45
308.414	-33.78
308.624	-30.18
308.834	-25.16
309.044	-22.71
309.254	-17.19
309.464	-11.64
309.674	-13.98
309.884	-14.43
310.093	-11.45
310.303	-13.6
310.513	-2.7
310.723	3.47
310.933	7.5
311.142	6.06
311.352	8.44
311.562	9.19
311.772	5.86
311.981	2.33
312.191	-1.19
312.401	-0.54
312.611	1.5
312.82	-3.57
313.03	-2.21
313.24	-6.66
313.449	2.63
313.659	-4.56
313.869	-12.58
314.078	-9.39
314.288	-13.4
314.497	-18.78
314.707	-18.56
314.917	-31.02
315.126	-26.78
315.336	-25.13
315.545	-29.7
315.755	-24.52
315.964	-22.04
316.174	-15.49
316.383	-13.14
316.593	-8.05
316.802	-8.73
317.012	-11.2
317.221	-4.26
317.431	-8.64
317.64	-4.36
317.849	-15.88
318.059	-16.77
318.268	-9.83
318.478	-2.17
318.687	-0.95
318.896	-0.9
319.106	0.69
319.315	2.48
319.524	-12.12
319.734	-16.06
319.943	-6.65
320.152	-3.9
320.362	-12.59
320.571	-15.5
320.78	-19.81
320.989	-19.08
321.199	-15.59
321.408	-9.5
321.617	-11.97
321.826	-5.94
322.035	-11.36
322.245	-11
322.454	-4.83
322.663	-3.69
322.872	-10.32
323.081	-11.19
323.29	-13.42
323.5	-18.05
323.709	-18.82
323.918	-12.11
324.127	-9.45
324.336	-22.53
324.545	-27.01
324.754	-22.94
324.963	-20.55
325.172	-15.17
325.381	-16.18
325.59	-23.56
325.799	-29.76
326.008	-32.73
326.217	-44.67
326.426	-36.53
326.635	-34.73
326.844	-35.7
327.053	-32.09
327.262	-25.23
327.47	-17.75
327.679	-7.96
327.888	-4.21
328.097	-2.8
328.306	8.55
328.515	12.39
328.724	13.74
328.932	7.45
329.141	12.44
329.35	9.34
329.559	5.45
329.768	5.69
329.976	14.15
330.185	4.39
330.394	3.4
330.602	3.78
330.811	-2.86
331.02	-4.04
331.229	-0.64
331.437	3.57
331.646	-3.34
331.855	-2.87
332.063	-4.54
332.272	-8.03
332.48	-15.46
332.689	-25.44
332.898	-35.42
333.106	-29.3
333.315	-24.24
333.523	-27.52
333.732	-32.09
333.94	-29.42
334.149	-30.44
334.357	-44.09
334.566	-25.88
334.774	-17.79
334.983	-10.81
335.191	-19.32
335.4	-18.31
335.608	-27.51
335.817	-46.73
336.025	-37.95
336.234	-52.11
336.442	-51.51
336.65	-59.13
336.859	-40.92
337.067	-40.86
337.275	-27.1
337.484	-26.23
337.692	-21.42
337.9	-23.25
338.109	-16.33
338.317	-20.71
338.525	-15.39
338.734	-8.4
338.942	-19.44
339.15	-37.67
339.358	-56.56
339.567	-29.31
339.775	-28.44
339.983	-43.17
340.191	-47.13
340.399	-53.74
340.608	-34.91
340.816	-36.31
341.024	-26.55
341.232	-37.1
341.44	-36.22
341.648	-35.29
341.856	-40.03
342.064	-46.98
342.272	-50.61
342.481	-52.02
342.689	-48.05
342.897	-40.47
343.105	-37.71
343.313	-25.22
343.521	-23
343.729	-17.78
343.937	-25.42
344.145	-28.67
344.353	-15.31
344.56	-14.59
344.768	-12.56
344.976	-23.1
345.184	-21.76
345.392	-23.99
345.6	-15.32
345.808	-8.8
346.016	-16.58
346.224	-13.44
346.431	-8.18
346.639	-1.55
346.847	2.04
347.055	2.41
347.263	-10.65
347.471	-17.21
347.678	-27.66
347.886	-24.38
348.094	-19.35
348.302	-9.62
348.509	-4.75
348.717	-13.52
348.925	-10.81
349.132	-15.48
349.34	-13.7
349.548	-12.87
349.755	-10.64
349.963	-18.01
350.171	-19.58
350.378	-15.49
350.586	-20.65
350.793	-18.78
351.001	-18.8
351.209	-20.95
351.416	-12.57
351.624	-11.16
351.831	-18.14
352.039	-17.41
352.246	-27.46
352.454	-38.81
352.661	-45.67
352.869	-51.29
353.076	-49.3
353.284	-43.73
353.491	-31.61
353.699	-30.92
353.906	-23.17
354.113	-17.16
354.321	-15.64
354.528	-12.81
354.736	-13.87
354.943	-9.44
355.15	-13.27
355.358	-17.54
355.565	-24.07
355.772	-30.3
355.98	-24.23
356.187	-14.67
356.394	-20.13
356.601	-11.4
356.809	-1.83
357.016	2.44
357.223	-0.42
357.43	-5.81
357.638	-8.73
357.845	-10.92
358.052	-13.91
358.259	-17.97
358.466	-26.43
358.673	-31.61
358.881	-35.4
359.088	-34.5
359.295	-31.32
359.502	-40.31
359.709	-36.49
359.916	-38.07
360.123	-36.85
360.33	-49.46
360.537	-52.89
360.744	-38
360.951	-43.97
361.158	-55
361.365	-56.64
361.572	-41.26
361.779	-24.02
361.986	-26.03
362.193	-28.37
362.4	-26.72
362.607	-39.04
362.814	-31.81
363.021	-21.28
363.228	-26.07
363.435	-18.74
363.641	-20.36
363.848	-20.14
364.055	-13.29
364.262	-5.54
364.469	-3.8
364.676	0.8
364.882	1.9
365.089	-4.46
365.296	5.67
365.503	4.98
365.709	-2.77
365.916	-12.02
366.123	-15.27
366.33	-19.52
366.536	-18.62
366.743	-17.28
366.95	-22.47
367.156	-24.45
367.363	-23.2
367.57	-25.55
367.776	-27.58
367.983	-25.15
368.19	-17.37
368.396	-23.35
368.603	-21.59
368.809	-13.45
369.016	-15.67
369.222	-17.46
369.429	-13.86
369.635	-16.81
369.842	-21.21
370.048	-17.71
370.255	-9.89
370.461	-16.01
370.668	-11.54
370.874	-16.66
371.081	-9.76
371.287	-0.28
371.494	-0.96
371.7	-3.98
371.906	-6.37
372.113	-12.4
372.319	-17.98
372.526	-14.43
372.732	-16.1
372.938	-27.65
373.145	-33.65
373.351	-26.48
373.557	-29.66
373.763	-38.43
373.97	-38.52
374.176	-24.74
374.382	-24.02
374.588	-28.95
374.795	-20.95
375.001	-23.18
375.207	-21.12
375.413	-22.41
375.62	-22.25
375.826	-26.81
376.032	-27.73
376.238	-19.62
376.444	-13.34
376.65	-11.75
376.856	-26.7
377.062	-15.92
377.269	-0.9
377.475	-1.5
377.681	-12.04
377.887	-11.08
378.093	-19.27
378.299	-20.29
378.505	-26.35
378.711	-20.06
378.917	-12.17
379.123	-18.02
379.329	-14.56
379.535	-13.52
379.741	-18.29
379.947	-23.68
380.152	-18.95
380.358	-17.34
380.564	-25.62
380.77	-36.73
380.976	-34.3
381.182	-31.37
381.388	-34.1
381.594	-47.41
381.799	-45.32
382.005	-39.8
382.211	-31.65
382.417	-22.54
382.623	-28.87
382.828	-28.15
383.034	-38.26
383.24	-51.23
383.445	-53.93
383.651	-52.58
383.857	-62.68
384.063	-51.21
384.268	-62.42
384.474	-49.07
384.68	-51.21
384.885	-40.25
385.091	-27.4
385.296	-32.04
385.502	-22.99
385.708	-29.5
385.913	-23.35
386.119	-28.19
386.324	-26.02
386.53	-35.62
386.735	-35.29
386.941	-26.57
387.146	-30.76
387.352	-17.42
387.557	0.76
387.763	0.04
387.968	-10.84
388.174	0.79
388.379	-8.79
388.585	-1.04
388.79	-13.65
388.996	-20.85
389.201	-16.48
389.406	-23.81
389.612	-32.16
389.817	-24.61
390.022	-22.16
390.228	-17.66
390.433	-14.75
390.638	-22.47
390.844	-22.43
391.049	-29.69
391.254	-30.64
391.459	-22.93
391.665	-33.56
391.87	-39.72
392.075	-24.39
392.28	-18.07
392.485	-27.16
392.691	-30.01
392.896	-34.21
393.101	-33.2
393.306	-21.38
393.511	-21.62
393.716	-14.23
393.922	-8
394.127	-23.81
394.332	-13.43
394.537	-18.16
394.742	-17.69
394.947	-12.94
395.152	-8.26
395.357	-3.37
395.562	2.01
395.767	-7.2
395.972	-0.59
396.177	-4.14
396.382	-9.29
396.587	-8.43
396.792	-6.13
396.997	0.57
397.202	11.24
397.407	9.04
397.611	9.21
397.816	7.05
398.021	-0.45
398.226	-3.38
398.431	4.81
398.636	-2.19
398.841	6.22
399.045	11.31
399.25	3
399.455	-0.45
399.66	-5.28
399.864	-13.52
400.069	-14.87
400.274	-15.26
400.479	-15.38
400.683	-16.24
400.888	-20.43
401.093	-36.37
401.297	-35.76
401.502	-48.15
401.707	-50.17
401.911	-50.52
402.116	-43.65
402.321	-35.76
402.525	-32.5
402.73	-33.75
402.934	-29.2
403.139	-42.04
403.344	-47.75
403.548	-38.03
403.753	-39.26
403.957	-47.75
404.162	-55.04
404.366	-43.97
404.571	-44.49
404.775	-46.22
404.98	-51.24
405.184	-43.68
405.388	-22.64
405.593	-22.76
405.797	-22.27
406.002	-10.43
406.206	-14.08
406.41	-19.56
406.615	-10.39
406.819	-11.88
407.023	-0.19
407.228	-8.88
407.432	-16.88
407.636	-17.41
407.841	-17.38
408.045	-14.12
408.249	-14.43
408.453	-11.51
408.658	-10.49
408.862	-4.11
409.066	0.61
409.27	-3.13
409.474	-10.68
409.679	-18.92
409.883	-24.71
410.087	-34.54
410.291	-37.59
410.495	-39.11
410.699	-38
410.903	-43.57
411.108	-37.09
411.312	-62.05
411.516	-64.04
411.72	-42.35
411.924	-49.99
412.128	-50.59
412.332	-49.54
412.536	-39.73
412.74	-31.09
412.944	-32.76
413.148	-41.76
413.352	-54.31
413.556	-57.31
413.76	-53.11
413.964	-45.74
414.167	-33.16
414.371	-19.66
414.575	-26.98
414.779	-37.16
414.983	-30.3
415.187	-33.38
415.391	-44.16
415.594	-29.86
415.798	-27.94
416.002	-28.04
416.206	-16.91
416.41	-16.67
416.613	-21.74
416.817	-28.11
417.021	-17.73
417.225	-14.05
417.428	-12.72
417.632	-18.7
417.836	-13.61
418.039	-5.03
418.243	1.55
418.447	-6.46
418.65	-13.54
418.854	-0.04
419.057	13.88
419.261	17.92
419.465	24.08
419.668	27.7
419.872	27.95
420.075	32.87
420.279	25.05
420.482	21.51
420.686	21.98
420.889	24
421.093	26.99
421.296	15.52
421.5	17.93
421.703	14.98
421.907	32.62
422.11	31.97
422.314	29
422.517	27.46
422.72	25.05
422.924	25.16
423.127	17.88
423.33	4.22
423.534	-1.46
423.737	4.81
423.94	4.89
424.144	2.27
424.347	7.45
424.55	3.59
424.754	3.1
424.957	-3.66
425.16	10.17
425.363	7.77
425.567	11.68
425.77	10.47
425.973	18.12
426.176	5.89
426.379	16.37
426.582	16.17
426.786	17.11
426.989	13.86
427.192	21.55
427.395	19.53
427.598	20.09
427.801	13.01
428.004	3.27
428.207	7.79
428.41	5.44
428.613	-0.79
428.816	9.6
429.019	14.02
429.222	13.47
429.425	5.42
429.628	7.78
429.831	7.98
430.034	8.43
430.237	9.96
430.44	6.69
430.643	-1.53
430.846	-2.07
431.049	-3.43
431.252	1.78
431.454	-0.82
431.657	-2.76
431.86	0.12
432.063	6.18
432.266	7.64
432.469	1.48
432.671	-1.21
432.874	4.79
433.077	-13.94
433.28	-15.28
433.482	-13.35
433.685	-19.28
433.888	-17.26
434.09	-26.67
434.293	-43.33
434.496	-50.35
434.698	-53.22
434.901	-38.75
435.104	-42.69
435.306	-34.67
435.509	-49.89
435.712	-48.24
435.914	-63.86
436.117	-45.93
436.319	-36.97
436.522	-28.82
436.724	-25.36
436.927	-29.1
437.129	-25.15
437.332	-19.3
437.534	-18.33
437.737	-26.68
437.939	-10.95
438.142	-25.04
438.344	-13.28
438.547	-8.35
438.749	1.31
438.951	-1.41
439.154	-10.28
439.356	-8.84
439.558	-18.41
439.761	-9.49
439.963	-7.55
440.165	-2.25
440.368	-7.47
440.57	-28.93
440.772	-42.99
440.975	-56.31
441.177	-45.69
441.379	-46
441.581	-33.93
441.784	-38.33
441.986	-22.03
442.188	-34.93
442.39	-33.69
442.592	-45.58
442.795	-41.69
442.997	-49.04
443.199	-43.09
443.401	-40.45
443.603	-32.99
443.805	-32.51
444.007	-29.49
444.209	-36.33
444.411	-20.36
444.613	-24.05
444.815	-11.94
445.017	-11.5
445.219	-5.52
445.421	-8.28
445.623	-18.57
445.825	-26.99
446.027	-30.22
446.229	-45.19
446.431	-41.01
446.633	-48.74
446.835	-39.97
447.037	-38.02
447.239	-38.61
447.441	-35.26
447.643	-30.82
447.844	-49.36
448.046	-53.17
448.248	-34.95
448.45	-28.41
448.652	-52.09
448.853	-27.48
449.055	-31.34
449.257	-25.86
449.459	-32.72
449.66	-25.51
449.862	-18.32
450.064	-4.21
450.266	-1.59
450.467	-0.04
450.669	0.44
450.871	2.03
451.072	5.72
451.274	11.39
451.475	17.53
451.677	13.9
451.879	7.77
452.08	-3.47
452.282	12.53
452.483	-12.46
452.685	-21.07
452.886	-3.25
453.088	-30.62
453.289	-45.03
453.491	-65.99
453.692	-92.76
453.894	-76.74
454.095	-69.38
454.297	-67.82
454.498	-65.99
454.7	-47.93
454.901	-33.68
455.102	-27.05
455.304	-20.59
455.505	-23.23
455.706	-34.49
455.908	-40.53
456.109	-39.79
456.31	-23.01
456.512	-28.62
456.713	-18.07
456.914	-11.64
457.116	-28.05
457.317	-17.88
457.518	-18.27
457.719	-6.64
457.921	4.2
458.122	-6.1
458.323	-6.98
458.524	-4.16
458.725	-1.44
458.926	-4.9
459.128	-14.13
459.329	-5.85
459.53	-20.89
459.731	-23.6
459.932	-27.91
460.133	-22.4
460.334	-11.88
460.535	-14.07
460.736	-19.45
460.937	-18.77
461.138	-29.54
461.339	-19.39
461.54	-21.53
461.741	-18.72
461.942	-20.66
462.143	-18.29
462.344	-16.01
462.545	-10.16
462.746	-19.45
462.947	-26.08
463.148	-32.33
463.348	-29.46
463.549	-33.18
463.75	-28.25
463.951	-26.66
464.152	-28.81
464.353	-30.23
464.553	-25.66
464.754	-23.12
464.955	-25.05
465.156	-23.83
465.356	-24.44
465.557	-28.12
465.758	-28.21
465.959	-26.09
466.159	-30.51
466.36	-30.28
466.561	-25.64
466.761	-36.69
466.962	-34.21
467.163	-28.5
467.363	-27.49
467.564	-27.01
467.764	-25.55
467.965	-30.85
468.166	-32.73
468.366	-14.71
468.567	-8.4
468.767	-3.8
468.968	-6.09
469.168	0.28
469.369	1.04
469.569	1.91
469.77	-1.54
469.97	-4.31
470.17	-1.25
470.371	3.59
470.571	-0.6
470.772	4.91
470.972	11.08
471.172	14.23
471.373	9.18
471.573	11.49
471.773	6.96
471.974	11.58
472.174	10.02
472.374	13.27
472.575	8.47
472.775	7.34
472.975	-4.16
473.175	-3.17
473.376	-11.57
473.576	-12.78
473.776	-10.99
473.976	-6.19
474.177	-1.2
474.377	-2.7
474.577	-1.89
474.777	-3.22
474.977	-12.25
475.177	-13.4
475.377	-12.81
475.577	-7.25
475.777	-11.36
475.978	-6.81
476.178	-13.06
476.378	-3.88
476.578	-1.68
476.778	-4.42
476.978	-7.18
477.178	-0.88
477.378	2.45
477.578	8.81
477.778	8.24
477.977	4.06
478.177	-0.85
478.377	-8.36
478.577	-11.5
478.777	-10.66
478.977	-10.22
479.177	-8.85
479.377	-9.9
479.577	-17
479.776	-13.53
479.976	-13.71
480.176	-12.48
480.376	-12.32
480.576	-15.6
480.775	-22.49
480.975	-27.32
481.175	-26.95
481.374	-28.53
481.574	-26.86
481.774	-28.69
481.974	-25.92
482.173	-21.72
482.373	-21.71
482.572	-17.38
482.772	-11.88
482.972	-13.16
483.171	-9.66
483.371	-7.21
483.57	-5.93
483.77	1.32
483.97	-2.99
484.169	-2.17
484.369	-7.2
484.568	-6.71
484.768	-2.46
484.967	-3.1
485.167	2.37
485.366	3.73
485.566	3.68
485.765	3.12
485.964	3.19
486.164	-0.32
486.363	-3.43
486.563	-1.02
486.762	1.7
486.961	-2.44
487.161	-2.05
487.36	-5.66
487.559	-5.61
487.759	-7.31
487.958	-14.51
488.157	-14.67
488.356	-9.04
488.556	-2.59
488.755	-0.46
488.954	1.01
489.153	5.03
489.353	1.36
489.552	-1.63
489.751	-8.93
489.95	-9.37
490.149	-12.77
490.348	-9.66
490.548	-6.31
490.747	-9.2
490.946	-9.81
491.145	-9.57
491.344	-13.63
491.543	-13.45
491.742	-11.88
491.941	-12.27
492.14	-9.55
492.339	-10.22
492.538	-11.99
492.737	-10.18
492.936	-11.06
493.135	-15.23
493.334	-18.88
493.533	-21.71
493.732	-14.02
493.931	-3.13
494.13	-7.43
494.328	-6.59
494.527	-7.22
494.726	-9.65
494.925	-10.52
495.124	-7.85
495.323	-4.15
495.521	-4.63
495.72	-1.53
495.919	-3.67
496.118	-3.76
496.316	-1.24
496.515	0.39
496.714	-7.44
496.913	-8.33
497.111	-12.56
497.31	-14.87
497.509	-14.24
497.707	-11.84
497.906	-11.52
498.105	-21.75
498.303	-19.87
498.502	-21.23
498.7	-16.04
498.899	-19.33
499.097	-15.39
499.296	-18.57
499.495	-19.06
499.693	-14.31
499.892	-14.99
500.09	-19.33
500.289	-13.41
500.487	-16.48
500.686	-18.87
500.884	-11.94
501.082	-18.66
501.281	-18.43
501.479	-14.9
501.678	-7.17
501.876	-10.49
502.074	-11.34
502.273	-8.14
502.471	-9.71
502.669	-7.77
502.868	-11.18
503.066	-7.43
503.264	-7.36
503.463	-8.36
503.661	-15.94
503.859	-17.69
504.057	-11.75
504.256	-8.2
504.454	-9.59
504.652	-11.33
504.85	-7.03
505.048	-5.47
505.246	-1.56
505.445	1.46
505.643	-1.14
505.841	-7.03
506.039	-4.84
506.237	-8.54
506.435	-6.42
506.633	-4.28
506.831	-2.8
507.029	-5.42
507.227	-5.02
507.425	-1.55
507.623	-2.31
507.821	-1.6
508.019	1.51
508.217	0.07
508.415	-0.85
508.613	-3.4
508.811	-4.52
509.009	-8.66
509.207	-7.82
509.405	-7.62
509.603	-8.2
509.8	-9.38
509.998	-9.17
510.196	-7.33
510.394	-8.37
510.592	-12.13
510.79	-14.22
510.987	-16.61
511.185	-13.49
511.383	-13.44
511.581	-17.79
511.778	-14.72
511.976	-13.97
512.174	-22.09
512.371	-30.49
512.569	-25.39
512.767	-23.2
512.964	-25.09
513.162	-22.69
513.36	-28.04
513.557	-31.24
513.755	-32.15
513.952	-26.02
514.15	-26.47
514.348	-26.8
514.545	-25.51
514.743	-21.18
514.94	-17.15
515.138	-17.38
515.335	-20.76
515.533	-20.42
515.73	-20.82
515.927	-22.25
516.125	-20.26
516.322	-16.19
516.52	-10.63
516.717	-14.66
516.915	-13.23
517.112	-11.89
517.309	-12.52
517.507	-8.53
517.704	-7.9
517.901	-8.78
518.099	-9.41
518.296	-6.73
518.493	-3.41
518.69	-3.6
518.888	-2.51
519.085	-3.01
519.282	-0.56
519.479	2.47
519.676	-0.35
519.874	-1.32
520.071	-6.77
520.268	-8.66
520.465	-5.55
520.662	-5.98
520.859	-3.89
521.056	-5.51
521.254	-1.63
521.451	-0.38
521.648	1.51
521.845	2.68
522.042	6.54
522.239	8.71
522.436	3.24
522.633	-2.71
522.83	-0.26
523.027	-3.16
523.224	-4.81
523.421	-7.12
523.618	-8.66
523.815	-4.51
524.011	-2.53
524.208	5.57
524.405	8.3
524.602	8.4
524.799	0.28
524.996	-1.09
525.193	0.65
525.389	-1.4
525.586	0.74
525.783	-5.99
525.98	-6.11
526.176	-7.86
526.373	-14.34
526.57	-7.81
526.767	-9.16
526.963	-14.02
527.16	-9.74
527.357	-12.91
527.553	-10.96
527.75	-17.18
527.947	-20.45
528.143	-17.19
528.34	-19.92
528.537	-20.54
528.733	-22.28
528.93	-15.02
529.126	-12.36
529.323	-14.67
529.519	-15.7
529.716	-20.19
529.912	-19.02
530.109	-17.94
530.305	-20.94
530.502	-18.25
530.698	-21.03
530.895	-22.71
531.091	-15.87
531.288	-17.08
531.484	-12.32
531.68	-13.51
531.877	-8.22
532.073	-8.1
532.269	-10.04
532.466	-9.47
532.662	-10.91
532.858	-12.71
533.055	-12.03
533.251	-12.67
533.447	-12.13
533.643	-8
533.84	-9.85
534.036	-6.98
534.232	-6.68
534.428	-6.41
534.624	-6.22
534.821	-4.97
535.017	1.39
535.213	-2.67
535.409	-3.26
535.605	-5.71
535.801	-7.27
535.997	-6.41
536.193	-7.76
536.389	-8.14
536.586	-10.73
536.782	-8.51
536.978	-8.23
537.174	-6.87
537.37	-6.98
537.566	-6.43
537.762	-12.2
537.958	-11.6
538.153	-13.89
538.349	-14.22
538.545	-11.98
538.741	-13.17
538.937	-17.46
539.133	-20.67
539.329	-17.13
539.525	-14.26
539.721	-11.55
539.916	-7.66
540.112	-12.05
540.308	-6.85
540.504	-5.44
540.699	-1.46
540.895	-1.66
541.091	-0.27
541.287	-0.24
541.482	-1.84
541.678	-2.19
541.874	-1.9
542.069	-1.76
542.265	1.24
542.461	0.65
542.656	2.42
542.852	3.82
543.048	4.26
543.243	5.13
543.439	4.92
543.634	0.9
543.83	-1.81
544.025	-3.25
544.221	-0.49
544.417	-0.46
544.612	-0.89
544.807	-1.1
545.003	-1.31
545.198	-2.61
545.394	-3.49
545.589	0.6
545.785	-0.6
545.98	-1.8
546.176	-2.17
546.371	-4.18
546.566	-4.96
546.762	-6.21
546.957	-4.55
547.152	-1.84
547.348	-2.93
547.543	-2.56
547.738	-4.09
547.933	-6.05
548.129	-2.44
548.324	-3.64
548.519	-7.01
548.714	-7.68
548.91	-7.91
549.105	-7.66
549.3	-5.9
549.495	-4.41
549.69	-6.74
549.885	-6.27
550.08	-0.75
550.276	1.13
550.471	4.19
550.666	4.51
550.861	1.43
551.056	-3.67
551.251	-7.97
551.446	-7.37
551.641	-9.02
551.836	-6.16
552.031	-2.43
552.226	-5.12
552.421	-5.62
552.616	-4.37
552.811	-1.32
553.006	-4.62
553.201	-8.61
553.395	-10.93
553.59	-11.8
553.785	-11.8
553.98	-10.04
554.175	-11.77
554.37	-12.36
554.565	-15.68
554.759	-15.79
554.954	-14.81
555.149	-11.01
555.344	-8.72
555.538	-7.5
555.733	-7.73
555.928	-2.8
556.122	-4.2
556.317	-6.53
556.512	-6.95
556.706	-6.18
556.901	-7.82
557.096	-3.58
557.29	1.6
557.485	3.66
557.68	0.81
557.874	2.01
558.069	1.61
558.263	2.61
558.458	4.17
558.652	6.48
558.847	5.37
559.041	6.78
559.236	3.76
559.43	4.11
559.625	5.83
559.819	6.8
560.014	3.23
560.208	4.26
560.402	4.11
560.597	5.78
560.791	5.12
560.986	6.77
561.18	4.57
561.374	1.5
561.569	1.35
561.763	4.49
561.957	2.01
562.151	-0.01
562.346	0.9
562.54	2.19
562.734	-0.54
562.928	-0.34
563.123	0.13
563.317	1.08
563.511	4.26
563.705	-2.54
563.899	-4.42
564.093	-4.71
564.288	-4.33
564.482	-3.37
564.676	-2.92
564.87	-1.85
565.064	-5.12
565.258	-3.58
565.452	-1.01
565.646	-1.35
565.84	-5.2
566.034	-3.4
566.228	-2.42
566.422	-5.15
566.616	-5.22
566.81	-2.9
567.004	-1.65
567.198	-2.78
567.392	-2.15
567.586	-5.81
567.779	-3.03
567.973	-2.39
568.167	-0.42
568.361	-2.15
568.555	-1.47
568.749	-0.88
568.942	-3.51
569.136	-1.54
569.33	-4.32
569.524	-4.35
569.718	-3.93
569.911	-0.26
570.105	0.74
570.299	0.45
570.492	1.65
570.686	2.17
570.88	2.35
571.073	1.53
571.267	3.11
571.461	3.14
571.654	3.8
571.848	5.33
572.041	6.26
572.235	4.35
572.429	6.12
572.622	4.72
572.816	5.14
573.009	6.79
573.203	5.96
573.396	7.71
573.59	7.77
573.783	7.41
573.976	5.49
574.17	4.03
574.363	4.46
574.557	4.2
574.75	1.99
574.943	3.59
575.137	5.05
575.33	5.19
575.523	4.08
575.717	2.04
575.91	1.27
576.103	0.57
576.297	2.22
576.49	1.16
576.683	1.49
576.876	-0.53
577.07	-1.4
577.263	-0.15
577.456	-1.38
577.649	-1.9
577.842	0.01
578.036	2.53
578.229	2.66
578.422	1.67
578.615	1.46
578.808	1.08
579.001	0.61
579.194	0.92
579.387	0.66
579.58	-0.08
579.773	1.34
579.966	0.77
580.159	0.56
580.352	-1.08
580.545	-0.02
580.738	0.04
580.931	-0.19
581.124	0.99
581.317	-0.12
581.51	-1.13
581.703	-2.47
581.896	-4.26
582.088	-4.58
582.281	-4.43
582.474	-3.15
582.667	-1.71
582.86	-0.91
583.053	-2.54
583.245	-3.62
583.438	-3.49
583.631	0.84
583.824	0.31
584.016	1.81
584.209	0.37
584.402	1.9
584.594	1.83
584.787	3.42
584.98	5.03
585.172	6.01
585.365	3.37
585.558	4.18
585.75	5.45
585.943	5.39
586.135	3.23
586.328	4.9
586.52	6.41
586.713	4.82
586.906	5.3
587.098	5.6
587.291	5.49
587.483	3.93
587.675	2.64
587.868	1.25
588.06	0.58
588.253	2.6
588.445	1.03
588.638	-1.5
588.83	-3.65
589.022	-6.16
589.215	-9.26
589.407	-5.56
589.599	-5.22
589.792	-3.66
589.984	-3.97
590.176	-3.29
590.368	-4.35
590.561	-7
590.753	-6.09
590.945	-5.59
591.137	-5.35
591.33	-6.06
591.522	-4.42
591.714	-5.19
591.906	-1.47
592.098	-1.24
592.29	-2
592.482	-0.09
592.674	1.04
592.867	1.39
593.059	1.68
593.251	4.11
593.443	5.16
593.635	4.37
593.827	1.78
594.019	1.11
594.211	1.33
594.403	1.81
594.595	4.24
594.787	3.12
594.979	2
595.17	3
595.362	4.13
595.554	4.57
595.746	3.12
595.938	2.77
596.13	3.61
596.322	4.34
596.513	3.12
596.705	3.5
596.897	4
597.089	5.87
597.281	3.5
597.472	1.89
597.664	0.93
597.856	2.21
598.048	2.62
598.239	1.91
598.431	0.23
598.623	-2.18
598.814	-4.16
599.006	-2.75
599.197	-4.64
599.389	-5.74
599.581	-7.17
599.772	-4.7
599.964	-5.85
600.155	-6.32
600.347	-6.19
600.538	-5.79
600.73	-5.27
600.921	-5.14
601.113	-7.26
601.304	-5.52
601.496	-5.53
601.687	-4.66
601.879	-6.22
602.07	-4.74
602.262	-4.1
602.453	-4.2
602.644	-3.83
602.836	-1.75
603.027	-2.46
603.218	-1.57
603.41	-1.73
603.601	-1.63
603.792	-2.76
603.983	-2.63
604.175	-4.08
604.366	-4.86
604.557	-3.63
604.748	-5.64
604.94	-6.47
605.131	-5.41
605.322	-5.66
605.513	-4.54
605.704	-2.83
605.895	-1.1
606.086	-2.07
606.278	-2.32
606.469	-0.02
606.66	1.57
606.851	1.33
607.042	0.04
607.233	-0.97
607.424	0.43
607.615	0.41
607.806	0.14
607.997	-0.38
608.188	1.76
608.379	0.8
608.57	-1.46
608.761	-0.19
608.952	0.12
609.142	0.81
609.333	0.35
609.524	-0.67
609.715	-2.18
609.906	-2.03
610.097	-1.79
610.287	-2.75
610.478	-4.86
610.669	-4.46
610.86	-3.59
611.051	-3.75
611.241	-3.52
611.432	-3.54
611.623	-1.85
611.813	-2.35
612.004	-2.45
612.195	-3.27
612.385	-1.78
612.576	0.4
612.767	0.49
612.957	0.3
613.148	0.37
613.338	0.25
613.529	-0.34
613.72	0.54
613.91	-0.08
614.101	-1.24
614.291	0.49
614.482	0.72
614.672	-0.42
614.863	-1.07
615.053	-1.7
615.243	-1.05
615.434	-0.97
615.624	-2.64
615.815	-2.28
616.005	-1.76
616.195	-3.06
616.386	-3.13
616.576	-3.52
616.766	-2.43
616.957	-0.86
617.147	-2.54
617.337	-3.83
617.528	-3.88
617.718	-3.25
617.908	-4.5
618.098	-4.25
618.289	-4.3
618.479	-4.43
618.669	-3.98
618.859	-4.34
619.049	-2.42
619.239	-1.96
619.43	-2.39
619.62	-3.26
619.81	-1.75
620	-1.15
620.19	-0.1
620.38	-2.13
620.57	-2.38
620.76	-3.08
620.95	-2.62
621.14	-2.28
621.33	-0.38
621.52	0.65
621.71	-1.4
621.9	-0.1
622.09	0.48
622.28	0.79
622.47	0.35
622.659	-1.59
622.849	-0.05
623.039	-0.01
623.229	0.12
623.419	-0.11
623.609	0.43
623.799	-1.4
623.988	-1.09
624.178	-0.18
624.368	0.31
624.558	0.66
624.747	0.31
624.937	0.21
625.127	-0.47
625.316	-0.14
625.506	-0.35
625.696	0.3
625.885	-0.21
626.075	-1.07
626.265	-0.9
626.454	0.46
626.644	1.65
626.833	-0.2
627.023	0.07
627.212	-1.28
627.402	0.07
627.591	1.06
627.781	2.12
627.97	0.78
628.16	-1.4
628.349	-1.17
628.539	-3.02
628.728	-2.16
628.918	-2.32
629.107	-1.03
629.296	-2.54
629.486	-3.63
629.675	-3.13
629.865	-2.8
630.054	-1.12
630.243	-2.83
630.432	-4.39
630.622	-3.89
630.811	-0.9
631	-1
631.19	1.17
631.379	-0.35
631.568	-0.77
631.757	0.86
631.946	1.12
632.136	3.91
632.325	4.19
632.514	6.51
632.703	4.88
632.892	3.42
633.081	2.31
633.27	3.03
633.459	4.78
633.648	5.03
633.837	4.47
634.026	2.86
634.215	4.38
634.404	4.48
634.593	5.61
634.782	4.46
634.971	2.9
635.16	1.14
635.349	1.51
635.538	2.04
635.727	-1.35
635.916	-2.35
636.105	-2.78
636.294	-0.02
636.482	-0.8
636.671	-0.23
636.86	0.44
637.049	0.89
637.238	0.54
637.426	-0.89
637.615	-2.49
637.804	-2.08
637.993	-1.4
638.181	-1.65
638.37	-0.23
638.559	-1.82
638.747	-2.11
638.936	-1.05
639.125	-0.76
639.313	-1.38
639.502	-1.55
639.691	-1.1
639.879	-1.48
640.068	-3.37
640.256	-6.81
640.445	-7.16
640.633	-6.02
640.822	-7.25
641.01	-5.06
641.199	-4.85
641.387	-3.94
641.576	-1.34
641.764	-0.89
641.953	-1.5
642.141	-2.48
642.329	-1.47
642.518	-2.41
642.706	-2.83
642.894	-2.17
643.083	-1.74
643.271	-1.78
643.459	-1.61
643.648	-0.75
643.836	1.02
644.024	2.19
644.213	4.02
644.401	2.66
644.589	2.64
644.777	4.09
644.965	3.31
645.154	3.1
645.342	2.83
645.53	2
645.718	2.4
645.906	2.62
646.094	3.4
646.282	1.79
646.47	3.2
646.658	3.31
646.846	1.91
647.034	3.34
647.223	2.3
647.411	2.72
647.599	2.33
647.786	1.99
647.974	0.14
648.162	-1.41
648.35	-0.41
648.538	-2.17
648.726	-0.92
648.914	-2.04
649.102	-0.72
649.29	-0.43
649.478	0.22
649.665	-0.07
649.853	1.03
650.041	-0.39
650.229	-0.36
650.417	-0.83
650.604	-2.51
650.792	-1.09
650.98	-2.54
651.168	-2.68
651.355	-3.39
651.543	-3.56
651.731	-3.94
651.918	-3.91
652.106	-2.12
652.294	-2.04
652.481	-0.47
652.669	-1.45
652.856	-0.85
653.044	-2.08
653.231	-2.91
653.419	-3.5
653.606	-3.22
653.794	-2.99
653.981	-1.79
654.169	-2.84
654.356	-4.22
654.544	-3.61
654.731	-2.95
654.919	-2.96
655.106	-1.83
655.294	-1.77
655.481	-0.85
655.668	0.38
655.856	-0.79
656.043	-1.01
656.23	-0.69
656.418	-0.68
656.605	-0.95
656.792	-0.84
656.979	-0.18
657.167	1
657.354	1.49
657.541	0.63
657.728	0.72
657.916	-0.54
658.103	0.41
658.29	4.17
658.477	5.4
658.664	3.93
658.851	3.6
659.038	4.55
659.225	3.4
659.412	3.04
659.6	2.32
659.787	6.04
659.974	5.02
660.161	5.5
660.348	4.17
660.535	6.19
660.722	5.31
660.909	2.83
661.095	2.36
661.282	2.03
661.469	2.36
661.656	0.87
661.843	2.97
662.03	2.55
662.217	0.95
662.404	1.28
662.59	0.86
662.777	1.15
662.964	0.39
663.151	1.6
663.338	2.63
663.524	0.97
663.711	-2.46
663.898	-2.19
664.085	-3.03
664.271	-1.94
664.458	-3.92
664.645	-3.73
664.831	0.24
665.018	-0.14
665.204	0.68
665.391	0.52
665.578	0.21
665.764	-1.08
665.951	-1.05
666.137	-0.67
666.324	-0.27
666.51	-0.42
666.697	-0.39
666.883	0.33
667.07	0.88
667.256	0.61
667.443	1.36
667.629	2.78
667.816	2.64
668.002	2.61
668.188	3.85
668.375	3.56
668.561	3.82
668.747	1.39
668.934	0.9
669.12	1.41
669.306	2.16
669.493	3.55
669.679	3.46
669.865	3.33
670.051	2.37
670.238	1
670.424	1.59
670.61	1.9
670.796	1.73
670.982	-0.05
671.169	-0.97
671.355	-1.04
671.541	-1.7
671.727	-1.08
671.913	-0.65
672.099	-2.62
672.285	-3.84
672.471	-3.72
672.657	-3.25
672.843	-0.82
673.029	-1.76
673.215	-2.5
673.401	-1.46
673.587	-2.14
673.773	-1.06
673.959	-0.76
674.145	-0.36
674.331	-0.23
674.517	-1.61
674.703	-2.5
674.888	-1.51
675.074	-2.94
675.26	-1.9
675.446	-1.62
675.632	-2.8
675.817	-4.38
676.003	-3.43
676.189	-2.63
676.375	-2.36
676.56	-2.22
676.746	-3.8
676.932	-5.92
677.117	-5.89
677.303	-8.14
677.489	-7.12
677.674	-8.6
677.86	-9.54
678.046	-8.49
678.231	-8.65
678.417	-7.16
678.602	-6.73
678.788	-5.81
678.973	-3.88
679.159	-2.29
679.344	-1.23
679.53	-1.73
679.715	-0.51
679.901	-1.84
680.086	-2.18
680.272	-3.1
680.457	-3.18
680.643	-3.87
680.828	-2.26
681.013	-2.49
681.199	-1.23
681.384	-0.28
681.569	-0.03
681.755	0.34
681.94	-1.57
682.125	-1.5
682.31	-0.1
682.496	-0.35
682.681	-0.5
682.866	-1.83
683.051	-3.48
683.237	-3.96
683.422	-3.09
683.607	-3.41
683.792	-1.94
683.977	-1.43
684.162	-2.74
684.347	-2.15
684.532	-2.58
684.717	-3.3
684.903	-2.89
685.088	-2.65
685.273	-4.55
685.458	-3.81
685.643	-3.3
685.828	-3.51
686.013	-2.32
686.198	-4.49
686.382	-4.38
686.567	-4.53
686.752	-4.06
686.937	-3.48
687.122	-3.96
687.307	-3.81
687.492	-3.68
687.677	-5.22
687.861	-4.19
688.046	-3.02
688.231	-4.11
688.416	-2.35
688.601	-1.34
688.785	-0.92
688.97	-2.06
689.155	0.08
689.339	-1.48
689.524	-2.13
689.709	-1.9
689.893	-2.63
690.078	-1.95
690.263	-2.34
690.447	-2.63
690.632	-2.28
690.816	-1.42
691.001	-1.33
691.186	-0.97
691.37	-1.31
691.555	0.18
691.739	-0.11
691.924	0.93
692.108	1.72
692.293	1.07
692.477	2.37
692.661	2.53
692.846	3.3
693.03	2.29
693.215	3.52
693.399	3.9
693.583	4.42
693.768	3.9
693.952	3.89
694.136	4.66
694.321	4.62
694.505	3.92
694.689	2.36
694.873	3.82
695.058	2.71
695.242	3.4
695.426	2.01
695.61	0.63
695.794	0.37
695.979	0.03
696.163	-0.1
696.347	-1.44
696.531	-1.73
696.715	-1.78
696.899	-1.7
697.083	-3.02
697.267	-2.21
697.451	-1.69
697.635	-0.94
697.819	-1.8
698.003	-1.72
698.187	-1.73
698.371	-0.41
698.555	1.02
698.739	0.44
698.923	1.03
699.107	1.19
699.291	0.99
699.475	1.33
699.659	1
699.842	1.53
700.026	0.76
700.21	0.12
700.394	0.08
700.578	0.34
700.761	0.79
700.945	2.49
701.129	1.56
701.313	1.52
701.496	3.25
701.68	2.99
701.864	1.98
702.047	1.89
702.231	3.54
702.415	2.3
702.598	1.5
702.782	1.09
702.965	1.18
703.149	1.47
703.333	1.18
703.516	0.84
703.7	0.33
703.883	1.76
704.067	1.48
704.25	1.84
704.434	-0.38
704.617	-0.82
704.801	-1.41
704.984	-1.86
705.167	-3.32
705.351	-5.86
705.534	-4.63
705.718	-3.56
705.901	-4.34
706.084	-6.49
706.268	-6.44
706.451	-6.85
706.634	-6.3
706.817	-7.24
707.001	-7.57
707.184	-6.81
707.367	-6.63
707.55	-5.75
707.734	-6.38
707.917	-4.63
708.1	-5.54
708.283	-3.31
708.466	-3.53
708.649	-3.45
708.832	-2.74
709.015	-1.14
709.199	0.01
709.382	-0.16
709.565	-0.87
709.748	1.14
709.931	0.44
710.114	0.77
710.297	0.98
710.48	1.36
710.663	1.74
710.846	3.13
711.028	3.47
711.211	3.8
711.394	2.79
711.577	2.95
711.76	0.14
711.943	-0.99
712.126	-1.05
712.309	0.65
712.491	1.68
712.674	-0.38
712.857	0.47
713.04	0.29
713.222	-0.05
713.405	-0.07
713.588	-0.85
713.771	0.08
713.953	0.35
714.136	0.8
714.319	1.36
714.501	1.3
714.684	0.57
714.866	1.08
715.049	0.59
715.232	0.11
715.414	-0.4
715.597	1.16
715.779	1.77
715.962	0.8
716.144	-1
716.327	-0.97
716.509	0.44
716.692	-1.65
716.874	-1.55
717.057	-1.19
717.239	-0.98
717.421	-1.2
717.604	-3.89
717.786	-3.2
717.968	-3.57
718.151	-4.92
718.333	-5.84
718.515	-6.14
718.698	-6.77
718.88	-6.14
719.062	-7.24
719.244	-7.68
719.427	-8.26
719.609	-7.05
719.791	-7.2
719.973	-8.5
720.155	-10.63
720.338	-11.22
720.52	-10.17
720.702	-11.17
720.884	-10.75
721.066	-10.27
721.248	-13.62
721.43	-11.28
721.612	-12.93
721.794	-10.38
721.976	-9.25
722.158	-9.15
722.34	-7.83
722.522	-8.01
722.704	-7.86
722.886	-6.62
723.068	-6.01
723.25	-4.57
723.432	-4.37
723.614	-4.29
723.796	-2.95
723.977	-1.12
724.159	0.38
724.341	0.73
724.523	0.22
724.705	-1.31
724.886	-2.01
725.068	2.12
725.25	2.87
725.432	3.6
725.613	0.76
725.795	1.17
725.977	2.03
726.158	1.51
726.34	1.86
726.522	1.84
726.703	2.91
726.885	3.8
727.066	2.95
727.248	3.74
727.43	4.8
727.611	3.94
727.793	2.08
727.974	0.69
728.156	0.25
728.337	-0.22
728.519	0.96
728.7	1.57
728.882	-0.15
729.063	-0.17
729.244	-1.97
729.426	-0.3
729.607	-0.94
729.788	-1.97
729.97	-2.98
730.151	-3.53
730.332	-3.88
730.514	-5.76
730.695	-3.94
730.876	-3.49
731.058	-5.25
731.239	-5.49
731.42	-4.52
731.601	-4.21
731.782	-4.41
731.964	-3.62
732.145	-2.77
732.326	-4.64
732.507	-4.27
732.688	-3.88
732.869	-3.29
733.05	-1.94
733.231	-1.94
733.412	-3.36
733.593	-1.85
733.774	0.21
733.955	1.68
734.136	1.47
734.317	1.23
734.498	-0.39
734.679	-1.96
734.86	-3.14
735.041	-3.38
735.222	-2.97
735.403	-2.13
735.584	-1.79
735.765	-2.75
735.946	-3.36
736.126	-2.68
736.307	-2.26
736.488	-3.22
736.669	-6.04
736.849	-7.49
737.03	-6.39
737.211	-3.9
737.392	-3.51
737.572	-7.48
737.753	-10.35
737.934	-9.86
738.114	-6.85
738.295	-8.09
738.476	-7.06
738.656	-4.87
738.837	-5.17
739.017	-5.14
739.198	-5.27
739.378	-3.44
739.559	-2.99
739.74	-2.47
739.92	-2.62
740.1	-3.26
740.281	-4.67
740.461	-3.15
740.642	-1.31
740.822	-4.74
741.003	-6.25
741.183	-8.72
741.363	-4.96
741.544	-3.91
741.724	-3.09
741.904	-5.08
742.085	-5.46
742.265	-6.4
742.445	-6.88
742.626	-5.9
742.806	-5.51
742.986	-6.55
743.166	-7.43
743.347	-9.19
743.527	-8.27
743.707	-8.61
743.887	-11.09
744.067	-10.81
744.247	-10.53
744.427	-12.02
744.608	-10.12
744.788	-8.9
744.968	-5.52
745.148	-5.66
745.328	-6.07
745.508	-6.85
745.688	-6.62
745.868	-7.18
746.048	-5.92
746.228	-4.93
746.408	-5.9
746.588	-7.21
746.767	-5.99
746.947	-5.15
747.127	-5
747.307	-6.38
747.487	-4.91
747.667	-4.41
747.847	-2.18
748.026	-2.87
748.206	-1.31
748.386	1.04
748.566	0.46
748.745	-0.87
748.925	-0.42
749.105	1.55
749.285	0.64
749.464	0.13
749.644	1.25
749.824	2.29
750.003	0.24
750.183	-0.57
750.362	0.19
750.542	-1.71
750.722	-2.47
750.901	-0.82
751.081	-0.31
751.26	-0.56
751.44	0.84
751.619	-0.01
751.799	-0.37
751.978	-2.28
752.158	-4.59
752.337	-4.36
752.516	-5.71
752.696	-7.08
752.875	-7.8
753.055	-8.2
753.234	-6.74
753.413	-4.78
753.593	-4.21
753.772	-3.81
753.951	-2.49
754.13	-3.17
754.31	-2.47
754.489	-2.3
754.668	-2.17
754.847	-1.7
755.027	-1.18
755.206	-0.96
755.385	-1.06
755.564	0.96
755.743	1.9
755.922	0.85
756.101	0.41
756.28	2.18
756.46	1.84
756.639	-0.05
756.818	2.01
756.997	1.9
757.176	-0.02
757.355	-1.78
757.534	-1.02
757.713	-1.16
757.892	-1.13
758.07	-0.55
758.249	-1.08
758.428	-1.52
758.607	-1.92
758.786	-1.15
758.965	-2.2
759.144	-0.78
759.323	-2.78
759.501	-3.01
759.68	-2.51
759.859	-1.58
760.038	-2.19
760.216	-2.19
760.395	-0.92
760.574	-2.39
760.753	-2.4
760.931	-1.04
761.11	-0.44
761.289	-1.24
761.467	-1.8
761.646	-2.05
761.824	-1.87
762.003	-3.06
762.182	-3.94
762.36	-3.38
762.539	-4.98
762.717	-4.58
762.896	-5.65
763.074	-4.91
763.253	-4.34
763.431	-2.42
763.61	-2.69
763.788	-2.94
763.966	-2.88
764.145	-2.42
764.323	-0.74
764.502	-0.62
764.68	-1.01
764.858	-2.12
765.037	-0.72
765.215	-0.33
765.393	1.71
765.571	2.02
765.75	3.35
765.928	3.75
766.106	2.7
766.284	3.25
766.463	2.04
766.641	1.43
766.819	2.59
766.997	2.23
767.175	1.64
767.353	0.29
767.531	1.28
767.71	1.29
767.888	0.71
768.066	-1.32
768.244	-1.82
768.422	-2.23
768.6	-0.11
768.778	-1.42
768.956	-3.18
769.134	-4.42
769.312	-4.56
769.489	-5.91
769.667	-5.08
769.845	-3.82
770.023	-3.3
770.201	-2.16
770.379	-2.08
770.557	-2.46
770.735	-2.45
770.912	-3.87
771.09	-3.27
771.268	-3.87
771.446	-3.66
771.623	-2.99
771.801	-1.71
771.979	-2.22
772.157	-3.24
772.334	-6.03
772.512	-5.4
772.69	-4.47
772.867	-3.87
773.045	-4.38
773.222	-3.54
773.4	-3.18
773.577	-3.51
773.755	-3.2
773.933	-2.94
774.11	-2.25
774.288	-3
774.465	-2.78
774.643	-3.86
774.82	-1.95
774.997	-1.36
775.175	-1.63
775.352	-0.77
775.53	-0.02
775.707	0.8
775.884	1.78
776.062	4.44
776.239	5.1
776.416	6.15
776.594	5.13
776.771	5.01
776.948	4.95
777.125	5.1
777.303	3.66
777.48	2.47
777.657	1.71
777.834	2.58
778.012	1.87
778.189	2.04
778.366	2.41
778.543	-1.77
778.72	-2.87
778.897	-1.8
779.074	-3.44
779.251	-3.3
779.428	-4.26
779.605	-5.21
779.782	-5.83
779.959	-7.18
780.136	-9.69
780.313	-8.44
780.49	-7.9
780.667	-8.21
780.844	-9.08
781.021	-8.07
781.198	-7.36
781.375	-5.75
781.552	-6.78
781.728	-6.47
781.905	-7.2
782.082	-5.51
782.259	-3.47
782.436	-3.42
782.612	-5.39
782.789	-6.71
782.966	-7.3
783.143	-5.86
783.319	-4.73
783.496	-3.71
783.673	-2.7
783.849	0.42
784.026	0.69
784.203	1.09
784.379	0.66
784.556	1.46
784.732	1.99
784.909	1.7
785.085	1.69
785.262	1.64
785.438	2.12
785.615	1.9
785.791	3.27
785.968	1.85
786.144	2.79
786.321	4.9
786.497	5.13
786.673	3.6
786.85	3.2
787.026	3.19
787.203	0.34
787.379	-2.56
787.555	-4.53
787.731	-7.98
787.908	-9.22
788.084	-6.86
788.26	-7.99
788.437	-7.5
788.613	-8.91
788.789	-10.29
788.965	-10.76
789.141	-11.09
789.317	-11.27
789.494	-13.45
789.67	-11.67
789.846	-11.28
790.022	-14.08
790.198	-11.82
790.374	-13.43
790.55	-17.43
790.726	-20.01
790.902	-18.67
791.078	-14.88
791.254	-14.33
791.43	-11.88
791.606	-12.3
791.782	-13.89
791.958	-14.94
792.134	-13.81
792.31	-14.98
792.486	-16.84
792.661	-15.88
792.837	-13.39
793.013	-13.73
793.189	-12.88
793.365	-13.53
793.54	-14.41
793.716	-13.39
793.892	-13.31
794.068	-12.09
794.243	-8.76
794.419	-7.69
794.595	-8.47
794.77	-8.91
794.946	-7.54
795.122	-9.27
795.297	-10.26
795.473	-8.36
795.648	-8.99
795.824	-10.24
796	-8.62
796.175	-5.5
796.351	-7.14
796.526	-8.3
796.702	-5.79
796.877	-5.7
797.052	-4.6
797.228	-7.71
797.403	-8.76
797.579	-8.19
797.754	-5.97
797.929	-6.58
798.105	-4.65
798.28	-4.9
798.455	-3.74
798.631	-5.06
798.806	-1.37
798.981	2.74
799.157	0.47
799.332	2.64
799.507	3.16
799.682	4.11
799.858	3.44
800.033	5.06
800.208	4.85
800.383	5.08
800.558	4.7
800.733	3.03
800.908	5.24
801.083	5.22
801.258	3.23
801.434	0.97
801.609	1.76
801.784	0.23
801.959	0.7
802.134	-1.88
802.309	-2.72
802.484	-8.03
802.658	-9.29
802.833	-9.3
803.008	-8.49
803.183	-9.93
803.358	-9.14
803.533	-11.06
803.708	-12.26
803.883	-12.86
804.057	-18.19
804.232	-17.41
804.407	-14.74
804.582	-13.51
804.756	-14.27
804.931	-13.09
805.106	-14.33
805.281	-13.59
805.455	-11.9
805.63	-12.39
805.805	-12.8
805.979	-9.2
806.154	-5.71
806.328	-4.77
806.503	-4.93
806.678	-6.58
806.852	-7.27
807.027	-8.49
807.201	-10.38
807.376	-8.96
807.55	-9.71
807.725	-6.13
807.899	-3.39
808.074	-3.4
808.248	-5.01
808.422	-3.92
808.597	-6.04
808.771	-2.55
808.946	-1.32
809.12	-0.95
809.294	-1.38
809.468	1.91
809.643	2.18
809.817	-0.37
809.991	-6.22
810.166	-3.94
810.34	-4.96
810.514	-3.74
810.688	-3.91
810.862	-3.14
811.037	-2.81
811.211	-1.51
811.385	-0.86
811.559	-3.59
811.733	-5
811.907	-6.06
812.081	-7.15
812.255	-5.58
812.429	-8.72
812.603	-12.33
812.777	-12.91
812.951	-13.07
813.125	-14.46
813.299	-19.33
813.473	-19.43
813.647	-12.29
813.821	-10.57
813.995	-9.62
814.169	-10.54
814.343	-6.82
814.516	-2.71
814.69	-1.01
814.864	-4.8
815.038	-5.23
815.212	-4.82
815.385	-1.85
815.559	-0.87
815.733	0.92
815.907	0.23
816.08	2.54
816.254	3.62
816.428	2
816.601	3.28
816.775	0.77
816.948	0.19
817.122	2.47
817.296	2.22
817.469	0.89
817.643	1.79
817.816	2.44
817.99	-3.03
818.163	-3.25
818.337	-7.05
818.51	-6.43
818.684	-3.7
818.857	-5.19
819.031	-9.29
819.204	-10.37
819.377	-11.22
819.551	-12.35
819.724	-13.37
819.897	-11.31
820.071	-6.85
820.244	-11.31
820.417	-11.53
820.591	-11.31
820.764	-10.78
820.937	-11.65
821.11	-14.65
821.284	-14.49
821.457	-12.97
821.63	-9.7
821.803	-12.52
821.976	-11.11
822.149	-7.84
822.322	-8.5
822.496	-6.72
822.669	-2.46
822.842	0.18
823.015	-0.4
823.188	-0.38
823.361	-2.81
823.534	-5.94
823.707	-8.02
823.88	-6.87
824.053	-5.57
824.226	-4.96
824.399	-3.79
824.571	-4.58
824.744	-3.77
824.917	-0.75
825.09	-3.3
825.263	-3.74
825.436	1.03
825.608	-0.75
825.781	-0.28
825.954	-0.11
826.127	-3.59
826.299	-8.26
826.472	-8.63
826.645	-6.26
826.818	-2
826.99	-1.03
827.163	-0.93
827.336	-1.42
827.508	-0.1
827.681	0.56
827.853	1.36
828.026	0.65
828.198	0.59
828.371	1.15
828.544	-0.68
828.716	1.09
828.889	-2.88
829.061	-5.99
829.233	-5.12
829.406	-7.74
829.578	-12.15
829.751	-10.1
829.923	-9.72
830.096	-13.33
830.268	-15.75
830.44	-17.66
830.613	-15.02
830.785	-14.16
830.957	-16.59
831.129	-14.21
831.302	-13.34
831.474	-17.61
831.646	-16.3
831.818	-15.87
831.991	-15.62
832.163	-15.88
832.335	-17.65
832.507	-15.12
832.679	-15.55
832.851	-14.28
833.023	-12.15
833.195	-11.65
833.368	-14.76
833.54	-13.3
833.712	-12.76
833.884	-9.91
834.056	-12.31
834.228	-14.71
834.4	-13.84
834.571	-11.81
834.743	-13.06
834.915	-15.41
835.087	-9.15
835.259	-8.98
835.431	-10.06
835.603	-10.91
835.775	-11.2
835.946	-9.27
836.118	-6.46
836.29	-7.31
836.462	-11.89
836.634	-15.09
836.805	-16.68
836.977	-14.08
837.149	-13.52
837.32	-11.29
837.492	-12.89
837.664	-13.3
837.835	-12.99
838.007	-17.43
838.179	-21.05
838.35	-17.91
838.522	-13.55
838.693	-16.06
838.865	-21.33
839.036	-26.19
839.208	-22.12
839.379	-20.47
839.551	-17.62
839.722	-15.09
839.894	-16.71
840.065	-12.49
840.237	-10.74
840.408	-6.61
840.579	-5.49
840.751	-5.62
840.922	-6.24
841.093	-8.47
841.265	-6.91
841.436	-3.16
841.607	-2.05
841.778	-0.12
841.95	-0.83
842.121	2.05
842.292	0.45
842.463	4.78
842.635	11.58
842.806	9.49
842.977	8.97
843.148	5.29
843.319	2.26
843.49	0.56
843.661	-5.77
843.832	-5.4
844.003	-8.35
844.174	-5.48
844.345	-6.5
844.516	-13.22
844.687	-6.51
844.858	-9.75
845.029	-7.12
845.2	-5.46
845.371	-8.66
845.542	-14.79
845.713	-23.4
845.884	-23.36
846.055	-35.23
846.225	-37.08
846.396	-34
846.567	-28.74
846.738	-31.37
846.909	-29.65
847.079	-27.75
847.25	-16.4
847.421	-18.12
847.591	-23.31
847.762	-25.19
847.933	-30.91
848.103	-21.55
848.274	-28.77
848.445	-25.48
848.615	-32.05
848.786	-32.81
848.956	-24.32
849.127	-15.76
849.297	-7.07
849.468	3.95
849.638	3.73
849.809	1.48
849.979	-3.59
850.15	-5.39
850.32	-4.73
850.491	-6.84
850.661	-2.97
850.831	-4.17
851.002	2.15
851.172	3.77
851.342	-1.65
851.513	0.66
851.683	0.53
851.853	0.9
852.024	0.08
852.194	-0.41
852.364	-0.63
852.534	-0.97
852.705	1.15
852.875	-1.75
853.045	-8.93
853.215	-5.65
853.385	-5.36
853.555	-1.6
853.725	-4.82
853.895	-4.8
854.066	-2.09
854.236	-1.1
854.406	-6.75
854.576	-15.19
854.746	-17.39
854.916	-10.57
855.086	-13.76
855.256	-14.68
855.425	-9.71
855.595	-6.72
855.765	-9.69
855.935	-13.97
856.105	-17.63
856.275	-23.43
856.445	-30.51
856.614	-34.51
856.784	-24.69
856.954	-26.45
857.124	-27.43
857.294	-26.7
857.463	-19.79
857.633	-23.71
857.803	-29.54
857.972	-24.77
858.142	-22.83
858.312	-15.91
858.481	-10.28
858.651	-8.28
858.821	-7.58
858.99	-12.78
859.16	-15.83
859.329	-15
859.499	-11.93
859.668	-7.9
859.838	-5.05
860.007	6.42
860.177	12.07
860.346	12.39
860.516	11.42
860.685	9.32
860.854	7.57
861.024	0.32
861.193	0.15
861.363	0.98
861.532	-2.1
861.701	3.08
861.87	1.67
862.04	-3.57
862.209	-3.56
862.378	0.71
862.547	2.2
862.717	6.07
862.886	9.4
863.055	4.23
863.224	5.18
863.393	3.23
863.563	0.63
863.732	2.51
863.901	-7.89
864.07	-3.47
864.239	-0.47
864.408	3.23
864.577	5.22
864.746	10.35
864.915	12.03
865.084	20.64
865.253	22.09
865.422	19.85
865.591	16.58
865.76	13.45
865.929	7.09
866.097	4.61
866.266	-1.04
866.435	-4.16
866.604	0.58
866.773	-1.42
866.942	-4.51
867.11	-10.68
867.279	-12.78
867.448	1.11
867.617	3.35
867.785	0.4
867.954	-16.41
868.123	-16.47
868.291	-27.92
868.46	-18.33
868.629	-20.74
868.797	-25.88
868.966	-43.32
869.134	-28.9
869.303	-24.03
869.472	-25.13
869.64	-23.94
869.809	-18.48
869.977	-20.31
870.146	-16.46
870.314	-20.3
870.482	-17.47
870.651	-30.78
870.819	-35.95
870.988	-37.12
871.156	-41.77
871.324	-47.44
871.493	-47.98
871.661	-39.29
871.829	-35.31
871.998	-51.8
872.166	-73.48
872.334	-76.82
872.502	-54.14
872.671	-62.96
872.839	-46.24
873.007	-37.58
873.175	-33.07
873.343	-40.15
873.512	-30.24
873.68	-23.13
873.848	-21.28
874.016	-15.87
874.184	-5.11
874.352	-3.04
874.52	2.81
874.688	-2.81
874.856	-1.86
875.024	-3.6
875.192	-7.36
875.36	-17.51
875.528	-14.29
875.696	-10.91
875.864	-14.65
876.032	-7.69
876.199	-13.7
876.367	-24.01
876.535	-29.58
876.703	-30.69
876.871	-22.1
877.039	-20.2
877.206	-26.11
877.374	-25.26
877.542	-30.98
877.71	-21.75
877.877	-28.02
878.045	-30
878.213	-17.44
878.38	-2.33
878.548	6.61
878.715	5.83
878.883	10.14
879.051	21.34
879.218	24.72
879.386	27.13
879.553	18.74
879.721	26.63
879.888	18.86
880.056	19.29
880.223	9.53
880.391	-1.55
880.558	-24.93
880.726	-6.71
880.893	-7.63
881.06	-14.07
881.228	-53.65
881.395	-37.43
881.562	-21.78
881.73	-58.41
881.897	-95.52
882.064	-60.47
882.231	-71.43
882.399	-80.39
882.566	-82.51
882.733	-98.22
882.9	-183.31
883.068	-157.29
883.235	-136.6
883.402	-118.8
883.569	-85.28
883.736	-42.69
883.903	-34.08
884.07	-23.95
884.237	-43.82
884.404	-45.12
884.571	-42.53
884.738	-10.12
884.905	-7.88
885.072	-44.93
885.239	-15.28
885.406	-1.8
