Data from Transmission_09-37-28-861.txt Node
Date: Fri Aug 24 09:37:28 EEST 2018
User: tibor.sos
Spectrometer: USB4F01757
Scans to average: 10
Trigger mode: 4
Integration Time (sec): 1.000000E-2
Electric dark correction enabled: true
Boxcar width: 10
XAxis mode: Wavelengths
Number of Pixels in Spectrum: 3648
>>>>>Begin Spectral Data<<<<<
178.758	96.13
178.974	136.64
179.191	84.62
179.407	47.86
179.624	44.2
179.84	28.36
180.057	30.89
180.273	76.91
180.489	134.34
180.706	132.87
180.922	106.33
181.138	113.04
181.355	111.12
181.571	98.3
181.787	128.97
182.004	106.56
182.22	113.84
182.436	142.05
182.653	140.22
182.869	131.98
183.085	158.07
183.301	182.5
183.518	154.95
183.734	176.75
183.95	207.44
184.166	223.25
184.383	220.87
184.599	235.92
184.815	187.56
185.031	147.37
185.247	161.12
185.463	166.67
185.68	185.3
185.896	213.12
186.112	294.98
186.328	258.12
186.544	297.4
186.76	310.08
186.976	260.93
187.192	262.74
187.408	348.69
187.624	400.18
187.84	268.92
188.056	221.74
188.272	201.74
188.488	228.12
188.704	217
188.92	279.71
189.136	236.28
189.352	286.31
189.568	343.39
189.784	377.71
190	354.63
190.216	361.17
190.432	397.48
190.648	475.27
190.864	1152.69
191.08	854.9
191.296	398.51
191.511	425.91
191.727	554
191.943	487.51
192.159	283.11
192.375	322.37
192.591	448.73
192.806	661.51
193.022	403.91
193.238	722.72
193.454	518.18
193.669	755.28
193.885	710.28
194.101	959.52
194.317	569
194.532	3104.49
194.748	-2036.13
194.964	814.45
195.18	315.56
195.395	319.21
195.611	297.09
195.827	633.99
196.042	1153.01
196.258	561.08
196.473	411.6
196.689	548.47
196.905	825.18
197.12	2917.82
197.336	1048.75
197.551	-1209.02
197.767	339500
197.982	867.55
198.198	5094.52
198.414	4565.17
198.629	1005.77
198.845	685.36
199.06	796.36
199.276	631.14
199.491	2295.68
199.707	585.02
199.922	358.54
200.137	397.55
200.353	357.41
200.568	262.67
200.784	306.92
200.999	350.26
201.215	462.25
201.43	472.6
201.645	349.95
201.861	345.09
202.076	300
202.291	316.58
202.507	280.64
202.722	210.3
202.937	381.8
203.153	347.86
203.368	238.43
203.583	142.43
203.798	96.6
204.014	110.71
204.229	93.85
204.444	73.42
204.659	-38.92
204.875	-17.76
205.09	-163.87
205.305	398.11
205.52	-8.94
205.735	-382.63
205.951	2892
206.166	-175.95
206.381	-112.81
206.596	-1634.55
206.811	-560.82
207.026	-517.71
207.241	-106.17
207.457	575.39
207.672	1490.08
207.887	-1393.46
208.102	-203.55
208.317	-312.65
208.532	849.15
208.747	-849.73
208.962	-504.63
209.177	1226.17
209.392	658.88
209.607	285.6
209.822	349.13
210.037	256.36
210.252	360.65
210.467	434.93
210.682	240.19
210.897	224.28
211.112	205.22
211.326	151.08
211.541	161.01
211.756	90.42
211.971	67.2
212.186	40.31
212.401	68.03
212.616	97.84
212.831	101.56
213.045	172.78
213.26	105.47
213.475	150.39
213.69	164.58
213.905	164.01
214.119	464.71
214.334	-1418.52
214.549	-410.93
214.764	250.26
214.978	256.31
215.193	167.19
215.408	-2017.95
215.622	455.47
215.837	3588.89
216.052	-1364.37
216.266	-324.81
216.481	-350.67
216.696	-220.46
216.91	5693.94
217.125	566.26
217.34	1025.39
217.554	751.89
217.769	-336.66
217.983	-94.36
218.198	-281.82
218.412	-536.01
218.627	310.69
218.842	191.09
219.056	86.96
219.271	102.02
219.485	239.07
219.7	178.16
219.914	142.16
220.129	163.81
220.343	67.36
220.558	49.18
220.772	-12.61
220.986	-23.34
221.201	-109.28
221.415	234.4
221.63	159.78
221.844	106.21
222.058	102.46
222.273	103.63
222.487	68.74
222.702	157.26
222.916	112.65
223.13	43.69
223.344	37.65
223.559	35.5
223.773	29.54
223.987	28.47
224.202	-41.82
224.416	-10.29
224.63	-72.98
224.844	-137.45
225.059	-200.1
225.273	-3142.42
225.487	2703.2
225.701	388.44
225.915	286.08
226.13	251.29
226.344	250.03
226.558	259.09
226.772	218.46
226.986	196.22
227.2	216.5
227.415	207.62
227.629	243.14
227.843	280.8
228.057	208.84
228.271	187.67
228.485	201.85
228.699	211.24
228.913	253.44
229.127	219.67
229.341	207.89
229.555	307.76
229.769	387.17
229.983	487.74
230.197	479.08
230.411	701.64
230.625	752.81
230.839	488.72
231.053	768.97
231.267	1830.16
231.481	1407.98
231.695	916.22
231.909	481.02
232.122	289.4
232.336	285.36
232.55	394.78
232.764	407.78
232.978	432.59
233.192	509.35
233.405	575.99
233.619	428.3
233.833	274.47
234.047	395.97
234.261	611.67
234.474	417.74
234.688	-656.28
234.902	-280.32
235.116	-247.44
235.329	-136.46
235.543	-355.53
235.757	-129.77
235.97	-99.62
236.184	-106.85
236.398	-35.41
236.612	-17.71
236.825	-58.03
237.039	-41.29
237.252	-43.04
237.466	-207.36
237.68	-1205.08
237.893	126300
238.107	752.17
238.32	-1289.57
238.534	370.02
238.748	300.71
238.961	235.91
239.175	292.69
239.388	381.37
239.602	540.47
239.815	340.18
240.029	363.42
240.242	183.89
240.456	82.17
240.669	121.9
240.882	98.63
241.096	154.8
241.309	143.04
241.523	298.58
241.736	361.33
241.95	-681.01
242.163	850.38
242.376	134.88
242.59	-71.2
242.803	566.67
243.016	169.49
243.23	488.24
243.443	3660
243.656	-1050.38
243.87	-136.94
244.083	-95.39
244.296	-72.97
244.509	-13.23
244.723	-14.35
244.936	-5.44
245.149	-63.77
245.362	-62.85
245.576	-14.3
245.789	-39.68
246.002	-8.9
246.215	9.89
246.428	23.87
246.641	43.96
246.855	103.58
247.068	66.96
247.281	47.11
247.494	77.31
247.707	99.51
247.92	95.67
248.133	110.36
248.346	136.57
248.559	126.18
248.772	96.13
248.985	57.31
249.198	59.04
249.411	77.02
249.624	77.44
249.837	80.66
250.05	78.49
250.263	82.33
250.476	60.4
250.689	44.25
250.902	30.21
251.115	20.07
251.328	13.97
251.541	20.18
251.754	24.85
251.967	17.14
252.18	8.34
252.393	8.93
252.605	4.2
252.818	0.26
253.031	-6.47
253.244	-0.29
253.457	-7.23
253.67	-12.86
253.882	-14.7
254.095	-5.81
254.308	-2.55
254.521	-6.46
254.733	-3.9
254.946	-0.76
255.159	1.01
255.372	9.99
255.584	17.81
255.797	7
256.01	13.39
256.222	13.42
256.435	10.47
256.648	22.6
256.86	23.73
257.073	35.96
257.285	30.68
257.498	37.71
257.711	49.7
257.923	50.37
258.136	46.66
258.348	42.14
258.561	40.46
258.773	25.97
258.986	16.1
259.198	13.54
259.411	12.34
259.623	13.22
259.836	18.84
260.048	11.05
260.261	39.37
260.473	34.47
260.686	31.47
260.898	24.76
261.111	12.55
261.323	27.7
261.535	22.64
261.748	22.87
261.96	24.46
262.173	19.15
262.385	22.05
262.597	23.57
262.81	28.83
263.022	28.13
263.234	35.53
263.447	44.28
263.659	42.12
263.871	48.81
264.083	53.16
264.296	45.54
264.508	48.45
264.72	42.29
264.932	42.78
265.145	31.16
265.357	22.71
265.569	18.11
265.781	8.3
265.993	-11.28
266.205	-22.42
266.418	-21.46
266.63	-23.43
266.842	-2.05
267.054	14.51
267.266	-0.46
267.478	3.28
267.69	4.3
267.902	-15.58
268.114	-5.57
268.326	-28.3
268.538	-30.06
268.75	-19.8
268.962	-34.93
269.174	-15.47
269.386	-6.1
269.598	17.64
269.81	30.97
270.022	34.01
270.234	35.38
270.446	42.82
270.658	37.25
270.87	39.9
271.082	41.07
271.294	38.06
271.506	33.81
271.718	35.02
271.929	36.4
272.141	37.55
272.353	40.05
272.565	37.53
272.777	41.45
272.989	42.63
273.2	49.14
273.412	47.01
273.624	40.65
273.836	40.38
274.047	43.33
274.259	43.65
274.471	46.39
274.683	38.73
274.894	37.26
275.106	40.12
275.318	39.43
275.529	32.75
275.741	29.77
275.953	37.65
276.164	39.64
276.376	40.13
276.588	39.26
276.799	42.07
277.011	47.6
277.222	47.13
277.434	38.87
277.646	27.49
277.857	39.26
278.069	49.47
278.28	41.98
278.492	33.75
278.703	30.58
278.915	39.11
279.126	47.6
279.338	45.01
279.549	53.97
279.761	50.16
279.972	50.39
280.183	52.65
280.395	46.57
280.606	43.71
280.818	37.34
281.029	40.13
281.24	32.75
281.452	30.45
281.663	31.8
281.875	33.82
282.086	36.28
282.297	25.31
282.508	26.8
282.72	37.07
282.931	37.88
283.142	37
283.354	33.18
283.565	38.04
283.776	51.49
283.987	44.65
284.199	45.28
284.41	43.2
284.621	45.95
284.832	47.46
285.043	55.57
285.254	61.85
285.466	54.86
285.677	56.47
285.888	53.89
286.099	47.31
286.31	48.24
286.521	45.18
286.732	47.86
286.943	46.5
287.154	43.43
287.366	37.64
287.577	43.99
287.788	30.47
287.999	29.63
288.21	17.24
288.421	19.74
288.632	13.2
288.843	14.51
289.054	13.75
289.264	11.3
289.475	-1.58
289.686	4.95
289.897	9.19
290.108	13.13
290.319	9.37
290.53	17.1
290.741	15.46
290.952	18.62
291.163	25.01
291.373	24.07
291.584	25.26
291.795	26.78
292.006	28.85
292.217	39.24
292.427	39.06
292.638	43.33
292.849	43.44
293.06	52.14
293.27	53.75
293.481	54.88
293.692	59.64
293.903	63.49
294.113	64.39
294.324	66.36
294.535	56.77
294.745	61.57
294.956	58.11
295.167	47.29
295.377	44.13
295.588	41.74
295.798	36.96
296.009	26.56
296.22	28.61
296.43	22
296.641	22.05
296.851	16.45
297.062	8.19
297.272	7.75
297.483	3.13
297.693	5
297.904	6.44
298.114	8.47
298.325	9.38
298.535	3.99
298.746	-2.05
298.956	10.72
299.167	8.36
299.377	2.22
299.587	15.48
299.798	21.25
300.008	21.16
300.219	26.92
300.429	38.62
300.639	37.71
300.85	41.85
301.06	37.42
301.27	39.31
301.481	47.24
301.691	45.19
301.901	49.39
302.111	44.53
302.322	46.15
302.532	38.75
302.742	39.21
302.952	32.36
303.163	34.11
303.373	37.43
303.583	42.2
303.793	50.56
304.003	41.45
304.214	40.72
304.424	34.26
304.634	33.05
304.844	30.76
305.054	32.64
305.264	23.87
305.474	23.58
305.684	24.41
305.894	26.78
306.104	31.5
306.314	19.96
306.525	22.32
306.735	14.61
306.945	16.85
307.155	16.4
307.365	26.3
307.575	30.13
307.784	28.6
307.994	23.92
308.204	16.09
308.414	17.46
308.624	15.57
308.834	23.12
309.044	24.87
309.254	30.04
309.464	29.84
309.674	32.35
309.884	30.58
310.093	28.83
310.303	25.79
310.513	30.75
310.723	37.51
310.933	38.82
311.142	36.61
311.352	38
311.562	39.91
311.772	41.56
311.981	39.55
312.191	38.17
312.401	39.14
312.611	39.9
312.82	38.36
313.03	38.86
313.24	38.71
313.449	36.62
313.659	31.73
313.869	25.37
314.078	30.44
314.288	32.21
314.497	29.83
314.707	32.5
314.917	27.23
315.126	26.36
315.336	28.43
315.545	28.1
315.755	29.2
315.964	26.46
316.174	23.92
316.383	25.59
316.593	23.24
316.802	21.9
317.012	21.68
317.221	26.52
317.431	23.77
317.64	24.86
317.849	22.55
318.059	21.15
318.268	28.85
318.478	29.33
318.687	24.96
318.896	25.65
319.106	17.68
319.315	19.72
319.524	11.36
319.734	6.25
319.943	8.64
320.152	10.89
320.362	11.83
320.571	10.37
320.78	2.72
320.989	8.26
321.199	10.55
321.408	15.7
321.617	11.61
321.826	12.11
322.035	8.68
322.245	13.01
322.454	14.88
322.663	10.84
322.872	2.72
323.081	3.41
323.29	3.23
323.5	5.89
323.709	4.32
323.918	10.24
324.127	12.43
324.336	7.37
324.545	-2.28
324.754	-3.87
324.963	-6.22
325.172	1.25
325.381	0.68
325.59	-5.25
325.799	-9.39
326.008	-10.99
326.217	-17.33
326.426	-11.49
326.635	-12.57
326.844	-7.97
327.053	-0.13
327.262	9.16
327.47	9.43
327.679	12.99
327.888	18.68
328.097	19.84
328.306	20.33
328.515	18.8
328.724	24.65
328.932	29.68
329.141	32.17
329.35	41.07
329.559	38.41
329.768	37.39
329.976	40.66
330.185	37.06
330.394	35.53
330.602	40.05
330.811	34.6
331.02	32.22
331.229	31.56
331.437	29.46
331.646	23.57
331.855	32.03
332.063	35.61
332.272	30.18
332.48	21.15
332.689	18.84
332.898	19.33
333.106	18.71
333.315	18.87
333.523	14.9
333.732	7
333.94	10.91
334.149	12.74
334.357	11.55
334.566	15.96
334.774	18.48
334.983	20.89
335.191	20.95
335.4	20.46
335.608	16.36
335.817	22.91
336.025	36.01
336.234	21.5
336.442	17.96
336.65	24.63
336.859	34.27
337.067	35.24
337.275	33.53
337.484	28.5
337.692	25.65
337.9	39.09
338.109	46.03
338.317	42.03
338.525	41.84
338.734	51.65
338.942	48.84
339.15	47.72
339.358	37.43
339.567	36.81
339.775	36.19
339.983	43.86
340.191	33.53
340.399	36.39
340.608	45.77
340.816	45.52
341.024	43.72
341.232	44
341.44	38.12
341.648	41.04
341.856	48.77
342.064	55.24
342.272	47.29
342.481	41.21
342.689	47.85
342.897	41.08
343.105	38.4
343.313	43.4
343.521	45.59
343.729	44.33
343.937	44.94
344.145	42.08
344.353	44.02
344.56	43.22
344.768	35.78
344.976	29.98
345.184	23.06
345.392	19
345.6	24.57
345.808	28.07
346.016	21.68
346.224	18.91
346.431	13.79
346.639	14.34
346.847	13.85
347.055	5.45
347.263	5.68
347.471	-0.02
347.678	-13.25
347.886	-20.97
348.094	-14.96
348.302	-12.85
348.509	-4.17
348.717	-4.33
348.925	-2.28
349.132	-0.21
349.34	-4.67
349.548	0.38
349.755	5.2
349.963	1.75
350.171	-5.19
350.378	2.18
350.586	4.41
350.793	3.47
351.001	5.56
351.209	6.23
351.416	10.97
351.624	8.71
351.831	4.5
352.039	9.07
352.246	6.84
352.454	2.78
352.661	5.26
352.869	-2.97
353.076	-10.31
353.284	-10.91
353.491	0.62
353.699	1.17
353.906	11.93
354.113	10.48
354.321	8.06
354.528	10.04
354.736	11.61
354.943	11.2
355.15	13.07
355.358	8.96
355.565	5.5
355.772	9.8
355.98	19.25
356.187	24.43
356.394	23.55
356.601	24.24
356.809	28.41
357.016	29.27
357.223	31.1
357.43	26.85
357.638	29.81
357.845	28.29
358.052	26.91
358.259	22.75
358.466	24.85
358.673	22.75
358.881	27.61
359.088	17.72
359.295	21.24
359.502	21.28
359.709	28.33
359.916	32.05
360.123	30.74
360.33	27.38
360.537	28.99
360.744	32.61
360.951	34.78
361.158	44.73
361.365	45.56
361.572	44.62
361.779	60.16
361.986	60.41
362.193	56.85
362.4	59.68
362.607	44.38
362.814	32.61
363.021	31.61
363.228	31.77
363.435	45.95
363.641	48.57
363.848	49.25
364.055	52.1
364.262	56.68
364.469	47.28
364.676	43.46
364.882	40.55
365.089	37.13
365.296	37.27
365.503	31.36
365.709	28.89
365.916	30.36
366.123	28.06
366.33	28.26
366.536	33.48
366.743	33.35
366.95	44.07
367.156	55.49
367.363	55.27
367.57	58.39
367.776	53.03
367.983	52.67
368.19	53.68
368.396	48.78
368.603	43.69
368.809	57.94
369.016	63.23
369.222	63.16
369.429	63.7
369.635	62.5
369.842	61.97
370.048	67.24
370.255	60.3
370.461	57.04
370.668	59.55
370.874	53.82
371.081	51.95
371.287	54.93
371.494	53.68
371.7	59.39
371.906	54.55
372.113	49.26
372.319	48.51
372.526	47.59
372.732	44.11
372.938	39.29
373.145	28.95
373.351	22.76
373.557	25.71
373.763	28.48
373.97	23.16
374.176	21.27
374.382	17.86
374.588	15.43
374.795	16.67
375.001	7.7
375.207	6.92
375.413	10.72
375.62	12.89
375.826	15.17
376.032	11.81
376.238	11.57
376.444	13.6
376.65	11.1
376.856	-2.38
377.062	11.47
377.269	21.44
377.475	23.74
377.681	19.99
377.887	19.69
378.093	9.24
378.299	18.99
378.505	21.09
378.711	29.37
378.917	31.36
379.123	29.92
379.329	31.72
379.535	38.51
379.741	37.58
379.947	29.53
380.152	25.11
380.358	26.7
380.564	25.07
380.77	27.72
380.976	26.49
381.182	33.03
381.388	29.98
381.594	27.05
381.799	29.68
382.005	31.74
382.211	33.61
382.417	34.05
382.623	31.28
382.828	34.55
383.034	28.85
383.24	34.78
383.445	27.73
383.651	25.4
383.857	13.52
384.063	14.71
384.268	17.28
384.474	23.08
384.68	9.65
384.885	14.75
385.091	20.65
385.296	23.8
385.502	26.81
385.708	28.38
385.913	28.49
386.119	25.88
386.324	26.94
386.53	28.81
386.735	30.83
386.941	33.99
387.146	26.22
387.352	29.83
387.557	32.19
387.763	40.96
387.968	40.2
388.174	44.43
388.379	46.99
388.585	46.19
388.79	37.82
388.996	43.64
389.201	50.01
389.406	39.35
389.612	38.62
389.817	36.74
390.022	41.84
390.228	44.87
390.433	43.29
390.638	41.26
390.844	34.44
391.049	33.91
391.254	30.89
391.459	33.61
391.665	23.53
391.87	18.94
392.075	23.35
392.28	27.16
392.485	24.73
392.691	22.9
392.896	18.06
393.101	21.8
393.306	30.24
393.511	25.5
393.716	31.64
393.922	32.43
394.127	20.12
394.332	15.56
394.537	10.18
394.742	13.54
394.947	17.71
395.152	19.74
395.357	21.95
395.562	21.83
395.767	19.53
395.972	26.07
396.177	19.42
396.382	12.83
396.587	10.56
396.792	14.1
396.997	20.7
397.202	22.98
397.407	21.49
397.611	23.25
397.816	21.52
398.021	17.08
398.226	12.89
398.431	18.56
398.636	15
398.841	18.77
399.045	20.99
399.25	18.11
399.455	15.32
399.66	13.9
399.864	8.38
400.069	6.14
400.274	11.38
400.479	14.75
400.683	19.24
400.888	20.39
401.093	12.84
401.297	6.64
401.502	5.57
401.707	15.15
401.911	22.99
402.116	26.36
402.321	36.25
402.525	47.34
402.73	46.37
402.934	44.66
403.139	50.16
403.344	55.56
403.548	46
403.753	52.93
403.957	52.51
404.162	56.27
404.366	64.34
404.571	49.45
404.775	50.76
404.98	46.75
405.184	50.55
405.388	63.14
405.593	56.86
405.797	43.12
406.002	38.84
406.206	22.74
406.41	23.92
406.615	14.08
406.819	11.67
407.023	16.16
407.228	15.87
407.432	13.3
407.636	4.39
407.841	16.82
408.045	16.89
408.249	20.38
408.453	22.17
408.658	14.84
408.862	21.1
409.066	21.84
409.27	20.59
409.474	19.01
409.679	9.18
409.883	14.83
410.087	21.26
410.291	13.4
410.495	18.02
410.699	19.54
410.903	32.2
411.108	33.28
411.312	24.36
411.516	28.18
411.72	33.19
411.924	29.1
412.128	27.44
412.332	25.03
412.536	35.53
412.74	44.38
412.944	44.57
413.148	48.9
413.352	57.96
413.556	55.02
413.76	43.59
413.964	46.93
414.167	47.64
414.371	48.39
414.575	44.35
414.779	51.16
414.983	55.41
415.187	50.65
415.391	53.54
415.594	53.01
415.798	54.96
416.002	52.32
416.206	53.01
416.41	51.08
416.613	51.09
416.817	40.36
417.021	34.14
417.225	38.32
417.428	28.23
417.632	27.73
417.836	33.49
418.039	39.22
418.243	37.28
418.447	32.14
418.65	32.85
418.854	51.87
419.057	44.43
419.261	43.43
419.465	50.71
419.668	53.6
419.872	60.99
420.075	49.47
420.279	47.86
420.482	52.13
420.686	48.38
420.889	46.97
421.093	51.91
421.296	50.54
421.5	47.26
421.703	46.79
421.907	40.86
422.11	33.31
422.314	40.63
422.517	39.94
422.72	40.7
422.924	37.95
423.127	29.21
423.33	35.41
423.534	33.02
423.737	22.24
423.94	22.55
424.144	27.82
424.347	41.85
424.55	38.31
424.754	35.27
424.957	34.51
425.16	38.55
425.363	43.66
425.567	59.04
425.77	58.44
425.973	61.22
426.176	67.26
426.379	68.9
426.582	68.5
426.786	74.96
426.989	77.44
427.192	91.61
427.395	89.81
427.598	83.35
427.801	81.1
428.004	79.1
428.207	78.24
428.41	85.03
428.613	87.15
428.816	87.49
429.019	91.29
429.222	87.14
429.425	84.37
429.628	73.42
429.831	61.72
430.034	64.76
430.237	65.72
430.44	62.97
430.643	59.34
430.846	59.35
431.049	54.63
431.252	53.61
431.454	46.93
431.657	41.31
431.86	41.67
432.063	42.16
432.266	48.05
432.469	45.06
432.671	31.8
432.874	27.5
433.077	15.85
433.28	16.4
433.482	23.18
433.685	22.91
433.888	23.17
434.09	24.79
434.293	14.39
434.496	13.7
434.698	16.5
434.901	21.53
435.104	14.44
435.306	17.39
435.509	18.22
435.712	20.4
435.914	15.53
436.117	9.89
436.319	20.6
436.522	15.17
436.724	18.76
436.927	21.31
437.129	24.76
437.332	37.42
437.534	35.58
437.737	32.99
437.939	35.08
438.142	31.01
438.344	30.66
438.547	42.27
438.749	47.78
438.951	38.52
439.154	47.35
439.356	38.77
439.558	41.75
439.761	36.63
439.963	43.29
440.165	42
440.368	43.67
440.57	26.37
440.772	34.56
440.975	13.16
441.177	20.14
441.379	13.77
441.581	12.77
441.784	6.57
441.986	17.29
442.188	10.32
442.39	13.27
442.592	8.8
442.795	13.1
442.997	2.07
443.199	5.38
443.401	2.51
443.603	7.25
443.805	0.16
444.007	10.61
444.209	6.55
444.411	14.62
444.613	23.4
444.815	30.53
445.017	20.84
445.219	31.04
445.421	31.95
445.623	37.09
445.825	32.91
446.027	37.54
446.229	30.75
446.431	34.81
446.633	25.47
446.835	22.9
447.037	18.55
447.239	25.67
447.441	23.7
447.643	22.9
447.844	12.02
448.046	22.29
448.248	18.25
448.45	21.19
448.652	18.82
448.853	25.08
449.055	29.86
449.257	38.07
449.459	25.3
449.66	25.71
449.862	27.66
450.064	41.36
450.266	33.49
450.467	29.73
450.669	38.4
450.871	54.8
451.072	63.03
451.274	64.37
451.475	56.01
451.677	60.92
451.879	68.01
452.08	80.72
452.282	78.69
452.483	79.89
452.685	66.54
452.886	59.75
453.088	48.28
453.289	42.4
453.491	52.59
453.692	75.41
453.894	83.61
454.095	68.77
454.297	60.69
454.498	67.95
454.7	72.72
454.901	67.24
455.102	53.95
455.304	52.31
455.505	52.24
455.706	54.03
455.908	45.21
456.109	44.3
456.31	47.26
456.512	38.8
456.713	42.07
456.914	36.81
457.116	27.78
457.317	31.65
457.518	23.17
457.719	21.29
457.921	22.4
458.122	-0.65
458.323	0.23
458.524	7.84
458.725	4.68
458.926	2.73
459.128	-6.22
459.329	-7.55
459.53	-10.59
459.731	-25.52
459.932	-25.85
460.133	-7.88
460.334	2.6
460.535	-5.78
460.736	3.95
460.937	-5.75
461.138	-2.95
461.339	5.55
461.54	9.5
461.741	14.58
461.942	17.39
462.143	22.68
462.344	30.92
462.545	30.16
462.746	26.29
462.947	22.96
463.148	26.76
463.348	35.33
463.549	38.3
463.75	38.43
463.951	50.78
464.152	41.9
464.353	38.48
464.553	42.31
464.754	48.2
464.955	45.8
465.156	48.03
465.356	54.5
465.557	51.18
465.758	54.44
465.959	52.02
466.159	52.18
466.36	47.57
466.561	47.6
466.761	48.89
466.962	52.37
467.163	53.36
467.363	49.44
467.564	47.75
467.764	49.56
467.965	51.15
468.166	49.9
468.366	61.62
468.567	54.27
468.767	56.32
468.968	52.34
469.168	50.21
469.369	54.94
469.569	47.19
469.77	49.61
469.97	38.08
470.17	43.84
470.371	40.84
470.571	39.26
470.772	41.62
470.972	39.25
471.172	34.09
471.373	33.43
471.573	38.15
471.773	36.38
471.974	36.84
472.174	37.59
472.374	42.17
472.575	39.44
472.775	44.41
472.975	31.67
473.175	35.91
473.376	32.02
473.576	32.54
473.776	29.8
473.976	31.03
474.177	34.63
474.377	27.23
474.577	33.62
474.777	31.43
474.977	29.99
475.177	26.63
475.377	32.64
475.577	36.44
475.777	36.8
475.978	33.56
476.178	31.29
476.378	30.18
476.578	27.97
476.778	24.24
476.978	23.66
477.178	25.99
477.378	28.29
477.578	28.43
477.778	25.34
477.977	25.65
478.177	25.86
478.377	26.37
478.577	29.08
478.777	23.25
478.977	22.67
479.177	23.55
479.377	29.17
479.577	16.52
479.776	13.3
479.976	7.39
480.176	10.48
480.376	11.81
480.576	7.95
480.775	1.12
480.975	1.94
481.175	-3.25
481.374	-4.69
481.574	-7.57
481.774	-0.05
481.974	2.56
482.173	8.06
482.373	5.39
482.572	10.04
482.772	11.56
482.972	12.42
483.171	12.25
483.371	17.69
483.57	15.93
483.77	24.29
483.97	22.62
484.169	26.32
484.369	25.81
484.568	24.48
484.768	25.74
484.967	28.97
485.167	29.46
485.366	31.81
485.566	32.89
485.765	32.4
485.964	23.72
486.164	23.13
486.363	16.79
486.563	17.9
486.762	15.78
486.961	16.32
487.161	19.05
487.36	16.57
487.559	12.58
487.759	10.64
487.958	3.87
488.157	-0.76
488.356	0.21
488.556	3.24
488.755	4.94
488.954	7.35
489.153	5.78
489.353	7.34
489.552	8.78
489.751	8.23
489.95	10.41
490.149	14.36
490.348	12.36
490.548	14.56
490.747	14.43
490.946	15.98
491.145	15.07
491.344	11.22
491.543	17.63
491.742	15.66
491.941	14.71
492.14	10.32
492.339	19.12
492.538	17.24
492.737	17.5
492.936	17.09
493.135	14.01
493.334	7.5
493.533	4.74
493.732	8.09
493.931	13.03
494.13	8.29
494.328	11.03
494.527	12.21
494.726	9.59
494.925	6.93
495.124	7.04
495.323	7.72
495.521	5.35
495.72	4.56
495.919	3.83
496.118	4.5
496.316	12.82
496.515	11.74
496.714	8.58
496.913	7.92
497.111	8.2
497.31	6
497.509	11.34
497.707	12.94
497.906	13.89
498.105	10.89
498.303	12.1
498.502	12.03
498.7	10.26
498.899	6.83
499.097	7.37
499.296	1.92
499.495	0.98
499.693	5.25
499.892	4
500.09	4.51
500.289	8.79
500.487	6.25
500.686	7.6
500.884	8.62
501.082	9.93
501.281	6.48
501.479	12.5
501.678	10.17
501.876	6.21
502.074	5.59
502.273	2.73
502.471	3.83
502.669	0.09
502.868	0.09
503.066	9.31
503.264	14.03
503.463	14.59
503.661	12.52
503.859	15.79
504.057	17.2
504.256	13.81
504.454	13.33
504.652	11.02
504.85	11.61
505.048	16.32
505.246	13.35
505.445	15.03
505.643	13.11
505.841	16.18
506.039	17.46
506.237	15.06
506.435	20.65
506.633	19.66
506.831	24.28
507.029	27.78
507.227	25.57
507.425	26.98
507.623	27.29
507.821	28.57
508.019	28.64
508.217	30.28
508.415	36.15
508.613	33.33
508.811	34.34
509.009	33.85
509.207	31.9
509.405	32.29
509.603	33.32
509.8	30.12
509.998	27.85
510.196	29.58
510.394	27.76
510.592	24.37
510.79	25.29
510.987	22.8
511.185	20.62
511.383	18.6
511.581	15.87
511.778	15.72
511.976	19.04
512.174	12.88
512.371	9.08
512.569	6.63
512.767	8.12
512.964	5.71
513.162	1.73
513.36	-1.33
513.557	-1.82
513.755	-2.31
513.952	7.9
514.15	5.46
514.348	4.55
514.545	4.89
514.743	9.71
514.94	6.69
515.138	3.08
515.335	2.58
515.533	5.07
515.73	3.98
515.927	4.37
516.125	2.09
516.322	8.18
516.52	9.08
516.717	12.06
516.915	12.76
517.112	15.74
517.309	18.53
517.507	20.32
517.704	19.37
517.901	16.47
518.099	11.25
518.296	15.84
518.493	19.34
518.69	20.36
518.888	16.51
519.085	19.3
519.282	20.8
519.479	20.46
519.676	17.93
519.874	18.61
520.071	14.33
520.268	15.27
520.465	13.77
520.662	14
520.859	12.02
521.056	11.69
521.254	14.85
521.451	16.57
521.648	17.21
521.845	16.53
522.042	21.39
522.239	18.81
522.436	15.37
522.633	8.95
522.83	8.41
523.027	4.44
523.224	2.11
523.421	5.55
523.618	7.58
523.815	12.15
524.011	10.52
524.208	17.86
524.405	18.03
524.602	15.89
524.799	11.57
524.996	9.22
525.193	8.69
525.389	5.77
525.586	4.4
525.783	-0.45
525.98	1.07
526.176	-1.35
526.373	-5.54
526.57	-4.06
526.767	-4.89
526.963	-5.46
527.16	2.38
527.357	2.81
527.553	-0.14
527.75	-3.76
527.947	-6.66
528.143	-2.87
528.34	-2.47
528.537	-7.26
528.733	-2.99
528.93	2.73
529.126	8.85
529.323	8.29
529.519	7.66
529.716	4.3
529.912	2.52
530.109	1.96
530.305	3.93
530.502	9.28
530.698	5
530.895	4.41
531.091	6.59
531.288	4.94
531.484	6.83
531.68	7.84
531.877	10.86
532.073	7.42
532.269	5.82
532.466	2.7
532.662	6.32
532.858	4.72
533.055	3.6
533.251	1.88
533.447	5.18
533.643	8.82
533.84	8.38
534.036	10.08
534.232	15.01
534.428	11.14
534.624	10.74
534.821	15.41
535.017	18.97
535.213	16.07
535.409	19.41
535.605	20.61
535.801	19.18
535.997	17.99
536.193	18.48
536.389	18.65
536.586	20.53
536.782	20.56
536.978	20.87
537.174	23.36
537.37	25.22
537.566	23.84
537.762	18.02
537.958	20.55
538.153	21.22
538.349	17.56
538.545	20.52
538.741	20.39
538.937	19.23
539.133	20.37
539.329	23.11
539.525	19.37
539.721	16.54
539.916	17.2
540.112	13.21
540.308	17.73
540.504	20.99
540.699	22.09
540.895	20.77
541.091	20.36
541.287	19.74
541.482	14.64
541.678	13.51
541.874	14.17
542.069	14.86
542.265	18.44
542.461	18.91
542.656	18.27
542.852	18.31
543.048	20.06
543.243	17.89
543.439	20.4
543.634	19.95
543.83	20.97
544.025	18.64
544.221	22.82
544.417	23.2
544.612	22.89
544.807	21.9
545.003	20.27
545.198	20.98
545.394	20.61
545.589	23.83
545.785	21.53
545.98	23.18
546.176	21.61
546.371	17.9
546.566	17.17
546.762	15.75
546.957	17.63
547.152	16.92
547.348	16.58
547.543	16.16
547.738	14.16
547.933	12.08
548.129	16.82
548.324	13.09
548.519	7.89
548.714	4.47
548.91	5.49
549.105	6.02
549.3	6.68
549.495	6.91
549.69	2.01
549.885	5.98
550.08	8.16
550.276	11.37
550.471	15.28
550.666	14.88
550.861	15.22
551.056	12.86
551.251	13.29
551.446	15.98
551.641	13.74
551.836	17
552.031	18.33
552.226	15.3
552.421	15.73
552.616	18.09
552.811	18.83
553.006	17.59
553.201	16.56
553.395	16.98
553.59	16.12
553.785	19.17
553.98	19.46
554.175	15.04
554.37	13.25
554.565	11.58
554.759	13.31
554.954	12.69
555.149	14.32
555.344	13.56
555.538	11.89
555.733	14.73
555.928	14.97
556.122	13.14
556.317	13.69
556.512	14.8
556.706	16.42
556.901	16.79
557.096	16.59
557.29	18.18
557.485	15.05
557.68	12.77
557.874	13.44
558.069	12.07
558.263	13.77
558.458	13.67
558.652	13.24
558.847	11.81
559.041	12.99
559.236	10.3
559.43	9.06
559.625	10.03
559.819	7.71
560.014	4.97
560.208	6.17
560.402	5.62
560.597	6.45
560.791	6.38
560.986	7.52
561.18	5.71
561.374	7.07
561.569	7.65
561.763	9.78
561.957	6.39
562.151	6.25
562.346	7.12
562.54	9.72
562.734	9.36
562.928	7.77
563.123	10.53
563.317	11.28
563.511	14.2
563.705	10.16
563.899	9.81
564.093	10.68
564.288	10.44
564.482	9.54
564.676	10.97
564.87	13.42
565.064	12.37
565.258	14.57
565.452	12.55
565.646	14.25
565.84	12.78
566.034	14.73
566.228	14.09
566.422	12.91
566.616	11.75
566.81	13.47
567.004	15.63
567.198	16.28
567.392	15.21
567.586	11.86
567.779	16.64
567.973	15.89
568.167	15.72
568.361	15.6
568.555	16.33
568.749	13.06
568.942	10.09
569.136	12.89
569.33	11.09
569.524	11.73
569.718	12.74
569.911	13.28
570.105	14.6
570.299	13.74
570.492	14.75
570.686	15.95
570.88	14.85
571.073	13.65
571.267	12.75
571.461	13.95
571.654	15.07
571.848	13.58
572.041	14.45
572.235	15.32
572.429	17.71
572.622	16.78
572.816	18.01
573.009	18.05
573.203	14.4
573.396	16.3
573.59	16.52
573.783	14.15
573.976	14.6
574.17	12.38
574.363	11.79
574.557	10.52
574.75	8.04
574.943	8.63
575.137	10.39
575.33	10.14
575.523	7.72
575.717	7.88
575.91	7.37
576.103	8.08
576.297	6.6
576.49	5.39
576.683	7.42
576.876	7.93
577.07	7.52
577.263	10.83
577.456	11.36
577.649	10.08
577.842	11.31
578.036	12.91
578.229	13.65
578.422	14.38
578.615	14.46
578.808	13.74
579.001	15.31
579.194	14.63
579.387	14.51
579.58	15.72
579.773	16.63
579.966	16.99
580.159	15.32
580.352	16.01
580.545	17.34
580.738	15.59
580.931	14.95
581.124	15.05
581.317	12.02
581.51	8.75
581.703	10.35
581.896	10.15
582.088	8.68
582.281	9.45
582.474	10.03
582.667	11.98
582.86	12.54
583.053	9.05
583.245	10.21
583.438	10.88
583.631	12.85
583.824	12.52
584.016	12.39
584.209	13.01
584.402	15.3
584.594	14.93
584.787	16.69
584.98	15.57
585.172	16.8
585.365	17.03
585.558	19.2
585.75	17.03
585.943	16.74
586.135	15.8
586.328	15.34
586.52	16.13
586.713	15.6
586.906	16.06
587.098	18.11
587.291	18.21
587.483	16.25
587.675	16.64
587.868	14.59
588.06	14.33
588.253	15.32
588.445	14.34
588.638	13.14
588.83	11.1
589.022	11.74
589.215	10.92
589.407	12.25
589.599	11.03
589.792	12.68
589.984	13.1
590.176	14.63
590.368	16.59
590.561	16.73
590.753	16.69
590.945	16.89
591.137	14.74
591.33	11.82
591.522	12.37
591.714	9.12
591.906	12.11
592.098	11.01
592.29	8.53
592.482	9.11
592.674	9.85
592.867	9.91
593.059	10.17
593.251	10.54
593.443	10.5
593.635	11.22
593.827	10.43
594.019	9.53
594.211	8.88
594.403	8.25
594.595	6.74
594.787	6.23
594.979	7.02
595.17	8.64
595.362	10.81
595.554	11.56
595.746	13.19
595.938	10.73
596.13	12.42
596.322	13.83
596.513	12.36
596.705	12.23
596.897	13.54
597.089	13.3
597.281	14.62
597.472	14.23
597.664	13.67
597.856	13.63
598.048	14.12
598.239	13.32
598.431	10.7
598.623	9.52
598.814	7.6
599.006	7.8
599.197	7.03
599.389	5.48
599.581	3.15
599.772	3.1
599.964	4.92
600.155	4.5
600.347	4.59
600.538	4.5
600.73	5.31
600.921	3.75
601.113	3.64
601.304	2.3
601.496	3.43
601.687	4.43
601.879	2.4
602.07	3.77
602.262	4.57
602.453	5.72
602.644	7.66
602.836	8.38
603.027	6.45
603.218	6.15
603.41	6.66
603.601	9.09
603.792	8.87
603.983	8.13
604.175	8.16
604.366	7.31
604.557	7.59
604.748	5.67
604.94	6.59
605.131	5.9
605.322	5.96
605.513	5.16
605.704	4.45
605.895	7.86
606.086	6.62
606.278	8.02
606.469	9.81
606.66	10.09
606.851	9.97
607.042	10.41
607.233	11.18
607.424	11.79
607.615	10.39
607.806	10.15
607.997	10.72
608.188	11.24
608.379	11.84
608.57	12.07
608.761	12.61
608.952	13.32
609.142	14.61
609.333	14.82
609.524	13.78
609.715	14.12
609.906	11.78
610.097	12.24
610.287	10.89
610.478	10.09
610.669	10.95
610.86	10.81
611.051	11.44
611.241	11.69
611.432	11.07
611.623	12.71
611.813	12.62
612.004	11.66
612.195	11.66
612.385	10.84
612.576	10.77
612.767	11.08
612.957	9.65
613.148	9.32
613.338	8.89
613.529	8.92
613.72	8.31
613.91	8.25
614.101	6.31
614.291	7.08
614.482	7.99
614.672	6.2
614.863	6.87
615.053	5.38
615.243	5.2
615.434	6.21
615.624	4.07
615.815	5.24
616.005	4.83
616.195	4
616.386	5.03
616.576	4.48
616.766	5.65
616.957	7.13
617.147	7.15
617.337	6.53
617.528	6.69
617.718	6.13
617.908	6.6
618.098	7.38
618.289	6.95
618.479	4.48
618.669	6.5
618.859	6.38
619.049	7.78
619.239	8.07
619.43	7.9
619.62	7.67
619.81	7.36
620	8.64
620.19	8.38
620.38	7.16
620.57	7.75
620.76	6.01
620.95	7.29
621.14	6.3
621.33	7.36
621.52	7.97
621.71	8.06
621.9	7.95
622.09	8.08
622.28	9.04
622.47	9.85
622.659	8.3
622.849	9.73
623.039	10.52
623.229	10.88
623.419	10.34
623.609	10.72
623.799	10.41
623.988	9.36
624.178	9.8
624.368	10.08
624.558	10.65
624.747	10.99
624.937	9.65
625.127	9.73
625.316	10.38
625.506	10.28
625.696	12.13
625.885	12.3
626.075	12.76
626.265	12.37
626.454	12.04
626.644	12.37
626.833	10.9
627.023	9.52
627.212	8.44
627.402	9.1
627.591	10.04
627.781	9.27
627.97	9.99
628.16	10.67
628.349	9.32
628.539	8.18
628.728	9.61
628.918	9.22
629.107	10.28
629.296	8.25
629.486	7.45
629.675	6.51
629.865	6.79
630.054	7.56
630.243	6.98
630.432	6.48
630.622	7.17
630.811	8.65
631	9.21
631.19	11.15
631.379	10.69
631.568	10.37
631.757	11.59
631.946	11.12
632.136	12.35
632.325	14.3
632.514	14.75
632.703	13
632.892	12.93
633.081	13.33
633.27	14.73
633.459	16.89
633.648	15.87
633.837	16.7
634.026	16.14
634.215	18.42
634.404	18.16
634.593	19.03
634.782	18.15
634.971	17.63
635.16	16.74
635.349	16.71
635.538	17.54
635.727	16.49
635.916	17.91
636.105	17.34
636.294	17.62
636.482	18.4
636.671	18.83
636.86	19.94
637.049	19.73
637.238	19.21
637.426	17.41
637.615	17.32
637.804	16.46
637.993	15.28
638.181	13.61
638.37	15.55
638.559	14.16
638.747	13.86
638.936	13.8
639.125	13.87
639.313	13.17
639.502	13.08
639.691	13.61
639.879	10.86
640.068	10.33
640.256	8.53
640.445	8.51
640.633	10.44
640.822	8.77
641.01	9.78
641.199	10.22
641.387	11.92
641.576	12.52
641.764	14.33
641.953	16.51
642.141	15.62
642.329	14.89
642.518	14.02
642.706	14.48
642.894	15.16
643.083	14.7
643.271	14.72
643.459	14.67
643.648	14.43
643.836	16
644.024	14.48
644.213	15.51
644.401	15.02
644.589	13.44
644.777	13.91
644.965	13.36
645.154	13.1
645.342	11.85
645.53	13.08
645.718	11.46
645.906	9.69
646.094	9.77
646.282	8.68
646.47	9.67
646.658	8.8
646.846	8.21
647.034	9.01
647.223	10.37
647.411	9.82
647.599	7.34
647.786	6.25
647.974	6.25
648.162	5.44
648.35	4.78
648.538	4.25
648.726	4.9
648.914	4.1
649.102	5.17
649.29	4.83
649.478	5.02
649.665	5.9
649.853	5.99
650.041	5.6
650.229	6.96
650.417	6.84
650.604	7.68
650.792	9.64
650.98	9.04
651.168	7.97
651.355	7.93
651.543	9.13
651.731	9.03
651.918	8.74
652.106	10.04
652.294	9.55
652.481	9.66
652.669	9.92
652.856	10.14
653.044	9.53
653.231	9.14
653.419	7.81
653.606	7.38
653.794	8.32
653.981	9.36
654.169	8.13
654.356	6.73
654.544	6.72
654.731	5.39
654.919	5.21
655.106	5.01
655.294	5.9
655.481	7.01
655.668	9.52
655.856	9.52
656.043	10.06
656.23	10.4
656.418	11.08
656.605	11.03
656.792	10.02
656.979	9.16
657.167	10.5
657.354	11.54
657.541	10.33
657.728	10.7
657.916	9.55
658.103	8.74
658.29	10.92
658.477	12.46
658.664	12.12
658.851	12.84
659.038	13.6
659.225	12.34
659.412	13.21
659.6	11.31
659.787	12.59
659.974	10.76
660.161	12.25
660.348	10.79
660.535	11.82
660.722	11.55
660.909	10.99
661.095	10.75
661.282	9.96
661.469	11.31
661.656	9.77
661.843	11.48
662.03	12.22
662.217	12.13
662.404	9.99
662.59	8.97
662.777	8.03
662.964	7.78
663.151	7.66
663.338	6.95
663.524	6.97
663.711	6.75
663.898	6.44
664.085	5.86
664.271	6.71
664.458	4.41
664.645	5.88
664.831	8.02
665.018	8.52
665.204	9.04
665.391	8.54
665.578	8.78
665.764	6.63
665.951	7.23
666.137	5.83
666.324	6.54
666.51	6.96
666.697	6.72
666.883	6.39
667.07	6.58
667.256	6.95
667.443	6.2
667.629	5.84
667.816	6.53
668.002	6.87
668.188	7.69
668.375	8.16
668.561	5.63
668.747	3.84
668.934	3.36
669.12	3.12
669.306	3.2
669.493	1.2
669.679	3.13
669.865	3.53
670.051	3.27
670.238	3.3
670.424	3.76
670.61	4.09
670.796	3.95
670.982	3.59
671.169	3.93
671.355	3.27
671.541	2.7
671.727	2.67
671.913	1.89
672.099	1.02
672.285	0.94
672.471	3.85
672.657	4.09
672.843	4.24
673.029	4.42
673.215	3.7
673.401	7.61
673.587	5.4
673.773	5.92
673.959	6.69
674.145	6.24
674.331	5.92
674.517	5.96
674.703	5.96
674.888	7.23
675.074	6.1
675.26	8.22
675.446	8.55
675.632	8.29
675.817	8.75
676.003	8.14
676.189	8.22
676.375	6.71
676.56	7.11
676.746	6.84
676.932	4.85
677.117	5.94
677.303	5.49
677.489	5.93
677.674	4.1
677.86	3.54
678.046	3.53
678.231	5.07
678.417	5.41
678.602	4.52
678.788	3.78
678.973	4.98
679.159	5.24
679.344	4.32
679.53	4.53
679.715	3.5
679.901	4.16
680.086	4.45
680.272	3.66
680.457	3.01
680.643	2.19
680.828	4.21
681.013	3.22
681.199	1.45
681.384	2.64
681.569	3.49
681.755	3.58
681.94	4.26
682.125	2.6
682.31	3.77
682.496	3.39
682.681	2.98
682.866	1.8
683.051	0.13
683.237	0.75
683.422	1.89
683.607	2.34
683.792	1.8
683.977	1.2
684.162	2.39
684.347	3.61
684.532	3.86
684.717	1.62
684.903	2.41
685.088	3.85
685.273	4.06
685.458	4.35
685.643	4.61
685.828	2.35
686.013	3.58
686.198	0.61
686.382	2.06
686.567	3.43
686.752	2.73
686.937	3.9
687.122	4.09
687.307	3.49
687.492	2.49
687.677	3.55
687.861	3.49
688.046	3.64
688.231	3.73
688.416	5.46
688.601	6.61
688.785	7.82
688.97	6.2
689.155	6.91
689.339	5.62
689.524	4.51
689.709	6.3
689.893	6.75
690.078	9.02
690.263	9.62
690.447	8.48
690.632	8.93
690.816	9.51
691.001	10.08
691.186	8.92
691.37	10.24
691.555	10.4
691.739	10.67
691.924	10.49
692.108	10.37
692.293	9.65
692.477	10.22
692.661	8.67
692.846	8.68
693.03	7.78
693.215	7.68
693.399	8.28
693.583	8.55
693.768	7.96
693.952	6.95
694.136	5.3
694.321	5.98
694.505	6.49
694.689	5.55
694.873	6.13
695.058	7.05
695.242	7.53
695.426	6.37
695.61	6.22
695.794	6.9
695.979	6.35
696.163	6.14
696.347	5.92
696.531	6.39
696.715	7.96
696.899	6.89
697.083	6.05
697.267	7.06
697.451	6.64
697.635	7.59
697.819	7.66
698.003	9.38
698.187	8.83
698.371	9.9
698.555	10.53
698.739	9.83
698.923	9.6
699.107	9.27
699.291	9.15
699.475	9.42
699.659	9.34
699.842	9.52
700.026	9.1
700.21	9.36
700.394	9.31
700.578	8.81
700.761	9.2
700.945	12.05
701.129	11.78
701.313	12.27
701.496	11.85
701.68	11.76
701.864	11.42
702.047	12.43
702.231	13.04
702.415	12.12
702.598	10.86
702.782	11.13
702.965	10.1
703.149	9.65
703.333	9.65
703.516	10.32
703.7	10.02
703.883	10.76
704.067	10.75
704.25	11.21
704.434	10.3
704.617	9.49
704.801	7.88
704.984	6.63
705.167	5.71
705.351	5.63
705.534	5.02
705.718	4.43
705.901	2.91
706.084	1.74
706.268	3.21
706.451	4.45
706.634	4.35
706.817	4.5
707.001	3.86
707.184	3.55
707.367	1.7
707.55	1.53
707.734	1.18
707.917	0.56
708.1	-1.04
708.283	1.36
708.466	2.7
708.649	2.94
708.832	4.02
709.015	5.29
709.199	4.96
709.382	5.6
709.565	5.9
709.748	6.79
709.931	5.64
710.114	3.72
710.297	3.73
710.48	3.77
710.663	4.59
710.846	5.24
711.028	5.09
711.211	5.24
711.394	6.06
711.577	6.12
711.76	5.73
711.943	6.63
712.126	5.41
712.309	5.91
712.491	6.07
712.674	5.08
712.857	5.12
713.04	5.2
713.222	4.97
713.405	6.04
713.588	5.4
713.771	6.46
713.953	6.56
714.136	5.75
714.319	6.36
714.501	5.74
714.684	5.83
714.866	6.17
715.049	6.56
715.232	5.92
715.414	4.94
715.597	5.62
715.779	4.84
715.962	4.94
716.144	4.35
716.327	5.11
716.509	6.63
716.692	4.95
716.874	4.54
717.057	4.76
717.239	3.8
717.421	5.8
717.604	4.22
717.786	5.07
717.968	4.82
718.151	4.33
718.333	3.36
718.515	4.61
718.698	5.16
718.88	5
719.062	4.93
719.244	5.08
719.427	4.55
719.609	6.34
719.791	6
719.973	6.64
720.155	5.34
720.338	3.51
720.52	4.44
720.702	4.95
720.884	4.8
721.066	4.85
721.248	-0.2
721.43	1.42
721.612	1.63
721.794	4.45
721.976	4.5
722.158	4.75
722.34	3.34
722.522	3.5
722.704	4.51
722.886	5.47
723.068	5.78
723.25	6.18
723.432	5.79
723.614	5.78
723.796	5.08
723.977	5.97
724.159	6.49
724.341	5.83
724.523	4.3
724.705	2.56
724.886	2.1
725.068	6.55
725.25	7.33
725.432	7.46
725.613	4.98
725.795	5.8
725.977	7.51
726.158	7.72
726.34	7.04
726.522	6.78
726.703	7.25
726.885	8.56
727.066	8.86
727.248	10.87
727.43	11.69
727.611	11.92
727.793	11.98
727.974	12.11
728.156	12.18
728.337	12.48
728.519	13.81
728.7	14.78
728.882	13.23
729.063	12.23
729.244	11.96
729.426	13.51
729.607	11.69
729.788	11.13
729.97	11.18
730.151	10.72
730.332	11.42
730.514	10.72
730.695	11.07
730.876	11.15
731.058	8.81
731.239	8.11
731.42	6.8
731.601	5.15
731.782	5.27
731.964	5.47
732.145	6.22
732.326	5.26
732.507	4.2
732.688	5.86
732.869	6.85
733.05	6.88
733.231	5.98
733.412	6.29
733.593	6.02
733.774	7.36
733.955	8.38
734.136	7.03
734.317	6.59
734.498	5.97
734.679	5.98
734.86	4.68
735.041	5.08
735.222	7.07
735.403	9.19
735.584	8.52
735.765	8.87
735.946	9.97
736.126	10.81
736.307	12.43
736.488	9.3
736.669	7.28
736.849	6.72
737.03	8.08
737.211	8.72
737.392	8.67
737.572	6.99
737.753	6.06
737.934	6.91
738.114	7.46
738.295	6.36
738.476	6.29
738.656	8.68
738.837	8.89
739.017	8.23
739.198	8.45
739.378	11.5
739.559	11.41
739.74	10.01
739.92	9.46
740.1	7.71
740.281	7.99
740.461	8.52
740.642	10.27
740.822	7.81
741.003	8.17
741.183	7.15
741.363	7.59
741.544	7.68
741.724	7.13
741.904	6.96
742.085	6.08
742.265	5.5
742.445	5.01
742.626	5.86
742.806	6.53
742.986	5.22
743.166	3.29
743.347	2.99
743.527	3.33
743.707	3.01
743.887	1.72
744.067	1.99
744.247	2.09
744.427	1.29
744.608	1.33
744.788	1.82
744.968	3.57
745.148	4.88
745.328	5.57
745.508	5.06
745.688	4.22
745.868	5.44
746.048	5.36
746.228	4.97
746.408	3.07
746.588	1
746.767	2.09
746.947	2.47
747.127	1.95
747.307	0.57
747.487	1
747.667	1.72
747.847	4.98
748.026	4.56
748.206	4.37
748.386	6.76
748.566	6.49
748.745	7.19
748.925	8.12
749.105	8.17
749.285	9.56
749.464	11.36
749.644	11.68
749.824	11.87
750.003	11.17
750.183	10.64
750.362	11.04
750.542	10.31
750.722	9.58
750.901	9.76
751.081	10.39
751.26	11.8
751.44	12.54
751.619	9.94
751.799	10.06
751.978	9.41
752.158	8.39
752.337	6.7
752.516	5.33
752.696	3.43
752.875	2.85
753.055	2.1
753.234	1.53
753.413	1.54
753.593	2.57
753.772	2.24
753.951	3.05
754.13	3.75
754.31	3.08
754.489	2.05
754.668	2.34
754.847	3.41
755.027	4.04
755.206	5.05
755.385	5.3
755.564	5.63
755.743	5.33
755.922	4.82
756.101	5.32
756.28	5.32
756.46	5.5
756.639	3.79
756.818	3.76
756.997	4.78
757.176	3.96
757.355	3.27
757.534	3.92
757.713	4.53
757.892	3.64
758.07	5.22
758.249	5.74
758.428	5.3
758.607	4.21
758.786	4.15
758.965	2.35
759.144	4.5
759.323	4.79
759.501	3.6
759.68	2.98
759.859	3.86
760.038	5.2
760.216	5.54
760.395	7.03
760.574	7.27
760.753	7.25
760.931	7.95
761.11	7.45
761.289	5.75
761.467	5.04
761.646	6.08
761.824	6.69
762.003	6.02
762.182	6.56
762.36	6.77
762.539	6.04
762.717	7.07
762.896	6.16
763.074	5.34
763.253	6.96
763.431	9.62
763.61	8.83
763.788	7.25
763.966	6.34
764.145	6.52
764.323	6.14
764.502	4.45
764.68	4.44
764.858	4.88
765.037	7.41
765.215	8.14
765.393	8.17
765.571	7.39
765.75	8.41
765.928	6.72
766.106	7.2
766.284	7.54
766.463	7.52
766.641	6.41
766.819	8.04
766.997	8.26
767.175	7.08
767.353	7.75
767.531	8.63
767.71	10.06
767.888	9.47
768.066	9.82
768.244	9.96
768.422	10.49
768.6	12.27
768.778	11.82
768.956	10.84
769.134	10.51
769.312	10.35
769.489	9.7
769.667	13.02
769.845	13.49
770.023	13.99
770.201	14.08
770.379	14.99
770.557	14.7
770.735	15.32
770.912	14.4
771.09	14.37
771.268	15.22
771.446	13.17
771.623	14.02
771.801	14.43
771.979	14.93
772.157	13.61
772.334	12.02
772.512	11.93
772.69	11.63
772.867	11.22
773.045	12.23
773.222	13.37
773.4	10.92
773.577	10.81
773.755	9.42
773.933	7.39
774.11	6.42
774.288	6.82
774.465	5.8
774.643	6.55
774.82	6.9
774.997	4.95
775.175	4.98
775.352	6.8
775.53	6.21
775.707	6.94
775.884	8.13
776.062	8.7
776.239	8.1
776.416	10.17
776.594	10.17
776.771	7.68
776.948	7.75
777.125	8.41
777.303	6.61
777.48	5.54
777.657	7.39
777.834	10.82
778.012	9.33
778.189	12.03
778.366	12.31
778.543	10.32
778.72	10.54
778.897	10.43
779.074	9.23
779.251	10.8
779.428	8.31
779.605	6.44
779.782	5.38
779.959	5.57
780.136	3.91
780.313	4.28
780.49	5.02
780.667	4.18
780.844	2.63
781.021	3.85
781.198	5.58
781.375	6.59
781.552	3.71
781.728	4.1
781.905	1.65
782.082	1.94
782.259	2.85
782.436	2.57
782.612	2.75
782.789	0.7
782.966	-1.23
783.143	-0.05
783.319	1.86
783.496	3.03
783.673	3.38
783.849	3.95
784.026	4.34
784.203	5.31
784.379	7.01
784.556	9.28
784.732	8.62
784.909	9.97
785.085	11.21
785.262	11.75
785.438	11.14
785.615	10.82
785.791	12.06
785.968	12.02
786.144	13.09
786.321	16.79
786.497	16.56
786.673	15.2
786.85	13.82
787.026	13.31
787.203	11.47
787.379	11.53
787.555	9.81
787.731	10.17
787.908	6.36
788.084	5.01
788.26	4.59
788.437	6.3
788.613	5.55
788.789	3.56
788.965	3.27
789.141	4.05
789.317	2.71
789.494	1.86
789.67	1.28
789.846	1.22
790.022	-1.89
790.198	1.1
790.374	3.89
790.55	5.11
790.726	3.88
790.902	6.61
791.078	7.59
791.254	9.44
791.43	9.8
791.606	9.59
791.782	8.42
791.958	8.27
792.134	8.01
792.31	7.28
792.486	6.03
792.661	7.17
792.837	8.43
793.013	10.35
793.189	9.88
793.365	9.77
793.54	10.19
793.716	10.29
793.892	8.35
794.068	6.18
794.243	7.35
794.419	8.83
794.595	6.09
794.77	6.34
794.946	8.21
795.122	7.7
795.297	9.97
795.473	11.56
795.648	11.99
795.824	10.91
796	12.77
796.175	14.13
796.351	13.02
796.526	11.24
796.702	9.9
796.877	8.83
797.052	10.66
797.228	9.08
797.403	8.94
797.579	11.67
797.754	13.11
797.929	14.02
798.105	14.56
798.28	14.19
798.455	14.12
798.631	12.56
798.806	12.85
798.981	14.46
799.157	14.19
799.332	13.3
799.507	15.5
799.682	13.57
799.858	12.91
800.033	14.25
800.208	16.85
800.383	17.78
800.558	19.19
800.733	18
800.908	18.5
801.083	19.28
801.258	18.13
801.434	18.96
801.609	17.31
801.784	16.73
801.959	19.31
802.134	15.35
802.309	14.37
802.484	13.41
802.658	13.17
802.833	12.45
803.008	13.88
803.183	10.94
803.358	11.13
803.533	13.91
803.708	12.07
803.883	9.56
804.057	7.45
804.232	10.39
804.407	10.95
804.582	13.07
804.756	10.29
804.931	8.47
805.106	7.18
805.281	9.11
805.455	8.24
805.63	7.78
805.805	10.95
805.979	13.67
806.154	15.29
806.328	15.96
806.503	14.9
806.678	14.14
806.852	13.99
807.027	17.79
807.201	12.3
807.376	10.92
807.55	12.39
807.725	13.76
807.899	13.45
808.074	15.03
808.248	13.81
808.422	17.14
808.597	18.21
808.771	21.31
808.946	20.09
809.12	21.33
809.294	22.24
809.468	20.67
809.643	19.63
809.817	19.24
809.991	18.5
810.166	19.32
810.34	17.66
810.514	20.91
810.688	15.44
810.862	16.48
811.037	20.19
811.211	21.08
811.385	20.49
811.559	18.69
811.733	17.42
811.907	14.79
812.081	13.72
812.255	12.33
812.429	6.19
812.603	6.62
812.777	7.05
812.951	4.17
813.125	3.55
813.299	0.12
813.473	-3.35
813.647	-0.31
813.821	1.13
813.995	3.56
814.169	0.25
814.343	4.65
814.516	8.83
814.69	8.23
814.864	6.62
815.038	8.07
815.212	9.43
815.385	13.08
815.559	18.75
815.733	16.31
815.907	17.07
816.08	25.38
816.254	23.59
816.428	26.31
816.601	27.13
816.775	29.59
816.948	31.94
817.122	35.11
817.296	32.94
817.469	33.36
817.643	35.21
817.816	38.2
817.99	34.82
818.163	31.74
818.337	29.63
818.51	27.7
818.684	29.4
818.857	27.33
819.031	23
819.204	19.64
819.377	20.79
819.551	20.56
819.724	14.5
819.897	15.81
820.071	12.23
820.244	10.99
820.417	9.51
820.591	9.91
820.764	10.92
820.937	13.07
821.11	11.11
821.284	8.48
821.457	9.17
821.63	10.22
821.803	11.24
821.976	12.95
822.149	15.4
822.322	17.22
822.496	16.84
822.669	20.52
822.842	20.88
823.015	22.09
823.188	22.55
823.361	24.76
823.534	23.1
823.707	22.76
823.88	23.82
824.053	25.98
824.226	24.1
824.399	21.21
824.571	20.46
824.744	24.74
824.917	26.78
825.09	24.77
825.263	26.61
825.436	30.99
825.608	30.05
825.781	30.1
825.954	25.43
826.127	25.46
826.299	24.76
826.472	25.26
826.645	27.69
826.818	30.26
826.99	27.82
827.163	28.45
827.336	26.84
827.508	26.31
827.681	25.78
827.853	28.96
828.026	30.98
828.198	29.98
828.371	28.87
828.544	27.17
828.716	26.97
828.889	23.82
829.061	17.58
829.233	18.56
829.406	17.03
829.578	18.58
829.751	17.84
829.923	14.89
830.096	10.6
830.268	4.32
830.44	0.71
830.613	4.97
830.785	6.79
830.957	7.67
831.129	11.06
831.302	12.62
831.474	7.17
831.646	4.79
831.818	6.82
831.991	5.95
832.163	8.27
832.335	12.02
832.507	15.99
832.679	16.35
832.851	18.55
833.023	20.32
833.195	21
833.368	20.81
833.54	20.98
833.712	21.4
833.884	27.42
834.056	28.4
834.228	28.9
834.4	30.35
834.571	33.32
834.743	28.38
834.915	23.9
835.087	26.19
835.259	31.22
835.431	28.02
835.603	26.23
835.775	21.61
835.946	20.54
836.118	16.39
836.29	17.04
836.462	11.01
836.634	10.3
836.805	9.31
836.977	12.32
837.149	11.44
837.32	14.43
837.492	14.73
837.664	13.27
837.835	8.24
838.007	3.36
838.179	1.16
838.35	11.35
838.522	19.34
838.693	20.66
838.865	15.63
839.036	15.45
839.208	17.44
839.379	20.99
839.551	19.62
839.722	22.94
839.894	21.09
840.065	23.54
840.237	24.42
840.408	25.75
840.579	25.35
840.751	25.73
840.922	27.16
841.093	23.1
841.265	24.72
841.436	28.2
841.607	28.87
841.778	29.68
841.95	26.3
842.121	21.49
842.292	22.1
842.463	25.8
842.635	30.09
842.806	33.81
842.977	32.61
843.148	34.73
843.319	32.89
843.49	36.96
843.661	35.26
843.832	33.26
844.003	35.44
844.174	39.41
844.345	40.82
844.516	34.38
844.687	41.95
844.858	43.36
845.029	42.24
845.2	38.5
845.371	40.6
845.542	34.52
845.713	30.41
845.884	26.2
846.055	22.23
846.225	19.89
846.396	10.12
846.567	16.24
846.738	16.68
846.909	16.48
847.079	14.44
847.25	21.12
847.421	20.32
847.591	10.12
847.762	4.12
847.933	-2.44
848.103	4.78
848.274	-8.53
848.445	-10.07
848.615	-10.42
848.786	-9.29
848.956	-7.04
849.127	-3.84
849.297	4.66
849.468	11.1
849.638	13.56
849.809	13.32
849.979	14.61
850.15	9.81
850.32	6.73
850.491	5.42
850.661	8.89
850.831	7.42
851.002	12.1
851.172	15.94
851.342	16.34
851.513	19.81
851.683	19.26
851.853	25.68
852.024	27.76
852.194	25.83
852.364	27.27
852.534	23.59
852.705	24.79
852.875	24.82
853.045	21.05
853.215	18.45
853.385	25.86
853.555	31.64
853.725	31.97
853.895	33.93
854.066	37.32
854.236	37.81
854.406	37.03
854.576	35.77
854.746	38.17
854.916	44.03
855.086	43.34
855.256	49.86
855.425	48.41
855.595	47.39
855.765	46.06
855.935	43.88
856.105	44.98
856.275	48.89
856.445	44.02
856.614	39.61
856.784	45.18
856.954	39.87
857.124	35.57
857.294	38.64
857.463	38.05
857.633	36.19
857.803	35.47
857.972	36.09
858.142	38.6
858.312	34.36
858.481	31.06
858.651	29.4
858.821	24.85
858.99	25.9
859.16	21.63
859.329	26.52
859.499	29.92
859.668	32.83
859.838	32.07
860.007	35.85
860.177	39.41
860.346	36.4
860.516	33.36
860.685	33.15
860.854	37.06
861.024	32.79
861.193	30.34
861.363	27.95
861.532	26.28
861.701	22.76
861.87	29.1
862.04	30.36
862.209	35.69
862.378	35.51
862.547	32.5
862.717	33.67
862.886	35.35
863.055	36.58
863.224	34.58
863.393	34.28
863.563	34.82
863.732	34.76
863.901	31.78
864.07	33.42
864.239	31.52
864.408	24.55
864.577	27.43
864.746	29.68
864.915	27.65
865.084	38.98
865.253	41.86
865.422	43
865.591	43.77
865.76	41.22
865.929	43.95
866.097	49.49
866.266	48.94
866.435	46.15
866.604	39.01
866.773	36.14
866.942	34.13
867.11	33.71
867.279	49.66
867.448	58.57
867.617	54.91
867.785	60.14
867.954	59.07
868.123	63.26
868.291	57.5
868.46	66.72
868.629	58.39
868.797	57.89
868.966	50.65
869.134	43.19
869.303	41.35
869.472	36.33
869.64	30.12
869.809	32.22
869.977	36.38
870.146	34.27
870.314	39.15
870.482	45.54
870.651	40.04
870.819	34.87
870.988	30.49
871.156	38.77
871.324	38.29
871.493	33.03
871.661	33.06
871.829	43.94
871.998	48.27
872.166	41.02
872.334	31.81
872.502	36.25
872.671	29.73
872.839	37.98
873.007	41.21
873.175	55.16
873.343	59.56
873.512	49.69
873.68	56.31
873.848	60.74
874.016	55.64
874.184	62.63
874.352	51.93
874.52	49.59
874.688	43.87
874.856	44.99
875.024	51.89
875.192	54.65
875.36	50.98
875.528	46.76
875.696	48.02
875.864	59.78
876.032	62.26
876.199	74.83
876.367	73.5
876.535	73.37
876.703	55.67
876.871	59.44
877.039	64.62
877.206	62.42
877.374	58.84
877.542	58.3
877.71	64.04
877.877	75.22
878.045	91.25
878.213	92.5
878.38	95.29
878.548	99.08
878.715	100.64
878.883	105.85
879.051	117.04
879.218	107.67
879.386	99.13
879.553	95.61
879.721	91.02
879.888	89.73
880.056	107.84
880.223	121.04
880.391	134.46
880.558	143.03
880.726	151.76
880.893	141.54
881.06	120.01
881.228	126.86
881.395	112.32
881.562	101.57
881.73	104.02
881.897	115.52
882.064	95.07
882.231	78.42
882.399	81.89
882.566	73.41
882.733	88.48
882.9	104.66
883.068	110.68
883.235	100.55
883.402	98.85
883.569	93.53
883.736	88.58
883.903	75.93
884.07	74.77
884.237	63.48
884.404	76.6
884.571	108.87
884.738	92.85
884.905	90.54
885.072	83.56
885.239	87.04
885.406	79.59
