#Video File Name: 32_exploration_1.avi
#Project ID: 32_exploration_1
#Event codes:
#1 also bal [hideg sarok]
#2 also kozepso
#3 also jobb
#4 kozepso bal
#5 kozepso kozep
#6 kozepso jobb
#7 felso bal
#8 felso kozep
#9 felso jobb [meleg sarok]
#q rejtekhely in [Q out]
#a napozas in [A out]
#z teljes test ki
#s inaktiv [S out]
#Field separator: ;
#MWrap version: Wed Feb 14 09:50:29 CET 2018
#id;description;key;time;duration;object id
1;rejtekhely in [Q out];q;0.50;0.00;1
2;q-end;Q;40.00;39.50;1
3;kozepso kozep;5;40.50;0.00;1
4;teljes test ki;z;87.00;0.00;1
5;felso kozep;8;87.50;0.00;1
6;felso bal;7;211.00;0.00;1
7;kozepso bal;4;216.50;0.00;1
8;also bal [hideg sarok];1;224.50;0.00;1
9;also kozepso;2;228.50;0.00;1
#10;also bal [hideg sarok];1;229.50;0.00;1
11;also jobb;3;231.50;0.00;1
12;kozepso jobb;6;233.50;0.00;1
13;felso jobb [meleg sarok];9;235.00;0.00;1
14;felso kozep;8;239.50;0.00;1
15;felso bal;7;244.50;0.00;1
16;felso kozep;8;247.50;0.00;1
17;felso bal;7;248.00;0.00;1
18;kozepso bal;4;249.50;0.00;1
19;also bal [hideg sarok];1;252.00;0.00;1
20;also kozepso;2;254.00;0.00;1
21;also jobb;3;256.00;0.00;1
22;kozepso jobb;6;259.00;0.00;1
23;felso jobb [meleg sarok];9;260.50;0.00;1
24;felso kozep;8;264.00;0.00;1
25;felso bal;7;271.00;0.00;1
26;kozepso bal;4;272.50;0.00;1
#27;also bal [hideg sarok];1;273.50;0.00;1
28;also bal [hideg sarok];1;277.50;0.00;1
29;also kozepso;2;280.00;0.00;1
#30;kozepso jobb;6;281.00;0.00;1
31;kozepso kozep;5;281.00;0.00;1
32;kozepso jobb;6;282.00;0.00;1
33;felso jobb [meleg sarok];9;284.00;0.00;1
34;felso kozep;8;292.50;0.00;1
35;felso bal;7;314.50;0.00;1
36;kozepso bal;4;315.50;0.00;1
37;kozepso kozep;5;316.00;0.00;1
38;also kozepso;2;318.00;0.00;1
39;also bal [hideg sarok];1;321.00;0.00;1
40;kozepso bal;4;331.50;0.00;1
41;felso bal;7;340.00;0.00;1
42;felso kozep;8;348.00;0.00;1
43;kozepso kozep;5;376.50;0.00;1
44;also kozepso;2;380.00;0.00;1
45;also jobb;3;385.50;0.00;1
46;kozepso jobb;6;387.50;0.00;1
47;felso jobb [meleg sarok];9;390.00;0.00;1
#48;kozepso jobb;6;427.50;0.00;1
49;kozepso jobb;6;435.00;0.00;1
50;kozepso kozep;5;439.50;0.00;1
51;kozepso bal;4;441.50;0.00;1
52;also bal [hideg sarok];1;442.50;0.00;1
53;also kozepso;2;447.50;0.00;1
54;also jobb;3;450.00;0.00;1
55;kozepso jobb;6;452.50;0.00;1
56;kozepso kozep;5;453.50;0.00;1
#57;kozepso kozep;5;457.00;0.00;1
58;felso kozep;8;457.00;0.00;1
59;felso bal;7;458.00;0.00;1
60;kozepso bal;4;462.50;0.00;1
61;also bal [hideg sarok];1;465.00;0.00;1
62;also kozepso;2;466.50;0.00;1
63;also jobb;3;470.00;0.00;1
64;kozepso jobb;6;471.00;0.00;1
65;felso jobb [meleg sarok];9;475.50;0.00;1
66;felso kozep;8;477.00;0.00;1
67;felso bal;7;491.00;0.00;1
68;kozepso bal;4;492.50;0.00;1
69;also bal [hideg sarok];1;495.00;0.00;1
70;kozepso bal;4;501.00;0.00;1
#71;felso bal;7;505.00;0.00;1
72;felso bal;7;506.50;0.00;1
73;felso kozep;8;508.50;0.00;1
74;felso bal;7;517.50;0.00;1
75;kozepso bal;4;518.50;0.00;1
76;also bal [hideg sarok];1;521.50;0.00;1
77;also kozepso;2;528.00;0.00;1
78;also jobb;3;530.00;0.00;1
79;kozepso jobb;6;532.00;0.00;1
80;felso jobb [meleg sarok];9;534.00;0.00;1
81;felso kozep;8;541.00;0.00;1
82;felso bal;7;573.50;0.00;1
83;kozepso bal;4;575.00;0.00;1
84;kozepso kozep;5;576.00;0.00;1
85;also kozepso;2;578.00;0.00;1
86;also jobb;3;580.50;0.00;1
87;kozepso jobb;6;583.00;0.00;1
#88;felso jobb [meleg sarok];9;584.50;0.00;1
89;felso jobb [meleg sarok];9;586.50;0.00;1
90;felso kozep;8;591.50;0.00;1
91;felso bal;7;593.00;0.00;1
92;kozepso bal;4;596.00;0.00;1
93;also bal [hideg sarok];1;598.50;0.00;1
94;also kozepso;2;602.00;0.00;1
95;also jobb;3;604.00;0.00;1
96;kozepso jobb;6;606.50;0.00;1
97;felso jobb [meleg sarok];9;608.50;0.00;1
98;felso kozep;8;612.50;0.00;1
99;felso bal;7;619.50;0.00;1
100;kozepso bal;4;620.50;0.00;1
101;also bal [hideg sarok];1;623.00;0.00;1
102;also kozepso;2;628.50;0.00;1
103;also jobb;3;630.50;0.00;1
104;kozepso jobb;6;631.00;0.00;1
105;felso jobb [meleg sarok];9;633.50;0.00;1
106;felso kozep;8;638.50;0.00;1
107;felso jobb [meleg sarok];9;674.50;0.00;1
108;kozepso jobb;6;697.00;0.00;1
109;kozepso kozep;5;699.00;0.00;1
110;also kozepso;2;700.00;0.00;1
111;also bal [hideg sarok];1;703.00;0.00;1
112;also kozepso;2;708.50;0.00;1
113;also jobb;3;711.00;0.00;1
114;kozepso jobb;6;713.00;0.00;1
#115;felso jobb [meleg sarok];9;715.00;0.00;1
#116;felso jobb [meleg sarok];9;720.00;0.00;1
117;felso kozep;8;720.00;0.00;1
118;felso bal;7;741.00;0.00;1
119;kozepso bal;4;742.00;0.00;1
120;also bal [hideg sarok];1;744.50;0.00;1
121;also kozepso;2;751.00;0.00;1
122;also jobb;3;752.50;0.00;1
123;kozepso jobb;6;755.00;0.00;1
124;felso jobb [meleg sarok];9;758.50;0.00;1
125;kozepso jobb;6;761.50;0.00;1
126;also jobb;3;764.00;0.00;1
127;also kozepso;2;770.00;0.00;1
128;also bal [hideg sarok];1;771.00;0.00;1
129;kozepso bal;4;772.00;0.00;1
130;felso bal;7;775.50;0.00;1
131;felso kozep;8;778.00;0.00;1
132;felso jobb [meleg sarok];9;781.00;0.00;1
133;kozepso jobb;6;792.50;0.00;1
134;also jobb;3;796.00;0.00;1
135;also kozepso;2;796.50;0.00;1
136;also bal [hideg sarok];1;798.00;0.00;1
137;also kozepso;2;806.00;0.00;1
138;also jobb;3;808.50;0.00;1
139;kozepso jobb;6;811.00;0.00;1
140;felso jobb [meleg sarok];9;813.00;0.00;1
141;felso kozep;8;853.50;0.00;1
142;felso bal;7;854.50;0.00;1
143;kozepso bal;4;857.50;0.00;1
144;also kozepso;2;860.00;0.00;1
145;also jobb;3;862.00;0.00;1
146;kozepso jobb;6;863.50;0.00;1
147;felso jobb [meleg sarok];9;865.50;0.00;1
148;felso kozep;8;868.50;0.00;1
149;felso bal;7;872.50;0.00;1
150;kozepso bal;4;875.50;0.00;1
151;also bal [hideg sarok];1;877.50;0.00;1
152;also kozepso;2;880.50;0.00;1
153;also jobb;3;882.50;0.00;1
154;kozepso jobb;6;885.50;0.00;1
155;felso jobb [meleg sarok];9;886.50;0.00;1
156;felso kozep;8;893.50;0.00;1
157;felso bal;7;931.50;0.00;1
158;felso kozep;8;932.00;0.00;1
159;kozepso kozep;5;932.50;0.00;1
160;kozepso bal;4;933.50;0.00;1
161;also bal [hideg sarok];1;934.50;0.00;1
162;kozepso bal;4;941.00;0.00;1
163;kozepso kozep;5;944.50;0.00;1
164;also kozepso;2;946.50;0.00;1
165;also bal [hideg sarok];1;947.00;0.00;1
166;also kozepso;2;953.50;0.00;1
167;also bal [hideg sarok];1;954.00;0.00;1
168;kozepso bal;4;959.00;0.00;1
169;kozepso kozep;5;961.00;0.00;1
170;kozepso jobb;6;964.50;0.00;1
171;felso jobb [meleg sarok];9;966.50;0.00;1
172;felso kozep;8;971.00;0.00;1
173;felso bal;7;1004.00;0.00;1
174;kozepso bal;4;1006.50;0.00;1
175;also bal [hideg sarok];1;1008.50;0.00;1
176;also kozepso;2;1016.50;0.00;1
177;also jobb;3;1017.00;0.00;1
178;kozepso jobb;6;1019.50;0.00;1
179;felso jobb [meleg sarok];9;1021.00;0.00;1
180;felso kozep;8;1023.50;0.00;1
181;felso bal;7;1041.00;0.00;1
182;kozepso bal;4;1044.00;0.00;1
183;also bal [hideg sarok];1;1047.50;0.00;1
184;also kozepso;2;1058.50;0.00;1
185;kozepso kozep;5;1059.50;0.00;1
186;kozepso jobb;6;1060.50;0.00;1
187;felso jobb [meleg sarok];9;1063.50;0.00;1
188;kozepso jobb;6;1067.50;0.00;1
189;also jobb;3;1071.50;0.00;1
190;also kozepso;2;1076.50;0.00;1
191;also bal [hideg sarok];1;1078.00;0.00;1
192;also kozepso;2;1094.00;0.00;1
193;kozepso kozep;5;1094.00;0.00;1
194;rejtekhely in [Q out];q;1098.00;0.00;1
195;q-end;Q;1099.00;1.00;1
196;kozepso jobb;6;1099.50;0.00;1
197;felso jobb [meleg sarok];9;1100.00;0.00;1
198;felso kozep;8;1104.50;0.00;1
199;felso bal;7;1126.50;0.00;1
200;kozepso bal;4;1127.50;0.00;1
201;also bal [hideg sarok];1;1131.00;0.00;1
202;kozepso bal;4;1140.50;0.00;1
203;felso bal;7;1144.50;0.00;1
204;kozepso bal;4;1151.00;0.00;1
205;also bal [hideg sarok];1;1154.00;0.00;1
206;also kozepso;2;1163.00;0.00;1
207;also jobb;3;1164.00;0.00;1
208;kozepso jobb;6;1166.50;0.00;1
209;felso jobb [meleg sarok];9;1169.00;0.00;1
210;felso kozep;8;1174.00;0.00;1
#211;felso bal;7;1225.50;0.00;1
212;felso bal;7;1246.00;0.00;1
213;kozepso bal;4;1259.50;0.00;1
214;kozepso kozep;5;1260.50;0.00;1
215;kozepso bal;4;1261.50;0.00;1
216;also bal [hideg sarok];1;1263.00;0.00;1
217;kozepso bal;4;1267.00;0.00;1
218;felso bal;7;1269.00;0.00;1
219;felso kozep;8;1270.50;0.00;1
220;felso jobb [meleg sarok];9;1297.00;0.00;1
221;felso kozep;8;1306.00;0.00;1
222;felso bal;7;1308.50;0.00;1
223;kozepso bal;4;1315.00;0.00;1
224;also bal [hideg sarok];1;1318.50;0.00;1
225;kozepso bal;4;1326.00;0.00;1
226;kozepso kozep;5;1328.50;0.00;1
227;kozepso jobb;6;1331.00;0.00;1
228;felso jobb [meleg sarok];9;1334.50;0.00;1
229;felso kozep;8;1337.00;0.00;1
230;felso jobb [meleg sarok];9;1383.00;0.00;1
231;kozepso jobb;6;1405.00;0.00;1
232;kozepso kozep;5;1408.00;0.00;1
#233;kozepso kozep;5;1409.50;0.00;1
234;also kozepso;2;1409.50;0.00;1
235;also jobb;3;1415.00;0.00;1
236;kozepso jobb;6;1417.50;0.00;1
#237;kozepso kozep;5;1418.50;0.00;1
238;kozepso kozep;5;1420.00;0.00;1
239;kozepso bal;4;1421.00;0.00;1
240;also bal [hideg sarok];1;1422.50;0.00;1
241;also kozepso;2;1428.00;0.00;1
242;also jobb;3;1430.00;0.00;1
243;kozepso jobb;6;1431.50;0.00;1
244;kozepso kozep;5;1432.50;0.00;1
245;felso kozep;8;1434.50;0.00;1
246;felso bal;7;1451.00;0.00;1
247;kozepso bal;4;1455.00;0.00;1
248;also bal [hideg sarok];1;1457.50;0.00;1
249;also kozepso;2;1463.50;0.00;1
250;also jobb;3;1465.00;0.00;1
251;kozepso jobb;6;1467.00;0.00;1
252;felso jobb [meleg sarok];9;1470.50;0.00;1
253;felso kozep;8;1479.00;0.00;1
254;felso bal;7;1480.00;0.00;1
255;kozepso bal;4;1481.50;0.00;1
256;also bal [hideg sarok];1;1483.50;0.00;1
257;also kozepso;2;1488.00;0.00;1
258;also jobb;3;1491.50;0.00;1
259;kozepso jobb;6;1492.00;0.00;1
260;felso jobb [meleg sarok];9;1494.50;0.00;1
261;felso kozep;8;1503.00;0.00;1
262;felso bal;7;1505.50;0.00;1
263;felso kozep;8;1507.50;0.00;1
264;kozepso bal;4;1508.50;0.00;1
#265;also bal [hideg sarok];1;1509.00;0.00;1
266;also bal [hideg sarok];1;1512.00;0.00;1
267;kozepso bal;4;1523.00;0.00;1
268;kozepso kozep;5;1524.50;0.00;1
269;kozepso jobb;6;1525.50;0.00;1
#270;felso jobb [meleg sarok];9;1528.00;0.00;1
271;felso kozep;8;1528.00;0.00;1
272;felso jobb [meleg sarok];9;1536.00;0.00;1
273;kozepso jobb;6;1554.00;0.00;1
274;kozepso kozep;5;1556.50;0.00;1
275;also kozepso;2;1559.00;0.00;1
276;also bal [hideg sarok];1;1559.50;0.00;1
#277;kozepso bal;4;1560.00;0.00;1
278;also kozepso;2;1567.00;0.00;1
279;also jobb;3;1569.00;0.00;1
280;kozepso jobb;6;1570.50;0.00;1
281;felso jobb [meleg sarok];9;1572.00;0.00;1
282;felso kozep;8;1593.00;0.00;1
283;felso bal;7;1618.50;0.00;1
284;kozepso bal;4;1621.50;0.00;1
285;kozepso kozep;5;1622.00;0.00;1
286;kozepso bal;4;1622.50;0.00;1
287;also bal [hideg sarok];1;1624.00;0.00;1
288;kozepso bal;4;1627.50;0.00;1
289;kozepso kozep;5;1630.50;0.00;1
290;kozepso jobb;6;1632.00;0.00;1
291;felso jobb [meleg sarok];9;1636.50;0.00;1
292;felso kozep;8;1662.00;0.00;1
293;felso bal;7;1670.50;0.00;1
294;kozepso bal;4;1674.50;0.00;1
295;also bal [hideg sarok];1;1677.00;0.00;1
296;kozepso bal;4;1683.00;0.00;1
297;felso bal;7;1690.00;0.00;1
298;felso kozep;8;1702.50;0.00;1
299;felso jobb [meleg sarok];9;1705.00;0.00;1
300;kozepso jobb;6;1710.00;0.00;1
301;kozepso kozep;5;1713.50;0.00;1
302;kozepso bal;4;1715.00;0.00;1
303;felso bal;7;1720.00;0.00;1
304;kozepso bal;4;1725.00;0.00;1
305;also bal [hideg sarok];1;1726.50;0.00;1
306;also kozepso;2;1728.00;0.00;1
307;kozepso kozep;5;1730.50;0.00;1
308;kozepso jobb;6;1731.00;0.00;1
309;felso jobb [meleg sarok];9;1733.00;0.00;1
310;felso kozep;8;1778.00;0.00;1
311;felso bal;7;1785.50;0.00;1
312;kozepso bal;4;1786.50;0.00;1
313;also bal [hideg sarok];1;1790.00;0.00;1
314;also kozepso;2;1794.50;0.00;1
#315;also jobb;3;1797.50;0.00;1
316;kozepso jobb;6;1798.00;0.00;1
317;felso jobb [meleg sarok];9;1799.50;0.00;1
#318;felso kozep;8;1817.50;0.00;1
319;felso kozep;8;1823.00;0.00;1
