Data from Transmission_09-24-57-115.txt Node
Date: Fri Aug 24 09:24:57 EEST 2018
User: tibor.sos
Spectrometer: USB4F01757
Scans to average: 10
Trigger mode: 4
Integration Time (sec): 1.000000E-2
Electric dark correction enabled: true
Boxcar width: 10
XAxis mode: Wavelengths
Number of Pixels in Spectrum: 3648
>>>>>Begin Spectral Data<<<<<
178.758	131.55
178.974	204.58
179.191	265.19
179.407	174.68
179.624	169.54
179.84	139.38
180.057	162.56
180.273	146.18
180.489	164.39
180.706	179.32
180.922	127.2
181.138	94.19
181.355	68.71
181.571	35.86
181.787	0.21
182.004	-4.89
182.22	-13.34
182.436	0.32
182.653	9.68
182.869	-7.84
183.085	-14.55
183.301	20.85
183.518	38.9
183.734	35.5
183.95	22.68
184.166	23.53
184.383	55.39
184.599	45.68
184.815	31.15
185.031	5.89
185.247	18.35
185.463	24.88
185.68	5.31
185.896	-12.19
186.112	-12.49
186.328	14.99
186.544	16.82
186.76	28.92
186.976	33.84
187.192	36.38
187.408	62.36
187.624	58.74
187.84	36.48
188.056	15.07
188.272	15.34
188.488	4.79
188.704	8.87
188.92	-41.54
189.136	-27.67
189.352	-27.97
189.568	-17.49
189.784	7.57
190	28.39
190.216	52.14
190.432	39.31
190.648	41.53
190.864	51.82
191.08	44.71
191.296	28.49
191.511	15.92
191.727	25.95
191.943	32.04
192.159	27.51
192.375	-17.19
192.591	6.47
192.806	12.87
193.022	43.21
193.238	16.35
193.454	68.5
193.669	48.18
193.885	28.44
194.101	120.91
194.317	-28.14
194.532	-1291.01
194.748	928.57
194.964	-19.55
195.18	-97.99
195.395	-168.19
195.611	-142.46
195.827	-232.81
196.042	-527.31
196.258	-209.38
196.473	-151.69
196.689	-148.83
196.905	27.06
197.12	-393.07
197.336	-236.65
197.551	320.39
197.767	-82900
197.982	-92.25
198.198	-121.92
198.414	232.58
198.629	15.47
198.845	14.48
199.06	104.51
199.276	55.06
199.491	-210.27
199.707	74.91
199.922	70.46
200.137	93.61
200.353	50.67
200.568	41.45
200.784	11.28
200.999	30.02
201.215	11.61
201.43	-48.27
201.645	19.81
201.861	24
202.076	51.07
202.291	58.13
202.507	-44.11
202.722	-15.4
202.937	-102.25
203.153	-103.42
203.368	-45.27
203.583	22.67
203.798	4.07
204.014	13.35
204.229	29.55
204.444	56.46
204.659	-31.18
204.875	100.62
205.09	-76.47
205.305	-62.26
205.52	352.03
205.735	94.01
205.951	-1332
206.166	224.05
206.381	162.9
206.596	1616.36
206.811	650.88
207.026	184.87
207.241	168.56
207.457	-220.87
207.672	-295.04
207.887	-43.93
208.102	155.53
208.317	166.04
208.532	-441.24
208.747	669.4
208.962	505.41
209.177	-983.22
209.392	-594.7
209.607	-175.73
209.822	-205.74
210.037	-156.69
210.252	-156.47
210.467	-303.59
210.682	-62.36
210.897	-70.55
211.112	-182.04
211.326	-101.89
211.541	-150.88
211.756	-43.45
211.971	-139.87
212.186	-123.82
212.401	-161.86
212.616	-195.03
212.831	-175.25
213.045	-314.07
213.26	-248.12
213.475	-227.18
213.69	-277.2
213.905	-431.47
214.119	-1538.91
214.334	13588.89
214.549	1470.85
214.764	-1988.08
214.978	-1144.37
215.193	-1461.26
215.408	9582.05
215.622	-1395.09
215.837	-8295.56
216.052	3812.64
216.266	804.3
216.481	849.33
216.696	470.87
216.91	-5881.82
217.125	-231.31
217.34	-102.07
217.554	-171.35
217.769	42
217.983	58.4
218.198	-28.08
218.412	-96.14
218.627	105.79
218.842	75.66
219.056	50.85
219.271	73
219.485	125.11
219.7	78.31
219.914	135.36
220.129	277.18
220.343	136.58
220.558	66.87
220.772	63.75
220.986	82.67
221.201	-0.97
221.415	181.55
221.63	189.97
221.844	148.19
222.058	108.88
222.273	133.81
222.487	160.79
222.702	246.74
222.916	297.31
223.13	144.36
223.344	147.83
223.559	124.57
223.773	129.59
223.987	177.9
224.202	157.72
224.416	251.46
224.63	177.23
224.844	158.38
225.059	185.77
225.273	1475.76
225.487	-1536.8
225.701	-96.3
225.915	-58.8
226.13	-18.44
226.344	-19
226.558	-30.92
226.772	-18.65
226.986	8.76
227.2	8.18
227.415	23.84
227.629	12.92
227.843	22.09
228.057	30.51
228.271	44.52
228.485	55.78
228.699	70.96
228.913	76.62
229.127	35.88
229.341	33.04
229.555	62.92
229.769	87.51
229.983	136.77
230.197	130.96
230.411	96.32
230.625	45.72
230.839	-9.06
231.053	-54.38
231.267	31.22
231.481	-47.42
231.695	-42.34
231.909	51.82
232.122	50.19
232.336	49.88
232.55	81.4
232.764	-60.94
232.978	-38.92
233.192	-76.84
233.405	-309.12
233.619	-54.72
233.833	-66.41
234.047	-212.86
234.261	-467.19
234.474	-226.32
234.688	593.95
234.902	311.43
235.116	127.16
235.329	155.2
235.543	321.56
235.757	247.5
235.97	215.19
236.184	225.4
236.398	169.17
236.612	200.64
236.825	258.35
237.039	368.85
237.252	356.96
237.466	1479.22
237.68	5967.8
237.893	-323700
238.107	-1396.44
238.32	2985.22
238.534	-739.81
238.748	-437.7
238.961	-318.96
239.175	-362.4
239.388	-465.13
239.602	-957.48
239.815	-374.74
240.029	-636.15
240.242	-368.8
240.456	-232.42
240.669	-190.89
240.882	-175.22
241.096	-340.14
241.309	-255.53
241.523	-418.58
241.736	-464.3
241.95	1160.34
242.163	-1528.57
242.376	-421.41
242.59	-1341.6
242.803	10433.33
243.016	516.31
243.23	1523.53
243.443	11420
243.656	-1760.15
243.87	-281.24
244.083	-110.98
244.296	-131.28
244.509	-85.76
244.723	-115.12
244.936	-78.51
245.149	-163.68
245.362	-173.22
245.576	-70.02
245.789	-88.64
246.002	-42.74
246.215	-37.71
246.428	-50.02
246.641	-65.86
246.855	-109.96
247.068	-150.12
247.281	-162.42
247.494	-59.31
247.707	-70.17
247.92	-134.64
248.133	-95.97
248.346	-135.58
248.559	-89.08
248.772	-129.01
248.985	-88.59
249.198	-54.19
249.411	-77.58
249.624	-73.04
249.837	-73.91
250.05	-82.25
250.263	-98.07
250.476	-109.38
250.689	-96.36
250.902	-77.88
251.115	-81.78
251.328	-55.39
251.541	-42.46
251.754	-38.01
251.967	-54.59
252.18	-56.24
252.393	-46.88
252.605	-49.22
252.818	-46.5
253.031	-62.7
253.244	-48.51
253.457	-58.15
253.67	-63.13
253.882	-51.3
254.095	-29.06
254.308	-23.91
254.521	-24.31
254.733	-7.37
254.946	-9.2
255.159	-6.32
255.372	-13.23
255.584	-11.77
255.797	-28.45
256.01	-41.86
256.222	-28.06
256.435	-28.89
256.648	-16.66
256.86	-21.33
257.073	-20.09
257.285	-16.21
257.498	-21.26
257.711	-17.29
257.923	-24.5
258.136	-15.95
258.348	-21.15
258.561	-34.27
258.773	-60.13
258.986	-91.57
259.198	-118.68
259.411	-183.22
259.623	-140.12
259.836	-126.66
260.048	-102.4
260.261	-50.66
260.473	-43.51
260.686	-49.17
260.898	-45.3
261.111	-49.29
261.323	-31.39
261.535	-28.38
261.748	-19.56
261.96	-7.14
262.173	-11.65
262.385	-6.79
262.597	-10.7
262.81	-13.27
263.022	-15.35
263.234	2.26
263.447	12.82
263.659	13.82
263.871	18.94
264.083	21.19
264.296	18.95
264.508	16.61
264.72	7.37
264.932	8.16
265.145	-3.6
265.357	-5.35
265.569	-10.26
265.781	-20.92
265.993	-15.87
266.205	-37.35
266.418	-44
266.63	-49.94
266.842	-36.88
267.054	-14.43
267.266	-0.18
267.478	-12.14
267.69	-10.28
267.902	-26.69
268.114	-50.32
268.326	-48.55
268.538	-54.22
268.75	-24.43
268.962	-26.33
269.174	-32.49
269.386	-9.55
269.598	12.65
269.81	19.54
270.022	3.65
270.234	16.22
270.446	12.49
270.658	10.76
270.87	14.38
271.082	20.08
271.294	17.82
271.506	10.07
271.718	4.82
271.929	9.36
272.141	12.03
272.353	14.13
272.565	19.17
272.777	19.74
272.989	19.24
273.2	22.61
273.412	20
273.624	19.32
273.836	17.6
274.047	14.95
274.259	13.84
274.471	20.75
274.683	14.98
274.894	14.1
275.106	15.48
275.318	8.23
275.529	3.21
275.741	2.45
275.953	8.02
276.164	11.33
276.376	16.7
276.588	6.23
276.799	3.21
277.011	2.83
277.222	5.74
277.434	-6.27
277.646	-32.17
277.857	-18.64
278.069	-7.62
278.28	-21.48
278.492	-31.54
278.703	-35.38
278.915	-22.45
279.126	-30.09
279.338	-22.89
279.549	-14.66
279.761	-11.08
279.972	-10.59
280.183	-9.77
280.395	-12.78
280.606	-21.88
280.818	-29.06
281.029	-22.49
281.24	-19.35
281.452	-29.43
281.663	-29.76
281.875	-25.49
282.086	-20.09
282.297	-30.67
282.508	-32.8
282.72	-29.64
282.931	-20.02
283.142	-18.43
283.354	-33.08
283.565	-33.37
283.776	-45.24
283.987	-71.98
284.199	-66.59
284.41	-62.08
284.621	-59.39
284.832	-49.41
285.043	-29.59
285.254	-39.22
285.466	-51.95
285.677	-43.36
285.888	-31.07
286.099	-32.32
286.31	-28.55
286.521	-33.43
286.732	-36.46
286.943	-29.42
287.154	-21.43
287.366	-30.76
287.577	-32.6
287.788	-30.67
287.999	-29.27
288.21	-35.49
288.421	-21.39
288.632	-28.12
288.843	-16.41
289.054	-17.68
289.264	-27.05
289.475	-31.01
289.686	-19.45
289.897	-14.86
290.108	-16.55
290.319	-26.65
290.53	-24.34
290.741	-31.34
290.952	-21.94
291.163	-14.47
291.373	-16.62
291.584	-19.08
291.795	-18.95
292.006	-20.65
292.217	-17.31
292.427	-10.65
292.638	-9.72
292.849	-17.31
293.06	-9.73
293.27	-15.87
293.481	-17.74
293.692	-11.24
293.903	-9.14
294.113	-15.84
294.324	-15.28
294.535	-26.75
294.745	-22.3
294.956	-15.62
295.167	-15.24
295.377	-22.01
295.588	-20.13
295.798	-26.4
296.009	-27.89
296.22	-29.43
296.43	-32.48
296.641	-29.98
296.851	-39.32
297.062	-34.4
297.272	-25.7
297.483	-35.6
297.693	-37.78
297.904	-39.92
298.114	-36.25
298.325	-35.37
298.535	-38.48
298.746	-37.18
298.956	-32.76
299.167	-29.94
299.377	-34.59
299.587	-24.05
299.798	-25.14
300.008	-33.99
300.219	-24.9
300.429	-22.8
300.639	-11.71
300.85	-9.1
301.06	-15.93
301.27	-11.16
301.481	-8.31
301.691	-16.46
301.901	-5.01
302.111	-7.38
302.322	-3.69
302.532	-8.34
302.742	-11.74
302.952	-4.91
303.163	-7.53
303.373	-12.66
303.583	-10.07
303.793	-8.07
304.003	-9.63
304.214	-5.74
304.424	-6.67
304.634	-10.23
304.844	-8.65
305.054	-7.63
305.264	-7.64
305.474	-7.74
305.684	-10.5
305.894	-9.41
306.104	-3.21
306.314	-14.76
306.525	-14.32
306.735	-12.82
306.945	-14.23
307.155	-16.17
307.365	-20.72
307.575	-18.73
307.784	-8.34
307.994	-14.41
308.204	-17.14
308.414	-18.34
308.624	-19.75
308.834	-11.46
309.044	-11.54
309.254	-6.83
309.464	-11.94
309.674	-9.56
309.884	-10.78
310.093	-7.54
310.303	-7.09
310.513	-7.01
310.723	-0.46
310.933	0.97
311.142	-0.07
311.352	0.2
311.562	2.56
311.772	4.17
311.981	3.63
312.191	-2.01
312.401	-0.27
312.611	-1.39
312.82	-2.76
313.03	-2.37
313.24	-4.53
313.449	-3.19
313.659	-6.63
313.869	-8.52
314.078	-6.88
314.288	-6.88
314.497	-10.92
314.707	-10.86
314.917	-11.52
315.126	-6.81
315.336	-8
315.545	-10.54
315.755	-4.09
315.964	-2.98
316.174	-2.95
316.383	-1.4
316.593	5.64
316.802	5.34
317.012	4.97
317.221	8.77
317.431	9.19
317.64	8.28
317.849	8.13
318.059	5.25
318.268	10.73
318.478	16.14
318.687	18.52
318.896	22.03
319.106	20.13
319.315	17.44
319.524	9.06
319.734	7.24
319.943	8.2
320.152	7.4
320.362	1.04
320.571	-1.65
320.78	-2.49
320.989	-6.19
321.199	-4.47
321.408	-0.41
321.617	-3.79
321.826	-6.6
322.035	-7.5
322.245	-8.95
322.454	-9.75
322.663	-9.87
322.872	-18.9
323.081	-22.44
323.29	-28.93
323.5	-30.73
323.709	-28.25
323.918	-24.63
324.127	-27.21
324.336	-29.82
324.545	-37.46
324.754	-24.39
324.963	-26.5
325.172	-26.38
325.381	-27.48
325.59	-30.99
325.799	-41.99
326.008	-50.56
326.217	-49.8
326.426	-46.33
326.635	-39.89
326.844	-38.53
327.053	-40.99
327.262	-33.12
327.47	-32.28
327.679	-26.99
327.888	-26.17
328.097	-23.26
328.306	-27.44
328.515	-21.38
328.724	-19.85
328.932	-20.22
329.141	-30.43
329.35	-23.72
329.559	-24.09
329.768	-22.43
329.976	-17.31
330.185	-12.98
330.394	-11.73
330.602	-11.97
330.811	-19.13
331.02	-22.64
331.229	-20.97
331.437	-17.07
331.646	-18.45
331.855	-13.01
332.063	-15.8
332.272	-16.53
332.48	-26.95
332.689	-23.56
332.898	-21.41
333.106	-25.04
333.315	-22.97
333.523	-17.37
333.732	-16.99
333.94	-17.21
334.149	-17.41
334.357	-21.7
334.566	-18.44
334.774	-13.1
334.983	-12.03
335.191	-21.04
335.4	-19.36
335.608	-19.96
335.817	-36.06
336.025	-39.04
336.234	-56.7
336.442	-47.3
336.65	-51.85
336.859	-27.1
337.067	-33.93
337.275	-38.82
337.484	-33.92
337.692	-32.77
337.9	-32.77
338.109	-33.56
338.317	-39.92
338.525	-30.19
338.734	-26.36
338.942	-35.55
339.15	-37.32
339.358	-46
339.567	-22.32
339.775	-27.87
339.983	-43.52
340.191	-44.48
340.399	-42.17
340.608	-21.72
340.816	-20.8
341.024	-17.55
341.232	-31.94
341.44	-28.14
341.648	-24.18
341.856	-20.95
342.064	-19.4
342.272	-25.51
342.481	-26.69
342.689	-18.65
342.897	-21.61
343.105	-23.17
343.313	-16.08
343.521	-17.53
343.729	-19.21
343.937	-21.88
344.145	-17.29
344.353	-8.53
344.56	-7.06
344.768	-10.08
344.976	-19.91
345.184	-28.84
345.392	-24.55
345.6	-20.1
345.808	-13.02
346.016	-15.11
346.224	-18.43
346.431	-13.27
346.639	-3.07
346.847	-5.86
347.055	-16.45
347.263	-19.5
347.471	-22.08
347.678	-32.53
347.886	-35.01
348.094	-23.56
348.302	-20.39
348.509	-21.18
348.717	-19.3
348.925	-22.68
349.132	-18.66
349.34	-18.28
349.548	-16.33
349.755	-20.15
349.963	-27.71
350.171	-33.67
350.378	-33.93
350.586	-31.29
350.793	-32.28
351.001	-36.14
351.209	-30.57
351.416	-21.19
351.624	-14.6
351.831	-16.61
352.039	-9.16
352.246	-15.05
352.454	-20.1
352.661	-28.25
352.869	-27.79
353.076	-30.01
353.284	-23.5
353.491	-17.66
353.699	-26.01
353.906	-19.82
354.113	-13.24
354.321	-7.13
354.528	-2.15
354.736	-6.65
354.943	-8.47
355.15	-13.41
355.358	-20.5
355.565	-19.66
355.772	-21.24
355.98	-24.39
356.187	-24.34
356.394	-33.09
356.601	-28.58
356.809	-20.94
357.016	-9.19
357.223	-16.73
357.43	-21.91
357.638	-17.48
357.845	-10.2
358.052	-6.68
358.259	-3.76
358.466	-10.05
358.673	-15.3
358.881	-16.45
359.088	-12.69
359.295	-6.46
359.502	-14.8
359.709	-8.96
359.916	-10.84
360.123	-12.99
360.33	-22.42
360.537	-16.44
360.744	-8.86
360.951	-10.03
361.158	-13.46
361.365	-18.65
361.572	-5.79
361.779	2.38
361.986	5.62
362.193	-8.22
362.4	-8.81
362.607	-24.14
362.814	-24.12
363.021	-15.83
363.228	-22.11
363.435	-20.14
363.641	-27.42
363.848	-29.3
364.055	-28.59
364.262	-23.95
364.469	-19.83
364.676	-8.87
364.882	-3.66
365.089	-2.95
365.296	3.8
365.503	3.13
365.709	-0.91
365.916	-1.08
366.123	-1.66
366.33	-7.11
366.536	-5.12
366.743	-6.63
366.95	1.86
367.156	1.35
367.363	-0.46
367.57	-1.17
367.776	-3.14
367.983	-1.15
368.19	5.69
368.396	0.3
368.603	3.46
368.809	7.74
369.016	0.82
369.222	-7.22
369.429	-2.54
369.635	-7.96
369.842	-12.73
370.048	-9.54
370.255	-13.96
370.461	-14.79
370.668	-20.91
370.874	-24.14
371.081	-18.57
371.287	-18.81
371.494	-20.21
371.7	-18.74
371.906	-19.78
372.113	-19.99
372.319	-24.63
372.526	-26.99
372.732	-23.55
372.938	-36.36
373.145	-38.17
373.351	-29.62
373.557	-29.5
373.763	-37.95
373.97	-33.93
374.176	-32.76
374.382	-26.63
374.588	-23.68
374.795	-19.5
375.001	-15.84
375.207	-17.81
375.413	-14.88
375.62	-11.1
375.826	-4.55
376.032	-8.4
376.238	-4.8
376.444	-7.42
376.65	-7.97
376.856	-3.82
377.062	-1.48
377.269	5.73
377.475	-3.07
377.681	-6.45
377.887	-10.6
378.093	-18.66
378.299	-13.35
378.505	-6.84
378.711	-10.95
378.917	-15.61
379.123	-20.13
379.329	-13.43
379.535	-11.48
379.741	-10.49
379.947	-5.9
380.152	-2.11
380.358	-5.86
380.564	-7.99
380.77	-14.02
380.976	-13.58
381.182	-17.92
381.388	-19.77
381.594	-21.36
381.799	-12.54
382.005	-13.26
382.211	-7.4
382.417	-0.23
382.623	-12.55
382.828	-9.97
383.034	-16.23
383.24	-18.23
383.445	-16.88
383.651	-35
383.857	-38.58
384.063	-38.29
384.268	-52.65
384.474	-50.47
384.68	-48.68
384.885	-32.71
385.091	-20.43
385.296	-19.7
385.502	-14.57
385.708	-16.95
385.913	-18.9
386.119	-25.54
386.324	-23.21
386.53	-29.38
386.735	-36.34
386.941	-22.64
387.146	-23.6
387.352	-7.41
387.557	-0.35
387.763	-2.88
387.968	2.68
388.174	-0.65
388.379	-4.25
388.585	-1.8
388.79	-7.54
388.996	-2.27
389.201	-14.93
389.406	-17.06
389.612	-25.55
389.817	-23.06
390.022	-14.75
390.228	-7.31
390.433	-7.28
390.638	-15.54
390.844	-9.73
391.049	-13.14
391.254	-14.57
391.459	-18.56
391.665	-29.06
391.87	-36.66
392.075	-25.26
392.28	-18.11
392.485	-16.03
392.691	-24.07
392.896	-34.91
393.101	-30.45
393.306	-30.32
393.511	-25.2
393.716	-20.97
393.922	-12.06
394.127	-13.03
394.332	-9.13
394.537	-12.79
394.742	-10.55
394.947	-6.61
395.152	-6.22
395.357	-4.12
395.562	-1.95
395.767	-11.25
395.972	-2.14
396.177	-1.56
396.382	-4.82
396.587	-2.87
396.792	0.61
396.997	17.12
397.202	24.3
397.407	17.13
397.611	22.82
397.816	22.52
398.021	18.71
398.226	11.4
398.431	11.62
398.636	-0.06
398.841	2.7
399.045	7.79
399.25	3.45
399.455	2.35
399.66	2.87
399.864	0.55
400.069	5.93
400.274	-0.28
400.479	7.04
400.683	6.2
400.888	2.16
401.093	-2.86
401.297	-9.56
401.502	-16.25
401.707	-12.59
401.911	-12.02
402.116	-18.17
402.321	-13.98
402.525	-6.02
402.73	-4.68
402.934	-4.47
403.139	-5.35
403.344	-16.32
403.548	-13.19
403.753	-21.12
403.957	-36.42
404.162	-40.27
404.366	-25.97
404.571	-24.96
404.775	-41.43
404.98	-33.26
405.184	-26.11
405.388	-16.65
405.593	-24.33
405.797	-19.23
406.002	-13.57
406.206	-23.79
406.41	-17.66
406.615	-12.06
406.819	-9.86
407.023	-9.34
407.228	-8.39
407.432	-17.82
407.636	-24.65
407.841	-23.57
408.045	-19.26
408.249	-13.35
408.453	-9.63
408.658	-15.18
408.862	-5.65
409.066	-2.86
409.27	-14.72
409.474	-20.57
409.679	-33.67
409.883	-32.33
410.087	-48.68
410.291	-54.47
410.495	-55.14
410.699	-53.38
410.903	-58.63
411.108	-51.6
411.312	-58.83
411.516	-73.3
411.72	-54.96
411.924	-36.09
412.128	-32.26
412.332	-34.25
412.536	-22.98
412.74	-13.86
412.944	-15.3
413.148	-27.66
413.352	-22.87
413.556	-14.89
413.76	-11.13
413.964	-4.71
414.167	4.72
414.371	10.4
414.575	14.14
414.779	13.5
414.983	12.53
415.187	10.37
415.391	3.87
415.594	10.84
415.798	17.34
416.002	10.4
416.206	11.11
416.41	13.84
416.613	8.25
416.817	-14.61
417.021	-18.85
417.225	-21.15
417.428	-15.34
417.632	-27.05
417.836	-39.35
418.039	-35.8
418.243	-26.71
418.447	-45.02
418.65	-43.66
418.854	-41.98
419.057	-24.09
419.261	-29.92
419.465	-25.77
419.668	-12.75
419.872	-15.37
420.075	-17.1
420.279	-6.18
420.482	-1.36
420.686	-2.43
420.889	0.79
421.093	18.65
421.296	13.43
421.5	11.65
421.703	0.78
421.907	10.7
422.11	14.62
422.314	14.58
422.517	-4.62
422.72	2.66
422.924	-5.37
423.127	-10.8
423.33	-24.79
423.534	-11.19
423.737	-21.25
423.94	-16.66
424.144	-8.95
424.347	0.89
424.55	-1.58
424.754	-18.06
424.957	-25.74
425.16	-14.05
425.363	-9.79
425.567	-3.37
425.77	0.81
425.973	13.06
426.176	1.2
426.379	6.28
426.582	8.96
426.786	23
426.989	20.17
427.192	31.22
427.395	33.94
427.598	32.31
427.801	19.43
428.004	18.82
428.207	17.08
428.41	14.05
428.613	6.45
428.816	3.37
429.019	13.67
429.222	7.58
429.425	9.23
429.628	7.06
429.831	0.69
430.034	0.46
430.237	-4.18
430.44	0.17
430.643	-6
430.846	-9.38
431.049	-14.88
431.252	-12.31
431.454	-12.7
431.657	-24.36
431.86	-20.8
432.063	-22.74
432.266	-24.55
432.469	-32.01
432.671	-31.04
432.874	-22.12
433.077	-23.59
433.28	-23.82
433.482	-14.77
433.685	-25.09
433.888	-34.82
434.09	-37.51
434.293	-51.49
434.496	-48.26
434.698	-47.82
434.901	-30.4
435.104	-35.84
435.306	-22.64
435.509	-26.58
435.712	-26.96
435.914	-30.49
436.117	-19.83
436.319	-5.37
436.522	-2.7
436.724	-5.24
436.927	-8.36
437.129	-10.69
437.332	-11.04
437.534	-16.87
437.737	-27.77
437.939	-18.29
438.142	-14.11
438.344	-4.93
438.547	-14.9
438.749	-1.77
438.951	-14.06
439.154	-23.62
439.356	-9.46
439.558	-17.47
439.761	-11.5
439.963	-17.72
440.165	-10.01
440.368	-13.61
440.57	-40.68
440.772	-38.3
440.975	-42.49
441.177	-32.25
441.379	-24.99
441.581	-14.74
441.784	-18.84
441.986	-8.32
442.188	-17.15
442.39	-15.56
442.592	-23.99
442.795	-8.96
442.997	-17.61
443.199	-9.69
443.401	-2.76
443.603	-7.38
443.805	-12.45
444.007	-9.89
444.209	-8.17
444.411	5.28
444.613	5.43
444.815	15.31
445.017	14.17
445.219	22.75
445.421	23.54
445.623	15.42
445.825	10.07
446.027	14.15
446.229	9.99
446.431	21.77
446.633	12.95
446.835	18.18
447.037	21.56
447.239	19.73
447.441	20.34
447.643	16.17
447.844	12.18
448.046	17.33
448.248	22.92
448.45	28.01
448.652	11.32
448.853	7.87
449.055	-5.59
449.257	-8.77
449.459	-22.18
449.66	-21.11
449.862	-25.29
450.064	-21.02
450.266	-24.9
450.467	-25.12
450.669	-29.8
450.871	-27.21
451.072	-16.33
451.274	-30.2
451.475	-25.02
451.677	-29.87
451.879	-52.31
452.08	-62.08
452.282	-49.97
452.483	-79.43
452.685	-69.98
452.886	-53.72
453.088	-73.32
453.289	-81.7
453.491	-95.52
453.692	-123.31
453.894	-104.63
454.095	-79.64
454.297	-92.03
454.498	-85.79
454.7	-77.29
454.901	-67.1
455.102	-49.72
455.304	-52.97
455.505	-47.63
455.706	-50.68
455.908	-48.15
456.109	-53.7
456.31	-45.79
456.512	-51.7
456.713	-38.11
456.914	-38.86
457.116	-56.89
457.317	-37.97
457.518	-39.23
457.719	-32.96
457.921	-23.4
458.122	-37.62
458.323	-39.71
458.524	-25.47
458.725	-25.35
458.926	-30.29
459.128	-29.19
459.329	-33.61
459.53	-49.03
459.731	-58.61
459.932	-65.13
460.133	-67.35
460.334	-43.41
460.535	-44.85
460.736	-40.57
460.937	-46.14
461.138	-48.55
461.339	-26.99
461.54	-35.65
461.741	-29
461.942	-27.28
462.143	-14.55
462.344	-7.19
462.545	-7.48
462.746	-17.11
462.947	-18.22
463.148	-7.82
463.348	-8.3
463.549	-9.75
463.75	-4.51
463.951	8.06
464.152	5.76
464.353	3.43
464.553	4.48
464.754	17.19
464.955	10.89
465.156	12.08
465.356	11.85
465.557	6.46
465.758	12.75
465.959	12.61
466.159	8.27
466.36	-4.27
466.561	-8.8
466.761	-13.77
466.962	-9.09
467.163	-5.66
467.363	-11.76
467.564	-8.79
467.764	-2.94
467.965	-2.11
468.166	-9.19
468.366	0.61
468.567	4.03
468.767	5.78
468.968	-4.84
469.168	-1.89
469.369	-7.47
469.569	-7.85
469.77	-12.89
469.97	-22.16
470.17	-19.05
470.371	-15.31
470.571	-16.03
470.772	-2.94
470.972	0.32
471.172	0.09
471.373	-1.84
471.573	-0.65
471.773	-8.6
471.974	-3.78
472.174	-2.85
472.374	0.08
472.575	0.88
472.775	3.27
472.975	-14.49
473.175	-11.5
473.376	-16.48
473.576	-10.86
473.776	-8.3
473.976	-7.9
474.177	3.97
474.377	2.24
474.577	3.42
474.777	4.91
474.977	-7.77
475.177	-7.68
475.377	-3.94
475.577	2.29
475.777	3.73
475.978	2.53
476.178	-5.31
476.378	-5.12
476.578	-0.86
476.778	-5.97
476.978	-6.24
477.178	3.41
477.378	6.41
477.578	8.67
477.778	3.01
477.977	3.15
478.177	5.64
478.377	-2.78
478.577	-1.63
478.777	0.35
478.977	-0.59
479.177	1.91
479.377	0.81
479.577	-10.06
479.776	-12.97
479.976	-17.96
480.176	-12.96
480.376	-7.79
480.576	-6.29
480.775	-12.31
480.975	-13.09
481.175	-13.79
481.374	-12.87
481.574	-13.43
481.774	-15.12
481.974	-9.87
482.173	-5.77
482.373	-13.69
482.572	-10.97
482.772	-11.07
482.972	-10.94
483.171	-12.13
483.371	-5.31
483.57	-5.45
483.77	-0.41
483.97	-1.5
484.169	-2.4
484.369	-6.82
484.568	-8.59
484.768	-9.85
484.967	-8.9
485.167	-5.53
485.366	-8.01
485.566	-15.36
485.765	-17.24
485.964	-17.69
486.164	-19.35
486.363	-24.25
486.563	-19.37
486.762	-21.04
486.961	-15
487.161	-16
487.36	-17.47
487.559	-23.12
487.759	-23.53
487.958	-27.2
488.157	-28.59
488.356	-21.66
488.556	-19.56
488.755	-18.4
488.954	-16.53
489.153	-15.62
489.353	-14.71
489.552	-12.1
489.751	-9.07
489.95	-6.69
490.149	-4.34
490.348	-4.05
490.548	-3.12
490.747	-2.29
490.946	-2.38
491.145	-6.21
491.344	-8.22
491.543	-7.65
491.742	-5.52
491.941	-4.16
492.14	0.22
492.339	-1.05
492.538	-6.31
492.737	-1.18
492.936	-4.55
493.135	-4.81
493.334	-6.14
493.533	-13.6
493.732	-10.48
493.931	0.98
494.13	0.33
494.328	1.38
494.527	1.17
494.726	0.35
494.925	-3.41
495.124	-2.87
495.323	-3.17
495.521	-1.84
495.72	1.81
495.919	2.6
496.118	4.59
496.316	6.78
496.515	9.23
496.714	6.97
496.913	10.4
497.111	11.69
497.31	7.82
497.509	9.76
497.707	13.81
497.906	15.25
498.105	8.47
498.303	8.21
498.502	6.22
498.7	7.53
498.899	5.96
499.097	9.65
499.296	5.89
499.495	5.33
499.693	6.35
499.892	3.81
500.09	-2.02
500.289	1.49
500.487	-2.12
500.686	1.31
500.884	4.07
501.082	-3.56
501.281	-7.71
501.479	-5.22
501.678	-3.6
501.876	-6.95
502.074	-9.97
502.273	-7.85
502.471	-7.75
502.669	-11.03
502.868	-10.28
503.066	-6.42
503.264	-3.09
503.463	-5.84
503.661	-8.1
503.859	-7.88
504.057	-4.87
504.256	-0.19
504.454	-4.86
504.652	-7.83
504.85	-8.67
505.048	-8.23
505.246	-7.17
505.445	-4.58
505.643	-3.77
505.841	-5.05
506.039	-5.52
506.237	-9.01
506.435	-8.72
506.633	-8.16
506.831	-1.55
507.029	-4.67
507.227	-3.04
507.425	-3.16
507.623	-0.06
507.821	-1.82
508.019	-1.01
508.217	-1.69
508.415	-4.52
508.613	-7.98
508.811	-5.65
509.009	-7.2
509.207	-5.6
509.405	-4.97
509.603	-4.53
509.8	-5.35
509.998	-8.38
510.196	-5.99
510.394	-6.87
510.592	-6.63
510.79	-9.89
510.987	-14.13
511.185	-11.32
511.383	-15.59
511.581	-22.3
511.778	-17.59
511.976	-10.06
512.174	-11.66
512.371	-13.79
512.569	-10.21
512.767	-8.68
512.964	-7.58
513.162	-6.57
513.36	-7.05
513.557	-12.19
513.755	-10.78
513.952	-8.1
514.15	-8.59
514.348	-7.02
514.545	-4.51
514.743	-3.43
514.94	0.4
515.138	1.36
515.335	2.96
515.533	4.04
515.73	9.8
515.927	9.86
516.125	7.23
516.322	8.65
516.52	10.52
516.717	9.59
516.915	10.67
517.112	8.63
517.309	7.34
517.507	7.02
517.704	7.86
517.901	8.08
518.099	6.51
518.296	9.22
518.493	10.69
518.69	11.31
518.888	11.22
519.085	10.48
519.282	11.36
519.479	8.85
519.676	3.17
519.874	-0.66
520.071	-5.42
520.268	-3.69
520.465	-4.71
520.662	-5.18
520.859	-5.83
521.056	-5.48
521.254	-2.05
521.451	-2.05
521.648	-1.18
521.845	2.69
522.042	2.34
522.239	1.73
522.436	-5.13
522.633	-12.43
522.83	-13.02
523.027	-17.55
523.224	-16.62
523.421	-16.39
523.618	-15.37
523.815	-7.01
524.011	-4.04
524.208	1.64
524.405	0.52
524.602	0.44
524.799	-5.4
524.996	-5.91
525.193	-4.54
525.389	-11.01
525.586	-13.14
525.783	-19.4
525.98	-19.96
526.176	-16.13
526.373	-17.49
526.57	-14.03
526.767	-13.52
526.963	-14.05
527.16	-4.62
527.357	-6.34
527.553	-6.22
527.75	-9.41
527.947	-10.5
528.143	-8.72
528.34	-13.41
528.537	-17.73
528.733	-13.39
528.93	-9.99
529.126	-8.6
529.323	-8.31
529.519	-2.81
529.716	-5.14
529.912	-2.69
530.109	-2.21
530.305	-6.1
530.502	-5.71
530.698	-4.04
530.895	-7.95
531.091	-3.5
531.288	-8.02
531.484	-6.57
531.68	-6.83
531.877	-4.69
532.073	-3.42
532.269	-3.95
532.466	-2.78
532.662	-1.55
532.858	-5.27
533.055	-5.97
533.251	-7.23
533.447	-9.85
533.643	-8.13
533.84	-4.23
534.036	-3.23
534.232	-0.82
534.428	-5.55
534.624	-5.38
534.821	-5.72
535.017	1.53
535.213	-0.36
535.409	-1.09
535.605	-2.99
535.801	-5.79
535.997	-6.89
536.193	-8.16
536.389	-10.07
536.586	-11.53
536.782	-8.71
536.978	-7.69
537.174	-5.28
537.37	-5.82
537.566	-3.25
537.762	-7.12
537.958	-5.39
538.153	-7.06
538.349	-9.37
538.545	-6.27
538.741	-8.96
538.937	-7.5
539.133	-8.86
539.329	-10.81
539.525	-11.85
539.721	-13.07
539.916	-8.4
540.112	-11.48
540.308	-9.24
540.504	-6.54
540.699	-4.5
540.895	-4.96
541.091	-1.02
541.287	1.19
541.482	3.95
541.678	3.89
541.874	4.7
542.069	-0.03
542.265	3.42
542.461	3.62
542.656	7.6
542.852	10.73
543.048	9.21
543.243	9.97
543.439	10.7
543.634	10.2
543.83	10.36
544.025	7.54
544.221	11.57
544.417	9.16
544.612	10.61
544.807	10.41
545.003	8.35
545.198	4.32
545.394	5
545.589	6.05
545.785	5.14
545.98	6.07
546.176	7.07
546.371	4.53
546.566	2.77
546.762	0.23
546.957	2.51
547.152	2.84
547.348	3.67
547.543	4.2
547.738	2.12
547.933	2.06
548.129	6.51
548.324	3.54
548.519	2.19
548.714	0.06
548.91	0.82
549.105	-1.02
549.3	-1.19
549.495	-0.01
549.69	-3.25
549.885	-2.09
550.08	-0.42
550.276	-0.48
550.471	3.21
550.666	3.39
550.861	3.57
551.056	-2.96
551.251	-2.81
551.446	-5.56
551.641	-5.6
551.836	-2.16
552.031	0.87
552.226	-1.77
552.421	-1.68
552.616	0.23
552.811	0.5
553.006	-1.36
553.201	-0.16
553.395	1.9
553.59	-0.58
553.785	0.35
553.98	-0.56
554.175	-4.15
554.37	-3.92
554.565	-2.09
554.759	1.71
554.954	0.93
555.149	4.42
555.344	5.83
555.538	6.6
555.733	4.53
555.928	7.7
556.122	5.7
556.317	3.29
556.512	4.28
556.706	4.17
556.901	3.8
557.096	3.75
557.29	3.82
557.485	1.2
557.68	-1.68
557.874	-1.86
558.069	-2.44
558.263	-0.21
558.458	1.07
558.652	-1.65
558.847	-6.71
559.041	-4.59
559.236	-7.05
559.43	-8.99
559.625	-6.16
559.819	-5.15
560.014	-8.57
560.208	-7.55
560.402	-6.31
560.597	-3.99
560.791	-5.93
560.986	-5.25
561.18	-5.97
561.374	-6.12
561.569	-3.67
561.763	-0.33
561.957	-3.89
562.151	-6.3
562.346	-6.31
562.54	-6.44
562.734	-6.84
562.928	-5.5
563.123	-5.02
563.317	-3.9
563.511	-3.72
563.705	-8.19
563.899	-8.57
564.093	-7.89
564.288	-8.98
564.482	-9.31
564.676	-8.72
564.87	-4.07
565.064	-3.23
565.258	-2.04
565.452	-0.4
565.646	-0.95
565.84	-5.39
566.034	-2.5
566.228	-1.45
566.422	-1.5
566.616	-2.95
566.81	-5.47
567.004	-1.82
567.198	-2.29
567.392	-2.16
567.586	-2.29
567.779	-0.3
567.973	0.26
568.167	1.96
568.361	2.34
568.555	4.22
568.749	3.81
568.942	1.74
569.136	2.9
569.33	2.52
569.524	2.46
569.718	3.64
569.911	6.21
570.105	6.84
570.299	6.85
570.492	7.03
570.686	10.46
570.88	12.85
571.073	11.68
571.267	12.52
571.461	12.07
571.654	12.07
571.848	12.3
572.041	12.68
572.235	12.73
572.429	14.62
572.622	12.42
572.816	11.45
573.009	11.75
573.203	8.42
573.396	9.51
573.59	9.72
573.783	7.32
573.976	7.46
574.17	7.67
574.363	8.65
574.557	6.52
574.75	3.97
574.943	3.39
575.137	3.26
575.33	3.44
575.523	3.35
575.717	4.07
575.91	4.19
576.103	3.66
576.297	1.88
576.49	1.64
576.683	2.5
576.876	2.31
577.07	1.52
577.263	4.45
577.456	3.47
577.649	1.8
577.842	2.63
578.036	2.87
578.229	2.81
578.422	1.31
578.615	1.82
578.808	1.35
579.001	3.93
579.194	5.18
579.387	5.85
579.58	6.12
579.773	4.76
579.966	3.6
580.159	3.41
580.352	4.4
580.545	4.03
580.738	3.81
580.931	1.51
581.124	2.38
581.317	-1.01
581.51	-1.87
581.703	0.82
581.896	1.39
582.088	0.96
582.281	2.01
582.474	3.44
582.667	4.49
582.86	4.58
583.053	1.98
583.245	0.51
583.438	-1.41
583.631	0.32
583.824	1.13
584.016	2.48
584.209	1.8
584.402	2.74
584.594	4.14
584.787	5.37
584.98	7.52
585.172	7.66
585.365	7.56
585.558	8.87
585.75	6.07
585.943	5.1
586.135	4.94
586.328	5.17
586.52	6.22
586.713	5.83
586.906	6.57
587.098	5.87
587.291	7.99
587.483	6.54
587.675	6.4
587.868	5.4
588.06	5.19
588.253	6.27
588.445	6.19
588.638	3.21
588.83	2.76
589.022	1.52
589.215	-0.2
589.407	2.52
589.599	2.38
589.792	4.81
589.984	5.66
590.176	5.68
590.368	5.47
590.561	4.29
590.753	5.12
590.945	5.03
591.137	4.26
591.33	0.08
591.522	2.05
591.714	-0.63
591.906	2.96
592.098	2.41
592.29	4.38
592.482	3.74
592.674	4.55
592.867	2.4
593.059	2.09
593.251	3.6
593.443	3.64
593.635	3.47
593.827	0.17
594.019	-0.61
594.211	-2.45
594.403	-3.05
594.595	-0.12
594.787	-2
594.979	-1.76
595.17	-0.88
595.362	0.82
595.554	0.66
595.746	1.47
595.938	-0.45
596.13	0.34
596.322	0.01
596.513	-0.3
596.705	0.39
596.897	1.49
597.089	2.24
597.281	1.98
597.472	1.94
597.664	2.13
597.856	5.02
598.048	4.5
598.239	5.18
598.431	3.37
598.623	0.69
598.814	-0.69
599.006	-0.82
599.197	0.45
599.389	0.2
599.581	-2.04
599.772	-0.84
599.964	-0.92
600.155	-1.93
600.347	-3.63
600.538	-4.42
600.73	-4.48
600.921	-3.12
601.113	-3.21
601.304	-2.62
601.496	-2.81
601.687	-3.25
601.879	-6.44
602.07	-4.84
602.262	-4.8
602.453	-3.79
602.644	-4.75
602.836	-1.72
603.027	-2.54
603.218	-2.71
603.41	-2.14
603.601	-0.16
603.792	-1.33
603.983	-1.14
604.175	-1.65
604.366	-1.12
604.557	-0.26
604.748	-1.47
604.94	-2.18
605.131	-1.75
605.322	-1.46
605.513	-1.12
605.704	0.18
605.895	2.81
606.086	2.51
606.278	4.68
606.469	5.07
606.66	6.48
606.851	4.61
607.042	5.38
607.233	4.9
607.424	4.41
607.615	3.84
607.806	4.02
607.997	4.82
608.188	7.25
608.379	6.28
608.57	6.05
608.761	7.4
608.952	6.63
609.142	6.17
609.333	6.29
609.524	5.51
609.715	5.46
609.906	4.72
610.097	5.78
610.287	3.47
610.478	2.11
610.669	3.35
610.86	4.36
611.051	3.15
611.241	1.9
611.432	0.78
611.623	2.66
611.813	3.35
612.004	2.19
612.195	1.88
612.385	2.89
612.576	3.44
612.767	3.85
612.957	3.81
613.148	4.52
613.338	2.16
613.529	1.72
613.72	-0.42
613.91	-0.37
614.101	-2.19
614.291	-0.63
614.482	0.45
614.672	-1.93
614.863	-1.83
615.053	-1
615.243	0.29
615.434	1.67
615.624	0.64
615.815	1
616.005	0.6
616.195	0.1
616.386	0.13
616.576	0.75
616.766	0.3
616.957	2.05
617.147	2.65
617.337	3.79
617.528	3.32
617.718	3.19
617.908	3.2
618.098	3.67
618.289	5.12
618.479	4.83
618.669	6.28
618.859	6.38
619.049	8.49
619.239	8.55
619.43	7.94
619.62	6.81
619.81	6.41
620	7.13
620.19	6.02
620.38	3.78
620.57	1.48
620.76	0.33
620.95	0.18
621.14	-1.15
621.33	-1.19
621.52	-0.69
621.71	-0.96
621.9	-0.63
622.09	-0.88
622.28	-1.11
622.47	-2.29
622.659	-3.6
622.849	-3.24
623.039	-3.08
623.229	-3.16
623.419	-3.24
623.609	-3.39
623.799	-4.31
623.988	-4.19
624.178	-2.86
624.368	-2.04
624.558	-0.63
624.747	0.63
624.937	0.48
625.127	-1.61
625.316	-1.57
625.506	0.22
625.696	2.26
625.885	1.46
626.075	1.63
626.265	1.9
626.454	2.5
626.644	3.01
626.833	1.61
627.023	-0.52
627.212	-0.69
627.402	0.9
627.591	2.5
627.781	2.63
627.97	2.13
628.16	1.6
628.349	2.03
628.539	0.93
628.728	1.93
628.918	1.65
629.107	4.63
629.296	4.25
629.486	3.77
629.675	5.67
629.865	6.34
630.054	7.27
630.243	4.87
630.432	5.37
630.622	5.16
630.811	7.48
631	7.63
631.19	7.65
631.379	6.07
631.568	5.19
631.757	5.3
631.946	5.89
632.136	7.44
632.325	6.56
632.514	7.81
632.703	5.63
632.892	4.69
633.081	3.74
633.27	4.37
633.459	3.26
633.648	-0.34
633.837	-1.82
634.026	-2.01
634.215	0.07
634.404	0.48
634.593	1.49
634.782	1.58
634.971	1.44
635.16	-0.26
635.349	-0.25
635.538	0.17
635.727	-0.38
635.916	-1.96
636.105	-3.05
636.294	-1.68
636.482	-2.19
636.671	-2.67
636.86	0.18
637.049	1.89
637.238	2.09
637.426	2.56
637.615	1.97
637.804	3.51
637.993	2.41
638.181	1.39
638.37	2.06
638.559	2.22
638.747	0.83
638.936	1.22
639.125	3
639.313	3.06
639.502	2.84
639.691	4.09
639.879	3.72
640.068	2.81
640.256	0.74
640.445	1.46
640.633	2.82
640.822	-0.51
641.01	0.05
641.199	-0.28
641.387	-0.38
641.576	1.84
641.764	3
641.953	3.84
642.141	3.58
642.329	3.84
642.518	3.11
642.706	2.79
642.894	2.23
643.083	2.09
643.271	3.52
643.459	4.95
643.648	4.42
643.836	4.84
644.024	5.83
644.213	7.45
644.401	6.32
644.589	6.23
644.777	8.11
644.965	8.06
645.154	7.46
645.342	8.09
645.53	8.65
645.718	7.46
645.906	7.19
646.094	8.18
646.282	7.67
646.47	8.36
646.658	8.38
646.846	9.1
647.034	9.27
647.223	7.61
647.411	6.73
647.599	4.56
647.786	5.61
647.974	5.02
648.162	4.38
648.35	3.4
648.538	3.56
648.726	3.73
648.914	1.96
649.102	2.35
649.29	1.6
649.478	0.17
649.665	0.58
649.853	0.41
650.041	0.06
650.229	0.71
650.417	-0.71
650.604	-0.91
650.792	-0.37
650.98	-1.54
651.168	-1.65
651.355	-1.78
651.543	-0.11
651.731	-0.69
651.918	-0.86
652.106	0.36
652.294	0.88
652.481	1.48
652.669	0.96
652.856	1.44
653.044	1.56
653.231	1.04
653.419	1.47
653.606	0.65
653.794	1.23
653.981	1.85
654.169	0.73
654.356	0.43
654.544	1.2
654.731	0.35
654.919	-0.17
655.106	-0.36
655.294	-0.36
655.481	1.02
655.668	1.94
655.856	0.21
656.043	0.16
656.23	0.69
656.418	0.79
656.605	0.54
656.792	1.07
656.979	0.92
657.167	1.99
657.354	1.73
657.541	1.78
657.728	1.4
657.916	-0.84
658.103	-0.65
658.29	0.19
658.477	0.59
658.664	1.22
658.851	3.14
659.038	4.3
659.225	4.26
659.412	5.38
659.6	4.45
659.787	7.5
659.974	6.62
660.161	7.9
660.348	6.3
660.535	8.42
660.722	6.17
660.909	6.08
661.095	7.26
661.282	7.35
661.469	7.94
661.656	6.59
661.843	7.66
662.03	7.72
662.217	8.3
662.404	7.74
662.59	6.79
662.777	6.32
662.964	6.75
663.151	5.7
663.338	4.32
663.524	3.34
663.711	2.03
663.898	2.08
664.085	1.67
664.271	2.14
664.458	1.38
664.645	2.03
664.831	3.28
665.018	0.6
665.204	1.12
665.391	1.33
665.578	2.3
665.764	1.94
665.951	1.87
666.137	0.52
666.324	1.17
666.51	2.03
666.697	0.51
666.883	-0.39
667.07	0.49
667.256	0.36
667.443	0.04
667.629	-0.44
667.816	0.28
668.002	-0.6
668.188	-0.19
668.375	-0.85
668.561	-0.22
668.747	-0.96
668.934	-0.53
669.12	-0.14
669.306	-0.51
669.493	-1.04
669.679	0.05
669.865	-0.63
670.051	-0.79
670.238	-1.33
670.424	-2.4
670.61	-2.91
670.796	-3
670.982	-3
671.169	-3.31
671.355	-4.38
671.541	-3.11
671.727	-3.72
671.913	-4.49
672.099	-5.31
672.285	-7.42
672.471	-7.08
672.657	-8.56
672.843	-6.86
673.029	-7.87
673.215	-7.87
673.401	-4.64
673.587	-6.7
673.773	-6.07
673.959	-5.51
674.145	-6
674.331	-5.64
674.517	-4.38
674.703	-3.41
674.888	-3.17
675.074	-3.79
675.26	-1.31
675.446	-2.62
675.632	-4.56
675.817	-3.73
676.003	-2.41
676.189	-1.35
676.375	-2.16
676.56	-1.01
676.746	-1.97
676.932	-3.38
677.117	-3.93
677.303	-6.46
677.489	-4.8
677.674	-5.23
677.86	-6.11
678.046	-5.77
678.231	-5.73
678.417	-5.79
678.602	-6.56
678.788	-6.08
678.973	-5.57
679.159	-3.86
679.344	-2.59
679.53	-1.2
679.715	-1.37
679.901	-2.94
680.086	-3.48
680.272	-3.25
680.457	-3.5
680.643	-3.87
680.828	-2.36
681.013	-3.01
681.199	-2.86
681.384	-3.2
681.569	-2.67
681.755	-1.43
681.94	-1.61
682.125	-2.13
682.31	-0.54
682.496	-0.45
682.681	-0.24
682.866	-0.91
683.051	-2.09
683.237	-3.53
683.422	-2.53
683.607	-3.35
683.792	-2.57
683.977	-1.09
684.162	-1.91
684.347	-0.65
684.532	-0.29
684.717	-1.55
684.903	-0.59
685.088	-0.22
685.273	-0.49
685.458	-0.49
685.643	-0.01
685.828	-0.42
686.013	1.39
686.198	0.34
686.382	1.29
686.567	1.77
686.752	1.79
686.937	0.67
687.122	0.9
687.307	1.51
687.492	2.98
687.677	2.44
687.861	2.05
688.046	1.97
688.231	0.79
688.416	1.1
688.601	1.49
688.785	1.91
688.97	1.57
689.155	2.96
689.339	2.12
689.524	1.17
689.709	1.76
689.893	1
690.078	1.31
690.263	1.09
690.447	-1.22
690.632	-1.87
690.816	-0.14
691.001	1.35
691.186	0.45
691.37	-0.89
691.555	0.17
691.739	1.42
691.924	2.6
692.108	2.85
692.293	2.28
692.477	2.66
692.661	3.6
692.846	3.58
693.03	2.71
693.215	3.44
693.399	3.83
693.583	2.46
693.768	2.14
693.952	0.84
694.136	-0.51
694.321	0.45
694.505	1.6
694.689	0.95
694.873	1.28
695.058	0.09
695.242	1.55
695.426	1.35
695.61	0.06
695.794	-0.31
695.979	-0.73
696.163	-0.56
696.347	-0.18
696.531	-1.41
696.715	0.14
696.899	-0.8
697.083	-1.5
697.267	-1.07
697.451	0.39
697.635	1.51
697.819	3.45
698.003	4.42
698.187	4.1
698.371	4.07
698.555	3.29
698.739	3.1
698.923	3.3
699.107	3.59
699.291	3.07
699.475	2.71
699.659	3.7
699.842	3.83
700.026	4.43
700.21	3.79
700.394	3.96
700.578	2.37
700.761	2.73
700.945	4.17
701.129	4.01
701.313	2.52
701.496	2.53
701.68	1.53
701.864	1.24
702.047	1.85
702.231	3.52
702.415	3.81
702.598	1.72
702.782	3.02
702.965	3.09
703.149	3.48
703.333	3.34
703.516	2.98
703.7	2.35
703.883	1.97
704.067	1.91
704.25	1.53
704.434	0.34
704.617	0.59
704.801	-0.05
704.984	0.36
705.167	0.58
705.351	-0.78
705.534	-0.88
705.718	-0.61
705.901	-1.42
706.084	-2.82
706.268	-2
706.451	-1.36
706.634	-1.92
706.817	-5.09
707.001	-6.17
707.184	-6.07
707.367	-6.64
707.55	-5.92
707.734	-5.19
707.917	-4.49
708.1	-3.58
708.283	-2.03
708.466	-1.62
708.649	-0.8
708.832	-1.82
709.015	0.31
709.199	1.38
709.382	2.1
709.565	1.65
709.748	3.91
709.931	4.19
710.114	4.63
710.297	5.18
710.48	5.64
710.663	7.7
710.846	9.06
711.028	9.86
711.211	8.56
711.394	8.49
711.577	7.31
711.76	5.57
711.943	4.6
712.126	5.28
712.309	6.99
712.491	5.58
712.674	5.49
712.857	4.81
713.04	2.89
713.222	1.76
713.405	2.52
713.588	0.87
713.771	0.67
713.953	-0.87
714.136	-0.94
714.319	0.45
714.501	0.08
714.684	-0.71
714.866	-0.48
715.049	1.5
715.232	0.95
715.414	1.25
715.597	3.08
715.779	3.66
715.962	3.38
716.144	0.73
716.327	1.82
716.509	1.24
716.692	-0.83
716.874	0.71
717.057	0.94
717.239	0.26
717.421	0.84
717.604	-0.86
717.786	0.19
717.968	-1.33
718.151	-3.44
718.333	-3.99
718.515	-3.43
718.698	-3.44
718.88	-5.25
719.062	-4.85
719.244	-4.88
719.427	-5.97
719.609	-4.88
719.791	-6.95
719.973	-5.43
720.155	-6.11
720.338	-4.58
720.52	-2.84
720.702	-2.93
720.884	-1.6
721.066	-1.66
721.248	-5.59
721.43	-5.3
721.612	-5.45
721.794	-3.57
721.976	-3.05
722.158	-1.85
722.34	-2.2
722.522	-3.62
722.704	-2.23
722.886	-2.1
723.068	-1.52
723.25	-0.46
723.432	-1.83
723.614	-0.85
723.796	-1.73
723.977	-1.94
724.159	-2.05
724.341	-2.02
724.523	-2.37
724.705	-3.61
724.886	-3.15
725.068	0.05
725.25	2.31
725.432	1.18
725.613	0.59
725.795	1.09
725.977	1.23
726.158	1.88
726.34	2.63
726.522	2.92
726.703	3.28
726.885	3.05
727.066	2.93
727.248	4.79
727.43	4.2
727.611	3.82
727.793	3.85
727.974	2.55
728.156	1.7
728.337	1.21
728.519	0.44
728.7	1.25
728.882	0.82
729.063	-0.62
729.244	-0.79
729.426	0.59
729.607	0.01
729.788	-1.41
729.97	-0.89
730.151	-2.05
730.332	-2.68
730.514	-3.2
730.695	-1.31
730.876	-1.26
731.058	-3.79
731.239	-2.83
731.42	-2.5
731.601	-2.67
731.782	-2.34
731.964	-0.64
732.145	0.33
732.326	-1.57
732.507	-3.31
732.688	-3.42
732.869	-2.06
733.05	-1.16
733.231	-1.31
733.412	-3.57
733.593	-2.74
733.774	-3.58
733.955	-1.79
734.136	-1.96
734.317	-2.99
734.498	-4.01
734.679	-4.29
734.86	-5.28
735.041	-5.63
735.222	-6.16
735.403	-6.42
735.584	-6.28
735.765	-8.03
735.946	-8.07
736.126	-6.4
736.307	-6.05
736.488	-5.5
736.669	-8.37
736.849	-8.75
737.03	-8.49
737.211	-6.35
737.392	-6.59
737.572	-9.54
737.753	-11.06
737.934	-9.87
738.114	-8.19
738.295	-8.99
738.476	-8.72
738.656	-5.6
738.837	-5.35
739.017	-4.02
739.198	-2.65
739.378	-1.63
739.559	-0.36
739.74	-0.57
739.92	0.71
740.1	1.63
740.281	-0.71
740.461	0.74
740.642	0.6
740.822	-2.35
741.003	-1.03
741.183	-2.33
741.363	0.05
741.544	-0.42
741.724	-0.84
741.904	-1.67
742.085	-1.91
742.265	-1.86
742.445	-3.01
742.626	-1.68
742.806	-2.05
742.986	-4.32
743.166	-5.21
743.347	-7.21
743.527	-6.16
743.707	-8.01
743.887	-9.83
744.067	-8.91
744.247	-9.91
744.427	-8.86
744.608	-7.34
744.788	-6.97
744.968	-4.78
745.148	-5.2
745.328	-5.04
745.508	-6.42
745.688	-7.07
745.868	-7.2
746.048	-8.87
746.228	-8.02
746.408	-9.12
746.588	-10.11
746.767	-7.75
746.947	-6.34
747.127	-5.57
747.307	-7.86
747.487	-7.05
747.667	-5.85
747.847	-3.75
748.026	-3.08
748.206	-4.08
748.386	-2.8
748.566	-4.41
748.745	-5.06
748.925	-4.19
749.105	-2.64
749.285	-1.56
749.464	-1.64
749.644	-1.33
749.824	-0.73
750.003	-2.02
750.183	-3.77
750.362	-2.42
750.542	-3.27
750.722	-4.84
750.901	-4.59
751.081	-3.31
751.26	-3.41
751.44	-2.46
751.619	-4.54
751.799	-5.33
751.978	-5.91
752.158	-6.41
752.337	-6.44
752.516	-6.16
752.696	-6.56
752.875	-6.27
753.055	-6.63
753.234	-4.6
753.413	-4.36
753.593	-2.43
753.772	-3.28
753.951	-1.85
754.13	-1.58
754.31	-1.46
754.489	-1.11
754.668	-0.66
754.847	0.26
755.027	1.89
755.206	0.98
755.385	2.78
755.564	5.1
755.743	5.49
755.922	4.51
756.101	4.59
756.28	4.21
756.46	3.11
756.639	1.11
756.818	1.44
756.997	0.75
757.176	0.76
757.355	0.58
757.534	1.56
757.713	1.41
757.892	0.41
758.07	1.13
758.249	2.21
758.428	1.97
758.607	0.96
758.786	0.51
758.965	0.1
759.144	0.84
759.323	-1.41
759.501	-1.64
759.68	-0.95
759.859	0.59
760.038	1.32
760.216	1.83
760.395	3.75
760.574	3.5
760.753	4.01
760.931	4.37
761.11	4.53
761.289	3.59
761.467	4.32
761.646	4.39
761.824	3.51
762.003	1.69
762.182	0.75
762.36	1.29
762.539	2.56
762.717	2.99
762.896	2.76
763.074	2.92
763.253	3.65
763.431	4.63
763.61	2.64
763.788	1.21
763.966	2.27
764.145	1.32
764.323	2.42
764.502	1.07
764.68	-0.47
764.858	-2.36
765.037	-0.45
765.215	-0.99
765.393	-0.69
765.571	-0.3
765.75	1.36
765.928	1.19
766.106	-0.42
766.284	-2.52
766.463	-3.14
766.641	-3.82
766.819	-1.67
766.997	-1.75
767.175	-2.45
767.353	-0.93
767.531	1.2
767.71	1.04
767.888	1.89
768.066	0.58
768.244	1.24
768.422	2.6
768.6	4.95
768.778	3.22
768.956	3.3
769.134	3.89
769.312	4.93
769.489	3.61
769.667	5.66
769.845	6.88
770.023	8.21
770.201	9.99
770.379	9.44
770.557	7.74
770.735	7.61
770.912	6.05
771.09	4.94
771.268	4.8
771.446	3.88
771.623	3.18
771.801	4.38
771.979	4.67
772.157	4.38
772.334	3.04
772.512	4.08
772.69	2.92
772.867	2.82
773.045	1.97
773.222	1.66
773.4	1.38
773.577	1.03
773.755	0.57
773.933	-0.38
774.11	-0.82
774.288	-1.91
774.465	-2.13
774.643	-1.23
774.82	-0.23
774.997	-1.42
775.175	-2.12
775.352	0.13
775.53	-0.32
775.707	0.02
775.884	0.46
776.062	2.46
776.239	2.84
776.416	3.49
776.594	2.35
776.771	1.57
776.948	2.26
777.125	2.57
777.303	1.31
777.48	0.97
777.657	0.33
777.834	1.08
778.012	1.14
778.189	1.95
778.366	2
778.543	-1.91
778.72	-0.95
778.897	0.49
779.074	-2.57
779.251	0.01
779.428	-0.32
779.605	-1.15
779.782	-2.67
779.959	-3.77
780.136	-3.64
780.313	-3.39
780.49	-4.38
780.667	-1.97
780.844	-2.84
781.021	-1.76
781.198	-2.91
781.375	-2.49
781.552	-2.88
781.728	-1.78
781.905	-3.44
782.082	-3.45
782.259	-1.59
782.436	-2.97
782.612	-3.97
782.789	-4.11
782.966	-9.53
783.143	-9.24
783.319	-8.89
783.496	-8.13
783.673	-8.14
783.849	-6.41
784.026	-5.14
784.203	-3.82
784.379	-8.49
784.556	-6.32
784.732	-4.99
784.909	-4.78
785.085	-4.66
785.262	-5.67
785.438	-3.87
785.615	-3.27
785.791	-1.78
785.968	-1.32
786.144	-0.51
786.321	2.67
786.497	2.08
786.673	2.82
786.85	1.25
787.026	0.72
787.203	0.67
787.379	0.51
787.555	-2.9
787.731	-4.58
787.908	-6.19
788.084	-3.57
788.26	-6.62
788.437	-7.81
788.613	-8.68
788.789	-8.63
788.965	-5.79
789.141	-6.86
789.317	-8.11
789.494	-10.66
789.67	-10.35
789.846	-8.36
790.022	-11.87
790.198	-10.7
790.374	-9.43
790.55	-9.07
790.726	-9.72
790.902	-11.41
791.078	-9.46
791.254	-7.84
791.43	-8.31
791.606	-8.75
791.782	-8.36
791.958	-8.71
792.134	-9.42
792.31	-7.81
792.486	-9.31
792.661	-11.87
792.837	-11.21
793.013	-9.65
793.189	-8.99
793.365	-8.21
793.54	-8.92
793.716	-7.53
793.892	-5.33
794.068	-6.3
794.243	-5.66
794.419	-5.57
794.595	-7.56
794.77	-8.18
794.946	-6.94
795.122	-5.58
795.297	-4.95
795.473	-5.01
795.648	-2.56
795.824	-3.33
796	-2.23
796.175	-0.54
796.351	-0
796.526	0.06
796.702	0.58
796.877	1.78
797.052	2.36
797.228	0.38
797.403	-0.5
797.579	-1.03
797.754	-1.48
797.929	-1.45
798.105	0.01
798.28	-0.28
798.455	-0.99
798.631	-1.82
798.806	-0.58
798.981	-0.16
799.157	-1.92
799.332	-3.94
799.507	-0.86
799.682	-0.71
799.858	-2.26
800.033	-2.32
800.208	-1.74
800.383	-0.8
800.558	-1.01
800.733	-1.72
800.908	-1.71
801.083	-1.01
801.258	-3.31
801.434	-0.71
801.609	-0.96
801.784	-1.42
801.959	1.23
802.134	1.12
802.309	-1.05
802.484	-3.25
802.658	-1.16
802.833	-1.38
803.008	-1.91
803.183	-4.47
803.358	-6.29
803.533	-5.97
803.708	-5.55
803.883	-8.23
804.057	-11.84
804.232	-9.96
804.407	-7.68
804.582	-5.73
804.756	-7.78
804.931	-7.76
805.106	-10.93
805.281	-10.27
805.455	-12.29
805.63	-11.81
805.805	-14.26
805.979	-12.52
806.154	-9.99
806.328	-9.66
806.503	-8.43
806.678	-8.78
806.852	-8.84
807.027	-9.95
807.201	-13.29
807.376	-13.1
807.55	-11.72
807.725	-12.49
807.899	-10.62
808.074	-10.49
808.248	-11.33
808.422	-9.67
808.597	-8.46
808.771	-7.16
808.946	-2.86
809.12	0.34
809.294	-1.92
809.468	2.24
809.643	4.22
809.817	2.77
809.991	-0.01
810.166	2.9
810.34	5.01
810.514	7.48
810.688	9.53
810.862	10.87
811.037	12.22
811.211	12.16
811.385	16.08
811.559	14.92
811.733	13.62
811.907	12.83
812.081	11.77
812.255	8.8
812.429	6.68
812.603	2.52
812.777	0.9
812.951	3.58
813.125	1.02
813.299	-0.96
813.473	-2.74
813.647	0.7
813.821	-1.46
813.995	-2.11
814.169	-4.55
814.343	-3.63
814.516	-0.05
814.69	-0.44
814.864	-0.83
815.038	-1.36
815.212	-3.3
815.385	-3.98
815.559	-4.57
815.733	-3.14
815.907	-1.95
816.08	2.16
816.254	2.06
816.428	0.77
816.601	-2.41
816.775	0.23
816.948	0.04
817.122	1.95
817.296	-1.21
817.469	0.29
817.643	1.12
817.816	0.64
817.99	-0.47
818.163	-2.95
818.337	-4.83
818.51	-5.54
818.684	-5.99
818.857	-6.06
819.031	-8.28
819.204	-9.19
819.377	-8.95
819.551	-8.71
819.724	-10.6
819.897	-8.3
820.071	-5.05
820.244	-6.08
820.417	-5.43
820.591	-5.51
820.764	-6.33
820.937	-3.83
821.11	-6.53
821.284	-5.36
821.457	-1.8
821.63	-2.18
821.803	-0.96
821.976	3.58
822.149	5.75
822.322	5.19
822.496	3.59
822.669	5.54
822.842	6.13
823.015	7.34
823.188	5.82
823.361	8.66
823.534	3.73
823.707	2.33
823.88	3.36
824.053	0.25
824.226	1
824.399	2.53
824.571	-0.11
824.744	-0.1
824.917	-1.91
825.09	-5.1
825.263	-3.78
825.436	-1.17
825.608	-5.08
825.781	-5.76
825.954	-3.24
826.127	-4.61
826.299	-5.94
826.472	-3.05
826.645	-2.52
826.818	2.44
826.99	-1.5
827.163	2.21
827.336	0.95
827.508	3.75
827.681	4.6
827.853	3.86
828.026	1.36
828.198	2.77
828.371	4.5
828.544	3.43
828.716	3.51
828.889	0.09
829.061	-5.44
829.233	-5.25
829.406	-5.67
829.578	-8.05
829.751	-2.85
829.923	-5.11
830.096	-5.82
830.268	-8.82
830.44	-12.85
830.613	-10.7
830.785	-10.09
830.957	-9.75
831.129	-9.34
831.302	-9.26
831.474	-10.87
831.646	-4.98
831.818	-4.49
831.991	-4.42
832.163	-0.69
832.335	-0.79
832.507	0.28
832.679	0.72
832.851	0.28
833.023	-1.53
833.195	-3.39
833.368	-6.76
833.54	-1.4
833.712	-2.34
833.884	-2.28
834.056	-1.49
834.228	-0.55
834.4	1.46
834.571	1.79
834.743	-0.47
834.915	-2.2
835.087	2.48
835.259	0.62
835.431	-1.34
835.603	-3.56
835.775	-5.84
835.946	-5.64
836.118	-6.9
836.29	-7.48
836.462	-9.85
836.634	-9.37
836.805	-8.29
836.977	-7.41
837.149	-12.21
837.32	-14.7
837.492	-13.52
837.664	-17.33
837.835	-17.41
838.007	-23.83
838.179	-22.45
838.35	-16.75
838.522	-13.24
838.693	-16.41
838.865	-20.95
839.036	-22.88
839.208	-20.57
839.379	-20.91
839.551	-21.48
839.722	-20.03
839.894	-21.58
840.065	-22.33
840.237	-23.23
840.408	-21.17
840.579	-18.77
840.751	-17.64
840.922	-14.12
841.093	-16.71
841.265	-14.98
841.436	-13.12
841.607	-9.77
841.778	-9.78
841.95	-14.57
842.121	-15.58
842.292	-17.48
842.463	-17.46
842.635	-12.33
842.806	-13.17
842.977	-12.31
843.148	-9.53
843.319	-7.55
843.49	-8.03
843.661	-7.21
843.832	-3.65
844.003	-4.54
844.174	-7.59
844.345	-1.58
844.516	-6.35
844.687	-4.67
844.858	-2.33
845.029	-6.99
845.2	-7.59
845.371	-6.43
845.542	-11.36
845.713	-16.01
845.884	-12.06
846.055	-14.45
846.225	-15.56
846.396	-16.85
846.567	-17.32
846.738	-20.23
846.909	-19.81
847.079	-16.93
847.25	-13.13
847.421	-14.79
847.591	-23.89
847.762	-23.01
847.933	-35.39
848.103	-28.9
848.274	-31.9
848.445	-32.82
848.615	-27.55
848.786	-31.25
848.956	-33.72
849.127	-21.57
849.297	-9.17
849.468	-4.11
849.638	-0.77
849.809	-2.55
849.979	-1.01
850.15	0.67
850.32	3.21
850.491	3.34
850.661	6.13
850.831	10.19
851.002	14.56
851.172	22.14
851.342	20.07
851.513	22.96
851.683	24.58
851.853	25.08
852.024	25.31
852.194	21.43
852.364	21.11
852.534	25.07
852.705	24.79
852.875	18.15
853.045	8.86
853.215	7.86
853.385	9.06
853.555	11.85
853.725	7.84
853.895	1.95
854.066	0.54
854.236	-1.77
854.406	-11.07
854.576	-15.41
854.746	-18.7
854.916	-14.9
855.086	-18.34
855.256	-21.65
855.425	-19.86
855.595	-13.85
855.765	-13.74
855.935	-11.82
856.105	-18.23
856.275	-22.37
856.445	-23
856.614	-15.98
856.784	-11.66
856.954	-10.14
857.124	-14.19
857.294	-15.51
857.463	-10.22
857.633	-5.04
857.803	-2.8
857.972	2.99
858.142	1.73
858.312	7.82
858.481	4.93
858.651	3.54
858.821	3.86
858.99	2.21
859.16	-6.3
859.329	-7.08
859.499	-8.62
859.668	-4.26
859.838	-1.81
860.007	7.57
860.177	9.39
860.346	5.38
860.516	3.47
860.685	2.87
860.854	9.27
861.024	0.77
861.193	-2.06
861.363	0.82
861.532	-3.5
861.701	-1.6
861.87	-7.12
862.04	-4.87
862.209	-2.94
862.378	-0.01
862.547	2.88
862.717	7.96
862.886	13.17
863.055	8.97
863.224	9.19
863.393	9.56
863.563	4.54
863.732	4.61
863.901	3.51
864.07	5.91
864.239	9.83
864.408	8.49
864.577	9.33
864.746	10.6
864.915	2.75
865.084	9.3
865.253	11.74
865.422	11.73
865.591	13.07
865.76	14.19
865.929	8.62
866.097	9.86
866.266	3.78
866.435	3.72
866.604	5.69
866.773	-0.07
866.942	-9.69
867.11	-10.13
867.279	-15.12
867.448	-3.05
867.617	-9.08
867.785	-24.78
867.954	-42.42
868.123	-18.68
868.291	-24.27
868.46	-13.55
868.629	-15.19
868.797	-17.83
868.966	-27.32
869.134	-27.85
869.303	-20.74
869.472	-19.47
869.64	-21.48
869.809	-15.67
869.977	-17.22
870.146	-20.3
870.314	-11
870.482	-2.2
870.651	-11.4
870.819	-7.9
870.988	-14.29
871.156	-14.83
871.324	-9.87
871.493	-7.57
871.661	-7.93
871.829	-0.08
871.998	-8.13
872.166	-18.84
872.334	-30.63
872.502	-17.93
872.671	-13.8
872.839	-1.09
873.007	1.94
873.175	-5.46
873.343	-10.41
873.512	-15.37
873.68	-4.36
873.848	-7.89
874.016	-9.87
874.184	-3.16
874.352	-7.78
874.52	-6.05
874.688	-1.84
874.856	1.68
875.024	1.32
875.192	-11.94
875.36	-17.64
875.528	-19.97
875.696	-9.77
875.864	3.43
876.032	9.04
876.199	1.58
876.367	-11.6
876.535	-18.1
876.703	-17.12
876.871	-5.13
877.039	4.47
877.206	5.4
877.374	6.02
877.542	14.27
877.71	7.71
877.877	6.69
878.045	21.92
878.213	18.62
878.38	28.22
878.548	41.16
878.715	45.72
878.883	36.16
879.051	47.03
879.218	39.41
879.386	22.01
879.553	8.22
879.721	8.23
879.888	7.79
880.056	16.77
880.223	16.59
880.391	10.28
880.558	-9.6
880.726	-3.69
880.893	-7.95
881.06	-28.94
881.228	-29.09
881.395	-10.66
881.562	-25.8
881.73	-54.29
881.897	-75.52
882.064	-76.41
882.231	-73.63
882.399	-71.67
882.566	-66.72
882.733	-70.26
882.9	-119.3
883.068	-57.11
883.235	-52.77
883.402	-55.24
883.569	-61.57
883.736	-25.78
883.903	-24.43
884.07	-14.94
884.237	-27.87
884.404	-30.49
884.571	-25.57
884.738	-16.8
884.905	-23.98
885.072	-27.42
885.239	2.66
885.406	-0.07
