Data from Transmission_10-02-15-903.txt Node
Date: Fri Aug 24 10:02:15 EEST 2018
User: tibor.sos
Spectrometer: USB4F01757
Scans to average: 10
Trigger mode: 4
Integration Time (sec): 1.000000E-2
Electric dark correction enabled: true
Boxcar width: 10
XAxis mode: Wavelengths
Number of Pixels in Spectrum: 3648
>>>>>Begin Spectral Data<<<<<
178.758	-132.79
178.974	-504.58
179.191	-550.51
179.407	-224.78
179.624	-196.72
179.84	-191.72
180.057	-193.2
180.273	-170.76
180.489	-153.2
180.706	-314.04
180.922	-221.3
181.138	-146.03
181.355	-38.45
181.571	-1.15
181.787	16.86
182.004	5.69
182.22	-9.13
182.436	-14.41
182.653	-8.33
182.869	3.47
183.085	10.5
183.301	14.01
183.518	56.48
183.734	47.37
183.95	70.25
184.166	87.21
184.383	89.91
184.599	69.29
184.815	48.9
185.031	25.59
185.247	59.34
185.463	59.09
185.68	71.16
185.896	70.48
186.112	122.71
186.328	109.71
186.544	136.34
186.76	130.45
186.976	112.82
187.192	126.44
187.408	157.05
187.624	159.04
187.84	107.81
188.056	73.32
188.272	76.5
188.488	62.25
188.704	52.49
188.92	50.76
189.136	48.96
189.352	52.16
189.568	78.71
189.784	69.93
190	89.14
190.216	87.66
190.432	69.29
190.648	46.23
190.864	109.71
191.08	132.61
191.296	78.82
191.511	73.73
191.727	97.89
191.943	106.81
192.159	102.33
192.375	105.95
192.591	154.38
192.806	235.24
193.022	143.63
193.238	354.04
193.454	320.23
193.669	513.05
193.885	608.62
194.101	754.16
194.317	477.74
194.532	3160.67
194.748	-2199.16
194.964	1006.52
195.18	398.12
195.395	285.35
195.611	233.61
195.827	417.49
196.042	713.65
196.258	365.87
196.473	238.62
196.689	158.89
196.905	270.35
197.12	907.92
197.336	125.62
197.551	-232.55
197.767	98900
197.982	332.45
198.198	1157.53
198.414	859.55
198.629	288.45
198.845	116.64
199.06	102.08
199.276	45.34
199.491	-127.03
199.707	20.1
199.922	40.1
200.137	33.98
200.353	15.31
200.568	35.3
200.784	33.56
200.999	52.37
201.215	86.4
201.43	71.83
201.645	56.81
201.861	85.62
202.076	67.6
202.291	51.54
202.507	0.11
202.722	37.11
202.937	-5.07
203.153	-20.34
203.368	-9.46
203.583	28.88
203.798	22.84
204.014	-0.21
204.229	26.56
204.444	63.81
204.659	41.51
204.875	242.06
205.09	-300
205.305	801.89
205.52	-348.78
205.735	-412.57
205.951	1604
206.166	22.03
206.381	-1.69
206.596	-300
206.811	303.51
207.026	170.85
207.241	87.66
207.457	188.47
207.672	179.34
207.887	-808.41
208.102	-7.72
208.317	-16.16
208.532	158.76
208.747	49.73
208.962	104.63
209.177	-79.87
209.392	-124.3
209.607	10.8
209.822	32.18
210.037	29.36
210.252	-10.33
210.467	12.97
210.682	103.87
210.897	54.78
211.112	33.76
211.326	24.98
211.541	6.71
211.756	10.68
211.971	-97.64
212.186	-46.41
212.401	-84.98
212.616	-82.58
212.831	-68.96
213.045	-100.61
213.26	-71.77
213.475	-76.86
213.69	-140.56
213.905	-221.38
214.119	-703.62
214.334	8100
214.549	937.25
214.764	-1124.87
214.978	-693.17
215.193	-970.36
215.408	5741.03
215.622	-912.83
215.837	-4708.89
216.052	2224.14
216.266	560.76
216.481	690.93
216.696	431.26
216.91	-4239.39
217.125	-302.43
217.34	-625.39
217.554	-721.62
217.769	278.19
217.983	110.81
218.198	-25.25
218.412	173.31
218.627	-60.36
218.842	43.29
219.056	-4.31
219.271	18.09
219.485	-50.63
219.7	-82.47
219.914	-3.1
220.129	53.65
220.343	20.7
220.558	-31.14
220.772	-55.58
220.986	39.65
221.201	-29.98
221.415	253.99
221.63	175.87
221.844	114.11
222.058	83
222.273	102.67
222.487	195.11
222.702	355.13
222.916	329.88
223.13	220.09
223.344	230.7
223.559	169.99
223.773	164.26
223.987	140.35
224.202	118.09
224.416	186.67
224.63	151.71
224.844	118.04
225.059	108.24
225.273	-49.49
225.487	-370.4
225.701	-15.82
225.915	-5.78
226.13	17.98
226.344	52.54
226.558	11.33
226.772	13.11
226.986	45.7
227.2	74.09
227.415	66.74
227.629	80.05
227.843	57.42
228.057	53.46
228.271	55.99
228.485	35.28
228.699	56.58
228.913	50.67
229.127	46.1
229.341	26.62
229.555	23.35
229.769	-5.33
229.983	-50.67
230.197	48.68
230.411	73.82
230.625	31.54
230.839	-45.64
231.053	-144.03
231.267	-280.95
231.481	-484.04
231.695	-185.89
231.909	45.11
232.122	49.74
232.336	96.5
232.55	169.81
232.764	237.43
232.978	276.54
233.192	132.07
233.405	281.16
233.619	241.72
233.833	131.8
234.047	242.03
234.261	274.13
234.474	263.74
234.688	-508.37
234.902	-147.62
235.116	13.23
235.329	28.63
235.543	-177.09
235.757	-77
235.97	-87.2
236.184	-35.11
236.398	11.69
236.612	19.35
236.825	25.1
237.039	131.26
237.252	166.18
237.466	532.9
237.68	1822.03
237.893	-174700
238.107	-643.08
238.32	1146.96
238.534	-224.22
238.748	-130.09
238.961	-105.61
239.175	-147.79
239.388	-139.32
239.602	-148.68
239.815	-76.66
240.029	-268.71
240.242	-135.12
240.456	-84.52
240.669	-69.5
240.882	-74.34
241.096	-194.59
241.309	-174.44
241.523	-156.28
241.736	-178.26
241.95	638.55
242.163	-525.56
242.376	-18.32
242.59	-367.2
242.803	4793.33
243.016	265.56
243.23	805.88
243.443	6393.33
243.656	-877.44
243.87	-76.62
244.083	-34.63
244.296	-3.57
244.509	17.8
244.723	-26.8
244.936	-54.47
245.149	-109.7
245.362	-124.71
245.576	-63.74
245.789	-87.51
246.002	-51.89
246.215	-61.52
246.428	-41.95
246.641	-57.89
246.855	-120.08
247.068	-102.39
247.281	-113.04
247.494	-42.32
247.707	-67.9
247.92	-89.82
248.133	-52.59
248.346	-112.19
248.559	-78.08
248.772	-131.3
248.985	-84.33
249.198	-46.56
249.411	-40.11
249.624	-30.79
249.837	-22.37
250.05	-18.09
250.263	-14.87
250.476	-25.96
250.689	-20.55
250.902	-27.7
251.115	-38.01
251.328	-17.03
251.541	-8.13
251.754	0.02
251.967	-9.35
252.18	1.32
252.393	6.34
252.605	3.02
252.818	2.1
253.031	-2.35
253.244	13.16
253.457	10.48
253.67	1.57
253.882	-2.48
254.095	6.65
254.308	7.32
254.521	3.94
254.733	7.07
254.946	12.13
255.159	7.28
255.372	13.81
255.584	13.64
255.797	8.74
256.01	4.35
256.222	7.65
256.435	6.76
256.648	7.17
256.86	6.2
257.073	5.41
257.285	8.96
257.498	7.49
257.711	5.61
257.923	-2.59
258.136	12.96
258.348	12.42
258.561	-4.73
258.773	-16.62
258.986	-21.97
259.198	-20.39
259.411	-47.24
259.623	-30.9
259.836	-42.01
260.048	-24.99
260.261	-3.71
260.473	-3.38
260.686	3.3
260.898	4.43
261.111	-4.41
261.323	-0.51
261.535	4.58
261.748	18.47
261.96	27.7
262.173	26.59
262.385	30.86
262.597	25
262.81	28.04
263.022	33.52
263.234	34.2
263.447	29.47
263.659	27.58
263.871	28.47
264.083	30.34
264.296	35.8
264.508	40.53
264.72	33.36
264.932	33.85
265.145	15.57
265.357	7.29
265.569	-11.13
265.781	-23
265.993	-38.98
266.205	-77.54
266.418	-114.21
266.63	-169.55
266.842	-145.79
267.054	-135.59
267.266	-114.78
267.478	-129.74
267.69	-108.87
267.902	-115.22
268.114	-143.32
268.326	-120.95
268.538	-124.22
268.75	-104.91
268.962	-118.84
269.174	-115.05
269.386	-74.1
269.598	-40.29
269.81	-25.61
270.022	-12.63
270.234	-5.08
270.446	2.85
270.658	7.14
270.87	15.51
271.082	17.7
271.294	18.59
271.506	10.84
271.718	7.13
271.929	12.85
272.141	14.24
272.353	21.11
272.565	22.04
272.777	23.04
272.989	25.96
273.2	28.85
273.412	25.64
273.624	31.43
273.836	20.45
274.047	18.23
274.259	18.13
274.471	21.29
274.683	20.18
274.894	16.73
275.106	17.91
275.318	12.73
275.529	13.97
275.741	1.27
275.953	14.41
276.164	20.16
276.376	24.03
276.588	24.94
276.799	20.2
277.011	23.57
277.222	20.6
277.434	10.51
277.646	5.3
277.857	13.27
278.069	4.05
278.28	6.03
278.492	-4
278.703	-5.58
278.915	2.82
279.126	-1.86
279.338	-2.81
279.549	1.71
279.761	8.24
279.972	8.25
280.183	17.65
280.395	7.74
280.606	-0.15
280.818	-5.23
281.029	-5.59
281.24	-5.18
281.452	-11.71
281.663	-12.53
281.875	-9.27
282.086	-12.41
282.297	-13.34
282.508	-9.43
282.72	-4.89
282.931	2.36
283.142	0.37
283.354	-13.75
283.565	-4.89
283.776	-0.74
283.987	-22.45
284.199	-29.49
284.41	-21.47
284.621	-28.33
284.832	-15.78
285.043	-7.23
285.254	-25.9
285.466	-38.09
285.677	-24.87
285.888	-24.69
286.099	-26.34
286.31	-18.16
286.521	-20.47
286.732	-35.78
286.943	-34.71
287.154	-22.14
287.366	-18.7
287.577	-16.96
287.788	-12.62
287.999	-23.15
288.21	-32.13
288.421	-17.53
288.632	-19
288.843	-15.79
289.054	-11.23
289.264	-17.5
289.475	-20.78
289.686	-7.35
289.897	-4.9
290.108	-4.86
290.319	-1.88
290.53	-2.09
290.741	-11.02
290.952	-9.74
291.163	1.37
291.373	2
291.584	-2.82
291.795	-5
292.006	-6.44
292.217	-4.88
292.427	0.85
292.638	10.58
292.849	4.85
293.06	9.49
293.27	6.16
293.481	5.86
293.692	6.32
293.903	2.82
294.113	6.22
294.324	11.36
294.535	1.67
294.745	-2.1
294.956	13.49
295.167	8.71
295.377	10.85
295.588	16.02
295.798	13.84
296.009	6.27
296.22	5.88
296.43	4.28
296.641	-0.3
296.851	-0.15
297.062	-8.42
297.272	-4.28
297.483	-3.13
297.693	-0.78
297.904	-2.71
298.114	5.17
298.325	12.75
298.535	4.41
298.746	3.85
298.956	6.43
299.167	9.6
299.377	-1.64
299.587	2.98
299.798	-0.57
300.008	-11.82
300.219	-9.63
300.429	-8.72
300.639	-12.79
300.85	-10.19
301.06	-3.75
301.27	1.62
301.481	8.31
301.691	3.22
301.901	2.83
302.111	1.02
302.322	5.78
302.532	-3.42
302.742	-8.09
302.952	-5.52
303.163	-14.68
303.373	-16.74
303.583	-18.17
303.793	-12.77
304.003	-8.17
304.214	-2.24
304.424	-0.68
304.634	-1.35
304.844	5.86
305.054	11.14
305.264	12.13
305.474	11.65
305.684	6.52
305.894	9.82
306.104	16.4
306.314	18.49
306.525	18.65
306.735	10.5
306.945	9.91
307.155	9.11
307.365	12.54
307.575	18.68
307.784	16.05
307.994	17.69
308.204	12.07
308.414	14.77
308.624	9.18
308.834	19.98
309.044	19.06
309.254	17.27
309.464	18.07
309.674	15.38
309.884	11.26
310.093	12.92
310.303	8.4
310.513	10.14
310.723	6.27
310.933	6.44
311.142	10.61
311.352	12.3
311.562	17.53
311.772	16.8
311.981	14.23
312.191	15.15
312.401	16.03
312.611	20.19
312.82	17.9
313.03	20.19
313.24	10.92
313.449	11.45
313.659	6.8
313.869	1.89
314.078	4.27
314.288	6.81
314.497	0.95
314.707	-0.8
314.917	-7.43
315.126	1.89
315.336	2.74
315.545	3.05
315.755	6.66
315.964	0.85
316.174	8.16
316.383	7.64
316.593	4.91
316.802	2.89
317.012	-1.06
317.221	1.84
317.431	-0.92
317.64	-0.91
317.849	-6.94
318.059	-7.2
318.268	4.51
318.478	4.28
318.687	5.14
318.896	7.28
319.106	6.62
319.315	5.78
319.524	-3.86
319.734	-8.15
319.943	-3.7
320.152	-6.86
320.362	-8.53
320.571	-13.98
320.78	-18.1
320.989	-10.12
321.199	-9.98
321.408	-6.54
321.617	-9.24
321.826	-6.62
322.035	-10.01
322.245	-6.97
322.454	-4.17
322.663	-15.21
322.872	-17.18
323.081	-23.74
323.29	-21.99
323.5	-26.35
323.709	-21.75
323.918	-14.12
324.127	-20.22
324.336	-29.35
324.545	-30.91
324.754	-31.51
324.963	-36.26
325.172	-27.98
325.381	-34.8
325.59	-38.84
325.799	-46.23
326.008	-53.11
326.217	-53.02
326.426	-39.3
326.635	-37.84
326.844	-39.38
327.053	-31.65
327.262	-26.12
327.47	-23.07
327.679	-22.26
327.888	-21.15
328.097	-22.38
328.306	-22.38
328.515	-18.9
328.724	-13.01
328.932	-14.29
329.141	-7.01
329.35	-6.28
329.559	-8.5
329.768	-1.67
329.976	6.36
330.185	2.51
330.394	10.52
330.602	5.18
330.811	-3.31
331.02	-2.4
331.229	-2.72
331.437	3.86
331.646	-1
331.855	5.62
332.063	5.3
332.272	7.41
332.48	10.8
332.689	8.07
332.898	15.11
333.106	9.97
333.315	13.61
333.523	7.09
333.732	5.55
333.94	3.97
334.149	-1.41
334.357	-13.94
334.566	0.28
334.774	-0.55
334.983	1.02
335.191	-3.33
335.4	-7.83
335.608	-8.23
335.817	-29.19
336.025	-17.44
336.234	-36.29
336.442	-20.83
336.65	-23.81
336.859	-14.66
337.067	-17.82
337.275	-13.23
337.484	-7.83
337.692	-10.41
337.9	-8.76
338.109	2.06
338.317	-3.09
338.525	-1.43
338.734	7.15
338.942	-7.23
339.15	-24.87
339.358	-25.41
339.567	-4.87
339.775	0.09
339.983	-8.98
340.191	-2.01
340.399	-2.51
340.608	17.84
340.816	10.35
341.024	21.69
341.232	16.26
341.44	18.02
341.648	15.81
341.856	20.78
342.064	21.1
342.272	15.47
342.481	11.18
342.689	16.99
342.897	12.31
343.105	11.98
343.313	20.69
343.521	27.79
343.729	28.11
343.937	19.74
344.145	17.34
344.353	22.07
344.56	21.45
344.768	13.54
344.976	6.02
345.184	-0.14
345.392	-7.28
345.6	-8.86
345.808	-15.21
346.016	-16.71
346.224	-22.27
346.431	-14.06
346.639	-0.14
346.847	-0.92
347.055	-1.21
347.263	-0.87
347.471	-4.94
347.678	-10.5
347.886	-16
348.094	-13.56
348.302	2.57
348.509	0.02
348.717	1.38
348.925	4.49
349.132	1.36
349.34	-1.75
349.548	0.07
349.755	3.65
349.963	1.85
350.171	2.93
350.378	3.19
350.586	3.55
350.793	-2.79
351.001	-5.56
351.209	-5.28
351.416	2.86
351.624	6.05
351.831	2.62
352.039	1.71
352.246	-4.92
352.454	-9.96
352.661	-12.59
352.869	-3.22
353.076	-6.75
353.284	-10.22
353.491	0.78
353.699	-3.37
353.906	5.05
354.113	10.06
354.321	7.98
354.528	15.15
354.736	6.54
354.943	8.57
355.15	12.47
355.358	4.03
355.565	4.41
355.772	0.9
355.98	3.67
356.187	7.86
356.394	5.67
356.601	12.06
356.809	17.38
357.016	16.06
357.223	12.99
357.43	8.25
357.638	11.48
357.845	12.83
358.052	12.06
358.259	14.83
358.466	11.46
358.673	12.32
358.881	10.7
359.088	12.69
359.295	12.91
359.502	2.21
359.709	9.83
359.916	9.6
360.123	6.36
360.33	2.41
360.537	4.77
360.744	8.35
360.951	5.82
361.158	-0.66
361.365	0.3
361.572	15.44
361.779	19.66
361.986	20.7
362.193	16.01
362.4	14.94
362.607	3.39
362.814	1.22
363.021	6.41
363.228	1.41
363.435	9.67
363.641	11.06
363.848	16.17
364.055	6.91
364.262	18.37
364.469	11.52
364.676	12.78
364.882	10.22
365.089	8.98
365.296	10.74
365.503	11.56
365.709	4.66
365.916	-8.85
366.123	-6.17
366.33	-10.2
366.536	-8.98
366.743	-10.93
366.95	-12.17
367.156	-9.53
367.363	-13.26
367.57	-18.02
367.776	-17.81
367.983	-15.13
368.19	-11.89
368.396	-6.41
368.603	-17.27
368.809	-4.71
369.016	-1.82
369.222	1.73
369.429	6.5
369.635	10.75
369.842	9.77
370.048	14.85
370.255	19.37
370.461	20.32
370.668	27.4
370.874	28.4
371.081	33.97
371.287	42.46
371.494	38
371.7	38.6
371.906	36.86
372.113	34.34
372.319	29.31
372.526	33.65
372.732	29.75
372.938	25.46
373.145	22.04
373.351	18.73
373.557	19.44
373.763	12.07
373.97	10.76
374.176	16.08
374.382	12.85
374.588	11.58
374.795	7.48
375.001	-1.21
375.207	-4.8
375.413	-9.11
375.62	-9.69
375.826	-12.76
376.032	-9.34
376.238	-6.27
376.444	-11.13
376.65	-13.2
376.856	-30.32
377.062	-24
377.269	-11.04
377.475	-24.82
377.681	-38.93
377.887	-42.77
378.093	-44.05
378.299	-34.5
378.505	-35.56
378.711	-31.21
378.917	-34.63
379.123	-32.64
379.329	-25.7
379.535	-19.47
379.741	-17.39
379.947	-15.64
380.152	-14.47
380.358	-16.63
380.564	-13.46
380.77	-14.75
380.976	-13.32
381.182	-8.54
381.388	-8.1
381.594	-12.62
381.799	-3.22
382.005	3.21
382.211	7.72
382.417	16.22
382.623	2.21
382.828	1.82
383.034	1.12
383.24	4.69
383.445	7.65
383.651	0.78
383.857	-2.23
384.063	0.58
384.268	-20.21
384.474	-5.52
384.68	-8.4
384.885	-7.98
385.091	-4.47
385.296	-0.47
385.502	2.13
385.708	-2.69
385.913	-7.35
386.119	-14.02
386.324	-24.24
386.53	-26.35
386.735	-37.86
386.941	-17.66
387.146	-22.78
387.352	-17.66
387.557	-12.22
387.763	-11.2
387.968	-3.32
388.174	6.99
388.379	-1.7
388.585	0.37
388.79	-9.38
388.996	-9.88
389.201	-13.77
389.406	-20.92
389.612	-27.2
389.817	-14.05
390.022	-9.58
390.228	3
390.433	7.72
390.638	12.34
390.844	18.98
391.049	18.24
391.254	14.05
391.459	13.99
391.665	11.43
391.87	5.79
392.075	4.44
392.28	6.91
392.485	-0.34
392.691	4.56
392.896	2.87
393.101	3.1
393.306	10.61
393.511	14.32
393.716	21.57
393.922	19.65
394.127	5.92
394.332	6.63
394.537	0.41
394.742	-0.8
394.947	-0.04
395.152	-6.66
395.357	-8.92
395.562	-8.64
395.767	-16.36
395.972	-10.43
396.177	-11.93
396.382	-11.67
396.587	-12.11
396.792	-10.48
396.997	-7.71
397.202	3.03
397.407	-1.31
397.611	3.38
397.816	1.87
398.021	-7.72
398.226	-7.3
398.431	-6.68
398.636	-4.27
398.841	-1.83
399.045	-4.94
399.25	-16.21
399.455	-18.58
399.66	-11.17
399.864	-11.57
400.069	-10.46
400.274	-17.16
400.479	-11.22
400.683	-12.67
400.888	-19.41
401.093	-33.23
401.297	-35.53
401.502	-50.21
401.707	-52.22
401.911	-55.58
402.116	-57.74
402.321	-32.15
402.525	-25.03
402.73	-19.86
402.934	-22.97
403.139	-25.54
403.344	-19.27
403.548	-11.86
403.753	-15.46
403.957	-28.62
404.162	-40.51
404.366	-30.25
404.571	-20.77
404.775	-29.6
404.98	-27.96
405.184	-20.61
405.388	-11.29
405.593	-17.25
405.797	-15.24
406.002	-4.19
406.206	-11.55
406.41	-6.75
406.615	-6.79
406.819	-5.83
407.023	-7.59
407.228	-8.9
407.432	-15.66
407.636	-26.3
407.841	-15.09
408.045	-20.32
408.249	-26.11
408.453	-13.21
408.658	-14.66
408.862	-9.16
409.066	-3.36
409.27	-7.76
409.474	-19.27
409.679	-21.96
409.883	-15.47
410.087	-19.12
410.291	-16.8
410.495	-11.73
410.699	-20.21
410.903	-29.59
411.108	-20.55
411.312	-22.59
411.516	-28.55
411.72	-24.71
411.924	-18.89
412.128	-25.53
412.332	-14.88
412.536	-5.17
412.74	-1.7
412.944	-3.75
413.148	-16.06
413.352	-21.44
413.556	-18.04
413.76	-14.62
413.964	-11.42
414.167	-8.91
414.371	5.34
414.575	0.37
414.779	-7.57
414.983	2.82
415.187	4.87
415.391	-9.77
415.594	-3.3
415.798	2.28
416.002	-2.09
416.206	7.47
416.41	8.63
416.613	5.41
416.817	-4.25
417.021	-3.32
417.225	-0.06
417.428	-0.49
417.632	-2.47
417.836	-7.01
418.039	5.47
418.243	14.95
418.447	4.69
418.65	-1.35
418.854	-6.35
419.057	4.14
419.261	-7.59
419.465	-10.48
419.668	-6.17
419.872	-8.78
420.075	-18.13
420.279	-10
420.482	-9.48
420.686	-15.42
420.889	-19.02
421.093	-9.35
421.296	-12.31
421.5	-12.08
421.703	-9.42
421.907	-3.11
422.11	-7.09
422.314	-13.64
422.517	-20.38
422.72	-15.32
422.924	-22.03
423.127	-24.73
423.33	-38.69
423.534	-37.24
423.737	-33.33
423.94	-32.5
424.144	-20.75
424.347	-8.89
424.55	-11.64
424.754	-16.76
424.957	-8.7
425.16	0.17
425.363	4.25
425.567	3.23
425.77	3.33
425.973	7.74
426.176	-0.41
426.379	11.96
426.582	18.62
426.786	19.42
426.989	21.49
427.192	28.92
427.395	32.87
427.598	31.21
427.801	28.84
428.004	29.73
428.207	40.45
428.41	41.88
428.613	38.09
428.816	44.13
429.019	41.38
429.222	32.81
429.425	35.12
429.628	32.61
429.831	27.73
430.034	29.75
430.237	25.14
430.44	23.18
430.643	19.67
430.846	18.85
431.049	19.08
431.252	24.16
431.454	22.33
431.657	22.68
431.86	30.53
432.063	29.21
432.266	29.09
432.469	18.92
432.671	11.74
432.874	20.09
433.077	15.26
433.28	22.87
433.482	27.11
433.685	20.13
433.888	16.54
434.09	18.13
434.293	11.38
434.496	11.88
434.698	20.31
434.901	24.8
435.104	13.9
435.306	13.01
435.509	9.4
435.712	13.63
435.914	3.07
436.117	-2.8
436.319	12.12
436.522	5.02
436.724	7.51
436.927	8.49
437.129	-3.34
437.332	-10.71
437.534	-18.72
437.737	-28.51
437.939	-8.39
438.142	-6.86
438.344	2.67
438.547	-2.92
438.749	2.17
438.951	-5.25
439.154	-9.79
439.356	-6.14
439.558	-18.52
439.761	-21.97
439.963	-30.41
440.165	-23.25
440.368	-24.84
440.57	-64.97
440.772	-67.6
440.975	-70.67
441.177	-59.71
441.379	-50.62
441.581	-41.54
441.784	-45.57
441.986	-22.87
442.188	-36.06
442.39	-39.16
442.592	-43.81
442.795	-22.65
442.997	-27.41
443.199	-25.56
443.401	-24.12
443.603	-17.56
443.805	-18.97
444.007	-15.72
444.209	-14.89
444.411	-1.12
444.613	-2.46
444.815	16.28
445.017	16.1
445.219	24.64
445.421	20.83
445.623	19.12
445.825	26.47
446.027	25.51
446.229	9.27
446.431	20.07
446.633	19.44
446.835	25.07
447.037	18.51
447.239	21.47
447.441	18.71
447.643	14.16
447.844	-3.66
448.046	1.76
448.248	1.57
448.45	6.84
448.652	-10.13
448.853	0.92
449.055	-12.35
449.257	-10.99
449.459	-23.71
449.66	-17.67
449.862	-25.6
450.064	-24.52
450.266	-21.44
450.467	-14.06
450.669	-25.28
450.871	-24.45
451.072	-20.6
451.274	-36.38
451.475	-32.2
451.677	-15.73
451.879	-28.46
452.08	-23.15
452.282	-11.78
452.483	-14.97
452.685	-6.95
452.886	2.97
453.088	-16.02
453.289	-21.13
453.491	-21.58
453.692	-35.53
453.894	-23.26
454.095	-6.51
454.297	-8.63
454.498	-4.17
454.7	10.1
454.901	23.76
455.102	14.25
455.304	9.99
455.505	7.73
455.706	7.29
455.908	3.33
456.109	8.67
456.31	12.5
456.512	9.23
456.713	14.76
456.914	6.44
457.116	0.58
457.317	11.98
457.518	18.45
457.719	15.51
457.921	18.19
458.122	11.9
458.323	7.64
458.524	12.05
458.725	12.39
458.926	4.82
459.128	-2.07
459.329	-0.18
459.53	-3.46
459.731	2.19
459.932	-4.71
460.133	-2.33
460.334	0.97
460.535	0.09
460.736	9.31
460.937	-6.56
461.138	-0.67
461.339	4.71
461.54	5.28
461.741	-5.35
461.942	-7.14
462.143	-5.77
462.344	-4.52
462.545	-6.76
462.746	-13.32
462.947	-14.01
463.148	-8.52
463.348	-1.8
463.549	3.81
463.75	5
463.951	0.08
464.152	4.88
464.353	0.08
464.553	5.8
464.754	9.73
464.955	3.17
465.156	12.86
465.356	12.75
465.557	7.1
465.758	5.38
465.959	12.23
466.159	14.83
466.36	10.68
466.561	2.05
466.761	-3.75
466.962	-3.59
467.163	1.56
467.363	1.33
467.564	2.69
467.764	0.36
467.965	-4.82
468.166	-8.07
468.366	-2.63
468.567	2.23
468.767	0.42
468.968	-2.35
469.168	0.97
469.369	-2.73
469.569	-0.9
469.77	6.56
469.97	4.03
470.17	2.47
470.371	3.47
470.571	12.1
470.772	21.78
470.972	29.6
471.172	34.47
471.373	25.53
471.573	23.18
471.773	17.83
471.974	19.9
472.174	22.8
472.374	25.37
472.575	22.33
472.775	22.83
472.975	17.69
473.175	16.19
473.376	10.41
473.576	7.7
473.776	5.18
473.976	1.5
474.177	7.52
474.377	2.22
474.577	4.82
474.777	-1.34
474.977	-6.17
475.177	-7.45
475.377	-7.35
475.577	3.01
475.777	3.25
475.978	-1.1
476.178	-3.15
476.378	0.16
476.578	2.6
476.778	0.65
476.978	-5.25
477.178	-4.95
477.378	-2.79
477.578	0.08
477.778	0.46
477.977	1.31
478.177	0.31
478.377	-4.8
478.577	3.79
478.777	6.12
478.977	8.05
479.177	9.74
479.377	7.75
479.577	-1.26
479.776	1.08
479.976	-0.57
480.176	10.46
480.376	13.04
480.576	11.74
480.775	11.31
480.975	15.09
481.175	10.81
481.374	12.66
481.574	11.41
481.774	13.72
481.974	10.42
482.173	10.62
482.373	9.73
482.572	15.29
482.772	10.04
482.972	8.42
483.171	8.9
483.371	12.92
483.57	15.47
483.77	23.03
483.97	15.79
484.169	16.6
484.369	11.08
484.568	10.14
484.768	12.14
484.967	7.85
485.167	8.94
485.366	10.71
485.566	7.44
485.765	12.24
485.964	10.06
486.164	11.22
486.363	9.51
486.563	9.43
486.762	0.91
486.961	2.64
487.161	3.39
487.36	2.69
487.559	-2.78
487.759	-7.07
487.958	-12.58
488.157	-12.32
488.356	-9.88
488.556	-10.87
488.755	-13.5
488.954	-14.83
489.153	-12.51
489.353	-17.73
489.552	-13.41
489.751	-15.16
489.95	-21.41
490.149	-24.6
490.348	-19.73
490.548	-17.07
490.747	-20.79
490.946	-17.47
491.145	-20.37
491.344	-19.59
491.543	-14.96
491.742	-12.21
491.941	-10.67
492.14	-8.77
492.339	-10.61
492.538	-15.61
492.737	-11.95
492.936	-9.89
493.135	-13.21
493.334	-10.74
493.533	-9.7
493.732	-8.05
493.931	4.4
494.13	3.66
494.328	9.7
494.527	6.87
494.726	-0.13
494.925	0.11
495.124	1.37
495.323	4.57
495.521	-0.51
495.72	-2.31
495.919	-0.85
496.118	-0.37
496.316	0.27
496.515	4.33
496.714	4.18
496.913	5.84
497.111	6.19
497.31	5.58
497.509	4.53
497.707	5.9
497.906	11.32
498.105	2.26
498.303	1.5
498.502	-0.75
498.7	0.24
498.899	5.03
499.097	5.89
499.296	3.42
499.495	3.79
499.693	6.51
499.892	5.53
500.09	3.31
500.289	6.86
500.487	6.86
500.686	5.51
500.884	5.8
501.082	1.99
501.281	-1.61
501.479	2.29
501.678	6.02
501.876	7.33
502.074	3.13
502.273	3.69
502.471	3.85
502.669	3.73
502.868	4.37
503.066	8.39
503.264	10.27
503.463	10.26
503.661	6.27
503.859	5.25
504.057	8.99
504.256	8.01
504.454	5.21
504.652	4.5
504.85	8.39
505.048	11.79
505.246	12.73
505.445	15.51
505.643	11.91
505.841	9.88
506.039	8.07
506.237	2.5
506.435	9.47
506.633	12.07
506.831	15.69
507.029	15.35
507.227	17.46
507.425	21.37
507.623	25.39
507.821	22.22
508.019	26.38
508.217	24.89
508.415	25.68
508.613	25.52
508.811	25.39
509.009	23.21
509.207	20.27
509.405	20.57
509.603	20.25
509.8	22.98
509.998	23.37
510.196	21.39
510.394	25.61
510.592	20.98
510.79	18.73
510.987	16.15
511.185	17.01
511.383	9.49
511.581	4.36
511.778	6.24
511.976	13.04
512.174	7.18
512.371	6.04
512.569	4.81
512.767	6.97
512.964	3.85
513.162	-1.03
513.36	-1.23
513.557	-2.41
513.755	-3.85
513.952	-0.42
514.15	-1.34
514.348	-0.11
514.545	-1.23
514.743	-0.29
514.94	1.91
515.138	-1.16
515.335	-2.22
515.533	0.18
515.73	3.22
515.927	-2.31
516.125	-4.72
516.322	-1.38
516.52	-2.54
516.717	1.64
516.915	1.07
517.112	1.9
517.309	6.4
517.507	6.98
517.704	7.19
517.901	6.58
518.099	2.34
518.296	4.11
518.493	5.38
518.69	8.23
518.888	10.76
519.085	12.36
519.282	18.01
519.479	18.68
519.676	16.19
519.874	9.79
520.071	8.48
520.268	8.5
520.465	6.5
520.662	8.74
520.859	7.42
521.056	6.34
521.254	10.67
521.451	12.84
521.648	14.78
521.845	15.23
522.042	17.19
522.239	20.22
522.436	17.23
522.633	15.88
522.83	11.96
523.027	6.45
523.224	6.06
523.421	5.87
523.618	2.61
523.815	11.79
524.011	16.71
524.208	24.8
524.405	25.72
524.602	27.55
524.799	27.31
524.996	21.89
525.193	23.77
525.389	19.74
525.586	22.75
525.783	17.62
525.98	18.05
526.176	17.88
526.373	13.37
526.57	19.09
526.767	17.79
526.963	20.3
527.16	23.33
527.357	19.21
527.553	14.84
527.75	16.4
527.947	7.66
528.143	11.37
528.34	7.28
528.537	8.1
528.733	8.68
528.93	6.49
529.126	17.39
529.323	15.96
529.519	17.5
529.716	9.95
529.912	13.92
530.109	12.49
530.305	14.55
530.502	17.78
530.698	13.19
530.895	14.68
531.091	14.88
531.288	14.64
531.484	18.02
531.68	18.1
531.877	18.64
532.073	17.77
532.269	14.93
532.466	13.28
532.662	9.9
532.858	6.7
533.055	8.05
533.251	4.41
533.447	4.99
533.643	7.18
533.84	9.1
534.036	7.63
534.232	8.55
534.428	5.44
534.624	4.47
534.821	6.87
535.017	9.59
535.213	8.25
535.409	9.64
535.605	8.88
535.801	8.98
535.997	7.7
536.193	7.97
536.389	8.97
536.586	8.33
536.782	11.39
536.978	14.18
537.174	14.67
537.37	17.85
537.566	16.43
537.762	10.84
537.958	11.95
538.153	11.7
538.349	9.45
538.545	11.09
538.741	10.23
538.937	6.12
539.133	4.09
539.329	2.86
539.525	0.42
539.721	-0.5
539.916	1.09
540.112	-1.29
540.308	2.09
540.504	3.33
540.699	5.74
540.895	11.61
541.091	17.61
541.287	18.09
541.482	15.24
541.678	20.09
541.874	22.29
542.069	20.46
542.265	24.61
542.461	29.12
542.656	30.58
542.852	29.29
543.048	28.93
543.243	29.89
543.439	30.22
543.634	29.3
543.83	27.55
544.025	26.09
544.221	29.51
544.417	30.59
544.612	29.02
544.807	26.19
545.003	20.69
545.198	15.3
545.394	14.29
545.589	17.99
545.785	14.32
545.98	13.25
546.176	12.38
546.371	7.38
546.566	5.63
546.762	1.97
546.957	2.82
547.152	3.93
547.348	0.74
547.543	3.48
547.738	1.84
547.933	2.09
548.129	2.38
548.324	0.05
548.519	-5.87
548.714	-6.98
548.91	-4.75
549.105	-4.79
549.3	-4.85
549.495	-1.61
549.69	-5.41
549.885	-5.19
550.08	-1.46
550.276	-0.97
550.471	4.94
550.666	5.07
550.861	7.21
551.056	7.23
551.251	7.65
551.446	11.63
551.641	10.6
551.836	11.78
552.031	13.77
552.226	13.57
552.421	13.1
552.616	15.01
552.811	17.61
553.006	18.09
553.201	17.66
553.395	18.27
553.59	15.78
553.785	14.07
553.98	13.93
554.175	12.3
554.37	12.57
554.565	10.99
554.759	12.01
554.954	11.25
555.149	11.55
555.344	11.7
555.538	10.33
555.733	9.24
555.928	10.78
556.122	10.57
556.317	10.17
556.512	9.32
556.706	10.13
556.901	10.14
557.096	8.27
557.29	7.94
557.485	9.86
557.68	6.43
557.874	7.95
558.069	9.73
558.263	8.82
558.458	8.23
558.652	8.64
558.847	4.93
559.041	7.95
559.236	8.88
559.43	7.03
559.625	7.86
559.819	8.38
560.014	8.02
560.208	7.55
560.402	6.49
560.597	8.82
560.791	10.06
560.986	8.16
561.18	9.97
561.374	11.22
561.569	9.47
561.763	10.8
561.957	9.33
562.151	8.59
562.346	9.7
562.54	11.32
562.734	10.75
562.928	12.24
563.123	10.57
563.317	9.57
563.511	13.05
563.705	11
563.899	12.78
564.093	11.55
564.288	11.87
564.482	16.61
564.676	16.64
564.87	17.01
565.064	18.86
565.258	17.66
565.452	15.86
565.646	16.89
565.84	16.32
566.034	14.94
566.228	14.61
566.422	14.74
566.616	12.96
566.81	13.58
567.004	12
567.198	11.95
567.392	8.3
567.586	5.5
567.779	7.6
567.973	5.29
568.167	7.55
568.361	6.78
568.555	5.8
568.749	4.7
568.942	0.88
569.136	1.45
569.33	1.33
569.524	3.28
569.718	5.01
569.911	7.51
570.105	9.7
570.299	9.04
570.492	10.34
570.686	12.6
570.88	11.29
571.073	11.53
571.267	12.15
571.461	14.52
571.654	15.5
571.848	13.47
572.041	14.84
572.235	14.56
572.429	16.9
572.622	15.49
572.816	15.43
573.009	18.57
573.203	17.54
573.396	19.4
573.59	20.49
573.783	18.08
573.976	16.85
574.17	16.51
574.363	16.24
574.557	14.51
574.75	12.23
574.943	12.9
575.137	14.35
575.33	13.89
575.523	13.47
575.717	12.69
575.91	13.67
576.103	13.24
576.297	12.18
576.49	11.37
576.683	9.37
576.876	11.35
577.07	9.66
577.263	9.31
577.456	9.19
577.649	6.68
577.842	8.52
578.036	9.94
578.229	10.3
578.422	11.22
578.615	11.32
578.808	12.5
579.001	14.33
579.194	13.46
579.387	14.76
579.58	15.59
579.773	14.84
579.966	14.63
580.159	13.46
580.352	13.58
580.545	13.69
580.738	15.37
580.931	13.72
581.124	14.43
581.317	13.56
581.51	11.67
581.703	13.21
581.896	11.79
582.088	10.36
582.281	8.93
582.474	7.51
582.667	9.05
582.86	8.36
583.053	6.23
583.245	7.55
583.438	4.46
583.631	6.17
583.824	7.25
584.016	7.74
584.209	7.17
584.402	9.01
584.594	8.9
584.787	10.42
584.98	9.66
585.172	10.07
585.365	9.52
585.558	10.03
585.75	9.94
585.943	11.06
586.135	11.72
586.328	12.42
586.52	14.54
586.713	13.58
586.906	12.6
587.098	11.8
587.291	12.69
587.483	12.8
587.675	11.46
587.868	10
588.06	8.67
588.253	10.22
588.445	9.06
588.638	6.24
588.83	2.92
589.022	3.35
589.215	2.17
589.407	5.5
589.599	5.2
589.792	5.92
589.984	3.91
590.176	2.58
590.368	3.59
590.561	2.9
590.753	5.14
590.945	6.17
591.137	6.44
591.33	3.8
591.522	5.15
591.714	4.44
591.906	8.39
592.098	10.13
592.29	8.2
592.482	10.12
592.674	10.32
592.867	12.27
593.059	12.07
593.251	11.7
593.443	11.22
593.635	11.28
593.827	11.08
594.019	11.8
594.211	11.62
594.403	11.44
594.595	10.76
594.787	8.39
594.979	7.03
595.17	6.96
595.362	8.05
595.554	7.46
595.746	6.64
595.938	4.18
596.13	3.83
596.322	4.8
596.513	1.13
596.705	4.85
596.897	4.71
597.089	4.63
597.281	5.05
597.472	3.49
597.664	4.16
597.856	5.12
598.048	4.57
598.239	4.24
598.431	3.52
598.623	1.37
598.814	-0.57
599.006	1.66
599.197	3.95
599.389	4.26
599.581	3.76
599.772	5.62
599.964	7.26
600.155	8.48
600.347	7.81
600.538	7.55
600.73	4.79
600.921	4.61
601.113	3.82
601.304	5.39
601.496	7.97
601.687	6.59
601.879	2.92
602.07	4.46
602.262	4.51
602.453	5.58
602.644	5.98
602.836	7.74
603.027	7.7
603.218	6.85
603.41	5.66
603.601	6.19
603.792	5.51
603.983	5.11
604.175	4.13
604.366	5.13
604.557	6.46
604.748	6.69
604.94	7.24
605.131	6.69
605.322	5.29
605.513	4.89
605.704	6.73
605.895	8.92
606.086	8.05
606.278	9.03
606.469	9.14
606.66	11.43
606.851	10.5
607.042	8.98
607.233	8.08
607.424	8.69
607.615	8.14
607.806	7.75
607.997	7.5
608.188	7.89
608.379	7.09
608.57	6.7
608.761	7.3
608.952	6.6
609.142	8.11
609.333	7.36
609.524	6.88
609.715	5.92
609.906	4.15
610.097	5.11
610.287	4.12
610.478	3.65
610.669	3.03
610.86	4.19
611.051	4.47
611.241	4.17
611.432	5.12
611.623	6.79
611.813	7.22
612.004	6.01
612.195	6.01
612.385	7.65
612.576	8.47
612.767	8.39
612.957	7.75
613.148	7.98
613.338	9.28
613.529	9.48
613.72	9.24
613.91	10.71
614.101	9.02
614.291	9.63
614.482	10.07
614.672	8.52
614.863	8.27
615.053	7.2
615.243	8.33
615.434	8.73
615.624	6.74
615.815	6.85
616.005	6.77
616.195	5.21
616.386	4.55
616.576	4.86
616.766	5.49
616.957	6.56
617.147	6.67
617.337	5.31
617.528	3.55
617.718	3.05
617.908	2.15
618.098	3.27
618.289	4.23
618.479	5.16
618.669	7.46
618.859	8.77
619.049	11.5
619.239	11.6
619.43	9.64
619.62	10.14
619.81	11.28
620	11.53
620.19	11.67
620.38	11.54
620.57	12.75
620.76	12.44
620.95	13.31
621.14	12.18
621.33	13.52
621.52	14.01
621.71	13.04
621.9	12.82
622.09	12.75
622.28	12.75
622.47	10.09
622.659	7.98
622.849	6.57
623.039	6.49
623.229	6.65
623.419	7.14
623.609	6.91
623.799	5.59
623.988	4.81
624.178	5.11
624.368	5.28
624.558	5.21
624.747	5.32
624.937	3.98
625.127	3.52
625.316	3.29
625.506	3.8
625.696	5.63
625.885	4.85
626.075	4.9
626.265	4.73
626.454	5.24
626.644	7.26
626.833	7.03
627.023	4.82
627.212	3.34
627.402	4.07
627.591	4.93
627.781	4.15
627.97	5.01
628.16	5.88
628.349	5.27
628.539	4.19
628.728	4.56
628.918	4.63
629.107	5.74
629.296	3.59
629.486	4.2
629.675	4.91
629.865	6.41
630.054	5.21
630.243	3.93
630.432	3.46
630.622	3.74
630.811	5.01
631	6.27
631.19	6.81
631.379	6.46
631.568	6.01
631.757	6.52
631.946	6.3
632.136	6.15
632.325	6.41
632.514	7.11
632.703	5.93
632.892	5.72
633.081	5.24
633.27	7.83
633.459	7.09
633.648	5.68
633.837	6.1
634.026	7.09
634.215	9.52
634.404	9.43
634.593	10.58
634.782	10.02
634.971	9.94
635.16	9.37
635.349	8.23
635.538	9.07
635.727	8.24
635.916	6.66
636.105	6.79
636.294	7.32
636.482	5.72
636.671	5.98
636.86	6.82
637.049	8.21
637.238	7.17
637.426	8.42
637.615	8.88
637.804	8.07
637.993	8.18
638.181	7.19
638.37	8.64
638.559	7.83
638.747	7.17
638.936	7.88
639.125	9.91
639.313	8.9
639.502	8.04
639.691	9.02
639.879	9.43
640.068	9.52
640.256	8.43
640.445	9.48
640.633	10.55
640.822	10.61
641.01	11.01
641.199	10.96
641.387	10.11
641.576	10.05
641.764	11.56
641.953	11.23
642.141	10.84
642.329	10.76
642.518	8.2
642.706	8.61
642.894	7.38
643.083	5.48
643.271	7.22
643.459	8.07
643.648	8.23
643.836	9.51
644.024	9.19
644.213	10.37
644.401	9.28
644.589	7.44
644.777	7.38
644.965	6.19
645.154	5.73
645.342	5.69
645.53	6.85
645.718	4.66
645.906	5.13
646.094	4.17
646.282	2.99
646.47	4.26
646.658	3.45
646.846	2.89
647.034	3.96
647.223	3.46
647.411	2.87
647.599	1.23
647.786	1.31
647.974	0.57
648.162	0.12
648.35	0.03
648.538	1.27
648.726	1.7
648.914	3.16
649.102	3.86
649.29	3.57
649.478	2.11
649.665	3.57
649.853	3.87
650.041	3.61
650.229	5.1
650.417	4.7
650.604	5.34
650.792	6.69
650.98	5.75
651.168	4.18
651.355	4.4
651.543	5.13
651.731	5.12
651.918	4.77
652.106	4.72
652.294	5.71
652.481	6.31
652.669	6.18
652.856	5.31
653.044	6.67
653.231	6.46
653.419	6.96
653.606	7.17
653.794	7.37
653.981	9.65
654.169	8.46
654.356	8.7
654.544	8.59
654.731	8.27
654.919	7.8
655.106	8.54
655.294	9.45
655.481	9.57
655.668	10.51
655.856	9.9
656.043	10.44
656.23	9.34
656.418	8.98
656.605	8.33
656.792	8.14
656.979	6.51
657.167	7.33
657.354	7.03
657.541	6.6
657.728	4.43
657.916	2.49
658.103	2.25
658.29	2.46
658.477	2.65
658.664	2.39
658.851	2.77
659.038	4.01
659.225	2.62
659.412	3.04
659.6	1.77
659.787	3.51
659.974	2.51
660.161	3.95
660.348	3.78
660.535	5.58
660.722	4.38
660.909	4.08
661.095	3.55
661.282	3.42
661.469	3.25
661.656	4.41
661.843	5.24
662.03	4.63
662.217	5.78
662.404	5.71
662.59	5.38
662.777	4.83
662.964	5.01
663.151	4.84
663.338	4.57
663.524	4.03
663.711	2.72
663.898	2.32
664.085	2.13
664.271	1.62
664.458	1.11
664.645	2.7
664.831	3.92
665.018	3.86
665.204	4.54
665.391	4.76
665.578	4.55
665.764	4.1
665.951	4.38
666.137	3.13
666.324	3.25
666.51	2.94
666.697	2.77
666.883	2.25
667.07	2.52
667.256	3.07
667.443	3.24
667.629	4.45
667.816	3.75
668.002	3.53
668.188	3.72
668.375	3.71
668.561	1.67
668.747	-0.37
668.934	-0.77
669.12	-0.75
669.306	-1.67
669.493	-2.31
669.679	-1.42
669.865	-0.17
670.051	-0.12
670.238	0.24
670.424	1.22
670.61	1.63
670.796	2.15
670.982	1.89
671.169	0.58
671.355	-0.68
671.541	-1.03
671.727	-0.36
671.913	-0.16
672.099	-0.45
672.285	-1.69
672.471	0.4
672.657	1.73
672.843	2.26
673.029	0.77
673.215	2.4
673.401	6.6
673.587	4.04
673.773	3.99
673.959	4.29
674.145	3.63
674.331	3.19
674.517	4.29
674.703	3.22
674.888	3.69
675.074	3.58
675.26	5.53
675.446	5.55
675.632	5.39
675.817	5.49
676.003	5.56
676.189	6.13
676.375	4.85
676.56	4.57
676.746	3.29
676.932	2.55
677.117	0.31
677.303	-2.33
677.489	-1.09
677.674	-2.35
677.86	-3.72
678.046	-3.86
678.231	-3.74
678.417	-4.74
678.602	-4
678.788	-4.2
678.973	-2.44
679.159	-0.86
679.344	-0.63
679.53	-0.75
679.715	-1.62
679.901	-1.43
680.086	-2.2
680.272	-1.03
680.457	0.07
680.643	1.05
680.828	0.93
681.013	1.91
681.199	2.09
681.384	2.57
681.569	2.57
681.755	2.97
681.94	4.23
682.125	4.4
682.31	5.99
682.496	3.87
682.681	4.1
682.866	2.42
683.051	-0.44
683.237	-0.83
683.422	0.31
683.607	-0.81
683.792	-0.8
683.977	-1.62
684.162	-3.05
684.347	-4.19
684.532	-4.5
684.717	-3.33
684.903	-4.6
685.088	-5.54
685.273	-6.22
685.458	-5.44
685.643	-3.7
685.828	-5.89
686.013	-5.09
686.198	-6.71
686.382	-3.82
686.567	-2.61
686.752	-1.74
686.937	-1.2
687.122	-0.52
687.307	0.04
687.492	2.91
687.677	2.16
687.861	2.78
688.046	1.56
688.231	1.57
688.416	1.62
688.601	1.68
688.785	4.61
688.97	5.22
689.155	7.11
689.339	6.42
689.524	4.45
689.709	5.98
689.893	4.53
690.078	5.02
690.263	4.68
690.447	2.21
690.632	1.69
690.816	2.73
691.001	2.39
691.186	1.66
691.37	0.47
691.555	1.96
691.739	3.81
691.924	5.39
692.108	5.78
692.293	6.47
692.477	7.72
692.661	6.98
692.846	6.84
693.03	6.91
693.215	8.11
693.399	8.26
693.583	8.02
693.768	8.9
693.952	8.61
694.136	8.82
694.321	10.64
694.505	10.37
694.689	10.72
694.873	11.35
695.058	11.69
695.242	12.19
695.426	11.71
695.61	10.54
695.794	11.56
695.979	11.29
696.163	11.06
696.347	10.03
696.531	8.96
696.715	9.11
696.899	7.42
697.083	5.2
697.267	6.66
697.451	6.67
697.635	6.73
697.819	7.05
698.003	6.53
698.187	5.46
698.371	6.72
698.555	7.03
698.739	6.29
698.923	5.86
699.107	5.24
699.291	4.3
699.475	4.16
699.659	3.24
699.842	4.31
700.026	4.02
700.21	4.17
700.394	4.71
700.578	6.08
700.761	6.59
700.945	9.51
701.129	9.14
701.313	8.95
701.496	9.85
701.68	8.98
701.864	7.98
702.047	9.08
702.231	10.33
702.415	8.25
702.598	7.53
702.782	7.96
702.965	7.97
703.149	7.99
703.333	8.91
703.516	7.6
703.7	6.42
703.883	5.7
704.067	4.8
704.25	4.49
704.434	1.47
704.617	0.95
704.801	-0.9
704.984	-1.21
705.167	-1.53
705.351	-2.93
705.534	-3.46
705.718	-1.06
705.901	-2.52
706.084	-4.59
706.268	-2.53
706.451	-2.67
706.634	-3.16
706.817	-3.67
707.001	-4.02
707.184	-4.86
707.367	-4.57
707.55	-3.82
707.734	-2.74
707.917	-0.89
708.1	-0.09
708.283	1.45
708.466	1.32
708.649	0.67
708.832	-0.55
709.015	0.54
709.199	1.27
709.382	2.09
709.565	0.43
709.748	2.52
709.931	1.72
710.114	0.46
710.297	0.64
710.48	0.31
710.663	1.4
710.846	2.35
711.028	1.63
711.211	1.44
711.394	0.73
711.577	1
711.76	-0.83
711.943	-1.08
712.126	-1.1
712.309	1.1
712.491	2.71
712.674	3.04
712.857	3.25
713.04	1.99
713.222	2.27
713.405	2.44
713.588	2.05
713.771	3.42
713.953	3.42
714.136	3.79
714.319	4.77
714.501	2.86
714.684	2.87
714.866	3.98
715.049	4.24
715.232	4.51
715.414	3.5
715.597	3.85
715.779	3.38
715.962	4.19
716.144	2.12
716.327	1.88
716.509	2.37
716.692	0.19
716.874	0.77
717.057	1.84
717.239	2.51
717.421	2.07
717.604	-0.31
717.786	0.62
717.968	0.85
718.151	-0.5
718.333	0.7
718.515	1.18
718.698	0.69
718.88	1.15
719.062	0.65
719.244	0.7
719.427	1.29
719.609	1.76
719.791	1.33
719.973	1.99
720.155	1.33
720.338	2.12
720.52	3.07
720.702	3.81
720.884	3.4
721.066	2.69
721.248	-0.92
721.43	2.23
721.612	1.12
721.794	2.65
721.976	3.91
722.158	3.37
722.34	2.58
722.522	2.54
722.704	2.51
722.886	2.66
723.068	2.69
723.25	4.26
723.432	3.15
723.614	3.46
723.796	2.72
723.977	2.2
724.159	2.2
724.341	1.76
724.523	0.34
724.705	-0.54
724.886	-0.78
725.068	3.34
725.25	3.7
725.432	3.93
725.613	1.97
725.795	2.19
725.977	3.09
726.158	2.99
726.34	2.29
726.522	1.93
726.703	2.46
726.885	3.46
727.066	0.75
727.248	3.44
727.43	2.94
727.611	3.17
727.793	4.63
727.974	3.15
728.156	3.92
728.337	4.17
728.519	3.79
728.7	5.46
728.882	4.66
729.063	3.36
729.244	2.98
729.426	4.48
729.607	2.97
729.788	2.19
729.97	3.48
730.151	4.01
730.332	4.77
730.514	5.36
730.695	5.4
730.876	5.56
731.058	3.91
731.239	4.78
731.42	5.3
731.601	3.9
731.782	4.33
731.964	3.51
732.145	3.2
732.326	1.96
732.507	1.11
732.688	1.71
732.869	3.63
733.05	4.69
733.231	4.63
733.412	4.39
733.593	5.62
733.774	4.76
733.955	5.66
734.136	5.05
734.317	3.71
734.498	3.45
734.679	3.51
734.86	2.29
735.041	1.93
735.222	1.76
735.403	2.85
735.584	2.63
735.765	4.61
735.946	5.41
736.126	6.44
736.307	6
736.488	4.6
736.669	0.92
736.849	-0.57
737.03	-0.76
737.211	1.53
737.392	0.82
737.572	-1.68
737.753	-3.14
737.934	-0.62
738.114	0.03
738.295	-1.66
738.476	0.06
738.656	2.58
738.837	2.02
739.017	3.95
739.198	3.5
739.378	5.18
739.559	4.56
739.74	4.49
739.92	3.65
740.1	3.11
740.281	1.36
740.461	2.6
740.642	4.14
740.822	3.02
741.003	2.6
741.183	0.99
741.363	3.87
741.544	3.7
741.724	1.6
741.904	1.3
742.085	2.46
742.265	1.74
742.445	-0.66
742.626	-0.14
742.806	-1.96
742.986	-1.54
743.166	-1.94
743.347	-2.64
743.527	-1.59
743.707	-1.48
743.887	-1.91
744.067	-1.29
744.247	-1.65
744.427	-2.89
744.608	-2.1
744.788	-0.09
744.968	2.35
745.148	1.2
745.328	0.28
745.508	-0.44
745.688	0.06
745.868	-1.09
746.048	-2.79
746.228	-1.2
746.408	-2.56
746.588	-3.27
746.767	-1.83
746.947	-1.9
747.127	-3.2
747.307	-6.35
747.487	-5.64
747.667	-4.42
747.847	-1.22
748.026	-1.1
748.206	-0.75
748.386	-1.26
748.566	-3.38
748.745	-3.32
748.925	-2.02
749.105	-0.15
749.285	0.18
749.464	-0.32
749.644	1.09
749.824	1.88
750.003	0.43
750.183	-0.86
750.362	-0.11
750.542	-2.33
750.722	-3.95
750.901	-2.75
751.081	-1.11
751.26	-0.18
751.44	-1.1
751.619	-3.89
751.799	-3.56
751.978	-4.77
752.158	-5.57
752.337	-5.43
752.516	-5.95
752.696	-7.71
752.875	-8.05
753.055	-7.36
753.234	-6.11
753.413	-6.06
753.593	-4.89
753.772	-3.94
753.951	-0.83
754.13	-1.12
754.31	-1.65
754.489	-0.94
754.668	-0.99
754.847	0.15
755.027	-0.11
755.206	0.98
755.385	2.39
755.564	4.18
755.743	6.1
755.922	6.58
756.101	6.56
756.28	5.31
756.46	6.18
756.639	5.03
756.818	5
756.997	4.82
757.176	5.46
757.355	4.69
757.534	3.79
757.713	3.32
757.892	3.04
758.07	4.51
758.249	4.31
758.428	4.39
758.607	3.48
758.786	4.37
758.965	4.1
759.144	5.08
759.323	3.4
759.501	1.02
759.68	2.22
759.859	2.9
760.038	3.72
760.216	3.76
760.395	4.97
760.574	6.29
760.753	6.36
760.931	6.19
761.11	6.79
761.289	6.42
761.467	5.42
761.646	6.13
761.824	6.14
762.003	4.83
762.182	3.94
762.36	4.11
762.539	4.34
762.717	4.35
762.896	3.33
763.074	1.31
763.253	2.71
763.431	2.65
763.61	2.83
763.788	1.68
763.966	1.02
764.145	0.67
764.323	-0.07
764.502	-0.56
764.68	-0.99
764.858	-2.59
765.037	-0.24
765.215	-0.48
765.393	-1.32
765.571	-0.93
765.75	-0.07
765.928	-0.52
766.106	-1.81
766.284	-2.71
766.463	-2.36
766.641	-2.6
766.819	1.56
766.997	2.61
767.175	1.93
767.353	-0.02
767.531	0.89
767.71	1.27
767.888	1.18
768.066	-0.82
768.244	-0.64
768.422	-0.87
768.6	2.78
768.778	1.45
768.956	1.26
769.134	3.05
769.312	2.58
769.489	2.54
769.667	3.59
769.845	5.08
770.023	5.25
770.201	4.92
770.379	4.92
770.557	3.87
770.735	3.22
770.912	2.09
771.09	2.32
771.268	3.94
771.446	3.55
771.623	5.03
771.801	5.99
771.979	5.1
772.157	4.23
772.334	0.5
772.512	0.81
772.69	0.53
772.867	-0.96
773.045	-1.03
773.222	-0.27
773.4	1.04
773.577	1.42
773.755	1.65
773.933	1.42
774.11	1.07
774.288	0
774.465	0.09
774.643	-0.51
774.82	-0.1
774.997	-0.47
775.175	-0.17
775.352	1.17
775.53	3.32
775.707	3.85
775.884	5.29
776.062	6.86
776.239	7.14
776.416	10.21
776.594	9.02
776.771	8.26
776.948	9.12
777.125	8.02
777.303	5.34
777.48	4.61
777.657	5.02
777.834	4.79
778.012	5.08
778.189	5.14
778.366	6.27
778.543	5.32
778.72	4.14
778.897	5.11
779.074	3.33
779.251	2.64
779.428	1.98
779.605	0.73
779.782	1.01
779.959	-0.13
780.136	-0.94
780.313	2.16
780.49	1.83
780.667	2.27
780.844	2.34
781.021	5.27
781.198	4.36
781.375	4.15
781.552	4.6
781.728	3.61
781.905	4.4
782.082	5.6
782.259	6.64
782.436	5.97
782.612	3.36
782.789	2.29
782.966	0.74
783.143	2.36
783.319	2.53
783.496	2.55
783.673	2.87
783.849	2.68
784.026	0.62
784.203	1.13
784.379	-0.35
784.556	-0.12
784.732	-0.82
784.909	-0.32
785.085	-0.28
785.262	-0.55
785.438	1.7
785.615	1.67
785.791	1.46
785.968	0.36
786.144	0.66
786.321	5.98
786.497	4.98
786.673	4.88
786.85	2.24
787.026	1.37
787.203	-1.16
787.379	-2.15
787.555	-4.82
787.731	-4.6
787.908	-5.89
788.084	-5.12
788.26	-5.77
788.437	-5.77
788.613	-5.17
788.789	-7.5
788.965	-8.83
789.141	-11.21
789.317	-13.42
789.494	-16.17
789.67	-16.13
789.846	-15.51
790.022	-19.97
790.198	-19.26
790.374	-19.01
790.55	-17.69
790.726	-17.59
790.902	-15.16
791.078	-12.42
791.254	-12.44
791.43	-11.18
791.606	-11.6
791.782	-11.36
791.958	-12.79
792.134	-12.13
792.31	-13.01
792.486	-13.11
792.661	-10.85
792.837	-5.78
793.013	-4.95
793.189	-2.58
793.365	-1.2
793.54	0.93
793.716	1.16
793.892	3.08
794.068	2.46
794.243	3.78
794.419	2.85
794.595	2.64
794.77	1.27
794.946	4.8
795.122	3.35
795.297	4.45
795.473	5.07
795.648	7.8
795.824	5.7
796	5.44
796.175	6.51
796.351	4.03
796.526	0.98
796.702	0.38
796.877	-1.09
797.052	-1.61
797.228	-5.73
797.403	-7.25
797.579	-5.01
797.754	-3.9
797.929	-4.05
798.105	-2.81
798.28	-4.82
798.455	-3.94
798.631	-5.93
798.806	-5
798.981	-3.81
799.157	-6.09
799.332	-8.68
799.507	-4.8
799.682	-2.79
799.858	-0.46
800.033	2.76
800.208	2.09
800.383	3.82
800.558	5.83
800.733	7.06
800.908	7.38
801.083	10.98
801.258	8.07
801.434	9.91
801.609	8.51
801.784	10.79
801.959	11.51
802.134	10.54
802.309	7.74
802.484	6.87
802.658	7.38
802.833	7.01
803.008	7.47
803.183	4.37
803.358	3.14
803.533	2.93
803.708	0.96
803.883	0.59
804.057	-3.32
804.232	-1.56
804.407	-1.93
804.582	-0.04
804.756	-2.62
804.931	-4.72
805.106	-8.54
805.281	-4.85
805.455	-6.96
805.63	-5.87
805.805	-5.84
805.979	-3.89
806.154	-2.91
806.328	-5.04
806.503	-4.13
806.678	-3.74
806.852	-2.35
807.027	-3.6
807.201	-6.37
807.376	-5.02
807.55	-3.84
807.725	-2
807.899	-1.05
808.074	-1.72
808.248	1.6
808.422	0.17
808.597	-1.2
808.771	-0.44
808.946	1.69
809.12	5.44
809.294	5.1
809.468	7.25
809.643	8.3
809.817	7.03
809.991	7.8
810.166	8.61
810.34	10.43
810.514	10.2
810.688	10.98
810.862	10.69
811.037	12.41
811.211	12.13
811.385	13.15
811.559	12.47
811.733	13.17
811.907	10.46
812.081	10.27
812.255	11.63
812.429	10.59
812.603	4.97
812.777	2.18
812.951	-2.3
813.125	-3.89
813.299	-5.4
813.473	-5.8
813.647	-3.21
813.821	-4.5
813.995	-5.72
814.169	-7.55
814.343	-6.02
814.516	-3.02
814.69	-2.93
814.864	-5.52
815.038	-4.74
815.212	-6.81
815.385	-4.5
815.559	-5.55
815.733	-3.63
815.907	-4.06
816.08	-0.92
816.254	0.15
816.428	-2.41
816.601	-0.41
816.775	0.16
816.948	0.03
817.122	1.41
817.296	1.66
817.469	2.99
817.643	4.95
817.816	5.48
817.99	1.93
818.163	0.34
818.337	-1.67
818.51	1.53
818.684	1.95
818.857	3.27
819.031	-0.81
819.204	0.32
819.377	0.5
819.551	0.32
819.724	0.35
819.897	2.81
820.071	4.82
820.244	6.32
820.417	5.29
820.591	5.8
820.764	7.18
820.937	7.32
821.11	7.21
821.284	6.51
821.457	9.23
821.63	10.65
821.803	12.13
821.976	15.83
822.149	15.82
822.322	16.71
822.496	14.03
822.669	14.74
822.842	16.25
823.015	16.57
823.188	15.68
823.361	12.89
823.534	9.96
823.707	9.84
823.88	8.57
824.053	9.28
824.226	7.42
824.399	8.24
824.571	5.02
824.744	3.16
824.917	2.31
825.09	-0.07
825.263	1.96
825.436	2.2
825.608	-4.77
825.781	-3.42
825.954	-3.47
826.127	-3.79
826.299	-3.42
826.472	-5.12
826.645	-5.42
826.818	-1.34
826.99	0.61
827.163	2.71
827.336	1.94
827.508	2.62
827.681	3.42
827.853	5.56
828.026	4.38
828.198	7.75
828.371	9.54
828.544	8.84
828.716	8.31
828.889	5.24
829.061	3.22
829.233	7.89
829.406	5.85
829.578	4
829.751	8
829.923	8.66
830.096	7.51
830.268	7.82
830.44	4.34
830.613	6.1
830.785	5.14
830.957	5.73
831.129	8.02
831.302	7.68
831.474	5.31
831.646	9.3
831.818	6.06
831.991	4.34
832.163	8.81
832.335	9.78
832.507	11.08
832.679	11.69
832.851	7.83
833.023	6.31
833.195	4.46
833.368	-1.04
833.54	-2.86
833.712	-2.76
833.884	1.18
834.056	0.68
834.228	-0.1
834.4	4.59
834.571	6.13
834.743	4.63
834.915	1.68
835.087	4.16
835.259	3.35
835.431	1.05
835.603	2.31
835.775	-4.7
835.946	-3.97
836.118	-2.46
836.29	-2.87
836.462	-3.26
836.634	-3.01
836.805	-5.1
836.977	-2.59
837.149	-1.35
837.32	0.04
837.492	-3.15
837.664	0.72
837.835	-2.87
838.007	-11.78
838.179	-12.98
838.35	-3.86
838.522	1.62
838.693	1.86
838.865	-5.58
839.036	-5.44
839.208	-2.42
839.379	0.63
839.551	0.51
839.722	1.81
839.894	-1.8
840.065	0.25
840.237	1.1
840.408	3.61
840.579	6.52
840.751	2.25
840.922	0.2
841.093	-3.4
841.265	-5.23
841.436	-3.35
841.607	-0.92
841.778	0.76
841.95	-6.09
842.121	-7.52
842.292	-9.78
842.463	-2.91
842.635	5.26
842.806	4.67
842.977	1.53
843.148	-1.12
843.319	1.11
843.49	5.68
843.661	2.96
843.832	3.76
844.003	6.19
844.174	4.33
844.345	10.37
844.516	6.87
844.687	11.6
844.858	15.58
845.029	19
845.2	16.17
845.371	12.56
845.542	10.91
845.713	2.65
845.884	2.5
846.055	-4.72
846.225	-18.16
846.396	-20.85
846.567	-15.46
846.738	-14.47
846.909	-15.63
847.079	-21.34
847.25	-17.69
847.421	-21.96
847.591	-31.7
847.762	-35.59
847.933	-43.09
848.103	-33.08
848.274	-41.9
848.445	-45.07
848.615	-47.37
848.786	-48.88
848.956	-44.46
849.127	-39.09
849.297	-25.85
849.468	-15.33
849.638	-11.6
849.809	-1.99
849.979	-4.13
850.15	-5.4
850.32	-0.93
850.491	-3.66
850.661	3.63
850.831	4.96
851.002	8.16
851.172	15.49
851.342	18.67
851.513	21.45
851.683	18.38
851.853	21.27
852.024	19.15
852.194	15.17
852.364	22.87
852.534	21.95
852.705	25.77
852.875	22.2
853.045	18.7
853.215	17.39
853.385	15.5
853.555	17.63
853.725	14.75
853.895	10.04
854.066	8.84
854.236	8.48
854.406	7.01
854.576	10.41
854.746	3.97
854.916	6.59
855.086	4.26
855.256	11.57
855.425	12.07
855.595	18.63
855.765	19.29
855.935	10.45
856.105	11.06
856.275	8.63
856.445	5.87
856.614	-0.37
856.784	1.19
856.954	3.11
857.124	6.15
857.294	8.67
857.463	11.3
857.633	14.25
857.803	5
857.972	11.32
858.142	8.83
858.312	13.17
858.481	12.1
858.651	6.98
858.821	3.79
858.99	9.12
859.16	-4.21
859.329	6.01
859.499	9.24
859.668	14.07
859.838	11.53
860.007	20.92
860.177	26.26
860.346	30.89
860.516	28.58
860.685	21.22
860.854	21.05
861.024	17.73
861.193	15.03
861.363	19.5
861.532	19.6
861.701	19.55
861.87	19.29
862.04	18.48
862.209	25.45
862.378	30.16
862.547	24.31
862.717	29.62
862.886	21.35
863.055	15.48
863.224	16.29
863.393	10.98
863.563	4.44
863.732	3.33
863.901	-3.95
864.07	-2.54
864.239	3.67
864.408	4.61
864.577	3.94
864.746	8
864.915	8.04
865.084	7.02
865.253	1.21
865.422	-2.21
865.591	-1.09
865.76	-4.36
865.929	-10.49
866.097	-8.97
866.266	-12.05
866.435	-13.24
866.604	-10.63
866.773	-10.82
866.942	-10.31
867.11	-7.83
867.279	-9.34
867.448	7.7
867.617	10.98
867.785	10.66
867.954	-1.82
868.123	1.71
868.291	-11.02
868.46	-8.16
868.629	-7.77
868.797	-2.19
868.966	-7.92
869.134	-7.71
869.303	-2.12
869.472	-1.63
869.64	-5.57
869.809	2.35
869.977	-1.52
870.146	0.14
870.314	-3.51
870.482	-9.92
870.651	-13.44
870.819	-12.75
870.988	-17.74
871.156	-22.71
871.324	-34.28
871.493	-31.05
871.661	-15.89
871.829	-2.97
871.998	-1.55
872.166	-12.79
872.334	-11.54
872.502	-1.28
872.671	-3.95
872.839	8.6
873.007	14.71
873.175	19.37
873.343	9.68
873.512	21.73
873.68	21.52
873.848	20.22
874.016	29.43
874.184	25.91
874.352	21.27
874.52	22.12
874.688	23.02
874.856	29.43
875.024	27.56
875.192	14.87
875.36	7.9
875.528	10.84
875.696	19.26
875.864	17.67
876.032	25.79
876.199	27.04
876.367	19.97
876.535	12.82
876.703	16.94
876.871	24.56
877.039	24.51
877.206	34.42
877.374	33.12
877.542	40.54
877.71	49.79
877.877	54.9
878.045	59.33
878.213	54.94
878.38	56.75
878.548	63.95
878.715	67.95
878.883	72
879.051	68.19
879.218	59.04
879.386	56.48
879.553	52.83
879.721	55.68
879.888	63.37
880.056	75.75
880.223	73.4
880.391	75.29
880.558	90.82
880.726	75.92
880.893	72.85
881.06	56.4
881.228	60.15
881.395	53.99
881.562	50.47
881.73	53.02
881.897	49.73
882.064	51.58
882.231	56.44
882.399	53.36
882.566	56.83
882.733	71.1
882.9	82.01
883.068	79
883.235	69.09
883.402	49.76
883.569	39.3
883.736	53.3
883.903	53.77
884.07	43.27
884.237	44.91
884.404	52.25
884.571	65.19
884.738	51.47
884.905	59.22
885.072	61.23
885.239	63.79
885.406	68
