Data from Transmission_10-02-14-254.txt Node
Date: Fri Aug 24 10:02:14 EEST 2018
User: tibor.sos
Spectrometer: USB4F01757
Scans to average: 10
Trigger mode: 4
Integration Time (sec): 1.000000E-2
Electric dark correction enabled: true
Boxcar width: 10
XAxis mode: Wavelengths
Number of Pixels in Spectrum: 3648
>>>>>Begin Spectral Data<<<<<
178.758	93.11
178.974	177.86
179.191	160.84
179.407	101.43
179.624	97.68
179.84	65.2
180.057	53.12
180.273	74.66
180.489	104.58
180.706	88.43
180.922	82.29
181.138	66.14
181.355	77.82
181.571	79.1
181.787	112.95
182.004	94.71
182.22	131.39
182.436	203.84
182.653	127.96
182.869	111
183.085	138.88
183.301	139.83
183.518	106.98
183.734	120
183.95	143.09
184.166	146.09
184.383	157.23
184.599	161.45
184.815	136.58
185.031	111.75
185.247	143.51
185.463	166.17
185.68	165.17
185.896	160.58
186.112	207.65
186.328	178.68
186.544	200.43
186.76	212.39
186.976	181.84
187.192	179.88
187.408	220.38
187.624	247.67
187.84	204
188.056	176.05
188.272	160.41
188.488	170.71
188.704	161.54
188.92	193.18
189.136	169.5
189.352	176.52
189.568	218.25
189.784	186.02
190	166.57
190.216	173.73
190.432	194.23
190.648	216.99
190.864	505.03
191.08	412.99
191.296	191.2
191.511	190.29
191.727	241.16
191.943	180.21
192.159	123.14
192.375	105.53
192.591	145.29
192.806	208.84
193.022	109.74
193.238	139.41
193.454	151.34
193.669	229.94
193.885	348.26
194.101	482.04
194.317	299.84
194.532	1368.54
194.748	-1383.19
194.964	700.85
195.18	249.18
195.395	193.76
195.611	165.87
195.827	288.02
196.042	595.18
196.258	374.05
196.473	312.78
196.689	319.93
196.905	480.47
197.12	1594.06
197.336	507.47
197.551	-349.02
197.767	145800
197.982	370.46
198.198	2868.49
198.414	1898.88
198.629	433.72
198.845	366.39
199.06	397.57
199.276	291.46
199.491	840
199.707	301.34
199.922	199.46
200.137	209.52
200.353	192.39
200.568	159.19
200.784	167.06
200.999	189.77
201.215	284.88
201.43	281.95
201.645	233.05
201.861	261.03
202.076	287.3
202.291	335.18
202.507	301.21
202.722	182.76
202.937	438.65
203.153	392.14
203.368	243.33
203.583	185.46
203.798	186.7
204.014	187.72
204.229	200.32
204.444	285.96
204.659	576.77
204.875	1011.21
205.09	-2263.87
205.305	5550.94
205.52	-2427.64
205.735	-2099.4
205.951	13944
206.166	-721.52
206.381	-572.13
206.596	-5705.45
206.811	-1676.02
207.026	-1215.5
207.241	-323.37
207.457	1046.11
207.672	2408.26
207.887	-2970.09
208.102	-576.62
208.317	-572.83
208.532	1400
208.747	-1257.92
208.962	-742.08
209.177	1461.74
209.392	677.26
209.607	294.31
209.822	382.11
210.037	316.99
210.252	319.22
210.467	415.57
210.682	264.38
210.897	242.42
211.112	307.01
211.326	216.97
211.541	260.78
211.756	138.83
211.971	190.57
212.186	145.68
212.401	112.86
212.616	112.74
212.831	133.85
213.045	211.42
213.26	129.64
213.475	122.21
213.69	135.6
213.905	130.94
214.119	163.8
214.334	2837.04
214.549	300.4
214.764	-115.03
214.978	144.03
215.193	37.15
215.408	-333.33
215.622	-21.89
215.837	1177.78
216.052	-328.74
216.266	-153.42
216.481	-84.8
216.696	27.82
216.91	2721.21
217.125	255.93
217.34	270.47
217.554	431.35
217.769	-198.14
217.983	-54.76
218.198	-98.99
218.412	-170.42
218.627	338.98
218.842	258.72
219.056	183.55
219.271	138.66
219.485	107.48
219.7	120.95
219.914	94.91
220.129	312.66
220.343	184.23
220.558	126.45
220.772	124.13
220.986	149.85
221.201	384.14
221.415	-330.3
221.63	-78.05
221.844	-84.47
222.058	-132.39
222.273	-140.78
222.487	-101.05
222.702	-155.26
222.916	-188.69
223.13	-50.63
223.344	-73.09
223.559	-38.25
223.773	-14.54
223.987	-80.56
224.202	-80.93
224.416	-108.99
224.63	-54.88
224.844	-49.87
225.059	-61.83
225.273	-1428.28
225.487	996.8
225.701	127.84
225.915	64.16
226.13	95.46
226.344	100.51
226.558	83.89
226.772	56.9
226.986	78.29
227.2	66.78
227.415	72.87
227.629	83.69
227.843	45.42
228.057	38.46
228.271	33.21
228.485	24.62
228.699	44.48
228.913	51.58
229.127	39.75
229.341	7.73
229.555	0.47
229.769	-11.58
229.983	-93.57
230.197	-91.77
230.411	-84.66
230.625	-130.56
230.839	-78.29
231.053	-236.07
231.267	-303.7
231.481	-412.21
231.695	-103.9
231.909	-48.76
232.122	21.65
232.336	42.8
232.55	52.74
232.764	103.8
232.978	17.5
233.192	21.83
233.405	26.14
233.619	14.68
233.833	45.91
234.047	61.8
234.261	-63.72
234.474	88.5
234.688	-153.49
234.902	-121.27
235.116	61.73
235.329	84.98
235.543	11.32
235.757	19.22
235.97	11.65
236.184	12.75
236.398	32.77
236.612	61.84
236.825	59.56
237.039	84.27
237.252	122.09
237.466	251.95
237.68	681.36
237.893	-56600
238.107	15.02
238.32	-126.96
238.534	-18.71
238.748	95.93
238.961	115.62
239.175	155.56
239.388	85.13
239.602	157.77
239.815	98.97
240.029	19.87
240.242	10.16
240.456	18.61
240.669	9.21
240.882	15.48
241.096	-24.08
241.309	34.96
241.523	142.65
241.736	272.31
241.95	-490.5
242.163	377.44
242.376	121.41
242.59	88
242.803	-3186.67
243.016	-157.7
243.23	-186.55
243.443	-493.33
243.656	-374.44
243.87	3.75
244.083	67.85
244.296	76.69
244.509	79.92
244.723	85.79
244.936	99.53
245.149	103.39
245.362	87.47
245.576	65.18
245.789	69.78
246.002	59.52
246.215	73.3
246.428	106.08
246.641	130.38
246.855	157.35
247.068	146.69
247.281	80.73
247.494	85.98
247.707	110.72
247.92	126.97
248.133	127.74
248.346	138.71
248.559	115.05
248.772	111.77
248.985	89.2
249.198	84.2
249.411	87.77
249.624	91.71
249.837	86.87
250.05	97.07
250.263	83.71
250.476	72.16
250.689	54.92
250.902	33.28
251.115	21.16
251.328	24.29
251.541	21.58
251.754	22.48
251.967	23.9
252.18	24.26
252.393	22.26
252.605	4.61
252.818	-1.77
253.031	-5.2
253.244	-5.82
253.457	-11.82
253.67	-19.25
253.882	-20.8
254.095	-4.08
254.308	-1.02
254.521	-2.14
254.733	8.22
254.946	11.4
255.159	12.28
255.372	13.05
255.584	22.06
255.797	22.51
256.01	24.06
256.222	26.76
256.435	15
256.648	13.49
256.86	15.82
257.073	32.93
257.285	42.6
257.498	38.42
257.711	35
257.923	33.16
258.136	31.89
258.348	25.02
258.561	20.74
258.773	4.37
258.986	-2.75
259.198	-11.46
259.411	-57.51
259.623	-38.67
259.836	-36.89
260.048	-33.05
260.261	-3.22
260.473	-9.35
260.686	-1
260.898	0.97
261.111	-10.46
261.323	-8.4
261.535	-4.68
261.748	-1.26
261.96	5.79
262.173	17.34
262.385	19.97
262.597	20.9
262.81	28.75
263.022	15.5
263.234	25.86
263.447	33.43
263.659	35.87
263.871	40.22
264.083	38.62
264.296	33.79
264.508	29.06
264.72	24.09
264.932	35.93
265.145	20.52
265.357	11.4
265.569	5.2
265.781	5.99
265.993	-3.99
266.205	-10.63
266.418	-15.47
266.63	-27.46
266.842	-15.49
267.054	-7.6
267.266	-13.5
267.478	-11.45
267.69	3.48
267.902	-13.13
268.114	-22.67
268.326	-21.71
268.538	-24.36
268.75	-12.03
268.962	-9.27
269.174	-7.83
269.386	-1.22
269.598	20.15
269.81	24.69
270.022	28.93
270.234	24.79
270.446	29.74
270.658	26.66
270.87	30.16
271.082	26.73
271.294	22.19
271.506	16.89
271.718	17.75
271.929	21.17
272.141	21.35
272.353	25.4
272.565	26.77
272.777	30.67
272.989	33.73
273.2	44.67
273.412	44.44
273.624	41.67
273.836	40.29
274.047	44.11
274.259	50.81
274.471	54.69
274.683	53.88
274.894	55.68
275.106	60.26
275.318	61.54
275.529	67.36
275.741	66.56
275.953	73
276.164	73.66
276.376	80.63
276.588	83.81
276.799	87.8
277.011	87.35
277.222	90.88
277.434	85.28
277.646	63.55
277.857	72.74
278.069	77.91
278.28	70.95
278.492	62.08
278.703	55.35
278.915	52.86
279.126	53.61
279.338	51.24
279.549	49.48
279.761	45.14
279.972	36.85
280.183	36.04
280.395	35.1
280.606	38.26
280.818	31.15
281.029	29.97
281.24	27.93
281.452	21.96
281.663	23.16
281.875	24.85
282.086	35.67
282.297	25.58
282.508	28.4
282.72	32.84
282.931	35.69
283.142	30.8
283.354	25.19
283.565	20.84
283.776	14.73
283.987	2.08
284.199	-1.78
284.41	6.97
284.621	21.95
284.832	24.2
285.043	17.71
285.254	14.26
285.466	7.41
285.677	5.28
285.888	5.09
286.099	-2.49
286.31	4.93
286.521	-7.91
286.732	-1.92
286.943	-0.16
287.154	1.82
287.366	-4.2
287.577	-2.62
287.788	-4.24
287.999	2.11
288.21	-4.99
288.421	8.48
288.632	7.55
288.843	8.98
289.054	4.6
289.264	-3.62
289.475	-1.54
289.686	6.98
289.897	9.37
290.108	10.06
290.319	9.5
290.53	17.18
290.741	13.15
290.952	25.48
291.163	31
291.373	29.85
291.584	31.95
291.795	38.96
292.006	44.6
292.217	49.39
292.427	47.78
292.638	55.05
292.849	49.51
293.06	52.32
293.27	50.57
293.481	53.32
293.692	53.87
293.903	49.64
294.113	50.63
294.324	49.25
294.535	53.17
294.745	59.27
294.956	63.66
295.167	57.61
295.377	53.07
295.588	45.15
295.798	41.05
296.009	26.21
296.22	22.53
296.43	16.28
296.641	16.1
296.851	14.01
297.062	8.85
297.272	8.36
297.483	5.17
297.693	8.48
297.904	0.35
298.114	10.05
298.325	13.75
298.535	6.06
298.746	7.75
298.956	8.48
299.167	2.86
299.377	-6.04
299.587	-1.99
299.798	-0.82
300.008	-2.53
300.219	-0.86
300.429	14.2
300.639	14.14
300.85	14.69
301.06	12.64
301.27	19.14
301.481	24.1
301.691	18.95
301.901	21.97
302.111	17.02
302.322	23.7
302.532	16.55
302.742	13.83
302.952	11.63
303.163	14
303.373	14.39
303.583	24.88
303.793	24.93
304.003	27.34
304.214	23.19
304.424	25
304.634	19.83
304.844	15.95
305.054	19.03
305.264	14.36
305.474	18.01
305.684	13.77
305.894	14.21
306.104	16.6
306.314	15.76
306.525	17.5
306.735	15.2
306.945	8.74
307.155	7.39
307.365	15.75
307.575	17.16
307.784	16.82
307.994	10.67
308.204	13.34
308.414	11.69
308.624	8.42
308.834	10.5
309.044	11.83
309.254	15.97
309.464	16.41
309.674	19.67
309.884	12.27
310.093	18.27
310.303	14.92
310.513	21.62
310.723	20.42
310.933	23.5
311.142	26.47
311.352	30.01
311.562	34.66
311.772	33.64
311.981	28.99
312.191	25.12
312.401	27.06
312.611	26.41
312.82	23.38
313.03	27.15
313.24	25.63
313.449	30.47
313.659	25.97
313.869	24.4
314.078	27.09
314.288	29.78
314.497	23.32
314.707	29.01
314.917	25.2
315.126	32.54
315.336	26.69
315.545	18.84
315.755	20.09
315.964	16.97
316.174	20.53
316.383	17.75
316.593	20.5
316.802	17.15
317.012	15.43
317.221	19.87
317.431	15.41
317.64	15.53
317.849	11.61
318.059	9.52
318.268	10.32
318.478	11.78
318.687	10.31
318.896	10.95
319.106	6.8
319.315	7.76
319.524	-4.8
319.734	-5.01
319.943	-2.55
320.152	-1.67
320.362	-5.06
320.571	-4.43
320.78	0.86
320.989	10.56
321.199	16.68
321.408	21.92
321.617	16.66
321.826	18.53
322.035	15.08
322.245	12.93
322.454	18.79
322.663	16.81
322.872	12.57
323.081	10.37
323.29	11.56
323.5	7.46
323.709	8.22
323.918	12.84
324.127	10.05
324.336	5.59
324.545	1.04
324.754	8.12
324.963	-0.31
325.172	-0.16
325.381	-6.9
325.59	-11.21
325.799	-21.43
326.008	-24.39
326.217	-26.83
326.426	-20.69
326.635	-14.08
326.844	-13.1
327.053	-10.43
327.262	-8.43
327.47	-9.79
327.679	-8.58
327.888	-4.41
328.097	-4.23
328.306	-2.92
328.515	1.4
328.724	13.84
328.932	15.07
329.141	10.34
329.35	11.02
329.559	7.83
329.768	10.37
329.976	10.44
330.185	10
330.394	9.49
330.602	7.62
330.811	3.3
331.02	0.32
331.229	-5.39
331.437	0.4
331.646	0.06
331.855	6.71
332.063	8.8
332.272	6.96
332.48	6.57
332.689	7.51
332.898	4.43
333.106	-3.15
333.315	1.39
333.523	-0.64
333.732	-3.19
333.94	-3.93
334.149	-7.3
334.357	-6.95
334.566	0.24
334.774	11.98
334.983	17.19
335.191	8.65
335.4	7.25
335.608	11.4
335.817	2.34
336.025	10.58
336.234	7.22
336.442	12.93
336.65	8.37
336.859	14.97
337.067	14.84
337.275	32.64
337.484	30.01
337.692	37.33
337.9	50.41
338.109	63.91
338.317	65.07
338.525	60.84
338.734	63.78
338.942	62.15
339.15	54.07
339.358	44.89
339.567	54.56
339.775	52.53
339.983	45.12
340.191	37.8
340.399	42.88
340.608	46.59
340.816	44.56
341.024	51.59
341.232	47.88
341.44	45.59
341.648	34.69
341.856	39.36
342.064	32.31
342.272	25.17
342.481	23.54
342.689	24.79
342.897	25.67
343.105	21.15
343.313	26.3
343.521	28.71
343.729	31.26
343.937	26.81
344.145	26.31
344.353	33.29
344.56	35.73
344.768	32.75
344.976	28.66
345.184	21.66
345.392	21.02
345.6	26.07
345.808	24.29
346.016	25.81
346.224	24.19
346.431	24.15
346.639	31.4
346.847	31.17
347.055	30.88
347.263	28.37
347.471	25.67
347.678	21.14
347.886	16.33
348.094	24.88
348.302	22.15
348.509	22.44
348.717	21.74
348.925	27.17
349.132	24.42
349.34	23.3
349.548	31.29
349.755	26.1
349.963	20.47
350.171	18.35
350.378	19.83
350.586	20.84
350.793	13.99
351.001	5.16
351.209	5.74
351.416	15.63
351.624	17.69
351.831	12.97
352.039	13.18
352.246	13.27
352.454	5.43
352.661	10.24
352.869	22.61
353.076	24.43
353.284	22.21
353.491	29.69
353.699	29.22
353.906	28.83
354.113	35.07
354.321	33.53
354.528	35.23
354.736	34.11
354.943	28.2
355.15	29.97
355.358	30.7
355.565	22.38
355.772	20.01
355.98	24.63
356.187	31.98
356.394	26.18
356.601	28.09
356.809	32.58
357.016	33.66
357.223	29.13
357.43	18.91
357.638	23.02
357.845	16.77
358.052	13.13
358.259	16.44
358.466	14.8
358.673	20.7
358.881	17.72
359.088	16.71
359.295	17.47
359.502	12.49
359.709	12.59
359.916	13.93
360.123	10.24
360.33	-0.92
360.537	-11.05
360.744	3.21
360.951	-0.09
361.158	-1.44
361.365	-4.3
361.572	-4.23
361.779	9.17
361.986	7.68
362.193	8.64
362.4	11.6
362.607	3.47
362.814	-2.93
363.021	-4.91
363.228	-8.21
363.435	-1.32
363.641	-0.76
363.848	10.9
364.055	12.83
364.262	18.32
364.469	16.34
364.676	19.07
364.882	23.67
365.089	16.56
365.296	15.84
365.503	6.52
365.709	-2.2
365.916	-3.67
366.123	-5.64
366.33	-13.45
366.536	-5.58
366.743	-9.04
366.95	-15.74
367.156	-11.48
367.363	-8.69
367.57	-2.87
367.776	-5.34
367.983	-0.37
368.19	-2.47
368.396	-1.8
368.603	-4.15
368.809	2.89
369.016	5.26
369.222	-0.5
369.429	3.93
369.635	11.18
369.842	16.79
370.048	29.18
370.255	29.02
370.461	30.64
370.668	37.08
370.874	30.42
371.081	32.65
371.287	42.22
371.494	36.52
371.7	34.05
371.906	26.23
372.113	25.94
372.319	24.87
372.526	23.6
372.732	19.72
372.938	15.73
373.145	12.29
373.351	12.13
373.557	13.68
373.763	13.96
373.97	8.63
374.176	12.87
374.382	5.31
374.588	7.72
374.795	5.27
375.001	-5.52
375.207	-12.11
375.413	-11.22
375.62	-14.75
375.826	-2.38
376.032	2.62
376.238	4.52
376.444	-5.21
376.65	0.86
376.856	-1.21
377.062	3.21
377.269	17.76
377.475	13.6
377.681	16.33
377.887	17.16
378.093	8.15
378.299	15.48
378.505	7.24
378.711	15.07
378.917	12.29
379.123	14.35
379.329	22.81
379.535	31.08
379.741	29.78
379.947	30.67
380.152	21.63
380.358	16.23
380.564	22.18
380.77	28.58
380.976	24.29
381.182	19.95
381.388	22.18
381.594	14.68
381.799	24.82
382.005	23.46
382.211	28.86
382.417	31.92
382.623	27.34
382.828	35.71
383.034	37.4
383.24	31.1
383.445	23.04
383.651	21.55
383.857	16.9
384.063	19.14
384.268	17.48
384.474	29.38
384.68	33.04
384.885	31.15
385.091	31.51
385.296	25.91
385.502	31.87
385.708	33.09
385.913	36.19
386.119	23.16
386.324	26.27
386.53	22.65
386.735	23.19
386.941	25.46
387.146	16.73
387.352	12.35
387.557	29
387.763	37.79
387.968	27.18
388.174	22.29
388.379	20.06
388.585	17.03
388.79	9.82
388.996	12.92
389.201	14.31
389.406	3.55
389.612	1.19
389.817	0.1
390.022	3.3
390.228	9.23
390.433	13.52
390.638	9.04
390.844	8.43
391.049	1.77
391.254	2.51
391.459	9.98
391.665	6.6
391.87	0.48
392.075	7.56
392.28	17.59
392.485	28.24
392.691	20.07
392.896	18.81
393.101	20.53
393.306	22.2
393.511	25.76
393.716	26.6
393.922	28.62
394.127	30.81
394.332	32.56
394.537	28.06
394.742	26.82
394.947	32.55
395.152	31.04
395.357	33.41
395.562	35.26
395.767	32.72
395.972	35.16
396.177	32.27
396.382	30.06
396.587	26.33
396.792	20.81
396.997	31.94
397.202	35.93
397.407	30.4
397.611	30.6
397.816	31.43
398.021	30.2
398.226	26.49
398.431	21.87
398.636	18.29
398.841	24.33
399.045	30.98
399.25	21.51
399.455	25.44
399.66	29.51
399.864	26.54
400.069	23.81
400.274	27.02
400.479	27.8
400.683	23.77
400.888	28.15
401.093	28.64
401.297	22.52
401.502	13.9
401.707	14.36
401.911	17.79
402.116	11.96
402.321	37.47
402.525	47.4
402.73	58.8
402.934	58.5
403.139	51.38
403.344	41.05
403.548	44.24
403.753	36.33
403.957	24.63
404.162	18.13
404.366	20.39
404.571	13.03
404.775	15.27
404.98	20.51
405.184	23.21
405.388	26.51
405.593	27.76
405.797	27.92
406.002	34.25
406.206	34.29
406.41	32.26
406.615	24
406.819	22.93
407.023	28.16
407.228	27.13
407.432	21.88
407.636	14.37
407.841	21.41
408.045	20.24
408.249	24.1
408.453	30.45
408.658	26.2
408.862	32.24
409.066	32.52
409.27	39.42
409.474	31.76
409.679	20.7
409.883	14.81
410.087	13.86
410.291	10.15
410.495	1.86
410.699	-3.54
410.903	-6.24
411.108	-9.59
411.312	-31.85
411.516	-44.09
411.72	-29.19
411.924	-21.11
412.128	-23.6
412.332	-22.53
412.536	-18.4
412.74	-14.02
412.944	-7.78
413.148	-15.01
413.352	-15.48
413.556	-37.03
413.76	-32.09
413.964	-19.48
414.167	-6.46
414.371	-3.32
414.575	-2.81
414.779	-7.02
414.983	4.9
415.187	5.5
415.391	13.28
415.594	23.09
415.798	19.2
416.002	11.17
416.206	26.2
416.41	30.08
416.613	36.77
416.817	28.48
417.021	34.28
417.225	31.82
417.428	22.85
417.632	12.99
417.836	18.86
418.039	19.62
418.243	23.41
418.447	14.14
418.65	17.48
418.854	19.74
419.057	26.24
419.261	18.45
419.465	17.23
419.668	19.88
419.872	24.71
420.075	27.23
420.279	40.27
420.482	34.9
420.686	29.15
420.889	27.85
421.093	36.92
421.296	24.02
421.5	16.95
421.703	22.51
421.907	24.2
422.11	17.05
422.314	19.58
422.517	3.64
422.72	12.32
422.924	10.6
423.127	8.46
423.33	-4.75
423.534	-5.68
423.737	-6.37
423.94	-14.09
424.144	-14.55
424.347	-3.9
424.55	-8.85
424.754	-15.17
424.957	-21.36
425.16	-11.42
425.363	-8.06
425.567	0.25
425.77	3.77
425.973	2.61
426.176	-5.03
426.379	17.26
426.582	22.3
426.786	30.97
426.989	29.04
427.192	41.76
427.395	38.37
427.598	41.06
427.801	41.73
428.004	37.54
428.207	47.22
428.41	45.18
428.613	39.15
428.816	39.46
429.019	40.28
429.222	36.52
429.425	33.29
429.628	28.1
429.831	28.63
430.034	33.21
430.237	35.51
430.44	40.55
430.643	29.82
430.846	25.25
431.049	21.17
431.252	25.93
431.454	21.68
431.657	17.9
431.86	21.51
432.063	19.89
432.266	19.33
432.469	5.9
432.671	3.23
432.874	16.51
433.077	7.46
433.28	10.95
433.482	13.15
433.685	7.69
433.888	6.52
434.09	-0.03
434.293	-6.33
434.496	-9.33
434.698	-15.56
434.901	-9.23
435.104	-10.72
435.306	1.07
435.509	-11.95
435.712	-13.93
435.914	-18
436.117	-16.55
436.319	-2.81
436.522	2.04
436.724	1.86
436.927	3.87
437.129	1.61
437.332	-2.23
437.534	-3.82
437.737	-10.04
437.939	5.27
438.142	10.78
438.344	17.01
438.547	12.84
438.749	19.4
438.951	13.85
439.154	26.18
439.356	23.4
439.558	23.18
439.761	32.46
439.963	23.91
440.165	22.84
440.368	30.41
440.57	9.33
440.772	8.79
440.975	-3.14
441.177	2.24
441.379	-4.12
441.581	7.02
441.784	3.4
441.986	17.21
442.188	5.17
442.39	8.74
442.592	4.72
442.795	5.75
442.997	-2.78
443.199	0.3
443.401	-4.38
443.603	1.56
443.805	-6.75
444.007	-11.69
444.209	-5.53
444.411	6.35
444.613	1.79
444.815	12.64
445.017	13.81
445.219	26.32
445.421	27.93
445.623	21.69
445.825	17.02
446.027	10.43
446.229	-0.38
446.431	11.48
446.633	5.42
446.835	6.82
447.037	5.91
447.239	17.4
447.441	24
447.643	24.69
447.844	15.92
448.046	19.79
448.248	24.92
448.45	30.4
448.652	21.72
448.853	27.03
449.055	28.77
449.257	33.17
449.459	22.76
449.66	26.49
449.862	30.95
450.064	40.39
450.266	39.84
450.467	45.67
450.669	52.31
450.871	51.07
451.072	63
451.274	84.11
451.475	67.61
451.677	62.95
451.879	66.01
452.08	62
452.282	59.55
452.483	64.87
452.685	59.35
452.886	53.15
453.088	41.08
453.289	29.8
453.491	18.42
453.692	9.77
453.894	11.53
454.095	17.73
454.297	21.07
454.498	33.68
454.7	39.4
454.901	30.84
455.102	32.76
455.304	23.69
455.505	21.85
455.706	18.09
455.908	16.73
456.109	10.74
456.31	17.16
456.512	12.9
456.713	17.18
456.914	15.27
457.116	15.35
457.317	23.83
457.518	23.61
457.719	22.5
457.921	24.61
458.122	19.24
458.323	16.16
458.524	19.87
458.725	24.01
458.926	20.75
459.128	18.83
459.329	19.47
459.53	22.77
459.731	14.07
459.932	18.13
460.133	21.75
460.334	34.37
460.535	32.35
460.736	35.34
460.937	36.18
461.138	23.92
461.339	30.38
461.54	32.71
461.741	36.11
461.942	36.69
462.143	48.19
462.344	48.5
462.545	51.5
462.746	40.13
462.947	32.2
463.148	29.46
463.348	39.82
463.549	39.6
463.75	39.72
463.951	49.89
464.152	46.15
464.353	36.3
464.553	38.36
464.754	42.98
464.955	38.71
465.156	40.3
465.356	45.01
465.557	42.7
465.758	39.83
465.959	41.06
466.159	38.68
466.36	31.77
466.561	30.16
466.761	33.9
466.962	39.98
467.163	41.52
467.363	34.85
467.564	28.2
467.764	26.05
467.965	20.56
468.166	9.04
468.366	20.47
468.567	22.37
468.767	24.09
468.968	12.58
469.168	14.96
469.369	7.65
469.569	1.21
469.77	2.22
469.97	0.62
470.17	-1.71
470.371	-6.77
470.571	-8.81
470.772	-2.36
470.972	-9.49
471.172	-7.63
471.373	-17.36
471.573	-7.47
471.773	-6.76
471.974	-5.48
472.174	-7.39
472.374	1.78
472.575	-3.14
472.775	2.09
472.975	-8.72
473.175	-1.71
473.376	-4.25
473.576	0.86
473.776	7.41
473.976	5.17
474.177	8.57
474.377	7.02
474.577	12.36
474.777	13.61
474.977	9.36
475.177	12.89
475.377	14.02
475.577	19.34
475.777	17.55
475.978	11.78
476.178	12.9
476.378	17.27
476.578	24.14
476.778	18.65
476.978	15.56
477.178	20.2
477.378	22.89
477.578	21.93
477.778	17.86
477.977	17.52
478.177	15.16
478.377	11.1
478.577	9.23
478.777	15.86
478.977	13.23
479.177	10.26
479.377	7.92
479.577	3.1
479.776	5.59
479.976	0.72
480.176	11.36
480.376	9.18
480.576	8.19
480.775	3.38
480.975	10.85
481.175	11.62
481.374	13
481.574	13.56
481.774	16.41
481.974	17.13
482.173	13.85
482.373	12.46
482.572	15.44
482.772	18.62
482.972	15.48
483.171	18.84
483.371	27.28
483.57	26.32
483.77	29.43
483.97	27.32
484.169	32.35
484.369	28.49
484.568	27.94
484.768	29.2
484.967	26.22
485.167	24.51
485.366	25.45
485.566	21.36
485.765	22.9
485.964	16.55
486.164	14.88
486.363	16.75
486.563	18.41
486.762	18.21
486.961	20.51
487.161	20.45
487.36	19.03
487.559	11.66
487.759	9.32
487.958	5.46
488.157	4.39
488.356	4.36
488.556	5.12
488.755	4.1
488.954	3.15
489.153	6.75
489.353	7.21
489.552	4.57
489.751	5.42
489.95	-0.61
490.149	-2.53
490.348	0.54
490.548	6.2
490.747	8.3
490.946	10
491.145	8.59
491.344	9.1
491.543	6.05
491.742	12.08
491.941	14.11
492.14	15.3
492.339	13.07
492.538	12.46
492.737	11.47
492.936	13.01
493.135	16.1
493.334	9.47
493.533	3.16
493.732	10.45
493.931	17.59
494.13	19.34
494.328	25.34
494.527	25.32
494.726	15.87
494.925	9.8
495.124	6.96
495.323	6.15
495.521	7.44
495.72	9.8
495.919	9.02
496.118	10.25
496.316	9.21
496.515	8.94
496.714	4.85
496.913	11.29
497.111	13.8
497.31	8.12
497.509	11.36
497.707	15.32
497.906	12.08
498.105	2.3
498.303	2.35
498.502	1.39
498.7	3.32
498.899	2.95
499.097	6.51
499.296	7.71
499.495	10.72
499.693	10.18
499.892	11.67
500.09	12.6
500.289	16.64
500.487	17.28
500.686	20.67
500.884	18.79
501.082	14.5
501.281	9.17
501.479	10.66
501.678	14.64
501.876	12.79
502.074	15.44
502.273	20.61
502.471	21.53
502.669	20.97
502.868	20.52
503.066	26.43
503.264	30.06
503.463	30.79
503.661	26.68
503.859	24.97
504.057	29.12
504.256	24
504.454	21.81
504.652	20.84
504.85	22.71
505.048	25.41
505.246	21.84
505.445	23.52
505.643	23.65
505.841	22.12
506.039	22.06
506.237	20.95
506.435	16.93
506.633	14.23
506.831	18.12
507.029	15.7
507.227	17.32
507.425	19.14
507.623	20.63
507.821	19.5
508.019	19.47
508.217	19.07
508.415	22.53
508.613	23.22
508.811	24.63
509.009	21.91
509.207	22.49
509.405	22.44
509.603	21.52
509.8	22.53
509.998	21.45
510.196	20.34
510.394	16.73
510.592	17.93
510.79	16.52
510.987	15.36
511.185	19.33
511.383	15.02
511.581	6.85
511.778	4.25
511.976	8.85
512.174	3.29
512.371	-2.09
512.569	-2.85
512.767	-5.35
512.964	-8.32
513.162	-4.92
513.36	-7.4
513.557	-5.37
513.755	-4.5
513.952	-2.57
514.15	-7.07
514.348	-5.4
514.545	-0.44
514.743	5.2
514.94	10.6
515.138	7.41
515.335	5.39
515.533	4.2
515.73	5
515.927	5.95
516.125	-0.34
516.322	6.82
516.52	10.23
516.717	13.05
516.915	12.22
517.112	11.17
517.309	9.72
517.507	9.63
517.704	6.8
517.901	5.37
518.099	2.93
518.296	8.73
518.493	10.49
518.69	8.97
518.888	7.52
519.085	4.4
519.282	4.7
519.479	5.48
519.676	5.62
519.874	7.78
520.071	5.45
520.268	7.95
520.465	6.85
520.662	5.8
520.859	3.6
521.056	5.86
521.254	12.19
521.451	12.77
521.648	14.47
521.845	15.23
522.042	18.78
522.239	19.73
522.436	14.76
522.633	13.08
522.83	16.19
523.027	11.4
523.224	14.42
523.421	15.4
523.618	12.96
523.815	17.25
524.011	18.43
524.208	23.49
524.405	25.33
524.602	26.21
524.799	23.36
524.996	21.57
525.193	22.05
525.389	16.09
525.586	14.15
525.783	13.66
525.98	14.98
526.176	15.7
526.373	12
526.57	16.6
526.767	15.42
526.963	9.74
527.16	13.58
527.357	16.16
527.553	17.61
527.75	20.02
527.947	17.42
528.143	14.8
528.34	11.44
528.537	12.41
528.733	12.89
528.93	13.04
529.126	21.12
529.323	19.52
529.519	21.34
529.716	19.97
529.912	21.58
530.109	21.15
530.305	17.44
530.502	19.44
530.698	16.32
530.895	14.82
531.091	16.5
531.288	15.94
531.484	11.07
531.68	14
531.877	15.19
532.073	15.1
532.269	16.94
532.466	17.41
532.662	17.73
532.858	16.28
533.055	18.29
533.251	14.39
533.447	16.79
533.643	19
533.84	20.04
534.036	20.47
534.232	20.09
534.428	19.79
534.624	20.7
534.821	24.58
535.017	28.13
535.213	29.25
535.409	29.8
535.605	33.71
535.801	31.33
535.997	29.91
536.193	27.62
536.389	27.08
536.586	27.09
536.782	26.85
536.978	27.08
537.174	28.37
537.37	25.86
537.566	22.86
537.762	19.22
537.958	22.1
538.153	17.5
538.349	17.6
538.545	17.65
538.741	15.57
538.937	11.24
539.133	9.95
539.329	10.54
539.525	12.54
539.721	12.36
539.916	13.68
540.112	9.46
540.308	15
540.504	15.11
540.699	12.85
540.895	12.17
541.091	14.79
541.287	12.38
541.482	14.82
541.678	16.02
541.874	15.07
542.069	12.66
542.265	17.28
542.461	20.11
542.656	20.8
542.852	21.55
543.048	21.21
543.243	21.98
543.439	21.56
543.634	19
543.83	16.99
544.025	13.16
544.221	16.22
544.417	15.07
544.612	16.6
544.807	16.05
545.003	12.25
545.198	8.26
545.394	9.67
545.589	12.63
545.785	13.22
545.98	14.49
546.176	13.97
546.371	12.18
546.566	10.15
546.762	9.31
546.957	12.35
547.152	10.89
547.348	8.83
547.543	8.03
547.738	6.24
547.933	5.22
548.129	8.27
548.324	7.81
548.519	6.63
548.714	5.79
548.91	8.18
549.105	12.36
549.3	12.3
549.495	11.5
549.69	7.27
549.885	6.91
550.08	10.54
550.276	12.22
550.471	15.6
550.666	15.67
550.861	17.56
551.056	16.32
551.251	21.83
551.446	23.94
551.641	23.3
551.836	25.74
552.031	26.17
552.226	25.53
552.421	24.54
552.616	24.97
552.811	25.64
553.006	22.78
553.201	22.95
553.395	27.46
553.59	24.37
553.785	24.79
553.98	23.9
554.175	20.78
554.37	19.02
554.565	17
554.759	15.71
554.954	15.52
555.149	15.32
555.344	11.42
555.538	8.76
555.733	9.88
555.928	12.43
556.122	14.77
556.317	13.19
556.512	13.67
556.706	12.44
556.901	11.43
557.096	15.41
557.29	16.38
557.485	14.11
557.68	15.61
557.874	16.89
558.069	15.56
558.263	18.71
558.458	21.41
558.652	22.64
558.847	23.46
559.041	26.4
559.236	24.25
559.43	25.99
559.625	29.3
559.819	27.8
560.014	27.8
560.208	24.1
560.402	24.48
560.597	24.62
560.791	24.27
560.986	23.94
561.18	23.62
561.374	21.95
561.569	22.06
561.763	22.45
561.957	20.07
562.151	20.44
562.346	18.42
562.54	17.48
562.734	14.22
562.928	12.55
563.123	11.77
563.317	12.68
563.511	14.79
563.705	10.75
563.899	11.82
564.093	8.09
564.288	8.39
564.482	11.91
564.676	14.92
564.87	17.54
565.064	18.9
565.258	19.38
565.452	19.08
565.646	19.95
565.84	18.67
566.034	18.78
566.228	20.17
566.422	19.79
566.616	21.28
566.81	22.9
567.004	26.05
567.198	23.28
567.392	20.72
567.586	17.5
567.779	18.87
567.973	18.32
568.167	20.12
568.361	18.4
568.555	19.21
568.749	17
568.942	14.86
569.136	14.07
569.33	11.88
569.524	12.77
569.718	12.29
569.911	13.62
570.105	16.32
570.299	15.8
570.492	16.53
570.686	16.19
570.88	16.61
571.073	14.18
571.267	15.75
571.461	17.32
571.654	18.73
571.848	20.16
572.041	21.13
572.235	20.18
572.429	22.85
572.622	19.41
572.816	20.76
573.009	20.49
573.203	19.61
573.396	20.06
573.59	20.11
573.783	20.26
573.976	18.72
574.17	18.27
574.363	17.03
574.557	16.44
574.75	15.46
574.943	15.76
575.137	17.37
575.33	17.49
575.523	16.25
575.717	15.63
575.91	12.05
576.103	11.44
576.297	10.04
576.49	8.13
576.683	8.66
576.876	6.28
577.07	5.52
577.263	5.62
577.456	5.18
577.649	4.88
577.842	5.45
578.036	7.21
578.229	6.25
578.422	6.76
578.615	7.86
578.808	6.63
579.001	7.72
579.194	7.11
579.387	7.05
579.58	7.23
579.773	6.81
579.966	8.76
580.159	8.01
580.352	9.31
580.545	11.35
580.738	9.25
580.931	9.18
581.124	11.17
581.317	9.85
581.51	10.5
581.703	11.49
581.896	8.79
582.088	8.91
582.281	10.21
582.474	9.05
582.667	8.18
582.86	10.52
583.053	8.27
583.245	8.99
583.438	8.14
583.631	10.54
583.824	12.36
584.016	13.07
584.209	12.15
584.402	12.48
584.594	11.5
584.787	15.37
584.98	16.02
585.172	16.47
585.365	16.52
585.558	16.39
585.75	14.6
585.943	16.23
586.135	16.3
586.328	13.82
586.52	16.74
586.713	17.56
586.906	15.7
587.098	16.21
587.291	16.93
587.483	14.88
587.675	14.46
587.868	11.37
588.06	10.23
588.253	13.33
588.445	13.77
588.638	13.26
588.83	10.69
589.022	9.81
589.215	8.83
589.407	9.87
589.599	9.48
589.792	10.04
589.984	11.59
590.176	11.56
590.368	13.87
590.561	12.96
590.753	14.7
590.945	16.06
591.137	16.46
591.33	13.56
591.522	17.43
591.714	17.06
591.906	20.06
592.098	19.83
592.29	18.25
592.482	19.67
592.674	18.84
592.867	20.32
593.059	21.4
593.251	21.14
593.443	21.2
593.635	20.67
593.827	20.09
594.019	18.93
594.211	16.58
594.403	16.69
594.595	17.07
594.787	13.42
594.979	12.88
595.17	12.17
595.362	13.04
595.554	10.92
595.746	10.31
595.938	10.45
596.13	10.88
596.322	11.81
596.513	8.96
596.705	8.65
596.897	7.67
597.089	7.89
597.281	7.62
597.472	8.89
597.664	7.29
597.856	9.09
598.048	8.58
598.239	9.39
598.431	9.42
598.623	10.82
598.814	9.08
599.006	10.55
599.197	10.92
599.389	11.75
599.581	10.01
599.772	11.41
599.964	11.51
600.155	10.37
600.347	9
600.538	9.3
600.73	11.33
600.921	11.41
601.113	10.32
601.304	11.94
601.496	13.29
601.687	16
601.879	14.44
602.07	14.85
602.262	15.32
602.453	15.36
602.644	12.76
602.836	15.2
603.027	13.28
603.218	13.19
603.41	10.36
603.601	11.68
603.792	10.54
603.983	10.47
604.175	10.74
604.366	9.77
604.557	9.81
604.748	7.42
604.94	7.87
605.131	7.2
605.322	6.43
605.513	5.07
605.704	5.79
605.895	5.85
606.086	5.32
606.278	7.04
606.469	7.85
606.66	8.78
606.851	7.04
607.042	8.2
607.233	8.46
607.424	10.71
607.615	10.94
607.806	11.23
607.997	10.44
608.188	12.05
608.379	12.65
608.57	13.15
608.761	15.05
608.952	15.03
609.142	15.48
609.333	14.79
609.524	13.7
609.715	14.22
609.906	14.73
610.097	16.14
610.287	14.25
610.478	13.41
610.669	14.27
610.86	16.71
611.051	15.61
611.241	15.08
611.432	14.57
611.623	15.43
611.813	14.89
612.004	15.83
612.195	15.98
612.385	15.66
612.576	15.71
612.767	15.77
612.957	15.93
613.148	16.54
613.338	17.34
613.529	18.13
613.72	17.44
613.91	17.04
614.101	16.35
614.291	16.3
614.482	16.82
614.672	15
614.863	13.97
615.053	13.01
615.243	14.14
615.434	14.53
615.624	12.64
615.815	13.46
616.005	11.44
616.195	10.15
616.386	8.82
616.576	8.31
616.766	7.64
616.957	8.78
617.147	8.36
617.337	5.51
617.528	6.12
617.718	4.22
617.908	3.45
618.098	3.34
618.289	3.86
618.479	2.95
618.669	3.44
618.859	3.62
619.049	6.54
619.239	7.4
619.43	7.6
619.62	8.03
619.81	7.65
620	9.16
620.19	10.08
620.38	11.59
620.57	11.37
620.76	12.3
620.95	12.23
621.14	12.19
621.33	13.58
621.52	12.72
621.71	13.35
621.9	13.29
622.09	12.74
622.28	13.26
622.47	11.43
622.659	11.65
622.849	10.73
623.039	9.66
623.229	7.48
623.419	7.79
623.609	7.35
623.799	6.78
623.988	6.35
624.178	5.84
624.368	5.42
624.558	6.4
624.747	5.02
624.937	4.27
625.127	2.57
625.316	2.9
625.506	4.28
625.696	4.56
625.885	3.74
626.075	3.9
626.265	3.53
626.454	5.06
626.644	5.27
626.833	4.37
627.023	3.74
627.212	3.28
627.402	3.17
627.591	4.14
627.781	2.42
627.97	2.15
628.16	3.3
628.349	4.02
628.539	3.11
628.728	3
628.918	3.03
629.107	5.43
629.296	4.1
629.486	3.46
629.675	3.54
629.865	4.53
630.054	6.38
630.243	6.25
630.432	5.22
630.622	5.96
630.811	8.46
631	8.05
631.19	9.64
631.379	8.22
631.568	9.65
631.757	11.7
631.946	11.42
632.136	11.89
632.325	11.3
632.514	13.07
632.703	13.72
632.892	11.57
633.081	11.39
633.27	13.17
633.459	12.22
633.648	11.02
633.837	10.54
634.026	9.07
634.215	8.22
634.404	9.61
634.593	9.24
634.782	10.02
634.971	10.79
635.16	8.17
635.349	8.99
635.538	9.3
635.727	8.2
635.916	9.22
636.105	8.63
636.294	9.62
636.482	7.56
636.671	6.84
636.86	8.9
637.049	9.02
637.238	8.49
637.426	7.65
637.615	7.18
637.804	7.74
637.993	7.49
638.181	8.83
638.37	8.24
638.559	8.77
638.747	8.64
638.936	8.96
639.125	10.72
639.313	10.52
639.502	8.83
639.691	8.92
639.879	6.48
640.068	4.87
640.256	3.32
640.445	4.13
640.633	6.1
640.822	6.25
641.01	7.5
641.199	7.32
641.387	8.16
641.576	9.93
641.764	12.61
641.953	13.48
642.141	12.56
642.329	13.08
642.518	11.71
642.706	9.26
642.894	8.72
643.083	8.91
643.271	9.5
643.459	9.67
643.648	11.37
643.836	12.94
644.024	13.49
644.213	14.44
644.401	13.71
644.589	13.04
644.777	13.43
644.965	13.01
645.154	12.3
645.342	12.54
645.53	13.86
645.718	11.75
645.906	10.1
646.094	10.02
646.282	10.2
646.47	10.6
646.658	10.45
646.846	9.88
647.034	11.51
647.223	11.16
647.411	11.75
647.599	10.43
647.786	10.13
647.974	8.75
648.162	8.72
648.35	8.77
648.538	8.29
648.726	7.87
648.914	6.76
649.102	8.23
649.29	8.37
649.478	7.79
649.665	7.11
649.853	8.65
650.041	8.38
650.229	8.24
650.417	8.46
650.604	9.25
650.792	10.42
650.98	8.32
651.168	8.22
651.355	8.6
651.543	8.93
651.731	8.98
651.918	9.97
652.106	10.34
652.294	10.94
652.481	12.66
652.669	11.6
652.856	11.94
653.044	10.91
653.231	10.25
653.419	10.32
653.606	10.87
653.794	11.4
653.981	11.53
654.169	11.11
654.356	9.94
654.544	9.98
654.731	8.55
654.919	8.75
655.106	8.44
655.294	7.83
655.481	8.69
655.668	9.37
655.856	7.78
656.043	7.87
656.23	8
656.418	7.16
656.605	8.2
656.792	7.66
656.979	7.81
657.167	9.6
657.354	9.46
657.541	10.19
657.728	9.47
657.916	9.12
658.103	8.97
658.29	10.29
658.477	11.93
658.664	12.93
658.851	12.61
659.038	12.72
659.225	11.73
659.412	12.63
659.6	12.64
659.787	15.33
659.974	12.97
660.161	12.16
660.348	10.18
660.535	11
660.722	10.58
660.909	9.79
661.095	9.15
661.282	7.98
661.469	6.87
661.656	6.57
661.843	7.63
662.03	8.62
662.217	8.19
662.404	8.07
662.59	8.57
662.777	8.28
662.964	8.37
663.151	9.92
663.338	9.67
663.524	8.41
663.711	7.11
663.898	8.62
664.085	9.29
664.271	11.14
664.458	9.85
664.645	10.22
664.831	11.83
665.018	10.51
665.204	10.62
665.391	11.3
665.578	10.3
665.764	9.06
665.951	6.83
666.137	6.75
666.324	6.62
666.51	5.75
666.697	6.51
666.883	6.42
667.07	6.43
667.256	5.6
667.443	5.7
667.629	5.28
667.816	5.41
668.002	4.71
668.188	4.6
668.375	5.39
668.561	4.38
668.747	2.6
668.934	3.61
669.12	3.5
669.306	2.9
669.493	2.6
669.679	4.54
669.865	5.43
670.051	4.96
670.238	3.99
670.424	4.72
670.61	3.58
670.796	4.27
670.982	3.13
671.169	2.64
671.355	1.71
671.541	2.18
671.727	2.07
671.913	2.64
672.099	1.6
672.285	-0.9
672.471	0.45
672.657	1.6
672.843	3.03
673.029	3.8
673.215	4.23
673.401	7.74
673.587	4.72
673.773	6.11
673.959	5.86
674.145	6.46
674.331	6.44
674.517	6.56
674.703	6.73
674.888	7.84
675.074	7.39
675.26	8.93
675.446	9.21
675.632	8.77
675.817	8.15
676.003	8.21
676.189	9.8
676.375	9.88
676.56	8.23
676.746	6.34
676.932	4.3
677.117	3.97
677.303	2.02
677.489	3.88
677.674	1.64
677.86	1.89
678.046	1.58
678.231	0.93
678.417	1.75
678.602	0.46
678.788	-0.13
678.973	1.04
679.159	2.36
679.344	1.53
679.53	2.54
679.715	3.21
679.901	3.38
680.086	4.47
680.272	3.98
680.457	5.3
680.643	6.87
680.828	8.68
681.013	7.76
681.199	7.19
681.384	7.73
681.569	8.45
681.755	8.49
681.94	8.92
682.125	9.18
682.31	10.26
682.496	9.45
682.681	10.14
682.866	8.96
683.051	6.6
683.237	7.37
683.422	7.5
683.607	7.4
683.792	7.82
683.977	6.56
684.162	6
684.347	6.24
684.532	4.88
684.717	3.47
684.903	5.22
685.088	5.26
685.273	5.19
685.458	6.57
685.643	7.48
685.828	5.48
686.013	6.76
686.198	5.18
686.382	7.81
686.567	7.91
686.752	8.61
686.937	9.26
687.122	9.48
687.307	9.8
687.492	9.73
687.677	9.87
687.861	10.5
688.046	9.7
688.231	9.96
688.416	9.88
688.601	10.59
688.785	9.92
688.97	10.61
689.155	11.12
689.339	9.36
689.524	8.24
689.709	9.03
689.893	7.64
690.078	8.7
690.263	7.74
690.447	6.27
690.632	5.96
690.816	6.52
691.001	6.46
691.186	5.64
691.37	5.46
691.555	5.08
691.739	4.41
691.924	6.13
692.108	6.02
692.293	6.53
692.477	5.7
692.661	5.38
692.846	5.27
693.03	3.19
693.215	2.82
693.399	3.67
693.583	3.64
693.768	4.62
693.952	3.45
694.136	2.84
694.321	4.19
694.505	4.05
694.689	4.88
694.873	5.79
695.058	4.44
695.242	6.23
695.426	7.08
695.61	6.8
695.794	6.53
695.979	6.36
696.163	5.85
696.347	6.57
696.531	5.72
696.715	5.82
696.899	7.03
697.083	6.59
697.267	7.05
697.451	7.41
697.635	6.78
697.819	6.17
698.003	7.35
698.187	7.44
698.371	9.09
698.555	9.94
698.739	10.06
698.923	12.15
699.107	10.19
699.291	8.71
699.475	8.8
699.659	9.06
699.842	10.01
700.026	10.1
700.21	10.53
700.394	11.94
700.578	12.25
700.761	12.27
700.945	14.51
701.129	13.41
701.313	12.28
701.496	13.07
701.68	13.25
701.864	12.75
702.047	12.9
702.231	12.84
702.415	12.46
702.598	11.05
702.782	10.27
702.965	10.17
703.149	9.73
703.333	9.22
703.516	8.97
703.7	8.23
703.883	8.19
704.067	7.8
704.25	7.01
704.434	5.82
704.617	4.91
704.801	4.04
704.984	5.11
705.167	6.32
705.351	4.58
705.534	6.04
705.718	6.64
705.901	4.84
706.084	3.68
706.268	2.53
706.451	2.84
706.634	2.69
706.817	2.01
707.001	2.73
707.184	2.73
707.367	2.65
707.55	2.43
707.734	2.92
707.917	1.65
708.1	2.5
708.283	3.17
708.466	4.73
708.649	5.19
708.832	4.98
709.015	5.3
709.199	6
709.382	5.8
709.565	3.93
709.748	5.33
709.931	5.86
710.114	5.44
710.297	4.26
710.48	3.75
710.663	4.91
710.846	5.62
711.028	5.93
711.211	6.17
711.394	6.85
711.577	7.01
711.76	6.73
711.943	7.29
712.126	7.97
712.309	7.32
712.491	7
712.674	6.06
712.857	7
713.04	6.31
713.222	6.43
713.405	6.95
713.588	7.26
713.771	6.88
713.953	7.83
714.136	9.17
714.319	10.57
714.501	8.84
714.684	8.01
714.866	8.92
715.049	9.02
715.232	8.48
715.414	6.39
715.597	8.55
715.779	6.9
715.962	7.58
716.144	6.87
716.327	7.31
716.509	8.12
716.692	5.38
716.874	5.43
717.057	5.06
717.239	5.5
717.421	4.49
717.604	3.59
717.786	4.71
717.968	5.01
718.151	3.38
718.333	4.28
718.515	5.44
718.698	4.89
718.88	4.52
719.062	4.63
719.244	6.39
719.427	4.49
719.609	5.53
719.791	3.96
719.973	4.29
720.155	3.05
720.338	1.83
720.52	3.4
720.702	4.52
720.884	5.85
721.066	5.97
721.248	4.26
721.43	4.83
721.612	2.68
721.794	4.93
721.976	5.55
722.158	6.5
722.34	5.92
722.522	7.1
722.704	7.05
722.886	5.87
723.068	6.09
723.25	8.29
723.432	7.4
723.614	7.78
723.796	7.28
723.977	7.05
724.159	7.37
724.341	7.35
724.523	6.6
724.705	4.83
724.886	5.61
725.068	7.52
725.25	8.99
725.432	9.74
725.613	6.12
725.795	6.71
725.977	6.85
726.158	7.14
726.34	6.07
726.522	5.9
726.703	8.04
726.885	8.26
727.066	5.59
727.248	7.61
727.43	8.11
727.611	8.43
727.793	8.68
727.974	9.14
728.156	9.69
728.337	9
728.519	9.13
728.7	8.55
728.882	7.22
729.063	6.03
729.244	5.68
729.426	7.64
729.607	7.8
729.788	8.56
729.97	8.89
730.151	8.75
730.332	9.64
730.514	7.94
730.695	7.91
730.876	10.57
731.058	7.99
731.239	8.45
731.42	8.26
731.601	8.49
731.782	7.6
731.964	6.48
732.145	6.72
732.326	5.83
732.507	5.98
732.688	7.18
732.869	9
733.05	9.65
733.231	9.62
733.412	7.28
733.593	7.05
733.774	7.5
733.955	7.81
734.136	8.29
734.317	8.68
734.498	9.44
734.679	7.24
734.86	7.41
735.041	6.79
735.222	7.29
735.403	8.42
735.584	8.63
735.765	9.89
735.946	10.63
736.126	9.94
736.307	10.25
736.488	10.43
736.669	6.68
736.849	5.94
737.03	6.21
737.211	9.46
737.392	8.96
737.572	5.54
737.753	4.37
737.934	3.16
738.114	3.25
738.295	2.7
738.476	5.39
738.656	6.05
738.837	5.9
739.017	6.53
739.198	5.49
739.378	8.13
739.559	7.76
739.74	7.57
739.92	7.55
740.1	6.69
740.281	6
740.461	7.57
740.642	7.74
740.822	4.72
741.003	4.39
741.183	3.41
741.363	4.9
741.544	5.94
741.724	5.64
741.904	5.74
742.085	5.24
742.265	3.82
742.445	3.36
742.626	4.13
742.806	4.71
742.986	5.46
743.166	2.53
743.347	0.79
743.527	1.54
743.707	1.55
743.887	1.13
744.067	-0.82
744.247	0.85
744.427	1.65
744.608	3.33
744.788	4.46
744.968	5.66
745.148	7.26
745.328	6.76
745.508	5.81
745.688	4.64
745.868	3.59
746.048	3.77
746.228	4.3
746.408	3.23
746.588	2.16
746.767	3.36
746.947	4.83
747.127	5.27
747.307	3.87
747.487	4.31
747.667	4.75
747.847	8.02
748.026	7.33
748.206	6.78
748.386	8.19
748.566	6.71
748.745	6.23
748.925	5.58
749.105	6.85
749.285	7.77
749.464	7.98
749.644	8.43
749.824	9.3
750.003	9.22
750.183	7.48
750.362	6.5
750.542	3.39
750.722	3
750.901	3.19
751.081	2.53
751.26	3.33
751.44	3.26
751.619	2.24
751.799	1.61
751.978	0.47
752.158	-0.26
752.337	-1.44
752.516	-2.22
752.696	-2.15
752.875	-2.42
753.055	-2.61
753.234	-1.92
753.413	-1.59
753.593	-1.25
753.772	-0.86
753.951	0.16
754.13	2.04
754.31	2.74
754.489	3.45
754.668	4.72
754.847	5.66
755.027	6.55
755.206	6.81
755.385	8.49
755.564	9.2
755.743	9.53
755.922	8.6
756.101	9.26
756.28	10.46
756.46	10.68
756.639	9.16
756.818	9.55
756.997	9.77
757.176	9.51
757.355	8.36
757.534	7.21
757.713	7.88
757.892	5.69
758.07	7.35
758.249	6.13
758.428	5.39
758.607	5.53
758.786	5.33
758.965	4.59
759.144	3.21
759.323	1.4
759.501	1.2
759.68	2.04
759.859	2.51
760.038	2.1
760.216	1.39
760.395	3.48
760.574	3.54
760.753	4.67
760.931	5.51
761.11	6.07
761.289	5.26
761.467	5.3
761.646	6.05
761.824	4.65
762.003	3.98
762.182	3.61
762.36	3.69
762.539	4.28
762.717	4.83
762.896	5.22
763.074	6.82
763.253	7.82
763.431	8.92
763.61	8.05
763.788	7.56
763.966	7.66
764.145	6.57
764.323	6.18
764.502	4.18
764.68	3.91
764.858	2.2
765.037	5.11
765.215	5.5
765.393	6.89
765.571	8.02
765.75	7.82
765.928	7.44
766.106	6.03
766.284	5.16
766.463	5.07
766.641	5.29
766.819	4.56
766.997	4.56
767.175	3.8
767.353	4.14
767.531	5.46
767.71	5.45
767.888	5.28
768.066	5.79
768.244	6.67
768.422	5.75
768.6	9.22
768.778	7.35
768.956	5.98
769.134	6.13
769.312	6.35
769.489	7.32
769.667	8.3
769.845	9.57
770.023	9.74
770.201	10.27
770.379	9.18
770.557	8.81
770.735	8.17
770.912	6.81
771.09	6.04
771.268	6.17
771.446	5.82
771.623	7.8
771.801	7.96
771.979	6.63
772.157	7.2
772.334	4.38
772.512	5.75
772.69	6.23
772.867	4.94
773.045	5.46
773.222	4.16
773.4	4.56
773.577	4.99
773.755	5.32
773.933	5.29
774.11	4.56
774.288	4.93
774.465	5.67
774.643	6.43
774.82	9.31
774.997	7.6
775.175	7.65
775.352	8.56
775.53	8.13
775.707	9.05
775.884	9.21
776.062	10.94
776.239	10.8
776.416	11.41
776.594	10.74
776.771	9.66
776.948	11.23
777.125	10.6
777.303	9.41
777.48	7.78
777.657	7.35
777.834	8.73
778.012	7.47
778.189	7
778.366	7.51
778.543	3.38
778.72	4.93
778.897	6.13
779.074	1.89
779.251	4.17
779.428	3.42
779.605	3.25
779.782	1.8
779.959	1.32
780.136	-0.17
780.313	1.13
780.49	-0.37
780.667	-0.02
780.844	-0.19
781.021	0.86
781.198	1.74
781.375	2.7
781.552	1.75
781.728	2.1
781.905	2.21
782.082	3.61
782.259	3.43
782.436	1.59
782.612	0.22
782.789	0.55
782.966	-3.18
783.143	-1.13
783.319	-0.53
783.496	-0.25
783.673	-1.32
783.849	0.73
784.026	0.59
784.203	1.47
784.379	-0.18
784.556	1.54
784.732	1.96
784.909	2.37
785.085	2.58
785.262	5.35
785.438	8.04
785.615	7.95
785.791	7.61
785.968	8.93
786.144	9.31
786.321	11.35
786.497	11.88
786.673	11.22
786.85	10.84
787.026	9.96
787.203	9.29
787.379	9.15
787.555	6.71
787.731	7.34
787.908	6.07
788.084	9.44
788.26	8.37
788.437	9.45
788.613	7.95
788.789	4.73
788.965	2.79
789.141	2.46
789.317	-0.37
789.494	-3.48
789.67	-3.02
789.846	-3.03
790.022	-4.03
790.198	-4.02
790.374	-1.78
790.55	-5.5
790.726	-7.41
790.902	-6.36
791.078	-4.01
791.254	-3
791.43	-3.39
791.606	-1.95
791.782	-5.24
791.958	-7.63
792.134	-7.61
792.31	-7.42
792.486	-6.11
792.661	-6.52
792.837	-5.62
793.013	-4.28
793.189	-1.79
793.365	-1.39
793.54	0.47
793.716	-0.23
793.892	0.35
794.068	-1.3
794.243	2.09
794.419	4.52
794.595	4.55
794.77	4.66
794.946	5.72
795.122	5.06
795.297	5.38
795.473	7.06
795.648	9.98
795.824	8.64
796	11.44
796.175	12.45
796.351	11.23
796.526	10.98
796.702	10.77
796.877	9.78
797.052	10.59
797.228	9.51
797.403	9.89
797.579	11.26
797.754	10.46
797.929	8.7
798.105	9.27
798.28	7.3
798.455	7.92
798.631	8.29
798.806	9.3
798.981	8.72
799.157	7.18
799.332	5.03
799.507	6.13
799.682	5.08
799.858	5.62
800.033	6.68
800.208	3.83
800.383	5.13
800.558	5.9
800.733	6.08
800.908	6.39
801.083	5.95
801.258	3
801.434	7.32
801.609	8.44
801.784	8.21
801.959	10.03
802.134	7.92
802.309	6.37
802.484	4.51
802.658	7.14
802.833	5.51
803.008	7.96
803.183	7.97
803.358	8.82
803.533	8.06
803.708	9.28
803.883	11.02
804.057	9.63
804.232	9.97
804.407	10.13
804.582	10.32
804.756	10.51
804.931	11.19
805.106	8.12
805.281	10.37
805.455	9.41
805.63	10.42
805.805	10.68
805.979	13.65
806.154	15.84
806.328	13.61
806.503	16.82
806.678	14.06
806.852	14.28
807.027	12.43
807.201	10.63
807.376	10.6
807.55	9.3
807.725	8.97
807.899	9.89
808.074	11.26
808.248	13.82
808.422	13.65
808.597	15.88
808.771	20.13
808.946	19.65
809.12	19.11
809.294	17.16
809.468	18.01
809.643	17.03
809.817	15.08
809.991	12.7
810.166	10.88
810.34	9.47
810.514	9.71
810.688	9.5
810.862	10.08
811.037	12.04
811.211	12.91
811.385	14.74
811.559	14.22
811.733	13.93
811.907	10.65
812.081	9.82
812.255	6.73
812.429	2.1
812.603	0.08
812.777	-0.01
812.951	-1.4
813.125	-0.74
813.299	-5.32
813.473	-4.74
813.647	-0.97
813.821	1.14
813.995	2.55
814.169	1.86
814.343	4.53
814.516	6.54
814.69	3.45
814.864	3.13
815.038	3.32
815.212	3.31
815.385	1.22
815.559	2.32
815.733	4.66
815.907	6.23
816.08	9.3
816.254	9.19
816.428	7.88
816.601	11.78
816.775	10.78
816.948	11.56
817.122	12.68
817.296	13.26
817.469	14.43
817.643	15.72
817.816	14.07
817.99	11.3
818.163	12.28
818.337	10.88
818.51	10.11
818.684	13.18
818.857	12.2
819.031	11.08
819.204	10.45
819.377	8.96
819.551	9.91
819.724	5.75
819.897	5.27
820.071	8.28
820.244	4.84
820.417	4.19
820.591	6.37
820.764	6.68
820.937	9.21
821.11	5.17
821.284	7.27
821.457	9.94
821.63	10.93
821.803	8.39
821.976	12.92
822.149	15.2
822.322	13.12
822.496	11.28
822.669	15.06
822.842	15.31
823.015	14.93
823.188	15.34
823.361	17.26
823.534	16.74
823.707	15.31
823.88	14.59
824.053	15.27
824.226	12.4
824.399	11.33
824.571	9.4
824.744	12.01
824.917	12.78
825.09	8.6
825.263	11.42
825.436	18.21
825.608	15.75
825.781	17.27
825.954	18.72
826.127	23.28
826.299	19.66
826.472	21.88
826.645	25.21
826.818	23.95
826.99	21.59
827.163	19.26
827.336	20.19
827.508	21.79
827.681	19.81
827.853	21.45
828.026	21.69
828.198	23.49
828.371	26.1
828.544	26.66
828.716	30.32
828.889	27.9
829.061	19.54
829.233	19.29
829.406	15.83
829.578	12.64
829.751	7.87
829.923	9.14
830.096	5.1
830.268	4.12
830.44	1.99
830.613	6.23
830.785	11.22
830.957	8.35
831.129	8.25
831.302	10.68
831.474	8.9
831.646	12.24
831.818	8.1
831.991	5.04
832.163	7.39
832.335	8.43
832.507	6.87
832.679	11.9
832.851	12.97
833.023	12.64
833.195	16.86
833.368	17.86
833.54	19.81
833.712	18.68
833.884	20.16
834.056	22.34
834.228	20.91
834.4	20.97
834.571	26.11
834.743	26.84
834.915	26.36
835.087	25.81
835.259	21.51
835.431	23.35
835.603	21.7
835.775	14.93
835.946	14.22
836.118	16.97
836.29	14.27
836.462	10.65
836.634	9.79
836.805	2.35
836.977	3.3
837.149	3.97
837.32	7.62
837.492	7.15
837.664	4.77
837.835	4.05
838.007	-1.81
838.179	-3.91
838.35	-0.76
838.522	0.13
838.693	2.58
838.865	-0.27
839.036	-1.92
839.208	2.03
839.379	5.72
839.551	4.17
839.722	3.54
839.894	1.2
840.065	3.89
840.237	4.8
840.408	7.16
840.579	10.87
840.751	9.03
840.922	6.09
841.093	1.76
841.265	2.11
841.436	0.94
841.607	4.13
841.778	5.49
841.95	1.4
842.121	4.15
842.292	3.34
842.463	8.37
842.635	12
842.806	10.5
842.977	7.45
843.148	10.18
843.319	8.7
843.49	12.18
843.661	9.42
843.832	12.07
844.003	14.33
844.174	15.27
844.345	15.61
844.516	16.13
844.687	17.88
844.858	25.66
845.029	30.74
845.2	28.58
845.371	21.43
845.542	20.72
845.713	9.73
845.884	11.5
846.055	5.31
846.225	6.61
846.396	-1.15
846.567	3.18
846.738	-1.38
846.909	2.85
847.079	4.09
847.25	14.2
847.421	12.83
847.591	5.78
847.762	3.59
847.933	-1.59
848.103	4.23
848.274	5.54
848.445	-1.77
848.615	-6.33
848.786	-6.46
848.956	2.46
849.127	5.61
849.297	19.23
849.468	22.37
849.638	28.55
849.809	24.09
849.979	28.57
850.15	28.65
850.32	30.41
850.491	29.34
850.661	32.31
850.831	25.71
851.002	27.51
851.172	29.18
851.342	25.08
851.513	31.03
851.683	28.79
851.853	29.62
852.024	35.76
852.194	38.42
852.364	37.84
852.534	36.35
852.705	36.26
852.875	31.19
853.045	28.11
853.215	23.93
853.385	26.16
853.555	26.43
853.725	20.43
853.895	17.58
854.066	19.25
854.236	13.32
854.406	13.74
854.576	16.43
854.746	15.09
854.916	22.05
855.086	18.45
855.256	22.8
855.425	16.73
855.595	12
855.765	8.75
855.935	3.68
856.105	0.54
856.275	4.11
856.445	-2.01
856.614	-3.22
856.784	4.62
856.954	3.99
857.124	9.62
857.294	15.76
857.463	18.7
857.633	21.84
857.803	19.85
857.972	15.58
858.142	7.84
858.312	10.5
858.481	3.84
858.651	-4.98
858.821	-8.5
858.99	-4.73
859.16	-10.97
859.329	-9.49
859.499	-6.14
859.668	-0.12
859.838	-4.62
860.007	6.64
860.177	15.75
860.346	15.97
860.516	14.58
860.685	4.81
860.854	2.47
861.024	-2.61
861.193	-4.65
861.363	0.48
861.532	-1.73
861.701	-0.3
861.87	-0.58
862.04	3.74
862.209	11.91
862.378	18.4
862.547	17.2
862.717	16.45
862.886	19.31
863.055	20.62
863.224	16.51
863.393	16.34
863.563	16.46
863.732	16.86
863.901	9.61
864.07	15.74
864.239	18.22
864.408	21.69
864.577	24.97
864.746	28.13
864.915	28.7
865.084	33.88
865.253	31.84
865.422	34.12
865.591	35.17
865.76	32.61
865.929	23.92
866.097	21.49
866.266	30.51
866.435	28.47
866.604	29.9
866.773	35.43
866.942	35.49
867.11	34.96
867.279	25.6
867.448	36.31
867.617	31.9
867.785	40.51
867.954	36.61
868.123	41.43
868.291	22.6
868.46	20.42
868.629	30.71
868.797	41.32
868.966	45.24
869.134	36.86
869.303	41.94
869.472	41.6
869.64	42.12
869.809	39.4
869.977	39.12
870.146	36.86
870.314	40.38
870.482	41.09
870.651	35.06
870.819	35.5
870.988	27.06
871.156	27.59
871.324	22.79
871.493	21.36
871.661	24.46
871.829	35.44
871.998	39.39
872.166	33.52
872.334	36.27
872.502	33.48
872.671	37.73
872.839	42.94
873.007	45.36
873.175	42.49
873.343	35.02
873.512	38.96
873.68	38.33
873.848	25.81
874.016	27.12
874.184	27.5
874.352	29.19
874.52	32.53
874.688	29.47
874.856	38.38
875.024	36.63
875.192	33.57
875.36	37.4
875.528	34.83
875.696	37.65
875.864	35.48
876.032	32.61
876.199	32.15
876.367	29.4
876.535	24.57
876.703	25.69
876.871	41.6
877.039	40.52
877.206	44.34
877.374	52.47
877.542	53.11
877.71	64.31
877.877	66.87
878.045	74.77
878.213	80.31
878.38	79.33
878.548	99.14
878.715	103.4
878.883	93.36
879.051	104.58
879.218	91.37
879.386	87.15
879.553	95.82
879.721	89.69
879.888	83.69
880.056	94.59
880.223	120.71
880.391	120.52
880.558	112.53
880.726	115.01
880.893	106.44
881.06	93.86
881.228	97.9
881.395	84.85
881.562	82.23
881.73	66.96
881.897	64.63
882.064	44.99
882.231	7.41
882.399	17.84
882.566	-4.69
882.733	7.89
882.9	-13.33
883.068	-23.6
883.235	-25.97
883.402	-19.55
883.569	-8.7
883.736	3.7
883.903	10.33
884.07	15.79
884.237	-8.07
884.404	1.11
884.571	8.24
884.738	5.02
884.905	6.71
885.072	-12.91
885.239	13.46
885.406	13.31
