Data from Transmission_09-56-10-285.txt Node
Date: Fri Aug 24 09:56:10 EEST 2018
User: tibor.sos
Spectrometer: USB4F01757
Scans to average: 10
Trigger mode: 4
Integration Time (sec): 1.000000E-2
Electric dark correction enabled: true
Boxcar width: 10
XAxis mode: Wavelengths
Number of Pixels in Spectrum: 3648
>>>>>Begin Spectral Data<<<<<
178.758	-66.62
178.974	-138.93
179.191	-236.83
179.407	-102.24
179.624	-93.37
179.84	-77.78
180.057	-128.23
180.273	-86.66
180.489	-91.69
180.706	-187.5
180.922	-106.76
181.138	-71.01
181.355	-10.54
181.571	16.36
181.787	57.1
182.004	92.43
182.22	123.17
182.436	108
182.653	81.52
182.869	58.36
183.085	99.35
183.301	84.96
183.518	60.7
183.734	78.03
183.95	106.24
184.166	130.84
184.383	125.91
184.599	161.03
184.815	138.14
185.031	123.4
185.247	135.12
185.463	135.95
185.68	141.6
185.896	162.54
186.112	200.6
186.328	197.05
186.544	268.9
186.76	260.79
186.976	242.81
187.192	272.1
187.408	349.38
187.624	393.95
187.84	307.68
188.056	256.17
188.272	222.86
188.488	231.79
188.704	214.21
188.92	255.6
189.136	202.19
189.352	231.93
189.568	284.85
189.784	314.24
190	297.63
190.216	322.26
190.432	367.65
190.648	437.54
190.864	977.47
191.08	630.83
191.296	305.53
191.511	306.64
191.727	369.74
191.943	342.58
192.159	225.13
192.375	257.47
192.591	351.19
192.806	544.6
193.022	351.04
193.238	623.75
193.454	525.48
193.669	783.11
193.885	710.46
194.101	894.37
194.317	491.57
194.532	2287.64
194.748	-1600
194.964	556.37
195.18	266.5
195.395	244.9
195.611	211.86
195.827	402.36
196.042	668.27
196.258	273.05
196.473	202.06
196.689	180.25
196.905	278.59
197.12	859.41
197.336	390.04
197.551	-440.78
197.767	177200
197.982	427.12
198.198	3030.14
198.414	2530.34
198.629	587.53
198.845	370.72
199.06	513.69
199.276	334.3
199.491	1104.86
199.707	280.63
199.922	181.35
200.137	204.61
200.353	183.03
200.568	172.06
200.784	223.11
200.999	207.16
201.215	242.44
201.43	306.79
201.645	244.88
201.861	193.2
202.076	156.52
202.291	181.08
202.507	177.34
202.722	89.7
202.937	161.35
203.153	80
203.368	162.37
203.583	93.85
203.798	75.09
204.014	61.1
204.229	47.91
204.444	47.13
204.659	-14.62
204.875	159.5
205.09	-100.84
205.305	52.83
205.52	-94.31
205.735	-400
205.951	-432
206.166	-78.99
206.381	-137.85
206.596	-1585.45
206.811	-191.81
207.026	-215.5
207.241	-32.27
207.457	358.88
207.672	1438.02
207.887	-579.44
208.102	-36.74
208.317	-142.39
208.532	352.54
208.747	-382.51
208.962	-342.86
209.177	628.19
209.392	223.05
209.607	149.59
209.822	222.7
210.037	238.02
210.252	291.24
210.467	479.84
210.682	205.8
210.897	161.61
211.112	177.83
211.326	160.98
211.541	166.78
211.756	94.63
211.971	116.61
212.186	58.68
212.401	71.38
212.616	57.31
212.831	49.13
213.045	129.26
213.26	111.46
213.475	106.46
213.69	105.13
213.905	113.15
214.119	19.91
214.334	5022.22
214.549	633.2
214.764	-849.74
214.978	-617.06
215.193	-752.57
215.408	3189.74
215.622	-467.92
215.837	-3084.44
216.052	1200
216.266	266.33
216.481	363.73
216.696	204.91
216.91	-1345.45
217.125	85.11
217.34	153.37
217.554	43.24
217.769	25.06
217.983	49.35
218.198	-86.46
218.412	-141.48
218.627	286.86
218.842	251.94
219.056	143.23
219.271	160.88
219.485	258.96
219.7	205.05
219.914	135.86
220.129	228.88
220.343	166.48
220.558	66.26
220.772	93.64
220.986	145.16
221.201	201.16
221.415	-170.39
221.63	-29.79
221.844	-2.69
222.058	-23.8
222.273	-3.44
222.487	36.05
222.702	123.04
222.916	92.6
223.13	82.45
223.344	58.09
223.559	43.52
223.773	60.6
223.987	63.97
224.202	18.99
224.416	40.3
224.63	-1.33
224.844	-8.17
225.059	-44.36
225.273	-1115.15
225.487	774.4
225.701	129.88
225.915	86.29
226.13	79.26
226.344	118.88
226.558	118.06
226.772	86.29
226.986	99.63
227.2	103.63
227.415	105.06
227.629	115.11
227.843	104.86
228.057	94.84
228.271	85.16
228.485	91.4
228.699	98.02
228.913	93.54
229.127	97.47
229.341	109.74
229.555	115.13
229.769	163
229.983	154.26
230.197	134.45
230.411	201.23
230.625	89.98
230.839	-8.21
231.053	-55.17
231.267	-19.05
231.481	-114.55
231.695	160.96
231.909	123.8
232.122	89.33
232.336	106.92
232.55	116.18
232.764	109.95
232.978	143.76
233.192	105.12
233.405	274.77
233.619	187
233.833	59.13
234.047	191.17
234.261	107.26
234.474	70.18
234.688	-388.84
234.902	-206.98
235.116	-127.69
235.329	-88.83
235.543	-260.92
235.757	-141.27
235.97	-85.2
236.184	-36.54
236.398	29.36
236.612	74.34
236.825	115.9
237.039	120.38
237.252	94.66
237.466	271.86
237.68	996.61
237.893	-118800
238.107	-395.26
238.32	626.09
238.534	-211.99
238.748	-137.35
238.961	-44.86
239.175	-130.29
239.388	-237.26
239.602	-499.71
239.815	-202.66
240.029	-374.63
240.242	-292.6
240.456	-180.22
240.669	-144.11
240.882	-106.56
241.096	-94.24
241.309	-13.79
241.523	-128.14
241.736	-208.7
241.95	654.75
242.163	-670.68
242.376	-133.33
242.59	-694.4
242.803	7466.67
243.016	375.83
243.23	870.59
243.443	6080
243.656	-932.33
243.87	-168.54
244.083	-67.32
244.296	-26.42
244.509	-7.25
244.723	5.04
244.936	16.12
245.149	-30.74
245.362	-15.15
245.576	-15.31
245.789	-13.88
246.002	12.79
246.215	8.05
246.428	7.78
246.641	11.01
246.855	17.74
247.068	9.26
247.281	-10.55
247.494	-0.67
247.707	-5.93
247.92	-29.49
248.133	-2.38
248.346	-2.2
248.559	26.1
248.772	-10.53
248.985	8.67
249.198	9.47
249.411	-6.19
249.624	7.27
249.837	1.73
250.05	-4.68
250.263	-18.12
250.476	-11.39
250.689	-6.34
250.902	-5.22
251.115	-18.41
251.328	-6.12
251.541	11.76
251.754	19.17
251.967	20.4
252.18	20.47
252.393	20.1
252.605	19.95
252.818	29.11
253.031	20.58
253.244	23.91
253.457	17.05
253.67	24.85
253.882	33.69
254.095	24.23
254.308	33.8
254.521	33.19
254.733	29.84
254.946	28.89
255.159	29.36
255.372	32.56
255.584	41.53
255.797	37.23
256.01	17.4
256.222	14.35
256.435	19.24
256.648	19.05
256.86	22.53
257.073	25.28
257.285	26.81
257.498	25.34
257.711	28.84
257.923	28.17
258.136	17.82
258.348	11.03
258.561	15.74
258.773	-20.24
258.986	-26.28
259.198	-17.95
259.411	-58.44
259.623	-34
259.836	-27.13
260.048	-13.79
260.261	19.18
260.473	15.18
260.686	18.6
260.898	22.33
261.111	20.2
261.323	19.28
261.535	10.8
261.748	6.27
261.96	8.02
262.173	6.25
262.385	6.02
262.597	10.81
262.81	13.69
263.022	12.03
263.234	32.84
263.447	37.3
263.659	30.28
263.871	28.84
264.083	29.37
264.296	23.89
264.508	15.53
264.72	0.34
264.932	5.1
265.145	-9.28
265.357	-19.68
265.569	-26.25
265.781	-38.05
265.993	-58.34
266.205	-70.12
266.418	-57.68
266.63	-73.28
266.842	-51.23
267.054	-47.34
267.266	-45.81
267.478	-48.11
267.69	-53.86
267.902	-66.78
268.114	-64.35
268.326	-48.26
268.538	-53.39
268.75	-35.7
268.962	-29.57
269.174	-15.55
269.386	-3.9
269.598	13.93
269.81	19.82
270.022	23.27
270.234	32.85
270.446	43.64
270.658	43.76
270.87	44.1
271.082	43.45
271.294	40.04
271.506	37.82
271.718	41.07
271.929	41.42
272.141	37.8
272.353	40.32
272.565	43.81
272.777	48.02
272.989	47.21
273.2	52.26
273.412	50.94
273.624	50.12
273.836	53.2
274.047	56.3
274.259	59.79
274.471	61.54
274.683	54.14
274.894	52.6
275.106	48.19
275.318	46.2
275.529	46.26
275.741	42.09
275.953	46.63
276.164	43.95
276.376	42.49
276.588	50.53
276.799	52.4
277.011	47.68
277.222	52.27
277.434	51.03
277.646	38.23
277.857	55.64
278.069	58.72
278.28	46.34
278.492	24.8
278.703	14.91
278.915	17.97
279.126	29.47
279.338	22.74
279.549	29.6
279.761	33.63
279.972	35.86
280.183	36.32
280.395	28.01
280.606	27.52
280.818	23.43
281.029	20.93
281.24	23.31
281.452	17.38
281.663	11.91
281.875	16.56
282.086	24.09
282.297	10.43
282.508	6.87
282.72	13.45
282.931	26.49
283.142	21.51
283.354	16.8
283.565	4.77
283.776	9.7
283.987	-6.57
284.199	-15.45
284.41	-14.79
284.621	-10.65
284.832	2.34
285.043	8.71
285.254	4.48
285.466	3.96
285.677	-3.69
285.888	0.07
286.099	-3.76
286.31	-7.32
286.521	-25.28
286.732	-30.66
286.943	-20.62
287.154	-20.31
287.366	-25.38
287.577	-17.1
287.788	-18.74
287.999	-15.33
288.21	-21.26
288.421	-7.45
288.632	-6.53
288.843	0.05
289.054	5.34
289.264	-0.82
289.475	-6.2
289.686	2.66
289.897	4.28
290.108	8.56
290.319	7.29
290.53	7.44
290.741	14.69
290.952	26.74
291.163	29.49
291.373	24.74
291.584	26.73
291.795	29.97
292.006	28.57
292.217	27.22
292.427	30.02
292.638	33.09
292.849	29.61
293.06	29.53
293.27	24.31
293.481	23.32
293.692	26.82
293.903	32.16
294.113	24.36
294.324	27.63
294.535	22.35
294.745	21.18
294.956	34
295.167	22.92
295.377	17.14
295.588	22.01
295.798	26.34
296.009	19.4
296.22	16.64
296.43	12.42
296.641	10.93
296.851	6.26
297.062	2.94
297.272	5.33
297.483	2.55
297.693	3.38
297.904	0.37
298.114	6.79
298.325	1.31
298.535	0.49
298.746	2.82
298.956	8.32
299.167	7.47
299.377	-1.12
299.587	5.18
299.798	11
300.008	0.57
300.219	-5.88
300.429	-4.8
300.639	-0.95
300.85	3.72
301.06	3.76
301.27	14.28
301.481	18.59
301.691	14.82
301.901	16.54
302.111	15.98
302.322	16.23
302.532	9.76
302.742	10.45
302.952	17.25
303.163	1.22
303.373	-5.46
303.583	-3.04
303.793	-2.72
304.003	-1.04
304.214	-6.6
304.424	0
304.634	0.5
304.844	5.15
305.054	11.22
305.264	10.47
305.474	17.06
305.684	5.15
305.894	5.86
306.104	9.47
306.314	8.69
306.525	3.33
306.735	3.37
306.945	2.47
307.155	7.77
307.365	9.92
307.575	15.89
307.784	20.76
307.994	23.15
308.204	21.18
308.414	19.28
308.624	23.02
308.834	23.6
309.044	23.01
309.254	22.86
309.464	19.34
309.674	17.9
309.884	13.46
310.093	15.38
310.303	10.33
310.513	14.11
310.723	16.53
310.933	17.96
311.142	20.1
311.352	21.3
311.562	24.53
311.772	19.21
311.981	18.36
312.191	17.58
312.401	19.31
312.611	23.01
312.82	24.47
313.03	22.11
313.24	22.03
313.449	25.63
313.659	22.59
313.869	18.86
314.078	18.48
314.288	15.72
314.497	14.1
314.707	15.22
314.917	10.98
315.126	11.77
315.336	13.62
315.545	4.82
315.755	7.01
315.964	0.91
316.174	9.98
316.383	8.67
316.593	3.8
316.802	1.13
317.012	-3.04
317.221	0.69
317.431	0.12
317.64	0.61
317.849	-7.11
318.059	-6.95
318.268	-3.28
318.478	-3.43
318.687	1.95
318.896	3.23
319.106	4.12
319.315	5.13
319.524	-0.57
319.734	-5.82
319.943	-0.04
320.152	0.35
320.362	0.93
320.571	-4.09
320.78	-7.9
320.989	1.89
321.199	3.61
321.408	8.44
321.617	5.14
321.826	7.35
322.035	3.89
322.245	0.43
322.454	5.23
322.663	6.09
322.872	7.72
323.081	3.38
323.29	2.77
323.5	0.13
323.709	-0.6
323.918	2.61
324.127	6.2
324.336	-0.57
324.545	-2.45
324.754	0.24
324.963	4.96
325.172	16.45
325.381	12.42
325.59	12.39
325.799	7.13
326.008	1.59
326.217	-4.86
326.426	5.51
326.635	14.76
326.844	8.54
327.053	20.74
327.262	21.63
327.47	25.32
327.679	29.9
327.888	24.29
328.097	22.72
328.306	23.99
328.515	27.48
328.724	34.07
328.932	27.77
329.141	26.74
329.35	18.46
329.559	9.4
329.768	5.9
329.976	5.59
330.185	3.25
330.394	5.59
330.602	10.51
330.811	-0.61
331.02	-0.8
331.229	-1.67
331.437	-3.34
331.646	-3.6
331.855	-0.7
332.063	-0.22
332.272	1.54
332.48	-2.1
332.689	-7.85
332.898	-19.14
333.106	-20.4
333.315	-15.01
333.523	-11.81
333.732	-9.39
333.94	-5.8
334.149	-6.22
334.357	-14.77
334.566	-6.36
334.774	-1.86
334.983	2.63
335.191	-3.6
335.4	-3.77
335.608	-0.91
335.817	-18.17
336.025	-17.46
336.234	-36.13
336.442	-34.64
336.65	-25.79
336.859	-3.87
337.067	2.96
337.275	15.4
337.484	10.97
337.692	14.77
337.9	12.37
338.109	18.49
338.317	19.55
338.525	26.89
338.734	37.55
338.942	33.98
339.15	28.24
339.358	18.72
339.567	35.39
339.775	32.72
339.983	22.88
340.191	29.42
340.399	35.8
340.608	39.29
340.816	38
341.024	33.37
341.232	17.6
341.44	16.41
341.648	14.6
341.856	19.19
342.064	16.77
342.272	11.2
342.481	4.34
342.689	7.84
342.897	3.45
343.105	2.18
343.313	14.55
343.521	16.27
343.729	16.32
343.937	9.86
344.145	10.07
344.353	18.2
344.56	13.31
344.768	8.21
344.976	3.43
345.184	2.93
345.392	2.5
345.6	2.14
345.808	0.15
346.016	-8
346.224	-8.07
346.431	-9.84
346.639	-2.76
346.847	-0.62
347.055	-7.85
347.263	-8.21
347.471	-8.84
347.678	-26.47
347.886	-28.36
348.094	-22.79
348.302	-15.7
348.509	-15.7
348.717	-22.78
348.925	-17.89
349.132	-17.75
349.34	-19.38
349.548	-14.44
349.755	-8.79
349.963	-5.61
350.171	-7.31
350.378	0.06
350.586	-7.38
350.793	-4.73
351.001	-7.24
351.209	-8.26
351.416	1.28
351.624	3.35
351.831	-4.79
352.039	-1.97
352.246	-13.9
352.454	-22.76
352.661	-24.88
352.869	-28.69
353.076	-22.53
353.284	-19.29
353.491	-17.39
353.699	-21.55
353.906	-20.12
354.113	-21.09
354.321	-16.57
354.528	-12.84
354.736	-9.07
354.943	-5.9
355.15	-2.83
355.358	-8.75
355.565	-10.36
355.772	-10.58
355.98	-10.56
356.187	-7.24
356.394	-12.91
356.601	1.06
356.809	8.22
357.016	11.45
357.223	15.34
357.43	7.11
357.638	9.75
357.845	16.95
358.052	17.6
358.259	16.18
358.466	24.04
358.673	19.84
358.881	14.62
359.088	12.32
359.295	20.36
359.502	18.53
359.709	21.04
359.916	22.6
360.123	17.23
360.33	15.91
360.537	19.88
360.744	27.67
360.951	17.55
361.158	20.76
361.365	25.81
361.572	34.14
361.779	48.82
361.986	50.64
362.193	42.84
362.4	48.51
362.607	47.9
362.814	33.77
363.021	36.84
363.228	41.64
363.435	36.43
363.641	31.5
363.848	31.48
364.055	37.92
364.262	35.77
364.469	34.69
364.676	32.08
364.882	32.13
365.089	25.54
365.296	33
365.503	31.19
365.709	21.42
365.916	12.66
366.123	10.35
366.33	0.41
366.536	5.05
366.743	-1.56
366.95	-2.62
367.156	3.22
367.363	8.04
367.57	6.32
367.776	9
367.983	10.32
368.19	10.45
368.396	6.89
368.603	3.85
368.809	13.06
369.016	10.08
369.222	3.13
369.429	7.86
369.635	6.05
369.842	10.03
370.048	14.89
370.255	14.9
370.461	13.75
370.668	20.14
370.874	16.4
371.081	24.04
371.287	31.16
371.494	28.37
371.7	24.73
371.906	22.13
372.113	21.99
372.319	22.49
372.526	27.87
372.732	26.97
372.938	26.85
373.145	20.8
373.351	25.24
373.557	31.08
373.763	34.7
373.97	34.19
374.176	31.73
374.382	34.17
374.588	38.42
374.795	34.32
375.001	29.87
375.207	26.69
375.413	25.66
375.62	22.17
375.826	33.43
376.032	35.96
376.238	34.4
376.444	33.37
376.65	26.14
376.856	15.86
377.062	21.08
377.269	25.94
377.475	20.06
377.681	12.79
377.887	11.9
378.093	-3.39
378.299	0.13
378.505	-4.44
378.711	-4.1
378.917	-8.8
379.123	-1.42
379.329	5.22
379.535	11.67
379.741	11.79
379.947	9.36
380.152	9.27
380.358	5.51
380.564	3.58
380.77	-4.7
380.976	-7.42
381.182	0.69
381.388	4.03
381.594	6.26
381.799	17.78
382.005	21.56
382.211	22.57
382.417	31.86
382.623	30.28
382.828	33.25
383.034	29.92
383.24	31.41
383.445	34.97
383.651	30.84
383.857	32.38
384.063	31.89
384.268	18.98
384.474	5.9
384.68	9.3
384.885	13.4
385.091	23.38
385.296	28.73
385.502	31.11
385.708	25.12
385.913	20.36
386.119	16.14
386.324	21.14
386.53	20.15
386.735	19.62
386.941	26.18
387.146	27.27
387.352	26.34
387.557	36.17
387.763	35.11
387.968	39.15
388.174	34.17
388.379	37.97
388.585	47.49
388.79	54.54
388.996	44.53
389.201	56.44
389.406	46.09
389.612	41.4
389.817	40.31
390.022	40.93
390.228	49.78
390.433	51.38
390.638	41.62
390.844	45.82
391.049	35.72
391.254	29.05
391.459	24.53
391.665	18.65
391.87	10.78
392.075	11.63
392.28	12.42
392.485	13.87
392.691	6.64
392.896	0.48
393.101	1.6
393.306	13.71
393.511	12.08
393.716	17.66
393.922	19.8
394.127	8.8
394.332	9.56
394.537	2.42
394.742	-1.35
394.947	2.18
395.152	-2.82
395.357	6.19
395.562	9.88
395.767	1.73
395.972	9.05
396.177	10.63
396.382	11.17
396.587	10.35
396.792	10.6
396.997	18.62
397.202	29.03
397.407	24.89
397.611	19.61
397.816	17.45
398.021	14.37
398.226	14.54
398.431	17.74
398.636	13.1
398.841	15.86
399.045	19.18
399.25	10.23
399.455	10.82
399.66	15.67
399.864	9.73
400.069	8.54
400.274	12.45
400.479	15.8
400.683	16.32
400.888	14.09
401.093	4.26
401.297	5.85
401.502	0.59
401.707	-3.65
401.911	7.6
402.116	3.69
402.321	15.95
402.525	16.68
402.73	18.86
402.934	22.05
403.139	19.07
403.344	25.51
403.548	35.35
403.753	40.97
403.957	25.02
404.162	16.23
404.366	24.51
404.571	17.37
404.775	11.55
404.98	8.85
405.184	13.39
405.388	20.35
405.593	2.12
405.797	8.4
406.002	18.87
406.206	5.97
406.41	16.88
406.615	17.53
406.819	16.55
407.023	28.41
407.228	24.74
407.432	19.27
407.636	11.17
407.841	17.15
408.045	11.96
408.249	5.87
408.453	15.93
408.658	13.51
408.862	14.63
409.066	19.94
409.27	24.68
409.474	22.88
409.679	16.62
409.883	24.39
410.087	12.01
410.291	4.84
410.495	11.09
410.699	2.41
410.903	-4.85
411.108	-6.69
411.312	-30.29
411.516	-35.79
411.72	-24.64
411.924	-20.51
412.128	-29.93
412.332	-22.72
412.536	-3.41
412.74	8.97
412.944	8.86
413.148	9.78
413.352	4.25
413.556	-1.67
413.76	-8.33
413.964	1.25
414.167	8.52
414.371	17.47
414.575	20.2
414.779	16.62
414.983	19.6
415.187	24.18
415.391	33.54
415.594	37.93
415.798	41.51
416.002	39.81
416.206	40.2
416.41	49.02
416.613	46.72
416.817	39.12
417.021	31.58
417.225	42.51
417.428	36.59
417.632	32.09
417.836	32.63
418.039	36.63
418.243	37.87
418.447	28.52
418.65	21.78
418.854	23.01
419.057	24.36
419.261	25.26
419.465	18.6
419.668	8.46
419.872	11.66
420.075	1.82
420.279	11.65
420.482	16.72
420.686	7.75
420.889	1.96
421.093	16.04
421.296	16.35
421.5	9.77
421.703	11.89
421.907	18.05
422.11	8.23
422.314	12.4
422.517	0.84
422.72	11.17
422.924	9.63
423.127	10.32
423.33	15.01
423.534	17.84
423.737	22.09
423.94	32.94
424.144	37.52
424.347	44.19
424.55	34.56
424.754	39.36
424.957	47.48
425.16	49.37
425.363	50.17
425.567	52.78
425.77	51.2
425.973	53.24
426.176	47.13
426.379	52.64
426.582	52.76
426.786	61.78
426.989	66.41
427.192	81.39
427.395	70.59
427.598	62.98
427.801	53.56
428.004	47.93
428.207	46.94
428.41	39.37
428.613	33.37
428.816	36.16
429.019	33.89
429.222	29.51
429.425	29.1
429.628	26.95
429.831	23.67
430.034	27.15
430.237	21.53
430.44	23.44
430.643	23.48
430.846	21.53
431.049	16.8
431.252	17.21
431.454	9.5
431.657	7.05
431.86	11.36
432.063	16.42
432.266	18.72
432.469	16.11
432.671	16.1
432.874	22.64
433.077	19.38
433.28	18.05
433.482	19.3
433.685	9.22
433.888	1.25
434.09	-8.02
434.293	-16.29
434.496	-3.86
434.698	-6.38
434.901	-5.39
435.104	-13.67
435.306	-7.05
435.509	-6.46
435.712	0.77
435.914	-8.66
436.117	-1.31
436.319	2.84
436.522	-3.11
436.724	1.45
436.927	-6.12
437.129	-1.92
437.332	1.68
437.534	-1.74
437.737	-13.96
437.939	7.66
438.142	12.16
438.344	19.54
438.547	14.62
438.749	8.29
438.951	-4.66
439.154	-13.03
439.356	-10.88
439.558	-7.07
439.761	-9.54
439.963	-18.97
440.165	-15.95
440.368	-31.23
440.57	-59.32
440.772	-53.34
440.975	-64.06
441.177	-43.87
441.379	-50.9
441.581	-38.43
441.784	-42.37
441.986	-21.37
442.188	-23.88
442.39	-26.39
442.592	-28.42
442.795	-20.5
442.997	-17.03
443.199	-9.24
443.401	-7.85
443.603	-2.29
443.805	-18.1
444.007	-19.53
444.209	-20.22
444.411	-1.14
444.613	3.96
444.815	10.61
445.017	10.84
445.219	16.43
445.421	13.39
445.623	12.47
445.825	8.47
446.027	9.65
446.229	-0.07
446.431	-0.22
446.633	-6.45
446.835	1.69
447.037	3.73
447.239	-2.01
447.441	0.32
447.643	5.75
447.844	-5.85
448.046	8.35
448.248	9.95
448.45	13.47
448.652	-4.66
448.853	15.33
449.055	20.69
449.257	13.29
449.459	0.93
449.66	3.48
449.862	3.76
450.064	8.18
450.266	12.83
450.467	12.04
450.669	23.53
450.871	29.26
451.072	27.02
451.274	29.75
451.475	33.23
451.677	33.96
451.879	25.25
452.08	26.06
452.282	25.58
452.483	26.98
452.685	34.7
452.886	23.94
453.088	-1.33
453.289	-14.92
453.491	-18.14
453.692	-16.84
453.894	-1.04
454.095	-5.04
454.297	-12.7
454.498	1.02
454.7	15.41
454.901	9.16
455.102	11.2
455.304	14.85
455.505	14.16
455.706	4.02
455.908	3.04
456.109	5.84
456.31	7.3
456.512	2.37
456.713	0.32
456.914	-2.79
457.116	3.67
457.317	10.05
457.518	10.42
457.719	16.53
457.921	24.18
458.122	15.67
458.323	22.14
458.524	21.56
458.725	11.85
458.926	7.05
459.128	1.76
459.329	-3.5
459.53	-17.09
459.731	-21.7
459.932	-23.06
460.133	-25.28
460.334	-24.72
460.535	-16.16
460.736	-13.49
460.937	-19.42
461.138	-25.5
461.339	-19.2
461.54	-21.86
461.741	-17.18
461.942	-16.69
462.143	-11.06
462.344	-16.65
462.545	-20.6
462.746	-21.21
462.947	-17.16
463.148	-10.3
463.348	-2.49
463.549	-5.04
463.75	-9.54
463.951	0.4
464.152	5.98
464.353	9.32
464.553	20.46
464.754	14.55
464.955	9.48
465.156	12.61
465.356	13.52
465.557	13.87
465.758	13.86
465.959	11
466.159	3.66
466.36	-3.33
466.561	-0.94
466.761	-1.83
466.962	-0.05
467.163	6.95
467.363	3.54
467.564	2.13
467.764	11.9
467.965	13.12
468.166	2.13
468.366	12.48
468.567	12.62
468.767	7.2
468.968	11
469.168	17.06
469.369	20.75
469.569	19.76
469.77	14.19
469.97	11.39
470.17	12.79
470.371	15.14
470.571	14.99
470.772	20.14
470.972	14.68
471.172	17.03
471.373	7.57
471.573	7.69
471.773	5.29
471.974	3.77
472.174	6.17
472.374	11.93
472.575	2.31
472.775	3.77
472.975	0.09
473.175	0.09
473.376	-4.92
473.576	-0.47
473.776	3.49
473.976	5.38
474.177	14.43
474.377	15.78
474.577	17.73
474.777	17.55
474.977	12.68
475.177	19.56
475.377	19.77
475.577	24.58
475.777	25.59
475.978	23.72
476.178	20.55
476.378	25.8
476.578	29.18
476.778	25.16
476.978	20.75
477.178	22.36
477.378	21.99
477.578	24.99
477.778	20.71
477.977	17.69
478.177	15.82
478.377	10.69
478.577	9.59
478.777	13.34
478.977	11.86
479.177	11.51
479.377	8.6
479.577	1.56
479.776	4.15
479.976	1.37
480.176	0.92
480.376	-0.28
480.576	-3.56
480.775	-10.12
480.975	3.03
481.175	3.07
481.374	6.66
481.574	10.69
481.774	8.33
481.974	8.83
482.173	11.71
482.373	7.52
482.572	9.06
482.772	13.62
482.972	11.54
483.171	13.19
483.371	17.52
483.57	17.4
483.77	23.9
483.97	21.59
484.169	22.12
484.369	18.98
484.568	17.26
484.768	16.23
484.967	17.34
485.167	10.41
485.366	13.02
485.566	7.99
485.765	5.98
485.964	5.1
486.164	4.92
486.363	-2.41
486.563	4.36
486.762	3.23
486.961	-0.82
487.161	-0.9
487.36	-6.42
487.559	-7.18
487.759	-11.71
487.958	-20.01
488.157	-25.37
488.356	-26.28
488.556	-19.98
488.755	-17.37
488.954	-16.37
489.153	-15.15
489.353	-15.84
489.552	-20.29
489.751	-21.56
489.95	-22.64
490.149	-22.22
490.348	-17.83
490.548	-10.15
490.747	-15.66
490.946	-17.6
491.145	-16.99
491.344	-23.51
491.543	-17.13
491.742	-19.87
491.941	-19.72
492.14	-17.21
492.339	-14.39
492.538	-10.73
492.737	-9.97
492.936	-11.19
493.135	-13.58
493.334	-14.91
493.533	-17.56
493.732	-6.55
493.931	-1.17
494.13	-6.78
494.328	-1.74
494.527	-2.4
494.726	-6.22
494.925	-8.65
495.124	-3.98
495.323	-3.96
495.521	-0.62
495.72	-0.77
495.919	0.52
496.118	2.39
496.316	1.8
496.515	2.91
496.714	-1.29
496.913	-0.55
497.111	1.01
497.31	-2.87
497.509	-3.93
497.707	-0.58
497.906	-3.03
498.105	-11.64
498.303	-6.33
498.502	-9.15
498.7	-9.12
498.899	-8.8
499.097	-3.4
499.296	-4.48
499.495	-1.73
499.693	-1.78
499.892	-2.34
500.09	-1.61
500.289	1.88
500.487	4.22
500.686	4.6
500.884	4.62
501.082	1.43
501.281	2.16
501.479	5.4
501.678	6.99
501.876	3.53
502.074	6.05
502.273	10.68
502.471	7.81
502.669	5.04
502.868	4.95
503.066	8.45
503.264	7.18
503.463	4.09
503.661	-2.28
503.859	-3.74
504.057	-1.11
504.256	-3.88
504.454	-4.85
504.652	-4.17
504.85	-2.38
505.048	0.28
505.246	-0.49
505.445	2.75
505.643	3.73
505.841	4.04
506.039	6.8
506.237	0.4
506.435	2.37
506.633	5.57
506.831	12.51
507.029	11.64
507.227	12.57
507.425	15.97
507.623	19.69
507.821	22.82
508.019	25.07
508.217	23.31
508.415	26.48
508.613	24.47
508.811	24.7
509.009	23.5
509.207	24.07
509.405	24.69
509.603	15.98
509.8	14.71
509.998	15.61
510.196	15.29
510.394	16.11
510.592	12.15
510.79	10.72
510.987	4.38
511.185	5.97
511.383	0.78
511.581	-5.09
511.778	-4.6
511.976	-2.49
512.174	-6.69
512.371	-8.26
512.569	-8.07
512.767	-8.26
512.964	-10.6
513.162	-8.49
513.36	-11.58
513.557	-13.63
513.755	-10.28
513.952	-4.08
514.15	-8.19
514.348	-8.3
514.545	-10.07
514.743	-6.29
514.94	-1.93
515.138	-2.28
515.335	-1.47
515.533	0.75
515.73	2.11
515.927	1.09
516.125	-0.78
516.322	3.94
516.52	5.27
516.717	5.84
516.915	6.33
517.112	7.43
517.309	3.65
517.507	9.04
517.704	9.94
517.901	12.55
518.099	8.21
518.296	9.26
518.493	13.6
518.69	18.06
518.888	18.43
519.085	14.52
519.282	17.73
519.479	12.48
519.676	7.65
519.874	7.9
520.071	5.74
520.268	7.99
520.465	7.33
520.662	10.48
520.859	9.41
521.056	10.83
521.254	12.94
521.451	13.26
521.648	9.18
521.845	10.87
522.042	9.89
522.239	8.75
522.436	8.27
522.633	0.98
522.83	2.04
523.027	-3.11
523.224	1.26
523.421	-0.88
523.618	-4.26
523.815	6.47
524.011	6.6
524.208	7.8
524.405	5.72
524.602	5.6
524.799	-2.81
524.996	-6.5
525.193	-7.97
525.389	-10.29
525.586	-8.69
525.783	-11.64
525.98	-13.03
526.176	-12.78
526.373	-12.24
526.57	-11.13
526.767	-9.76
526.963	-13.68
527.16	-7.91
527.357	-8.43
527.553	-9.86
527.75	-3.5
527.947	-11.41
528.143	-7.46
528.34	-9.18
528.537	-10.35
528.733	-6.29
528.93	0.03
529.126	5.57
529.323	6.02
529.519	8.82
529.716	6.74
529.912	9.2
530.109	8.77
530.305	6.33
530.502	6.48
530.698	7.18
530.895	6.45
531.091	7.64
531.288	5.2
531.484	3.49
531.68	5.87
531.877	7.97
532.073	9.38
532.269	7.66
532.466	6.73
532.662	4.92
532.858	1.32
533.055	0.57
533.251	-0.21
533.447	-1.56
533.643	-2.33
533.84	-2.28
534.036	-2.3
534.232	-0.31
534.428	-0.67
534.624	-2.54
534.821	0.58
535.017	5.29
535.213	5.5
535.409	6.62
535.605	8.87
535.801	6.85
535.997	8.25
536.193	9.34
536.389	8.96
536.586	11.82
536.782	15.29
536.978	17.28
537.174	18.54
537.37	19.46
537.566	24.08
537.762	18.32
537.958	21.07
538.153	20.52
538.349	20.21
538.545	20.27
538.741	20.9
538.937	16.2
539.133	13.75
539.329	14.49
539.525	14.06
539.721	12.07
539.916	12.51
540.112	6.17
540.308	5.7
540.504	9.3
540.699	8.07
540.895	7.52
541.091	10.26
541.287	8.15
541.482	7.36
541.678	5.5
541.874	9.52
542.069	6.95
542.265	10.72
542.461	10.29
542.656	12.24
542.852	14.06
543.048	17.67
543.243	16.5
543.439	16.97
543.634	17.44
543.83	16.82
544.025	16.86
544.221	22.26
544.417	21.88
544.612	20.65
544.807	22.37
545.003	20.98
545.198	17.97
545.394	19.48
545.589	21.04
545.785	19.56
545.98	21.26
546.176	20.94
546.371	15.15
546.566	13.09
546.762	11.81
546.957	12.96
547.152	13.3
547.348	13.5
547.543	13.05
547.738	9.61
547.933	6.02
548.129	8.78
548.324	7.22
548.519	3.96
548.714	4.25
548.91	4.6
549.105	5.17
549.3	4.27
549.495	4.68
549.69	0.09
549.885	0.29
550.08	1.93
550.276	5.95
550.471	10.35
550.666	14.18
550.861	15.2
551.056	12.06
551.251	8.5
551.446	9.19
551.641	10.26
551.836	11.41
552.031	15.2
552.226	13
552.421	11.06
552.616	12.7
552.811	11.76
553.006	8.28
553.201	5.5
553.395	8.06
553.59	7.49
553.785	9.71
553.98	10.16
554.175	8.38
554.37	5.86
554.565	8.25
554.759	6.37
554.954	6.03
555.149	9.34
555.344	9.81
555.538	6.86
555.733	6.45
555.928	10.41
556.122	11.31
556.317	9.08
556.512	9.61
556.706	10.81
556.901	8.96
557.096	11.31
557.29	14.09
557.485	12.32
557.68	10.53
557.874	11.4
558.069	10.97
558.263	9.04
558.458	8.48
558.652	6.03
558.847	6.79
559.041	7.39
559.236	4.33
559.43	5.03
559.625	7.53
559.819	7.35
560.014	7.05
560.208	6.95
560.402	8.66
560.597	10.5
560.791	8.84
560.986	10.97
561.18	11.35
561.374	12.63
561.569	14.15
561.763	17.64
561.957	15.17
562.151	14.67
562.346	17.54
562.54	19.54
562.734	19.75
562.928	19.37
563.123	20.2
563.317	21.27
563.511	21.9
563.705	19.75
563.899	20.06
564.093	17.51
564.288	16.76
564.482	17.55
564.676	17.09
564.87	20.05
565.064	18.41
565.258	17.59
565.452	14.83
565.646	14.42
565.84	12.37
566.034	13.54
566.228	14.58
566.422	11.74
566.616	9.33
566.81	9.64
567.004	12.62
567.198	11.77
567.392	11.03
567.586	8.4
567.779	12.76
567.973	11.95
568.167	13.11
568.361	12.3
568.555	13.32
568.749	14.12
568.942	13.02
569.136	15.35
569.33	14.93
569.524	15.74
569.718	17.3
569.911	16.96
570.105	17.51
570.299	16.13
570.492	17.11
570.686	18.19
570.88	17.26
571.073	14.22
571.267	14.74
571.461	15.92
571.654	18.54
571.848	17.92
572.041	17.31
572.235	17.23
572.429	18.99
572.622	16.91
572.816	15.11
573.009	15.05
573.203	12.94
573.396	15.03
573.59	16.3
573.783	13.69
573.976	11.49
574.17	11.22
574.363	11.31
574.557	9.88
574.75	9.15
574.943	11.55
575.137	13.25
575.33	13.46
575.523	13.07
575.717	10.3
575.91	7.78
576.103	8.47
576.297	7.59
576.49	7.41
576.683	6.7
576.876	7.74
577.07	8.02
577.263	9.65
577.456	7.77
577.649	6.89
577.842	7.87
578.036	9.91
578.229	10.42
578.422	11.61
578.615	12.37
578.808	11.86
579.001	10.76
579.194	12.1
579.387	13.5
579.58	13.27
579.773	14.02
579.966	15.12
580.159	14.06
580.352	15.58
580.545	15.68
580.738	15.81
580.931	15.41
581.124	15.72
581.317	13.75
581.51	13.66
581.703	13.3
581.896	11.55
582.088	12.49
582.281	13.39
582.474	13.29
582.667	14.47
582.86	14.63
583.053	13.51
583.245	12.2
583.438	8.45
583.631	9.38
583.824	9.26
584.016	8.97
584.209	9.07
584.402	8.41
584.594	8.54
584.787	10.36
584.98	9.66
585.172	10.91
585.365	12.26
585.558	12.79
585.75	13.67
585.943	14.86
586.135	14.6
586.328	13.58
586.52	14.39
586.713	14.07
586.906	14.88
587.098	16.19
587.291	16.36
587.483	16.6
587.675	16.04
587.868	15.76
588.06	16.15
588.253	16.77
588.445	16.92
588.638	15.26
588.83	14.94
589.022	14.88
589.215	13.22
589.407	14.3
589.599	13.82
589.792	14.12
589.984	14.93
590.176	14.38
590.368	16.07
590.561	14.42
590.753	14.72
590.945	13.97
591.137	13.01
591.33	11.11
591.522	11.85
591.714	10.33
591.906	13.06
592.098	12.88
592.29	12.62
592.482	11.91
592.674	11.21
592.867	10.54
593.059	10.5
593.251	10.99
593.443	9.43
593.635	8.66
593.827	7.71
594.019	7.63
594.211	7.83
594.403	7
594.595	8.81
594.787	7
594.979	8.08
595.17	8.62
595.362	10.8
595.554	10.49
595.746	10.33
595.938	9.04
596.13	9.32
596.322	8.72
596.513	6.85
596.705	9.65
596.897	9.4
597.089	10.55
597.281	10.73
597.472	11.38
597.664	11
597.856	11.79
598.048	11.32
598.239	10.03
598.431	8.56
598.623	6.58
598.814	5.28
599.006	5.94
599.197	6.49
599.389	6.42
599.581	5.37
599.772	7.35
599.964	7.12
600.155	5.51
600.347	6.81
600.538	8.1
600.73	7.95
600.921	9.24
601.113	7.62
601.304	7.2
601.496	8.22
601.687	9.42
601.879	7.81
602.07	7.26
602.262	8.76
602.453	8.44
602.644	7.22
602.836	8.31
603.027	7.88
603.218	8.32
603.41	7.6
603.601	8.07
603.792	6.98
603.983	7.14
604.175	8.19
604.366	8.66
604.557	9.69
604.748	8.19
604.94	6.95
605.131	7
605.322	9.44
605.513	8.6
605.704	8.16
605.895	8.63
606.086	7.7
606.278	8.73
606.469	9.16
606.66	11.73
606.851	11.38
607.042	10.15
607.233	8.46
607.424	8.83
607.615	10.44
607.806	9.91
607.997	10.34
608.188	11.4
608.379	10.49
608.57	10
608.761	10.41
608.952	11.09
609.142	12.09
609.333	9.24
609.524	8.19
609.715	8.75
609.906	9.19
610.097	10.69
610.287	7.86
610.478	7.46
610.669	7.54
610.86	8.69
611.051	9.74
611.241	9.94
611.432	7.49
611.623	7.61
611.813	8.85
612.004	7.45
612.195	8.58
612.385	8.08
612.576	9.27
612.767	9.03
612.957	9.62
613.148	8.49
613.338	7.61
613.529	8.32
613.72	9.21
613.91	8.6
614.101	6.21
614.291	7.61
614.482	8.99
614.672	8.15
614.863	7.73
615.053	6.78
615.243	8.82
615.434	10.5
615.624	9.83
615.815	9.07
616.005	8.57
616.195	5.69
616.386	5.22
616.576	5.04
616.766	5.12
616.957	4.61
617.147	4.3
617.337	3.76
617.528	3.47
617.718	2.36
617.908	2.2
618.098	4.09
618.289	5.55
618.479	4.79
618.669	5.07
618.859	5.91
619.049	7.32
619.239	5.64
619.43	5.33
619.62	4.32
619.81	5.77
620	6.81
620.19	8.39
620.38	8.42
620.57	7.72
620.76	7.28
620.95	8.25
621.14	9.06
621.33	10.9
621.52	10.71
621.71	8.69
621.9	9.8
622.09	10.39
622.28	10.35
622.47	9.25
622.659	7.4
622.849	5.54
623.039	5.89
623.229	6.23
623.419	7.24
623.609	7.55
623.799	5.57
623.988	6.04
624.178	5.92
624.368	5.99
624.558	6.59
624.747	6.69
624.937	5.65
625.127	5.44
625.316	4.06
625.506	7.02
625.696	10.18
625.885	8.75
626.075	7.87
626.265	6.7
626.454	7.96
626.644	9.25
626.833	9.77
627.023	9.29
627.212	7.92
627.402	8.4
627.591	8.96
627.781	10.2
627.97	9.81
628.16	9.08
628.349	8.72
628.539	6.7
628.728	7.57
628.918	7.65
629.107	7.45
629.296	7.35
629.486	4.94
629.675	4.72
629.865	4.6
630.054	5.04
630.243	4.72
630.432	4.24
630.622	4.83
630.811	5.51
631	4.76
631.19	6.64
631.379	5.03
631.568	4.56
631.757	3.99
631.946	2.84
632.136	4.58
632.325	4.42
632.514	6.13
632.703	4.4
632.892	2.89
633.081	4.4
633.27	5.21
633.459	4.69
633.648	4.8
633.837	5.42
634.026	4.68
634.215	6.34
634.404	6.62
634.593	8.15
634.782	9.35
634.971	9.79
635.16	8.44
635.349	9.58
635.538	9.68
635.727	8.47
635.916	9.17
636.105	8.88
636.294	10.13
636.482	11.32
636.671	11.97
636.86	13.78
637.049	11.76
637.238	12.12
637.426	12.34
637.615	10.37
637.804	10.75
637.993	11.69
638.181	9.32
638.37	9.47
638.559	8.48
638.747	8.7
638.936	8.54
639.125	9.34
639.313	8.3
639.502	8.16
639.691	10.09
639.879	8.79
640.068	8.56
640.256	7.52
640.445	6.19
640.633	6.69
640.822	5.09
641.01	7.77
641.199	6.4
641.387	7.34
641.576	8.92
641.764	10.09
641.953	9.15
642.141	10.64
642.329	10.67
642.518	9.27
642.706	8.47
642.894	8.03
643.083	8.68
643.271	8.51
643.459	8.84
643.648	8.75
643.836	10.65
644.024	10.66
644.213	12.61
644.401	11.56
644.589	10.74
644.777	12.43
644.965	10.42
645.154	10.9
645.342	10.37
645.53	10.32
645.718	9.21
645.906	9.36
646.094	8.9
646.282	8.91
646.47	10.27
646.658	8.75
646.846	8.18
647.034	7.94
647.223	9.31
647.411	9.42
647.599	8.14
647.786	7.21
647.974	6.9
648.162	4.29
648.35	4.44
648.538	4.93
648.726	5.41
648.914	7.26
649.102	8.53
649.29	8.78
649.478	9.38
649.665	9.9
649.853	10.15
650.041	11.11
650.229	11.53
650.417	10.07
650.604	10.25
650.792	10.98
650.98	10.63
651.168	8.56
651.355	7.91
651.543	8.44
651.731	9.04
651.918	8.25
652.106	10.12
652.294	8.99
652.481	9.9
652.669	8.82
652.856	8.31
653.044	8.66
653.231	7.35
653.419	5.86
653.606	5.93
653.794	7.73
653.981	7.62
654.169	6.73
654.356	5.67
654.544	5.92
654.731	5.76
654.919	4.9
655.106	5.86
655.294	6.12
655.481	6.89
655.668	7.76
655.856	6.81
656.043	5.93
656.23	6.72
656.418	6.75
656.605	6.6
656.792	5.39
656.979	4.84
657.167	5.59
657.354	5.99
657.541	5.68
657.728	3.49
657.916	1.75
658.103	2.37
658.29	3.84
658.477	5.83
658.664	5.82
658.851	7.08
659.038	7.67
659.225	6.92
659.412	7.27
659.6	5.76
659.787	7.89
659.974	6.93
660.161	9.36
660.348	8.18
660.535	10.2
660.722	10.42
660.909	9.76
661.095	10.11
661.282	10.26
661.469	9.93
661.656	10.41
661.843	11.44
662.03	10.97
662.217	10.79
662.404	9.64
662.59	9.32
662.777	8.22
662.964	7.48
663.151	9.23
663.338	9.21
663.524	8.48
663.711	6.37
663.898	8.58
664.085	7.36
664.271	7.82
664.458	6.51
664.645	7.19
664.831	9.33
665.018	8.01
665.204	7.76
665.391	7.6
665.578	7.95
665.764	7.86
665.951	8.21
666.137	9.38
666.324	9.35
666.51	9.22
666.697	8.53
666.883	8.63
667.07	8.09
667.256	6.61
667.443	6.82
667.629	8.87
667.816	7.35
668.002	7.58
668.188	7.66
668.375	7.81
668.561	7.14
668.747	3.51
668.934	4.24
669.12	4.71
669.306	3.56
669.493	2.77
669.679	3.17
669.865	2.46
670.051	1.36
670.238	0.73
670.424	-0.13
670.61	-0.71
670.796	-0.34
670.982	-1.53
671.169	-0.78
671.355	-1.54
671.541	-2.03
671.727	-2.34
671.913	-3.16
672.099	-3.64
672.285	-4.84
672.471	-3.08
672.657	-1.73
672.843	-0.92
673.029	-1.08
673.215	1.02
673.401	3.78
673.587	3.68
673.773	4.97
673.959	5.66
674.145	6.29
674.331	7.3
674.517	8.91
674.703	8.52
674.888	9.74
675.074	9.05
675.26	10.64
675.446	9.13
675.632	9.41
675.817	10.15
676.003	10.84
676.189	11.53
676.375	10.96
676.56	11.69
676.746	10.25
676.932	8.68
677.117	7.38
677.303	5.02
677.489	5
677.674	3.14
677.86	1.84
678.046	2.68
678.231	3.09
678.417	2.89
678.602	2.02
678.788	1.95
678.973	2.67
679.159	4.08
679.344	5.24
679.53	4.68
679.715	3.93
679.901	3.07
680.086	2.32
680.272	0.94
680.457	0.16
680.643	0.21
680.828	0.48
681.013	0.38
681.199	1.13
681.384	1.31
681.569	1.39
681.755	3.12
681.94	2.63
682.125	1.31
682.31	2.82
682.496	4.09
682.681	4.17
682.866	4.21
683.051	2.42
683.237	2.78
683.422	3.75
683.607	3.1
683.792	4.95
683.977	5.17
684.162	5.42
684.347	5.53
684.532	6.89
684.717	7.84
684.903	8.07
685.088	8.13
685.273	7.43
685.458	7.94
685.643	7.98
685.828	7.02
686.013	9.02
686.198	7.25
686.382	7.16
686.567	8.13
686.752	8.13
686.937	8.6
687.122	8.62
687.307	9.13
687.492	9.54
687.677	7.92
687.861	8.34
688.046	7.97
688.231	8.08
688.416	8.67
688.601	6.99
688.785	6.55
688.97	7.17
689.155	8.99
689.339	8.28
689.524	6.52
689.709	6.45
689.893	5.84
690.078	7.51
690.263	7.85
690.447	6.19
690.632	4.39
690.816	5.25
691.001	5.41
691.186	4.44
691.37	4.57
691.555	5.38
691.739	4.52
691.924	4.78
692.108	4.84
692.293	4.84
692.477	6.27
692.661	6.48
692.846	4.43
693.03	4.61
693.215	5.26
693.399	6.45
693.583	6.61
693.768	7.06
693.952	5.57
694.136	5.4
694.321	5.7
694.505	7.4
694.689	6.7
694.873	6.35
695.058	6.54
695.242	6.92
695.426	6.06
695.61	6.54
695.794	6.71
695.979	6.58
696.163	4.76
696.347	6.11
696.531	6.19
696.715	8.05
696.899	6.51
697.083	6.77
697.267	7.76
697.451	8.48
697.635	7.82
697.819	7.01
698.003	6.6
698.187	7.48
698.371	8.63
698.555	9.2
698.739	9.7
698.923	9.62
699.107	10.38
699.291	10.75
699.475	10.43
699.659	11.2
699.842	12.11
700.026	13.13
700.21	12.34
700.394	12.84
700.578	12.54
700.761	12.37
700.945	12.96
701.129	12.17
701.313	11.08
701.496	11.7
701.68	13.31
701.864	13.11
702.047	14.04
702.231	13.35
702.415	13.03
702.598	11.64
702.782	10.74
702.965	9.46
703.149	9.88
703.333	10.06
703.516	10.17
703.7	9.17
703.883	9.24
704.067	9.94
704.25	10.34
704.434	8.64
704.617	8.65
704.801	7.63
704.984	6.4
705.167	6.36
705.351	5.58
705.534	4.64
705.718	3.87
705.901	1.89
706.084	1.62
706.268	1.94
706.451	2.28
706.634	3.91
706.817	3.41
707.001	3.03
707.184	3.61
707.367	3.07
707.55	4.13
707.734	3.75
707.917	3.27
708.1	3.07
708.283	5.22
708.466	5.7
708.649	5.25
708.832	6.03
709.015	6.07
709.199	6.87
709.382	6.34
709.565	7.65
709.748	9.28
709.931	10.05
710.114	9.09
710.297	9.48
710.48	8.95
710.663	10.01
710.846	9.63
711.028	9.37
711.211	9.22
711.394	8.37
711.577	9.24
711.76	6.45
711.943	5.84
712.126	5.75
712.309	6.42
712.491	7.87
712.674	7.38
712.857	8.25
713.04	7.02
713.222	8.93
713.405	8.57
713.588	7.41
713.771	6.59
713.953	6.52
714.136	6.56
714.319	6.56
714.501	5.54
714.684	5.58
714.866	5.6
715.049	4.82
715.232	4.56
715.414	2.58
715.597	4.05
715.779	4.17
715.962	4.09
716.144	1.89
716.327	2.2
716.509	3.11
716.692	2.2
716.874	2.39
717.057	1.27
717.239	1.76
717.421	1.63
717.604	0
717.786	0.43
717.968	0.4
718.151	0.29
718.333	0.19
718.515	0.8
718.698	0.55
718.88	1.9
719.062	0.73
719.244	2.26
719.427	2.39
719.609	3.32
719.791	2.19
719.973	3
720.155	1.74
720.338	0.76
720.52	1.26
720.702	1.82
720.884	2.47
721.066	1.55
721.248	-1.6
721.43	-0.34
721.612	-0.38
721.794	0.62
721.976	0.4
722.158	1.46
722.34	1.04
722.522	1.02
722.704	0.02
722.886	0.48
723.068	0.16
723.25	1.55
723.432	-0.23
723.614	0.68
723.796	0.66
723.977	0.7
724.159	2.1
724.341	0.91
724.523	-1.23
724.705	-2.09
724.886	-1.95
725.068	1
725.25	1.88
725.432	2.21
725.613	0.35
725.795	0.74
725.977	1.6
726.158	2.12
726.34	3.53
726.522	2.82
726.703	3.4
726.885	3.11
727.066	2.49
727.248	4.74
727.43	5.54
727.611	6.33
727.793	6.82
727.974	5.91
728.156	6.77
728.337	6.63
728.519	6.3
728.7	7.63
728.882	7.35
729.063	7.72
729.244	7.12
729.426	7.82
729.607	8.41
729.788	6.84
729.97	7.25
730.151	5.38
730.332	6.35
730.514	8.17
730.695	9.53
730.876	9.56
731.058	7.11
731.239	5.67
731.42	4.44
731.601	3.7
731.782	2.94
731.964	3.07
732.145	4.14
732.326	2.6
732.507	0.79
732.688	1.19
732.869	2.73
733.05	3.62
733.231	5.2
733.412	4.41
733.593	5.75
733.774	4.57
733.955	6.1
734.136	7.02
734.317	5.63
734.498	6.41
734.679	5.98
734.86	6.32
735.041	7.48
735.222	7.96
735.403	9.13
735.584	9.84
735.765	10.42
735.946	11.04
736.126	12.86
736.307	13.85
736.488	12.3
736.669	9.93
736.849	8.76
737.03	8.18
737.211	9.64
737.392	9.26
737.572	7.91
737.753	6.05
737.934	4.71
738.114	6.35
738.295	4.12
738.476	3.36
738.656	4.92
738.837	4.56
739.017	5.65
739.198	5.55
739.378	4.86
739.559	4.56
739.74	4.07
739.92	2.76
740.1	2.72
740.281	2.17
740.461	2.93
740.642	4.06
740.822	2.02
741.003	0.6
741.183	-1.32
741.363	0.21
741.544	0.88
741.724	0.36
741.904	-1.51
742.085	-1.86
742.265	-1.53
742.445	-3.11
742.626	-1.29
742.806	-0.6
742.986	-1.06
743.166	-0.23
743.347	-1.3
743.527	-0.11
743.707	0.12
743.887	-0.28
744.067	0.45
744.247	0.8
744.427	-0.46
744.608	0.26
744.788	1.07
744.968	3.79
745.148	4.18
745.328	2.94
745.508	2.02
745.688	2.75
745.868	3.66
746.048	3.7
746.228	3.89
746.408	0.65
746.588	-1.11
746.767	-1.34
746.947	-0.91
747.127	-0.24
747.307	-2.17
747.487	-0.16
747.667	-0.4
747.847	1.86
748.026	0.17
748.206	1.34
748.386	2.93
748.566	2.41
748.745	1.35
748.925	2.3
749.105	4.29
749.285	5.12
749.464	3.77
749.644	2.79
749.824	2.89
750.003	1.87
750.183	0.78
750.362	0.82
750.542	0.25
750.722	-2.04
750.901	-2.17
751.081	-0.16
751.26	0.03
751.44	-0.97
751.619	-3.7
751.799	-4.04
751.978	-5.14
752.158	-6.76
752.337	-8.12
752.516	-8.63
752.696	-9.36
752.875	-9.57
753.055	-9.53
753.234	-7.63
753.413	-6.87
753.593	-5.31
753.772	-3.83
753.951	-1.29
754.13	-0.66
754.31	-0.81
754.489	0.64
754.668	0.26
754.847	0.35
755.027	-0.03
755.206	1.03
755.385	2.35
755.564	4.65
755.743	4.57
755.922	4.94
756.101	5.72
756.28	6.27
756.46	5.91
756.639	4.64
756.818	5.5
756.997	5.61
757.176	5.32
757.355	4.58
757.534	4.5
757.713	3.62
757.892	2.39
758.07	2.79
758.249	2.99
758.428	3.98
758.607	3.15
758.786	3.31
758.965	3.76
759.144	4.25
759.323	2.2
759.501	2.71
759.68	3.85
759.859	5.31
760.038	5.32
760.216	4.61
760.395	5.9
760.574	5.31
760.753	5.48
760.931	7.11
761.11	8.09
761.289	7.33
761.467	7.42
761.646	8.31
761.824	9.29
762.003	8.22
762.182	7.61
762.36	8.52
762.539	8.25
762.717	8.4
762.896	7.91
763.074	8.65
763.253	9.04
763.431	9.74
763.61	8.78
763.788	7.31
763.966	8.39
764.145	8.24
764.323	8.95
764.502	7.83
764.68	6.93
764.858	5.31
765.037	7.35
765.215	7.3
765.393	7.08
765.571	6.2
765.75	6.75
765.928	6.19
766.106	4.03
766.284	4.13
766.463	3.16
766.641	3.75
766.819	4.84
766.997	4.39
767.175	3.63
767.353	3.04
767.531	4.7
767.71	4.58
767.888	4.11
768.066	2.27
768.244	2.42
768.422	2.25
768.6	4.14
768.778	2.1
768.956	1.6
769.134	2.95
769.312	3.12
769.489	2.68
769.667	2.87
769.845	5.8
770.023	6.62
770.201	7.64
770.379	6.34
770.557	5.71
770.735	6.09
770.912	5.11
771.09	5.25
771.268	6.11
771.446	5.72
771.623	6.55
771.801	8.13
771.979	8.84
772.157	7.88
772.334	4.99
772.512	6.58
772.69	7.49
772.867	6.8
773.045	7.37
773.222	8.77
773.4	9.81
773.577	8.15
773.755	8.1
773.933	6.79
774.11	7.52
774.288	8.33
774.465	8.11
774.643	7.37
774.82	8.17
774.997	6.74
775.175	6.61
775.352	7.31
775.53	8.14
775.707	7.18
775.884	7.77
776.062	9.41
776.239	7.42
776.416	8.06
776.594	7.38
776.771	7.3
776.948	7.23
777.125	5.64
777.303	3.68
777.48	2.05
777.657	2.47
777.834	4.67
778.012	2.48
778.189	3.19
778.366	1.95
778.543	-0.57
778.72	0.19
778.897	1.73
779.074	1.12
779.251	1.98
779.428	1.31
779.605	1.19
779.782	1.43
779.959	1.44
780.136	-0.05
780.313	0.28
780.49	-2.09
780.667	-0.59
780.844	2.26
781.021	4.54
781.198	3.74
781.375	4.98
781.552	3.73
781.728	5.31
781.905	5.13
782.082	8.34
782.259	9.21
782.436	8.39
782.612	6.79
782.789	6.1
782.966	3.8
783.143	2.61
783.319	3.42
783.496	3.96
783.673	4.77
783.849	6.16
784.026	6.11
784.203	6.68
784.379	3.85
784.556	2.83
784.732	3.01
784.909	5.75
785.085	5.46
785.262	5.19
785.438	6.25
785.615	5.61
785.791	5.24
785.968	4.16
786.144	8.19
786.321	9.92
786.497	8.07
786.673	6.37
786.85	8.44
787.026	7.79
787.203	6.46
787.379	6.18
787.555	4.76
787.731	5.02
787.908	6.4
788.084	6.76
788.26	4.77
788.437	5.04
788.613	1.07
788.789	-0.56
788.965	-1.48
789.141	-2.1
789.317	-5.63
789.494	-8.21
789.67	-6.13
789.846	-10.5
790.022	-11.93
790.198	-8.45
790.374	-6.47
790.55	-8.41
790.726	-8.03
790.902	-5.32
791.078	-2.06
791.254	-4.73
791.43	-4.03
791.606	-5.2
791.782	-5.03
791.958	-3.48
792.134	-2.54
792.31	-2.96
792.486	-3.26
792.661	-3.89
792.837	-2.68
793.013	-1.02
793.189	0.17
793.365	-0.08
793.54	0.07
793.716	1.02
793.892	-1.16
794.068	-0.82
794.243	0.37
794.419	-0.55
794.595	-4.29
794.77	-5.5
794.946	-1.26
795.122	-3.62
795.297	-3.07
795.473	-1.85
795.648	-0.96
795.824	-3.43
796	-1.31
796.175	0.4
796.351	0.36
796.526	-0.74
796.702	0.48
796.877	-0.17
797.052	-0.02
797.228	-0.4
797.403	-2.39
797.579	-0.46
797.754	-0.45
797.929	1.72
798.105	4.11
798.28	5.71
798.455	5.83
798.631	4.4
798.806	6.19
798.981	8.3
799.157	8.64
799.332	6.82
799.507	9.05
799.682	9.76
799.858	10.95
800.033	12.02
800.208	12.18
800.383	13.26
800.558	15.5
800.733	16.71
800.908	18.81
801.083	18.47
801.258	17.25
801.434	19.8
801.609	19.77
801.784	18.64
801.959	17.09
802.134	15.25
802.309	15.65
802.484	13.88
802.658	13.37
802.833	10.99
803.008	13.94
803.183	10.79
803.358	10.87
803.533	9.16
803.708	8.69
803.883	5.74
804.057	3.49
804.232	4.32
804.407	3.28
804.582	2.5
804.756	2.5
804.931	2.44
805.106	-1.01
805.281	0.25
805.455	-1.77
805.63	-1.18
805.805	-2.72
805.979	-2.52
806.154	-0.02
806.328	-0.08
806.503	2.34
806.678	-0.39
806.852	1.67
807.027	2.11
807.201	2.54
807.376	3.45
807.55	4.32
807.725	4.94
807.899	5.29
808.074	5.14
808.248	4.71
808.422	4.2
808.597	3.37
808.771	4.31
808.946	3.7
809.12	8.03
809.294	6.91
809.468	8.75
809.643	10.7
809.817	11.3
809.991	9.3
810.166	8.2
810.34	7.22
810.514	8.84
810.688	9.35
810.862	8.66
811.037	10.04
811.211	11.16
811.385	12.48
811.559	11.52
811.733	12.26
811.907	12.34
812.081	12.23
812.255	13.07
812.429	12.88
812.603	11.96
812.777	9.98
812.951	10.47
813.125	10.58
813.299	6.06
813.473	1
813.647	4.13
813.821	3.65
813.995	8.42
814.169	5.23
814.343	4.42
814.516	7.31
814.69	5.78
814.864	6.03
815.038	7.76
815.212	7.12
815.385	6.03
815.559	7.87
815.733	8.61
815.907	9.16
816.08	11.99
816.254	12.45
816.428	11.52
816.601	14.67
816.775	15
816.948	16.86
817.122	18.08
817.296	15.81
817.469	18.63
817.643	15.59
817.816	13.92
817.99	11.26
818.163	8.34
818.337	6.84
818.51	7.12
818.684	7.19
818.857	5.63
819.031	4.15
819.204	-0.71
819.377	-1.91
819.551	-4.73
819.724	-10.83
819.897	-7.98
820.071	-8.04
820.244	-11.7
820.417	-11.27
820.591	-10.4
820.764	-4.44
820.937	-4.4
821.11	-6.83
821.284	-7.51
821.457	-4.05
821.63	-0.57
821.803	-0.35
821.976	0.35
822.149	1.2
822.322	0.76
822.496	-1.91
822.669	-0.33
822.842	1.37
823.015	2.67
823.188	2.02
823.361	5.72
823.534	-0.03
823.707	-1.33
823.88	-2.86
824.053	-3.3
824.226	-3.17
824.399	-3.7
824.571	-3.62
824.744	-1.7
824.917	1.31
825.09	-1.85
825.263	0.4
825.436	1.19
825.608	-0.54
825.781	-2.72
825.954	-4.07
826.127	-4.31
826.299	-5.47
826.472	-6.71
826.645	-2.18
826.818	-0.12
826.99	-1.26
827.163	1.99
827.336	3.87
827.508	3.26
827.681	4.72
827.853	1.26
828.026	0.83
828.198	3.82
828.371	4.82
828.544	2.91
828.716	6.34
828.889	1.76
829.061	1.87
829.233	1.73
829.406	2.27
829.578	1.05
829.751	3.83
829.923	2.13
830.096	-0.11
830.268	-3.81
830.44	-3.57
830.613	-2.82
830.785	-2.76
830.957	-6.73
831.129	-3.46
831.302	-2.54
831.474	-0.33
831.646	-0.88
831.818	-3.84
831.991	-6.68
832.163	-8.22
832.335	-9.28
832.507	-8.64
832.679	-6.64
832.851	-4.54
833.023	-3.93
833.195	-0.88
833.368	-0.68
833.54	0.65
833.712	5.46
833.884	10.4
834.056	11.85
834.228	7.93
834.4	10.27
834.571	13.28
834.743	11.51
834.915	9.19
835.087	8.95
835.259	7.93
835.431	7.43
835.603	5.57
835.775	6.42
835.946	9.57
836.118	9.14
836.29	4.08
836.462	1.86
836.634	1.42
836.805	-4.05
836.977	-1.7
837.149	-0.54
837.32	-3.66
837.492	-5.18
837.664	-5.75
837.835	-2.3
838.007	-8.97
838.179	-7
838.35	-0.24
838.522	5.25
838.693	7.19
838.865	4.82
839.036	1.46
839.208	6.37
839.379	7.84
839.551	4.18
839.722	8.8
839.894	7.61
840.065	9.71
840.237	7.22
840.408	11.04
840.579	11.67
840.751	10.1
840.922	10.83
841.093	7.64
841.265	6.59
841.436	7.04
841.607	12.09
841.778	10.07
841.95	6.55
842.121	2.99
842.292	1.02
842.463	4.16
842.635	9.26
842.806	8.44
842.977	7.91
843.148	7.85
843.319	4.59
843.49	9.17
843.661	5
843.832	12.84
844.003	10.94
844.174	12.96
844.345	18.57
844.516	17.41
844.687	16.47
844.858	20.13
845.029	24.5
845.2	22.2
845.371	26.07
845.542	24.5
845.713	18.53
845.884	19.86
846.055	14.6
846.225	14.54
846.396	13.2
846.567	16.7
846.738	14.27
846.909	12.57
847.079	13.71
847.25	16.09
847.421	11.13
847.591	3.7
847.762	-5.9
847.933	-11.36
848.103	-5.09
848.274	-9.27
848.445	-6.16
848.615	-6.68
848.786	-10.03
848.956	-10.76
849.127	-6.51
849.297	6.61
849.468	12.65
849.638	16.28
849.809	15.48
849.979	6.75
850.15	4.29
850.32	7.84
850.491	7.47
850.661	5.2
850.831	10.6
851.002	14.49
851.172	21.79
851.342	24.92
851.513	26.57
851.683	23.94
851.853	27.84
852.024	23.26
852.194	23.7
852.364	25.12
852.534	27.79
852.705	26.12
852.875	22.66
853.045	15.84
853.215	18.54
853.385	21.07
853.555	28.89
853.725	27.98
853.895	28.5
854.066	25.6
854.236	25.84
854.406	17.96
854.576	15.35
854.746	8.43
854.916	14.56
855.086	9.77
855.256	8.02
855.425	7.7
855.595	11.16
855.765	4.99
855.935	4.1
856.105	-2.88
856.275	-5.63
856.445	-9.04
856.614	-7.45
856.784	-4.23
856.954	-5.61
857.124	-6.48
857.294	-6.47
857.463	-4.8
857.633	-1.72
857.803	-8.42
857.972	0.51
858.142	5.58
858.312	14.81
858.481	10.09
858.651	10.76
858.821	13.21
858.99	12.71
859.16	9.13
859.329	16.34
859.499	14.11
859.668	21.16
859.838	26.35
860.007	37.3
860.177	38.6
860.346	37.25
860.516	38.23
860.685	40.18
860.854	35.89
861.024	30.64
861.193	26.37
861.363	30.67
861.532	27.33
861.701	25.16
861.87	24.58
862.04	29.76
862.209	29.85
862.378	29.25
862.547	26.26
862.717	24.86
862.886	22.25
863.055	23.2
863.224	15.65
863.393	11.01
863.563	2.56
863.732	4.58
863.901	-1.76
864.07	-0.55
864.239	1.56
864.408	4.88
864.577	8.07
864.746	16.3
864.915	14.32
865.084	21.69
865.253	17.13
865.422	15.4
865.591	13.26
865.76	12.11
865.929	8
866.097	10.76
866.266	13.03
866.435	6.12
866.604	8.37
866.773	19.9
866.942	20.71
867.11	17.83
867.279	16.21
867.448	30.47
867.617	29.9
867.785	21.65
867.954	18.29
868.123	23.65
868.291	2.66
868.46	17.04
868.629	5.53
868.797	9.06
868.966	-3.56
869.134	-4.57
869.303	6.15
869.472	14.34
869.64	12.14
869.809	12.32
869.977	18.93
870.146	13.81
870.314	8.5
870.482	14.87
870.651	18.93
870.819	14.62
870.988	9.27
871.156	6.78
871.324	7.4
871.493	-4.1
871.661	1.01
871.829	13.39
871.998	4.16
872.166	-1.08
872.334	-7.16
872.502	5.63
872.671	13.39
872.839	17.31
873.007	9.82
873.175	3.46
873.343	9.08
873.512	11.21
873.68	17.67
873.848	17.08
874.016	18.36
874.184	13.59
874.352	20.42
874.52	17.88
874.688	16.72
874.856	22.31
875.024	37.37
875.192	23.01
875.36	20.04
875.528	17.91
875.696	21.3
875.864	30.85
876.032	29.56
876.199	16.78
876.367	14.4
876.535	17.19
876.703	28.49
876.871	18.86
877.039	26.36
877.206	19.4
877.374	22.17
877.542	26
877.71	27.47
877.877	19.12
878.045	20.29
878.213	24.77
878.38	27.64
878.548	20.91
878.715	39.87
878.883	42.99
879.051	49.68
879.218	49.18
879.386	46.62
879.553	40.45
879.721	43.94
879.888	48.04
880.056	56.73
880.223	58.5
880.391	75.01
880.558	61.08
880.726	74.12
880.893	64.55
881.06	54.69
881.228	52.25
881.395	54.66
881.562	55.09
881.73	66.39
881.897	60.91
882.064	70.51
882.231	49.46
882.399	53.32
882.566	40.91
882.733	47.61
882.9	56.59
883.068	76.81
883.235	85.05
883.402	97.13
883.569	80.75
883.736	79.12
883.903	71.54
884.07	76.36
884.237	75.59
884.404	83.68
884.571	91.6
884.738	94.38
884.905	107.55
885.072	118.72
885.239	99.34
885.406	103.59
