#Video File Name: 31_risk-taking_2.avi
#Project ID: 31_risk-taking_2
#Event codes:
#1 also bal [hideg sarok]
#2 also kozepso
#3 also jobb
#4 kozepso bal
#5 kozepso kozep
#6 kozepso jobb
#7 felso bal
#8 felso kozep
#9 felso jobb [meleg sarok]
#q rejtekhely in [Q out]
#a napozas in [A out]
#z teljes test ki
#s inaktiv [S out]
#Field separator: ;
#MWrap version: Wed Feb 14 09:50:29 CET 2018
#id;description;key;time;duration;object id
1;rejtekhely in [Q out];q;74.00;0.00;1
2;q-end;Q;900.50;826.50;1
3;rejtekhely in [Q out];q;902.00;0.00;1
4;q-end;Q;1041.00;139.00;1
5;teljes test ki;z;1046.00;0.00;1
6;napozas in [A out];a;1049.00;0.00;1
7;a-end;A;1086.00;37.00;1
