Data from Transmission_09-47-14-755.txt Node
Date: Fri Aug 24 09:47:14 EEST 2018
User: tibor.sos
Spectrometer: USB4F01757
Scans to average: 10
Trigger mode: 4
Integration Time (sec): 1.000000E-2
Electric dark correction enabled: true
Boxcar width: 10
XAxis mode: Wavelengths
Number of Pixels in Spectrum: 3648
>>>>>Begin Spectral Data<<<<<
178.758	-51.02
178.974	-182.44
179.191	-162.55
179.407	-35.71
179.624	-15.03
179.84	3.41
180.057	-5.22
180.273	45.88
180.489	63.61
180.706	-3.09
180.922	6.5
181.138	2.83
181.355	3.21
181.571	-0.2
181.787	7.56
182.004	4.82
182.22	-18.86
182.436	-41.41
182.653	-16.25
182.869	-34.04
183.085	-19.12
183.301	-30.21
183.518	-1.42
183.734	-3.48
183.95	-10.35
184.166	0.55
184.383	-5.77
184.599	6.68
184.815	-12.48
185.031	-42.64
185.247	-10.87
185.463	-33.37
185.68	-50.38
185.896	-44.84
186.112	-35.15
186.328	18.85
186.544	23.36
186.76	41.78
186.976	67.61
187.192	84.32
187.408	120.54
187.624	140.59
187.84	128.67
188.056	103.82
188.272	81.59
188.488	77.16
188.704	73.38
188.92	80.04
189.136	72.33
189.352	61
189.568	110.29
189.784	124.93
190	141.49
190.216	143.32
190.432	146.52
190.648	155.23
190.864	222.53
191.08	160
191.296	56.4
191.511	8.57
191.727	12.66
191.943	59.04
192.159	38.43
192.375	17.37
192.591	18.35
192.806	80.62
193.022	51.96
193.238	30.29
193.454	83.48
193.669	-4.61
193.885	33.03
194.101	-17.16
194.317	-35.61
194.532	-633.71
194.748	201.68
194.964	-21.53
195.18	-38.14
195.395	-70.11
195.611	-4.58
195.827	-5.5
196.042	-69.08
196.258	-55.09
196.473	-103.38
196.689	-157.99
196.905	-140.24
197.12	-700.99
197.336	-240.57
197.551	323.14
197.767	-71200
197.982	-170.46
198.198	-295.89
198.414	-175.28
198.629	0
198.845	5.32
199.06	-97.75
199.276	-53.09
199.491	-482.16
199.707	-97.44
199.922	-18.24
200.137	-55.61
200.353	-58.68
200.568	-26.2
200.784	-66.99
200.999	-58.44
201.215	-41.74
201.43	-121.38
201.645	-61.6
201.861	-87.46
202.076	-56.27
202.291	-87.57
202.507	-118.81
202.722	-125.46
202.937	-330.21
203.153	-329.57
203.368	-196.12
203.583	-47.85
203.798	-120.03
204.014	-84.8
204.229	-39.09
204.444	-33.18
204.659	-252.04
204.875	-397.51
205.09	1176.47
205.305	-1735.85
205.52	806.5
205.735	625.15
205.951	-4768
206.166	359.49
206.381	309.6
206.596	2858.18
206.811	1073.68
207.026	469.37
207.241	200.71
207.457	-411.21
207.672	-1438.02
207.887	1887.85
208.102	568.68
208.317	548.95
208.532	-1416.95
208.747	1584.7
208.962	1189.19
209.177	-1718.12
209.392	-747.66
209.607	-254.12
209.822	-305.47
210.037	-269.07
210.252	-307.45
210.467	-546.91
210.682	-215.3
210.897	-243.3
211.112	-381.15
211.326	-262.39
211.541	-386.34
211.756	-162.03
211.971	-303.11
212.186	-202.18
212.401	-241.19
212.616	-264.94
212.831	-218.81
213.045	-358
213.26	-263.71
213.475	-215.47
213.69	-288.25
213.905	-471.18
214.119	-1869.68
214.334	17200
214.549	1899.6
214.764	-2677.72
214.978	-1417.06
215.193	-1729.64
215.408	10451.28
215.622	-1574.34
215.837	-9582.22
216.052	5213.79
216.266	1077.47
216.481	1209.6
216.696	754.17
216.91	-10315.15
217.125	-840.12
217.34	-1305.7
217.554	-1535.14
217.769	686.77
217.983	386.84
218.198	530.91
218.412	757.56
218.627	-337.64
218.842	-159.1
219.056	-136.41
219.271	-61.71
219.485	-81.24
219.7	-95.69
219.914	-4
220.129	-76.29
220.343	-62.65
220.558	-89.51
220.772	-223.77
220.986	-149.24
221.201	-230.56
221.415	472.89
221.63	239.92
221.844	214.95
222.058	220.59
222.273	249.09
222.487	258.49
222.702	377.63
222.916	390.31
223.13	255.12
223.344	265.51
223.559	193.61
223.773	215.96
223.987	321.43
224.202	316.5
224.416	480.17
224.63	323.27
224.844	282.55
225.059	312.86
225.273	2068.69
225.487	-2105.6
225.701	-218.32
225.915	-166.18
226.13	-113.73
226.344	-78.27
226.558	-85.24
226.772	-60.76
226.986	-55.29
227.2	-57.24
227.415	-47.26
227.629	-39.1
227.843	-48.49
228.057	-7.68
228.271	12.09
228.485	27.83
228.699	8.49
228.913	-7.69
229.127	-6.2
229.341	-19.6
229.555	6.21
229.769	-48.58
229.983	-102.24
230.197	-88.15
230.411	-53.17
230.625	-138.88
230.839	-218.12
231.053	-405.31
231.267	-766.14
231.481	-724.88
231.695	-335.14
231.909	-104.53
232.122	-60.56
232.336	-92.92
232.55	-224.2
232.764	-396.38
232.978	-376.16
233.192	-517.59
233.405	-751.37
233.619	-534.17
233.833	-274.13
234.047	-486.76
234.261	-774.76
234.474	-354
234.688	887.44
234.902	679.37
235.116	430.34
235.329	336.33
235.543	585.44
235.757	338.29
235.97	267.05
236.184	291.53
236.398	211.16
236.612	203.62
236.825	244.39
237.039	346.78
237.252	301.15
237.466	1277.92
237.68	3837.29
237.893	-190000
238.107	-779.45
238.32	1773.91
238.534	-477.7
238.748	-208.85
238.961	-152.74
239.175	-187.52
239.388	-279.66
239.602	-496.19
239.815	-134.71
240.029	-336.58
240.242	-220.61
240.456	-120.27
240.669	-132.65
240.882	-149.27
241.096	-312.04
241.309	-253.98
241.523	-386.55
241.736	-588.56
241.95	1740.78
242.163	-2442.11
242.376	-758.5
242.59	-3091.2
242.803	24293.33
243.016	1191.54
243.23	3489.08
243.443	27973.33
243.656	-3527.82
243.87	-584.13
244.083	-303.63
244.296	-249.35
244.509	-212.22
244.723	-204.9
244.936	-213.3
245.149	-338.15
245.362	-321.37
245.576	-176.5
245.789	-208.2
246.002	-137.14
246.215	-154.17
246.428	-109.48
246.641	-123.53
246.855	-160.62
247.068	-130.89
247.281	-184.32
247.494	-82.54
247.707	-134.91
247.92	-188.65
248.133	-128.56
248.346	-172.87
248.559	-127.08
248.772	-190.16
248.985	-119.75
249.198	-89.16
249.411	-109.51
249.624	-88.37
249.837	-79.88
250.05	-93.44
250.263	-97.27
250.476	-115.11
250.689	-83.66
250.902	-67.91
251.115	-73.91
251.328	-63.23
251.541	-46.84
251.754	-35.32
251.967	-41.52
252.18	-45.7
252.393	-40.9
252.605	-45.27
252.818	-54.75
253.031	-61.32
253.244	-51.49
253.457	-70.37
253.67	-82.81
253.882	-72.3
254.095	-50.69
254.308	-48.41
254.521	-56.01
254.733	-46.46
254.946	-38.02
255.159	-41.74
255.372	-46.69
255.584	-50.06
255.797	-56.94
256.01	-83.17
256.222	-76.66
256.435	-73.56
256.648	-56.29
256.86	-57.03
257.073	-63.47
257.285	-62.64
257.498	-83.57
257.711	-85.29
257.923	-67.85
258.136	-60.44
258.348	-49.6
258.561	-60.18
258.773	-88.77
258.986	-98.26
259.198	-107.7
259.411	-167.89
259.623	-146.2
259.836	-160.1
260.048	-134.28
260.261	-102.19
260.473	-80.14
260.686	-82.96
260.898	-91.88
261.111	-100.39
261.323	-83.63
261.535	-61.97
261.748	-45.22
261.96	-33.63
262.173	-27.33
262.385	-30.53
262.597	-35.54
262.81	-40.77
263.022	-43.81
263.234	-33.08
263.447	-24.24
263.659	-20.53
263.871	-18.74
264.083	-15.48
264.296	-12.05
264.508	-17.4
264.72	-20.87
264.932	-22.18
265.145	-32.26
265.357	-38.39
265.569	-45.74
265.781	-67.7
265.993	-92.54
266.205	-112.21
266.418	-121.39
266.63	-165.09
266.842	-137.8
267.054	-110.36
267.266	-90.63
267.478	-120.99
267.69	-87.75
267.902	-95.92
268.114	-108.49
268.326	-92.71
268.538	-100.5
268.75	-75.57
268.962	-68.34
269.174	-66.38
269.386	-42.55
269.598	-33.6
269.81	-25.82
270.022	-24.6
270.234	-4.99
270.446	-4.25
270.658	-12.47
270.87	-7.41
271.082	-2.5
271.294	-3.88
271.506	-10.56
271.718	-14.15
271.929	-8.76
272.141	-9.69
272.353	-8.29
272.565	-9.63
272.777	-6.2
272.989	-0.88
273.2	-1.32
273.412	-3.03
273.624	-3.54
273.836	-7.98
274.047	-5.38
274.259	-7.13
274.471	-3.19
274.683	-11.79
274.894	-13.09
275.106	-7.35
275.318	-13.69
275.529	-20.11
275.741	-26.75
275.953	-24.51
276.164	-20.52
276.376	-19.06
276.588	-26.73
276.799	-28.54
277.011	-31.41
277.222	-36.54
277.434	-53.98
277.646	-68.55
277.857	-54
278.069	-44.99
278.28	-49.53
278.492	-59.65
278.703	-55.24
278.915	-34.73
279.126	-37.84
279.338	-36.02
279.549	-33.65
279.761	-21.19
279.972	-21.21
280.183	-20.29
280.395	-13.43
280.606	-19.57
280.818	-26.81
281.029	-28.61
281.24	-29.33
281.452	-33.29
281.663	-39.91
281.875	-33.13
282.086	-25.5
282.297	-36.84
282.508	-40.5
282.72	-36.52
282.931	-30.21
283.142	-31.43
283.354	-45.38
283.565	-40.65
283.776	-46.2
283.987	-69.36
284.199	-74.55
284.41	-46.02
284.621	-41.91
284.832	-41.03
285.043	-31.1
285.254	-38.69
285.466	-44.01
285.677	-38.03
285.888	-31.9
286.099	-34.15
286.31	-35.73
286.521	-49.16
286.732	-61.07
286.943	-55.16
287.154	-53.39
287.366	-56.37
287.577	-53.94
287.788	-53.67
287.999	-50.78
288.21	-56.9
288.421	-40.36
288.632	-43.62
288.843	-57.39
289.054	-52.84
289.264	-57.83
289.475	-63.95
289.686	-52.32
289.897	-41.86
290.108	-38.92
290.319	-41.61
290.53	-27.02
290.741	-26.16
290.952	-18.86
291.163	-2.54
291.373	-3.58
291.584	-1.55
291.795	0.58
292.006	0.49
292.217	1.45
292.427	3.22
292.638	5.04
292.849	2.11
293.06	6.57
293.27	11.53
293.481	10.54
293.692	9.88
293.903	8.61
294.113	8.15
294.324	8.07
294.535	-2.3
294.745	-2.33
294.956	-9.71
295.167	-10.8
295.377	-12.99
295.588	-17.64
295.798	-21.93
296.009	-29.05
296.22	-32.73
296.43	-34.82
296.641	-44.4
296.851	-49.83
297.062	-54.01
297.272	-50.54
297.483	-59.47
297.693	-63.59
297.904	-66.91
298.114	-51.8
298.325	-41.55
298.535	-50.64
298.746	-51.45
298.956	-43.67
299.167	-42.88
299.377	-51.21
299.587	-53.06
299.798	-55.23
300.008	-61.8
300.219	-52.27
300.429	-48.06
300.639	-43.2
300.85	-38.04
301.06	-37.38
301.27	-22.15
301.481	-15.69
301.691	-20.75
301.901	-16.45
302.111	-15.06
302.322	-13.44
302.532	-21.09
302.742	-34.27
302.952	-26.99
303.163	-37.86
303.373	-41.06
303.583	-35.49
303.793	-27.73
304.003	-25.29
304.214	-24.26
304.424	-25.41
304.634	-30.3
304.844	-29.72
305.054	-22.47
305.264	-30.09
305.474	-29.67
305.684	-46.47
305.894	-36.97
306.104	-36.83
306.314	-45.23
306.525	-46.98
306.735	-51.7
306.945	-61.09
307.155	-48.36
307.365	-41.21
307.575	-34.18
307.784	-31.1
307.994	-34.26
308.204	-38.08
308.414	-36.19
308.624	-34.55
308.834	-29.61
309.044	-29.36
309.254	-27.74
309.464	-29.41
309.674	-26.13
309.884	-26.83
310.093	-19.8
310.303	-23
310.513	-15.98
310.723	-8.71
310.933	-9.12
311.142	-3.52
311.352	-0.51
311.562	-3.54
311.772	-7.53
311.981	-6.52
312.191	-8.42
312.401	-10.47
312.611	-9.86
312.82	-13.59
313.03	-10.41
313.24	-10.74
313.449	-9.02
313.659	-11.68
313.869	-18.19
314.078	-14.33
314.288	-16.42
314.497	-24.12
314.707	-22.91
314.917	-30.73
315.126	-24.1
315.336	-19.56
315.545	-26.09
315.755	-24.03
315.964	-24.95
316.174	-19.52
316.383	-20.59
316.593	-20.84
316.802	-17.62
317.012	-16.63
317.221	-10.04
317.431	-13.73
317.64	-11.75
317.849	-18.86
318.059	-22.3
318.268	-14.43
318.478	-12.04
318.687	-8.69
318.896	-4.78
319.106	-7.78
319.315	-5.77
319.524	-21.48
319.734	-27.13
319.943	-23.49
320.152	-21.46
320.362	-22.56
320.571	-28.51
320.78	-33.27
320.989	-29.8
321.199	-29.34
321.408	-23.67
321.617	-26.8
321.826	-24.95
322.035	-31.49
322.245	-27.34
322.454	-24.22
322.663	-28.97
322.872	-37.62
323.081	-36.86
323.29	-40.38
323.5	-37.56
323.709	-35.23
323.918	-22.5
324.127	-22.55
324.336	-30.96
324.545	-33.65
324.754	-32.56
324.963	-31.45
325.172	-23.89
325.381	-26.64
325.59	-27.9
325.799	-35.72
326.008	-45.44
326.217	-48.63
326.426	-35.07
326.635	-31.96
326.844	-29.4
327.053	-15.8
327.262	-5.11
327.47	-6.95
327.679	-5.68
327.888	-5.69
328.097	-6.12
328.306	-13.41
328.515	-12.7
328.724	-3.24
328.932	-11.9
329.141	-7.11
329.35	-5.29
329.559	-10.05
329.768	-0.14
329.976	1.12
330.185	-2.85
330.394	2.75
330.602	-0.09
330.811	-12.83
331.02	-16.03
331.229	-16.64
331.437	-18.77
331.646	-27.1
331.855	-27.74
332.063	-27.92
332.272	-37.32
332.48	-43.5
332.689	-42.66
332.898	-44.67
333.106	-54.62
333.315	-47.27
333.523	-48.47
333.732	-49.31
333.94	-45.06
334.149	-54.66
334.357	-61.44
334.566	-46.04
334.774	-46.07
334.983	-42.08
335.191	-44.16
335.4	-47.61
335.608	-44.96
335.817	-49.91
336.025	-40.83
336.234	-45.78
336.442	-39.56
336.65	-30.77
336.859	-21.21
337.067	-26.09
337.275	-21.23
337.484	-17.22
337.692	-12.16
337.9	-6.91
338.109	-6.87
338.317	-14.2
338.525	-6.95
338.734	-2.55
338.942	-9.9
339.15	-19.26
339.358	-30.05
339.567	-12.73
339.775	-17.96
339.983	-25.88
340.191	-43.48
340.399	-45.9
340.608	-23.85
340.816	-21.08
341.024	-16.16
341.232	-27.71
341.44	-19.78
341.648	-15.8
341.856	-15.7
342.064	-20.41
342.272	-28.93
342.481	-27.46
342.689	-23.98
342.897	-26.5
343.105	-30.47
343.313	-26.18
343.521	-24.66
343.729	-24.37
343.937	-35
344.145	-31.47
344.353	-26.9
344.56	-20.88
344.768	-18.11
344.976	-35.9
345.184	-46.71
345.392	-51.01
345.6	-45.09
345.808	-48.37
346.016	-57.37
346.224	-44.79
346.431	-38.2
346.639	-28.66
346.847	-35.02
347.055	-40.82
347.263	-48.82
347.471	-54.72
347.678	-59.19
347.886	-61.17
348.094	-47.5
348.302	-30.03
348.509	-31.96
348.717	-32.01
348.925	-35.29
349.132	-40.61
349.34	-27.87
349.548	-19.38
349.755	-21.4
349.963	-14.7
350.171	-16.7
350.378	-9.6
350.586	-21
350.793	-26.48
351.001	-33.31
351.209	-28.24
351.416	-15.33
351.624	-14.59
351.831	-16.7
352.039	-22.68
352.246	-31.4
352.454	-42.08
352.661	-64.69
352.869	-55.55
353.076	-53.76
353.284	-44.87
353.491	-41.62
353.699	-48.74
353.906	-45.09
354.113	-34.04
354.321	-46.2
354.528	-49.11
354.736	-57.9
354.943	-52.94
355.15	-44.55
355.358	-45.81
355.565	-49.15
355.772	-53.57
355.98	-41.72
356.187	-34.35
356.394	-38.35
356.601	-36.63
356.809	-26.97
357.016	-8.94
357.223	-10.67
357.43	-17.19
357.638	-16.94
357.845	-14.28
358.052	-14.27
358.259	-17.54
358.466	-19.43
358.673	-13.57
358.881	-12
359.088	-14.36
359.295	-13.12
359.502	-31.69
359.709	-28.46
359.916	-21.3
360.123	-17.61
360.33	-33.26
360.537	-36.57
360.744	-25.5
360.951	-26.02
361.158	-31.65
361.365	-39.18
361.572	-35.38
361.779	-22.37
361.986	-21.85
362.193	-27.59
362.4	-27.57
362.607	-36.58
362.814	-38.18
363.021	-33.93
363.228	-33.17
363.435	-18.77
363.641	-21.73
363.848	-15.4
364.055	-13.19
364.262	-8.77
364.469	-23.26
364.676	-15.68
364.882	-7.92
365.089	-6.12
365.296	-1.88
365.503	-2.27
365.709	-8.77
365.916	-12.91
366.123	-10.82
366.33	-15.52
366.536	-14.75
366.743	-19.5
366.95	-21.32
367.156	-23.39
367.363	-27.5
367.57	-34.74
367.776	-45.94
367.983	-40.55
368.19	-39.3
368.396	-42.79
368.603	-56.39
368.809	-38.85
369.016	-41.92
369.222	-51.47
369.429	-49.02
369.635	-41.68
369.842	-47.33
370.048	-41.36
370.255	-31.61
370.461	-36.66
370.668	-40.99
370.874	-40.47
371.081	-28.29
371.287	-19.86
371.494	-22.08
371.7	-18.99
371.906	-17.25
372.113	-19.6
372.319	-25.48
372.526	-15.17
372.732	-19.07
372.938	-23.75
373.145	-30.85
373.351	-24.12
373.557	-25.16
373.763	-30.95
373.97	-30.05
374.176	-16.58
374.382	-12.79
374.588	-22.82
374.795	-27.33
375.001	-28.15
375.207	-38.16
375.413	-41.9
375.62	-32.15
375.826	-29.01
376.032	-31.02
376.238	-25.18
376.444	-23.91
376.65	-25.54
376.856	-41.67
377.062	-31.35
377.269	-19.37
377.475	-23.05
377.681	-32.8
377.887	-30.88
378.093	-43
378.299	-42.17
378.505	-55.59
378.711	-65.27
378.917	-58.73
379.123	-49.05
379.329	-31.68
379.535	-21.96
379.741	-27.63
379.947	-29.84
380.152	-30.44
380.358	-28.68
380.564	-35.74
380.77	-41.57
380.976	-48.87
381.182	-39.9
381.388	-45.56
381.594	-55.06
381.799	-51.26
382.005	-44.48
382.211	-41.47
382.417	-29.31
382.623	-40.38
382.828	-31
383.034	-33.3
383.24	-40.66
383.445	-45.79
383.651	-61.8
383.857	-67.81
384.063	-50.43
384.268	-77.19
384.474	-67.22
384.68	-73.1
384.885	-53.96
385.091	-39.63
385.296	-29.58
385.502	-29.48
385.708	-32.49
385.913	-27.24
386.119	-29.57
386.324	-51.06
386.53	-57.39
386.735	-82.11
386.941	-63.17
387.146	-72.02
387.352	-51.86
387.557	-30.02
387.763	-39.95
387.968	-39.58
388.174	-27.58
388.379	-40.19
388.585	-38.14
388.79	-49.28
388.996	-41.33
389.201	-63.98
389.406	-74.53
389.612	-80.58
389.817	-68.02
390.022	-56.52
390.228	-46.2
390.433	-49.84
390.638	-39.82
390.844	-40.28
391.049	-32.92
391.254	-35.29
391.459	-25.79
391.665	-48.53
391.87	-59.41
392.075	-42.69
392.28	-35.35
392.485	-43.75
392.691	-47.51
392.896	-47.32
393.101	-38.77
393.306	-35.17
393.511	-25.4
393.716	-18.26
393.922	-19.42
394.127	-26.33
394.332	-20.52
394.537	-26.46
394.742	-25.12
394.947	-26.96
395.152	-16.68
395.357	-14.25
395.562	-17.31
395.767	-39.26
395.972	-24.19
396.177	-22.01
396.382	-26.5
396.587	-26.13
396.792	-22.54
396.997	-12.2
397.202	-5.89
397.407	-12.49
397.611	-17.16
397.816	-17.13
398.021	-23.73
398.226	-20.08
398.431	-26.15
398.636	-34.83
398.841	-32.14
399.045	-20.61
399.25	-21.73
399.455	-31.14
399.66	-32.62
399.864	-33
400.069	-32.38
400.274	-34.4
400.479	-33.35
400.683	-31.43
400.888	-33.4
401.093	-49.62
401.297	-54.77
401.502	-62.38
401.707	-71.41
401.911	-61.71
402.116	-64.91
402.321	-47.9
402.525	-49.88
402.73	-42.09
402.934	-39.22
403.139	-36.9
403.344	-51.41
403.548	-49.88
403.753	-43.38
403.957	-59.61
404.162	-56.29
404.366	-40.96
404.571	-42.86
404.775	-42.84
404.98	-50.11
405.184	-49.34
405.388	-32.38
405.593	-42.49
405.797	-36.02
406.002	-18.07
406.206	-24.22
406.41	-14.53
406.615	-15.18
406.819	-8.19
407.023	-9.7
407.228	-11.22
407.432	-21.74
407.636	-24.64
407.841	-21.89
408.045	-29.07
408.249	-27.2
408.453	-20.5
408.658	-23.42
408.862	-13.5
409.066	-12.5
409.27	-4.56
409.474	-4.79
409.679	-20.6
409.883	-18.95
410.087	-25.4
410.291	-28.37
410.495	-23.17
410.699	-34.46
410.903	-40.83
411.108	-46.28
411.312	-50.71
411.516	-70.84
411.72	-50.34
411.924	-49.55
412.128	-45.69
412.332	-42.2
412.536	-33.4
412.74	-29.05
412.944	-27.49
413.148	-35.43
413.352	-42
413.556	-47.41
413.76	-47.74
413.964	-37.12
414.167	-25.62
414.371	-17.35
414.575	-23.52
414.779	-40.56
414.983	-39.63
415.187	-37.84
415.391	-46.79
415.594	-40.19
415.798	-29.4
416.002	-36.97
416.206	-23.13
416.41	-22.66
416.613	-25.8
416.817	-32.64
417.021	-39.78
417.225	-29.86
417.428	-36.08
417.632	-43.27
417.836	-44.5
418.039	-39.78
418.243	-31.96
418.447	-46.27
418.65	-46.37
418.854	-40.39
419.057	-21.94
419.261	-15.29
419.465	-13.46
419.668	-5.48
419.872	-9.93
420.075	-14.76
420.279	-12.62
420.482	-13.25
420.686	-15.31
420.889	-17.89
421.093	-7.74
421.296	-9.03
421.5	-19.85
421.703	-22.48
421.907	-18.56
422.11	-19.38
422.314	-29.66
422.517	-31.6
422.72	-23
422.924	-27.83
423.127	-36.82
423.33	-56.83
423.534	-68.53
423.737	-59.26
423.94	-67.13
424.144	-45.78
424.347	-26.9
424.55	-29.87
424.754	-36.39
424.957	-38.85
425.16	-28.58
425.363	-30.63
425.567	-26.78
425.77	-22.25
425.973	-16.05
426.176	-18.93
426.379	-16.46
426.582	-4.27
426.786	-2.55
426.989	-12.22
427.192	-4.6
427.395	5.55
427.598	5.38
427.801	11.13
428.004	4.97
428.207	9.53
428.41	4.84
428.613	-2.63
428.816	7.08
429.019	2
429.222	-8.57
429.425	-7.85
429.628	-6.28
429.831	-8.19
430.034	-9.39
430.237	-11.07
430.44	-11.99
430.643	-19.85
430.846	-23.03
431.049	-27.07
431.252	-23.43
431.454	-26.7
431.657	-36.14
431.86	-36.42
432.063	-43.53
432.266	-45.31
432.469	-47.99
432.671	-53.64
432.874	-43.68
433.077	-59.82
433.28	-47.3
433.482	-35.04
433.685	-44.11
433.888	-48.66
434.09	-70
434.293	-87.24
434.496	-85.12
434.698	-91.99
434.901	-72.04
435.104	-68.15
435.306	-54.68
435.509	-55.45
435.712	-55.01
435.914	-78.49
436.117	-57.46
436.319	-47.09
436.522	-44.84
436.724	-47.31
436.927	-50.26
437.129	-56.18
437.332	-56.63
437.534	-71.34
437.737	-93.17
437.939	-73.45
438.142	-81.69
438.344	-54.97
438.547	-58.21
438.749	-43.98
438.951	-47.01
439.154	-51.34
439.356	-58.95
439.558	-64.63
439.761	-57.85
439.963	-54.3
440.165	-26.99
440.368	-24.64
440.57	-46.77
440.772	-51.01
440.975	-60.16
441.177	-46.15
441.379	-43.88
441.581	-35.46
441.784	-38.22
441.986	-16.55
442.188	-19.61
442.39	-22.69
442.592	-32.67
442.795	-27.89
442.997	-27.99
443.199	-24.31
443.401	-30.05
443.603	-29.42
443.805	-42.09
444.007	-36.81
444.209	-40.21
444.411	-38.21
444.613	-48.92
444.815	-33.4
445.017	-35.03
445.219	-25.56
445.421	-28.34
445.623	-34.13
445.825	-46.79
446.027	-51.35
446.229	-64.21
446.431	-68.56
446.633	-70.62
446.835	-58.57
447.037	-55.19
447.239	-71.98
447.441	-69.79
447.643	-66.86
447.844	-84.1
448.046	-71.31
448.248	-65.15
448.45	-69.45
448.652	-84.52
448.853	-67.52
449.055	-74.7
449.257	-64.75
449.459	-81.17
449.66	-70.05
449.862	-71.4
450.064	-44.92
450.266	-43.46
450.467	-48.32
450.669	-47.55
450.871	-61.96
451.072	-55.48
451.274	-56.28
451.475	-48.62
451.677	-43.72
451.879	-51.87
452.08	-52.76
452.282	-36.77
452.483	-51.8
452.685	-39.66
452.886	-29.5
453.088	-50.17
453.289	-70.94
453.491	-94.26
453.692	-122.2
453.894	-100.2
454.095	-82.51
454.297	-90.62
454.498	-70.33
454.7	-60.31
454.901	-56.17
455.102	-39.08
455.304	-42.7
455.505	-37.49
455.706	-40.2
455.908	-35.36
456.109	-43.67
456.31	-34.07
456.512	-47.01
456.713	-38.6
456.914	-40.65
457.116	-54.9
457.317	-34.67
457.518	-31.46
457.719	-19.9
457.921	-12.75
458.122	-26.99
458.323	-28.66
458.524	-25.05
458.725	-24.86
458.926	-32.95
459.128	-32.7
459.329	-37.49
459.53	-39.24
459.731	-48.67
459.932	-61.68
460.133	-67.57
460.334	-52.29
460.535	-47.18
460.736	-41.52
460.937	-60.82
461.138	-63.62
461.339	-45.52
461.54	-56.12
461.741	-54.46
461.942	-45.59
462.143	-36.84
462.344	-40.21
462.545	-38.12
462.746	-46.54
462.947	-52.08
463.148	-45.25
463.348	-48.61
463.549	-50.2
463.75	-51.58
463.951	-43.18
464.152	-32.19
464.353	-30.39
464.553	-18.15
464.754	-16.14
464.955	-17.99
465.156	-5.41
465.356	-4.13
465.557	-9.53
465.758	-6.98
465.959	0.25
466.159	-4.25
466.36	-16.31
466.561	-18.17
466.761	-24.32
466.962	-24.96
467.163	-19.79
467.363	-24.35
467.564	-22.17
467.764	-15.32
467.965	-19.9
468.166	-26.75
468.366	-20.06
468.567	-17.92
468.767	-12.54
468.968	-20.44
469.168	-14.23
469.369	-17.78
469.569	-24.65
469.77	-30.78
469.97	-35.36
470.17	-30.7
470.371	-32.99
470.571	-35.29
470.772	-24.64
470.972	-17.05
471.172	-11.48
471.373	-20.84
471.573	-13.52
471.773	-14.43
471.974	-17.21
472.174	-18.95
472.374	-10.92
472.575	-17.84
472.775	-17.61
472.975	-37.47
473.175	-39.54
473.376	-49.89
473.576	-46.43
473.776	-36.61
473.976	-35.4
474.177	-28.36
474.377	-35.08
474.577	-35.68
474.777	-33.16
474.977	-37.27
475.177	-44.41
475.377	-42.68
475.577	-29.47
475.777	-32.07
475.978	-31.07
476.178	-29.17
476.378	-25.12
476.578	-28.83
476.778	-27.93
476.978	-30.41
477.178	-24.73
477.378	-18.34
477.578	-16.35
477.778	-20.33
477.977	-24.24
478.177	-24.48
478.377	-30.15
478.577	-27.78
478.777	-23.9
478.977	-18.27
479.177	-21.17
479.377	-21.87
479.577	-29.2
479.776	-31.88
479.976	-35.95
480.176	-37.71
480.376	-35.33
480.576	-32.8
480.775	-32.59
480.975	-30.59
481.175	-30.42
481.374	-29.08
481.574	-24.82
481.774	-27.11
481.974	-27.48
482.173	-26.87
482.373	-26.85
482.572	-21.09
482.772	-23.07
482.972	-19.02
483.171	-21.08
483.371	-11.8
483.57	-10.88
483.77	-5.65
483.97	-7.34
484.169	-4.79
484.369	-2.48
484.568	-3.6
484.768	-1.68
484.967	-2.59
485.167	-1.72
485.366	-5.33
485.566	-7.53
485.765	-7.61
485.964	-6.82
486.164	-5.47
486.363	-8.64
486.563	-4.74
486.762	-7.43
486.961	-8.03
487.161	-10.99
487.36	-16.58
487.559	-24.2
487.759	-24.36
487.958	-27.98
488.157	-31.76
488.356	-32.02
488.556	-31.53
488.755	-34.34
488.954	-40.21
489.153	-40.31
489.353	-38.4
489.552	-30.69
489.751	-38.62
489.95	-40.76
490.149	-43.35
490.348	-39.32
490.548	-35.7
490.747	-44
490.946	-43.34
491.145	-42.9
491.344	-47.57
491.543	-41.47
491.742	-38.43
491.941	-40.07
492.14	-39.61
492.339	-40.22
492.538	-37.5
492.737	-32.01
492.936	-28.45
493.135	-28.75
493.334	-32.97
493.533	-37.23
493.732	-31.95
493.931	-19.09
494.13	-26.95
494.328	-22.3
494.527	-23.74
494.726	-29.07
494.925	-31.13
495.124	-29.46
495.323	-29.54
495.521	-26.67
495.72	-22.69
495.919	-25.57
496.118	-21.73
496.316	-18.81
496.515	-17.76
496.714	-21.82
496.913	-24.65
497.111	-26.86
497.31	-31.28
497.509	-26.39
497.707	-25.38
497.906	-27.23
498.105	-35.87
498.303	-32.88
498.502	-34.87
498.7	-32.58
498.899	-31.11
499.097	-28.19
499.296	-27.94
499.495	-28.87
499.693	-31.42
499.892	-37.52
500.09	-37.94
500.289	-31.44
500.487	-33.48
500.686	-30.83
500.884	-28.57
501.082	-29.88
501.281	-36.06
501.479	-28.2
501.678	-25.44
501.876	-24.1
502.074	-26.97
502.273	-26.96
502.471	-24.65
502.669	-23.25
502.868	-26.15
503.066	-18.71
503.264	-18.98
503.463	-20.85
503.661	-22.13
503.859	-21.7
504.057	-19.26
504.256	-15.95
504.454	-23.87
504.652	-27.84
504.85	-25.07
505.048	-22.96
505.246	-22.74
505.445	-19.11
505.643	-23.49
505.841	-23.05
506.039	-26.21
506.237	-26.87
506.435	-19.73
506.633	-19.26
506.831	-16.09
507.029	-18.65
507.227	-17.99
507.425	-13.43
507.623	-14.73
507.821	-16.57
508.019	-11.1
508.217	-9.64
508.415	-12.52
508.613	-9.23
508.811	-6.49
509.009	-11.25
509.207	-13.19
509.405	-11.82
509.603	-9.68
509.8	-7.55
509.998	-11.55
510.196	-8.86
510.394	-13.66
510.592	-16.57
510.79	-17.77
510.987	-22.69
511.185	-17.63
511.383	-24.49
511.581	-29.84
511.778	-23.62
511.976	-20.46
512.174	-28.22
512.371	-37.99
512.569	-32.38
512.767	-32.38
512.964	-34.36
513.162	-32.74
513.36	-33.51
513.557	-36.91
513.755	-40.54
513.952	-41.42
514.15	-45.86
514.348	-44.79
514.545	-39.89
514.743	-34.81
514.94	-34.32
515.138	-34.56
515.335	-38.07
515.533	-36.74
515.73	-29.61
515.927	-33.81
516.125	-34.51
516.322	-27.9
516.52	-18.05
516.717	-17.42
516.915	-17.17
517.112	-18.3
517.309	-20.64
517.507	-20.94
517.704	-22.15
517.901	-21.08
518.099	-21.71
518.296	-15.69
518.493	-14.52
518.69	-12.04
518.888	-13.19
519.085	-11.44
519.282	-7.01
519.479	-7.63
519.676	-9.64
519.874	-13.93
520.071	-18.44
520.268	-15.43
520.465	-15.49
520.662	-14.47
520.859	-17.27
521.056	-18.74
521.254	-11.17
521.451	-8.86
521.648	-5.65
521.845	-6.22
522.042	-3.25
522.239	0
522.436	-4.55
522.633	-10.34
522.83	-12.92
523.027	-18.6
523.224	-18.46
523.421	-19.94
523.618	-20.65
523.815	-14.03
524.011	-13.1
524.208	-9
524.405	-9.98
524.602	-12.63
524.799	-18.69
524.996	-21.67
525.193	-18.99
525.389	-27.75
525.586	-29.4
525.783	-36.28
525.98	-35.17
526.176	-36.61
526.373	-42.13
526.57	-37.16
526.767	-37.2
526.963	-36.74
527.16	-29.42
527.357	-31.47
527.553	-28.31
527.75	-29.4
527.947	-37.49
528.143	-29.57
528.34	-29.71
528.537	-33.32
528.733	-29.78
528.93	-29.48
529.126	-25.45
529.323	-25.49
529.519	-23.73
529.716	-28.07
529.912	-24.25
530.109	-20.62
530.305	-22.4
530.502	-18.85
530.698	-20.26
530.895	-22.43
531.091	-20.92
531.288	-25.77
531.484	-24.31
531.68	-25.16
531.877	-22.8
532.073	-20.01
532.269	-25.26
532.466	-22.39
532.662	-21.26
532.858	-23.43
533.055	-23.03
533.251	-22.23
533.447	-21.33
533.643	-16.97
533.84	-14.58
534.036	-15.03
534.232	-11.95
534.428	-11.79
534.624	-13.44
534.821	-12.4
535.017	-8.55
535.213	-9.11
535.409	-5.49
535.605	-5.07
535.801	-8.64
535.997	-8.13
536.193	-8.45
536.389	-9.1
536.586	-9.87
536.782	-7.99
536.978	-7.1
537.174	-5.22
537.37	-6.49
537.566	-8.29
537.762	-13.37
537.958	-12.25
538.153	-12.72
538.349	-17.38
538.545	-16.99
538.741	-17.04
538.937	-22.14
539.133	-18.38
539.329	-20.22
539.525	-18.02
539.721	-18.61
539.916	-13.07
540.112	-14.43
540.308	-15.1
540.504	-17.07
540.699	-14.49
540.895	-14.22
541.091	-10.16
541.287	-9.47
541.482	-12.52
541.678	-11.42
541.874	-10.53
542.069	-11.69
542.265	-10.33
542.461	-6.45
542.656	-5.69
542.852	-3.95
543.048	-0.55
543.243	-3.04
543.439	1.31
543.634	-1.81
543.83	-3.33
544.025	-6.56
544.221	-4.09
544.417	-3.04
544.612	-0.18
544.807	-5.04
545.003	-7.19
545.198	-13.75
545.394	-14.58
545.589	-8.38
545.785	-10.07
545.98	-9.05
546.176	-7.47
546.371	-8.4
546.566	-12.12
546.762	-13.99
546.957	-13.27
547.152	-13.3
547.348	-13.69
547.543	-15.21
547.738	-18.09
547.933	-21.12
548.129	-18.16
548.324	-21.32
548.519	-22.66
548.714	-22.37
548.91	-18.96
549.105	-20.33
549.3	-16.54
549.495	-16.67
549.69	-19.57
549.885	-21.49
550.08	-17.09
550.276	-15.6
550.471	-13.62
550.666	-12.52
550.861	-10.53
551.056	-14.16
551.251	-14.71
551.446	-12.23
551.641	-14.3
551.836	-11.66
552.031	-7.91
552.226	-11.02
552.421	-9.87
552.616	-7.97
552.811	-4.88
553.006	-7.35
553.201	-8.39
553.395	-7.44
553.59	-8.75
553.785	-9.57
553.98	-7.86
554.175	-12.38
554.37	-13.88
554.565	-14.94
554.759	-14.03
554.954	-15.43
555.149	-10.69
555.344	-10.37
555.538	-12.21
555.733	-10.29
555.928	-7.43
556.122	-7.9
556.317	-8.96
556.512	-11.86
556.706	-12.49
556.901	-14.25
557.096	-12.23
557.29	-8.87
557.485	-10.64
557.68	-12.31
557.874	-12.44
558.069	-11.15
558.263	-8.94
558.458	-10.02
558.652	-8.36
558.847	-11.26
559.041	-7.65
559.236	-10.68
559.43	-10.29
559.625	-8.56
559.819	-10.22
560.014	-11.8
560.208	-10.55
560.402	-10.28
560.597	-6.67
560.791	-6.67
560.986	-7.41
561.18	-5.92
561.374	-6.04
561.569	-6.01
561.763	-1.22
561.957	-3.33
562.151	-4.87
562.346	-3.19
562.54	1.11
562.734	-1.32
562.928	-0.95
563.123	-1.44
563.317	-2.35
563.511	-2.18
563.705	-5.7
563.899	-4.61
564.093	-5.12
564.288	-6.63
564.482	-6.97
564.676	-6.97
564.87	-3.12
565.064	-5.05
565.258	-5.03
565.452	-6.72
565.646	-8.07
565.84	-11.26
566.034	-9.97
566.228	-9.58
566.422	-13.95
566.616	-16.65
566.81	-16.71
567.004	-12.54
567.198	-11.46
567.392	-11.31
567.586	-13.51
567.779	-10.56
567.973	-11.14
568.167	-9.46
568.361	-10.96
568.555	-8.58
568.749	-9.53
568.942	-14.66
569.136	-10.19
569.33	-13.62
569.524	-12.6
569.718	-9.89
569.911	-9.86
570.105	-6.87
570.299	-6.04
570.492	-4.54
570.686	-4.6
570.88	-2.37
571.073	-4.34
571.267	-6.12
571.461	-5.47
571.654	-2.73
571.848	-4.07
572.041	-2.37
572.235	-1.94
572.429	0.56
572.622	-0.2
572.816	0.41
573.009	2.51
573.203	1.1
573.396	3.49
573.59	3.18
573.783	3.65
573.976	3.4
574.17	1.24
574.363	0.85
574.557	-0.91
574.75	-1.37
574.943	-1.19
575.137	1.4
575.33	3.09
575.523	1.23
575.717	-0.66
575.91	-1.77
576.103	-2.3
576.297	-4.27
576.49	-4.32
576.683	-3.54
576.876	-3.72
577.07	-4.36
577.263	-5.36
577.456	-5.81
577.649	-5.02
577.842	-6.3
578.036	-4.52
578.229	-6.13
578.422	-6.09
578.615	-4.95
578.808	-4.39
579.001	-5.46
579.194	-7.28
579.387	-7.55
579.58	-5
579.773	-6
579.966	-4.17
580.159	-5.45
580.352	-4.59
580.545	-4.21
580.738	-7.16
580.931	-9.19
581.124	-9.02
581.317	-10.01
581.51	-11.24
581.703	-10.75
581.896	-10.17
582.088	-11.95
582.281	-8.39
582.474	-7.77
582.667	-6.49
582.86	-8.08
583.053	-9.91
583.245	-8.76
583.438	-10.01
583.631	-8.23
583.824	-6.5
584.016	-6.54
584.209	-7.67
584.402	-6.41
584.594	-6.11
584.787	-2.25
584.98	-0.47
585.172	1.59
585.365	0.81
585.558	1.49
585.75	1.31
585.943	2.45
586.135	3.81
586.328	1.8
586.52	2.22
586.713	2.43
586.906	3.17
587.098	4.91
587.291	5.15
587.483	5.04
587.675	4.96
587.868	3.27
588.06	2.05
588.253	3.87
588.445	3.58
588.638	1.28
588.83	0.09
589.022	-0.7
589.215	-2.85
589.407	0.08
589.599	0.59
589.792	-1.02
589.984	-1.02
590.176	0.41
590.368	2.35
590.561	3.17
590.753	2.63
590.945	3.35
591.137	2.52
591.33	0.6
591.522	1.7
591.714	0.36
591.906	3.16
592.098	3.7
592.29	3.58
592.482	4.16
592.674	4.36
592.867	3.82
593.059	4.81
593.251	5.12
593.443	4.44
593.635	3.14
593.827	2.69
594.019	0.03
594.211	-2.72
594.403	-2.04
594.595	-0.9
594.787	-1.76
594.979	-3.06
595.17	-1.91
595.362	-1.27
595.554	-2.53
595.746	-3.54
595.938	-4.12
596.13	-4.18
596.322	-5.22
596.513	-9.05
596.705	-7.56
596.897	-8.19
597.089	-7.98
597.281	-8.63
597.472	-8.53
597.664	-9.3
597.856	-8.58
598.048	-8.17
598.239	-7.32
598.431	-9.09
598.623	-11.55
598.814	-13.57
599.006	-11.64
599.197	-11.99
599.389	-12.11
599.581	-13.81
599.772	-13.12
599.964	-12.75
600.155	-12.2
600.347	-11.93
600.538	-10.7
600.73	-9.71
600.921	-9.39
601.113	-9.76
601.304	-8.52
601.496	-8.8
601.687	-7.48
601.879	-7.93
602.07	-6.52
602.262	-6.76
602.453	-6.48
602.644	-7.48
602.836	-7.02
603.027	-8.91
603.218	-9.43
603.41	-10.18
603.601	-8.34
603.792	-9.05
603.983	-10.8
604.175	-11.02
604.366	-10.51
604.557	-8.4
604.748	-11.39
604.94	-10.82
605.131	-12.05
605.322	-11.87
605.513	-12.71
605.704	-11.96
605.895	-11.01
606.086	-11.27
606.278	-10.79
606.469	-10.64
606.66	-8.78
606.851	-10.11
607.042	-9.6
607.233	-10
607.424	-9.15
607.615	-9.84
607.806	-9.96
607.997	-9.65
608.188	-9.8
608.379	-9.35
608.57	-10.7
608.761	-9.87
608.952	-10.26
609.142	-8.26
609.333	-9.37
609.524	-9.31
609.715	-9.47
609.906	-10
610.097	-10.04
610.287	-11.62
610.478	-11.84
610.669	-11.57
610.86	-9.1
611.051	-10.17
611.241	-8.48
611.432	-8.92
611.623	-6.48
611.813	-6.42
612.004	-6.47
612.195	-4.87
612.385	-5.09
612.576	-4.09
612.767	-3.78
612.957	-4.2
613.148	-5.79
613.338	-7.59
613.529	-8.08
613.72	-7.64
613.91	-7.84
614.101	-8.32
614.291	-6.78
614.482	-5.85
614.672	-7.21
614.863	-6.74
615.053	-6.15
615.243	-5.91
615.434	-4.97
615.624	-7.45
615.815	-6.98
616.005	-7.43
616.195	-9.57
616.386	-11.21
616.576	-11.78
616.766	-11.81
616.957	-11.36
617.147	-10.88
617.337	-10.14
617.528	-10.18
617.718	-11.66
617.908	-12.91
618.098	-13.08
618.289	-11.99
618.479	-13.8
618.669	-13.14
618.859	-12.93
619.049	-11.65
619.239	-12.25
619.43	-13.3
619.62	-13.89
619.81	-13.14
620	-12.2
620.19	-10.3
620.38	-10.69
620.57	-10.87
620.76	-10.33
620.95	-8.6
621.14	-7.59
621.33	-6.84
621.52	-4.06
621.71	-4.61
621.9	-3.54
622.09	-2.81
622.28	-4.07
622.47	-3.74
622.659	-4.59
622.849	-4.72
623.039	-4.71
623.229	-4.98
623.419	-4.65
623.609	-5
623.799	-5.14
623.988	-5.31
624.178	-5.81
624.368	-4.51
624.558	-3.11
624.747	-3.59
624.937	-3.84
625.127	-6.96
625.316	-6.78
625.506	-7.2
625.696	-5.65
625.885	-5.5
626.075	-5.61
626.265	-5.01
626.454	-3.74
626.644	-3.72
626.833	-3.82
627.023	-4.83
627.212	-6.2
627.402	-4.83
627.591	-2.19
627.781	-2.39
627.97	-2.18
628.16	-2.44
628.349	-2.73
628.539	-4.07
628.728	-2.7
628.918	-3.37
629.107	-1.21
629.296	-3.16
629.486	-4.68
629.675	-3.81
629.865	-4.9
630.054	-3.37
630.243	-4.93
630.432	-6.35
630.622	-4.56
630.811	-4.76
631	-3.74
631.19	-1.49
631.379	-2.8
631.568	-3.02
631.757	-2.03
631.946	-0.29
632.136	0.98
632.325	0.96
632.514	1.72
632.703	-0.01
632.892	-1.32
633.081	-0.86
633.27	0.56
633.459	1.32
633.648	-0.58
633.837	0.54
634.026	-1.64
634.215	-0.32
634.404	0.51
634.593	1.3
634.782	2.29
634.971	1.7
635.16	-0.23
635.349	-0.76
635.538	-1.11
635.727	-4.7
635.916	-7.53
636.105	-7.98
636.294	-6.8
636.482	-7.49
636.671	-6.97
636.86	-4.61
637.049	-4.4
637.238	-3.88
637.426	-4.41
637.615	-4.71
637.804	-3.93
637.993	-2.27
638.181	-2.22
638.37	-1.97
638.559	-2.67
638.747	-2.55
638.936	-2.55
639.125	-1.71
639.313	-0.66
639.502	-1.59
639.691	-0.59
639.879	-1.26
640.068	-1.94
640.256	-4.4
640.445	-3.69
640.633	-2.49
640.822	-5.28
641.01	-4.73
641.199	-4.57
641.387	-3.65
641.576	-1.84
641.764	-0.7
641.953	-2.86
642.141	-3.11
642.329	-2.12
642.518	-4.28
642.706	-5.32
642.894	-5.74
643.083	-5.24
643.271	-6.27
643.459	-4.65
643.648	-2.19
643.836	-1.92
644.024	-2.65
644.213	-0.75
644.401	-2.04
644.589	-4.07
644.777	-2.31
644.965	-2.55
645.154	-3.29
645.342	-3.44
645.53	-3.73
645.718	-4.85
645.906	-4.99
646.094	-5.26
646.282	-6.34
646.47	-5.07
646.658	-4.42
646.846	-3.93
647.034	-4.34
647.223	-4.07
647.411	-5.67
647.599	-7.34
647.786	-5.65
647.974	-5.94
648.162	-7.17
648.35	-6.73
648.538	-6.08
648.726	-5.76
648.914	-6.38
649.102	-5.64
649.29	-5.64
649.478	-5.54
649.665	-5.71
649.853	-4.06
650.041	-4.02
650.229	-4.28
650.417	-4.32
650.604	-5.15
650.792	-3.68
650.98	-3.74
651.168	-5.2
651.355	-4.27
651.543	-5.29
651.731	-7.35
651.918	-7.83
652.106	-6.14
652.294	-6.21
652.481	-5.3
652.669	-5.83
652.856	-5.86
653.044	-6.29
653.231	-7
653.419	-7.79
653.606	-8.02
653.794	-6.95
653.981	-6.45
654.169	-7.47
654.356	-8.84
654.544	-7.92
654.731	-9.19
654.919	-9.01
655.106	-7.88
655.294	-7.52
655.481	-4.13
655.668	-2.92
655.856	-2.7
656.043	-3.87
656.23	-4.17
656.418	-3.21
656.605	-3.14
656.792	-3.22
656.979	-2.49
657.167	-2.09
657.354	-1.52
657.541	-1.53
657.728	-3.02
657.916	-3.88
658.103	-2.68
658.29	-1.2
658.477	-1.91
658.664	-1.66
658.851	-1.81
659.038	-2.1
659.225	-3.52
659.412	-4.16
659.6	-5.14
659.787	-3.01
659.974	-4.02
660.161	-1.66
660.348	-3.13
660.535	-1.11
660.722	-2.99
660.909	-3.59
661.095	-3.7
661.282	-5.15
661.469	-4.16
661.656	-4.64
661.843	-3.75
662.03	-5.23
662.217	-4.14
662.404	-3.73
662.59	-4.12
662.777	-5.11
662.964	-4.04
663.151	-2.57
663.338	-4.24
663.524	-3.63
663.711	-5.68
663.898	-3.95
664.085	-4.88
664.271	-5.66
664.458	-7.27
664.645	-5.33
664.831	-4.61
665.018	-5.48
665.204	-4.84
665.391	-4.39
665.578	-4.74
665.764	-6.25
665.951	-5.4
666.137	-6.86
666.324	-6.86
666.51	-8.11
666.697	-7.8
666.883	-8.47
667.07	-9.21
667.256	-8.85
667.443	-9.53
667.629	-7.8
667.816	-8.9
668.002	-8.99
668.188	-7.67
668.375	-7.72
668.561	-8.61
668.747	-9.96
668.934	-8.84
669.12	-7.94
669.306	-9.27
669.493	-9.39
669.679	-6.18
669.865	-6.64
670.051	-7.75
670.238	-7.5
670.424	-7.18
670.61	-6.67
670.796	-5.12
670.982	-5.45
671.169	-5.28
671.355	-5.99
671.541	-7.4
671.727	-6.92
671.913	-8.06
672.099	-8.33
672.285	-9.52
672.471	-9.35
672.657	-9.62
672.843	-8.24
673.029	-8.81
673.215	-8.82
673.401	-5.17
673.587	-8.52
673.773	-7.82
673.959	-6.1
674.145	-6.56
674.331	-5.66
674.517	-5.11
674.703	-6.23
674.888	-6.05
675.074	-7.24
675.26	-6.04
675.446	-6.91
675.632	-7.62
675.817	-7.38
676.003	-6.71
676.189	-5.4
676.375	-5.58
676.56	-5.08
676.746	-7.38
676.932	-8.83
677.117	-8.78
677.303	-11.39
677.489	-10.18
677.674	-11.46
677.86	-11.22
678.046	-9.74
678.231	-11
678.417	-11.55
678.602	-10.81
678.788	-10.37
678.973	-9.35
679.159	-7
679.344	-6.62
679.53	-6
679.715	-6.5
679.901	-7.56
680.086	-8.32
680.272	-9.37
680.457	-9.44
680.643	-8.76
680.828	-7.65
681.013	-7.86
681.199	-8.29
681.384	-8.24
681.569	-7.51
681.755	-8.22
681.94	-8.63
682.125	-7.77
682.31	-5.68
682.496	-6.59
682.681	-6.73
682.866	-7.07
683.051	-9.48
683.237	-9.69
683.422	-8.88
683.607	-9.36
683.792	-7.73
683.977	-6.18
684.162	-3.92
684.347	-4.74
684.532	-5.7
684.717	-6.6
684.903	-5.91
685.088	-5.52
685.273	-5.64
685.458	-5.84
685.643	-5.1
685.828	-7.25
686.013	-6.04
686.198	-8.32
686.382	-7.4
686.567	-7.16
686.752	-7.07
686.937	-5.36
687.122	-5.16
687.307	-5.2
687.492	-3.55
687.677	-5.87
687.861	-6.33
688.046	-7.24
688.231	-5.57
688.416	-4.02
688.601	-2.94
688.785	-2.9
688.97	-2.86
689.155	-1.15
689.339	-0.31
689.524	-2.03
689.709	-1.15
689.893	-0.86
690.078	-0.4
690.263	-0.3
690.447	-1.61
690.632	-1.71
690.816	-1.68
691.001	-1.23
691.186	-2.21
691.37	-3.12
691.555	-2.06
691.739	-3.97
691.924	-4.13
692.108	-4.17
692.293	-5.21
692.477	-3.99
692.661	-4.31
692.846	-4.71
693.03	-5.61
693.215	-5.49
693.399	-5.07
693.583	-5.36
693.768	-6.68
693.952	-7.49
694.136	-9
694.321	-7.18
694.505	-7.58
694.689	-8.33
694.873	-7.26
695.058	-6.95
695.242	-6.32
695.426	-6.51
695.61	-5.2
695.794	-3.76
695.979	-3.64
696.163	-3.34
696.347	-4.04
696.531	-3.92
696.715	-3.39
696.899	-2.57
697.083	-3.46
697.267	-2.29
697.451	-2.05
697.635	-2.11
697.819	-1.29
698.003	0.81
698.187	0.33
698.371	1.42
698.555	2.74
698.739	3.2
698.923	3.93
699.107	4.37
699.291	4.6
699.475	4.64
699.659	3.48
699.842	3.68
700.026	3.83
700.21	2.74
700.394	2.58
700.578	2.29
700.761	0.51
700.945	2.85
701.129	3.36
701.313	3.18
701.496	4.93
701.68	5.33
701.864	3.25
702.047	3.5
702.231	5.4
702.415	3.14
702.598	0.72
702.782	0.02
702.965	0.43
703.149	-0.22
703.333	-1.46
703.516	-1.45
703.7	-2.45
703.883	-2.8
704.067	-1.58
704.25	-1.39
704.434	-2.41
704.617	-1.25
704.801	-2.65
704.984	-3.62
705.167	-3.78
705.351	-4.87
705.534	-5.56
705.718	-4.72
705.901	-6.82
706.084	-8.3
706.268	-7
706.451	-7.06
706.634	-6.37
706.817	-9.28
707.001	-9.83
707.184	-8.63
707.367	-8.95
707.55	-7.91
707.734	-6.06
707.917	-6.31
708.1	-6.57
708.283	-4.33
708.466	-5.06
708.649	-6.31
708.832	-6.92
709.015	-6.14
709.199	-5.43
709.382	-4.94
709.565	-5.19
709.748	-3.15
709.931	-4.33
710.114	-5
710.297	-4.54
710.48	-4.87
710.663	-2.91
710.846	-2.77
711.028	-2.51
711.211	-2.53
711.394	-2.04
711.577	-3.02
711.76	-5.47
711.943	-4.99
712.126	-5.29
712.309	-3.46
712.491	-1.96
712.674	-1.98
712.857	-1.07
713.04	-1.23
713.222	-2.21
713.405	-2.93
713.588	-3.17
713.771	-2.1
713.953	-1.47
714.136	-0.49
714.319	-0.28
714.501	-1.29
714.684	-0.57
714.866	-1.14
715.049	-0.45
715.232	-1.62
715.414	-2.32
715.597	-0.92
715.779	-2.22
715.962	-1.12
716.144	-2.38
716.327	-2.39
716.509	-2.13
716.692	-4.41
716.874	-4.92
717.057	-3.8
717.239	-1.8
717.421	-2.19
717.604	-4.37
717.786	-2.93
717.968	-4.24
718.151	-4.65
718.333	-5.73
718.515	-5.63
718.698	-6.17
718.88	-6.55
719.062	-7.89
719.244	-7.95
719.427	-7.2
719.609	-5.86
719.791	-8.74
719.973	-9.28
720.155	-11.61
720.338	-11.77
720.52	-11.43
720.702	-10.62
720.884	-10.71
721.066	-12.36
721.248	-14.45
721.43	-12.96
721.612	-15.62
721.794	-13.86
721.976	-14.2
722.158	-13.35
722.34	-14.64
722.522	-13.4
722.704	-13.16
722.886	-12.54
723.068	-11.46
723.25	-10.87
723.432	-10.7
723.614	-9.63
723.796	-9.72
723.977	-8.99
724.159	-8.55
724.341	-8.67
724.523	-9.77
724.705	-11.49
724.886	-11.11
725.068	-8.48
725.25	-7.26
725.432	-7.38
725.613	-7.85
725.795	-6.83
725.977	-5.22
726.158	-4.61
726.34	-4.11
726.522	-3.43
726.703	-0.86
726.885	-0.6
727.066	-3.46
727.248	-2.91
727.43	-2.08
727.611	-1.55
727.793	-0.78
727.974	-1.2
728.156	-1.14
728.337	-1.78
728.519	-1.08
728.7	-0.14
728.882	-1.57
729.063	-1.68
729.244	-0.86
729.426	-0.13
729.607	-0.21
729.788	-1.17
729.97	-0.98
730.151	-2.16
730.332	-2.88
730.514	-5.46
730.695	-4.72
730.876	-2.55
731.058	-3.69
731.239	-3.67
731.42	-4.17
731.601	-4.61
731.782	-5.23
731.964	-4.5
732.145	-4.27
732.326	-5.75
732.507	-7.5
732.688	-5.62
732.869	-5.57
733.05	-4.76
733.231	-4.03
733.412	-5.36
733.593	-5.2
733.774	-5.65
733.955	-4.5
734.136	-5.08
734.317	-5.5
734.498	-6.1
734.679	-7.11
734.86	-7.77
735.041	-7.87
735.222	-7.33
735.403	-6.26
735.584	-6.07
735.765	-5.73
735.946	-6.85
736.126	-5.03
736.307	-3.15
736.488	-5.01
736.669	-7.11
736.849	-9.83
737.03	-10.4
737.211	-9.66
737.392	-9.12
737.572	-11.29
737.753	-13.24
737.934	-11.76
738.114	-9.59
738.295	-11.31
738.476	-10.63
738.656	-9.04
738.837	-10.05
739.017	-9.3
739.198	-10.48
739.378	-9.05
739.559	-10.35
739.74	-8.74
739.92	-10.52
740.1	-12.02
740.281	-13.01
740.461	-12.61
740.642	-9.37
740.822	-11.75
741.003	-11.07
741.183	-12.53
741.363	-10.09
741.544	-9.78
741.724	-11.71
741.904	-13.03
742.085	-11.32
742.265	-11.61
742.445	-12.72
742.626	-11.41
742.806	-12
742.986	-11.35
743.166	-11.53
743.347	-11.8
743.527	-12.14
743.707	-11.58
743.887	-11.44
744.067	-11.7
744.247	-10.24
744.427	-11.39
744.608	-11.13
744.788	-10.12
744.968	-7.84
745.148	-7.27
745.328	-7.58
745.508	-7.66
745.688	-8.09
745.868	-8.99
746.048	-9.45
746.228	-7.86
746.408	-9.86
746.588	-10.89
746.767	-9.36
746.947	-9.82
747.127	-10.31
747.307	-10.99
747.487	-10.32
747.667	-10.1
747.847	-7.37
748.026	-7.29
748.206	-8.75
748.386	-6.65
748.566	-6.82
748.745	-6.81
748.925	-6.49
749.105	-4.97
749.285	-3.69
749.464	-2.4
749.644	-2.71
749.824	-1.98
750.003	-3.43
750.183	-3.2
750.362	-2.62
750.542	-4.58
750.722	-5.68
750.901	-5.45
751.081	-4.03
751.26	-3.04
751.44	-2.53
751.619	-4.64
751.799	-6.42
751.978	-5.65
752.158	-7.42
752.337	-8.35
752.516	-9.59
752.696	-9.78
752.875	-9.77
753.055	-9.31
753.234	-8.78
753.413	-7.6
753.593	-5.01
753.772	-6.44
753.951	-5.6
754.13	-5.47
754.31	-6.04
754.489	-4.98
754.668	-2.66
754.847	-3.29
755.027	-3.09
755.206	-3.27
755.385	-2.46
755.564	-0.86
755.743	-2.28
755.922	-1.42
756.101	-2.61
756.28	-2.74
756.46	-2.92
756.639	-5.13
756.818	-4.5
756.997	-4.67
757.176	-5.58
757.355	-8.18
757.534	-7.54
757.713	-7.7
757.892	-8.79
758.07	-7.94
758.249	-8.59
758.428	-9.69
758.607	-10.28
758.786	-9.47
758.965	-10.37
759.144	-9.69
759.323	-11.27
759.501	-9.79
759.68	-9.73
759.859	-8.38
760.038	-7.72
760.216	-8.02
760.395	-6.45
760.574	-7.3
760.753	-7.47
760.931	-6.78
761.11	-5.81
761.289	-5.99
761.467	-5.84
761.646	-5.16
761.824	-4.76
762.003	-5.38
762.182	-6
762.36	-4.76
762.539	-4.93
762.717	-4.72
762.896	-4.93
763.074	-4.62
763.253	-4.44
763.431	-2.9
763.61	-2.45
763.788	-2.82
763.966	-2.11
764.145	-2.04
764.323	-1.58
764.502	-2.69
764.68	-2.4
764.858	-3.36
765.037	-1.21
765.215	-1.69
765.393	-1.78
765.571	-1.65
765.75	0.3
765.928	-0.08
766.106	-1.42
766.284	-2.02
766.463	-2.09
766.641	-1.36
766.819	-0.21
766.997	0.16
767.175	-2.11
767.353	-2.07
767.531	-1.43
767.71	-2.69
767.888	-2.83
768.066	-3.84
768.244	-3.37
768.422	-4.2
768.6	-2.11
768.778	-3.85
768.956	-3.88
769.134	-2.97
769.312	-2.41
769.489	-4.15
769.667	-2.19
769.845	-1.2
770.023	-1.51
770.201	-0.41
770.379	-2.16
770.557	-2.24
770.735	-1.78
770.912	-2.21
771.09	-3.08
771.268	-3.39
771.446	-2.67
771.623	-2.61
771.801	-1.6
771.979	-1.9
772.157	-3.27
772.334	-5.25
772.512	-3.5
772.69	-4.26
772.867	-5.02
773.045	-5.09
773.222	-5.01
773.4	-4.53
773.577	-5.32
773.755	-4.78
773.933	-5.47
774.11	-3.88
774.288	-5.07
774.465	-7
774.643	-5.93
774.82	-5.08
774.997	-5.1
775.175	-5.55
775.352	-4.34
775.53	-4.2
775.707	-3.25
775.884	-0.89
776.062	-0.38
776.239	-1.16
776.416	0.8
776.594	1.14
776.771	-0.76
776.948	-1.09
777.125	-2.56
777.303	-3.71
777.48	-4.84
777.657	-5.49
777.834	-5.84
778.012	-5.75
778.189	-3.55
778.366	-5.09
778.543	-7.11
778.72	-7.73
778.897	-7.14
779.074	-8.05
779.251	-7.45
779.428	-9.4
779.605	-12.92
779.782	-13.94
779.959	-13.87
780.136	-15.23
780.313	-13.59
780.49	-14.52
780.667	-11.76
780.844	-12.09
781.021	-10.58
781.198	-11.04
781.375	-10.42
781.552	-11.59
781.728	-11.68
781.905	-13.06
782.082	-10.54
782.259	-11.31
782.436	-11.3
782.612	-11.75
782.789	-13.25
782.966	-16.57
783.143	-15.14
783.319	-12.08
783.496	-10.92
783.673	-11.63
783.849	-11.85
784.026	-13
784.203	-11.26
784.379	-13.72
784.556	-11.88
784.732	-13.3
784.909	-11.48
785.085	-11.22
785.262	-9.44
785.438	-7.81
785.615	-7.29
785.791	-6.77
785.968	-6.33
786.144	-6.65
786.321	-4.72
786.497	-6.02
786.673	-5.51
786.85	-7
787.026	-8.04
787.203	-8.08
787.379	-8.99
787.555	-10.95
787.731	-12.44
787.908	-13.34
788.084	-11.09
788.26	-13.66
788.437	-11.14
788.613	-13.41
788.789	-15.61
788.965	-18.34
789.141	-19.7
789.317	-23.31
789.494	-26.28
789.67	-24.2
789.846	-23.43
790.022	-27.65
790.198	-25.58
790.374	-24.47
790.55	-23.79
790.726	-25.47
790.902	-25.04
791.078	-23.36
791.254	-20.39
791.43	-20.21
791.606	-19.5
791.782	-21.69
791.958	-23.16
792.134	-23.88
792.31	-23.61
792.486	-23.22
792.661	-22.73
792.837	-20.05
793.013	-18.17
793.189	-16.69
793.365	-17.83
793.54	-15.43
793.716	-13.25
793.892	-12.03
794.068	-13.75
794.243	-12.98
794.419	-13.73
794.595	-13.25
794.77	-14.21
794.946	-12.98
795.122	-11.64
795.297	-13.19
795.473	-11.2
795.648	-9.58
795.824	-11.59
796	-9.38
796.175	-7.53
796.351	-8.26
796.526	-8.85
796.702	-8.56
796.877	-9.1
797.052	-7.6
797.228	-12.27
797.403	-13.43
797.579	-11.85
797.754	-8.54
797.929	-6.78
798.105	-3.67
798.28	-7.1
798.455	-4.77
798.631	-6.78
798.806	-7.17
798.981	-4.33
799.157	-6.85
799.332	-7.7
799.507	-5.21
799.682	-5.46
799.858	-6.64
800.033	-4.66
800.208	-5.55
800.383	-2.36
800.558	0.69
800.733	-1.16
800.908	0.47
801.083	3.5
801.258	-0.37
801.434	-0.91
801.609	-1.05
801.784	-1.14
801.959	0.58
802.134	-1.95
802.309	-2.1
802.484	-2.23
802.658	-2.33
802.833	-2.55
803.008	-0.76
803.183	-2.47
803.358	-2.83
803.533	-2.46
803.708	-5.15
803.883	-5.64
804.057	-11.15
804.232	-11.66
804.407	-10.08
804.582	-8.63
804.756	-13.53
804.931	-13.06
805.106	-13.34
805.281	-13.75
805.455	-15.54
805.63	-16.54
805.805	-16
805.979	-14.15
806.154	-13.75
806.328	-13.17
806.503	-11.63
806.678	-12.79
806.852	-12.3
807.027	-14.47
807.201	-15.78
807.376	-12.3
807.55	-13.9
807.725	-12.81
807.899	-12.13
808.074	-13.92
808.248	-12.77
808.422	-13.36
808.597	-12.94
808.771	-10.27
808.946	-8.51
809.12	-5.04
809.294	-4.65
809.468	-3.99
809.643	-3.61
809.817	-5.27
809.991	-9.53
810.166	-10.1
810.34	-12.62
810.514	-11.45
810.688	-9.66
810.862	-9.58
811.037	-7.69
811.211	-7.1
811.385	-7.2
811.559	-8.66
811.733	-7.88
811.907	-10.89
812.081	-10.17
812.255	-10.96
812.429	-16.9
812.603	-21.29
812.777	-22.11
812.951	-23.88
813.125	-25.81
813.299	-30.1
813.473	-28.84
813.647	-20.88
813.821	-20.53
813.995	-16.09
814.169	-15.53
814.343	-13.73
814.516	-8.86
814.69	-12.3
814.864	-12.97
815.038	-11.7
815.212	-10.38
815.385	-9.67
815.559	-8.48
815.733	-7.24
815.907	-6.79
816.08	-3.46
816.254	-3.59
816.428	-6.2
816.601	-4.81
816.775	-1.22
816.948	-1.9
817.122	-0.18
817.296	-4.91
817.469	-4.9
817.643	-6.05
817.816	-8.23
817.99	-10.29
818.163	-12.58
818.337	-14.88
818.51	-14.81
818.684	-11.74
818.857	-13.72
819.031	-16.5
819.204	-16.71
819.377	-17.47
819.551	-17.95
819.724	-17.84
819.897	-13.44
820.071	-11.41
820.244	-13.25
820.417	-16.48
820.591	-13.61
820.764	-16.28
820.937	-13.55
821.11	-14.46
821.284	-14.81
821.457	-10.97
821.63	-11.81
821.803	-11.27
821.976	-5.65
822.149	-3.9
822.322	-5.98
822.496	-7.92
822.669	-3.14
822.842	-2.74
823.015	-3.9
823.188	-3.78
823.361	-4.19
823.534	-8.86
823.707	-9.78
823.88	-10.43
824.053	-9.95
824.226	-9.84
824.399	-7.93
824.571	-10.96
824.744	-11.95
824.917	-9.13
825.09	-13.02
825.263	-11.36
825.436	-10.32
825.608	-13.8
825.781	-13.98
825.954	-13.05
826.127	-11.17
826.299	-13.61
826.472	-15.33
826.645	-11.11
826.818	-7.74
826.99	-8.69
827.163	-7.9
827.336	-9.24
827.508	-7.42
827.681	-9.82
827.853	-8.99
828.026	-8.64
828.198	-5.18
828.371	-2.24
828.544	-4.08
828.716	-1.13
828.889	-3.86
829.061	-7.05
829.233	-6.31
829.406	-8.35
829.578	-8.87
829.751	-9.9
829.923	-11
830.096	-10.74
830.268	-12.93
830.44	-16.01
830.613	-15.72
830.785	-16.86
830.957	-15.12
831.129	-14.09
831.302	-14.31
831.474	-15.14
831.646	-12.73
831.818	-13.83
831.991	-14.19
832.163	-14.28
832.335	-15.75
832.507	-13.14
832.679	-14.21
832.851	-16.02
833.023	-15.03
833.195	-17.37
833.368	-20.92
833.54	-18.35
833.712	-18.79
833.884	-16.45
834.056	-17.93
834.228	-17.55
834.4	-12.41
834.571	-17.31
834.743	-21.44
834.915	-18.53
835.087	-18.67
835.259	-18.86
835.431	-21.37
835.603	-24.98
835.775	-25.9
835.946	-23.52
836.118	-26.35
836.29	-28.4
836.462	-31.08
836.634	-31.07
836.805	-34.33
836.977	-33.62
837.149	-35.13
837.32	-35.74
837.492	-35.63
837.664	-36.79
837.835	-36.86
838.007	-43.13
838.179	-39.05
838.35	-28.34
838.522	-23.6
838.693	-23.68
838.865	-30.84
839.036	-27.28
839.208	-21.01
839.379	-18.66
839.551	-21.39
839.722	-16.58
839.894	-12.24
840.065	-7.19
840.237	-6.61
840.408	-2.23
840.579	1.8
840.751	-1.97
840.922	-3.19
841.093	-7.24
841.265	-6.16
841.436	-2.92
841.607	-2.69
841.778	-2.66
841.95	-9.17
842.121	-10.98
842.292	-10.75
842.463	-7.34
842.635	-7.24
842.806	-6.98
842.977	-11.77
843.148	-10.81
843.319	-11.53
843.49	-14
843.661	-20.01
843.832	-19.66
844.003	-20.41
844.174	-21.97
844.345	-14.02
844.516	-16.98
844.687	-12.85
844.858	-6.38
845.029	-14.08
845.2	-12.43
845.371	-11.23
845.542	-12.14
845.713	-21.25
845.884	-23.8
846.055	-27.53
846.225	-30.22
846.396	-36.06
846.567	-30.36
846.738	-36.61
846.909	-34.72
847.079	-35.09
847.25	-29.61
847.421	-35.6
847.591	-40.43
847.762	-43.67
847.933	-60.93
848.103	-48.02
848.274	-56.31
848.445	-63.41
848.615	-60.45
848.786	-64.41
848.956	-64.65
849.127	-57.61
849.297	-41.63
849.468	-37.69
849.638	-34.23
849.809	-34.16
849.979	-35.84
850.15	-32.96
850.32	-27.57
850.491	-30.5
850.661	-23.98
850.831	-19.57
851.002	-15.06
851.172	-13.64
851.342	-11.16
851.513	-2.82
851.683	-7.09
851.853	-3.73
852.024	-2.67
852.194	-5.19
852.364	-2.48
852.534	1.12
852.705	0.36
852.875	-7.88
853.045	-5.32
853.215	-6.53
853.385	-5.88
853.555	-4.1
853.725	-10.38
853.895	-13.8
854.066	-12.27
854.236	-13.3
854.406	-24.95
854.576	-25.05
854.746	-25.84
854.916	-25.01
855.086	-27.22
855.256	-21.69
855.425	-18.74
855.595	-15.12
855.765	-13.44
855.935	-19.12
856.105	-20.96
856.275	-16.73
856.445	-16.14
856.614	-22.4
856.784	-21.48
856.954	-23.64
857.124	-21.74
857.294	-18.64
857.463	-21.93
857.633	-20.1
857.803	-29.95
857.972	-18.56
858.142	-19.83
858.312	-16.11
858.481	-15.04
858.651	-16.77
858.821	-20.08
858.99	-22.26
859.16	-33.08
859.329	-22.19
859.499	-14.97
859.668	-8.94
859.838	-14.41
860.007	-8.9
860.177	-4.85
860.346	-5.53
860.516	0
860.685	1.63
860.854	3.25
861.024	1.9
861.193	-7.07
861.363	-0.88
861.532	-3.37
861.701	1.55
861.87	-2.97
862.04	-6.39
862.209	-7.56
862.378	-8.12
862.547	-9.3
862.717	-1.99
862.886	-7.63
863.055	-15.71
863.224	-21.48
863.393	-22.18
863.563	-24.21
863.732	-28.36
863.901	-34.65
864.07	-31.34
864.239	-36.55
864.408	-40.3
864.577	-36.78
864.746	-30.98
864.915	-31.6
865.084	-30.95
865.253	-36.71
865.422	-32.49
865.591	-35.02
865.76	-36.23
865.929	-41.8
866.097	-40.81
866.266	-47.72
866.435	-47.59
866.604	-42.23
866.773	-38.57
866.942	-44.95
867.11	-52.29
867.279	-47.19
867.448	-32.9
867.617	-41.4
867.785	-35.55
867.954	-41.37
868.123	-35.71
868.291	-51
868.46	-53.96
868.629	-49.86
868.797	-42.23
868.966	-56.06
869.134	-46.28
869.303	-26.27
869.472	-19.45
869.64	-20.76
869.809	-17.52
869.977	-24.63
870.146	-20.47
870.314	-23.41
870.482	-17.25
870.651	-22.64
870.819	-27.06
870.988	-24.65
871.156	-25.04
871.324	-40.01
871.493	-42.29
871.661	-33.89
871.829	-19.96
871.998	-23.94
872.166	-41.81
872.334	-57.89
872.502	-45.66
872.671	-48.9
872.839	-49.34
873.007	-47.36
873.175	-43.92
873.343	-47.14
873.512	-41.06
873.68	-37.86
873.848	-42.34
874.016	-42.22
874.184	-41.41
874.352	-48.94
874.52	-40.95
874.688	-39.88
874.856	-28.96
875.024	-24.93
875.192	-29.28
875.36	-40.55
875.528	-34.13
875.696	-22.29
875.864	-16.1
876.032	-12.99
876.199	-10.63
876.367	-26.62
876.535	-32.76
876.703	-34.19
876.871	-14.79
877.039	-3.51
877.206	-1.96
877.374	4.05
877.542	7.38
877.71	12.46
877.877	21.35
878.045	11.67
878.213	7.7
878.38	16.96
878.548	16.02
878.715	8.8
878.883	14.92
879.051	16.04
879.218	5.43
879.386	13.85
879.553	10.68
879.721	6.32
879.888	17.57
880.056	27.31
880.223	23.24
880.391	11.92
880.558	-4.59
880.726	-0.11
880.893	-12.58
881.06	-14.57
881.228	-12.13
881.395	-12.96
881.562	-2.53
881.73	-26.94
881.897	-46.78
882.064	-21.59
882.231	-29.91
882.399	-37.96
882.566	-54.05
882.733	-59.62
882.9	-126.61
883.068	-97.26
883.235	-79.56
883.402	-110.75
883.569	-82.56
883.736	-34.61
883.903	-35.45
884.07	-36.59
884.237	-58.04
884.404	-48.31
884.571	-56.79
884.738	-52.64
884.905	-41.6
885.072	-66.39
885.239	-31.56
885.406	-15.6
