Data from Transmission_09-47-14-205.txt Node
Date: Fri Aug 24 09:47:14 EEST 2018
User: tibor.sos
Spectrometer: USB4F01757
Scans to average: 10
Trigger mode: 4
Integration Time (sec): 1.000000E-2
Electric dark correction enabled: true
Boxcar width: 10
XAxis mode: Wavelengths
Number of Pixels in Spectrum: 3648
>>>>>Begin Spectral Data<<<<<
178.758	-17.38
178.974	-80.92
179.191	-139.78
179.407	-24.78
179.624	-10.15
179.84	12.96
180.057	-2.19
180.273	15.44
180.489	8.88
180.706	-49.69
180.922	-26.09
181.138	-6.36
181.355	19.43
181.571	32.47
181.787	45.84
182.004	39.32
182.22	58.48
182.436	55.82
182.653	73.87
182.869	28.15
183.085	27.73
183.301	43.06
183.518	41.74
183.734	48.05
183.95	54.27
184.166	66.29
184.383	53.3
184.599	51.02
184.815	39.77
185.031	37.1
185.247	58.47
185.463	56.09
185.68	52.61
185.896	59.18
186.112	57.08
186.328	67.16
186.544	102.27
186.76	121.73
186.976	118.24
187.192	110.4
187.408	146.22
187.624	168.6
187.84	128.81
188.056	120.33
188.272	118.16
188.488	132.09
188.704	129.76
188.92	170.17
189.136	166.52
189.352	191.15
189.568	234.72
189.784	240.92
190	205.21
190.216	197.05
190.432	210.77
190.648	226.7
190.864	564.82
191.08	532.36
191.296	250.03
191.511	262.03
191.727	348.55
191.943	371.37
192.159	242.55
192.375	274.78
192.591	365.85
192.806	531.99
193.022	301.33
193.238	567.13
193.454	398.34
193.669	493.47
193.885	451.19
194.101	687.13
194.317	369.32
194.532	2340.45
194.748	-1733.61
194.964	680.74
195.18	369.76
195.395	254.38
195.611	143.91
195.827	216.7
196.042	380.32
196.258	241.72
196.473	62.11
196.689	55.83
196.905	91.06
197.12	-56.44
197.336	-38.79
197.551	86.67
197.767	-6900
197.982	0.73
198.198	168.49
198.414	277.53
198.629	-41.8
198.845	4.49
199.06	114.9
199.276	128.12
199.491	127.03
199.707	19.37
199.922	60.93
200.137	47.81
200.353	23.08
200.568	25.91
200.784	27.06
200.999	55.73
201.215	40.21
201.43	39.82
201.645	79.53
201.861	98.25
202.076	119.27
202.291	117.22
202.507	80.86
202.722	93.14
202.937	235.46
203.153	245.98
203.368	201.94
203.583	133.44
203.798	146.86
204.014	176.66
204.229	224.35
204.444	290.2
204.659	521.08
204.875	992.83
205.09	-2604.2
205.305	4828.3
205.52	-2301.63
205.735	-1738.32
205.951	11276
206.166	-573.92
206.381	-413.37
206.596	-4005.45
206.811	-1218.13
207.026	-1013.65
207.241	-235.71
207.457	656.39
207.672	1602.48
207.887	-1995.33
208.102	-437.37
208.317	-425.06
208.532	905.65
208.747	-845.36
208.962	-220.46
209.177	587.25
209.392	15.89
209.607	46.34
209.822	116.29
210.037	105.62
210.252	133.73
210.467	214.57
210.682	110.73
210.897	84.05
211.112	61.53
211.326	63.24
211.541	82.8
211.756	66.19
211.971	125.94
212.186	79.52
212.401	28.77
212.616	-19.37
212.831	-14.92
213.045	27.22
213.26	-22.25
213.475	17.81
213.69	11.05
213.905	48.74
214.119	-103.62
214.334	2700
214.549	416.6
214.764	-386.01
214.978	-94.54
215.193	-213.83
215.408	1202.56
215.622	-187.55
215.837	-864.44
216.052	1306.9
216.266	238.23
216.481	254.13
216.696	63.01
216.91	2542.42
217.125	347.42
217.34	787.05
217.554	712.97
217.769	-368.21
217.983	-132.9
218.198	-396.57
218.412	-633.76
218.627	601.11
218.842	377.79
219.056	303.21
219.271	279.43
219.485	395.91
219.7	432.54
219.914	363.54
220.129	677.9
220.343	371.85
220.558	317
220.772	373.95
220.986	331.4
221.201	523.6
221.415	-411.62
221.63	-122.64
221.844	-101.01
222.058	-110.58
222.273	-76.31
222.487	-93.1
222.702	-94.14
222.916	-129.61
223.13	-55.49
223.344	-76.32
223.559	-48.85
223.773	-25.78
223.987	-31.79
224.202	-55.39
224.416	-39.33
224.63	-44.62
224.844	-91.83
225.059	-79.59
225.273	-1869.7
225.487	1228
225.701	196.02
225.915	139.67
226.13	156.86
226.344	174.5
226.558	150.34
226.772	132.56
226.986	143.92
227.2	148.05
227.415	147.02
227.629	175.71
227.843	174.95
228.057	137.35
228.271	117.05
228.485	132.19
228.699	139.65
228.913	157.77
229.127	129.01
229.341	111.21
229.555	162.22
229.769	170.6
229.983	191.18
230.197	181.73
230.411	365.44
230.625	339.12
230.839	174.19
231.053	329.71
231.267	856.61
231.481	455.87
231.695	433.33
231.909	200.73
232.122	126.19
232.336	152.67
232.55	145.61
232.764	161.12
232.978	220.3
233.192	400.67
233.405	482.37
233.619	416.56
233.833	174.58
234.047	307.68
234.261	421.14
234.474	311.7
234.688	-507.44
234.902	-96.19
235.116	-47.09
235.329	-17.33
235.543	-36.39
235.757	39.11
235.97	39.45
236.184	52.24
236.398	34.82
236.612	36.06
236.825	54
237.039	77.82
237.252	21.05
237.466	149.35
237.68	1147.46
237.893	-54100
238.107	-46.25
238.32	-266.96
238.534	139.81
238.748	131.5
238.961	131.78
239.175	137.44
239.388	181.03
239.602	192.08
239.815	154.06
240.029	182.45
240.242	165.89
240.456	109.99
240.669	117.81
240.882	76.69
241.096	-12.74
241.309	67.42
241.523	84.07
241.736	91.3
241.95	-430.73
242.163	775.19
242.376	237.31
242.59	312.8
242.803	-1913.33
243.016	30.51
243.23	-173.95
243.443	113.33
243.656	104.51
243.87	50.65
244.083	69
244.296	47
244.509	99.6
244.723	73.27
244.936	52.59
245.149	21.5
245.362	21.55
245.576	61.83
245.789	76.15
246.002	69.6
246.215	65.3
246.428	48.95
246.641	63.5
246.855	66.54
247.068	79.41
247.281	62.34
247.494	62.58
247.707	47.16
247.92	45.35
248.133	39.2
248.346	68.48
248.559	56.59
248.772	36.91
248.985	12.96
249.198	32.96
249.411	31.43
249.624	26.93
249.837	17.06
250.05	9.21
250.263	-23.42
250.476	-25.36
250.689	-14.99
250.902	-20.02
251.115	-23.2
251.328	-9.12
251.541	-5.54
251.754	3.6
251.967	-2.25
252.18	1.35
252.393	2.68
252.605	1.2
252.818	-5.65
253.031	-8.55
253.244	1
253.457	0.45
253.67	-3.05
253.882	4.65
254.095	17.58
254.308	22.33
254.521	21.97
254.733	30.3
254.946	35.71
255.159	38.48
255.372	43.34
255.584	41
255.797	36.78
256.01	44.54
256.222	43.87
256.435	44.76
256.648	46.24
256.86	52.04
257.073	68.22
257.285	73.59
257.498	75.24
257.711	75.24
257.923	64.86
258.136	67.02
258.348	68.48
258.561	77.28
258.773	71.08
258.986	64.01
259.198	65.78
259.411	55.5
259.623	67.96
259.836	63.74
260.048	52.87
260.261	59.72
260.473	45.93
260.686	38.55
260.898	34.19
261.111	27.29
261.323	32.95
261.535	21.5
261.748	13.88
261.96	23.57
262.173	27.89
262.385	30.14
262.597	24.9
262.81	20.97
263.022	14.13
263.234	21.14
263.447	29.9
263.659	34.52
263.871	42.95
264.083	38.21
264.296	38.32
264.508	42.99
264.72	39.71
264.932	44.24
265.145	33.59
265.357	29.64
265.569	29.19
265.781	19.52
265.993	13.63
266.205	21.93
266.418	25.87
266.63	12.43
266.842	14.36
267.054	17.71
267.266	20.04
267.478	28.2
267.69	22.96
267.902	3.1
268.114	7.3
268.326	-6.91
268.538	-15.52
268.75	-16.29
268.962	-23.05
269.174	-17.61
269.386	-11
269.598	13.39
269.81	23.03
270.022	22.12
270.234	23.69
270.446	25.55
270.658	18.13
270.87	16.02
271.082	15.49
271.294	16.65
271.506	13.55
271.718	19.75
271.929	22.51
272.141	27.46
272.353	33.36
272.565	27.79
272.777	29.36
272.989	32.49
273.2	36.77
273.412	33.17
273.624	33.49
273.836	34.13
274.047	37.32
274.259	41.9
274.471	48.27
274.683	46.86
274.894	47.01
275.106	50.84
275.318	50.29
275.529	53
275.741	54.64
275.953	57.52
276.164	51.73
276.376	49.13
276.588	49.61
276.799	54.66
277.011	60.08
277.222	70.45
277.434	57.34
277.646	51.89
277.857	68.01
278.069	68.24
278.28	65.34
278.492	57.16
278.703	39.96
278.915	39.43
279.126	37.15
279.338	35.41
279.549	42.41
279.761	39.89
279.972	35.79
280.183	34.13
280.395	39.15
280.606	35.34
280.818	32.64
281.029	30.36
281.24	25.3
281.452	23.7
281.663	20.58
281.875	29.1
282.086	35.96
282.297	26.86
282.508	25.9
282.72	29.95
282.931	32.49
283.142	32.6
283.354	17.5
283.565	24.74
283.776	32.1
283.987	13.76
284.199	16.38
284.41	25.75
284.621	31.62
284.832	24.64
285.043	29.11
285.254	27.41
285.466	22.1
285.677	26.79
285.888	25.9
286.099	20.2
286.31	25.91
286.521	10.23
286.732	7.97
286.943	5.88
287.154	2.21
287.366	1.83
287.577	13.93
287.788	25.37
287.999	16.67
288.21	-0.13
288.421	9.98
288.632	10.07
288.843	10.65
289.054	7.02
289.264	9.78
289.475	9.08
289.686	13.44
289.897	20.68
290.108	20.61
290.319	18.6
290.53	20.89
290.741	13.99
290.952	18.48
291.163	24.57
291.373	21.82
291.584	25.58
291.795	25.91
292.006	19.99
292.217	19.75
292.427	25.34
292.638	31.24
292.849	25.76
293.06	32.57
293.27	27.57
293.481	33.85
293.692	29
293.903	27.96
294.113	26.48
294.324	22.69
294.535	12.12
294.745	11.05
294.956	11.12
295.167	5.04
295.377	5.97
295.588	5.88
295.798	9.51
296.009	1.15
296.22	0.04
296.43	-0.83
296.641	-7.12
296.851	-14
297.062	-17.76
297.272	-12.23
297.483	-20.49
297.693	-17.44
297.904	-29.2
298.114	-18.32
298.325	-16.41
298.535	-23.2
298.746	-29.31
298.956	-22.57
299.167	-23.59
299.377	-22.37
299.587	-11.43
299.798	-14.14
300.008	-25.39
300.219	-19.25
300.429	-11.18
300.639	-7.34
300.85	-3.79
301.06	-5.56
301.27	5.96
301.481	11.55
301.691	8.39
301.901	12.71
302.111	11.96
302.322	17.19
302.532	10.56
302.742	11.71
302.952	17.82
303.163	23.54
303.373	28.89
303.583	27.58
303.793	24.33
304.003	16.16
304.214	17.42
304.424	16.71
304.634	8.26
304.844	9.15
305.054	14.58
305.264	8.42
305.474	14.56
305.684	3.82
305.894	10.27
306.104	9.27
306.314	8.94
306.525	12.34
306.735	9.31
306.945	7.74
307.155	16.14
307.365	15.42
307.575	12.52
307.784	12.96
307.994	15.36
308.204	10.93
308.414	15.7
308.624	18.33
308.834	29.55
309.044	35.75
309.254	32.43
309.464	27.24
309.674	26.49
309.884	23.44
310.093	30.39
310.303	24.23
310.513	33.1
310.723	31.28
310.933	26.66
311.142	29.1
311.352	30.61
311.562	29.87
311.772	29.71
311.981	32.24
312.191	28.44
312.401	32.32
312.611	34.8
312.82	29.39
313.03	31.48
313.24	28.63
313.449	27.06
313.659	24.38
313.869	23.67
314.078	26.04
314.288	25.33
314.497	22.47
314.707	24.52
314.917	20.73
315.126	24.79
315.336	30.6
315.545	28.02
315.755	29.24
315.964	22.05
316.174	25.71
316.383	24
316.593	27.15
316.802	20.2
317.012	19.74
317.221	23.36
317.431	16.54
317.64	16.96
317.849	14
318.059	16.65
318.268	23.86
318.478	28.93
318.687	28.22
318.896	26.39
319.106	25.67
319.315	20.36
319.524	9.14
319.734	0.94
319.943	2.75
320.152	4.33
320.362	1.4
320.571	-1.33
320.78	-0.05
320.989	5.09
321.199	8.82
321.408	9.31
321.617	10.32
321.826	14.37
322.035	5.56
322.245	4.74
322.454	5.14
322.663	-1.11
322.872	-8.17
323.081	-10.81
323.29	-10.04
323.5	-8.6
323.709	-6.79
323.918	-1.6
324.127	1.28
324.336	-3.9
324.545	-10.38
324.754	-0.58
324.963	-0.63
325.172	-1.77
325.381	-5.64
325.59	-4.57
325.799	-10.01
326.008	-13.51
326.217	-11.48
326.426	7.33
326.635	16.11
326.844	22.12
327.053	31.65
327.262	36.61
327.47	41.12
327.679	38.9
327.888	37.38
328.097	38.79
328.306	43.62
328.515	48.18
328.724	50.89
328.932	49.49
329.141	44.63
329.35	40.8
329.559	46.59
329.768	51.34
329.976	48.53
330.185	50.52
330.394	47.13
330.602	48.85
330.811	37.92
331.02	34.67
331.229	32.48
331.437	30.84
331.646	28.79
331.855	31.16
332.063	32.52
332.272	31.3
332.48	32.04
332.689	28.24
332.898	18.08
333.106	17.58
333.315	29.06
333.523	22.9
333.732	23.72
333.94	20.99
334.149	13.01
334.357	14.52
334.566	14.14
334.774	21.7
334.983	14.41
335.191	17.29
335.4	14.68
335.608	6.42
335.817	-6.84
336.025	-4.27
336.234	-14.19
336.442	-13.65
336.65	-3.61
336.859	7.92
337.067	12.46
337.275	30.36
337.484	21.66
337.692	18.63
337.9	30.32
338.109	34.62
338.317	25.43
338.525	27.63
338.734	27.34
338.942	34.97
339.15	33.85
339.358	27.32
339.567	30.62
339.775	32.22
339.983	35.23
340.191	34.59
340.399	34.94
340.608	38.62
340.816	47.07
341.024	39.03
341.232	27.07
341.44	21.31
341.648	12.07
341.856	15.46
342.064	13.51
342.272	-0.54
342.481	-0.97
342.689	5.49
342.897	4.09
343.105	1.97
343.313	6.88
343.521	4.88
343.729	7.66
343.937	1.24
344.145	0.91
344.353	9.58
344.56	7.82
344.768	3.53
344.976	-2.69
345.184	-13.11
345.392	-13.66
345.6	-8.31
345.808	-13.18
346.016	-14.39
346.224	-9.11
346.431	-4.09
346.639	10.49
346.847	5.83
347.055	2.21
347.263	1.92
347.471	-1.52
347.678	-6.26
347.886	-3.97
348.094	4.69
348.302	12.82
348.509	9.17
348.717	2.59
348.925	10.71
349.132	11.35
349.34	3.58
349.548	5.56
349.755	6.9
349.963	2.57
350.171	9.56
350.378	9.7
350.586	5.89
350.793	-0.76
351.001	-1.94
351.209	2.84
351.416	4.78
351.624	3.77
351.831	3.3
352.039	0.95
352.246	-4.41
352.454	-15.02
352.661	-19.89
352.869	-12.81
353.076	-14.94
353.284	-15.24
353.491	1.84
353.699	-0.52
353.906	5.39
354.113	13.38
354.321	19.63
354.528	24.92
354.736	27.55
354.943	27.15
355.15	28.26
355.358	24.21
355.565	29.26
355.772	35.17
355.98	41.01
356.187	38.62
356.394	29.76
356.601	32.59
356.809	38.95
357.016	45.08
357.223	41.58
357.43	36.16
357.638	36.01
357.845	27.53
358.052	29.08
358.259	33.48
358.466	27.22
358.673	27.94
358.881	21.11
359.088	16.73
359.295	16.53
359.502	11.47
359.709	17.93
359.916	15.66
360.123	14.56
360.33	7.56
360.537	-0.15
360.744	3.99
360.951	-0.02
361.158	-4.32
361.365	-8.27
361.572	2.08
361.779	13.41
361.986	21.38
362.193	20.59
362.4	24.14
362.607	12.92
362.814	17.02
363.021	17.76
363.228	12.63
363.435	18.05
363.641	14.63
363.848	19.15
364.055	17.09
364.262	12.45
364.469	9.14
364.676	11.27
364.882	22.22
365.089	22.54
365.296	26.26
365.503	28.04
365.709	16.19
365.916	13.61
366.123	11.37
366.33	5.24
366.536	8.83
366.743	4.68
366.95	7.52
367.156	5.98
367.363	-5.3
367.57	-0.13
367.776	-2.75
367.983	-1.26
368.19	4.64
368.396	0.46
368.603	3.46
368.809	10.76
369.016	10.68
369.222	6.66
369.429	14.05
369.635	16.2
369.842	13.14
370.048	32.56
370.255	32.26
370.461	37.11
370.668	36.86
370.874	34.44
371.081	40.11
371.287	40.27
371.494	39.99
371.7	43.44
371.906	41.13
372.113	43.88
372.319	45.33
372.526	41.37
372.732	43.22
372.938	40.26
373.145	34.09
373.351	38.42
373.557	41.69
373.763	39.49
373.97	38.91
374.176	39.34
374.382	34.8
374.588	32.2
374.795	29.06
375.001	25.8
375.207	26.9
375.413	26.96
375.62	24.58
375.826	25.82
376.032	30.58
376.238	31.45
376.444	28.78
376.65	28.67
376.856	28.35
377.062	25.78
377.269	29.16
377.475	31.19
377.681	26.14
377.887	17.44
378.093	4.71
378.299	12.19
378.505	12.47
378.711	8.18
378.917	6.08
379.123	10.1
379.329	18.04
379.535	17.94
379.741	17.19
379.947	16.69
380.152	17.74
380.358	14.81
380.564	10.23
380.77	6.5
380.976	3.38
381.182	4.98
381.388	8.75
381.594	10.99
381.799	12.46
382.005	16.05
382.211	25.16
382.417	34.01
382.623	23.67
382.828	23.52
383.034	20.09
383.24	19.39
383.445	13.77
383.651	10.65
383.857	5.15
384.063	8.19
384.268	4.23
384.474	3.61
384.68	5.37
384.885	11.95
385.091	14.33
385.296	18.45
385.502	19.56
385.708	7.41
385.913	-3.32
386.119	-4
386.324	-10.18
386.53	-6.94
386.735	-7.84
386.941	-0.02
387.146	2.47
387.352	10.35
387.557	15.72
387.763	19.19
387.968	13.34
388.174	17.1
388.379	7.66
388.585	5.84
388.79	0.81
388.996	-1.04
389.201	-8.76
389.406	-20.89
389.612	-28.08
389.817	-17.84
390.022	-12.55
390.228	1.3
390.433	2.08
390.638	-0.31
390.844	-7.67
391.049	-11.9
391.254	-11.91
391.459	-8.72
391.665	-17.88
391.87	-23.6
392.075	-11.64
392.28	-9.57
392.485	-20.69
392.691	-12.76
392.896	-9.41
393.101	-6.64
393.306	-3.78
393.511	2.27
393.716	15.49
393.922	19.08
394.127	13.06
394.332	23.84
394.537	23.91
394.742	21.92
394.947	22.82
395.152	26.83
395.357	30.58
395.562	31.65
395.767	28.13
395.972	35.62
396.177	39.89
396.382	37.94
396.587	39.66
396.792	43.83
396.997	36.49
397.202	37.26
397.407	38.89
397.611	39.65
397.816	36.52
398.021	37.66
398.226	36.56
398.431	40.16
398.636	38.94
398.841	36.93
399.045	40.32
399.25	38.97
399.455	33.18
399.66	31.22
399.864	28.56
400.069	25.66
400.274	24.93
400.479	25.03
400.683	18.73
400.888	12.06
401.093	6.04
401.297	15.39
401.502	9.71
401.707	5.81
401.911	21.29
402.116	19.9
402.321	19.01
402.525	20.96
402.73	17.9
402.934	16.72
403.139	14.73
403.344	14.39
403.548	13.15
403.753	16.12
403.957	12.66
404.162	9.62
404.366	24.49
404.571	19.5
404.775	28.09
404.98	30.05
405.184	39.85
405.388	39.95
405.593	39.29
405.797	39.9
406.002	44.1
406.206	29.67
406.41	35.33
406.615	35.04
406.819	40.13
407.023	38.15
407.228	36.75
407.432	25.04
407.636	22.58
407.841	26.42
408.045	24.17
408.249	26.51
408.453	33.95
408.658	26.71
408.862	34.59
409.066	27.37
409.27	33.23
409.474	29.39
409.679	26.49
409.883	24.66
410.087	18.69
410.291	12.55
410.495	15.21
410.699	14.63
410.903	10.03
411.108	6.02
411.312	2
411.516	-4.61
411.72	18
411.924	14.02
412.128	14.63
412.332	19.62
412.536	18.42
412.74	13.9
412.944	17.98
413.148	11.84
413.352	15.11
413.556	10.16
413.76	12.74
413.964	20.81
414.167	18.57
414.371	25.06
414.575	27.77
414.779	22.67
414.983	17.77
415.187	20.09
415.391	17.62
415.594	29.67
415.798	24.79
416.002	27.8
416.206	30.07
416.41	31.07
416.613	31.32
416.817	30.34
417.021	39.84
417.225	46.49
417.428	38.61
417.632	17.84
417.836	16.78
418.039	20.18
418.243	10.95
418.447	2.83
418.65	6.81
418.854	21.75
419.057	35.56
419.261	43.66
419.465	38.42
419.668	41.94
419.872	36.09
420.075	41.35
420.279	36.05
420.482	36.97
420.686	39.46
420.889	41.1
421.093	49.91
421.296	42.17
421.5	30.89
421.703	32.76
421.907	49.91
422.11	53.81
422.314	48.24
422.517	55.65
422.72	57.16
422.924	52.15
423.127	33.08
423.33	24.48
423.534	24.95
423.737	30.56
423.94	27.65
424.144	32.14
424.347	28.69
424.55	20.25
424.754	16.84
424.957	8.7
425.16	8.43
425.363	0.42
425.567	11.55
425.77	20.23
425.973	32.23
426.176	23.26
426.379	13.06
426.582	24.39
426.786	25.5
426.989	22.08
427.192	29.53
427.395	33.17
427.598	28.44
427.801	20.2
428.004	25.31
428.207	26.16
428.41	26.29
428.613	25.96
428.816	36.97
429.019	38.46
429.222	37.76
429.425	42.18
429.628	34.59
429.831	25.96
430.034	22.27
430.237	16.46
430.44	18.83
430.643	20.02
430.846	18.53
431.049	19.2
431.252	24.1
431.454	16.03
431.657	15.81
431.86	23.51
432.063	33.56
432.266	27.22
432.469	26.92
432.671	19.23
432.874	27.12
433.077	12
433.28	14.45
433.482	14.74
433.685	3.71
433.888	7.79
434.09	10.9
434.293	1.21
434.496	5.7
434.698	8.13
434.901	17.44
435.104	14.08
435.306	16.35
435.509	11.1
435.712	18.65
435.914	9.2
436.117	3.42
436.319	8.94
436.522	13.47
436.724	6.6
436.927	0.66
437.129	-0.15
437.332	11.07
437.534	7.99
437.737	4.37
437.939	24.69
438.142	32.44
438.344	29.49
438.547	43.05
438.749	43.56
438.951	31.5
439.154	34.15
439.356	27.41
439.558	26.88
439.761	35.13
439.963	31.36
440.165	32.98
440.368	43.53
440.57	29.98
440.772	21.64
440.975	22.27
441.177	34.66
441.379	39.52
441.581	32.54
441.784	28.47
441.986	34.73
442.188	24.18
442.39	13.71
442.592	10.59
442.795	12.1
442.997	5.21
443.199	10.05
443.401	9.61
443.603	13.36
443.805	9.42
444.007	9.29
444.209	10.33
444.411	20.03
444.613	15.27
444.815	20.47
445.017	18.93
445.219	23.87
445.421	26.57
445.623	19.94
445.825	18.31
446.027	18.36
446.229	17.59
446.431	17.86
446.633	31.54
446.835	37.93
447.037	41.19
447.239	47.73
447.441	47.97
447.643	44.45
447.844	38.52
448.046	46.09
448.248	38.46
448.45	40.15
448.652	34.37
448.853	48.85
449.055	51.25
449.257	54.8
449.459	56.95
449.66	52.78
449.862	54.09
450.064	56.7
450.266	58.99
450.467	50.55
450.669	54.97
450.871	49.74
451.072	57.26
451.274	69.36
451.475	64.16
451.677	51.98
451.879	55.7
452.08	57.65
452.282	55.61
452.483	62.52
452.685	57.54
452.886	53.17
453.088	33.92
453.289	29.72
453.491	26.95
453.692	29.34
453.894	37.85
454.095	49.91
454.297	54.23
454.498	53.95
454.7	54.74
454.901	48.73
455.102	44.12
455.304	32.65
455.505	14.87
455.706	9.43
455.908	13.84
456.109	18.9
456.31	20.79
456.512	18
456.713	21.25
456.914	19.95
457.116	18.33
457.317	26.31
457.518	20.24
457.719	20.99
457.921	16.96
458.122	10.29
458.323	0.73
458.524	3.02
458.725	0.22
458.926	-1.33
459.128	-1.78
459.329	-3.39
459.53	-4.94
459.731	-1.34
459.932	-14.52
460.133	-14.77
460.334	-19.65
460.535	-18.07
460.736	-18.01
460.937	-24.01
461.138	-28.29
461.339	-15.26
461.54	-15.38
461.741	-8.32
461.942	-9.28
462.143	4.42
462.344	0.32
462.545	1.83
462.746	-10.51
462.947	-20.69
463.148	-20.4
463.348	-8.37
463.549	-3.06
463.75	-0.78
463.951	2.92
464.152	6.55
464.353	9.24
464.553	19.15
464.754	21.39
464.955	19.2
465.156	23.09
465.356	29.12
465.557	22.07
465.758	20.31
465.959	18.06
466.159	24.04
466.36	21.32
466.561	20.89
466.761	22.18
466.962	29.34
467.163	32.13
467.363	33.3
467.564	28.41
467.764	25.52
467.965	20.52
468.166	15.69
468.366	29.89
468.567	34.43
468.767	40.57
468.968	37.8
469.168	38.97
469.369	43.95
469.569	39.62
469.77	36.37
469.97	38.13
470.17	38.01
470.371	30.96
470.571	20.11
470.772	23.27
470.972	23.36
471.172	20.04
471.373	21.08
471.573	15.76
471.773	17.16
471.974	18.19
472.174	21.53
472.374	26.36
472.575	15.7
472.775	14.77
472.975	1.26
473.175	10.54
473.376	9.44
473.576	6.83
473.776	8.55
473.976	8.48
474.177	9.49
474.377	6.14
474.577	9.34
474.777	16.11
474.977	11.99
475.177	10.73
475.377	14.62
475.577	22.76
475.777	25.7
475.978	19.02
476.178	14.22
476.378	17.32
476.578	21.94
476.778	23.37
476.978	22.73
477.178	29.6
477.378	26.19
477.578	22.75
477.778	21.87
477.977	16.57
478.177	17.16
478.377	13.1
478.577	17.72
478.777	18.01
478.977	10.85
479.177	12.55
479.377	11.12
479.577	5.77
479.776	0.86
479.976	0.32
480.176	7.75
480.376	10.84
480.576	9.41
480.775	-0.27
480.975	-0.66
481.175	-2.24
481.374	-3.34
481.574	1.02
481.774	3.3
481.974	4.78
482.173	8.33
482.373	2.87
482.572	3.46
482.772	0.47
482.972	6.37
483.171	8.31
483.371	11.47
483.57	11.85
483.77	15.13
483.97	15.32
484.169	15.3
484.369	11.68
484.568	7.7
484.768	8.18
484.967	11.2
485.167	13.45
485.366	12.06
485.566	10.43
485.765	7.07
485.964	5.36
486.164	1.5
486.363	-2.63
486.563	5.28
486.762	7.64
486.961	9.28
487.161	4.4
487.36	6.09
487.559	0.43
487.759	0.9
487.958	-7.42
488.157	-10.02
488.356	-4.75
488.556	-2.26
488.755	-0.05
488.954	-0.28
489.153	-2.12
489.353	0.35
489.552	-0.01
489.751	-5.29
489.95	-6.42
490.149	-4.92
490.348	-5.02
490.548	2.05
490.747	-4.33
490.946	-3.15
491.145	-6.05
491.344	-3.73
491.543	-1.23
491.742	0.35
491.941	-6.43
492.14	-4.62
492.339	-6.05
492.538	-11.01
492.737	-8.34
492.936	-6.47
493.135	-9.98
493.334	-10.61
493.533	-14.51
493.732	-4.31
493.931	3.07
494.13	-0.46
494.328	2.94
494.527	4.27
494.726	-1.15
494.925	-2.75
495.124	-4.67
495.323	0.99
495.521	-2.98
495.72	-3.16
495.919	-0.1
496.118	5.69
496.316	9.8
496.515	11.45
496.714	12.06
496.913	10.14
497.111	6.92
497.31	4.55
497.509	7.4
497.707	7.37
497.906	3.09
498.105	-5.46
498.303	-3.76
498.502	-2.86
498.7	3.46
498.899	4.24
499.097	9.48
499.296	7.96
499.495	4.02
499.693	6.67
499.892	5.36
500.09	2.23
500.289	7.82
500.487	6.32
500.686	6.91
500.884	4.96
501.082	3.2
501.281	0.94
501.479	2.63
501.678	3.36
501.876	2.58
502.074	1.75
502.273	4.09
502.471	5.98
502.669	3.11
502.868	-5.99
503.066	-4.86
503.264	-3.73
503.463	0.31
503.661	0.81
503.859	3.11
504.057	2.96
504.256	3.73
504.454	0.18
504.652	-1.27
504.85	0.88
505.048	3.73
505.246	7.98
505.445	14.34
505.643	16.64
505.841	17.5
506.039	16.41
506.237	15.27
506.435	19.45
506.633	21.05
506.831	22.33
507.029	29.75
507.227	31.02
507.425	31.34
507.623	28.7
507.821	27.47
508.019	28.14
508.217	29.78
508.415	31.84
508.613	33.83
508.811	32.58
509.009	31.75
509.207	27.65
509.405	23.98
509.603	22.53
509.8	23.44
509.998	19.89
510.196	20.43
510.394	22.99
510.592	17.47
510.79	14.34
510.987	12.38
511.185	11.91
511.383	11.5
511.581	7.57
511.778	10.63
511.976	9.18
512.174	2
512.371	0.05
512.569	-0.48
512.767	-1.39
512.964	-4.66
513.162	-6.12
513.36	-2.54
513.557	-3.94
513.755	-5.05
513.952	-2.47
514.15	-2.27
514.348	-1.84
514.545	-5.94
514.743	-2
514.94	-1.29
515.138	-1.01
515.335	-3.38
515.533	-5.98
515.73	-3.28
515.927	-4.91
516.125	1.91
516.322	6.82
516.52	7.02
516.717	5.21
516.915	5.21
517.112	6.36
517.309	7.87
517.507	7.51
517.704	8.13
517.901	6.54
518.099	6.69
518.296	8.86
518.493	12.14
518.69	14.42
518.888	14.32
519.085	13.91
519.282	15.07
519.479	15.93
519.676	14.24
519.874	12.45
520.071	9.64
520.268	9.75
520.465	10.7
520.662	13.82
520.859	16.58
521.056	14.42
521.254	20.95
521.451	24.21
521.648	24.94
521.845	25.51
522.042	28.02
522.239	27.79
522.436	24.5
522.633	17.27
522.83	18.17
523.027	19.06
523.224	19.55
523.421	18.55
523.618	18.59
523.815	24.34
524.011	22.07
524.208	27.06
524.405	23.95
524.602	23.2
524.799	16.9
524.996	12.88
525.193	13.37
525.389	8.66
525.586	2.91
525.783	-1.85
525.98	-0.65
526.176	1.59
526.373	-2.79
526.57	-0.37
526.767	-1.13
526.963	0.48
527.16	3.07
527.357	2.91
527.553	1.46
527.75	-2.6
527.947	-8.91
528.143	-2.08
528.34	-4.89
528.537	-7.37
528.733	-6.91
528.93	-4.96
529.126	-1.3
529.323	-2.52
529.519	-1.22
529.716	2.04
529.912	4.64
530.109	2.16
530.305	-1.65
530.502	-1.25
530.698	-0.14
530.895	3.36
531.091	4.79
531.288	2.15
531.484	1.07
531.68	3.49
531.877	6.69
532.073	8.68
532.269	9
532.466	7.86
532.662	8.15
532.858	5.49
533.055	5.18
533.251	4.42
533.447	6.31
533.643	7.39
533.84	4.4
534.036	3.04
534.232	6.91
534.428	5.57
534.624	5.3
534.821	5.3
535.017	7.01
535.213	4.92
535.409	6.68
535.605	9.69
535.801	5.75
535.997	1.1
536.193	-0.9
536.389	-1.22
536.586	-2.15
536.782	1.74
536.978	2.71
537.174	5.69
537.37	5.54
537.566	3.99
537.762	-0.51
537.958	0.22
538.153	1.65
538.349	-2.07
538.545	2.49
538.741	4.59
538.937	3.64
539.133	2.63
539.329	1.47
539.525	0.35
539.721	-1.29
539.916	4.8
540.112	4.7
540.308	6.75
540.504	6.03
540.699	8.15
540.895	6.88
541.091	10.71
541.287	10.13
541.482	8.8
541.678	11.8
541.874	12.6
542.069	14.44
542.265	14.73
542.461	16.66
542.656	14.77
542.852	14.78
543.048	16.18
543.243	16.3
543.439	16.96
543.634	16.32
543.83	16.95
544.025	12.73
544.221	14.58
544.417	16.01
544.612	16.43
544.807	13.78
545.003	12.14
545.198	6.45
545.394	5.38
545.589	9.41
545.785	5.92
545.98	8.55
546.176	8.19
546.371	6.75
546.566	7.76
546.762	5.78
546.957	4.82
547.152	2.43
547.348	-0.09
547.543	1.11
547.738	-0.64
547.933	-1.92
548.129	0.24
548.324	0.36
548.519	-1.06
548.714	-3.07
548.91	0.3
549.105	0.83
549.3	4.13
549.495	6.52
549.69	2.62
549.885	4.26
550.08	7.1
550.276	9.65
550.471	11.94
550.666	9.25
550.861	9.94
551.056	8.59
551.251	9.25
551.446	10.52
551.641	7.45
551.836	10.09
552.031	10.82
552.226	10.21
552.421	11.47
552.616	11.25
552.811	14.01
553.006	11.89
553.201	9.62
553.395	10.02
553.59	8.09
553.785	9.92
553.98	11.06
554.175	6.74
554.37	4.4
554.565	2.91
554.759	2.38
554.954	4.66
555.149	6.51
555.344	5.6
555.538	2.65
555.733	3.51
555.928	4.81
556.122	6.24
556.317	5.85
556.512	3.36
556.706	1.93
556.901	-1.42
557.096	-1.21
557.29	1.73
557.485	2.88
557.68	2.45
557.874	4.02
558.069	1.61
558.263	4.28
558.458	4.89
558.652	6.5
558.847	7.09
559.041	8.04
559.236	6.77
559.43	7.34
559.625	12.79
559.819	15.68
560.014	12.35
560.208	12.03
560.402	12.46
560.597	14.67
560.791	16.4
560.986	18.52
561.18	16.8
561.374	15.99
561.569	14.04
561.763	15.67
561.957	13.01
562.151	13.8
562.346	14.49
562.54	14.98
562.734	12.72
562.928	12.25
563.123	10.78
563.317	11.11
563.511	12.11
563.705	7.91
563.899	3.76
564.093	5.02
564.288	2.61
564.482	3.03
564.676	3.16
564.87	3.76
565.064	1.78
565.258	3.17
565.452	2.69
565.646	3.72
565.84	1.63
566.034	3.39
566.228	3.73
566.422	2.65
566.616	1.82
566.81	4.12
567.004	5.55
567.198	4.87
567.392	5.88
567.586	5.18
567.779	8.26
567.973	11.31
568.167	13.05
568.361	13.92
568.555	13.51
568.749	12.75
568.942	10.88
569.136	14.72
569.33	14.11
569.524	14.72
569.718	15.8
569.911	17.9
570.105	16.88
570.299	15.67
570.492	15.41
570.686	16.51
570.88	16.36
571.073	14.85
571.267	15.24
571.461	13.41
571.654	12.72
571.848	10.21
572.041	9.84
572.235	8.52
572.429	9.73
572.622	8.28
572.816	8.09
573.009	9.48
573.203	7.33
573.396	8.77
573.59	9.36
573.783	6.71
573.976	3.35
574.17	4.73
574.363	6.15
574.557	4.46
574.75	3.74
574.943	3.76
575.137	6.67
575.33	7.12
575.523	5.34
575.717	3.59
575.91	4.8
576.103	3.88
576.297	4.15
576.49	3.65
576.683	4.11
576.876	4.97
577.07	3.38
577.263	3.31
577.456	1.41
577.649	-0.14
577.842	0.92
578.036	3.21
578.229	4.48
578.422	4.17
578.615	4.06
578.808	2.33
579.001	3.74
579.194	2.74
579.387	2.37
579.58	4.68
579.773	7.24
579.966	6.98
580.159	5.53
580.352	4.56
580.545	4.24
580.738	4.02
580.931	2.29
581.124	2.52
581.317	1.59
581.51	1.26
581.703	2.39
581.896	2.14
582.088	2.4
582.281	2.12
582.474	2.14
582.667	4.32
582.86	4.77
583.053	2.84
583.245	1.75
583.438	1.36
583.631	3.02
583.824	2.36
584.016	1.65
584.209	2.24
584.402	4.93
584.594	5.97
584.787	7.95
584.98	10.06
585.172	12.89
585.365	11.36
585.558	12.4
585.75	12.95
585.943	13.44
586.135	12.28
586.328	10.38
586.52	12.01
586.713	11.36
586.906	11.45
587.098	11.12
587.291	12.49
587.483	11.04
587.675	10.39
587.868	9.44
588.06	9.94
588.253	11.67
588.445	10.6
588.638	8.26
588.83	6.5
589.022	6.58
589.215	2.93
589.407	5.99
589.599	5.03
589.792	4.95
589.984	4.08
590.176	4.41
590.368	4.88
590.561	4.97
590.753	5.76
590.945	7.37
591.137	8.32
591.33	5.62
591.522	9.03
591.714	5.92
591.906	8.42
592.098	10.25
592.29	8.75
592.482	8.44
592.674	9.49
592.867	9.43
593.059	8.29
593.251	9.52
593.443	9.52
593.635	9.21
593.827	5.88
594.019	5.66
594.211	6.26
594.403	5.96
594.595	4.95
594.787	5.4
594.979	3.54
595.17	3.14
595.362	3.97
595.554	2.27
595.746	4.11
595.938	2.98
596.13	1.48
596.322	3
596.513	1.1
596.705	2.08
596.897	1.67
597.089	1.96
597.281	0.9
597.472	-0.15
597.664	0.01
597.856	2.44
598.048	2.18
598.239	-0.6
598.431	-1.19
598.623	-2.92
598.814	-5.8
599.006	-3.33
599.197	-2.56
599.389	-2.13
599.581	-3.67
599.772	-3.26
599.964	-2.65
600.155	-2.32
600.347	-1.64
600.538	-0.88
600.73	-0.76
600.921	-0.9
601.113	-1.68
601.304	1.25
601.496	1.85
601.687	2.17
601.879	1.13
602.07	2.05
602.262	4.64
602.453	4.44
602.644	3.46
602.836	4.1
603.027	2.38
603.218	1.5
603.41	1.73
603.601	3.01
603.792	2.3
603.983	2.96
604.175	4.03
604.366	2.37
604.557	3.92
604.748	2.44
604.94	2.69
605.131	1.6
605.322	-0.38
605.513	0.63
605.704	1.6
605.895	1.52
606.086	0.93
606.278	-0.4
606.469	1.77
606.66	4.79
606.851	4.24
607.042	4.54
607.233	5.39
607.424	5.84
607.615	6.43
607.806	6.82
607.997	5.76
608.188	5.97
608.379	5.85
608.57	4.18
608.761	4.66
608.952	5.95
609.142	7.04
609.333	7.49
609.524	6.35
609.715	5.89
609.906	6.32
610.097	7.87
610.287	7.96
610.478	6.11
610.669	4.57
610.86	4.32
611.051	3.48
611.241	3.98
611.432	3.42
611.623	3.27
611.813	3
612.004	2.87
612.195	3.78
612.385	3.57
612.576	5.58
612.767	5.37
612.957	4.05
613.148	3.64
613.338	2.27
613.529	2
613.72	1.81
613.91	2.05
614.101	1.86
614.291	4.33
614.482	6.8
614.672	6.98
614.863	9.09
615.053	9.3
615.243	9.36
615.434	8.62
615.624	7.39
615.815	8.14
616.005	6.97
616.195	5.13
616.386	4.29
616.576	2.99
616.766	4
616.957	4.44
617.147	3.82
617.337	3.08
617.528	2.32
617.718	1.75
617.908	2.2
618.098	1.13
618.289	1.39
618.479	0.47
618.669	0.81
618.859	0.3
619.049	1.47
619.239	0.27
619.43	0.03
619.62	1.22
619.81	1.02
620	3.5
620.19	2.8
620.38	3.43
620.57	3.47
620.76	1.8
620.95	4.82
621.14	4.9
621.33	6.81
621.52	6.92
621.71	6.18
621.9	6.03
622.09	5.18
622.28	3.78
622.47	2.22
622.659	0.18
622.849	-0.3
623.039	-0.71
623.229	-0.44
623.419	1.02
623.609	0.03
623.799	-0.71
623.988	-2.45
624.178	-1.48
624.368	-3.1
624.558	-2.63
624.747	-1.54
624.937	-2.87
625.127	-3.17
625.316	-2.12
625.506	-0.48
625.696	1.23
625.885	-0.49
626.075	0.33
626.265	-0.69
626.454	-0.7
626.644	1.55
626.833	1.36
627.023	2.22
627.212	1.11
627.402	2.41
627.591	4.5
627.781	4.9
627.97	4.98
628.16	3.96
628.349	5.86
628.539	4.27
628.728	4.33
628.918	3.89
629.107	5.72
629.296	3.2
629.486	2.15
629.675	1.03
629.865	2.19
630.054	3.03
630.243	2.94
630.432	4.22
630.622	5.48
630.811	6.2
631	4
631.19	4.94
631.379	2.91
631.568	1.91
631.757	3.04
631.946	3.26
632.136	5.18
632.325	3.95
632.514	5.84
632.703	5.5
632.892	3.9
633.081	2.73
633.27	3.49
633.459	3.26
633.648	4.78
633.837	4.73
634.026	4.13
634.215	5.75
634.404	4.35
634.593	4.28
634.782	3.86
634.971	5.67
635.16	4.29
635.349	4.1
635.538	3.79
635.727	1.68
635.916	1.51
636.105	2.29
636.294	4.6
636.482	4.65
636.671	5.11
636.86	7.34
637.049	7.61
637.238	8.13
637.426	8.75
637.615	7.16
637.804	7.58
637.993	7.35
638.181	6.91
638.37	6.92
638.559	6.2
638.747	6.7
638.936	7.05
639.125	9.17
639.313	9.83
639.502	10.75
639.691	11.19
639.879	10.12
640.068	7.45
640.256	5.44
640.445	4.62
640.633	4.29
640.822	2.54
641.01	3.32
641.199	3.37
641.387	3.46
641.576	4.3
641.764	6.82
641.953	6.79
642.141	6.4
642.329	8.35
642.518	7.95
642.706	6.77
642.894	6.09
643.083	5.69
643.271	5.17
643.459	5.44
643.648	6.38
643.836	6.78
644.024	8.52
644.213	9.26
644.401	8.2
644.589	7.09
644.777	8.54
644.965	8.76
645.154	8.4
645.342	8.57
645.53	9.79
645.718	7.87
645.906	7.38
646.094	7.87
646.282	7.59
646.47	8.3
646.658	8.84
646.846	6.89
647.034	6.7
647.223	7.12
647.411	7.23
647.599	5.41
647.786	5.77
647.974	4.29
648.162	5.08
648.35	5.89
648.538	7.24
648.726	6.86
648.914	6.58
649.102	5.76
649.29	6.1
649.478	5.75
649.665	6.21
649.853	7.52
650.041	7.59
650.229	7.79
650.417	6.38
650.604	5.6
650.792	8.15
650.98	7.88
651.168	7.4
651.355	6.85
651.543	8
651.731	7.82
651.918	7.99
652.106	8.14
652.294	8.45
652.481	8.36
652.669	8.88
652.856	8.96
653.044	10.27
653.231	8.71
653.419	7.86
653.606	7.92
653.794	7.27
653.981	7.34
654.169	5.18
654.356	4.62
654.544	5.28
654.731	4.11
654.919	4.09
655.106	4.39
655.294	4.05
655.481	4.7
655.668	6.43
655.856	5.8
656.043	5.87
656.23	5.37
656.418	5.67
656.605	4.63
656.792	4.23
656.979	3.9
657.167	5.44
657.354	5.91
657.541	5.38
657.728	5.03
657.916	3.11
658.103	3.11
658.29	3.63
658.477	3.79
658.664	3.7
658.851	2.93
659.038	1.99
659.225	1.51
659.412	1.79
659.6	-0.23
659.787	1.64
659.974	-0.3
660.161	1.2
660.348	-0.15
660.535	1.7
660.722	0.77
660.909	0.02
661.095	-0.23
661.282	-0.42
661.469	-0.43
661.656	-0.57
661.843	1.11
662.03	0.12
662.217	2.42
662.404	3.35
662.59	3.61
662.777	3.6
662.964	4.59
663.151	4.66
663.338	4.35
663.524	3.73
663.711	1.82
663.898	2.73
664.085	1.62
664.271	3.24
664.458	2.66
664.645	4
664.831	6.03
665.018	5.19
665.204	5.3
665.391	5.95
665.578	6.28
665.764	5.62
665.951	7.6
666.137	7.33
666.324	7.24
666.51	7.48
666.697	7.12
666.883	6.39
667.07	6.71
667.256	7.41
667.443	8.76
667.629	10.06
667.816	9.59
668.002	9.33
668.188	8.25
668.375	7.38
668.561	5.31
668.747	2.58
668.934	2.83
669.12	2.34
669.306	1.8
669.493	1.88
669.679	3.97
669.865	3.37
670.051	0.63
670.238	0.84
670.424	-0.93
670.61	-0.98
670.796	0.67
670.982	0.06
671.169	-1.79
671.355	-3.26
671.541	-3.18
671.727	-2.99
671.913	-1.63
672.099	-2.05
672.285	-2.5
672.471	-1.31
672.657	0.6
672.843	1.06
673.029	1.4
673.215	1.59
673.401	3.53
673.587	0.79
673.773	1.07
673.959	3.01
674.145	2.58
674.331	4.02
674.517	4.45
674.703	3.57
674.888	4.16
675.074	3.61
675.26	6.03
675.446	5.3
675.632	4.38
675.817	2.92
676.003	3.85
676.189	3.47
676.375	3.38
676.56	2.64
676.746	2.26
676.932	0.95
677.117	-0.67
677.303	-3.17
677.489	-2.4
677.674	-2.58
677.86	-3.95
678.046	-4.66
678.231	-4.33
678.417	-3.73
678.602	-3.85
678.788	-4.25
678.973	-2.44
679.159	-1.83
679.344	-1.69
679.53	-0.95
679.715	-0.48
679.901	-0.69
680.086	-0.09
680.272	-0.46
680.457	-1.19
680.643	-0.81
680.828	0.9
681.013	0.85
681.199	1.23
681.384	1.78
681.569	1.95
681.755	2.94
681.94	2.87
682.125	1.58
682.31	3.1
682.496	2.46
682.681	4.32
682.866	2.85
683.051	1.08
683.237	1.25
683.422	2.52
683.607	2.19
683.792	2.27
683.977	1.87
684.162	0.94
684.347	2.86
684.532	1.07
684.717	0.11
684.903	1.23
685.088	2.19
685.273	2.16
685.458	1.14
685.643	1.35
685.828	0.68
686.013	1.99
686.198	1.32
686.382	2.84
686.567	2.78
686.752	3.98
686.937	3.73
687.122	4.71
687.307	3.59
687.492	4.86
687.677	3.76
687.861	2.83
688.046	3.27
688.231	3.12
688.416	5.52
688.601	5.26
688.785	5.97
688.97	6.08
689.155	6.7
689.339	8.37
689.524	6.85
689.709	7.84
689.893	8.03
690.078	8.19
690.263	7.65
690.447	6.71
690.632	5
690.816	5.55
691.001	4.91
691.186	5.83
691.37	5.55
691.555	7.16
691.739	9.04
691.924	10.02
692.108	10.26
692.293	10.53
692.477	11.93
692.661	10.1
692.846	9.18
693.03	8.69
693.215	8.97
693.399	9.93
693.583	9.65
693.768	9.69
693.952	8.95
694.136	7.92
694.321	7.98
694.505	9.49
694.689	10.07
694.873	10.93
695.058	9.18
695.242	9.15
695.426	7.99
695.61	6.63
695.794	6.85
695.979	6.04
696.163	5.33
696.347	5.22
696.531	5.56
696.715	5.24
696.899	5.08
697.083	3.06
697.267	3.89
697.451	2.99
697.635	4.03
697.819	2.85
698.003	3.42
698.187	2.8
698.371	4.02
698.555	2.92
698.739	2.84
698.923	3.64
699.107	3.61
699.291	3.42
699.475	3.42
699.659	3.22
699.842	2.09
700.026	1.59
700.21	0.32
700.394	0.99
700.578	2.45
700.761	2.39
700.945	5.56
701.129	4.23
701.313	4.18
701.496	3.64
701.68	5.27
701.864	5.85
702.047	6.48
702.231	7.88
702.415	8.59
702.598	7.33
702.782	7.45
702.965	7.1
703.149	7.96
703.333	8.88
703.516	8.99
703.7	8.85
703.883	10.09
704.067	10.68
704.25	9.74
704.434	7.89
704.617	7.59
704.801	6.18
704.984	5.9
705.167	5.82
705.351	4.98
705.534	4.33
705.718	3.77
705.901	2.56
706.084	-0.49
706.268	-1.59
706.451	-1.88
706.634	-2.39
706.817	-3.19
707.001	-5.76
707.184	-6.03
707.367	-7.09
707.55	-6.02
707.734	-6.67
707.917	-6.9
708.1	-5.14
708.283	-3.84
708.466	-3.81
708.649	-5.52
708.832	-4.31
709.015	-2.47
709.199	-2.82
709.382	-2.66
709.565	-2.03
709.748	-0.22
709.931	0.39
710.114	1.09
710.297	1.42
710.48	1.88
710.663	1.63
710.846	4.5
711.028	3.9
711.211	4.42
711.394	3.73
711.577	3.27
711.76	2.23
711.943	3.19
712.126	3.67
712.309	5.2
712.491	7.54
712.674	6.56
712.857	6.68
713.04	7.2
713.222	7.34
713.405	7.59
713.588	7.5
713.771	6.97
713.953	6.4
714.136	7.61
714.319	8.37
714.501	9.57
714.684	8.4
714.866	9.22
715.049	9.49
715.232	10.35
715.414	9.4
715.597	10.67
715.779	8.24
715.962	8.43
716.144	6.06
716.327	6.74
716.509	6.41
716.692	4.85
716.874	5
717.057	4.65
717.239	5.22
717.421	4.58
717.604	3.59
717.786	4.69
717.968	3.73
718.151	3.39
718.333	2.66
718.515	3.42
718.698	2.6
718.88	2.05
719.062	1.41
719.244	2.68
719.427	1.61
719.609	3.13
719.791	1.32
719.973	2.68
720.155	0.6
720.338	1.09
720.52	1.3
720.702	1.68
720.884	1.47
721.066	-0.19
721.248	-2.19
721.43	-0.31
721.612	-2.42
721.794	-0.83
721.976	-0.12
722.158	0.19
722.34	0.35
722.522	1.45
722.704	1.49
722.886	2.09
723.068	1.95
723.25	4.63
723.432	3.81
723.614	6.24
723.796	5.94
723.977	7.18
724.159	8.54
724.341	8.8
724.523	7.36
724.705	6.5
724.886	7.08
725.068	9.31
725.25	9.36
725.432	9.78
725.613	9.02
725.795	8.41
725.977	8.13
726.158	7.53
726.34	7.86
726.522	8.51
726.703	9.45
726.885	9.74
727.066	7.58
727.248	8.53
727.43	7.04
727.611	6.43
727.793	5.9
727.974	3.8
728.156	4.4
728.337	3.84
728.519	3.5
728.7	4.55
728.882	3.38
729.063	2.4
729.244	2.77
729.426	3.12
729.607	3.19
729.788	3.7
729.97	3.61
730.151	2.79
730.332	3.07
730.514	1.6
730.695	1.22
730.876	0.82
731.058	0.4
731.239	1.88
731.42	2.18
731.601	-0.02
731.782	1.39
731.964	0.9
732.145	1.95
732.326	2.08
732.507	0.85
732.688	-0.25
732.869	2.51
733.05	3.48
733.231	3.5
733.412	0.81
733.593	1.35
733.774	0.57
733.955	0.12
734.136	-0.73
734.317	0.07
734.498	0.38
734.679	1.54
734.86	-0.53
735.041	-1.95
735.222	-2.11
735.403	-0.25
735.584	-0.58
735.765	0.27
735.946	0.18
736.126	0.12
736.307	2.12
736.488	2.95
736.669	-1.41
736.849	-2.66
737.03	-1.81
737.211	1.15
737.392	0.68
737.572	-0.59
737.753	-1.25
737.934	-0.51
738.114	0.24
738.295	-0.87
738.476	-0.27
738.656	1.66
738.837	1.1
739.017	3.14
739.198	3.2
739.378	5.15
739.559	4.7
739.74	4.33
739.92	5.69
740.1	2.94
740.281	2.25
740.461	4.51
740.642	5.1
740.822	2.6
741.003	3.08
741.183	2.43
741.363	5.25
741.544	4.71
741.724	4.18
741.904	2.94
742.085	4.02
742.265	3.65
742.445	3.19
742.626	4.69
742.806	1.99
742.986	2.07
743.166	-0.61
743.347	-0.83
743.527	1.47
743.707	-0.57
743.887	-0.72
744.067	0.06
744.247	-0.45
744.427	0.42
744.608	-0.35
744.788	1.1
744.968	3.43
745.148	3.11
745.328	4.91
745.508	4.74
745.688	5.1
745.868	3.37
746.048	2.16
746.228	3.55
746.408	2.14
746.588	3.83
746.767	4.32
746.947	6.12
747.127	4.82
747.307	1.07
747.487	2.73
747.667	3.33
747.847	4.36
748.026	3.88
748.206	2.29
748.386	4.09
748.566	2.25
748.745	0.97
748.925	1.2
749.105	1.08
749.285	0.29
749.464	-0.55
749.644	1.47
749.824	2.23
750.003	0.83
750.183	-1.04
750.362	-1.19
750.542	-2.35
750.722	-4.09
750.901	-1.98
751.081	-0.35
751.26	0.38
751.44	0.23
751.619	-1.1
751.799	-1.52
751.978	-2.33
752.158	-4.01
752.337	-4.55
752.516	-5.03
752.696	-6.34
752.875	-5.84
753.055	-4.11
753.234	-2.14
753.413	-3.51
753.593	-2.51
753.772	-2.21
753.951	-0.86
754.13	0.34
754.31	-0.21
754.489	-0.14
754.668	-0.17
754.847	0.25
755.027	0.16
755.206	0.21
755.385	0.88
755.564	2.64
755.743	3.05
755.922	3.88
756.101	4.33
756.28	6.06
756.46	6.65
756.639	4.95
756.818	3.95
756.997	3.95
757.176	4.98
757.355	3.82
757.534	2.78
757.713	4.43
757.892	3.45
758.07	5.42
758.249	5.45
758.428	4.43
758.607	4.6
758.786	4.58
758.965	4.74
759.144	5.63
759.323	4.7
759.501	5.34
759.68	5.89
759.859	5.84
760.038	5.03
760.216	5.25
760.395	6.43
760.574	6.96
760.753	6.88
760.931	7.59
761.11	7.74
761.289	7.75
761.467	6.13
761.646	6.14
761.824	5.23
762.003	4.47
762.182	4.25
762.36	4.88
762.539	4.35
762.717	4.08
762.896	3.96
763.074	3.41
763.253	4.14
763.431	5.25
763.61	5.37
763.788	4.52
763.966	4.16
764.145	4.26
764.323	4.27
764.502	3.3
764.68	2.17
764.858	2.96
765.037	5.58
765.215	5.36
765.393	6.18
765.571	6.45
765.75	8.38
765.928	7.23
766.106	5.52
766.284	5.55
766.463	5.73
766.641	5.46
766.819	7.63
766.997	7.72
767.175	6.69
767.353	6.27
767.531	5.97
767.71	7.03
767.888	7.1
768.066	6.26
768.244	5.98
768.422	7.41
768.6	8.51
768.778	6.48
768.956	7.38
769.134	7.14
769.312	6.2
769.489	4.1
769.667	6.31
769.845	7.29
770.023	7.86
770.201	8.6
770.379	8.25
770.557	7.24
770.735	7.03
770.912	6.05
771.09	6.31
771.268	7.88
771.446	5.52
771.623	5.22
771.801	6.3
771.979	6.96
772.157	4.59
772.334	1.86
772.512	2.18
772.69	1.63
772.867	0.11
773.045	1.61
773.222	1.96
773.4	0.72
773.577	0.73
773.755	-0.03
773.933	-1.95
774.11	-2.45
774.288	-2.8
774.465	-2.72
774.643	-2.16
774.82	-2.43
774.997	-3.75
775.175	-2.74
775.352	-1.36
775.53	-2.03
775.707	-1.62
775.884	0.17
776.062	1.82
776.239	2.67
776.416	4.85
776.594	4.41
776.771	3.07
776.948	5.55
777.125	5.65
777.303	3.88
777.48	3.47
777.657	4.93
777.834	4.11
778.012	4.33
778.189	4.96
778.366	3.75
778.543	1.97
778.72	1.45
778.897	2.17
779.074	2.59
779.251	4.8
779.428	3.97
779.605	3.16
779.782	2.13
779.959	2.1
780.136	1.2
780.313	3.36
780.49	3.34
780.667	3.27
780.844	4.22
781.021	6.91
781.198	6.09
781.375	7.07
781.552	7.59
781.728	6.01
781.905	5.35
782.082	8.08
782.259	8.6
782.436	9.59
782.612	8.37
782.789	6.62
782.966	4.06
783.143	5.08
783.319	5.13
783.496	6.29
783.673	5.16
783.849	6.25
784.026	6.21
784.203	6.78
784.379	4.84
784.556	5.36
784.732	4.23
784.909	6.66
785.085	6.25
785.262	6.66
785.438	9.38
785.615	9.41
785.791	9.35
785.968	9.82
786.144	9.49
786.321	11.53
786.497	9.03
786.673	8.78
786.85	6.72
787.026	6.77
787.203	6.43
787.379	5.2
787.555	1.18
787.731	-1.58
787.908	-2.9
788.084	-2.57
788.26	-5.21
788.437	-4.07
788.613	-6.37
788.789	-8.32
788.965	-8.94
789.141	-9.93
789.317	-13.36
789.494	-16.6
789.67	-16.27
789.846	-15.94
790.022	-19.41
790.198	-16.76
790.374	-15.68
790.55	-14.47
790.726	-15.82
790.902	-14.8
791.078	-13.39
791.254	-13.16
791.43	-11.58
791.606	-11.04
791.782	-9.83
791.958	-11.12
792.134	-11.91
792.31	-10.8
792.486	-12.05
792.661	-10.51
792.837	-9.71
793.013	-6.55
793.189	-4.82
793.365	-3.54
793.54	-2.3
793.716	-0.91
793.892	-0.5
794.068	-3.16
794.243	-3.13
794.419	-3.31
794.595	-5.88
794.77	-5.25
794.946	-3.15
795.122	-2.27
795.297	-0.78
795.473	-0.61
795.648	1.91
795.824	2.07
796	3.23
796.175	6.2
796.351	5.2
796.526	4.74
796.702	4.95
796.877	5.32
797.052	5.13
797.228	1.02
797.403	0.56
797.579	1.66
797.754	3.5
797.929	3.48
798.105	4.72
798.28	4.95
798.455	6.74
798.631	7.38
798.806	7.11
798.981	8.03
799.157	7.16
799.332	7.95
799.507	7.66
799.682	7.9
799.858	7.75
800.033	9.84
800.208	8.3
800.383	9.75
800.558	10.49
800.733	10.54
800.908	11.53
801.083	13.86
801.258	12.59
801.434	16.47
801.609	16.06
801.784	15.63
801.959	15.14
802.134	12.12
802.309	10
802.484	10.71
802.658	9.2
802.833	10.81
803.008	9.29
803.183	9.49
803.358	5.8
803.533	5.63
803.708	4.43
803.883	3.35
804.057	-1.09
804.232	0.92
804.407	1.66
804.582	5.5
804.756	3.08
804.931	4.38
805.106	1.28
805.281	3.54
805.455	2.64
805.63	3.87
805.805	3.61
805.979	5.34
806.154	6.39
806.328	5.85
806.503	4.55
806.678	8
806.852	8.37
807.027	10.99
807.201	7.89
807.376	6.54
807.55	9.24
807.725	11.78
807.899	11.92
808.074	12.13
808.248	9.73
808.422	11.2
808.597	10.96
808.771	11.08
808.946	12.64
809.12	15.09
809.294	14.8
809.468	16.88
809.643	19.39
809.817	18.02
809.991	18.98
810.166	20.16
810.34	16.7
810.514	17.78
810.688	19.71
810.862	21.63
811.037	23.63
811.211	24.56
811.385	22.81
811.559	21.54
811.733	20.43
811.907	21.71
812.081	20.52
812.255	18.07
812.429	15.22
812.603	10.63
812.777	8.38
812.951	5.91
813.125	4.69
813.299	-0.63
813.473	-3.35
813.647	-2.31
813.821	-7.74
813.995	-5.27
814.169	-6.46
814.343	-6.24
814.516	-4.71
814.69	-2.58
814.864	-4.61
815.038	-2.93
815.212	-5.14
815.385	-3.98
815.559	-4.99
815.733	-2.09
815.907	0.79
816.08	4.16
816.254	6.8
816.428	8.7
816.601	10.05
816.775	10.59
816.948	10.96
817.122	15.89
817.296	15.54
817.469	19.87
817.643	20.13
817.816	21.45
817.99	15.97
818.163	16.77
818.337	14.18
818.51	15.68
818.684	18.15
818.857	19.21
819.031	20.75
819.204	18.72
819.377	17.52
819.551	16.25
819.724	17.47
819.897	20.5
820.071	18.47
820.244	16.14
820.417	14.8
820.591	14.43
820.764	12.99
820.937	13.12
821.11	8.64
821.284	9.43
821.457	8.28
821.63	10.2
821.803	8.42
821.976	10.09
822.149	12.83
822.322	10.91
822.496	9.12
822.669	8.56
822.842	10.8
823.015	10.28
823.188	8.83
823.361	7.89
823.534	3.76
823.707	3.49
823.88	4.93
824.053	5.84
824.226	7.67
824.399	8.86
824.571	10.95
824.744	14.1
824.917	9.5
825.09	6.73
825.263	9.82
825.436	12.35
825.608	9.21
825.781	7.11
825.954	9.29
826.127	9.89
826.299	7.7
826.472	6.11
826.645	5.63
826.818	8.62
826.99	6.85
827.163	6.36
827.336	8.27
827.508	9.27
827.681	8.42
827.853	8.23
828.026	6.7
828.198	4.8
828.371	5.37
828.544	8.71
828.716	10.24
828.889	5.81
829.061	1.79
829.233	2.99
829.406	-2.05
829.578	-4.89
829.751	-2.62
829.923	-1.61
830.096	0.88
830.268	-0.2
830.44	-2.86
830.613	-0.56
830.785	1.35
830.957	-1.25
831.129	-0.24
831.302	0.77
831.474	-2.34
831.646	1
831.818	0.17
831.991	0.47
832.163	1.53
832.335	3.93
832.507	7.85
832.679	7.93
832.851	7.08
833.023	11.8
833.195	11.61
833.368	9.43
833.54	7.93
833.712	2.81
833.884	7.97
834.056	8.93
834.228	5.73
834.4	7.09
834.571	6.15
834.743	3.44
834.915	4.48
835.087	7.49
835.259	8.21
835.431	7.85
835.603	5.79
835.775	3.61
835.946	1.08
836.118	0.25
836.29	0.85
836.462	0.14
836.634	-2.76
836.805	-6.33
836.977	-1.38
837.149	0.57
837.32	4.37
837.492	2.33
837.664	-1.22
837.835	2.39
838.007	-3.1
838.179	0.82
838.35	9.57
838.522	13.55
838.693	14.31
838.865	7.26
839.036	3.67
839.208	8.88
839.379	9.17
839.551	11.47
839.722	10.46
839.894	7.44
840.065	9.76
840.237	10.69
840.408	15.74
840.579	17.34
840.751	15.63
840.922	14.8
841.093	11.22
841.265	14.04
841.436	13.7
841.607	15.2
841.778	13.71
841.95	12.19
842.121	10.88
842.292	8.53
842.463	7.97
842.635	15.32
842.806	15.12
842.977	16.35
843.148	13.02
843.319	12.2
843.49	13.85
843.661	11.23
843.832	9.61
844.003	9.66
844.174	5.45
844.345	12.08
844.516	9.67
844.687	12.97
844.858	14.16
845.029	13.36
845.2	14.75
845.371	10.66
845.542	4.69
845.713	-4.01
845.884	-4.14
846.055	-4.43
846.225	-8.21
846.396	-12.65
846.567	-14.99
846.738	-17.21
846.909	-13.55
847.079	-10.51
847.25	-6.59
847.421	-8.95
847.591	-16.56
847.762	-15.06
847.933	-24.21
848.103	-20.28
848.274	-22.62
848.445	-26.98
848.615	-23.63
848.786	-23.06
848.956	-15.36
849.127	-9.11
849.297	4
849.468	8.02
849.638	8.49
849.809	4.3
849.979	5.4
850.15	6.75
850.32	11.36
850.491	8.93
850.661	10.23
850.831	13.58
851.002	19.83
851.172	24.83
851.342	22.63
851.513	21.88
851.683	19.91
851.853	21.79
852.024	22.26
852.194	20.8
852.364	17.31
852.534	16.95
852.705	17.09
852.875	12.64
853.045	12.07
853.215	14.01
853.385	19.52
853.555	19.34
853.725	17.82
853.895	11.98
854.066	15.2
854.236	14.41
854.406	14.92
854.576	10.67
854.746	9.36
854.916	12.17
855.086	19.19
855.256	24.43
855.425	22.65
855.595	25.03
855.765	25.2
855.935	24.67
856.105	24.49
856.275	23.99
856.445	17.46
856.614	18.03
856.784	22.56
856.954	23.22
857.124	21.86
857.294	21.76
857.463	23.7
857.633	27.11
857.803	23.38
857.972	21.32
858.142	23.07
858.312	23.93
858.481	24.33
858.651	14.8
858.821	13.89
858.99	12.21
859.16	7.45
859.329	6.18
859.499	11.08
859.668	13.27
859.838	12.45
860.007	22.78
860.177	22.91
860.346	16.73
860.516	12.53
860.685	13.34
860.854	17.83
861.024	12.82
861.193	8.02
861.363	14.64
861.532	6.69
861.701	11.1
861.87	7.54
862.04	5.9
862.209	12.53
862.378	13.6
862.547	13.06
862.717	16.96
862.886	20.88
863.055	18.06
863.224	14.98
863.393	13.32
863.563	11.05
863.732	10.33
863.901	8.61
864.07	14.26
864.239	13.7
864.408	13.37
864.577	18.14
864.746	21.93
864.915	17.03
865.084	23.44
865.253	17.21
865.422	19.08
865.591	20.43
865.76	15.69
865.929	12.16
866.097	9.46
866.266	9.76
866.435	2.37
866.604	2.87
866.773	7.5
866.942	7.98
867.11	5.57
867.279	7.05
867.448	16.64
867.617	7.76
867.785	6.06
867.954	-6.89
868.123	3.21
868.291	-6.47
868.46	5.91
868.629	0.4
868.797	2.42
868.966	4.36
869.134	1.87
869.303	10.74
869.472	7.16
869.64	4.55
869.809	2.18
869.977	4.53
870.146	11.81
870.314	9.99
870.482	8.11
870.651	2.94
870.819	0.11
870.988	-2.33
871.156	0.67
871.324	-8.44
871.493	-8.91
871.661	-6.59
871.829	4.89
871.998	3.8
872.166	1.45
872.334	5.68
872.502	4.97
872.671	-0.02
872.839	7.18
873.007	13.17
873.175	15.8
873.343	16.74
873.512	18.62
873.68	18.52
873.848	16.03
874.016	16.02
874.184	19.36
874.352	14.94
874.52	14.46
874.688	14.95
874.856	28.49
875.024	33.72
875.192	27.87
875.36	12.93
875.528	11.82
875.696	17.63
875.864	15.88
876.032	12.97
876.199	16.53
876.367	9.87
876.535	9.73
876.703	17.85
876.871	27.15
877.039	36.14
877.206	34.77
877.374	40.49
877.542	52.44
877.71	50.63
877.877	50.16
878.045	57.2
878.213	55.39
878.38	53.91
878.548	54.94
878.715	60.92
878.883	65.08
879.051	56.23
879.218	51.54
879.386	51.07
879.553	57.45
879.721	55.33
879.888	59.73
880.056	74.09
880.223	88.13
880.391	84.17
880.558	69.59
880.726	67.21
880.893	58
881.06	40.54
881.228	43.82
881.395	51.47
881.562	45.67
881.73	39.8
881.897	35.52
882.064	23.31
882.231	0.75
882.399	-4.58
882.566	3.6
882.733	6.81
882.9	-27.59
883.068	-8.66
883.235	7.96
883.402	0.84
883.569	5.26
883.736	5.6
883.903	9.71
884.07	13.67
884.237	0.58
884.404	3.44
884.571	8.93
884.738	11.64
884.905	13.45
885.072	8.75
885.239	20.43
885.406	21.12
