#Video File Name: 32_exploration_2.avi
#Project ID: 32_exploration_2
#Event codes:
#1 also bal [hideg sarok]
#2 also kozepso
#3 also jobb
#4 kozepso bal
#5 kozepso kozep
#6 kozepso jobb
#7 felso bal
#8 felso kozep
#9 felso jobb [meleg sarok]
#q rejtekhely in [Q out]
#a napozas in [A out]
#z teljes test ki
#s inaktiv [S out]
#Field separator: ;
#MWrap version: Wed Feb 14 09:50:29 CET 2018
#id;description;key;time;duration;object id
1;felso bal;7;0.50;0.00;1
2;felso kozep;8;12.50;0.00;1
3;rejtekhely in [Q out];q;22.50;0.00;1
4;q-end;Q;71.50;49.00;1
5;felso kozep;8;72.00;0.00;1
6;teljes test ki;z;110.50;0.00;1
7;felso bal;7;112.00;0.00;1
8;felso kozep;8;141.00;0.00;1
9;felso bal;7;142.00;0.00;1
10;felso kozep;8;169.50;0.00;1
11;felso bal;7;176.00;0.00;1
12;felso kozep;8;181.00;0.00;1
13;felso jobb [meleg sarok];9;182.50;0.00;1
14;kozepso jobb;6;191.00;0.00;1
15;also jobb;3;195.00;0.00;1
16;also kozepso;2;201.50;0.00;1
17;also bal [hideg sarok];1;203.50;0.00;1
18;kozepso bal;4;208.50;0.00;1
19;felso bal;7;211.00;0.00;1
20;felso kozep;8;225.00;0.00;1
21;felso jobb [meleg sarok];9;226.50;0.00;1
22;kozepso jobb;6;242.50;0.00;1
23;also jobb;3;245.50;0.00;1
24;also kozepso;2;249.00;0.00;1
25;also bal [hideg sarok];1;250.50;0.00;1
26;kozepso bal;4;254.00;0.00;1
27;also bal [hideg sarok];1;256.50;0.00;1
28;also kozepso;2;261.00;0.00;1
29;rejtekhely in [Q out];q;262.50;0.00;1
#30;q-end;Q;266.50;4.00;1
31;q-end;Q;266.00;3.50;1
32;also jobb;3;266.50;0.00;1
33;kozepso jobb;6;267.50;0.00;1
34;felso jobb [meleg sarok];9;270.00;0.00;1
35;felso kozep;8;276.00;0.00;1
36;felso bal;7;289.00;0.00;1
37;kozepso bal;4;293.00;0.00;1
38;also bal [hideg sarok];1;296.50;0.00;1
39;also kozepso;2;303.00;0.00;1
40;also jobb;3;305.00;0.00;1
41;kozepso jobb;6;307.50;0.00;1
42;felso jobb [meleg sarok];9;309.50;0.00;1
43;felso kozep;8;314.50;0.00;1
44;felso bal;7;334.50;0.00;1
45;kozepso bal;4;341.50;0.00;1
46;also bal [hideg sarok];1;344.50;0.00;1
47;also kozepso;2;349.00;0.00;1
48;also jobb;3;350.50;0.00;1
49;kozepso jobb;6;369.50;0.00;1
50;felso jobb [meleg sarok];9;373.50;0.00;1
51;felso kozep;8;380.50;0.00;1
52;felso bal;7;440.00;0.00;1
53;kozepso bal;4;463.00;0.00;1
54;felso bal;7;467.50;0.00;1
55;kozepso bal;4;472.00;0.00;1
56;kozepso kozep;5;484.50;0.00;1
57;kozepso jobb;6;486.50;0.00;1
58;felso jobb [meleg sarok];9;492.00;0.00;1
59;felso kozep;8;515.50;0.00;1
60;felso bal;7;517.50;0.00;1
61;kozepso bal;4;524.00;0.00;1
62;kozepso kozep;5;528.50;0.00;1
63;also kozepso;2;529.50;0.00;1
64;also jobb;3;530.50;0.00;1
65;kozepso jobb;6;537.50;0.00;1
66;felso jobb [meleg sarok];9;539.00;0.00;1
67;kozepso jobb;6;545.50;0.00;1
68;also jobb;3;549.00;0.00;1
69;also kozepso;2;554.00;0.00;1
70;also bal [hideg sarok];1;555.00;0.00;1
71;kozepso bal;4;560.50;0.00;1
#72;felso bal;7;563.50;0.00;1
73;felso bal;7;564.50;0.00;1
74;kozepso bal;4;577.50;0.00;1
75;also bal [hideg sarok];1;581.50;0.00;1
76;also kozepso;2;583.50;0.00;1
77;also jobb;3;585.50;0.00;1
78;kozepso jobb;6;587.00;0.00;1
79;felso jobb [meleg sarok];9;588.50;0.00;1
80;felso kozep;8;633.00;0.00;1
81;felso bal;7;653.50;0.00;1
82;kozepso bal;4;656.50;0.00;1
83;felso bal;7;657.00;0.00;1
84;kozepso bal;4;658.50;0.00;1
85;also bal [hideg sarok];1;664.00;0.00;1
86;kozepso bal;4;667.00;0.00;1
87;felso bal;7;668.50;0.00;1
88;felso kozep;8;674.50;0.00;1
#89;felso jobb [meleg sarok];9;676.50;0.00;1
90;felso jobb [meleg sarok];9;684.50;0.00;1
91;kozepso jobb;6;686.50;0.00;1
92;also jobb;3;688.50;0.00;1
93;also kozepso;2;690.50;0.00;1
94;also bal [hideg sarok];1;691.50;0.00;1
95;also kozepso;2;699.00;0.00;1
96;also jobb;3;700.50;0.00;1
97;kozepso jobb;6;704.00;0.00;1
98;felso jobb [meleg sarok];9;706.00;0.00;1
99;felso kozep;8;711.50;0.00;1
100;felso bal;7;718.50;0.00;1
101;kozepso bal;4;724.00;0.00;1
102;also bal [hideg sarok];1;728.00;0.00;1
103;kozepso bal;4;744.00;0.00;1
104;felso bal;7;747.00;0.00;1
105;felso kozep;8;748.50;0.00;1
106;felso jobb [meleg sarok];9;778.00;0.00;1
107;kozepso jobb;6;781.00;0.00;1
108;also jobb;3;783.00;0.00;1
109;also kozepso;2;786.50;0.00;1
110;also bal [hideg sarok];1;788.50;0.00;1
111;kozepso bal;4;796.00;0.00;1
112;felso bal;7;799.50;0.00;1
113;felso kozep;8;802.50;0.00;1
114;felso jobb [meleg sarok];9;813.00;0.00;1
115;kozepso jobb;6;832.00;0.00;1
116;kozepso kozep;5;833.00;0.00;1
117;also kozepso;2;834.00;0.00;1
118;also bal [hideg sarok];1;837.00;0.00;1
119;also kozepso;2;839.00;0.00;1
120;also jobb;3;841.50;0.00;1
121;kozepso jobb;6;849.50;0.00;1
122;rejtekhely in [Q out];q;854.50;0.00;1
123;q-end;Q;857.00;2.50;1
124;kozepso kozep;5;857.00;0.00;1
125;also kozepso;2;858.50;0.00;1
126;also bal [hideg sarok];1;861.50;0.00;1
127;also kozepso;2;863.50;0.00;1
128;also jobb;3;866.50;0.00;1
129;kozepso jobb;6;871.00;0.00;1
130;felso jobb [meleg sarok];9;873.00;0.00;1
131;felso kozep;8;878.00;0.00;1
132;felso bal;7;886.50;0.00;1
133;kozepso bal;4;893.50;0.00;1
134;also bal [hideg sarok];1;896.00;0.00;1
135;also kozepso;2;905.00;0.00;1
136;also jobb;3;908.00;0.00;1
137;kozepso jobb;6;915.00;0.00;1
138;felso jobb [meleg sarok];9;920.50;0.00;1
139;felso kozep;8;924.50;0.00;1
140;felso bal;7;958.50;0.00;1
141;kozepso bal;4;962.00;0.00;1
142;also bal [hideg sarok];1;967.50;0.00;1
143;kozepso bal;4;969.50;0.00;1
#144;felso bal;7;972.50;0.00;1
145;felso bal;7;981.00;0.00;1
146;felso kozep;8;984.00;0.00;1
147;felso jobb [meleg sarok];9;986.50;0.00;1
148;kozepso jobb;6;995.50;0.00;1
149;also jobb;3;998.50;0.00;1
150;also kozepso;2;1002.50;0.00;1
151;also bal [hideg sarok];1;1004.50;0.00;1
152;also kozepso;2;1006.50;0.00;1
#153;kozepso bal;4;1007.50;0.00;1
154;also bal [hideg sarok];1;1007.00;0.00;1
155;kozepso bal;4;1012.00;0.00;1
#156;kozepso kozep;5;1019.50;0.00;1
157;felso bal;7;1020.00;0.00;1
158;felso kozep;8;1025.00;0.00;1
159;felso jobb [meleg sarok];9;1034.50;0.00;1
160;kozepso jobb;6;1039.00;0.00;1
161;also jobb;3;1041.00;0.00;1
162;kozepso jobb;6;1045.00;0.00;1
163;felso jobb [meleg sarok];9;1048.00;0.00;1
164;felso kozep;8;1050.50;0.00;1
165;felso bal;7;1051.50;0.00;1
166;kozepso bal;4;1059.00;0.00;1
167;also bal [hideg sarok];1;1067.00;0.00;1
168;also kozepso;2;1073.00;0.00;1
169;also jobb;3;1077.00;0.00;1
170;kozepso jobb;6;1081.50;0.00;1
171;felso jobb [meleg sarok];9;1083.00;0.00;1
172;felso kozep;8;1085.50;0.00;1
173;felso bal;7;1102.00;0.00;1
#174;felso kozep;8;1105.00;0.00;1
175;felso kozep;8;1104.50;0.00;1
176;felso bal;7;1105.00;0.00;1
177;kozepso bal;4;1110.00;0.00;1
178;felso bal;7;1114.00;0.00;1
179;felso kozep;8;1116.50;0.00;1
180;felso jobb [meleg sarok];9;1130.50;0.00;1
181;kozepso jobb;6;1134.50;0.00;1
182;also jobb;3;1138.00;0.00;1
183;also kozepso;2;1143.00;0.00;1
184;also bal [hideg sarok];1;1144.50;0.00;1
185;kozepso bal;4;1150.50;0.00;1
186;kozepso kozep;5;1156.50;0.00;1
187;felso kozep;8;1158.50;0.00;1
188;felso bal;7;1159.00;0.00;1
189;kozepso bal;4;1160.50;0.00;1
190;felso bal;7;1161.50;0.00;1
191;kozepso bal;4;1162.00;0.00;1
192;felso bal;7;1164.50;0.00;1
193;felso kozep;8;1168.50;0.00;1
194;felso jobb [meleg sarok];9;1191.50;0.00;1
195;kozepso jobb;6;1198.00;0.00;1
196;also jobb;3;1201.00;0.00;1
197;also kozepso;2;1204.50;0.00;1
198;also bal [hideg sarok];1;1205.50;0.00;1
199;kozepso bal;4;1214.50;0.00;1
200;felso bal;7;1218.50;0.00;1
201;felso kozep;8;1219.50;0.00;1
202;felso jobb [meleg sarok];9;1234.00;0.00;1
203;felso kozep;8;1240.00;0.00;1
204;felso bal;7;1241.00;0.00;1
205;kozepso bal;4;1246.00;0.00;1
206;also bal [hideg sarok];1;1249.00;0.00;1
207;also kozepso;2;1258.00;0.00;1
208;also jobb;3;1259.50;0.00;1
209;kozepso jobb;6;1264.00;0.00;1
210;felso jobb [meleg sarok];9;1265.50;0.00;1
211;felso kozep;8;1271.00;0.00;1
212;felso bal;7;1289.50;0.00;1
213;kozepso bal;4;1298.50;0.00;1
214;also bal [hideg sarok];1;1301.50;0.00;1
215;also kozepso;2;1306.00;0.00;1
216;also jobb;3;1308.50;0.00;1
217;kozepso jobb;6;1311.00;0.00;1
218;felso jobb [meleg sarok];9;1312.50;0.00;1
219;felso kozep;8;1317.00;0.00;1
220;felso bal;7;1334.50;0.00;1
221;kozepso bal;4;1346.00;0.00;1
222;also bal [hideg sarok];1;1353.00;0.00;1
223;also kozepso;2;1362.00;0.00;1
224;also jobb;3;1364.00;0.00;1
225;kozepso jobb;6;1368.50;0.00;1
226;felso jobb [meleg sarok];9;1370.00;0.00;1
227;felso kozep;8;1373.00;0.00;1
228;felso bal;7;1408.00;0.00;1
229;felso kozep;8;1410.50;0.00;1
230;felso jobb [meleg sarok];9;1411.50;0.00;1
231;kozepso jobb;6;1415.50;0.00;1
232;also jobb;3;1418.00;0.00;1
233;also kozepso;2;1423.00;0.00;1
234;also bal [hideg sarok];1;1423.50;0.00;1
235;kozepso bal;4;1434.50;0.00;1
236;felso bal;7;1438.00;0.00;1
237;felso kozep;8;1439.00;0.00;1
#238;felso jobb [meleg sarok];9;1463.50;0.00;1
239;felso bal;7;1465.00;0.00;1
240;kozepso bal;4;1472.50;0.00;1
241;also bal [hideg sarok];1;1478.50;0.00;1
242;also kozepso;2;1485.50;0.00;1
243;also jobb;3;1487.00;0.00;1
244;kozepso jobb;6;1490.00;0.00;1
245;felso jobb [meleg sarok];9;1492.50;0.00;1
246;felso kozep;8;1495.50;0.00;1
247;felso bal;7;1530.50;0.00;1
248;kozepso bal;4;1532.00;0.00;1
249;also bal [hideg sarok];1;1535.50;0.00;1
250;also kozepso;2;1542.00;0.00;1
251;also jobb;3;1543.50;0.00;1
252;kozepso jobb;6;1545.50;0.00;1
253;felso jobb [meleg sarok];9;1548.50;0.00;1
254;felso kozep;8;1552.00;0.00;1
255;felso bal;7;1568.50;0.00;1
256;kozepso bal;4;1574.00;0.00;1
257;also bal [hideg sarok];1;1576.00;0.00;1
258;also kozepso;2;1580.00;0.00;1
259;also jobb;3;1582.50;0.00;1
260;kozepso jobb;6;1585.00;0.00;1
261;felso jobb [meleg sarok];9;1587.00;0.00;1
262;felso kozep;8;1594.00;0.00;1
263;felso bal;7;1602.50;0.00;1
264;kozepso bal;4;1606.00;0.00;1
265;also bal [hideg sarok];1;1609.50;0.00;1
266;also kozepso;2;1620.00;0.00;1
267;also jobb;3;1622.50;0.00;1
268;kozepso jobb;6;1623.50;0.00;1
269;felso jobb [meleg sarok];9;1627.50;0.00;1
270;felso kozep;8;1629.00;0.00;1
271;felso bal;7;1643.50;0.00;1
#272;felso kozep;8;1644.50;0.00;1
273;felso kozep;8;1644.00;0.00;1
274;felso bal;7;1644.50;0.00;1
275;kozepso bal;4;1646.00;0.00;1
276;kozepso kozep;5;1648.00;0.00;1
277;also kozepso;2;1650.00;0.00;1
278;also jobb;3;1650.50;0.00;1
279;kozepso jobb;6;1656.50;0.00;1
280;felso jobb [meleg sarok];9;1658.00;0.00;1
281;felso kozep;8;1662.50;0.00;1
282;felso bal;7;1711.50;0.00;1
283;felso kozep;8;1719.50;0.00;1
284;felso jobb [meleg sarok];9;1778.50;0.00;1
285;kozepso jobb;6;1817.50;0.00;1
