#Video File Name: 03_risk-taking_3.avi
#Project ID: 03_risk-taking_3
#Event codes:
#1 start
#w valtas
#q rejtekhely in [Q out: fej+test ki]
#a napozas in [A out]
#Field separator: ;
#MWrap version: Wed Feb 14 09:50:29 CET 2018
#id;description;key;time;duration;object id
1;rejtekhely in [Q out: fej+test ki];q;16.00;0.00;1
2;q-end;Q;16.50;0.50;1
3;rejtekhely in [Q out: fej+test ki];q;17.00;0.00;1
4;q-end;Q;144.00;127.00;1
#5;napozas in [A out];a;147.00;0.00;1
6;napozas in [A out];a;229.00;0.00;1
7;a-end;A;234.00;5.00;1
