#Video File Name: 04_risk-taking_9.avi
#Project ID: 04_risk-taking_9
#Event codes:
#1 start
#w valtas
#q rejtekhely in [Q out: fej+test ki]
#a napozas in [A out]
#Field separator: ;
#MWrap version: Wed Feb 14 09:50:29 CET 2018
#id;description;key;time;duration;object id
1;rejtekhely in [Q out: fej+test ki];q;10.00;0.00;1
2;q-end;Q;10.00;0.00;1
3;rejtekhely in [Q out: fej+test ki];q;14.00;0.00;1
4;q-end;Q;591.00;577.00;1
5;napozas in [A out];a;753.00;0.00;1
6;a-end;A;756.00;3.00;1
