#Video File Name: 06_risk-taking_3.avi
#Project ID: 06_risk-taking_3
#Event codes:
#1 start
#w valtas
#q rejtekhely in [Q out: fej+test ki]
#a napozas in [A out]
#Field separator: ;
#MWrap version: Wed Feb 14 09:50:29 CET 2018
#id;description;key;time;duration;object id
1;rejtekhely in [Q out: fej+test ki];q;7.50;0.00;1
2;q-end;Q;245.00;237.50;1
#3;rejtekhely in [Q out: fej+test ki];q;425.00;0.00;1
#4;napozas in [A out];a;424.50;0.00;1
5;napozas in [A out];a;249.00;0.00;1
6;a-end;A;289.00;40.00;1
