#Video File Name: 08_risk-taking_5.avi
#Project ID: 08_risk-taking_5
#Event codes:
#1 start
#w valtas
#q rejtekhely in [Q out: fej+test ki]
#a napozas in [A out]
#Field separator: ;
#MWrap version: Wed Feb 14 09:50:29 CET 2018
#id;description;key;time;duration;object id
1;rejtekhely in [Q out: fej+test ki];q;16.00;0.00;1
2;q-end;Q;551.00;535.00;1
3;napozas in [A out];a;558.50;0.00;1
4;a-end;A;576.50;18.00;1
