#Video File Name: 08_risk-taking_8.avi
#Project ID: 08_risk-taking_8
#Event codes:
#1 start
#w valtas
#q rejtekhely in [Q out: fej+test ki]
#a napozas in [A out]
#Field separator: ;
#MWrap version: Wed Feb 14 09:50:29 CET 2018
#id;description;key;time;duration;object id
1;rejtekhely in [Q out: fej+test ki];q;12.50;0.00;1
2;q-end;Q;16.50;4.00;1
3;rejtekhely in [Q out: fej+test ki];q;17.00;0.00;1
4;q-end;Q;118.50;101.50;1
5;napozas in [A out];a;225.50;0.00;1
6;a-end;A;236.50;11.00;1
