#Video File Name: 09_risk-taking_3.avi
#Project ID: 09_risk-taking_3
#Event codes:
#1 start
#w valtas
#q rejtekhely in [Q out: fej+test ki]
#a napozas in [A out]
#Field separator: ;
#MWrap version: Wed Feb 14 09:50:29 CET 2018
#id;description;key;time;duration;object id
1;rejtekhely in [Q out: fej+test ki];q;10.00;0.00;1
2;q-end;Q;257.00;247.00;1
#3;napozas in [A out];a;308.00;0.00;1
4;napozas in [A out];a;258.50;0.00;1
5;a-end;A;283.00;24.50;1
