#Video File Name: 09_risk-taking_4.avi
#Project ID: 09_risk-taking_4
#Event codes:
#1 start
#w valtas
#q rejtekhely in [Q out: fej+test ki]
#a napozas in [A out]
#Field separator: ;
#MWrap version: Wed Feb 14 09:50:29 CET 2018
#id;description;key;time;duration;object id
1;rejtekhely in [Q out: fej+test ki];q;6.50;0.00;1
2;q-end;Q;6.50;0.00;1
3;rejtekhely in [Q out: fej+test ki];q;17.50;0.00;1
4;q-end;Q;24.00;6.50;1
5;napozas in [A out];a;333.00;0.00;1
6;a-end;A;428.00;95.00;1
