#Video File Name: 10_risk-taking_9.avi
#Project ID: 10_risk-taking_9
#Event codes:
#1 start
#w valtas
#q rejtekhely in [Q out: fej+test ki]
#a napozas in [A out]
#Field separator: ;
#MWrap version: Wed Feb 14 09:50:29 CET 2018
#id;description;key;time;duration;object id
1;rejtekhely in [Q out: fej+test ki];q;25.50;0.00;1
2;q-end;Q;356.50;331.00;1
3;napozas in [A out];a;360.00;0.00;1
4;a-end;A;415.00;55.00;1
