#Video File Name: 13_risk-taking_2.avi
#Project ID: 13_risk-taking_2
#Event codes:
#1 start
#w valtas
#q rejtekhely in [Q out: fej+test ki]
#a napozas in [A out]
#Field separator: ;
#MWrap version: Wed Feb 14 09:50:29 CET 2018
#id;description;key;time;duration;object id
1;rejtekhely in [Q out: fej+test ki];q;14.00;0.00;1
2;q-end;Q;30.50;16.50;1
3;rejtekhely in [Q out: fej+test ki];q;51.50;0.00;1
4;q-end;Q;92.00;40.50;1
5;napozas in [A out];a;331.00;0.00;1
6;a-end;A;357.00;26.00;1
