#Video File Name: 14_risk-taking_7.avi
#Project ID: 14_risk-taking_7
#Event codes:
#1 start
#w valtas
#q rejtekhely in [Q out: fej+test ki]
#a napozas in [A out]
#Field separator: ;
#MWrap version: Wed Feb 14 09:50:29 CET 2018
#id;description;key;time;duration;object id
1;rejtekhely in [Q out: fej+test ki];q;4.00;0.00;1
2;q-end;Q;418.50;414.50;1
#3;napozas in [A out];a;424.50;0.00;1
4;napozas in [A out];a;448.50;0.00;1
5;a-end;A;464.50;16.00;1
