#Video File Name: 15_risk-taking_3.avi
#Project ID: 15_risk-taking_3
#Event codes:
#1 start
#w valtas
#q rejtekhely in [Q out: fej+test ki]
#a napozas in [A out]
#Field separator: ;
#MWrap version: Wed Feb 14 09:50:29 CET 2018
#id;description;key;time;duration;object id
1;rejtekhely in [Q out: fej+test ki];q;15.50;0.00;1
2;q-end;Q;15.50;0.00;1
3;rejtekhely in [Q out: fej+test ki];q;34.00;0.00;1
4;q-end;Q;220.00;186.00;1
5;napozas in [A out];a;233.50;0.00;1
6;a-end;A;308.50;75.00;1
