#Video File Name: 16_risk-taking_2.avi
#Project ID: 16_risk-taking_2
#Event codes:
#1 start
#w valtas
#q rejtekhely in [Q out: fej+test ki]
#a napozas in [A out]
#Field separator: ;
#MWrap version: Wed Feb 14 09:50:29 CET 2018
#id;description;key;time;duration;object id
1;rejtekhely in [Q out: fej+test ki];q;50.00;0.00;1
2;q-end;Q;284.00;234.00;1
3;napozas in [A out];a;284.00;0.00;1
4;a-end;A;371.50;87.50;1
