#Video File Name: 16_risk-taking_8.avi
#Project ID: 16_risk-taking_8
#Event codes:
#1 start
#w valtas
#q rejtekhely in [Q out: fej+test ki]
#a napozas in [A out]
#Field separator: ;
#MWrap version: Wed Feb 14 09:50:29 CET 2018
#id;description;key;time;duration;object id
1;rejtekhely in [Q out: fej+test ki];q;4.00;0.00;1
2;q-end;A;808.50;804.50;1
3;napozas in [A out];a;810.50;0.00;1
#4;a-end;A;817.50;7.00;1
5;a-end;A;823.00;12.50;1
