#Video File Name: 18_risk-taking_6.avi
#Project ID: 18_risk-taking_6
#Event codes:
#1 start
#w valtas
#q rejtekhely in [Q out: fej+test ki]
#a napozas in [A out]
#Field separator: ;
#MWrap version: Wed Feb 14 09:50:29 CET 2018
#id;description;key;time;duration;object id
1;rejtekhely in [Q out: fej+test ki];q;1.00;0.00;1
2;q-end;Q;1.50;0.50;1
#3;rejtekhely in [Q out: fej+test ki];q;9.00;0.00;1
4;rejtekhely in [Q out: fej+test ki];q;12.50;0.00;1
#5;rejtekhely in [Q out: fej+test ki];q;29.00;0.00;1
#6;rejtekhely in [Q out: fej+test ki];q;12.00;0.00;1
7;q-end;Q;27.00;15.00;1
8;rejtekhely in [Q out: fej+test ki];q;29.00;0.00;1
9;q-end;Q;170.50;141.50;1
10;napozas in [A out];a;172.00;0.00;1
#11;q-end;Q;212.00;183.00;1
12;a-end;A;211.50;39.50;1
