#Video File Name: 19_risk-taking_9.avi
#Project ID: 19_risk-taking_9
#Event codes:
#1 start
#w valtas
#q rejtekhely in [Q out: fej+test ki]
#a napozas in [A out]
#Field separator: ;
#MWrap version: Wed Feb 14 09:50:29 CET 2018
#id;description;key;time;duration;object id
1;rejtekhely in [Q out: fej+test ki];q;19.50;0.00;1
2;q-end;Q;134.50;115.00;1
3;napozas in [A out];a;136.00;0.00;1
4;a-end;A;252.00;116.00;1
