#Video File Name: 20_risk-taking_9.avi
#Project ID: 20_risk-taking_9
#Event codes:
#1 start
#w valtas
#q rejtekhely in [Q out: fej+test ki]
#a napozas in [A out]
#Field separator: ;
#MWrap version: Wed Feb 14 09:50:29 CET 2018
#id;description;key;time;duration;object id
1;rejtekhely in [Q out: fej+test ki];q;11.00;0.00;1
2;q-end;Q;444.00;433.00;1
3;napozas in [A out];a;446.50;0.00;1
4;a-end;A;466.50;20.00;1
