#Video File Name: 20_risk-taking_7.avi
#Project ID: 20_risk-taking_7
#Event codes:
#1 start
#w valtas
#q rejtekhely in [Q out: fej+test ki]
#a napozas in [A out]
#Field separator: ;
#MWrap version: Wed Feb 14 09:50:29 CET 2018
#id;description;key;time;duration;object id
1;rejtekhely in [Q out: fej+test ki];q;3.00;0.00;1
2;q-end;Q;4.50;1.50;1
3;rejtekhely in [Q out: fej+test ki];q;9.50;0.00;1
4;q-end;Q;60.50;51.00;1
#5;napozas in [A out];a;61.50;0.00;1
6;napozas in [A out];a;66.50;0.00;1
7;a-end;A;69.50;3.00;1
