#Video File Name: 21_risk-taking_6.avi
#Project ID: 21_risk-taking_6
#Event codes:
#1 start
#w valtas
#q rejtekhely in [Q out: fej+test ki]
#a napozas in [A out]
#Field separator: ;
#MWrap version: Wed Feb 14 09:50:29 CET 2018
#id;description;key;time;duration;object id
1;rejtekhely in [Q out: fej+test ki];q;11.00;0.00;1
2;q-end;Q;11.00;0.00;1
3;rejtekhely in [Q out: fej+test ki];q;19.50;0.00;1
4;q-end;Q;21.00;1.50;1
5;rejtekhely in [Q out: fej+test ki];q;44.00;0.00;1
6;q-end;Q;91.00;47.00;1
7;napozas in [A out];a;96.00;0.00;1
8;a-end;A;98.00;2.00;1
