#Video File Name: 22_risk-taking_8.avi
#Project ID: 22_risk-taking_8
#Event codes:
#1 start
#w valtas
#q rejtekhely in [Q out: fej+test ki]
#a napozas in [A out]
#Field separator: ;
#MWrap version: Wed Feb 14 09:50:29 CET 2018
#id;description;key;time;duration;object id
1;rejtekhely in [Q out: fej+test ki];q;5.00;0.00;1
2;q-end;Q;7.00;2.00;1
3;rejtekhely in [Q out: fej+test ki];q;13.00;0.00;1
4;q-end;Q;290.50;277.50;1
5;napozas in [A out];a;293.50;0.00;1
6;a-end;A;333.00;39.50;1
