#Video File Name: 23_risk-taking_6.avi
#Project ID: 23_risk-taking_6
#Event codes:
#1 start
#w valtas
#q rejtekhely in [Q out: fej+test ki]
#a napozas in [A out]
#Field separator: ;
#MWrap version: Wed Feb 14 09:50:29 CET 2018
#id;description;key;time;duration;object id
1;rejtekhely in [Q out: fej+test ki];q;27.50;0.00;1
2;q-end;Q;27.50;0.00;1
3;rejtekhely in [Q out: fej+test ki];q;72.50;0.00;1
4;q-end;Q;127.50;55.00;1
5;napozas in [A out];a;248.50;0.00;1
6;a-end;A;253.00;4.50;1
