#Video File Name: 24_risk-taking_1.avi
#Project ID: 24_risk-taking_1
#Event codes:
#1 start
#w valtas
#q rejtekhely in [Q out: fej+test ki]
#a napozas in [A out]
#Field separator: ;
#MWrap version: Wed Feb 14 09:50:29 CET 2018
#id;description;key;time;duration;object id
1;rejtekhely in [Q out: fej+test ki];q;112.50;0.00;1
2;q-end;Q;129.00;16.50;1
3;rejtekhely in [Q out: fej+test ki];q;134.00;0.00;1
4;q-end;Q;318.00;184.00;1
5;napozas in [A out];a;326.50;0.00;1
6;a-end;A;332.50;6.00;1
