#Video File Name: 26_risk-taking_3.avi
#Project ID: 26_risk-taking_3
#Event codes:
#1 start
#w valtas
#q rejtekhely in [Q out: fej+test ki]
#a napozas in [A out]
#Field separator: ;
#MWrap version: Wed Feb 14 09:50:29 CET 2018
#id;description;key;time;duration;object id
#1;rejtekhely in [Q out: fej+test ki];q;4.50;0.00;1
2;rejtekhely in [Q out: fej+test ki];q;6.50;0.00;1
3;q-end;Q;150.00;143.50;1
4;napozas in [A out];a;152.00;0.00;1
5;a-end;A;188.00;36.00;1
