#Video File Name: 26_risk-taking_7.avi
#Project ID: 26_risk-taking_7
#Event codes:
#1 start
#w valtas
#q rejtekhely in [Q out: fej+test ki]
#a napozas in [A out]
#Field separator: ;
#MWrap version: Wed Feb 14 09:50:29 CET 2018
#id;description;key;time;duration;object id
1;rejtekhely in [Q out: fej+test ki];q;5.50;0.00;1
2;q-end;Q;761.50;756.00;1
3;napozas in [A out];a;774.00;0.00;1
4;a-end;A;876.00;102.00;1
