#Video File Name: 28_risk-taking_5.avi
#Project ID: 28_risk-taking_5
#Event codes:
#1 start
#w valtas
#q rejtekhely in [Q out: fej+test ki]
#a napozas in [A out]
#Field separator: ;
#MWrap version: Wed Feb 14 09:50:29 CET 2018
#id;description;key;time;duration;object id
#1;rejtekhely in [Q out: fej+test ki];q;8.00;0.00;1
2;rejtekhely in [Q out: fej+test ki];q;13.00;0.00;1
3;q-end;Q;416.50;403.50;1
#4;napozas in [A out];a;418.00;0.00;1
5;napozas in [A out];a;439.50;0.00;1
6;a-end;A;455.00;15.50;1
