#Video File Name: 28_risk-taking_7.avi
#Project ID: 28_risk-taking_7
#Event codes:
#1 start
#w valtas
#q rejtekhely in [Q out: fej+test ki]
#a napozas in [A out]
#Field separator: ;
#MWrap version: Wed Feb 14 09:50:29 CET 2018
#id;description;key;time;duration;object id
1;rejtekhely in [Q out: fej+test ki];q;6.50;0.00;1
2;q-end;Q;8.00;1.50;1
3;rejtekhely in [Q out: fej+test ki];q;18.50;0.00;1
4;q-end;Q;180.50;162.00;1
5;napozas in [A out];a;209.50;0.00;1
6;a-end;A;240.50;31.00;1
