#Video File Name: 29_risk-taking_10.avi
#Project ID: 29_risk-taking_10
#Event codes:
#1 start
#w valtas
#q rejtekhely in [Q out: fej+test ki]
#a napozas in [A out]
#Field separator: ;
#MWrap version: Wed Feb 14 09:50:29 CET 2018
#id;description;key;time;duration;object id
1;rejtekhely in [Q out: fej+test ki];q;29.50;0.00;1
2;q-end;Q;43.50;14.00;1
3;rejtekhely in [Q out: fej+test ki];q;48.50;0.00;1
4;q-end;Q;236.00;187.50;1
5;napozas in [A out];a;248.50;0.00;1
6;a-end;A;267.00;18.50;1
