#Video File Name: 30_risk-taking_2.avi
#Project ID: 30_risk-taking_2
#Event codes:
#1 start
#w valtas
#q rejtekhely in [Q out: fej+test ki]
#a napozas in [A out]
#Field separator: ;
#MWrap version: Wed Feb 14 09:50:29 CET 2018
#id;description;key;time;duration;object id
1;rejtekhely in [Q out: fej+test ki];q;50.50;0.00;1
2;q-end;Q;277.00;226.50;1
3;napozas in [A out];a;319.00;0.00;1
4;q-end;Q;340.50;290.00;1
