#Video File Name: 32_risk-taking_7.avi
#Project ID: 32_risk-taking_7
#Event codes:
#1 start
#w valtas
#q rejtekhely in [Q out: fej+test ki]
#a napozas in [A out]
#Field separator: ;
#MWrap version: Wed Feb 14 09:50:29 CET 2018
#id;description;key;time;duration;object id
1;rejtekhely in [Q out: fej+test ki];q;19.00;0.00;1
2;q-end;Q;902.00;883.00;1
