#Video File Name: 34_risk-taking_8.avi
#Project ID: 34_risk-taking_8
#Event codes:
#1 start
#w valtas
#q rejtekhely in [Q out: fej+test ki]
#a napozas in [A out]
#Field separator: ;
#MWrap version: Wed Feb 14 09:50:29 CET 2018
#id;description;key;time;duration;object id
1;rejtekhely in [Q out: fej+test ki];q;13.50;0.00;1
2;q-end;Q;17.00;3.50;1
3;rejtekhely in [Q out: fej+test ki];q;37.50;0.00;1
4;q-end;Q;40.00;2.50;1
5;rejtekhely in [Q out: fej+test ki];q;41.50;0.00;1
6;q-end;Q;188.50;147.00;1
7;napozas in [A out];a;200.00;0.00;1
8;a-end;A;208.00;8.00;1
