#Video File Name: 34_risk-taking_3.avi
#Project ID: 34_risk-taking_3
#Event codes:
#1 start
#w valtas
#q rejtekhely in [Q out: fej+test ki]
#a napozas in [A out]
#Field separator: ;
#MWrap version: Wed Feb 14 09:50:29 CET 2018
#id;description;key;time;duration;object id
1;rejtekhely in [Q out: fej+test ki];q;14.00;0.00;1
2;q-end;Q;14.00;0.00;1
#3;rejtekhely in [Q out: fej+test ki];q;61.00;0.00;1
#4;q-end;Q;287.00;226.00;1
5;napozas in [A out];a;289.00;0.00;1
6;a-end;A;326.50;37.50;1
