#Video File Name: 34_risk-taking_1.avi
#Project ID: 34_risk-taking_1
#Event codes:
#1 start
#w valtas
#q rejtekhely in [Q out: fej+test ki]
#a napozas in [A out]
#Field separator: ;
#MWrap version: Wed Feb 14 09:50:29 CET 2018
#id;description;key;time;duration;object id
1;rejtekhely in [Q out: fej+test ki];q;168.00;0.00;1
2;q-end;Q;241.00;73.00;1
3;napozas in [A out];a;369.50;0.00;1
4;a-end;A;400.00;30.50;1
