#Video File Name: 35_risk-taking_8.avi
#Project ID: 35_risk-taking_8
#Event codes:
#1 start
#w valtas
#q rejtekhely in [Q out: fej+test ki]
#a napozas in [A out]
#Field separator: ;
#MWrap version: Wed Feb 14 09:50:29 CET 2018
#id;description;key;time;duration;object id
1;rejtekhely in [Q out: fej+test ki];q;4.50;0.00;1
2;q-end;Q;6.00;1.50;1
3;napozas in [A out];a;42.50;0.00;1
4;a-end;A;47.00;4.50;1
