#Video File Name: 36_risk-taking_3.avi
#Project ID: 36_risk-taking_3
#Event codes:
#1 start
#w valtas
#q rejtekhely in [Q out: fej+test ki]
#a napozas in [A out]
#Field separator: ;
#MWrap version: Wed Feb 14 09:50:29 CET 2018
#id;description;key;time;duration;object id
1;rejtekhely in [Q out: fej+test ki];q;20.00;0.00;1
2;q-end;Q;20.50;0.50;1
3;rejtekhely in [Q out: fej+test ki];q;22.50;0.00;1
4;q-end;Q;126.50;104.00;1
#5;rejtekhely in [Q out: fej+test ki];q;127.50;0.00;1
#6;q-end;Q;133.00;5.50;1
#7;rejtekhely in [Q out: fej+test ki];q;133.50;0.00;1
#8;q-end;Q;155.50;22.00;1
9;napozas in [A out];a;158.00;0.00;1
#10;a-end;A;220.50;62.50;1
11;a-end;A;228.00;70.00;1
