Data from Transmission_09-28-16-633.txt Node
Date: Fri Aug 24 09:28:16 EEST 2018
User: tibor.sos
Spectrometer: USB4F01757
Scans to average: 10
Trigger mode: 4
Integration Time (sec): 1.000000E-2
Electric dark correction enabled: true
Boxcar width: 10
XAxis mode: Wavelengths
Number of Pixels in Spectrum: 3648
>>>>>Begin Spectral Data<<<<<
178.758	62.79
178.974	48.09
179.191	108.47
179.407	89.48
179.624	40.29
179.84	36.06
180.057	57.51
180.273	88.16
180.489	103.91
180.706	111.42
180.922	139.95
181.138	129.46
181.355	131.35
181.571	119.3
181.787	155.35
182.004	131.01
182.22	156.87
182.436	206.62
182.653	197.16
182.869	151.25
183.085	170.31
183.301	164.23
183.518	138.12
183.734	115.39
183.95	138.01
184.166	166.47
184.383	160.35
184.599	156.53
184.815	144.67
185.031	138.09
185.247	147.06
185.463	150.87
185.68	152.45
185.896	175.81
186.112	236.94
186.328	203.14
186.544	244.67
186.76	263.73
186.976	215.19
187.192	194.93
187.408	236.14
187.624	269.81
187.84	221.35
188.056	185.46
188.272	198.93
188.488	205.96
188.704	206.43
188.92	266.85
189.136	220.31
189.352	226.95
189.568	261.53
189.784	283.54
190	245.07
190.216	259.14
190.432	270.17
190.648	301.59
190.864	757.71
191.08	537.58
191.296	248.9
191.511	280.09
191.727	397.19
191.943	426.6
192.159	272.1
192.375	312.91
192.591	380.34
192.806	483.75
193.022	299.08
193.238	479.86
193.454	346.73
193.669	532.82
193.885	582.02
194.101	798.93
194.317	464.23
194.532	2894.38
194.748	-2107.56
194.964	901.98
195.18	375.91
195.395	308.76
195.611	278.46
195.827	521.02
196.042	1047.39
196.258	539.72
196.473	352.42
196.689	415.08
196.905	568.47
197.12	2954.46
197.336	1113.17
197.551	-1276.86
197.767	404800
197.982	973.37
198.198	5660.27
198.414	4382.02
198.629	852.66
198.845	575.71
199.06	661.35
199.276	521.42
199.491	1984.86
199.707	599.76
199.922	360.79
200.137	396.13
200.353	417.45
200.568	315.59
200.784	360.14
200.999	399.42
201.215	617.58
201.43	685.28
201.645	508.92
201.861	540.72
202.076	464.79
202.291	528.8
202.507	513.97
202.722	391.38
202.937	838.27
203.153	764.44
203.368	561
203.583	315.93
203.798	324.91
204.014	302.93
204.229	282.11
204.444	343.07
204.659	737.2
204.875	1155.14
205.09	-2605.04
205.305	5630.19
205.52	-2221.14
205.735	-1683.83
205.951	9408
206.166	-490.13
206.381	-418.83
206.596	-4174.55
206.811	-1167.25
207.026	-866.42
207.241	-214.47
207.457	851.09
207.672	2664.46
207.887	-2785.05
208.102	-541.13
208.317	-690.4
208.532	1701.69
208.747	-1739.89
208.962	-1241.7
209.177	2067.11
209.392	988.16
209.607	403.25
209.822	503.6
210.037	437.35
210.252	529.67
210.467	805.59
210.682	403.52
210.897	356.53
211.112	494.78
211.326	349.48
211.541	415.55
211.756	195.5
211.971	317.68
212.186	195.21
212.401	174.57
212.616	184.31
212.831	151.95
213.045	191.23
213.26	111.46
213.475	137.97
213.69	166.75
213.905	193.89
214.119	631.67
214.334	-3718.52
214.549	-346.56
214.764	375.13
214.978	211.6
215.193	196.05
215.408	-902.56
215.622	119.25
215.837	1946.67
216.052	-1080.46
216.266	-320
216.481	-288
216.696	-173.49
216.91	6242.42
217.125	797.57
217.34	1359.59
217.554	1604.32
217.769	-743.39
217.983	-270.27
218.198	-492.93
218.412	-787.14
218.627	617.37
218.842	357.84
219.056	254.76
219.271	256.01
219.485	460.37
219.7	464.19
219.914	380.42
220.129	685.2
220.343	406.13
220.558	309.8
220.772	391.36
220.986	346.99
221.201	510.64
221.415	-473.8
221.63	-121.95
221.844	-93.37
222.058	-137.11
222.273	-102.77
222.487	-103.93
222.702	-148.07
222.916	-151.28
223.13	-66.92
223.344	-94.4
223.559	-64.16
223.773	-46.37
223.987	-50.43
224.202	-78.98
224.416	-48.97
224.63	-24.69
224.844	-39.15
225.059	-80.08
225.273	-2161.62
225.487	1699.2
225.701	270.49
225.915	187.06
226.13	174.84
226.344	197.15
226.558	184.2
226.772	160.12
226.986	166.04
227.2	172.95
227.415	171.76
227.629	200.3
227.843	229.91
228.057	160.9
228.271	137.59
228.485	150.02
228.699	158.61
228.913	210.14
229.127	222.2
229.341	216
229.555	274.32
229.769	314.19
229.983	385.05
230.197	389.4
230.411	609.41
230.625	744.25
230.839	504.62
231.053	691.78
231.267	1424.34
231.481	1094.84
231.695	816.82
231.909	392.99
232.122	232.85
232.336	222.12
232.55	320
232.764	375.41
232.978	420.11
233.192	513.14
233.405	471.73
233.619	288.47
233.833	190.82
234.047	364.68
234.261	482.02
234.474	381.29
234.688	-822.33
234.902	-394.92
235.116	-111.46
235.329	-53.4
235.543	-318.06
235.757	-134.78
235.97	-74.5
236.184	-30.07
236.398	-27.48
236.612	17.07
236.825	9.04
237.039	35.9
237.252	-17.59
237.466	-261.47
237.68	-1545.76
237.893	98000
238.107	517
238.32	-1001.74
238.534	217.75
238.748	165.66
238.961	166.62
239.175	190.56
239.388	234.53
239.602	373.02
239.815	229.84
240.029	229.18
240.242	152.69
240.456	95.2
240.669	130.19
240.882	105.78
241.096	210.12
241.309	156
241.523	193.98
241.736	281.92
241.95	-569.83
242.163	1019.55
242.376	329.36
242.59	1030.4
242.803	-10720
243.016	-462.84
243.23	-1485.71
243.443	-11306.67
243.656	1010.53
243.87	209.52
244.083	167.23
244.296	157.93
244.509	156.88
244.723	162.91
244.936	159.57
245.149	185.54
245.362	160.5
245.576	114.62
245.789	126.18
246.002	123.56
246.215	119.36
246.428	101.9
246.641	96.35
246.855	126.07
247.068	110.77
247.281	35.46
247.494	40.85
247.707	45.83
247.92	25.75
248.133	28.98
248.346	43.71
248.559	44.18
248.772	16.1
248.985	21.81
249.198	21.29
249.411	15.61
249.624	10.2
249.837	0.23
250.05	19.48
250.263	21.33
250.476	23.45
250.689	22.24
250.902	17.87
251.115	1.31
251.328	14.4
251.541	17.43
251.754	32.5
251.967	30.71
252.18	32.58
252.393	31.1
252.605	35.69
252.818	29.39
253.031	25.82
253.244	25.34
253.457	19.14
253.67	26
253.882	30.69
254.095	41.19
254.308	50.66
254.521	30.95
254.733	29.36
254.946	34.11
255.159	31.35
255.372	28.31
255.584	31.91
255.797	24.25
256.01	11.63
256.222	10.7
256.435	10.06
256.648	16.64
256.86	17.16
257.073	5.66
257.285	12.3
257.498	13.67
257.711	28.33
257.923	27.18
258.136	25.79
258.348	34.89
258.561	34.74
258.773	29.69
258.986	36.91
259.198	37.5
259.411	-9.71
259.623	5.61
259.836	30.15
260.048	46.31
260.261	68.4
260.473	65.48
260.686	51.36
260.898	49.58
261.111	37.31
261.323	32.35
261.535	42.5
261.748	40.52
261.96	37.31
262.173	34.33
262.385	40.06
262.597	40.54
262.81	37.03
263.022	32.45
263.234	35.11
263.447	36.9
263.659	37.26
263.871	49.42
264.083	53.17
264.296	51.27
264.508	43.99
264.72	30.94
264.932	42.52
265.145	39.49
265.357	39.22
265.569	40.2
265.781	44.85
265.993	43.7
266.205	52.66
266.418	51.66
266.63	61.5
266.842	75.35
267.054	78.05
267.266	58.82
267.478	51.85
267.69	47.29
267.902	30.32
268.114	50.88
268.326	41.52
268.538	35.9
268.75	40.33
268.962	66.28
269.174	79.91
269.386	68.13
269.598	76.36
269.81	75.33
270.022	73.74
270.234	68.36
270.446	69.31
270.658	65.49
270.87	67.44
271.082	64.8
271.294	57.15
271.506	55.91
271.718	57.46
271.929	60.63
272.141	61.36
272.353	62.19
272.565	57.41
272.777	60.17
272.989	58.67
273.2	60.43
273.412	52.04
273.624	50.16
273.836	50.24
274.047	49.74
274.259	49.73
274.471	51.51
274.683	49.79
274.894	49.75
275.106	47.69
275.318	47.08
275.529	46.57
275.741	47.17
275.953	51.69
276.164	57.26
276.376	63.25
276.588	64.48
276.799	75.43
277.011	78.45
277.222	79.18
277.434	84.74
277.646	80.38
277.857	99.98
278.069	95.4
278.28	95.34
278.492	94.03
278.703	77.37
278.915	74.37
279.126	82.37
279.338	79.08
279.549	82.31
279.761	70.68
279.972	68.56
280.183	67.97
280.395	65.67
280.606	63.24
280.818	55.04
281.029	56.85
281.24	51.17
281.452	52.77
281.663	43.99
281.875	44.21
282.086	50.45
282.297	37.24
282.508	44.74
282.72	47.17
282.931	46.78
283.142	47.41
283.354	44.79
283.565	40.31
283.776	44.99
283.987	39.4
284.199	44.7
284.41	47.81
284.621	56.23
284.832	47.4
285.043	46.3
285.254	41.36
285.466	36.56
285.677	43.2
285.888	39.67
286.099	41.39
286.31	52.35
286.521	37.77
286.732	38.59
286.943	34.6
287.154	29.75
287.366	30.09
287.577	39.81
287.788	40.33
287.999	36.13
288.21	24.64
288.421	28.01
288.632	17.34
288.843	16.13
289.054	15.2
289.264	15.23
289.475	10.6
289.686	18.62
289.897	20.79
290.108	17.81
290.319	12.49
290.53	15.01
290.741	5.61
290.952	9.25
291.163	16.78
291.373	16.7
291.584	18.47
291.795	15.66
292.006	11.33
292.217	11.75
292.427	15.78
292.638	17.62
292.849	16.05
293.06	31.22
293.27	29.93
293.481	31.86
293.692	27.82
293.903	29.78
294.113	29.76
294.324	26.62
294.535	22.4
294.745	27.4
294.956	34.55
295.167	24.34
295.377	27.97
295.588	30.7
295.798	33.13
296.009	28.66
296.22	29.27
296.43	29.64
296.641	29.76
296.851	30.23
297.062	32.33
297.272	31.43
297.483	35.04
297.693	31.85
297.904	27.48
298.114	35.56
298.325	34.32
298.535	31.2
298.746	35.22
298.956	42.31
299.167	42.25
299.377	38.16
299.587	46.32
299.798	44.81
300.008	43.08
300.219	37.58
300.429	42.85
300.639	42.83
300.85	48.98
301.06	43.69
301.27	45.73
301.481	43.26
301.691	40.51
301.901	32.95
302.111	37.63
302.322	41.99
302.532	38.9
302.742	41.63
302.952	44.78
303.163	41.81
303.373	36.27
303.583	35.78
303.793	36.79
304.003	35.55
304.214	35.36
304.424	30.94
304.634	30.03
304.844	30.86
305.054	31.05
305.264	27.87
305.474	33.49
305.684	32.1
305.894	35.53
306.104	35.7
306.314	41.92
306.525	40.12
306.735	32.06
306.945	23.83
307.155	26.48
307.365	26.46
307.575	35.38
307.784	32.75
307.994	31.43
308.204	30.35
308.414	31.81
308.624	33.63
308.834	35.84
309.044	38.14
309.254	35.87
309.464	36.35
309.674	35.85
309.884	39.85
310.093	40.59
310.303	42.84
310.513	50.98
310.723	47.78
310.933	44.77
311.142	46.22
311.352	49.48
311.562	47.9
311.772	45.78
311.981	37.77
312.191	34.33
312.401	33.54
312.611	37.57
312.82	38.4
313.03	40.34
313.24	37.54
313.449	37.74
313.659	35.86
313.869	33.55
314.078	34.38
314.288	30.58
314.497	27.43
314.707	27.41
314.917	18.55
315.126	19.31
315.336	24.3
315.545	25.07
315.755	29.57
315.964	25.9
316.174	26.04
316.383	26
316.593	32.66
316.802	35.35
317.012	29.79
317.221	27.18
317.431	25.33
317.64	28.56
317.849	25.52
318.059	26.38
318.268	29.59
318.478	29.86
318.687	29.24
318.896	33.04
319.106	32.75
319.315	37.81
319.524	33.57
319.734	30.73
319.943	32.05
320.152	32.17
320.362	33.92
320.571	33.92
320.78	37.05
320.989	36.6
321.199	35.48
321.408	38.9
321.617	40.24
321.826	41.75
322.035	41.1
322.245	44.68
322.454	43.93
322.663	42.5
322.872	39.28
323.081	40.86
323.29	37.05
323.5	32.73
323.709	28.24
323.918	30.58
324.127	28.41
324.336	22.69
324.545	17.13
324.754	26.26
324.963	26.82
325.172	26.37
325.381	28.94
325.59	30.26
325.799	24.74
326.008	22.88
326.217	16.21
326.426	27.32
326.635	24.22
326.844	28.12
327.053	34.48
327.262	43.49
327.47	41.55
327.679	41.26
327.888	41.38
328.097	40.04
328.306	38.45
328.515	46.2
328.724	51.55
328.932	52.75
329.141	46.08
329.35	46.78
329.559	49.27
329.768	48.92
329.976	45.1
330.185	49.42
330.394	49.52
330.602	55.74
330.811	43.78
331.02	37.6
331.229	35.49
331.437	33.86
331.646	28.68
331.855	29.97
332.063	34.98
332.272	34.1
332.48	34.66
332.689	37.6
332.898	29.15
333.106	24.92
333.315	32
333.523	34.31
333.732	27.74
333.94	28.07
334.149	26.93
334.357	28.72
334.566	27.67
334.774	31.69
334.983	26.83
335.191	27.97
335.4	33.73
335.608	31.05
335.817	34.96
336.025	37.52
336.234	25.33
336.442	19.86
336.65	25.46
336.859	23.55
337.067	25.52
337.275	32.25
337.484	30.91
337.692	21.39
337.9	18.52
338.109	28.21
338.317	25.37
338.525	24.75
338.734	33.84
338.942	33.43
339.15	33.14
339.358	35.97
339.567	34.96
339.775	35.79
339.983	39.15
340.191	29.57
340.399	32.59
340.608	47.22
340.816	49.99
341.024	52.12
341.232	51.88
341.44	45.22
341.648	42.75
341.856	48.61
342.064	55.08
342.272	56.29
342.481	52.45
342.689	52.69
342.897	47.79
343.105	40.31
343.313	44.76
343.521	36.65
343.729	29.37
343.937	32.67
344.145	25.55
344.353	30.67
344.56	29.18
344.768	26.76
344.976	21.36
345.184	13.92
345.392	14.22
345.6	17.48
345.808	17.5
346.016	20.69
346.224	20.52
346.431	17.28
346.639	16.92
346.847	22.81
347.055	22.32
347.263	22.36
347.471	26.2
347.678	26.2
347.886	40.22
348.094	57.46
348.302	55.57
348.509	65.1
348.717	50.94
348.925	59.92
349.132	66.27
349.34	57.27
349.548	55.76
349.755	57.6
349.963	56.33
350.171	54.81
350.378	49.38
350.586	46.17
350.793	48.96
351.001	54.76
351.209	46.72
351.416	43.42
351.624	53.42
351.831	50.32
352.039	47.96
352.246	47.1
352.454	32.16
352.661	32.89
352.869	29.18
353.076	27.43
353.284	22.96
353.491	25.19
353.699	25
353.906	34.84
354.113	31.58
354.321	29.52
354.528	32.58
354.736	32.04
354.943	29.61
355.15	27.85
355.358	22.35
355.565	21.56
355.772	20.4
355.98	16.94
356.187	12.97
356.394	11.04
356.601	11.09
356.809	17.41
357.016	19.43
357.223	21.68
357.43	24.1
357.638	24.97
357.845	25.48
358.052	26.26
358.259	32.93
358.466	34.9
358.673	34.68
358.881	34.62
359.088	35.23
359.295	33.7
359.502	33.11
359.709	34.95
359.916	34.61
360.123	32.68
360.33	28.47
360.537	34.35
360.744	39.56
360.951	34.11
361.158	39.71
361.365	35.98
361.572	39.91
361.779	52.07
361.986	52.91
362.193	44.26
362.4	43.32
362.607	25.53
362.814	24.89
363.021	26.58
363.228	29.35
363.435	34.49
363.641	37.48
363.848	42.23
364.055	46.28
364.262	49.37
364.469	50.61
364.676	50.57
364.882	46.45
365.089	36.8
365.296	37.66
365.503	35.24
365.709	32.13
365.916	31.74
366.123	26.84
366.33	28.43
366.536	37.19
366.743	35.4
366.95	44.94
367.156	46.45
367.363	51.96
367.57	41.7
367.776	37.78
367.983	40.89
368.19	32.15
368.396	28.23
368.603	27.71
368.809	38.11
369.016	36.35
369.222	36.11
369.429	40.58
369.635	39.52
369.842	40.16
370.048	46.31
370.255	49.26
370.461	49.02
370.668	47.06
370.874	41.55
371.081	39.85
371.287	38.02
371.494	37.95
371.7	36.72
371.906	38.78
372.113	39.11
372.319	41.08
372.526	42.59
372.732	44.61
372.938	39.31
373.145	29.29
373.351	27.58
373.557	28
373.763	31.57
373.97	33.87
374.176	34.95
374.382	34.86
374.588	28.66
374.795	23.25
375.001	21.04
375.207	20.42
375.413	27.26
375.62	31.55
375.826	31.84
376.032	28.96
376.238	29.51
376.444	23.31
376.65	17.63
376.856	23.13
377.062	22.37
377.269	33.99
377.475	27.64
377.681	32.02
377.887	23.87
378.093	10.25
378.299	12.28
378.505	7.33
378.711	8.06
378.917	4.21
379.123	15.38
379.329	17.36
379.535	20.67
379.741	23.78
379.947	21.59
380.152	23.31
380.358	22.68
380.564	24.13
380.77	29.59
380.976	30.42
381.182	29.38
381.388	34.18
381.594	26.85
381.799	39.49
382.005	39.12
382.211	49.74
382.417	55.46
382.623	52.91
382.828	58.73
383.034	62.96
383.24	72.13
383.445	65.91
383.651	61.61
383.857	59.85
384.063	52.18
384.268	49.55
384.474	51.31
384.68	55.31
384.885	49.58
385.091	50.31
385.296	50.9
385.502	54.55
385.708	57.17
385.913	68.04
386.119	68.23
386.324	69.9
386.53	69.66
386.735	66.39
386.941	72.77
387.146	68.83
387.352	56.11
387.557	58.65
387.763	65.97
387.968	69.21
388.174	66.06
388.379	72.71
388.585	70.84
388.79	65.75
388.996	67.31
389.201	80.42
389.406	64.67
389.612	66.71
389.817	65.1
390.022	52.66
390.228	49.78
390.433	44.54
390.638	40.92
390.844	38.74
391.049	39.53
391.254	40.09
391.459	44.06
391.665	41.89
391.87	35.38
392.075	36.98
392.28	37.2
392.485	37.11
392.691	36.62
392.896	34.66
393.101	37.06
393.306	44.23
393.511	41.51
393.716	46.24
393.922	45.19
394.127	39.29
394.332	48.83
394.537	44.87
394.742	50.72
394.947	60.58
395.152	61.2
395.357	64.53
395.562	63.28
395.767	60.9
395.972	61.5
396.177	60.08
396.382	58.5
396.587	61.63
396.792	61.16
396.997	66.18
397.202	71.53
397.407	70.89
397.611	64.37
397.816	62.78
398.021	65.99
398.226	59.5
398.431	56.88
398.636	54.64
398.841	57.67
399.045	53.67
399.25	38.45
399.455	35.81
399.66	41.8
399.864	39.95
400.069	36.45
400.274	40.75
400.479	42.99
400.683	42.79
400.888	41.89
401.093	34.11
401.297	18.85
401.502	8.15
401.707	-3.3
401.911	4.62
402.116	9
402.321	17.66
402.525	28.53
402.73	34.08
402.934	38
403.139	35.67
403.344	36.92
403.548	42.84
403.753	42.51
403.957	29.76
404.162	21.42
404.366	30.95
404.571	19.28
404.775	19.33
404.98	17.62
405.184	27.17
405.388	36.61
405.593	43.4
405.797	33.26
406.002	44.73
406.206	37.31
406.41	39.17
406.615	41.44
406.819	38.83
407.023	38.7
407.228	36.39
407.432	37.52
407.636	32.09
407.841	43.91
408.045	45.15
408.249	42.13
408.453	43.59
408.658	46.11
408.862	55.24
409.066	58.71
409.27	62.6
409.474	59.4
409.679	57.68
409.883	59.25
410.087	66.17
410.291	72.29
410.495	63.4
410.699	55.69
410.903	41.82
411.108	47.75
411.312	39.06
411.516	33.83
411.72	27.38
411.924	35.99
412.128	33.03
412.332	33.33
412.536	40.21
412.74	46.48
412.944	43.26
413.148	39.65
413.352	33.82
413.556	32.45
413.76	27.47
413.964	32.79
414.167	35.96
414.371	41.77
414.575	35.78
414.779	39.51
414.983	39.44
415.187	45.62
415.391	41.68
415.594	52.6
415.798	48.63
416.002	51.94
416.206	58.59
416.41	60.55
416.613	61.89
416.817	62.48
417.021	55.19
417.225	65.16
417.428	62.71
417.632	53.09
417.836	53.38
418.039	57.21
418.243	51.51
418.447	38.5
418.65	37.77
418.854	42.29
419.057	45.52
419.261	48.16
419.465	43.96
419.668	47.29
419.872	46.72
420.075	50.57
420.279	45.8
420.482	42.94
420.686	37.78
420.889	48.74
421.093	42.75
421.296	41
421.5	28.89
421.703	26.22
421.907	37.18
422.11	33.75
422.314	33.82
422.517	23.91
422.72	33.43
422.924	36.61
423.127	30.75
423.33	33.47
423.534	36.61
423.737	30.06
423.94	22.82
424.144	28.22
424.347	36.25
424.55	40.96
424.754	34.5
424.957	39.37
425.16	30.27
425.363	40.18
425.567	53.63
425.77	48.57
425.973	52.5
426.176	41.14
426.379	43.9
426.582	42.09
426.786	53.57
426.989	51.04
427.192	60.39
427.395	55.38
427.598	52.39
427.801	47.76
428.004	51.17
428.207	56.47
428.41	47.08
428.613	39.5
428.816	40.99
429.019	41.94
429.222	34.13
429.425	36.34
429.628	29.65
429.831	21.17
430.034	23.32
430.237	24.51
430.44	30.65
430.643	25.08
430.846	27.21
431.049	26.58
431.252	32.4
431.454	26.35
431.657	26.32
431.86	22.58
432.063	23.2
432.266	20.99
432.469	17.04
432.671	19.64
432.874	23.98
433.077	6.93
433.28	11.72
433.482	18.7
433.685	8.95
433.888	12.33
434.09	14.52
434.293	13.47
434.496	5.72
434.698	0.46
434.901	11.42
435.104	14.74
435.306	13.98
435.509	8.65
435.712	13.19
435.914	2.89
436.117	14.11
436.319	21.88
436.522	20.13
436.724	18.96
436.927	19.38
437.129	18.14
437.332	39.7
437.534	35.37
437.737	29.3
437.939	38.51
438.142	23.99
438.344	25.07
438.547	27.94
438.749	33.46
438.951	29.23
439.154	25.12
439.356	12.64
439.558	3.86
439.761	6.09
439.963	2.45
440.165	7.71
440.368	7.29
440.57	-5.76
440.772	-3.79
440.975	-17.52
441.177	-3.04
441.379	4.08
441.581	3.42
441.784	-6.37
441.986	13.25
442.188	6.81
442.39	11.72
442.592	6.97
442.795	7.39
442.997	6.69
443.199	4.51
443.401	4.68
443.603	11.3
443.805	5.01
444.007	14.36
444.209	17.8
444.411	29.21
444.613	25.94
444.815	34.25
445.017	30.47
445.219	40.96
445.421	36.31
445.623	32.63
445.825	29.69
446.027	34.65
446.229	19.8
446.431	17.52
446.633	18.21
446.835	19.38
447.037	24.44
447.239	26.92
447.441	37.29
447.643	39.25
447.844	33.61
448.046	54.12
448.248	45.48
448.45	52.98
448.652	46.01
448.853	50.57
449.055	47.82
449.257	49.7
449.459	51.85
449.66	55.22
449.862	56.35
450.064	67.89
450.266	63.36
450.467	57.32
450.669	75.17
450.871	88.78
451.072	95.47
451.274	113.91
451.475	107.48
451.677	95.55
451.879	104.67
452.08	92.5
452.282	76.9
452.483	92.84
452.685	78.04
452.886	84.97
453.088	76.4
453.289	64.61
453.491	60.45
453.692	58.88
453.894	60.12
454.095	63.33
454.297	42.71
454.498	41.71
454.7	52.5
454.901	41.6
455.102	32.29
455.304	25.86
455.505	17.84
455.706	9.7
455.908	6.29
456.109	1.99
456.31	11.58
456.512	3.45
456.713	0.38
456.914	-4.67
457.116	-22.86
457.317	-23.66
457.518	-22.93
457.719	-17.14
457.921	-14.58
458.122	-26.42
458.323	-29.28
458.524	-24.6
458.725	-20.82
458.926	-20.28
459.128	-19.91
459.329	-17.99
459.53	-25.27
459.731	-26.27
459.932	-30.56
460.133	-17.5
460.334	3.18
460.535	7.36
460.736	10.87
460.937	8.28
461.138	7.86
461.339	16.2
461.54	27.48
461.741	39.29
461.942	38.89
462.143	42.82
462.344	42.65
462.545	43.66
462.746	51.71
462.947	43.65
463.148	35.31
463.348	36.36
463.549	34.25
463.75	40.24
463.951	43.18
464.152	41.06
464.353	32.88
464.553	30.07
464.754	29.63
464.955	26.65
465.156	24.47
465.356	24.46
465.557	20.19
465.758	18.91
465.959	14.25
466.159	9.56
466.36	3.95
466.561	5.61
466.761	-0.81
466.962	-4.19
467.163	1.69
467.363	-4.25
467.564	-6.25
467.764	-0.05
467.965	3.22
468.166	-0.31
468.366	8.4
468.567	11.7
468.767	14.6
468.968	14.64
469.168	14.93
469.369	15.03
469.569	16.38
469.77	24.13
469.97	19.69
470.17	22.31
470.371	25.82
470.571	33.29
470.772	36.37
470.972	38.61
471.172	42.61
471.373	35.48
471.573	40.76
471.773	38.69
471.974	34.27
472.174	30.44
472.374	29.37
472.575	27.18
472.775	24.21
472.975	13.96
473.175	13.6
473.376	9.15
473.576	14.44
473.776	16.31
473.976	14.94
474.177	17.91
474.377	13.2
474.577	16.08
474.777	15.4
474.977	10.11
475.177	7.88
475.377	5.56
475.577	12.58
475.777	14.66
475.978	13.67
476.178	11.5
476.378	13.58
476.578	20.14
476.778	16.51
476.978	16.39
477.178	22.51
477.378	19.59
477.578	23.91
477.778	18.29
477.977	19.52
478.177	17.81
478.377	14.19
478.577	20.23
478.777	23.54
478.977	21.79
479.177	21.6
479.377	26.42
479.577	26.33
479.776	30.74
479.976	26.77
480.176	27.98
480.376	32.99
480.576	33.93
480.775	23.82
480.975	30.33
481.175	29.03
481.374	25.59
481.574	29.53
481.774	30.14
481.974	31.8
482.173	30.94
482.373	30.01
482.572	31.94
482.772	29.47
482.972	28.11
483.171	28.68
483.371	34.55
483.57	31.3
483.77	32.92
483.97	28.3
484.169	33.78
484.369	28.4
484.568	25.81
484.768	26.07
484.967	26.57
485.167	26.85
485.366	28.13
485.566	25.79
485.765	26.98
485.964	24.64
486.164	27.54
486.363	22.17
486.563	23.3
486.762	22.5
486.961	19.19
487.161	18.16
487.36	17.78
487.559	10.23
487.759	9.74
487.958	8.49
488.157	3.29
488.356	-1.42
488.556	5.99
488.755	3.64
488.954	2.56
489.153	6.57
489.353	9.17
489.552	6.71
489.751	5.83
489.95	8.8
490.149	10.35
490.348	9.49
490.548	12.21
490.747	14.19
490.946	14.34
491.145	19.06
491.344	14.87
491.543	14.41
491.742	20.27
491.941	19.61
492.14	17.97
492.339	23.28
492.538	23.59
492.737	21.97
492.936	25.12
493.135	26.61
493.334	22.02
493.533	12.19
493.732	15.66
493.931	21.85
494.13	12.51
494.328	13.88
494.527	12.63
494.726	11.02
494.925	6.11
495.124	6.88
495.323	5.36
495.521	8.07
495.72	9.26
495.919	5.5
496.118	5.7
496.316	6.43
496.515	9.24
496.714	7.8
496.913	9.76
497.111	10.93
497.31	6.58
497.509	9.61
497.707	14.59
497.906	16.68
498.105	9.95
498.303	12.65
498.502	10.04
498.7	14.77
498.899	17.63
499.097	18.81
499.296	18.73
499.495	16.15
499.693	20.23
499.892	20.91
500.09	22.41
500.289	26.47
500.487	27.53
500.686	23.42
500.884	23.77
501.082	24.28
501.281	18.21
501.479	20.32
501.678	22.38
501.876	19.02
502.074	17.51
502.273	20.31
502.471	22.18
502.669	21.2
502.868	18.99
503.066	20.85
503.264	21.13
503.463	19.27
503.661	22.88
503.859	22.03
504.057	21.42
504.256	20.79
504.454	19.75
504.652	14.81
504.85	17.96
505.048	24.3
505.246	19
505.445	20.44
505.643	20.23
505.841	17.78
506.039	17.64
506.237	16.01
506.435	16.38
506.633	14.94
506.831	20.18
507.029	16.7
507.227	16.59
507.425	19.03
507.623	20.1
507.821	15.83
508.019	15.21
508.217	18.04
508.415	18.47
508.613	15.01
508.811	18.66
509.009	18.88
509.207	19.34
509.405	20.36
509.603	21.08
509.8	22.26
509.998	21
510.196	25.12
510.394	24.35
510.592	23.39
510.79	23.89
510.987	19.7
511.185	21.13
511.383	16.75
511.581	12.49
511.778	16.89
511.976	19.65
512.174	16.31
512.371	12.68
512.569	16.67
512.767	16.69
512.964	16.02
513.162	13.9
513.36	8.05
513.557	5.14
513.755	5.85
513.952	6.78
514.15	7.03
514.348	5.82
514.545	5.17
514.743	10.82
514.94	11.61
515.138	10.65
515.335	11.09
515.533	13.58
515.73	16.56
515.927	14.6
516.125	15.76
516.322	19.48
516.52	19.36
516.717	16.42
516.915	18.26
517.112	15.95
517.309	16.46
517.507	20.6
517.704	21.88
517.901	20.02
518.099	19.2
518.296	21.97
518.493	22.3
518.69	26.64
518.888	26.47
519.085	26.42
519.282	29.35
519.479	27.98
519.676	25.28
519.874	22.27
520.071	19.97
520.268	21.37
520.465	19.65
520.662	20.39
520.859	21.31
521.056	20.28
521.254	25.3
521.451	23.74
521.648	22.35
521.845	22.13
522.042	27.13
522.239	25.89
522.436	21.92
522.633	16.58
522.83	14.17
523.027	10.55
523.224	11.64
523.421	7.65
523.618	8.86
523.815	13.27
524.011	11.39
524.208	14.48
524.405	10.87
524.602	12.75
524.799	6.83
524.996	3.96
525.193	3.99
525.389	-1.69
525.586	-0.4
525.783	-6.45
525.98	-5.6
526.176	-9.09
526.373	-9.4
526.57	-3.44
526.767	-2.21
526.963	-5.54
527.16	-3.72
527.357	-5.12
527.553	-0.27
527.75	-1.64
527.947	-7.09
528.143	-1.32
528.34	-1.4
528.537	0.91
528.733	-3.02
528.93	1.49
529.126	6.93
529.323	9.64
529.519	10.26
529.716	9.54
529.912	12.39
530.109	13.38
530.305	15.15
530.502	18.9
530.698	15.18
530.895	13.04
531.091	19.28
531.288	18.31
531.484	18.52
531.68	15.68
531.877	13.6
532.073	16.48
532.269	15.64
532.466	13.25
532.662	13.5
532.858	13.28
533.055	14
533.251	13.03
533.447	13.08
533.643	16.16
533.84	14.93
534.036	16.88
534.232	22.59
534.428	20.07
534.624	18.81
534.821	17.15
535.017	21.69
535.213	18.38
535.409	18.54
535.605	19.15
535.801	17.88
535.997	21.31
536.193	19.3
536.389	20.69
536.586	19.78
536.782	18.9
536.978	21.83
537.174	22.35
537.37	21.66
537.566	20.91
537.762	20.34
537.958	21.22
538.153	21.55
538.349	17.01
538.545	18.02
538.741	17.41
538.937	18.02
539.133	17.02
539.329	15.47
539.525	15.53
539.721	14.27
539.916	17.34
540.112	14.59
540.308	18.42
540.504	19.52
540.699	23.7
540.895	25.07
541.091	26.49
541.287	28.5
541.482	26.33
541.678	25.87
541.874	24.92
542.069	25.06
542.265	24.33
542.461	24.12
542.656	22.48
542.852	22.9
543.048	22.83
543.243	22.55
543.439	23.3
543.634	20.71
543.83	20.95
544.025	20.78
544.221	22.28
544.417	21.37
544.612	21.57
544.807	19.17
545.003	17.55
545.198	13.58
545.394	12.2
545.589	15.58
545.785	16.04
545.98	13.62
546.176	14.17
546.371	11.11
546.566	10.62
546.762	10.2
546.957	11.08
547.152	10.94
547.348	10.21
547.543	14.24
547.738	13.4
547.933	14.04
548.129	15.16
548.324	13.69
548.519	13.64
548.714	13.22
548.91	15.61
549.105	16.09
549.3	19.77
549.495	19.77
549.69	18.94
549.885	18.36
550.08	21.76
550.276	23.92
550.471	29.49
550.666	30.21
550.861	31.71
551.056	29.77
551.251	30
551.446	32.93
551.641	29.62
551.836	30.98
552.031	28.67
552.226	27.93
552.421	27.48
552.616	24.8
552.811	25.89
553.006	25.07
553.201	22.38
553.395	19.95
553.59	17.3
553.785	17.16
553.98	19.18
554.175	16.6
554.37	16.67
554.565	14.64
554.759	13.18
554.954	12.5
555.149	14.06
555.344	15.11
555.538	12.41
555.733	10.87
555.928	14.05
556.122	14.18
556.317	12.54
556.512	14.04
556.706	16.39
556.901	16.34
557.096	16.43
557.29	18.85
557.485	21.28
557.68	21.63
557.874	22.33
558.069	21.03
558.263	21.13
558.458	19.33
558.652	18.52
558.847	20.33
559.041	21.6
559.236	17.66
559.43	18.98
559.625	20.08
559.819	20.84
560.014	18.5
560.208	20.08
560.402	20.09
560.597	20.54
560.791	19.69
560.986	18.24
561.18	16.52
561.374	16.97
561.569	13.82
561.763	17.39
561.957	14.45
562.151	11.76
562.346	12.75
562.54	15.51
562.734	15.03
562.928	12.27
563.123	13.3
563.317	13.72
563.511	14.28
563.705	11.54
563.899	12.41
564.093	11.03
564.288	8.55
564.482	5.56
564.676	5.98
564.87	7.14
565.064	7.12
565.258	8.87
565.452	7.14
565.646	9.11
565.84	5.8
566.034	9.69
566.228	12.23
566.422	13.63
566.616	11.43
566.81	11.53
567.004	13.87
567.198	14.31
567.392	15.34
567.586	12.77
567.779	14.24
567.973	12.95
568.167	14.16
568.361	14.42
568.555	19.06
568.749	18.71
568.942	16.13
569.136	17.7
569.33	16.28
569.524	16.11
569.718	16.96
569.911	18.27
570.105	16.73
570.299	15.47
570.492	14.66
570.686	15.79
570.88	17.64
571.073	16.24
571.267	15.57
571.461	15.15
571.654	17.71
571.848	18.72
572.041	18.72
572.235	18.2
572.429	19.2
572.622	17.93
572.816	17.56
573.009	20.13
573.203	19.42
573.396	22.68
573.59	23.09
573.783	21.36
573.976	20.45
574.17	20.51
574.363	19.92
574.557	19.75
574.75	17.98
574.943	15.39
575.137	15.85
575.33	14.31
575.523	14.3
575.717	12.43
575.91	12.25
576.103	12.72
576.297	13.96
576.49	11.76
576.683	10.74
576.876	11.23
577.07	10.45
577.263	10.92
577.456	8.87
577.649	9.16
577.842	10.92
578.036	13.35
578.229	12.63
578.422	13.95
578.615	14.86
578.808	14.72
579.001	16.55
579.194	15.42
579.387	18.57
579.58	18.96
579.773	18.92
579.966	18.43
580.159	17.68
580.352	17.02
580.545	19.57
580.738	20.1
580.931	18.96
581.124	19.3
581.317	16.48
581.51	16.16
581.703	15.67
581.896	14.87
582.088	14.31
582.281	15.29
582.474	15.87
582.667	16.11
582.86	15.42
583.053	14.34
583.245	15.79
583.438	12.95
583.631	13.52
583.824	13.28
584.016	14.08
584.209	13.89
584.402	14.64
584.594	15.41
584.787	15.93
584.98	16.3
585.172	16.19
585.365	17.49
585.558	17.63
585.75	18.89
585.943	19.68
586.135	18.41
586.328	18.36
586.52	18.84
586.713	18.23
586.906	18.82
587.098	20.13
587.291	21.37
587.483	19.58
587.675	20.4
587.868	19.51
588.06	18.06
588.253	18.22
588.445	17.33
588.638	15.15
588.83	14.52
589.022	14.34
589.215	13.24
589.407	15.56
589.599	15.35
589.792	16.07
589.984	14.59
590.176	14.54
590.368	15.99
590.561	15.08
590.753	15.38
590.945	15.54
591.137	13.7
591.33	12.56
591.522	14.99
591.714	13.4
591.906	16.98
592.098	18.25
592.29	19.99
592.482	21.04
592.674	21.63
592.867	21.86
593.059	21.28
593.251	21.44
593.443	19.64
593.635	18.78
593.827	15.62
594.019	15.09
594.211	14.19
594.403	12.49
594.595	12.94
594.787	12.72
594.979	11.54
595.17	11.97
595.362	12.1
595.554	11.73
595.746	12
595.938	9.73
596.13	9.31
596.322	7.66
596.513	5.9
596.705	6.1
596.897	5.78
597.089	7.84
597.281	7.59
597.472	8.78
597.664	9.39
597.856	12.52
598.048	12.84
598.239	12.56
598.431	11.14
598.623	9.35
598.814	7.63
599.006	10.03
599.197	10.85
599.389	11.32
599.581	9.07
599.772	9.13
599.964	10.18
600.155	9.62
600.347	10.51
600.538	11.71
600.73	11.29
600.921	12.29
601.113	9.85
601.304	10.96
601.496	10.18
601.687	10.48
601.879	8.4
602.07	9.22
602.262	9.56
602.453	10.11
602.644	9.69
602.836	10.01
603.027	9.33
603.218	7.32
603.41	6.36
603.601	7.98
603.792	7.45
603.983	6.07
604.175	6.26
604.366	5.94
604.557	6.1
604.748	5.08
604.94	4.88
605.131	5.41
605.322	4.61
605.513	5.09
605.704	6.65
605.895	8.36
606.086	5.76
606.278	7.24
606.469	8.72
606.66	10.02
606.851	9.19
607.042	8.62
607.233	9.25
607.424	9.64
607.615	9.07
607.806	9.48
607.997	10.18
608.188	11.13
608.379	11.1
608.57	9.62
608.761	12.8
608.952	12.79
609.142	13.97
609.333	14.1
609.524	13.47
609.715	10.55
609.906	9.34
610.097	12.86
610.287	9.96
610.478	9.41
610.669	10.47
610.86	10.96
611.051	10.78
611.241	11.08
611.432	11.22
611.623	13.47
611.813	12.45
612.004	12.51
612.195	13.21
612.385	13.46
612.576	14.75
612.767	13.12
612.957	12.44
613.148	10.77
613.338	10.52
613.529	11.39
613.72	12.18
613.91	12.35
614.101	11.62
614.291	13.65
614.482	14.35
614.672	12.15
614.863	13.33
615.053	12.62
615.243	13.55
615.434	14.19
615.624	11.43
615.815	13.63
616.005	12.23
616.195	10.73
616.386	10.13
616.576	10.34
616.766	9.49
616.957	9.66
617.147	9.54
617.337	8.82
617.528	7.73
617.718	7.42
617.908	6.58
618.098	6.8
618.289	7.47
618.479	6.95
618.669	8.77
618.859	8.68
619.049	10.34
619.239	9.69
619.43	8.83
619.62	9.05
619.81	7.83
620	8.82
620.19	8.97
620.38	9.33
620.57	8.25
620.76	7.91
620.95	8.39
621.14	9.64
621.33	10.83
621.52	11.05
621.71	9.83
621.9	10.22
622.09	9.99
622.28	10.31
622.47	10
622.659	9.26
622.849	9.58
623.039	9.2
623.229	9.02
623.419	10.52
623.609	10.84
623.799	10.54
623.988	10.4
624.178	10.67
624.368	10.89
624.558	12.3
624.747	11.7
624.937	12.37
625.127	10.41
625.316	10.66
625.506	11.38
625.696	12.24
625.885	10.13
626.075	9.36
626.265	9.29
626.454	8.3
626.644	8.65
626.833	8.58
627.023	8.18
627.212	7.17
627.402	7.6
627.591	8.42
627.781	7.27
627.97	7.61
628.16	7.89
628.349	7.4
628.539	6.7
628.728	8.96
628.918	8.76
629.107	9.96
629.296	9.61
629.486	9.49
629.675	10.45
629.865	12.79
630.054	14.07
630.243	12.42
630.432	12.33
630.622	14.03
630.811	14.31
631	14.37
631.19	15.56
631.379	12.78
631.568	11.17
631.757	12.78
631.946	13.02
632.136	12.97
632.325	13.25
632.514	13.54
632.703	12.93
632.892	11.87
633.081	11.69
633.27	11.31
633.459	11.52
633.648	10.35
633.837	10.78
634.026	9.42
634.215	10.34
634.404	12.01
634.593	11.29
634.782	11.12
634.971	10.99
635.16	9.26
635.349	9.79
635.538	12.36
635.727	10.4
635.916	9.23
636.105	10
636.294	12.05
636.482	11.2
636.671	10.31
636.86	11.35
637.049	12.48
637.238	11.66
637.426	10.59
637.615	9.63
637.804	8.55
637.993	8.05
638.181	7.21
638.37	7.71
638.559	7.14
638.747	7.6
638.936	8.12
639.125	10.75
639.313	10.39
639.502	9.88
639.691	11.25
639.879	10.73
640.068	9.2
640.256	6.61
640.445	7.05
640.633	6.49
640.822	5.44
641.01	6.84
641.199	5.68
641.387	7.45
641.576	10.54
641.764	11.6
641.953	12.05
642.141	12.83
642.329	12.48
642.518	12.83
642.706	12.04
642.894	12.36
643.083	12.19
643.271	12.22
643.459	13.29
643.648	14.01
643.836	14.68
644.024	14.28
644.213	15.72
644.401	15.2
644.589	14.81
644.777	15.15
644.965	14.85
645.154	16.16
645.342	14.78
645.53	14.98
645.718	14.76
645.906	15.59
646.094	15
646.282	13.14
646.47	12.94
646.658	12.7
646.846	11.98
647.034	11.85
647.223	12.53
647.411	11.12
647.599	9.46
647.786	9.51
647.974	10.36
648.162	9.14
648.35	8.61
648.538	9.59
648.726	9.77
648.914	8.14
649.102	9.33
649.29	10.15
649.478	8.19
649.665	9.15
649.853	8.39
650.041	9.45
650.229	10.86
650.417	10.69
650.604	11.53
650.792	12.72
650.98	12.37
651.168	11.67
651.355	12.08
651.543	12.2
651.731	11.74
651.918	10.38
652.106	11.26
652.294	11.12
652.481	12.08
652.669	11.19
652.856	11.77
653.044	11.26
653.231	10.45
653.419	10.54
653.606	9.66
653.794	10.31
653.981	10.09
654.169	8.23
654.356	7.2
654.544	6.3
654.731	5.29
654.919	4.08
655.106	4.04
655.294	3.69
655.481	5.35
655.668	6.82
655.856	6
656.043	5.59
656.23	6.52
656.418	5.51
656.605	5.73
656.792	5.04
656.979	5.76
657.167	6.6
657.354	7.68
657.541	6.85
657.728	6.39
657.916	6.15
658.103	7.49
658.29	8.42
658.477	9.18
658.664	8.81
658.851	8.88
659.038	9.63
659.225	9.53
659.412	9.52
659.6	9.36
659.787	12.49
659.974	11.42
660.161	11.25
660.348	11.34
660.535	14.12
660.722	13.56
660.909	11.24
661.095	10.38
661.282	9.5
661.469	11.57
661.656	11.09
661.843	10.97
662.03	9.14
662.217	9.41
662.404	9.91
662.59	9.87
662.777	9.84
662.964	10.08
663.151	10.86
663.338	11.93
663.524	10.36
663.711	8.65
663.898	10.07
664.085	11.5
664.271	11.28
664.458	9.74
664.645	10.72
664.831	13.17
665.018	13.31
665.204	13.27
665.391	11.18
665.578	10.45
665.764	10.51
665.951	11.22
666.137	10.62
666.324	10.26
666.51	10.22
666.697	11.25
666.883	10.87
667.07	9.13
667.256	7.83
667.443	7.95
667.629	8.64
667.816	7.3
668.002	6
668.188	6.1
668.375	6.71
668.561	6.3
668.747	4.87
668.934	3.97
669.12	5.53
669.306	5.7
669.493	6.31
669.679	7.1
669.865	7.7
670.051	7.83
670.238	7.83
670.424	7.41
670.61	6.63
670.796	7.26
670.982	8.7
671.169	8.89
671.355	8.8
671.541	8.29
671.727	8.78
671.913	8.8
672.099	9.65
672.285	7.61
672.471	8.14
672.657	7.45
672.843	9.52
673.029	8.14
673.215	9.44
673.401	11.55
673.587	9.41
673.773	10.44
673.959	10.12
674.145	9.8
674.331	10.31
674.517	9.97
674.703	9.97
674.888	10.24
675.074	8.82
675.26	10.28
675.446	9.56
675.632	8.99
675.817	8.75
676.003	8.54
676.189	9.33
676.375	10.08
676.56	11.16
676.746	9.57
676.932	8.05
677.117	6.96
677.303	4.54
677.489	5.01
677.674	4.32
677.86	4.47
678.046	3.6
678.231	2.72
678.417	3.09
678.602	1.37
678.788	1.15
678.973	2.2
679.159	2.48
679.344	3.61
679.53	3.99
679.715	3.26
679.901	3.17
680.086	3.34
680.272	1.26
680.457	0.34
680.643	-0.11
680.828	1.43
681.013	1.51
681.199	3.08
681.384	4.8
681.569	4.28
681.755	3.66
681.94	4.4
682.125	5.51
682.31	6.11
682.496	6.17
682.681	5.47
682.866	4.18
683.051	3.61
683.237	3.37
683.422	3.67
683.607	4.69
683.792	4.46
683.977	3.33
684.162	3.73
684.347	3.77
684.532	3.29
684.717	2.37
684.903	2.03
685.088	0.92
685.273	-0.1
685.458	0.23
685.643	2.14
685.828	0.91
686.013	2.1
686.198	0.94
686.382	1.79
686.567	3.38
686.752	4.89
686.937	5.17
687.122	4.79
687.307	5.44
687.492	5.16
687.677	4.13
687.861	6.03
688.046	5.46
688.231	5.87
688.416	8.72
688.601	8.71
688.785	9.71
688.97	10.85
689.155	13.01
689.339	12.58
689.524	10.2
689.709	10.34
689.893	8.64
690.078	10.03
690.263	10.6
690.447	9.62
690.632	8.31
690.816	8.72
691.001	8.37
691.186	7.73
691.37	6.85
691.555	8.33
691.739	7.67
691.924	8.03
692.108	8.52
692.293	6.46
692.477	6.77
692.661	6.92
692.846	6.69
693.03	5.3
693.215	5.51
693.399	6.87
693.583	6.59
693.768	7.13
693.952	6.22
694.136	5.85
694.321	7.42
694.505	7.89
694.689	6.9
694.873	7.82
695.058	7.65
695.242	9.03
695.426	9.34
695.61	7.88
695.794	8.88
695.979	8.33
696.163	8.65
696.347	8.81
696.531	7.81
696.715	7.67
696.899	6.97
697.083	6.61
697.267	7.05
697.451	7.46
697.635	7.1
697.819	7.26
698.003	7.37
698.187	6.6
698.371	7.73
698.555	8.79
698.739	10.3
698.923	10.7
699.107	11.01
699.291	9.5
699.475	9.83
699.659	9.59
699.842	9.11
700.026	7.84
700.21	7.82
700.394	8.82
700.578	7.91
700.761	7.74
700.945	9.49
701.129	8.16
701.313	8.8
701.496	11.21
701.68	10.32
701.864	9.35
702.047	9.19
702.231	10.02
702.415	9.84
702.598	7.23
702.782	7.69
702.965	6.81
703.149	7.44
703.333	7.32
703.516	7.73
703.7	8.35
703.883	9.9
704.067	9.69
704.25	9.37
704.434	7.69
704.617	7.82
704.801	5.5
704.984	6.18
705.167	5.31
705.351	3.48
705.534	3.6
705.718	5.05
705.901	2.93
706.084	1.61
706.268	1.1
706.451	2.22
706.634	2.43
706.817	1.31
707.001	0.01
707.184	0.82
707.367	-0.3
707.55	-0.1
707.734	-0.09
707.917	0.29
708.1	-0.03
708.283	2.54
708.466	2.11
708.649	3.69
708.832	4.2
709.015	5.95
709.199	6.5
709.382	7.6
709.565	7.98
709.748	10.81
709.931	10.61
710.114	9.77
710.297	9.36
710.48	8.94
710.663	9.87
710.846	10.44
711.028	10.11
711.211	9.8
711.394	8.9
711.577	7.61
711.76	6.38
711.943	6
712.126	6.65
712.309	7.77
712.491	7.89
712.674	7.21
712.857	8.19
713.04	6.58
713.222	6.8
713.405	5.49
713.588	5.31
713.771	4.59
713.953	4.28
714.136	4.41
714.319	4.98
714.501	4.06
714.684	3.47
714.866	5.07
715.049	6.23
715.232	7.12
715.414	7.83
715.597	8.48
715.779	8.67
715.962	7.96
716.144	7.49
716.327	7.9
716.509	8.17
716.692	5.42
716.874	6.21
717.057	5.84
717.239	5.52
717.421	3.86
717.604	3.8
717.786	5.78
717.968	4.27
718.151	2.98
718.333	3.47
718.515	5.18
718.698	3.92
718.88	2.64
719.062	1.63
719.244	3.06
719.427	2.78
719.609	3.56
719.791	2.48
719.973	2.25
720.155	1.13
720.338	0.88
720.52	1.87
720.702	2.69
720.884	3
721.066	4.04
721.248	1.69
721.43	3.6
721.612	2.27
721.794	4.36
721.976	4.93
722.158	5.33
722.34	5.11
722.522	5.82
722.704	8.56
722.886	9.86
723.068	9.08
723.25	10.68
723.432	9.66
723.614	10.22
723.796	10.21
723.977	9.22
724.159	9.48
724.341	8.44
724.523	7.45
724.705	7.02
724.886	7.09
725.068	10.81
725.25	10.93
725.432	11.27
725.613	10.07
725.795	9.88
725.977	10.79
726.158	10.24
726.34	10.23
726.522	9.19
726.703	9.61
726.885	9.86
727.066	6.86
727.248	8.78
727.43	8.34
727.611	8.95
727.793	8.8
727.974	7.98
728.156	8.39
728.337	7.73
728.519	7.49
728.7	7.72
728.882	6.4
729.063	4.97
729.244	4.01
729.426	5.58
729.607	6.75
729.788	4.58
729.97	5.08
730.151	3.78
730.332	4.13
730.514	4.17
730.695	4.34
730.876	6.24
731.058	3.77
731.239	4.41
731.42	4.62
731.601	5.26
731.782	5.94
731.964	6.85
732.145	7.98
732.326	6.17
732.507	4.89
732.688	6.29
732.869	8
733.05	8.26
733.231	8.32
733.412	5.77
733.593	7.41
733.774	7.13
733.955	7.76
734.136	7.86
734.317	7.58
734.498	7.93
734.679	7.21
734.86	6.21
735.041	5.85
735.222	5.31
735.403	6.14
735.584	5.91
735.765	5.94
735.946	4.46
736.126	6.55
736.307	7.56
736.488	5.45
736.669	2.38
736.849	1.44
737.03	1.54
737.211	3.5
737.392	2.76
737.572	0.69
737.753	0
737.934	-0.33
738.114	-0.06
738.295	-0.34
738.476	0.89
738.656	3.63
738.837	6.23
739.017	6.5
739.198	5.64
739.378	6.63
739.559	6.63
739.74	7.16
739.92	6.96
740.1	6.37
740.281	4.88
740.461	6.52
740.642	8.41
740.822	7.04
741.003	6.21
741.183	6.55
741.363	8.68
741.544	8.23
741.724	8.74
741.904	6.95
742.085	6.38
742.265	5.95
742.445	5.71
742.626	5.02
742.806	4.79
742.986	4.19
743.166	3.88
743.347	2.41
743.527	3.62
743.707	2.79
743.887	2.98
744.067	4.5
744.247	3.58
744.427	2.53
744.608	1.93
744.788	4.44
744.968	6.08
745.148	6.22
745.328	6.61
745.508	5.97
745.688	6.48
745.868	6.43
746.048	5.37
746.228	5.57
746.408	4.17
746.588	3.54
746.767	5.75
746.947	5.55
747.127	4.85
747.307	3.83
747.487	4.49
747.667	3.22
747.847	5.17
748.026	6.42
748.206	7.1
748.386	8.38
748.566	7.14
748.745	6.51
748.925	5.69
749.105	7
749.285	6.25
749.464	6.27
749.644	7.04
749.824	8.61
750.003	8.37
750.183	5.87
750.362	6.97
750.542	6.48
750.722	6.11
750.901	6.84
751.081	7.92
751.26	8
751.44	8.55
751.619	8.08
751.799	6.2
751.978	4.88
752.158	4.1
752.337	4.42
752.516	4.29
752.696	4.43
752.875	5.47
753.055	6.26
753.234	6.69
753.413	6.13
753.593	7.48
753.772	7.48
753.951	9.7
754.13	10.25
754.31	9.39
754.489	9.46
754.668	10.05
754.847	8.69
755.027	9.49
755.206	10.51
755.385	9.27
755.564	11
755.743	12.45
755.922	12.11
756.101	10.58
756.28	9.5
756.46	9.78
756.639	6.76
756.818	6.3
756.997	6.56
757.176	6.08
757.355	4.19
757.534	3.75
757.713	4.12
757.892	3.31
758.07	4.19
758.249	5.53
758.428	5.68
758.607	5.77
758.786	6.08
758.965	5.41
759.144	6.28
759.323	5.07
759.501	3.82
759.68	5.08
759.859	5.96
760.038	6.98
760.216	4.97
760.395	7.01
760.574	6.39
760.753	6.24
760.931	7.88
761.11	8.71
761.289	8.11
761.467	8.17
761.646	7.9
761.824	8.53
762.003	6.6
762.182	6.49
762.36	7.04
762.539	5.43
762.717	5.23
762.896	5.05
763.074	4.79
763.253	5.66
763.431	6.59
763.61	6.33
763.788	5.15
763.966	7.84
764.145	7.89
764.323	9.95
764.502	9.57
764.68	8.87
764.858	8.2
765.037	9.82
765.215	10.09
765.393	11.14
765.571	10.37
765.75	11.47
765.928	10.87
766.106	9.37
766.284	11.5
766.463	12
766.641	12.19
766.819	13.07
766.997	12.7
767.175	11.83
767.353	12.7
767.531	13.85
767.71	13.44
767.888	12.54
768.066	11.1
768.244	11.84
768.422	11.83
768.6	13.53
768.778	12.89
768.956	12.46
769.134	12.58
769.312	12.34
769.489	11.49
769.667	11.81
769.845	14.35
770.023	13.7
770.201	13.67
770.379	13.41
770.557	13.68
770.735	14.42
770.912	13.49
771.09	11.92
771.268	12.71
771.446	11.79
771.623	12.35
771.801	12.65
771.979	11.65
772.157	10.15
772.334	8.8
772.512	8.89
772.69	6.88
772.867	4.6
773.045	4.58
773.222	4.1
773.4	5.29
773.577	2.8
773.755	2.93
773.933	3
774.11	2.99
774.288	3.31
774.465	2.69
774.643	3.06
774.82	5.25
774.997	2.34
775.175	1.31
775.352	2.73
775.53	3.67
775.707	4.57
775.884	6.74
776.062	6.73
776.239	6.19
776.416	10.18
776.594	11.65
776.771	11.58
776.948	12.69
777.125	12.48
777.303	11.96
777.48	11.49
777.657	11.73
777.834	13.14
778.012	13.59
778.189	13.74
778.366	13.49
778.543	11.49
778.72	13.91
778.897	17.09
779.074	15.92
779.251	15.83
779.428	15.71
779.605	13.47
779.782	14.09
779.959	14.6
780.136	11.67
780.313	12.4
780.49	11.62
780.667	12.94
780.844	12.14
781.021	14.7
781.198	13.39
781.375	14.31
781.552	11.52
781.728	10.21
781.905	9.52
782.082	10.54
782.259	10.77
782.436	10.01
782.612	7.69
782.789	7.31
782.966	5.67
783.143	4.84
783.319	7.86
783.496	7.64
783.673	6.16
783.849	6.46
784.026	5.47
784.203	5.07
784.379	3.67
784.556	4.62
784.732	3.89
784.909	5.96
785.085	6.79
785.262	10.19
785.438	10.88
785.615	12.57
785.791	13.48
785.968	13.41
786.144	13.83
786.321	16.4
786.497	17.34
786.673	17.59
786.85	18.47
787.026	14.89
787.203	15.08
787.379	16.45
787.555	15.52
787.731	13.91
787.908	14.23
788.084	14.23
788.26	12.26
788.437	13.15
788.613	10.17
788.789	6.64
788.965	3.92
789.141	4.24
789.317	1.87
789.494	-0.14
789.67	0.17
789.846	1.76
790.022	-0.67
790.198	-1.31
790.374	-1.55
790.55	-2.19
790.726	-3.09
790.902	-1.6
791.078	0.59
791.254	1.22
791.43	3.67
791.606	2.63
791.782	2.41
791.958	3.53
792.134	3.78
792.31	4.79
792.486	5.6
792.661	4.8
792.837	6.2
793.013	5.44
793.189	3.55
793.365	3.67
793.54	2.36
793.716	1.79
793.892	2.75
794.068	2.81
794.243	4.09
794.419	6.69
794.595	3.5
794.77	1.59
794.946	4.2
795.122	3.15
795.297	5.77
795.473	7.61
795.648	8.22
795.824	6.99
796	8.85
796.175	8.72
796.351	10.18
796.526	7.85
796.702	9.8
796.877	12.48
797.052	14.14
797.228	14.51
797.403	15.62
797.579	15.77
797.754	15.18
797.929	15.39
798.105	16.18
798.28	17.07
798.455	18.09
798.631	15.14
798.806	15.6
798.981	15.83
799.157	16.25
799.332	14.97
799.507	17.09
799.682	18.73
799.858	20.35
800.033	21.21
800.208	22.18
800.383	23.42
800.558	22.32
800.733	19.97
800.908	18.5
801.083	19.6
801.258	18.87
801.434	21.16
801.609	19.73
801.784	18.22
801.959	17.33
802.134	13.11
802.309	13.47
802.484	12.37
802.658	11.83
802.833	10.38
803.008	13.6
803.183	10.26
803.358	10.16
803.533	9.74
803.708	8.94
803.883	8.52
804.057	5.56
804.232	7.5
804.407	10.43
804.582	13.26
804.756	11.88
804.931	11.79
805.106	9.79
805.281	12.78
805.455	12.46
805.63	14.85
805.805	18.26
805.979	21.97
806.154	23.62
806.328	24.3
806.503	24.63
806.678	24.67
806.852	22.97
807.027	21.82
807.201	21.74
807.376	22.21
807.55	22.23
807.725	21.55
807.899	21.81
808.074	20.59
808.248	19.63
808.422	19.93
808.597	20.64
808.771	22.06
808.946	22.94
809.12	24.8
809.294	24.63
809.468	25.32
809.643	23.9
809.817	24.17
809.991	24.07
810.166	23.02
810.34	19.21
810.514	22.71
810.688	22.61
810.862	23.17
811.037	23.18
811.211	22.37
811.385	25.86
811.559	26.8
811.733	28.28
811.907	24.61
812.081	23.73
812.255	21.12
812.429	18.03
812.603	15.26
812.777	15.28
812.951	14.38
813.125	13.7
813.299	11.11
813.473	8.29
813.647	9.77
813.821	8.94
813.995	11.12
814.169	10.42
814.343	10.34
814.516	9.99
814.69	12.58
814.864	12.97
815.038	11.52
815.212	10.46
815.385	9.4
815.559	12.58
815.733	11.46
815.907	16.01
816.08	20.68
816.254	20.34
816.428	19.47
816.601	20.91
816.775	20.89
816.948	20.27
817.122	20.74
817.296	18.56
817.469	19.23
817.643	21.43
817.816	20.4
817.99	18.6
818.163	19.62
818.337	17.46
818.51	20.44
818.684	23.58
818.857	24.42
819.031	25.48
819.204	23.19
819.377	28.92
819.551	25.12
819.724	24.52
819.897	27.12
820.071	27.21
820.244	21.7
820.417	22.14
820.591	23.29
820.764	26.81
820.937	28.56
821.11	32.07
821.284	27.9
821.457	30.12
821.63	30
821.803	29.26
821.976	31.29
822.149	30.55
822.322	29.48
822.496	30.17
822.669	28.36
822.842	30.36
823.015	27.81
823.188	24.83
823.361	22.31
823.534	17.26
823.707	14.71
823.88	18.2
824.053	16.4
824.226	18.55
824.399	18.33
824.571	17.87
824.744	15.51
824.917	19.04
825.09	15.15
825.263	16.59
825.436	19.07
825.608	18.41
825.781	17.24
825.954	17.99
826.127	16.43
826.299	17.76
826.472	14.54
826.645	16
826.818	22.48
826.99	23.92
827.163	26.26
827.336	27.61
827.508	25.04
827.681	25.63
827.853	25.85
828.026	25.46
828.198	27.58
828.371	28.74
828.544	29.89
828.716	32.92
828.889	30.03
829.061	25.63
829.233	24.36
829.406	23.7
829.578	21.66
829.751	21.67
829.923	21.21
830.096	26.71
830.268	24.82
830.44	22.32
830.613	19.65
830.785	18.19
830.957	18.99
831.129	23.28
831.302	23.14
831.474	22.23
831.646	21.06
831.818	20.29
831.991	17.19
832.163	15.74
832.335	16.49
832.507	16.99
832.679	19.41
832.851	16.27
833.023	18.49
833.195	17.75
833.368	16.98
833.54	16.95
833.712	12.78
833.884	15.15
834.056	13.1
834.228	14.1
834.4	18.16
834.571	21.85
834.743	19.63
834.915	22.61
835.087	23.41
835.259	25.68
835.431	24.49
835.603	25.34
835.775	20.02
835.946	21.15
836.118	23.35
836.29	23.47
836.462	25.07
836.634	23.78
836.805	22.74
836.977	25.53
837.149	29.67
837.32	30.46
837.492	32.92
837.664	30.29
837.835	30.86
838.007	26.3
838.179	22.23
838.35	28.07
838.522	25.72
838.693	22.9
838.865	17.61
839.036	14.61
839.208	18.87
839.379	23.35
839.551	22.63
839.722	25.9
839.894	25.69
840.065	23.17
840.237	22.23
840.408	24.21
840.579	25.92
840.751	21.57
840.922	22.32
841.093	16.35
841.265	17.65
841.436	18.58
841.607	21.83
841.778	22.33
841.95	17.16
842.121	22.5
842.292	23.56
842.463	26.59
842.635	30.94
842.806	30.52
842.977	31.35
843.148	29.94
843.319	27.03
843.49	26.5
843.661	29.86
843.832	29.1
844.003	28.09
844.174	27.84
844.345	29.29
844.516	23.01
844.687	25.36
844.858	29.41
845.029	31.24
845.2	29.96
845.371	27.91
845.542	25.81
845.713	12.04
845.884	11.9
846.055	5.97
846.225	3.38
846.396	-4.46
846.567	-5.46
846.738	-6.24
846.909	-5.9
847.079	-0.31
847.25	6.32
847.421	3.28
847.591	-0.55
847.762	-5.18
847.933	-9.25
848.103	1.68
848.274	1.41
848.445	0.92
848.615	-4.62
848.786	-10.83
848.956	-7.89
849.127	-3.37
849.297	9.12
849.468	14.78
849.638	15.8
849.809	13.1
849.979	18.23
850.15	18.13
850.32	20.31
850.491	19.15
850.661	17.13
850.831	14.72
851.002	19.48
851.172	24.27
851.342	22.18
851.513	23.34
851.683	22.52
851.853	21.42
852.024	19.63
852.194	21.83
852.364	25.12
852.534	26.57
852.705	31.2
852.875	31.11
853.045	30.17
853.215	29.54
853.385	34.6
853.555	34.96
853.725	36.54
853.895	31.04
854.066	32.44
854.236	30.95
854.406	30.91
854.576	34.72
854.746	30.79
854.916	37.84
855.086	40.51
855.256	39.4
855.425	46.34
855.595	49.27
855.765	46.21
855.935	42.09
856.105	33.33
856.275	34.61
856.445	27.21
856.614	21.77
856.784	29.76
856.954	28.66
857.124	28.27
857.294	28.96
857.463	33.74
857.633	34.71
857.803	33.28
857.972	27.61
858.142	28.74
858.312	28.02
858.481	24.3
858.651	20.57
858.821	20.47
858.99	13.15
859.16	6.18
859.329	10.19
859.499	18.84
859.668	25.46
859.838	21.13
860.007	33.58
860.177	36.56
860.346	34.79
860.516	30.4
860.685	26.74
860.854	22.94
861.024	18.06
861.193	18.34
861.363	20.91
861.532	25.25
861.701	20.42
861.87	21.89
862.04	21.88
862.209	27.66
862.378	27.53
862.547	31.25
862.717	29.19
862.886	26.13
863.055	22.84
863.224	21.81
863.393	17.67
863.563	8.68
863.732	9.55
863.901	6.55
864.07	9.07
864.239	12.23
864.408	16.27
864.577	15.85
864.746	16.34
864.915	14.97
865.084	20.05
865.253	20.6
865.422	25.01
865.591	25.28
865.76	20.03
865.929	18.01
866.097	15.6
866.266	14.52
866.435	16.31
866.604	17.63
866.773	18.67
866.942	21.31
867.11	21.22
867.279	22.17
867.448	34.59
867.617	39.64
867.785	33.16
867.954	30.43
868.123	42.08
868.291	31.74
868.46	29.23
868.629	25.31
868.797	22.69
868.966	19.63
869.134	20.11
869.303	25.13
869.472	28.02
869.64	26.22
869.809	38.3
869.977	38.7
870.146	34.16
870.314	40.74
870.482	38.37
870.651	42.26
870.819	36.81
870.988	28.61
871.156	26.93
871.324	27.71
871.493	21.96
871.661	24.29
871.829	43.3
871.998	56.4
872.166	54.31
872.334	63.18
872.502	50.21
872.671	51.08
872.839	51.94
873.007	59.77
873.175	56.35
873.343	47.5
873.512	53.13
873.68	59.15
873.848	56.97
874.016	61.5
874.184	64.65
874.352	74.04
874.52	76.08
874.688	72.38
874.856	75
875.024	79.13
875.192	81.37
875.36	79.24
875.528	66.14
875.696	68.2
875.864	65.28
876.032	71.2
876.199	77.89
876.367	76.9
876.535	75.27
876.703	76.24
876.871	79.52
877.039	74.6
877.206	71.24
877.374	66.73
877.542	67.74
877.71	64.42
877.877	53.11
878.045	66.62
878.213	70.74
878.38	81.83
878.548	87.4
878.715	82.08
878.883	75.88
879.051	82.37
879.218	61.82
879.386	60.85
879.553	61.82
879.721	66.91
879.888	67.96
880.056	81.24
880.223	100.79
880.391	104.81
880.558	105.71
880.726	94.09
880.893	94.26
881.06	91.12
881.228	100.37
881.395	100.67
881.562	87.84
881.73	97.29
881.897	83.79
882.064	68.52
882.231	57.07
882.399	67.76
882.566	69.31
882.733	94.8
882.9	103.2
883.068	93.14
883.235	59.79
883.402	83.33
883.569	65.99
883.736	57.13
883.903	58.64
884.07	61.37
884.237	65.98
884.404	69.03
884.571	69.47
884.738	58.72
884.905	60.21
885.072	52.08
885.239	51.99
885.406	52.55
