Data from Transmission_10-01-16-070.txt Node
Date: Fri Aug 24 10:01:16 EEST 2018
User: tibor.sos
Spectrometer: USB4F01757
Scans to average: 10
Trigger mode: 4
Integration Time (sec): 1.000000E-2
Electric dark correction enabled: true
Boxcar width: 10
XAxis mode: Wavelengths
Number of Pixels in Spectrum: 3648
>>>>>Begin Spectral Data<<<<<
178.758	-75.94
178.974	-257.25
179.191	-382.21
179.407	-142.91
179.624	-95.52
179.84	-103.41
180.057	-119.43
180.273	-86.51
180.489	-59.18
180.706	-153.86
180.922	-57.91
181.138	-12.96
181.355	51.29
181.571	82.14
181.787	107.42
182.004	144.88
182.22	202.51
182.436	209.07
182.653	133.72
182.869	105.47
183.085	153.73
183.301	146.61
183.518	112.22
183.734	118.98
183.95	144.8
184.166	144.68
184.383	168.8
184.599	178.85
184.815	149.98
185.031	133.53
185.247	160.85
185.463	154.98
185.68	151.44
185.896	160.07
186.112	215.12
186.328	191.1
186.544	216.5
186.76	218.74
186.976	186.46
187.192	191.06
187.408	251.53
187.624	277.74
187.84	211.13
188.056	181.24
188.272	161.59
188.488	175.58
188.704	172.46
188.92	204.66
189.136	168.18
189.352	202.71
189.568	215.66
189.784	206.83
190	202.97
190.216	213.27
190.432	214.48
190.648	202.35
190.864	513.52
191.08	369.3
191.296	178.88
191.511	204.07
191.727	278.89
191.943	274.05
192.159	165.31
192.375	194.35
192.591	269.53
192.806	393.63
193.022	229.06
193.238	414.97
193.454	298.98
193.669	406.72
193.885	396.15
194.101	657.1
194.317	376.95
194.532	2079.78
194.748	-1478.15
194.964	767.99
195.18	359.72
195.395	263.99
195.611	217.59
195.827	397.45
196.042	545.78
196.258	268.06
196.473	213.07
196.689	301.44
196.905	428.94
197.12	1313.86
197.336	519.22
197.551	-580
197.767	169100
197.982	405.57
198.198	2447.95
198.414	1837.08
198.629	332.33
198.845	272.71
199.06	289.6
199.276	236.4
199.491	929.19
199.707	292.2
199.922	238.73
200.137	302.68
200.353	328.87
200.568	240.87
200.784	307.75
200.999	316.07
201.215	478.19
201.43	466.45
201.645	369.11
201.861	404.96
202.076	358.31
202.291	437.3
202.507	406.05
202.722	306.7
202.937	636.21
203.153	661.03
203.368	423.15
203.583	287.05
203.798	325.72
204.014	270.59
204.229	269.11
204.444	304.52
204.659	469.46
204.875	754.83
205.09	-1952.1
205.305	3228.3
205.52	-1147.15
205.735	-943.11
205.951	7500
206.166	-433.16
206.381	-343.31
206.596	-4107.27
206.811	-979.53
207.026	-947.23
207.241	-245.67
207.457	1031.46
207.672	2438.84
207.887	-2929.91
208.102	-516.7
208.317	-542.15
208.532	1375.71
208.747	-1127.32
208.962	-663.71
209.177	1666.44
209.392	648.91
209.607	354.36
209.822	431.38
210.037	416.99
210.252	493.46
210.467	741.52
210.682	371.42
210.897	321.74
211.112	406.5
211.326	301.13
211.541	325.44
211.756	193.83
211.971	288.85
212.186	208.21
212.401	191.15
212.616	189.99
212.831	187.6
213.045	311.01
213.26	246.19
213.475	251.74
213.69	286.07
213.905	401.99
214.119	1033.03
214.334	-6485.19
214.549	-663.56
214.764	735.23
214.978	454.27
215.193	649.41
215.408	-4653.85
215.622	639.62
215.837	4957.78
216.052	-2564.37
216.266	-549.62
216.481	-551.2
216.696	-307.53
216.91	8336.36
217.125	948.02
217.34	1487.56
217.554	1439.46
217.769	-643.85
217.983	-277.67
218.198	-607.47
218.412	-1131.51
218.627	874.61
218.842	494.23
219.056	352.96
219.271	376.4
219.485	595.63
219.7	541.31
219.914	415.48
220.129	680.75
220.343	398.58
220.558	274.67
220.772	312.48
220.986	244.55
221.201	468.67
221.415	-430.75
221.63	-111.92
221.844	-83.88
222.058	-80.36
222.273	-45.75
222.487	-30.2
222.702	13.45
222.916	50.74
223.13	20.39
223.344	-23.91
223.559	-16.99
223.773	1.47
223.987	-26.21
224.202	-27.66
224.416	-16.36
224.63	-69.97
224.844	-85.7
225.059	-129.05
225.273	-1756.57
225.487	1362.4
225.701	197.5
225.915	147.46
226.13	145.15
226.344	158.98
226.558	206.67
226.772	176.3
226.986	162.52
227.2	178.69
227.415	164.8
227.629	198.25
227.843	214.09
228.057	147.74
228.271	136.74
228.485	153.6
228.699	193.1
228.913	226.75
229.127	184.15
229.341	205.28
229.555	298.45
229.769	492.05
229.983	662.93
230.197	581.73
230.411	832.52
230.625	919.07
230.839	629.57
231.053	792.31
231.267	1847.09
231.481	1605.16
231.695	967.87
231.909	573.87
232.122	328.77
232.336	345.19
232.55	510.96
232.764	595.84
232.978	557.73
233.192	632.29
233.405	706.08
233.619	574.21
233.833	333.59
234.047	496.55
234.261	759.31
234.474	518.32
234.688	-1073.02
234.902	-686.67
235.116	-327.87
235.329	-172.91
235.543	-558.22
235.757	-183.36
235.97	-116.43
236.184	-133.11
236.398	0.76
236.612	50.79
236.825	58.51
237.039	52.06
237.252	37.38
237.466	57.58
237.68	408.47
237.893	-12100
238.107	102.37
238.32	105.22
238.534	-69.3
238.748	-132.57
238.961	-14.55
239.175	-32.42
239.388	-110.94
239.602	-205.57
239.815	-37.96
240.029	-178.65
240.242	-92.45
240.456	-74.14
240.669	-115.15
240.882	-29.48
241.096	-46.25
241.309	-39.12
241.523	-64.6
241.736	-80.78
241.95	250.84
242.163	137.59
242.376	33.33
242.59	-509.6
242.803	6406.67
243.016	280.66
243.23	242.86
243.443	6193.33
243.656	-845.86
243.87	-139.25
244.083	-46.15
244.296	-40.77
244.509	-5.98
244.723	-29.18
244.936	3.16
245.149	-8.14
245.362	-27.86
245.576	10.37
245.789	25.93
246.002	30.84
246.215	14.39
246.428	29.12
246.641	23.3
246.855	48.48
247.068	78.13
247.281	46.81
247.494	58.73
247.707	66.32
247.92	67.35
248.133	70.38
248.346	108.46
248.559	75.69
248.772	75.86
248.985	53.56
249.198	61.27
249.411	57.7
249.624	54.7
249.837	54.92
250.05	51.37
250.263	43.14
250.476	33.6
250.689	31.77
250.902	21.42
251.115	19.97
251.328	17.44
251.541	22.09
251.754	29.6
251.967	27.23
252.18	24.71
252.393	27.39
252.605	31.59
252.818	30.55
253.031	38
253.244	42.14
253.457	42.61
253.67	49.52
253.882	62.02
254.095	71.2
254.308	74.74
254.521	75.95
254.733	67.14
254.946	70.51
255.159	75.47
255.372	78.65
255.584	72.26
255.797	72.1
256.01	72.12
256.222	70.75
256.435	67.24
256.648	65.91
256.86	71.65
257.073	74.5
257.285	73.5
257.498	69.36
257.711	52.7
257.923	52.26
258.136	49.56
258.348	38.46
258.561	29.57
258.773	11.69
258.986	-10.05
259.198	-3.25
259.411	-42.59
259.623	-18.74
259.836	-6.55
260.048	-5.58
260.261	22.07
260.473	36.43
260.686	39.82
260.898	42.69
261.111	38.62
261.323	39.08
261.535	34.8
261.748	26.82
261.96	37.29
262.173	40.74
262.385	37.78
262.597	31.48
262.81	34.79
263.022	33.36
263.234	44.63
263.447	50.12
263.659	57.38
263.871	63.91
264.083	62.39
264.296	59.1
264.508	59.77
264.72	59.02
264.932	55.38
265.145	55.74
265.357	52.92
265.569	43.45
265.781	47.72
265.993	60.83
266.205	81.34
266.418	51.07
266.63	57.3
266.842	64.25
267.054	76.09
267.266	67.97
267.478	88.98
267.69	68.28
267.902	50.67
268.114	35.88
268.326	31.81
268.538	47.21
268.75	51.37
268.962	51.95
269.174	42.46
269.386	37.08
269.598	36.86
269.81	40.2
270.022	41.15
270.234	33.28
270.446	31.12
270.658	29.87
270.87	39.08
271.082	40
271.294	39.15
271.506	32.03
271.718	28.63
271.929	25.7
272.141	28.1
272.353	34.81
272.565	37.96
272.777	35.67
272.989	30.81
273.2	33.81
273.412	35.69
273.624	34.95
273.836	36.54
274.047	37.76
274.259	40.56
274.471	42.68
274.683	37.5
274.894	40.65
275.106	43.73
275.318	41.58
275.529	38.79
275.741	37.47
275.953	46.56
276.164	50.72
276.376	53.97
276.588	54.23
276.799	52.13
277.011	48.87
277.222	51.84
277.434	43.47
277.646	32.21
277.857	34.81
278.069	43.03
278.28	32.32
278.492	27.02
278.703	17.14
278.915	30.7
279.126	37.62
279.338	31.34
279.549	34.36
279.761	31.03
279.972	29.59
280.183	31.48
280.395	26.64
280.606	22.12
280.818	13.31
281.029	13.12
281.24	12.28
281.452	6.58
281.663	10.94
281.875	22.2
282.086	19.52
282.297	16.03
282.508	14.51
282.72	21.18
282.931	26.53
283.142	32.96
283.354	21.78
283.565	22.15
283.776	25.05
283.987	10.98
284.199	11.52
284.41	25.05
284.621	33.77
284.832	45.05
285.043	42.6
285.254	42.5
285.466	41.04
285.677	40.52
285.888	33.67
286.099	28.39
286.31	17.04
286.521	17.78
286.732	22.46
286.943	20.55
287.154	20.91
287.366	15.6
287.577	7.21
287.788	8.52
287.999	9.74
288.21	-1.71
288.421	4.12
288.632	6.31
288.843	3.74
289.054	0.45
289.264	-12.14
289.475	-12.64
289.686	-3.49
289.897	-4.98
290.108	0.68
290.319	5.33
290.53	10.17
290.741	7.75
290.952	17.84
291.163	16.6
291.373	16.25
291.584	17.92
291.795	19.74
292.006	28.9
292.217	27.26
292.427	28.51
292.638	37.26
292.849	35.39
293.06	34.49
293.27	33.77
293.481	32.7
293.692	32.82
293.903	30.05
294.113	22.45
294.324	26.46
294.535	18.75
294.745	20.27
294.956	16.36
295.167	21.06
295.377	17.4
295.588	16.94
295.798	19.34
296.009	9.54
296.22	3.14
296.43	-1.83
296.641	-5
296.851	-9.68
297.062	-15.87
297.272	-13.68
297.483	-17.08
297.693	-14.38
297.904	-14.31
298.114	-7.96
298.325	-1.68
298.535	-6.44
298.746	-2.2
298.956	6.18
299.167	3.18
299.377	-0.5
299.587	2.7
299.798	2.1
300.008	-5.25
300.219	-4.28
300.429	4.96
300.639	14.63
300.85	8.86
301.06	7.82
301.27	18.96
301.481	21.85
301.691	19.75
301.901	26.99
302.111	27.76
302.322	29.65
302.532	28.27
302.742	22.05
302.952	27.94
303.163	24.98
303.373	20.73
303.583	26.36
303.793	28
304.003	26.51
304.214	21.18
304.424	23.88
304.634	16.13
304.844	19.67
305.054	21.94
305.264	26.4
305.474	31.53
305.684	23.25
305.894	25.52
306.104	34.28
306.314	29.18
306.525	26.59
306.735	23.44
306.945	25.73
307.155	31.78
307.365	30.41
307.575	26.58
307.784	28.73
307.994	21
308.204	19.91
308.414	17.08
308.624	15.96
308.834	21.08
309.044	24.5
309.254	22.67
309.464	20.26
309.674	17.52
309.884	16.78
310.093	21.22
310.303	16.45
310.513	22.71
310.723	25.78
310.933	25.82
311.142	26.48
311.352	23.52
311.562	21.81
311.772	23.59
311.981	25.63
312.191	25.06
312.401	29.58
312.611	32.96
312.82	29.16
313.03	31.81
313.24	31.51
313.449	34.04
313.659	31
313.869	29.23
314.078	31.33
314.288	29.42
314.497	29.1
314.707	33.06
314.917	24.18
315.126	26.88
315.336	30.52
315.545	31.57
315.755	35.3
315.964	34.27
316.174	38.91
316.383	38.87
316.593	36.8
316.802	31.09
317.012	26.81
317.221	30.19
317.431	29.14
317.64	27.93
317.849	23.91
318.059	28.95
318.268	32.66
318.478	35.15
318.687	31.14
318.896	27.76
319.106	28.37
319.315	28.76
319.524	21.05
319.734	12.5
319.943	17.32
320.152	18.99
320.362	18.96
320.571	19.55
320.78	18.22
320.989	20.86
321.199	25.88
321.408	28.81
321.617	30.32
321.826	30.22
322.035	28.83
322.245	33.88
322.454	29.66
322.663	26.94
322.872	23.91
323.081	23.49
323.29	22.38
323.5	18.62
323.709	19.3
323.918	19.06
324.127	19.32
324.336	4.15
324.545	-4.41
324.754	-0.15
324.963	-6.5
325.172	-6.73
325.381	-9.29
325.59	-9.09
325.799	-11.89
326.008	-16.26
326.217	-20.8
326.426	-12.64
326.635	-13.52
326.844	-14.66
327.053	-12.71
327.262	-10.01
327.47	-5.27
327.679	0.96
327.888	-0.21
328.097	2.57
328.306	5.27
328.515	12.26
328.724	28.68
328.932	30.27
329.141	27.64
329.35	26
329.559	31.12
329.768	37.95
329.976	34.14
330.185	27.84
330.394	25.85
330.602	25.66
330.811	17.32
331.02	13.99
331.229	21.12
331.437	19.93
331.646	17.02
331.855	21.09
332.063	17.5
332.272	23.81
332.48	19.16
332.689	18.17
332.898	15.82
333.106	10.27
333.315	14.89
333.523	17.6
333.732	26.04
333.94	27.16
334.149	21.12
334.357	24.46
334.566	30.54
334.774	40.03
334.983	45.93
335.191	47.37
335.4	46.21
335.608	34.94
335.817	33.72
336.025	37.97
336.234	47.35
336.442	49.23
336.65	41.93
336.859	45.07
337.067	45.25
337.275	45.26
337.484	34.15
337.692	38.48
337.9	48
338.109	48
338.317	36.6
338.525	39.55
338.734	47.43
338.942	45.57
339.15	40.62
339.358	29.41
339.567	32.57
339.775	31.8
339.983	34.93
340.191	27.67
340.399	31.65
340.608	29.2
340.816	33.29
341.024	34.51
341.232	27.07
341.44	26.51
341.648	28.19
341.856	36.56
342.064	34.09
342.272	17.25
342.481	18.88
342.689	26.36
342.897	25.58
343.105	22.22
343.313	26.57
343.521	31.79
343.729	33.31
343.937	28.2
344.145	25.26
344.353	23.89
344.56	26.61
344.768	26.83
344.976	17.51
345.184	13.35
345.392	14.32
345.6	14.86
345.808	14.03
346.016	14.8
346.224	18.86
346.431	16.67
346.639	23.91
346.847	21.25
347.055	17.27
347.263	18.35
347.471	12.71
347.678	2.97
347.886	-6.44
348.094	-2.47
348.302	10.01
348.509	18.73
348.717	23.18
348.925	27.55
349.132	25.65
349.34	26.32
349.548	28.58
349.755	33.64
349.963	39.85
350.171	36.68
350.378	32.5
350.586	28.95
350.793	34.43
351.001	34.7
351.209	34.7
351.416	39.95
351.624	35.36
351.831	32.9
352.039	42.36
352.246	41.31
352.454	38.12
352.661	36.23
352.869	37.04
353.076	29.69
353.284	32.98
353.491	40.13
353.699	37.13
353.906	39.66
354.113	29.17
354.321	25.42
354.528	29.89
354.736	32.94
354.943	29.01
355.15	29.3
355.358	25.04
355.565	27.74
355.772	24.94
355.98	26.45
356.187	23.54
356.394	16.96
356.601	24.63
356.809	22.26
357.016	22.41
357.223	18.37
357.43	20.05
357.638	18.91
357.845	15.73
358.052	14.25
358.259	13.33
358.466	13.35
358.673	14.44
358.881	18.79
359.088	21.55
359.295	26.85
359.502	17.99
359.709	21.02
359.916	10.28
360.123	15.06
360.33	10.4
360.537	21.36
360.744	22.69
360.951	16.11
361.158	29.08
361.365	35.82
361.572	42.59
361.779	50.88
361.986	51.27
362.193	51.97
362.4	46.97
362.607	39.67
362.814	39.19
363.021	38.01
363.228	39.6
363.435	36.18
363.641	31.48
363.848	33.73
364.055	38.31
364.262	39.01
364.469	29.74
364.676	31.52
364.882	25.45
365.089	24.74
365.296	27.67
365.503	23.45
365.709	15.58
365.916	12.29
366.123	11.53
366.33	9.23
366.536	13.53
366.743	16.36
366.95	22
367.156	23.05
367.363	23.32
367.57	21.91
367.776	18.09
367.983	21.31
368.19	28.08
368.396	29.37
368.603	31.34
368.809	34.75
369.016	33.89
369.222	32.43
369.429	39.02
369.635	38.19
369.842	33.08
370.048	40.67
370.255	39.42
370.461	34.74
370.668	36.52
370.874	30.97
371.081	36.18
371.287	33.4
371.494	30.75
371.7	28.84
371.906	23.8
372.113	28.3
372.319	26.43
372.526	22
372.732	21.47
372.938	11.14
373.145	14.33
373.351	13.49
373.557	18.77
373.763	12.25
373.97	5.42
374.176	10.63
374.382	10.55
374.588	6.51
374.795	2.11
375.001	-5.51
375.207	-3.76
375.413	-6.27
375.62	2.85
375.826	7.52
376.032	10.54
376.238	16.64
376.444	10.89
376.65	12.37
376.856	8.89
377.062	5.36
377.269	19.63
377.475	13.42
377.681	21.42
377.887	13.21
378.093	10.77
378.299	24.01
378.505	25.91
378.711	27.05
378.917	29.35
379.123	38.38
379.329	50.67
379.535	49.83
379.741	48.56
379.947	45.07
380.152	39.98
380.358	40.13
380.564	37.69
380.77	40.63
380.976	34.02
381.182	33.78
381.388	36.62
381.594	34.51
381.799	39.33
382.005	36.53
382.211	43.74
382.417	49.57
382.623	43.48
382.828	49.44
383.034	46.98
383.24	48.6
383.445	44
383.651	36.5
383.857	37.73
384.063	39.45
384.268	23.07
384.474	22.37
384.68	22.43
384.885	26.59
385.091	17.87
385.296	28.53
385.502	27.11
385.708	28.38
385.913	27.72
386.119	23.4
386.324	27.19
386.53	25.83
386.735	6.42
386.941	16.05
387.146	7.81
387.352	11.4
387.557	19.76
387.763	23.73
387.968	20.8
388.174	27.06
388.379	23.52
388.585	32.12
388.79	37.97
388.996	35.86
389.201	38.22
389.406	39.88
389.612	37.24
389.817	43.08
390.022	40.84
390.228	44.81
390.433	45.51
390.638	37.89
390.844	33.7
391.049	33.24
391.254	35.62
391.459	36
391.665	29.87
391.87	21.1
392.075	25.12
392.28	27.42
392.485	20.84
392.691	20.69
392.896	20.2
393.101	15.57
393.306	20.68
393.511	19.41
393.716	28.62
393.922	21.96
394.127	9.42
394.332	18.78
394.537	16.2
394.742	14.36
394.947	11.92
395.152	20.01
395.357	29
395.562	25.09
395.767	19.77
395.972	29.7
396.177	34.69
396.382	32.27
396.587	34.57
396.792	32.87
396.997	33.35
397.202	38.01
397.407	40.11
397.611	38.2
397.816	39.56
398.021	36.66
398.226	38.24
398.431	47.73
398.636	42.5
398.841	44.61
399.045	47.09
399.25	47.55
399.455	49.46
399.66	47.2
399.864	50.03
400.069	48.13
400.274	45.78
400.479	39.1
400.683	38.69
400.888	41.87
401.093	42.87
401.297	40.77
401.502	33.25
401.707	28.35
401.911	39.18
402.116	42.74
402.321	44.6
402.525	56.53
402.73	55.69
402.934	54.43
403.139	62.36
403.344	68.79
403.548	61.74
403.753	47.96
403.957	39.66
404.162	25.2
404.366	39.83
404.571	35.03
404.775	43.07
404.98	45.67
405.184	43.08
405.388	47.09
405.593	50.5
405.797	49.03
406.002	56.54
406.206	50.71
406.41	50.1
406.615	56.3
406.819	47.92
407.023	51.89
407.228	52.69
407.432	49.3
407.636	45.42
407.841	54.01
408.045	56.26
408.249	53.71
408.453	57.94
408.658	55.33
408.862	55.71
409.066	56.55
409.27	58.21
409.474	47.75
409.679	40.84
409.883	37.1
410.087	40.74
410.291	37.35
410.495	22.57
410.699	15.13
410.903	-3.61
411.108	9.2
411.312	-11.92
411.516	-17.26
411.72	-19.89
411.924	-8.4
412.128	-11.96
412.332	-9.05
412.536	-0.24
412.74	2.06
412.944	-1.62
413.148	-0.98
413.352	-8.13
413.556	-12.51
413.76	-1.67
413.964	6.22
414.167	14.72
414.371	23.74
414.575	24.8
414.779	30.19
414.983	31.94
415.187	40.68
415.391	40.8
415.594	52.16
415.798	43.69
416.002	45.26
416.206	44.16
416.41	45.44
416.613	46.92
416.817	48.31
417.021	51.68
417.225	56.65
417.428	50.1
417.632	43.25
417.836	36
418.039	36.46
418.243	40.16
418.447	31.04
418.65	26.58
418.854	32.67
419.057	28.39
419.261	28.67
419.465	26.51
419.668	26.79
419.872	21.35
420.075	22.45
420.279	26.93
420.482	12.81
420.686	8.84
420.889	13.15
421.093	18.77
421.296	19.95
421.5	15.74
421.703	15.67
421.907	25.55
422.11	24.11
422.314	20.86
422.517	2.9
422.72	14.2
422.924	10.12
423.127	-0.85
423.33	3.26
423.534	-1.62
423.737	-5.48
423.94	-10.47
424.144	2.74
424.347	13.47
424.55	4.11
424.754	13.23
424.957	26.4
425.16	23.27
425.363	25.65
425.567	19.05
425.77	20.92
425.973	31.08
426.176	20.48
426.379	28.44
426.582	25.71
426.786	35.98
426.989	29.12
427.192	40.03
427.395	41.79
427.598	34.41
427.801	34.62
428.004	40.27
428.207	44.21
428.41	38.16
428.613	36.42
428.816	43.74
429.019	43.98
429.222	36.28
429.425	43.67
429.628	37.83
429.831	40.74
430.034	40.26
430.237	42.06
430.44	48.95
430.643	43.03
430.846	50.13
431.049	47.81
431.252	47.35
431.454	40.08
431.657	40.83
431.86	47.82
432.063	49.46
432.266	43.45
432.469	36.92
432.671	36.18
432.874	37.88
433.077	31.38
433.28	31.93
433.482	31.47
433.685	16.22
433.888	9.48
434.09	-0.39
434.293	-4.22
434.496	-10.31
434.698	-25.23
434.901	-7.85
435.104	-14.33
435.306	-3.82
435.509	-6.61
435.712	6.65
435.914	-3.95
436.117	-7.45
436.319	7.17
436.522	8.83
436.724	15.23
436.927	17.61
437.129	14.7
437.332	18.23
437.534	20.01
437.737	19.8
437.939	41.37
438.142	47.2
438.344	53.63
438.547	57.15
438.749	54.39
438.951	50.12
439.154	42.86
439.356	47.89
439.558	47.35
439.761	57.47
439.963	44.32
440.165	47.56
440.368	56.2
440.57	39.61
440.772	48.55
440.975	37.31
441.177	33.47
441.379	37.87
441.581	25.55
441.784	15.3
441.986	19.51
442.188	11.68
442.39	10.77
442.592	-2.42
442.795	7.37
442.997	3.19
443.199	6.26
443.401	10.74
443.603	11.45
443.805	2.7
444.007	-0.99
444.209	-3.68
444.411	2.38
444.613	7.46
444.815	15.26
445.017	13.09
445.219	20
445.421	22.61
445.623	18.19
445.825	15.58
446.027	15.51
446.229	12.52
446.431	8.38
446.633	12.73
446.835	23.19
447.037	10.09
447.239	20.19
447.441	25.29
447.643	22.9
447.844	17.03
448.046	29.39
448.248	30.61
448.45	39.74
448.652	34.74
448.853	34.5
449.055	30.3
449.257	32.94
449.459	29.86
449.66	36.25
449.862	28.73
450.064	46.55
450.266	48.1
450.467	49.83
450.669	56.01
450.871	57.96
451.072	67.08
451.274	83.82
451.475	73.22
451.677	66.33
451.879	66.97
452.08	61.5
452.282	50.36
452.483	51.36
452.685	42.76
452.886	37.15
453.088	26.57
453.289	22.87
453.491	7.25
453.692	-13.78
453.894	-3.04
454.095	8.55
454.297	-1.3
454.498	1.3
454.7	-4.44
454.901	-0.3
455.102	5.98
455.304	3.01
455.505	2.21
455.706	-1.99
455.908	-1.17
456.109	4.86
456.31	14.52
456.512	11.23
456.713	17.2
456.914	13.47
457.116	5.77
457.317	10.31
457.518	6.5
457.719	13.15
457.921	16.74
458.122	0.62
458.323	-0.51
458.524	5.89
458.725	12.89
458.926	16.77
459.128	15.26
459.329	6.6
459.53	10.26
459.731	7.65
459.932	-2.46
460.133	-4.4
460.334	-2.17
460.535	-7.53
460.736	-3.09
460.937	-16.81
461.138	-11.65
461.339	-0.68
461.54	2.22
461.741	10.72
461.942	3.86
462.143	7.64
462.344	11.22
462.545	19.49
462.746	14.07
462.947	2.37
463.148	2.7
463.348	0.19
463.549	13.03
463.75	4.96
463.951	7.06
464.152	8.06
464.353	11.28
464.553	16.28
464.754	20.8
464.955	17.31
465.156	31.42
465.356	28.68
465.557	21.96
465.758	20.05
465.959	19.79
466.159	22.24
466.36	19.68
466.561	21.48
466.761	13.9
466.962	8.92
467.163	14.95
467.363	9.66
467.564	15.76
467.764	14.26
467.965	12.18
468.166	12.17
468.366	19.76
468.567	18.87
468.767	17.61
468.968	14.79
469.168	19.98
469.369	12.15
469.569	11.91
469.77	20.14
469.97	14.81
470.17	17.28
470.371	21.08
470.571	25.41
470.772	30.66
470.972	37.49
471.172	44.77
471.373	40.55
471.573	40.4
471.773	35.63
471.974	38.28
472.174	39.93
472.374	37.77
472.575	38.92
472.775	35.65
472.975	30.07
473.175	27.38
473.376	26
473.576	25.56
473.776	27.94
473.976	23.84
474.177	29.84
474.377	22.77
474.577	23.82
474.777	21.62
474.977	19.03
475.177	12.43
475.377	10.61
475.577	12.73
475.777	16.11
475.978	15.84
476.178	11.53
476.378	13.87
476.578	18.7
476.778	15.51
476.978	18.95
477.178	25.99
477.378	30.02
477.578	30.21
477.778	25.71
477.977	19.89
478.177	20.21
478.377	15.37
478.577	17.64
478.777	19.28
478.977	15.6
479.177	12.66
479.377	18.86
479.577	17.22
479.776	20.22
479.976	16.04
480.176	18.48
480.376	20.8
480.576	21.1
480.775	17.53
480.975	23.6
481.175	18.56
481.374	14.82
481.574	13.25
481.774	13.31
481.974	16.98
482.173	22.75
482.373	17.6
482.572	13.99
482.772	17.64
482.972	19.19
483.171	24.16
483.371	26.17
483.57	19.5
483.77	22.42
483.97	16.67
484.169	19.41
484.369	20.04
484.568	20.01
484.768	22.09
484.967	21.19
485.167	16.34
485.366	14.03
485.566	12.43
485.765	16.16
485.964	14.17
486.164	15.64
486.363	10.32
486.563	14.32
486.762	21.49
486.961	18.71
487.161	17.25
487.36	14.73
487.559	14.21
487.759	15.27
487.958	14.48
488.157	12.25
488.356	10.83
488.556	7.8
488.755	5.74
488.954	2.43
489.153	3.98
489.353	6.63
489.552	8.27
489.751	10
489.95	7.18
490.149	4.28
490.348	3.62
490.548	8.79
490.747	4.11
490.946	5.42
491.145	5.48
491.344	0.89
491.543	-0.05
491.742	-0.13
491.941	0.54
492.14	-2.09
492.339	-5.09
492.538	-5.99
492.737	-3.53
492.936	-2.12
493.135	-2.39
493.334	-4.56
493.533	-4.22
493.732	0.88
493.931	4.84
494.13	-2.47
494.328	1.27
494.527	-2.06
494.726	-3.46
494.925	0.68
495.124	-4.71
495.323	-4.8
495.521	-2.85
495.72	-0.1
495.919	0.08
496.118	-2.59
496.316	-1
496.515	3.91
496.714	2.68
496.913	4.79
497.111	3.86
497.31	0.87
497.509	2.88
497.707	3.57
497.906	5.55
498.105	1.61
498.303	5.37
498.502	5.11
498.7	11.5
498.899	5.62
499.097	5.26
499.296	8.89
499.495	10.31
499.693	11.79
499.892	12.66
500.09	11.35
500.289	18.67
500.487	17.11
500.686	20.13
500.884	22.29
501.082	20.62
501.281	18.04
501.479	22.66
501.678	22.15
501.876	20.43
502.074	21.11
502.273	21.12
502.471	21.02
502.669	24.12
502.868	18.88
503.066	23.4
503.264	24.49
503.463	19.26
503.661	16.44
503.859	12.29
504.057	11.91
504.256	11.26
504.454	11.16
504.652	11.92
504.85	10.02
505.048	9.75
505.246	8.13
505.445	8.38
505.643	6.51
505.841	7.39
506.039	4.76
506.237	3.49
506.435	4.54
506.633	5.79
506.831	6.47
507.029	7.22
507.227	15.03
507.425	17.52
507.623	19.6
507.821	18.55
508.019	22.95
508.217	24.73
508.415	25.61
508.613	23.55
508.811	20.18
509.009	17.51
509.207	20.61
509.405	20.38
509.603	22.64
509.8	20.16
509.998	17.12
510.196	18.88
510.394	15.74
510.592	12.8
510.79	14.51
510.987	9.19
511.185	13.07
511.383	3.02
511.581	-3.74
511.778	-0.26
511.976	3.95
512.174	0.71
512.371	-1.52
512.569	0.05
512.767	-3.32
512.964	-4.38
513.162	-2.42
513.36	-3.28
513.557	-4.24
513.755	-4.83
513.952	-0.31
514.15	-0.83
514.348	1.49
514.545	4.02
514.743	9.11
514.94	8.88
515.138	9.5
515.335	5.92
515.533	9.61
515.73	14.92
515.927	13.98
516.125	12.22
516.322	11.54
516.52	12.95
516.717	11.25
516.915	17.47
517.112	20.33
517.309	21.31
517.507	16.85
517.704	18.31
517.901	18.11
518.099	16.68
518.296	19.86
518.493	21.27
518.69	20.69
518.888	17.8
519.085	16.3
519.282	18.53
519.479	16.51
519.676	14.47
519.874	10.73
520.071	8.73
520.268	10.85
520.465	12.65
520.662	12.08
520.859	13.1
521.056	7.44
521.254	10.2
521.451	10.15
521.648	13.78
521.845	11.5
522.042	11.6
522.239	13.83
522.436	10.42
522.633	4
522.83	5.92
523.027	5.87
523.224	5.4
523.421	8.09
523.618	8.91
523.815	11.13
524.011	11.24
524.208	16.14
524.405	18.76
524.602	18.42
524.799	12
524.996	9.4
525.193	11.65
525.389	7.03
525.586	9.66
525.783	9.09
525.98	11.82
526.176	13.92
526.373	9.23
526.57	9.86
526.767	11.13
526.963	5.57
527.16	9.59
527.357	12.69
527.553	7.8
527.75	13.69
527.947	12.73
528.143	19.78
528.34	17.95
528.537	14.61
528.733	12
528.93	15.96
529.126	21.62
529.323	24.54
529.519	24.34
529.716	19.82
529.912	20.6
530.109	20.96
530.305	18.62
530.502	21.02
530.698	26.09
530.895	20.47
531.091	24.25
531.288	22.49
531.484	18.26
531.68	20.22
531.877	17.35
532.073	17.46
532.269	15.94
532.466	16.02
532.662	12.63
532.858	11.79
533.055	10.87
533.251	9.71
533.447	8.42
533.643	11.51
533.84	12.65
534.036	9.31
534.232	9.09
534.428	8.79
534.624	7.77
534.821	5.39
535.017	13.66
535.213	12.65
535.409	11.02
535.605	13.89
535.801	10.42
535.997	9.47
536.193	8.06
536.389	7.78
536.586	9.08
536.782	14.07
536.978	16.41
537.174	20.97
537.37	20.33
537.566	19.57
537.762	16.73
537.958	15.75
538.153	16.98
538.349	14.91
538.545	15.7
538.741	14.76
538.937	11.36
539.133	9.16
539.329	6.78
539.525	7.91
539.721	10.49
539.916	13.3
540.112	12.08
540.308	16.33
540.504	15.67
540.699	14.83
540.895	11.49
541.091	13.2
541.287	12.17
541.482	10.68
541.678	12.5
541.874	10.76
542.069	10.86
542.265	13.37
542.461	17.05
542.656	17.69
542.852	19.83
543.048	20.97
543.243	21.25
543.439	22.81
543.634	23.8
543.83	21.24
544.025	17.84
544.221	20.38
544.417	19.86
544.612	22.81
544.807	25.82
545.003	26.75
545.198	25.89
545.394	26.54
545.589	29.64
545.785	28.5
545.98	28.2
546.176	26.61
546.371	24.25
546.566	24.4
546.762	22.28
546.957	22.18
547.152	22.56
547.348	21.33
547.543	23.43
547.738	21.28
547.933	20.89
548.129	22.27
548.324	21.74
548.519	18.74
548.714	14.87
548.91	10.29
549.105	8
549.3	7
549.495	7.23
549.69	3.87
549.885	0.29
550.08	5.7
550.276	10.65
550.471	11.69
550.666	10.12
550.861	9.97
551.056	9.81
551.251	9.83
551.446	12.79
551.641	8.62
551.836	9.4
552.031	9.32
552.226	11.21
552.421	13.44
552.616	15.69
552.811	18.62
553.006	17.82
553.201	18.46
553.395	17.96
553.59	16.37
553.785	15.8
553.98	18.8
554.175	15.52
554.37	12.54
554.565	15.26
554.759	13.15
554.954	12.99
555.149	14.82
555.344	14.86
555.538	13.38
555.733	14.98
555.928	17.26
556.122	18.18
556.317	16.82
556.512	13.7
556.706	15.06
556.901	14.65
557.096	14.13
557.29	17.77
557.485	18.16
557.68	17.13
557.874	16.98
558.069	17.51
558.263	15.29
558.458	19.01
558.652	15.3
558.847	15.37
559.041	20.96
559.236	17.47
559.43	17.31
559.625	17.48
559.819	18.81
560.014	15.59
560.208	16.08
560.402	17.51
560.597	18.7
560.791	15.28
560.986	14.7
561.18	16.26
561.374	13.6
561.569	13.68
561.763	15.37
561.957	16.44
562.151	15.03
562.346	18.08
562.54	18.18
562.734	17.2
562.928	16.65
563.123	13.66
563.317	14.92
563.511	18.61
563.705	17.5
563.899	14.77
564.093	14.7
564.288	13.9
564.482	14.85
564.676	17.05
564.87	22.17
565.064	21.01
565.258	21.54
565.452	22.78
565.646	25.63
565.84	23.64
566.034	24.39
566.228	23.65
566.422	23.1
566.616	21.67
566.81	22.93
567.004	24.71
567.198	26.93
567.392	26.98
567.586	23.14
567.779	23.56
567.973	23.63
568.167	25.06
568.361	24.53
568.555	23.73
568.749	23.39
568.942	19.3
569.136	21.36
569.33	19.98
569.524	18.18
569.718	16.96
569.911	18.59
570.105	17.23
570.299	17.11
570.492	18.59
570.686	19.19
570.88	20.53
571.073	20.49
571.267	19.68
571.461	18.59
571.654	19.54
571.848	18.45
572.041	19.61
572.235	17.71
572.429	19.62
572.622	17.38
572.816	16.09
573.009	16.68
573.203	15.14
573.396	17.59
573.59	19.64
573.783	18.2
573.976	17.56
574.17	18.09
574.363	17.3
574.557	16.22
574.75	14.42
574.943	14.21
575.137	14.93
575.33	13.5
575.523	12.28
575.717	9.69
575.91	10.61
576.103	10.48
576.297	12.4
576.49	10.94
576.683	11.61
576.876	10.59
577.07	9.92
577.263	10.79
577.456	9.3
577.649	7.8
577.842	9.33
578.036	9.51
578.229	8.78
578.422	9.72
578.615	7.17
578.808	6.87
579.001	7.62
579.194	7.78
579.387	8.17
579.58	8.42
579.773	9.34
579.966	10.31
580.159	9.76
580.352	8.82
580.545	9.17
580.738	8.82
580.931	9.11
581.124	9.18
581.317	7.2
581.51	6.27
581.703	6.31
581.896	3.59
582.088	4.28
582.281	6.65
582.474	7.42
582.667	10.54
582.86	11.66
583.053	9.62
583.245	8.76
583.438	8.11
583.631	10.85
583.824	10.65
584.016	10.52
584.209	9.33
584.402	11.02
584.594	11.09
584.787	13.94
584.98	13.52
585.172	15.41
585.365	14.82
585.558	15.18
585.75	14.8
585.943	15.92
586.135	15.33
586.328	14.09
586.52	15.05
586.713	14.58
586.906	13.67
587.098	14.69
587.291	15.71
587.483	15.06
587.675	15.38
587.868	15.38
588.06	13.45
588.253	15.47
588.445	14.95
588.638	13.25
588.83	11.79
589.022	12.65
589.215	10.89
589.407	11.62
589.599	12.2
589.792	13.37
589.984	14.49
590.176	15.22
590.368	14.78
590.561	14.13
590.753	14.34
590.945	15.94
591.137	14.95
591.33	15.02
591.522	16.55
591.714	13.06
591.906	15.65
592.098	16.15
592.29	15.17
592.482	15.39
592.674	15.61
592.867	15.26
593.059	15.58
593.251	16.46
593.443	17.37
593.635	15.62
593.827	13.44
594.019	12.92
594.211	12.51
594.403	12.51
594.595	13.01
594.787	12.68
594.979	11.43
595.17	11.24
595.362	11.57
595.554	11.87
595.746	13.79
595.938	11.73
596.13	11.46
596.322	12.48
596.513	10.02
596.705	10.97
596.897	11.04
597.089	11.75
597.281	12.63
597.472	12.19
597.664	12
597.856	13.55
598.048	14.46
598.239	14.31
598.431	14.05
598.623	13.54
598.814	11.53
599.006	13.05
599.197	14.52
599.389	14.16
599.581	12.88
599.772	12.66
599.964	12.63
600.155	12.53
600.347	11.87
600.538	12.93
600.73	10.64
600.921	10.44
601.113	9.14
601.304	8.68
601.496	9.53
601.687	11.25
601.879	10.13
602.07	9.7
602.262	9.54
602.453	9.1
602.644	7.49
602.836	10.05
603.027	8.95
603.218	7.65
603.41	7.06
603.601	7.61
603.792	8.09
603.983	8.32
604.175	9.88
604.366	9.79
604.557	11.13
604.748	12.56
604.94	13.13
605.131	11.65
605.322	11.65
605.513	12.36
605.704	12.19
605.895	12.55
606.086	10.04
606.278	10.78
606.469	12.97
606.66	14.68
606.851	12.86
607.042	11.73
607.233	13.08
607.424	13.38
607.615	12.52
607.806	11.21
607.997	11.27
608.188	11.44
608.379	11.32
608.57	10.73
608.761	10.7
608.952	11
609.142	12.92
609.333	12.47
609.524	12.01
609.715	12.05
609.906	11.6
610.097	14.98
610.287	13.42
610.478	11.52
610.669	10.71
610.86	12.63
611.051	14.27
611.241	13.93
611.432	12.38
611.623	13.95
611.813	14.03
612.004	14.63
612.195	12.75
612.385	12.71
612.576	12.46
612.767	12.86
612.957	11.15
613.148	10.58
613.338	10.13
613.529	9.81
613.72	9.24
613.91	9.48
614.101	7.98
614.291	9.95
614.482	10.44
614.672	9.65
614.863	8.63
615.053	8.02
615.243	8.56
615.434	10.8
615.624	9.31
615.815	11.25
616.005	11.1
616.195	12.67
616.386	12.43
616.576	12.71
616.766	12.68
616.957	13.87
617.147	14.28
617.337	13.98
617.528	11.31
617.718	10.69
617.908	11.13
618.098	11.1
618.289	10.57
618.479	9.55
618.669	10.61
618.859	11.69
619.049	11.83
619.239	11.61
619.43	9.48
619.62	9.09
619.81	8.15
620	8.54
620.19	6.53
620.38	6.79
620.57	6.62
620.76	6.19
620.95	6.61
621.14	6.81
621.33	6.5
621.52	7.35
621.71	7.45
621.9	6.79
622.09	7.05
622.28	5.59
622.47	6.23
622.659	5.77
622.849	5.27
623.039	5.12
623.229	3.89
623.419	5.93
623.609	6.43
623.799	5.7
623.988	3.56
624.178	5.94
624.368	4.72
624.558	5.5
624.747	6.24
624.937	7.3
625.127	6.17
625.316	6.73
625.506	7.83
625.696	9.02
625.885	8.92
626.075	8.23
626.265	10.39
626.454	11.01
626.644	11.38
626.833	10.03
627.023	10.22
627.212	9.52
627.402	9.64
627.591	10.2
627.781	9.1
627.97	10.22
628.16	8.29
628.349	8.8
628.539	7.27
628.728	8.5
628.918	6.46
629.107	6.5
629.296	6.38
629.486	5.56
629.675	4.83
629.865	5.2
630.054	5.89
630.243	3.65
630.432	2.58
630.622	1.61
630.811	2.65
631	3.02
631.19	4.65
631.379	1.7
631.568	1.36
631.757	2.8
631.946	1.88
632.136	3.29
632.325	3.51
632.514	3.87
632.703	2.34
632.892	1.55
633.081	1.82
633.27	2.26
633.459	2.35
633.648	1.39
633.837	1.54
634.026	-0.45
634.215	0.8
634.404	3.45
634.593	5.76
634.782	6.28
634.971	5.7
635.16	3.77
635.349	6.68
635.538	7.07
635.727	6.4
635.916	6.77
636.105	6.58
636.294	7.44
636.482	8.21
636.671	7.66
636.86	8.67
637.049	9.91
637.238	9.96
637.426	11.19
637.615	11.78
637.804	12.2
637.993	14.29
638.181	13.98
638.37	13.01
638.559	10.78
638.747	10.51
638.936	10.58
639.125	12.34
639.313	11.12
639.502	11.64
639.691	11.89
639.879	11.42
640.068	12.29
640.256	11.57
640.445	12.46
640.633	13.84
640.822	12.61
641.01	12.04
641.199	11.76
641.387	11.89
641.576	12.84
641.764	12.66
641.953	10.75
642.141	11.6
642.329	11.39
642.518	13.33
642.706	13.27
642.894	12.89
643.083	12.83
643.271	11.61
643.459	10.76
643.648	12.19
643.836	12.03
644.024	10.97
644.213	11.45
644.401	9.13
644.589	8.26
644.777	9.93
644.965	11.23
645.154	12
645.342	12.28
645.53	10.63
645.718	11.35
645.906	11.59
646.094	11.41
646.282	10.16
646.47	9.43
646.658	7.74
646.846	6.49
647.034	7.66
647.223	9.64
647.411	9.72
647.599	6.85
647.786	8.25
647.974	7.49
648.162	6.25
648.35	5.78
648.538	5.96
648.726	6.41
648.914	4.26
649.102	4.23
649.29	4.35
649.478	4.58
649.665	4.39
649.853	5.04
650.041	4.07
650.229	5.97
650.417	4.89
650.604	5.43
650.792	7.68
650.98	6.3
651.168	4.37
651.355	4.88
651.543	5.92
651.731	5.6
651.918	6.33
652.106	8.41
652.294	10.2
652.481	10.78
652.669	10.47
652.856	10.65
653.044	9.78
653.231	8.15
653.419	9.11
653.606	8.71
653.794	9.21
653.981	9.99
654.169	8.77
654.356	8.16
654.544	9.72
654.731	8.2
654.919	7.56
655.106	8.77
655.294	7.86
655.481	8.99
655.668	9.19
655.856	7.66
656.043	7.25
656.23	6.31
656.418	6.61
656.605	7.12
656.792	7.5
656.979	7.77
657.167	9.28
657.354	8.75
657.541	9.27
657.728	8.61
657.916	6.9
658.103	7.37
658.29	8.63
658.477	8.36
658.664	8.45
658.851	8.45
659.038	6.77
659.225	7.28
659.412	6.99
659.6	5.63
659.787	6.81
659.974	4.82
660.161	5.98
660.348	4.97
660.535	5.25
660.722	3.38
660.909	2.91
661.095	2.26
661.282	3.21
661.469	3.53
661.656	3.52
661.843	6.07
662.03	5.96
662.217	6.73
662.404	6.17
662.59	6.83
662.777	6.61
662.964	7.55
663.151	8.05
663.338	7.61
663.524	8.3
663.711	8.91
663.898	10.03
664.085	10.48
664.271	9.13
664.458	8.41
664.645	9.68
664.831	11.69
665.018	10.52
665.204	10.31
665.391	8.93
665.578	8.93
665.764	8
665.951	8.09
666.137	7.2
666.324	9.1
666.51	8.97
666.697	9.42
666.883	9.39
667.07	7.93
667.256	7.97
667.443	7.75
667.629	7.41
667.816	7.08
668.002	6.78
668.188	7.69
668.375	7.72
668.561	8.03
668.747	5.64
668.934	6.75
669.12	5.53
669.306	6.27
669.493	5.73
669.679	5.4
669.865	5.23
670.051	5.14
670.238	2.57
670.424	2.06
670.61	0.88
670.796	1.32
670.982	2.79
671.169	2.53
671.355	2.09
671.541	1.66
671.727	1.94
671.913	1.55
672.099	1.47
672.285	-0.65
672.471	-0.81
672.657	0.34
672.843	1.07
673.029	1.52
673.215	2.07
673.401	4.14
673.587	3.54
673.773	3.89
673.959	3.9
674.145	4.73
674.331	4.87
674.517	6.28
674.703	5.66
674.888	5.54
675.074	5.28
675.26	6.44
675.446	5.86
675.632	5.33
675.817	4.95
676.003	5.43
676.189	6.92
676.375	6.47
676.56	6.24
676.746	5.95
676.932	3.82
677.117	2.63
677.303	2.16
677.489	2.83
677.674	0.97
677.86	1.44
678.046	2.89
678.231	3.09
678.417	2.89
678.602	3.42
678.788	2.6
678.973	2.85
679.159	3.44
679.344	4.11
679.53	4.57
679.715	4.5
679.901	4.96
680.086	5.12
680.272	5
680.457	5.43
680.643	4.54
680.828	6.53
681.013	6.52
681.199	6.01
681.384	5.68
681.569	6.99
681.755	7.36
681.94	6.74
682.125	6.69
682.31	8.34
682.496	7.99
682.681	8.88
682.866	8.88
683.051	8.09
683.237	8.03
683.422	8.65
683.607	7.26
683.792	6.47
683.977	7.09
684.162	6.17
684.347	6.15
684.532	5.11
684.717	4.49
684.903	5.21
685.088	5.03
685.273	4.97
685.458	3.78
685.643	3.73
685.828	1.03
686.013	2.01
686.198	0.44
686.382	2.15
686.567	2.22
686.752	3.06
686.937	2.64
687.122	2.79
687.307	2.49
687.492	3.69
687.677	2.13
687.861	2.05
688.046	2
688.231	2.01
688.416	4.48
688.601	5.56
688.785	5.92
688.97	5.84
689.155	8.18
689.339	8.41
689.524	7.22
689.709	8.88
689.893	8.76
690.078	8.81
690.263	7.27
690.447	6.64
690.632	5.22
690.816	7.41
691.001	7.4
691.186	6.75
691.37	6.5
691.555	8.32
691.739	8.22
691.924	8.85
692.108	8.89
692.293	7.64
692.477	8.43
692.661	8.31
692.846	8.26
693.03	7.13
693.215	8.3
693.399	9.8
693.583	9.01
693.768	9.09
693.952	7.96
694.136	9.15
694.321	8.65
694.505	8.73
694.689	7.76
694.873	8.08
695.058	7.88
695.242	9.39
695.426	9.8
695.61	8.74
695.794	9.9
695.979	8.7
696.163	7.98
696.347	6.93
696.531	6.17
696.715	6.41
696.899	5.16
697.083	3.27
697.267	3.29
697.451	4.14
697.635	5.11
697.819	5.71
698.003	4.82
698.187	5.12
698.371	7.11
698.555	7.41
698.739	8.36
698.923	8.76
699.107	9.17
699.291	9.64
699.475	10.71
699.659	10.51
699.842	11.39
700.026	12.38
700.21	11.87
700.394	13.1
700.578	14.24
700.761	14.69
700.945	17.13
701.129	16.52
701.313	15.41
701.496	15.78
701.68	15.5
701.864	15.3
702.047	15.78
702.231	15.88
702.415	15.48
702.598	13.19
702.782	12.64
702.965	10.97
703.149	9.64
703.333	9.48
703.516	8.58
703.7	7.33
703.883	7.26
704.067	8.13
704.25	6.33
704.434	3.04
704.617	3.14
704.801	1.65
704.984	1.28
705.167	1.46
705.351	-1.47
705.534	-0.73
705.718	-0.65
705.901	-1.14
706.084	-3.77
706.268	-4.16
706.451	-3.19
706.634	-2.82
706.817	-3.74
707.001	-5.28
707.184	-5.84
707.367	-6.04
707.55	-5.3
707.734	-5.01
707.917	-5.18
708.1	-3.25
708.283	-0.71
708.466	-0.76
708.649	-0.27
708.832	0.48
709.015	0.72
709.199	2.1
709.382	2.38
709.565	2.68
709.748	3.51
709.931	5.31
710.114	5.93
710.297	6.3
710.48	7.28
710.663	8.9
710.846	9.74
711.028	9.71
711.211	9.18
711.394	10.42
711.577	10.13
711.76	7.58
711.943	6.51
712.126	6.38
712.309	6.75
712.491	7.36
712.674	5.81
712.857	7.7
713.04	6.94
713.222	6.87
713.405	6.5
713.588	6.49
713.771	5.42
713.953	4.78
714.136	4.12
714.319	4.14
714.501	2.62
714.684	1.95
714.866	2.13
715.049	3.35
715.232	3.02
715.414	2.16
715.597	3.77
715.779	3.38
715.962	5.14
716.144	4.21
716.327	3.99
716.509	4.75
716.692	2.74
716.874	2.94
717.057	3.4
717.239	3.72
717.421	4.03
717.604	3.45
717.786	3.63
717.968	2.73
718.151	1.88
718.333	1.44
718.515	2.24
718.698	3.28
718.88	2.08
719.062	0.89
719.244	1.71
719.427	1.55
719.609	2.87
719.791	0.92
719.973	1.28
720.155	1.06
720.338	0.64
720.52	2.68
720.702	3.13
720.884	3.33
721.066	3.4
721.248	-0.29
721.43	0.61
721.612	0.88
721.794	4.68
721.976	4.39
722.158	6.16
722.34	6.19
722.522	6.74
722.704	7.43
722.886	7.86
723.068	9.21
723.25	10.84
723.432	10.16
723.614	11.25
723.796	11.65
723.977	11.32
724.159	11.62
724.341	10.48
724.523	9.06
724.705	7.82
724.886	7.88
725.068	10.97
725.25	11.72
725.432	12.64
725.613	9.83
725.795	10.02
725.977	10.68
726.158	10.84
726.34	9.73
726.522	10.69
726.703	10.87
726.885	9.18
727.066	7.95
727.248	9.25
727.43	9.68
727.611	9.73
727.793	8.43
727.974	9.03
728.156	9.36
728.337	9.5
728.519	9.02
728.7	9.68
728.882	8.02
729.063	7.83
729.244	7.15
729.426	8.02
729.607	7.93
729.788	6.84
729.97	6.41
730.151	5.49
730.332	5.83
730.514	6.51
730.695	8.25
730.876	8.45
731.058	6.05
731.239	4.12
731.42	3.02
731.601	3.47
731.782	2.77
731.964	2.69
732.145	3.15
732.326	2.58
732.507	1.88
732.688	3.65
732.869	4.55
733.05	4.82
733.231	4.37
733.412	3.8
733.593	4.22
733.774	4.65
733.955	5.99
734.136	5.08
734.317	4.07
734.498	4.24
734.679	4.54
734.86	3.62
735.041	4.53
735.222	5.53
735.403	5.71
735.584	6.23
735.765	5.72
735.946	5
736.126	4.37
736.307	5.45
736.488	5.09
736.669	1.32
736.849	0.53
737.03	2.98
737.211	4.04
737.392	3.96
737.572	2.03
737.753	0.76
737.934	2.15
738.114	4.37
738.295	1.7
738.476	1.46
738.656	4.88
738.837	5.46
739.017	6.04
739.198	6.47
739.378	6.35
739.559	6.6
739.74	7.5
739.92	8.12
740.1	5.41
740.281	4.01
740.461	6.18
740.642	7.92
740.822	5.26
741.003	5.94
741.183	5.04
741.363	7.87
741.544	8.11
741.724	8.09
741.904	5.25
742.085	5.1
742.265	5.8
742.445	3.29
742.626	3.16
742.806	3.78
742.986	3.82
743.166	3.74
743.347	3.88
743.527	4.24
743.707	3.69
743.887	6.07
744.067	5.24
744.247	5.38
744.427	4.28
744.608	5.46
744.788	6.86
744.968	9.26
745.148	9.27
745.328	8.37
745.508	5.89
745.688	6.65
745.868	7.35
746.048	6.92
746.228	8.14
746.408	6.52
746.588	4.74
746.767	5
746.947	5.14
747.127	3.58
747.307	3.71
747.487	5.38
747.667	4.04
747.847	5.52
748.026	5.64
748.206	5.99
748.386	6.33
748.566	4.92
748.745	4.53
748.925	3.23
749.105	5.58
749.285	6.24
749.464	6.53
749.644	6.84
749.824	7.05
750.003	7.63
750.183	7.85
750.362	9.2
750.542	8.27
750.722	8.11
750.901	9.6
751.081	8.96
751.26	8.53
751.44	8.67
751.619	9.5
751.799	8.07
751.978	5.14
752.158	5.52
752.337	4.62
752.516	3.04
752.696	3.11
752.875	3.19
753.055	3.12
753.234	3.54
753.413	4.67
753.593	5.53
753.772	5.08
753.951	5.81
754.13	4.6
754.31	3.76
754.489	4.03
754.668	5.04
754.847	5.71
755.027	5.69
755.206	5.39
755.385	4.76
755.564	6.21
755.743	7.26
755.922	5.13
756.101	4.29
756.28	4.73
756.46	4.96
756.639	2.31
756.818	2.92
756.997	2.69
757.176	2.29
757.355	1.2
757.534	0.39
757.713	0.33
757.892	1.31
758.07	3.16
758.249	3.45
758.428	2.97
758.607	2.86
758.786	3.15
758.965	3.46
759.144	3.69
759.323	2.5
759.501	3.29
759.68	4.32
759.859	5.21
760.038	4.87
760.216	3.8
760.395	4.84
760.574	5.03
760.753	6.87
760.931	7.98
761.11	8.5
761.289	8.29
761.467	8.15
761.646	7.31
761.824	6.67
762.003	3.95
762.182	2.79
762.36	2.85
762.539	3.12
762.717	3.19
762.896	2.83
763.074	4.18
763.253	3.47
763.431	5.35
763.61	6.36
763.788	6.72
763.966	7.84
764.145	9.71
764.323	9.81
764.502	7.98
764.68	6.69
764.858	5.32
765.037	6.64
765.215	7.01
765.393	6.94
765.571	7.57
765.75	9.55
765.928	9.01
766.106	8.3
766.284	8.05
766.463	7.7
766.641	7.44
766.819	8.48
766.997	8.46
767.175	6.83
767.353	6.22
767.531	6.15
767.71	6.64
767.888	4.77
768.066	4.09
768.244	4.13
768.422	5.77
768.6	8.45
768.778	7.94
768.956	8.11
769.134	8.74
769.312	9.39
769.489	8.66
769.667	9.79
769.845	10.74
770.023	11.28
770.201	12.59
770.379	12.74
770.557	11.75
770.735	13.05
770.912	11.36
771.09	11.7
771.268	12.27
771.446	12.21
771.623	12.86
771.801	13.69
771.979	14.44
772.157	11.66
772.334	9.37
772.512	9.44
772.69	8.83
772.867	8.3
773.045	8.04
773.222	7.39
773.4	8.14
773.577	8.57
773.755	9.17
773.933	8.64
774.11	8.34
774.288	8.31
774.465	7.66
774.643	8.1
774.82	8.18
774.997	7.95
775.175	6.91
775.352	7.83
775.53	7.37
775.707	5.72
775.884	6.38
776.062	8.26
776.239	8.31
776.416	9.18
776.594	8.13
776.771	7.63
776.948	8.06
777.125	6.74
777.303	4.02
777.48	2.5
777.657	1.62
777.834	3.27
778.012	0.92
778.189	2.26
778.366	3.67
778.543	2.06
778.72	1.35
778.897	2.47
779.074	1.88
779.251	1.82
779.428	1.23
779.605	-0.13
779.782	-2.02
779.959	-2.52
780.136	-2.24
780.313	-0.04
780.49	-2.65
780.667	-0.16
780.844	0.39
781.021	1.42
781.198	0.01
781.375	1.85
781.552	1.34
781.728	2.63
781.905	3.27
782.082	4.06
782.259	3.78
782.436	4.88
782.612	3.45
782.789	2.63
782.966	2.48
783.143	5
783.319	8.58
783.496	8.94
783.673	9.08
783.849	7.8
784.026	7.41
784.203	9.54
784.379	8.18
784.556	8.56
784.732	9.34
784.909	10.98
785.085	10.54
785.262	10.01
785.438	11.9
785.615	11.77
785.791	12.49
785.968	12.89
786.144	13.39
786.321	16.03
786.497	15.42
786.673	13.64
786.85	11.81
787.026	10.97
787.203	11.41
787.379	9.78
787.555	7.81
787.731	5.37
787.908	6
788.084	5.68
788.26	3.91
788.437	4.08
788.613	4.46
788.789	2.43
788.965	1.81
789.141	0.2
789.317	-3.99
789.494	-6.28
789.67	-5.88
789.846	-6.19
790.022	-7.81
790.198	-6.89
790.374	-4.71
790.55	-6.2
790.726	-8.97
790.902	-9.55
791.078	-8.09
791.254	-6.07
791.43	-2.67
791.606	-3.94
791.782	-2.98
791.958	-2.25
792.134	-2.65
792.31	-3.23
792.486	-3.33
792.661	-2.74
792.837	-0.72
793.013	0.4
793.189	1.88
793.365	3.17
793.54	3.3
793.716	3.37
793.892	4.98
794.068	4.61
794.243	6.92
794.419	9.4
794.595	9.12
794.77	11.31
794.946	13.47
795.122	11.31
795.297	11.55
795.473	11.44
795.648	14.4
795.824	14.72
796	14.73
796.175	15.28
796.351	14.25
796.526	13.72
796.702	14.53
796.877	13.18
797.052	11.97
797.228	11.41
797.403	11.32
797.579	10.87
797.754	10.86
797.929	11.64
798.105	11.35
798.28	11.31
798.455	11.71
798.631	9.89
798.806	10.74
798.981	12.74
799.157	11.28
799.332	8.21
799.507	10.61
799.682	13.8
799.858	14.04
800.033	15.46
800.208	14.84
800.383	15.68
800.558	17.59
800.733	17.63
800.908	17.48
801.083	16.65
801.258	16.11
801.434	19.41
801.609	20.32
801.784	18.21
801.959	19.78
802.134	18.44
802.309	17.53
802.484	15.07
802.658	13.44
802.833	14.55
803.008	15.41
803.183	13.33
803.358	10.58
803.533	12.7
803.708	12.24
803.883	10.97
804.057	8.38
804.232	8.84
804.407	10.11
804.582	9.29
804.756	8.57
804.931	7.54
805.106	4.45
805.281	4.55
805.455	4.14
805.63	4.42
805.805	4.76
805.979	6.71
806.154	10.04
806.328	11.63
806.503	13.42
806.678	14.03
806.852	14.91
807.027	15.56
807.201	13.11
807.376	14.61
807.55	13.83
807.725	14.68
807.899	12.66
808.074	12.75
808.248	15.36
808.422	17.29
808.597	18.25
808.771	18.6
808.946	20.96
809.12	23.83
809.294	21.71
809.468	20.81
809.643	20.57
809.817	19.91
809.991	19.49
810.166	18.62
810.34	17.03
810.514	16.22
810.688	17.31
810.862	17.82
811.037	19.14
811.211	16.92
811.385	18.56
811.559	20.71
811.733	20.25
811.907	18.01
812.081	17.12
812.255	13.33
812.429	12.09
812.603	7.69
812.777	7.09
812.951	7.82
813.125	8.17
813.299	4.52
813.473	5.02
813.647	5.63
813.821	4.78
813.995	6.36
814.169	2.97
814.343	4.1
814.516	6.52
814.69	5.52
814.864	8.31
815.038	7.98
815.212	8.36
815.385	7.66
815.559	11.74
815.733	11.61
815.907	14.68
816.08	14.56
816.254	13.89
816.428	15.21
816.601	14.73
816.775	13.52
816.948	14.26
817.122	14.13
817.296	12.2
817.469	12.91
817.643	13.26
817.816	18.23
817.99	16.04
818.163	12.55
818.337	13.03
818.51	13.47
818.684	15.11
818.857	14.57
819.031	17.14
819.204	13.08
819.377	12.52
819.551	12.04
819.724	12.67
819.897	13.67
820.071	9.87
820.244	8.96
820.417	10.89
820.591	11.61
820.764	12.07
820.937	12.7
821.11	10.85
821.284	9.84
821.457	9
821.63	6.97
821.803	8.8
821.976	7.83
822.149	11.33
822.322	12.65
822.496	11.72
822.669	13.45
822.842	13.59
823.015	14.06
823.188	14.7
823.361	16.28
823.534	12.37
823.707	13.3
823.88	13.31
824.053	11.06
824.226	11.48
824.399	11.87
824.571	14.49
824.744	16.91
824.917	18.72
825.09	17.19
825.263	20.34
825.436	23.74
825.608	22.23
825.781	22.43
825.954	21.29
826.127	22.4
826.299	17.78
826.472	13.84
826.645	16.41
826.818	16.41
826.99	15.01
827.163	19.45
827.336	21.85
827.508	20.29
827.681	20.89
827.853	20.86
828.026	24.18
828.198	21.54
828.371	22.97
828.544	22.92
828.716	23.19
828.889	20.51
829.061	15.46
829.233	14.57
829.406	9.81
829.578	8.87
829.751	5.48
829.923	8.07
830.096	12.9
830.268	12.67
830.44	14.68
830.613	15.25
830.785	14.69
830.957	12.28
831.129	14.9
831.302	17.35
831.474	16.39
831.646	15.22
831.818	18.2
831.991	16.78
832.163	16.6
832.335	17.19
832.507	20.15
832.679	22.12
832.851	21.17
833.023	23.31
833.195	21.27
833.368	23.75
833.54	23.23
833.712	19.17
833.884	21.14
834.056	17.25
834.228	15.21
834.4	17.1
834.571	15.85
834.743	13.2
834.915	11.34
835.087	10.39
835.259	5.41
835.431	1.01
835.603	-2
835.775	-4.07
835.946	-5.47
836.118	-9.43
836.29	-11.75
836.462	-11.38
836.634	-10.7
836.805	-11.28
836.977	-12.13
837.149	-11.34
837.32	-9.26
837.492	-10.8
837.664	-9.25
837.835	-6.71
838.007	-12.97
838.179	-7.28
838.35	-0.51
838.522	1.1
838.693	4.91
838.865	4.5
839.036	6.11
839.208	9.89
839.379	12.15
839.551	13.52
839.722	16.74
839.894	15.98
840.065	18.25
840.237	19.12
840.408	19.71
840.579	23.45
840.751	20.93
840.922	19.62
841.093	16.3
841.265	15.04
841.436	16.51
841.607	18.79
841.778	14.14
841.95	9.79
842.121	13.53
842.292	15.87
842.463	22.25
842.635	24.28
842.806	27.27
842.977	22.29
843.148	22.51
843.319	21.25
843.49	25.85
843.661	27.27
843.832	26.06
844.003	26.89
844.174	27.34
844.345	31.32
844.516	35.37
844.687	38.02
844.858	36.36
845.029	34.14
845.2	35.91
845.371	36.16
845.542	35.76
845.713	26.76
845.884	23.87
846.055	13.36
846.225	12.12
846.396	7.17
846.567	14.6
846.738	10.27
846.909	16.64
847.079	11.62
847.25	12.38
847.421	11.5
847.591	4.66
847.762	0.35
847.933	-9.75
848.103	-8.8
848.274	-10.08
848.445	-4.28
848.615	-2.67
848.786	-5.55
848.956	1.28
849.127	7.61
849.297	19.85
849.468	14.22
849.638	22.45
849.809	22.75
849.979	21.44
850.15	19.19
850.32	23.75
850.491	20.65
850.661	25
850.831	22.88
851.002	22.46
851.172	27.49
851.342	27.11
851.513	29.75
851.683	28.9
851.853	27.51
852.024	23.22
852.194	22.48
852.364	22.02
852.534	19.86
852.705	17.97
852.875	14.84
853.045	19.21
853.215	17.37
853.385	21.17
853.555	23.4
853.725	23.49
853.895	20.69
854.066	18.56
854.236	14.88
854.406	13.57
854.576	22.22
854.746	16.61
854.916	18.18
855.086	20.56
855.256	24.63
855.425	29.23
855.595	35.28
855.765	34.53
855.935	28.96
856.105	24.58
856.275	28.32
856.445	23.02
856.614	19.53
856.784	19.97
856.954	11.72
857.124	6.6
857.294	3.41
857.463	2.95
857.633	8.5
857.803	4.88
857.972	10.28
858.142	8.35
858.312	15.65
858.481	23.63
858.651	21.18
858.821	17.37
858.99	13.45
859.16	15.35
859.329	18.33
859.499	27.29
859.668	36.84
859.838	34.72
860.007	41.81
860.177	42.49
860.346	47.24
860.516	50.21
860.685	56.35
860.854	54.43
861.024	59.27
861.193	56.1
861.363	60.63
861.532	57.39
861.701	53.57
861.87	50.71
862.04	44.05
862.209	47.27
862.378	51.06
862.547	49.21
862.717	44.2
862.886	46.66
863.055	44.96
863.224	43.28
863.393	42.79
863.563	38.86
863.732	38.73
863.901	31.6
864.07	39.98
864.239	37.49
864.408	39.43
864.577	35.38
864.746	44.44
864.915	41.32
865.084	45.95
865.253	44.62
865.422	47.18
865.591	52.67
865.76	51.51
865.929	48.26
866.097	48.95
866.266	47.28
866.435	46.49
866.604	50.48
866.773	46.28
866.942	54.13
867.11	53.93
867.279	58.67
867.448	66.39
867.617	57.21
867.785	60.29
867.954	62.59
868.123	64.87
868.291	40.83
868.46	44.08
868.629	33.33
868.797	38.11
868.966	26.73
869.134	28.68
869.303	28.05
869.472	25.45
869.64	24.85
869.809	33.69
869.977	27.94
870.146	22.07
870.314	24.05
870.482	16.23
870.651	19.73
870.819	16.72
870.988	14.69
871.156	10.34
871.324	9.02
871.493	-3.41
871.661	0.86
871.829	11.06
871.998	12.94
872.166	9.93
872.334	1.85
872.502	12.55
872.671	6.44
872.839	21.2
873.007	23.7
873.175	24.41
873.343	17.26
873.512	14.34
873.68	12.87
873.848	14.39
874.016	15.81
874.184	12.43
874.352	19.07
874.52	27.21
874.688	27.08
874.856	24.31
875.024	30.27
875.192	30.73
875.36	24.08
875.528	23.95
875.696	33.95
875.864	46.19
876.032	46.32
876.199	47.28
876.367	39.39
876.535	50.01
876.703	45.65
876.871	54.25
877.039	70.66
877.206	78.68
877.374	76.95
877.542	82.85
877.71	86.19
877.877	84.47
878.045	89.59
878.213	86.87
878.38	95.04
878.548	105.97
878.715	99.13
878.883	110.98
879.051	117.57
879.218	103.26
879.386	90.73
879.553	91.8
879.721	94.03
879.888	92.93
880.056	103.43
880.223	130.01
880.391	144.4
880.558	116
880.726	108.82
880.893	105.07
881.06	85.93
881.228	91.67
881.395	95.15
881.562	92.77
881.73	97.64
881.897	92.5
882.064	82.34
882.231	84.45
882.399	83.09
882.566	91.18
882.733	118.5
882.9	153.66
883.068	137.06
883.235	116.87
883.402	125.21
883.569	111.76
883.736	97.24
883.903	89.83
884.07	104.65
884.237	110.25
884.404	117.23
884.571	151.88
884.738	134.88
884.905	129.39
885.072	123.94
885.239	127.74
885.406	133.91
