#Video File Name: 11_risk-taking_3.avi
#Project ID: 11_risk-taking_3
#Event codes:
#1 also bal [hideg sarok]
#2 also kozepso
#3 also jobb
#4 kozepso bal
#5 kozepso kozep
#6 kozepso jobb
#7 felso bal
#8 felso kozep
#9 felso jobb [meleg sarok]
#q rejtekhely in [Q out]
#a napozas in [A out]
#z teljes test ki
#s inaktiv [S out]
#Field separator: ;
#MWrap version: Wed Feb 14 09:50:29 CET 2018
#id;description;key;time;duration;object id
#Restarted recording from the first position
1;rejtekhely in [Q out];q;7.50;0.00;1
2;q-end;Q;8.00;0.50;1
3;rejtekhely in [Q out];q;26.50;0.00;1
4;q-end;Q;90.00;63.50;1
5;teljes test ki;z;94.50;0.00;1
6;napozas in [A out];a;97.50;0.00;1
7;a-end;A;152.50;55.00;1
