#Video File Name: 15_exploration_3.avi
#Project ID: 15_exploration_3
#Event codes:
#1 also bal [hideg sarok]
#2 also kozepso
#3 also jobb
#4 kozepso bal
#5 kozepso kozep
#6 kozepso jobb
#7 felso bal
#8 felso kozep
#9 felso jobb [meleg sarok]
#q rejtekhely in [Q out]
#a napozas in [A out]
#z teljes test ki
#s inaktiv [S out]
#Field separator: ;
#MWrap version: Wed Feb 14 09:50:29 CET 2018
#id;description;key;time;duration;object id
1;felso jobb [meleg sarok];9;0.50;0.00;1
2;felso kozep;8;37.50;0.00;1
3;felso bal;7;48.00;0.00;1
4;kozepso bal;4;51.50;0.00;1
5;also bal [hideg sarok];1;54.50;0.00;1
6;also kozepso;2;56.00;0.00;1
7;also jobb;3;56.50;0.00;1
8;also kozepso;2;60.50;0.00;1
9;rejtekhely in [Q out];q;62.00;0.00;1
10;q-end;Q;64.00;2.00;1
11;kozepso jobb;6;64.00;0.00;1
12;felso jobb [meleg sarok];9;65.50;0.00;1
13;felso kozep;8;67.50;0.00;1
14;felso jobb [meleg sarok];9;77.00;0.00;1
15;felso kozep;8;78.00;0.00;1
16;felso bal;7;78.50;0.00;1
17;kozepso bal;4;81.00;0.00;1
18;also bal [hideg sarok];1;83.00;0.00;1
19;also kozepso;2;84.50;0.00;1
20;also bal [hideg sarok];1;85.00;0.00;1
21;also kozepso;2;86.50;0.00;1
22;also jobb;3;87.00;0.00;1
23;kozepso jobb;6;88.00;0.00;1
24;felso jobb [meleg sarok];9;89.50;0.00;1
25;felso kozep;8;91.50;0.00;1
26;felso bal;7;94.50;0.00;1
27;kozepso bal;4;98.50;0.00;1
28;also bal [hideg sarok];1;100.00;0.00;1
29;also kozepso;2;101.00;0.00;1
30;also bal [hideg sarok];1;101.50;0.00;1
31;kozepso bal;4;103.50;0.00;1
#32;felso kozep;8;106.00;0.00;1
33;kozepso kozep;5;106.00;0.00;1
34;kozepso jobb;6;107.50;0.00;1
35;felso jobb [meleg sarok];9;109.00;0.00;1
36;felso kozep;8;111.00;0.00;1
37;felso bal;7;112.00;0.00;1
38;kozepso bal;4;115.00;0.00;1
39;also bal [hideg sarok];1;117.00;0.00;1
40;also kozepso;2;117.50;0.00;1
41;also jobb;3;119.50;0.00;1
42;kozepso jobb;6;121.00;0.00;1
43;felso jobb [meleg sarok];9;122.00;0.00;1
44;felso kozep;8;133.50;0.00;1
45;felso bal;7;154.00;0.00;1
46;kozepso bal;4;157.00;0.00;1
47;also bal [hideg sarok];1;161.00;0.00;1
48;also kozepso;2;161.50;0.00;1
49;also jobb;3;163.00;0.00;1
50;also kozepso;2;166.00;0.00;1
51;also bal [hideg sarok];1;167.50;0.00;1
52;kozepso kozep;5;169.00;0.00;1
53;kozepso jobb;6;170.00;0.00;1
54;felso jobb [meleg sarok];9;171.00;0.00;1
55;kozepso jobb;6;183.00;0.00;1
56;also jobb;3;185.00;0.00;1
57;kozepso jobb;6;185.50;0.00;1
58;felso jobb [meleg sarok];9;186.50;0.00;1
59;felso kozep;8;188.00;0.00;1
60;felso bal;7;246.00;0.00;1
61;kozepso bal;4;249.50;0.00;1
62;also bal [hideg sarok];1;251.50;0.00;1
63;also kozepso;2;253.50;0.00;1
64;rejtekhely in [Q out];q;255.00;0.00;1
65;q-end;Q;258.00;3.00;1
66;kozepso jobb;6;258.50;0.00;1
67;felso jobb [meleg sarok];9;259.00;0.00;1
68;felso kozep;8;261.50;0.00;1
69;felso bal;7;262.00;0.00;1
70;felso kozep;8;268.00;0.00;1
71;felso bal;7;269.00;0.00;1
72;kozepso bal;4;275.00;0.00;1
73;kozepso kozep;5;275.50;0.00;1
74;also kozepso;2;276.00;0.00;1
75;also bal [hideg sarok];1;276.50;0.00;1
76;also kozepso;2;278.50;0.00;1
77;also jobb;3;279.00;0.00;1
78;kozepso jobb;6;280.50;0.00;1
79;felso jobb [meleg sarok];9;281.50;0.00;1
80;felso kozep;8;282.50;0.00;1
81;felso bal;7;285.00;0.00;1
82;kozepso bal;4;287.50;0.00;1
83;kozepso kozep;5;288.00;0.00;1
84;kozepso bal;4;288.50;0.00;1
85;also bal [hideg sarok];1;289.00;0.00;1
86;also kozepso;2;291.50;0.00;1
87;also jobb;3;293.50;0.00;1
88;kozepso jobb;6;294.50;0.00;1
89;felso jobb [meleg sarok];9;295.50;0.00;1
#90;felso kozep;8;296.00;0.00;1
91;felso kozep;8;308.50;0.00;1
92;felso bal;7;309.00;0.00;1
93;kozepso bal;4;311.00;0.00;1
94;also bal [hideg sarok];1;314.50;0.00;1
95;also kozepso;2;315.00;0.00;1
96;also jobb;3;316.00;0.00;1
97;also kozepso;2;320.00;0.00;1
98;kozepso kozep;5;323.50;0.00;1
#99;felso jobb [meleg sarok];9;324.50;0.00;1
100;kozepso jobb;6;324.50;0.00;1
101;felso jobb [meleg sarok];9;325.00;0.00;1
#102;felso kozep;8;334.00;0.00;1
103;felso kozep;8;340.50;0.00;1
104;kozepso kozep;5;348.50;0.00;1
105;kozepso jobb;6;350.50;0.00;1
106;felso jobb [meleg sarok];9;352.00;0.00;1
107;felso kozep;8;354.50;0.00;1
108;felso bal;7;367.00;0.00;1
109;kozepso bal;4;368.00;0.00;1
110;kozepso kozep;5;368.50;0.00;1
111;also kozepso;2;369.00;0.00;1
112;also jobb;3;371.50;0.00;1
113;kozepso jobb;6;373.00;0.00;1
114;felso jobb [meleg sarok];9;375.00;0.00;1
115;felso kozep;8;380.00;0.00;1
116;felso bal;7;380.50;0.00;1
117;kozepso bal;4;381.50;0.00;1
118;felso bal;7;382.50;0.00;1
119;kozepso bal;4;383.00;0.00;1
120;also bal [hideg sarok];1;385.00;0.00;1
121;also kozepso;2;385.50;0.00;1
122;also jobb;3;387.00;0.00;1
123;kozepso jobb;6;389.00;0.00;1
124;felso jobb [meleg sarok];9;390.00;0.00;1
125;felso kozep;8;393.00;0.00;1
126;felso bal;7;393.50;0.00;1
127;kozepso bal;4;396.00;0.00;1
128;also bal [hideg sarok];1;398.50;0.00;1
129;also kozepso;2;399.00;0.00;1
130;also jobb;3;402.00;0.00;1
131;kozepso jobb;6;402.50;0.00;1
132;felso jobb [meleg sarok];9;404.00;0.00;1
133;felso kozep;8;408.50;0.00;1
134;felso bal;7;409.00;0.00;1
135;kozepso bal;4;411.50;0.00;1
136;kozepso kozep;5;414.00;0.00;1
137;also kozepso;2;414.50;0.00;1
138;also jobb;3;419.00;0.00;1
139;kozepso jobb;6;420.00;0.00;1
140;felso jobb [meleg sarok];9;422.00;0.00;1
141;felso kozep;8;424.50;0.00;1
142;kozepso kozep;5;429.50;0.00;1
143;kozepso jobb;6;430.50;0.00;1
144;also jobb;3;431.00;0.00;1
145;also kozepso;2;431.50;0.00;1
146;kozepso kozep;5;432.00;0.00;1
147;felso kozep;8;434.50;0.00;1
148;felso jobb [meleg sarok];9;435.00;0.00;1
149;felso kozep;8;461.50;0.00;1
150;kozepso kozep;5;462.00;0.00;1
151;kozepso bal;4;463.00;0.00;1
152;also bal [hideg sarok];1;463.00;0.00;1
153;also kozepso;2;464.00;0.00;1
154;also jobb;3;465.00;0.00;1
155;kozepso jobb;6;467.00;0.00;1
156;felso jobb [meleg sarok];9;467.50;0.00;1
157;kozepso jobb;6;477.00;0.00;1
158;also jobb;3;478.00;0.00;1
159;also kozepso;2;480.00;0.00;1
160;kozepso kozep;5;481.00;0.00;1
161;felso kozep;8;482.00;0.00;1
162;felso bal;7;491.50;0.00;1
163;kozepso bal;4;493.00;0.00;1
164;also bal [hideg sarok];1;495.00;0.00;1
165;also kozepso;2;495.50;0.00;1
#166;also jobb;3;497.00;0.00;1
167;also jobb;3;498.50;0.00;1
168;kozepso jobb;6;499.50;0.00;1
169;felso jobb [meleg sarok];9;501.00;0.00;1
170;felso kozep;8;503.00;0.00;1
171;felso bal;7;511.50;0.00;1
172;kozepso bal;4;513.50;0.00;1
173;also bal [hideg sarok];1;517.50;0.00;1
174;also kozepso;2;518.00;0.00;1
175;also jobb;3;519.00;0.00;1
176;also kozepso;2;519.50;0.00;1
177;also jobb;3;521.00;0.00;1
178;kozepso jobb;6;521.50;0.00;1
179;felso jobb [meleg sarok];9;522.50;0.00;1
180;felso kozep;8;522.50;0.00;1
181;felso bal;7;530.00;0.00;1
182;kozepso bal;4;530.50;0.00;1
183;kozepso kozep;5;534.50;0.00;1
#184;kozepso jobb;6;535.00;0.00;1
185;also jobb;3;535.00;0.00;1
186;kozepso jobb;6;535.50;0.00;1
187;also jobb;3;537.00;0.00;1
188;also kozepso;2;538.00;0.00;1
189;kozepso kozep;5;538.50;0.00;1
190;felso kozep;8;539.50;0.00;1
191;felso bal;7;550.50;0.00;1
192;kozepso bal;4;551.50;0.00;1
193;felso bal;7;552.00;0.00;1
194;felso kozep;8;552.50;0.00;1
195;felso jobb [meleg sarok];9;554.50;0.00;1
196;kozepso jobb;6;557.00;0.00;1
197;also jobb;3;558.00;0.00;1
198;also kozepso;2;559.50;0.00;1
199;also bal [hideg sarok];1;561.00;0.00;1
200;kozepso bal;4;561.50;0.00;1
201;felso bal;7;564.00;0.00;1
202;felso kozep;8;567.00;0.00;1
#203;felso jobb [meleg sarok];9;567.50;0.00;1
204;felso jobb [meleg sarok];9;593.50;0.00;1
205;kozepso jobb;6;597.00;0.00;1
206;also kozepso;2;598.50;0.00;1
#207;also jobb;3;601.00;0.00;1
#208;also jobb;3;600.50;0.00;1
209;also jobb;3;603.00;0.00;1
210;kozepso jobb;6;603.50;0.00;1
211;felso jobb [meleg sarok];9;604.50;0.00;1
212;felso kozep;8;606.00;0.00;1
213;felso bal;7;613.50;0.00;1
214;kozepso bal;4;615.00;0.00;1
215;kozepso kozep;5;616.50;0.00;1
216;also kozepso;2;617.00;0.00;1
217;also jobb;3;618.00;0.00;1
218;kozepso jobb;6;620.00;0.00;1
219;felso jobb [meleg sarok];9;620.50;0.00;1
220;felso kozep;8;621.50;0.00;1
221;felso bal;7;627.00;0.00;1
222;kozepso bal;4;628.50;0.00;1
223;also bal [hideg sarok];1;631.50;0.00;1
224;also kozepso;2;632.50;0.00;1
225;also jobb;3;633.50;0.00;1
226;also kozepso;2;635.50;0.00;1
227;also bal [hideg sarok];1;636.50;0.00;1
228;kozepso bal;4;637.50;0.00;1
229;kozepso kozep;5;638.50;0.00;1
230;kozepso jobb;6;639.50;0.00;1
231;felso jobb [meleg sarok];9;640.00;0.00;1
232;felso kozep;8;640.50;0.00;1
233;felso bal;7;653.50;0.00;1
234;kozepso bal;4;654.50;0.00;1
235;also bal [hideg sarok];1;657.00;0.00;1
236;also kozepso;2;658.00;0.00;1
237;also jobb;3;659.00;0.00;1
238;kozepso jobb;6;660.00;0.00;1
239;kozepso kozep;5;660.50;0.00;1
240;felso kozep;8;661.00;0.00;1
241;felso jobb [meleg sarok];9;662.00;0.00;1
242;felso kozep;8;671.50;0.00;1
243;felso bal;7;672.50;0.00;1
244;kozepso bal;4;674.50;0.00;1
245;kozepso kozep;5;677.00;0.00;1
246;also kozepso;2;677.50;0.00;1
247;also jobb;3;684.50;0.00;1
248;kozepso jobb;6;685.00;0.00;1
249;felso jobb [meleg sarok];9;686.00;0.00;1
250;felso kozep;8;688.50;0.00;1
251;felso bal;7;689.00;0.00;1
252;kozepso bal;4;691.50;0.00;1
253;also bal [hideg sarok];1;693.50;0.00;1
254;also kozepso;2;696.50;0.00;1
#255;also jobb;3;700.00;0.00;1
256;also jobb;3;702.00;0.00;1
#257;kozepso jobb;6;703.00;0.00;1
#258;also kozepso;2;704.50;0.00;1
259;also kozepso;2;704.50;0.00;1
260;also jobb;3;705.50;0.00;1
261;also kozepso;2;705.50;0.00;1
262;also bal [hideg sarok];1;706.00;0.00;1
263;kozepso bal;4;707.50;0.00;1
264;kozepso kozep;5;709.00;0.00;1
265;rejtekhely in [Q out];q;711.00;0.00;1
266;q-end;Q;712.50;1.50;1
267;kozepso jobb;6;713.00;0.00;1
268;felso jobb [meleg sarok];9;713.00;0.00;1
269;felso kozep;8;723.00;0.00;1
270;felso bal;7;724.50;0.00;1
271;kozepso bal;4;742.50;0.00;1
272;also bal [hideg sarok];1;744.00;0.00;1
273;also kozepso;2;745.00;0.00;1
274;also bal [hideg sarok];1;746.00;0.00;1
275;also kozepso;2;746.50;0.00;1
276;also jobb;3;747.00;0.00;1
277;kozepso jobb;6;748.00;0.00;1
278;felso jobb [meleg sarok];9;749.00;0.00;1
279;felso kozep;8;751.00;0.00;1
280;felso bal;7;765.50;0.00;1
281;kozepso bal;4;767.50;0.00;1
282;also bal [hideg sarok];1;770.00;0.00;1
283;also kozepso;2;771.00;0.00;1
284;also jobb;3;772.00;0.00;1
285;kozepso jobb;6;773.50;0.00;1
286;felso jobb [meleg sarok];9;774.50;0.00;1
287;felso kozep;8;776.50;0.00;1
288;felso bal;7;805.50;0.00;1
289;kozepso bal;4;808.50;0.00;1
290;also bal [hideg sarok];1;810.50;0.00;1
291;also kozepso;2;811.00;0.00;1
292;also jobb;3;812.50;0.00;1
293;kozepso jobb;6;814.00;0.00;1
294;felso jobb [meleg sarok];9;815.00;0.00;1
295;felso kozep;8;816.50;0.00;1
296;felso bal;7;821.50;0.00;1
297;kozepso bal;4;825.00;0.00;1
298;also bal [hideg sarok];1;827.50;0.00;1
299;also kozepso;2;829.00;0.00;1
300;also jobb;3;832.50;0.00;1
301;also kozepso;2;836.50;0.00;1
302;rejtekhely in [Q out];q;838.50;0.00;1
303;q-end;Q;841.50;3.00;1
304;kozepso jobb;6;841.50;0.00;1
305;felso jobb [meleg sarok];9;842.00;0.00;1
306;felso kozep;8;845.00;0.00;1
307;felso bal;7;846.50;0.00;1
308;kozepso bal;4;879.50;0.00;1
309;also bal [hideg sarok];1;883.00;0.00;1
310;also kozepso;2;884.00;0.00;1
311;also jobb;3;885.00;0.00;1
312;kozepso jobb;6;886.00;0.00;1
313;felso jobb [meleg sarok];9;887.50;0.00;1
314;felso kozep;8;889.00;0.00;1
315;felso bal;7;895.50;0.00;1
316;kozepso bal;4;898.00;0.00;1
317;also bal [hideg sarok];1;900.00;0.00;1
318;also kozepso;2;901.50;0.00;1
319;also jobb;3;903.50;0.00;1
320;kozepso jobb;6;905.00;0.00;1
321;felso jobb [meleg sarok];9;905.50;0.00;1
322;felso kozep;8;915.50;0.00;1
323;felso bal;7;916.50;0.00;1
324;kozepso bal;4;921.00;0.00;1
325;also bal [hideg sarok];1;922.50;0.00;1
326;also kozepso;2;923.00;0.00;1
327;also jobb;3;924.50;0.00;1
328;kozepso jobb;6;925.50;0.00;1
329;felso jobb [meleg sarok];9;927.00;0.00;1
330;felso kozep;8;929.00;0.00;1
331;felso bal;7;938.50;0.00;1
332;kozepso bal;4;939.00;0.00;1
333;also bal [hideg sarok];1;942.00;0.00;1
334;also kozepso;2;942.50;0.00;1
335;also jobb;3;943.50;0.00;1
336;kozepso jobb;6;945.50;0.00;1
337;also jobb;3;946.00;0.00;1
338;also kozepso;2;949.50;0.00;1
#339;also bal [hideg sarok];1;951.00;0.00;1
340;kozepso kozep;5;952.50;0.00;1
341;felso kozep;8;954.50;0.00;1
342;felso jobb [meleg sarok];9;978.00;0.00;1
343;felso kozep;8;982.50;0.00;1
344;felso bal;7;983.00;0.00;1
345;felso kozep;8;988.00;0.00;1
346;felso bal;7;995.50;0.00;1
347;kozepso bal;4;1020.00;0.00;1
348;also bal [hideg sarok];1;1021.50;0.00;1
349;also kozepso;2;1022.00;0.00;1
#350;also bal [hideg sarok];1;1023.00;0.00;1
351;also jobb;3;1024.00;0.00;1
352;kozepso jobb;6;1026.50;0.00;1
353;felso jobb [meleg sarok];9;1027.50;0.00;1
354;felso kozep;8;1029.00;0.00;1
355;felso bal;7;1030.50;0.00;1
356;kozepso bal;4;1042.00;0.00;1
357;also bal [hideg sarok];1;1044.50;0.00;1
358;also kozepso;2;1045.00;0.00;1
#359;also bal [hideg sarok];1;1045.50;0.00;1
360;also bal [hideg sarok];1;1047.00;0.00;1
361;kozepso bal;4;1048.00;0.00;1
362;felso bal;7;1049.50;0.00;1
363;felso kozep;8;1055.50;0.00;1
364;felso jobb [meleg sarok];9;1061.00;0.00;1
365;kozepso jobb;6;1065.50;0.00;1
366;also jobb;3;1067.50;0.00;1
367;kozepso jobb;6;1072.50;0.00;1
368;felso jobb [meleg sarok];9;1074.00;0.00;1
369;felso kozep;8;1075.50;0.00;1
370;felso bal;7;1077.50;0.00;1
371;felso kozep;8;1127.50;0.00;1
372;felso jobb [meleg sarok];9;1128.50;0.00;1
373;kozepso kozep;5;1131.50;0.00;1
374;kozepso bal;4;1132.00;0.00;1
375;also bal [hideg sarok];1;1134.50;0.00;1
376;also kozepso;2;1135.50;0.00;1
377;also bal [hideg sarok];1;1136.00;0.00;1
378;also kozepso;2;1137.00;0.00;1
379;also jobb;3;1137.50;0.00;1
380;kozepso jobb;6;1139.00;0.00;1
381;felso jobb [meleg sarok];9;1140.00;0.00;1
382;felso kozep;8;1141.50;0.00;1
383;felso bal;7;1147.00;0.00;1
384;kozepso bal;4;1151.00;0.00;1
385;also bal [hideg sarok];1;1152.50;0.00;1
386;also kozepso;2;1153.50;0.00;1
387;also jobb;3;1155.00;0.00;1
388;kozepso jobb;6;1155.50;0.00;1
389;felso jobb [meleg sarok];9;1157.00;0.00;1
390;felso kozep;8;1160.00;0.00;1
#391;felso bal;7;1186.50;0.00;1
392;felso bal;7;1187.50;0.00;1
393;kozepso bal;4;1189.00;0.00;1
394;also bal [hideg sarok];1;1191.00;0.00;1
395;also kozepso;2;1192.50;0.00;1
396;also jobb;3;1193.00;0.00;1
397;kozepso jobb;6;1194.50;0.00;1
398;felso jobb [meleg sarok];9;1195.50;0.00;1
399;felso kozep;8;1198.00;0.00;1
400;felso jobb [meleg sarok];9;1198.50;0.00;1
401;felso kozep;8;1199.50;0.00;1
402;felso bal;7;1200.50;0.00;1
403;felso kozep;8;1201.00;0.00;1
404;felso bal;7;1202.00;0.00;1
405;kozepso bal;4;1205.00;0.00;1
406;also bal [hideg sarok];1;1208.00;0.00;1
407;also kozepso;2;1209.00;0.00;1
408;also jobb;3;1210.50;0.00;1
409;also kozepso;2;1214.50;0.00;1
410;also bal [hideg sarok];1;1215.50;0.00;1
411;kozepso bal;4;1217.00;0.00;1
412;kozepso kozep;5;1219.50;0.00;1
413;kozepso jobb;6;1221.00;0.00;1
#414;felso jobb [meleg sarok];9;1224.50;0.00;1
415;also jobb;3;1227.00;0.00;1
416;also kozepso;2;1228.50;0.00;1
417;kozepso kozep;5;1229.50;0.00;1
418;felso kozep;8;1230.50;0.00;1
419;felso bal;7;1259.00;0.00;1
420;kozepso bal;4;1261.00;0.00;1
421;kozepso kozep;5;1262.00;0.00;1
422;kozepso bal;4;1266.00;0.00;1
423;also bal [hideg sarok];1;1266.50;0.00;1
424;kozepso bal;4;1267.00;0.00;1
425;kozepso kozep;5;1269.00;0.00;1
426;felso jobb [meleg sarok];9;1270.00;0.00;1
427;felso kozep;8;1278.50;0.00;1
428;felso bal;7;1280.00;0.00;1
429;kozepso bal;4;1282.50;0.00;1
430;also bal [hideg sarok];1;1285.00;0.00;1
431;also kozepso;2;1285.50;0.00;1
432;also jobb;3;1286.50;0.00;1
433;kozepso jobb;6;1289.00;0.00;1
434;felso jobb [meleg sarok];9;1289.50;0.00;1
435;felso kozep;8;1291.00;0.00;1
436;felso bal;7;1292.00;0.00;1
437;kozepso bal;4;1295.00;0.00;1
438;also bal [hideg sarok];1;1297.50;0.00;1
439;also kozepso;2;1298.00;0.00;1
440;also jobb;3;1301.00;0.00;1
441;kozepso jobb;6;1302.00;0.00;1
442;felso jobb [meleg sarok];9;1303.00;0.00;1
443;felso kozep;8;1305.00;0.00;1
444;felso bal;7;1306.00;0.00;1
445;kozepso bal;4;1314.50;0.00;1
446;also bal [hideg sarok];1;1316.50;0.00;1
447;also kozepso;2;1317.00;0.00;1
448;also jobb;3;1318.50;0.00;1
449;kozepso jobb;6;1324.50;0.00;1
450;felso jobb [meleg sarok];9;1325.50;0.00;1
451;felso kozep;8;1328.00;0.00;1
452;felso bal;7;1329.00;0.00;1
453;kozepso bal;4;1342.00;0.00;1
454;also bal [hideg sarok];1;1343.50;0.00;1
#455;also kozepso;2;1344.50;0.00;1
456;also kozepso;2;1345.50;0.00;1
457;also bal [hideg sarok];1;1346.00;0.00;1
458;kozepso bal;4;1347.50;0.00;1
459;kozepso kozep;5;1349.50;0.00;1
460;rejtekhely in [Q out];q;1350.00;0.00;1
461;q-end;Q;1351.50;1.50;1
462;kozepso jobb;6;1352.00;0.00;1
463;felso jobb [meleg sarok];9;1352.50;0.00;1
464;felso kozep;8;1354.50;0.00;1
465;felso bal;7;1415.00;0.00;1
#466;kozepso bal;4;1416.50;0.00;1
467;kozepso bal;4;1417.50;0.00;1
468;felso bal;7;1418.00;0.00;1
469;felso kozep;8;1421.50;0.00;1
470;felso jobb [meleg sarok];9;1422.50;0.00;1
471;felso kozep;8;1425.50;0.00;1
472;felso bal;7;1432.50;0.00;1
473;kozepso bal;4;1435.50;0.00;1
474;kozepso kozep;5;1436.50;0.00;1
475;also kozepso;2;1437.50;0.00;1
476;also bal [hideg sarok];1;1438.00;0.00;1
477;also kozepso;2;1438.50;0.00;1
478;also jobb;3;1439.00;0.00;1
479;kozepso jobb;6;1440.00;0.00;1
480;felso jobb [meleg sarok];9;1441.00;0.00;1
481;felso kozep;8;1442.50;0.00;1
482;felso bal;7;1444.00;0.00;1
483;kozepso bal;4;1446.50;0.00;1
484;also bal [hideg sarok];1;1449.00;0.00;1
485;also kozepso;2;1450.50;0.00;1
486;rejtekhely in [Q out];q;1451.50;0.00;1
487;q-end;Q;1455.50;4.00;1
488;kozepso jobb;6;1456.00;0.00;1
489;felso jobb [meleg sarok];9;1459.00;0.00;1
490;felso kozep;8;1460.50;0.00;1
491;felso bal;7;1500.50;0.00;1
492;kozepso bal;4;1502.50;0.00;1
493;also bal [hideg sarok];1;1504.00;0.00;1
494;also kozepso;2;1505.00;0.00;1
495;also jobb;3;1506.00;0.00;1
496;kozepso jobb;6;1508.00;0.00;1
#497;felso jobb [meleg sarok];9;1509.00;0.00;1
498;felso jobb [meleg sarok];9;1510.50;0.00;1
499;felso kozep;8;1511.50;0.00;1
500;felso bal;7;1513.00;0.00;1
501;kozepso bal;4;1515.00;0.00;1
502;also bal [hideg sarok];1;1517.50;0.00;1
#503;also kozepso;2;1518.50;0.00;1
504;kozepso bal;4;1521.50;0.00;1
505;kozepso kozep;5;1523.00;0.00;1
506;kozepso jobb;6;1524.50;0.00;1
507;felso jobb [meleg sarok];9;1525.50;0.00;1
508;kozepso jobb;6;1528.50;0.00;1
509;felso jobb [meleg sarok];9;1530.50;0.00;1
510;felso kozep;8;1531.50;0.00;1
511;felso bal;7;1532.50;0.00;1
512;kozepso bal;4;1538.00;0.00;1
513;also bal [hideg sarok];1;1541.00;0.00;1
514;also kozepso;2;1543.50;0.00;1
515;rejtekhely in [Q out];q;1545.00;0.00;1
516;q-end;Q;1548.00;3.00;1
517;kozepso jobb;6;1548.50;0.00;1
518;felso jobb [meleg sarok];9;1549.50;0.00;1
519;felso kozep;8;1554.50;0.00;1
520;felso bal;7;1555.00;0.00;1
521;kozepso bal;4;1576.00;0.00;1
522;felso bal;7;1576.50;0.00;1
523;kozepso bal;4;1580.00;0.00;1
524;also bal [hideg sarok];1;1581.50;0.00;1
525;also kozepso;2;1583.50;0.00;1
526;also jobb;3;1585.00;0.00;1
527;also kozepso;2;1589.50;0.00;1
528;kozepso jobb;6;1592.00;0.00;1
529;felso jobb [meleg sarok];9;1593.00;0.00;1
530;kozepso jobb;6;1602.50;0.00;1
#531;kozepso jobb;6;1604.00;0.00;1
532;felso jobb [meleg sarok];9;1604.00;0.00;1
533;felso kozep;8;1610.00;0.00;1
534;felso bal;7;1611.50;0.00;1
#535;kozepso bal;4;1614.50;0.00;1
536;kozepso bal;4;1616.00;0.00;1
537;also bal [hideg sarok];1;1617.50;0.00;1
538;also kozepso;2;1619.00;0.00;1
539;also jobb;3;1619.50;0.00;1
540;kozepso jobb;6;1621.00;0.00;1
541;also jobb;3;1621.50;0.00;1
542;also kozepso;2;1624.50;0.00;1
#543;also jobb;3;1626.00;0.00;1
544;kozepso kozep;5;1628.00;0.00;1
545;felso kozep;8;1630.00;0.00;1
546;felso bal;7;1665.50;0.00;1
547;kozepso bal;4;1668.00;0.00;1
548;also bal [hideg sarok];1;1670.00;0.00;1
549;also kozepso;2;1670.50;0.00;1
550;also bal [hideg sarok];1;1671.50;0.00;1
551;also kozepso;2;1674.50;0.00;1
552;also jobb;3;1675.50;0.00;1
553;kozepso jobb;6;1677.00;0.00;1
554;felso jobb [meleg sarok];9;1678.00;0.00;1
#555;felso kozep;8;1680.50;0.00;1
556;felso kozep;8;1689.50;0.00;1
557;felso bal;7;1690.00;0.00;1
558;kozepso bal;4;1703.50;0.00;1
559;also bal [hideg sarok];1;1705.00;0.00;1
560;also kozepso;2;1706.00;0.00;1
561;also bal [hideg sarok];1;1707.50;0.00;1
562;also kozepso;2;1708.00;0.00;1
563;also jobb;3;1709.00;0.00;1
564;kozepso jobb;6;1712.00;0.00;1
565;felso jobb [meleg sarok];9;1713.00;0.00;1
566;felso kozep;8;1715.50;0.00;1
567;felso bal;7;1755.50;0.00;1
568;kozepso bal;4;1758.00;0.00;1
569;felso bal;7;1759.00;0.00;1
570;felso kozep;8;1761.50;0.00;1
571;felso jobb [meleg sarok];9;1762.50;0.00;1
572;felso kozep;8;1764.00;0.00;1
573;kozepso kozep;5;1764.50;0.00;1
574;kozepso jobb;6;1765.00;0.00;1
575;kozepso kozep;5;1766.00;0.00;1
576;also jobb;3;1767.50;0.00;1
#577;also kozepso;2;1770.00;0.00;1
578;also kozepso;2;1770.00;0.00;1
579;kozepso bal;4;1771.50;0.00;1
580;felso bal;7;1774.50;0.00;1
581;felso kozep;8;1776.00;0.00;1
582;felso bal;7;1787.00;0.00;1
583;kozepso bal;4;1789.50;0.00;1
584;also bal [hideg sarok];1;1791.50;0.00;1
585;also kozepso;2;1792.00;0.00;1
586;also bal [hideg sarok];1;1793.50;0.00;1
587;also kozepso;2;1794.00;0.00;1
588;also jobb;3;1794.50;0.00;1
589;kozepso jobb;6;1795.00;0.00;1
590;felso jobb [meleg sarok];9;1796.00;0.00;1
591;felso kozep;8;1798.50;0.00;1
592;felso bal;7;1800.50;0.00;1
