Data from Transmission_09-54-31-626.txt Node
Date: Fri Aug 24 09:54:31 EEST 2018
User: tibor.sos
Spectrometer: USB4F01757
Scans to average: 10
Trigger mode: 4
Integration Time (sec): 1.000000E-2
Electric dark correction enabled: true
Boxcar width: 10
XAxis mode: Wavelengths
Number of Pixels in Spectrum: 3648
>>>>>Begin Spectral Data<<<<<
178.758	30.65
178.974	77.1
179.191	41.1
179.407	46.91
179.624	21.18
179.84	15.89
180.057	-23.51
180.273	18.44
180.489	21.94
180.706	-42.28
180.922	-6.59
181.138	44.85
181.355	78.57
181.571	83.34
181.787	120.85
182.004	79.24
182.22	60.08
182.436	89.54
182.653	71.7
182.869	80.91
183.085	57.28
183.301	62.94
183.518	40.17
183.734	56.37
183.95	68.87
184.166	88.03
184.383	92.71
184.599	99.42
184.815	71.26
185.031	68.44
185.247	85.71
185.463	92.08
185.68	83.72
185.896	82.91
186.112	115.18
186.328	131.7
186.544	179.5
186.76	200.05
186.976	173.79
187.192	199.04
187.408	221.93
187.624	256.68
187.84	201.68
188.056	176.42
188.272	163.58
188.488	163.04
188.704	144.75
188.92	173.31
189.136	156.7
189.352	186.35
189.568	208.77
189.784	229.49
190	205.73
190.216	215.2
190.432	227.46
190.648	236.84
190.864	500.35
191.08	358.6
191.296	184.83
191.511	207.49
191.727	236.68
191.943	268.53
192.159	159.29
192.375	186.5
192.591	297.38
192.806	362.42
193.022	223.73
193.238	539.59
193.454	418.82
193.669	684.64
193.885	697.8
194.101	967.02
194.317	546.74
194.532	3046.07
194.748	-2170.59
194.964	931.16
195.18	404.89
195.395	288.96
195.611	255.88
195.827	464.24
196.042	659.84
196.258	367.86
196.473	247.14
196.689	338.78
196.905	472.24
197.12	1301.98
197.336	728.47
197.551	-744.71
197.767	194300
197.982	422.03
198.198	1784.93
198.414	942.7
198.629	336.03
198.845	274.04
199.06	406.76
199.276	324.7
199.491	1076.22
199.707	344.82
199.922	268.41
200.137	307.73
200.353	294.61
200.568	228.12
200.784	261.8
200.999	275.75
201.215	402.23
201.43	433.16
201.645	340.94
201.861	369.58
202.076	325.92
202.291	347.61
202.507	378.33
202.722	305.75
202.937	739.02
203.153	648.72
203.368	448.69
203.583	270.13
203.798	275.76
204.014	256.6
204.229	279.83
204.444	325.64
204.659	530.54
204.875	995.33
205.09	-2681.51
205.305	5613.21
205.52	-2314.63
205.735	-1812.57
205.951	10460
206.166	-550.63
206.381	-301.88
206.596	-4281.82
206.811	-1082.46
207.026	-917.71
207.241	-203.44
207.457	697.51
207.672	1701.65
207.887	-1464.49
208.102	-282.88
208.317	-233.96
208.532	740.68
208.747	-622.4
208.962	-447.49
209.177	767.11
209.392	184.11
209.607	79.79
209.822	113.62
210.037	136.67
210.252	185.49
210.467	224.95
210.682	140.99
210.897	104.38
211.112	63.06
211.326	85.86
211.541	9.31
211.756	18.41
211.971	-53.7
212.186	-36.38
212.401	-25.95
212.616	-49.6
212.831	-9.17
213.045	-21.3
213.26	-26.09
213.475	-47.48
213.69	-33.86
213.905	-108.5
214.119	-621.27
214.334	5514.81
214.549	734.01
214.764	-800.52
214.978	-257
215.193	-202.77
215.408	-705.13
215.622	141.51
215.837	1188.89
216.052	-1070.11
216.266	-340
216.481	-330.4
216.696	-97.38
216.91	2893.94
217.125	342.55
217.34	758.03
217.554	691.35
217.769	-332.02
217.983	-183.2
218.198	-445.05
218.412	-793.25
218.627	634.08
218.842	348.68
219.056	253.86
219.271	238.29
219.485	307.9
219.7	290.49
219.914	178.12
220.129	269.34
220.343	154.55
220.558	122.38
220.772	86.79
220.986	128.34
221.201	337.14
221.415	-323.23
221.63	-90.47
221.844	-60.37
222.058	-114.73
222.273	-43.46
222.487	-16.78
222.702	47.54
222.916	24.36
223.13	3.36
223.344	-40.65
223.559	-33.37
223.773	-0.76
223.987	-23.56
224.202	-45.74
224.416	-63.16
224.63	-59.3
224.844	-77.19
225.059	-67.81
225.273	-1700
225.487	1266.4
225.701	157.91
225.915	104.31
226.13	128.83
226.344	138.9
226.558	102.33
226.772	113.16
226.986	103.9
227.2	124.25
227.415	109.47
227.629	119.45
227.843	102.34
228.057	93.84
228.271	90.29
228.485	97.12
228.699	86.78
228.913	91.99
229.127	96.39
229.341	138.43
229.555	162.53
229.769	194.21
229.983	300
230.197	296.09
230.411	488.96
230.625	420.29
230.839	287.01
231.053	370.03
231.267	860.85
231.481	581.69
231.695	451.35
231.909	309.93
232.122	214.31
232.336	252.59
232.55	319.87
232.764	379.57
232.978	350.65
233.192	504.01
233.405	704.86
233.619	456.81
233.833	175.48
234.047	372.17
234.261	607.89
234.474	370.18
234.688	-708.37
234.902	-357.78
235.116	-187.48
235.329	-112.32
235.543	-423.45
235.757	-167.12
235.97	-111.46
236.184	-110.28
236.398	-26.95
236.612	13.62
236.825	33.98
237.039	44.03
237.252	-2.41
237.466	-169.26
237.68	-933.9
237.893	55900
238.107	467.59
238.32	-729.57
238.534	217.51
238.748	169.03
238.961	185.18
239.175	257.99
239.388	265.13
239.602	445.45
239.815	211.37
240.029	198.52
240.242	142.67
240.456	154.26
240.669	194.37
240.882	165.23
241.096	316.06
241.309	229.13
241.523	219.29
241.736	135.24
241.95	-243.02
242.163	345.11
242.376	150.77
242.59	-7.2
242.803	-3006.67
243.016	-196.68
243.23	-563.87
243.443	-873.33
243.656	-235.34
243.87	39.68
244.083	59.79
244.296	76.46
244.509	97.45
244.723	67.11
244.936	53.39
245.149	26.26
245.362	49.32
245.576	52.26
245.789	64.54
246.002	85.15
246.215	108.41
246.428	96.6
246.641	79.45
246.855	115.41
247.068	121.23
247.281	93.7
247.494	64.42
247.707	90.42
247.92	100.12
248.133	87.44
248.346	122.73
248.559	97.53
248.772	96.13
248.985	70.03
249.198	74.2
249.411	73.43
249.624	65.95
249.837	74.08
250.05	70.72
250.263	75.52
250.476	79.7
250.689	71.58
250.902	71.17
251.115	65.76
251.328	50.55
251.541	49.58
251.754	52.05
251.967	47.34
252.18	43.16
252.393	44.01
252.605	42.18
252.818	34.65
253.031	27.45
253.244	25.8
253.457	24.94
253.67	19.19
253.882	28.66
254.095	29.1
254.308	29.91
254.521	32.82
254.733	31.26
254.946	33.81
255.159	36.14
255.372	32.48
255.584	40.09
255.797	41.75
256.01	43.77
256.222	38.15
256.435	38.12
256.648	45.07
256.86	50.09
257.073	72.38
257.285	74.56
257.498	90.17
257.711	95.4
257.923	79.98
258.136	94.71
258.348	79.17
258.561	79.06
258.773	58.64
258.986	53.13
259.198	61.26
259.411	42.28
259.623	50.45
259.836	45.66
260.048	45.07
260.261	62.99
260.473	58.43
260.686	57.89
260.898	59.9
261.111	46.66
261.323	42.46
261.535	27.96
261.748	30.7
261.96	32.13
262.173	31.36
262.385	35.28
262.597	37.17
262.81	48.8
263.022	57.15
263.234	70.15
263.447	72.7
263.659	75.93
263.871	82
264.083	74.84
264.296	72.76
264.508	73.17
264.72	66.85
264.932	73.53
265.145	70.27
265.357	63.45
265.569	66.89
265.781	67.85
265.993	91.86
266.205	114.99
266.418	111.69
266.63	121.39
266.842	116.32
267.054	88.56
267.266	54.26
267.478	62.19
267.69	41.35
267.902	17.87
268.114	16.57
268.326	12.96
268.538	20.79
268.75	32.62
268.962	27.23
269.174	39.87
269.386	32
269.598	48.33
269.81	54.91
270.022	53.23
270.234	45.96
270.446	36.74
270.658	23.76
270.87	30.41
271.082	35.05
271.294	40.19
271.506	43.2
271.718	45.02
271.929	40.76
272.141	40.9
272.353	43.87
272.565	41.67
272.777	42.48
272.989	42.48
273.2	43.69
273.412	45.23
273.624	45.88
273.836	47.97
274.047	47.53
274.259	48.99
274.471	48.59
274.683	49.45
274.894	56.71
275.106	63.67
275.318	63.42
275.529	59.86
275.741	54.8
275.953	54.81
276.164	56.55
276.376	58.39
276.588	62.05
276.799	66.37
277.011	72.04
277.222	87.95
277.434	72.72
277.646	72.69
277.857	73.31
278.069	65.52
278.28	57.81
278.492	56.15
278.703	49.76
278.915	57.91
279.126	59.12
279.338	47.12
279.549	52.28
279.761	39.89
279.972	43.73
280.183	39.32
280.395	40.42
280.606	37.37
280.818	29.69
281.029	30.2
281.24	30.54
281.452	29.51
281.663	15.34
281.875	23.12
282.086	20.11
282.297	15.51
282.508	18.81
282.72	22.03
282.931	20.51
283.142	15.31
283.354	9.93
283.565	10.9
283.776	21.26
283.987	1.73
284.199	17.86
284.41	22.25
284.621	33.31
284.832	37.68
285.043	41.2
285.254	45.1
285.466	43.61
285.677	42
285.888	32.03
286.099	34.88
286.31	39.49
286.521	36.47
286.732	36.75
286.943	35.53
287.154	33.81
287.366	31.63
287.577	35.47
287.788	33.14
287.999	30.65
288.21	15.16
288.421	21.66
288.632	16.81
288.843	18.04
289.054	21.2
289.264	11.57
289.475	8.85
289.686	20.65
289.897	17.46
290.108	22.97
290.319	24.44
290.53	23.63
290.741	17.8
290.952	21.6
291.163	23.43
291.373	26.06
291.584	30.28
291.795	30.83
292.006	35.65
292.217	29.4
292.427	37.01
292.638	45.04
292.849	40.04
293.06	44.4
293.27	39
293.481	40.19
293.692	45.49
293.903	43.89
294.113	39.7
294.324	47.08
294.535	37.74
294.745	43.67
294.956	49.71
295.167	48.98
295.377	48.55
295.588	53.9
295.798	45.88
296.009	39.22
296.22	39.58
296.43	31.06
296.641	36.53
296.851	30.06
297.062	28.82
297.272	32.56
297.483	27.83
297.693	31.47
297.904	26.34
298.114	21.53
298.325	21.89
298.535	17.15
298.746	19.03
298.956	26.87
299.167	19.88
299.377	17.01
299.587	18.09
299.798	18.77
300.008	12.05
300.219	22.21
300.429	26.53
300.639	25.96
300.85	29.63
301.06	23.74
301.27	27.64
301.481	29.01
301.691	28.94
301.901	33.8
302.111	33.79
302.322	39.76
302.532	42.27
302.742	45.82
302.952	47.85
303.163	41.96
303.373	34.17
303.583	36.41
303.793	34.17
304.003	36.47
304.214	35.81
304.424	36.33
304.634	29.25
304.844	23.38
305.054	30.09
305.264	32.52
305.474	38.86
305.684	36.17
305.894	38.4
306.104	37.53
306.314	30.78
306.525	29.34
306.735	26.47
306.945	23.37
307.155	25.14
307.365	27.03
307.575	36.04
307.784	37.95
307.994	32.39
308.204	32.15
308.414	35.56
308.624	33.09
308.834	35.18
309.044	37.47
309.254	44.72
309.464	38.85
309.674	33.39
309.884	26.81
310.093	31.78
310.303	31.39
310.513	36.93
310.723	38.61
310.933	38.23
311.142	37.48
311.352	39.99
311.562	43.63
311.772	43.15
311.981	33.43
312.191	35.06
312.401	37.41
312.611	38.19
312.82	32.89
313.03	34.24
313.24	31.44
313.449	32.43
313.659	26.7
313.869	23.41
314.078	23.28
314.288	30.98
314.497	23.94
314.707	25.57
314.917	22.88
315.126	31.5
315.336	28.55
315.545	26.58
315.755	26.79
315.964	24.86
316.174	30.17
316.383	28.81
316.593	28.69
316.802	30.4
317.012	29.03
317.221	30.65
317.431	35.56
317.64	37.68
317.849	31.84
318.059	38.15
318.268	44.45
318.478	49.99
318.687	47.57
318.896	49.41
319.106	46.2
319.315	44.73
319.524	34.29
319.734	33.02
319.943	31.73
320.152	28.93
320.362	23.52
320.571	20.2
320.78	26.08
320.989	25.43
321.199	23.35
321.408	25.47
321.617	24.76
321.826	21.44
322.035	17.06
322.245	20.15
322.454	20.11
322.663	12.02
322.872	4.82
323.081	3
323.29	-1.31
323.5	-3.77
323.709	-2.2
323.918	1.58
324.127	3.48
324.336	-2.71
324.545	-2.51
324.754	-0.86
324.963	-2.11
325.172	-4.07
325.381	-1.67
325.59	3.25
325.799	0.66
326.008	1.74
326.217	0.85
326.426	3.95
326.635	4.69
326.844	2.95
327.053	14.47
327.262	19.04
327.47	13.36
327.679	17.55
327.888	21.25
328.097	21.33
328.306	23.68
328.515	19.23
328.724	33.32
328.932	34.64
329.141	35.23
329.35	30.21
329.559	34.49
329.768	35.85
329.976	31.68
330.185	29.93
330.394	24.64
330.602	26.81
330.811	20.55
331.02	19.45
331.229	19.01
331.437	20.14
331.646	23.65
331.855	25.09
332.063	24
332.272	26.32
332.48	23.65
332.689	27.77
332.898	31.03
333.106	21.08
333.315	22.47
333.523	22.79
333.732	25.41
333.94	26.32
334.149	20.17
334.357	10.27
334.566	19.38
334.774	33.88
334.983	36.03
335.191	37.88
335.4	43.51
335.608	39.61
335.817	40.77
336.025	39.31
336.234	48.68
336.442	47.59
336.65	39.48
336.859	43.67
337.067	39.12
337.275	43.31
337.484	44.06
337.692	45.63
337.9	51.32
338.109	54.14
338.317	48.65
338.525	56.04
338.734	72.53
338.942	66.06
339.15	51.89
339.358	43.61
339.567	56.66
339.775	50.04
339.983	49.93
340.191	45.65
340.399	45.34
340.608	43.21
340.816	46.47
341.024	46.7
341.232	38.6
341.44	42.23
341.648	38.69
341.856	34.93
342.064	31.65
342.272	27.52
342.481	33.65
342.689	34.46
342.897	27.38
343.105	26.87
343.313	33.87
343.521	36.16
343.729	36.14
343.937	25.97
344.145	23.74
344.353	25.95
344.56	24.48
344.768	20.57
344.976	17.71
345.184	10.98
345.392	8.27
345.6	12.41
345.808	9.28
346.016	11.84
346.224	18.8
346.431	27.81
346.639	29.78
346.847	21.82
347.055	22.84
347.263	22.99
347.471	13.02
347.678	6.91
347.886	-3.69
348.094	1.42
348.302	11.63
348.509	17.55
348.717	18.92
348.925	23.51
349.132	22.52
349.34	16.89
349.548	21.93
349.755	24.66
349.963	27.05
350.171	23.09
350.378	17.89
350.586	9.94
350.793	2.1
351.001	4.98
351.209	6.58
351.416	13.25
351.624	14.36
351.831	18.65
352.039	15.11
352.246	18.27
352.454	4.12
352.661	2.31
352.869	-0.79
353.076	-3.75
353.284	4.58
353.491	15.07
353.699	10.45
353.906	20.67
354.113	23.14
354.321	16.5
354.528	22.13
354.736	19.72
354.943	23.53
355.15	20.09
355.358	17.11
355.565	12.93
355.772	13.64
355.98	21.28
356.187	19.69
356.394	19.1
356.601	28.39
356.809	36.52
357.016	37.92
357.223	39.07
357.43	42.51
357.638	38.51
357.845	35.1
358.052	39.01
358.259	37.06
358.466	33.48
358.673	32.07
358.881	28.23
359.088	35.27
359.295	35.99
359.502	34.39
359.709	32.3
359.916	30.39
360.123	26.71
360.33	18.29
360.537	22.27
360.744	30.7
360.951	17.29
361.158	6.97
361.365	0.27
361.572	7.93
361.779	14.57
361.986	11.07
362.193	13.68
362.4	18.32
362.607	6.25
362.814	7.96
363.021	15.07
363.228	15.01
363.435	22.47
363.641	17.44
363.848	21.67
364.055	21.73
364.262	30.31
364.469	31.75
364.676	35.53
364.882	34.93
365.089	28.72
365.296	33.98
365.503	39.96
365.709	36.9
365.916	34.72
366.123	29.14
366.33	30.97
366.536	37.58
366.743	30.9
366.95	35.15
367.156	44.04
367.363	48.4
367.57	47.95
367.776	38.33
367.983	41.39
368.19	38.73
368.396	43.25
368.603	41.29
368.809	40.59
369.016	42.63
369.222	38.93
369.429	41.02
369.635	39.56
369.842	39.6
370.048	52.51
370.255	49.39
370.461	49.94
370.668	52.73
370.874	43.74
371.081	49.07
371.287	53.14
371.494	47.31
371.7	44.4
371.906	36.21
372.113	37.94
372.319	37.81
372.526	40.03
372.732	38.44
372.938	36.82
373.145	35.69
373.351	28.47
373.557	29.85
373.763	28.69
373.97	28.42
374.176	31.15
374.382	23.84
374.588	24.4
374.795	16.77
375.001	13.31
375.207	12.69
375.413	12.56
375.62	6.55
375.826	8.05
376.032	11.39
376.238	15.31
376.444	13.42
376.65	16.62
376.856	8.17
377.062	5.97
377.269	14.65
377.475	5.08
377.681	10.2
377.887	12.68
378.093	5.44
378.299	8.63
378.505	8.28
378.711	7.43
378.917	6.15
379.123	11.52
379.329	16.07
379.535	25.9
379.741	27.21
379.947	24.59
380.152	26.86
380.358	22.34
380.564	23.86
380.77	18.2
380.976	17.06
381.182	26.66
381.388	29.05
381.594	25.91
381.799	34.73
382.005	32.39
382.211	33.52
382.417	42.74
382.623	39.55
382.828	41.14
383.034	39.68
383.24	40.36
383.445	44.77
383.651	42.19
383.857	28.96
384.063	25.23
384.268	17.43
384.474	15.33
384.68	10.69
384.885	12.29
385.091	13.76
385.296	12.26
385.502	5.66
385.708	-1.09
385.913	-3.18
386.119	-6.32
386.324	-6.17
386.53	-8.61
386.735	-24.73
386.941	-11.75
387.146	-8.97
387.352	4.46
387.557	8.25
387.763	7.02
387.968	-0.87
388.174	8.42
388.379	9.96
388.585	22.76
388.79	23.08
388.996	31.78
389.201	43.44
389.406	39.81
389.612	41.15
389.817	43.99
390.022	51.77
390.228	51.62
390.433	47.17
390.638	41.72
390.844	45.69
391.049	43.78
391.254	46.25
391.459	35.45
391.665	32.62
391.87	35.62
392.075	35.7
392.28	42.18
392.485	42.84
392.691	38.64
392.896	30.06
393.101	26.42
393.306	28.44
393.511	32.84
393.716	41.47
393.922	44.85
394.127	39.62
394.332	36.08
394.537	37.14
394.742	39.26
394.947	36.35
395.152	33.4
395.357	35.8
395.562	35.27
395.767	32.74
395.972	37.58
396.177	33.26
396.382	32.33
396.587	25.88
396.792	26.25
396.997	28.87
397.202	36.32
397.407	35.65
397.611	33.88
397.816	29.27
398.021	20.33
398.226	16.67
398.431	21.78
398.636	18.77
398.841	17.59
399.045	19.42
399.25	23.52
399.455	18.73
399.66	16.89
399.864	8.74
400.069	12.49
400.274	11.33
400.479	13.01
400.683	10.95
400.888	15.93
401.093	2.33
401.297	2.76
401.502	-5.41
401.707	-12.23
401.911	-11.24
402.116	-16.63
402.321	5.73
402.525	6.21
402.73	2.02
402.934	5.37
403.139	10.17
403.344	4.7
403.548	-0.09
403.753	1.66
403.957	3.52
404.162	8.69
404.366	16.43
404.571	8.98
404.775	9.85
404.98	10.84
405.184	14.68
405.388	26.6
405.593	26.34
405.797	25.72
406.002	36.12
406.206	36.21
406.41	33.8
406.615	34.62
406.819	41.5
407.023	42.95
407.228	38.95
407.432	29.64
407.636	32.2
407.841	42.29
408.045	53.79
408.249	44.78
408.453	48.02
408.658	51.48
408.862	59.3
409.066	59.98
409.27	60.77
409.474	61.65
409.679	59.66
409.883	63.27
410.087	76.61
410.291	74.39
410.495	68.09
410.699	80.81
410.903	76.35
411.108	67.88
411.312	66.88
411.516	65.47
411.72	71.52
411.924	61.82
412.128	55.7
412.332	37.07
412.536	47.23
412.74	45.45
412.944	41.92
413.148	29.03
413.352	26.85
413.556	27.34
413.76	19.95
413.964	27.78
414.167	30.4
414.371	22.06
414.575	20.6
414.779	17.39
414.983	12.84
415.187	12.44
415.391	0.41
415.594	2.38
415.798	14.88
416.002	10.46
416.206	16.99
416.41	24.2
416.613	26.72
416.817	23.63
417.021	20.71
417.225	22.31
417.428	23.72
417.632	13.25
417.836	15.81
418.039	20.56
418.243	25.23
418.447	16.93
418.65	32.53
418.854	34.16
419.057	41.24
419.261	43.43
419.465	46.04
419.668	52.82
419.872	48.2
420.075	39.77
420.279	44.15
420.482	52.77
420.686	47.14
420.889	51.02
421.093	49.73
421.296	49.09
421.5	40.72
421.703	44.89
421.907	58.97
422.11	58.76
422.314	60.8
422.517	49.55
422.72	41.82
422.924	39.52
423.127	37.1
423.33	35.41
423.534	34.15
423.737	32.03
423.94	41.27
424.144	55.07
424.347	62.94
424.55	67.32
424.754	60.6
424.957	61.64
425.16	57.36
425.363	57.08
425.567	59.76
425.77	58.71
425.973	56.14
426.176	48.19
426.379	50.36
426.582	51.81
426.786	57.16
426.989	58.68
427.192	59.21
427.395	60.8
427.598	53.72
427.801	48.83
428.004	47.65
428.207	44.61
428.41	40.29
428.613	37.41
428.816	35.78
429.019	37.25
429.222	32.73
429.425	35.1
429.628	35.82
429.831	35.51
430.034	35.3
430.237	35.05
430.44	33.08
430.643	27.05
430.846	27.65
431.049	26.66
431.252	27.79
431.454	27.48
431.657	25.97
431.86	33.13
432.063	33.66
432.266	34.41
432.469	25.64
432.671	24.84
432.874	31.89
433.077	19.87
433.28	22.63
433.482	25.95
433.685	18.43
433.888	21.53
434.09	24.66
434.293	21.92
434.496	17.92
434.698	17.12
434.901	19.73
435.104	24.41
435.306	26.47
435.509	28.67
435.712	32.33
435.914	20.75
436.117	33.08
436.319	49.85
436.522	43.85
436.724	56.94
436.927	58.52
437.129	52.27
437.332	74.79
437.534	69.81
437.737	78.93
437.939	78.51
438.142	78.23
438.344	72.01
438.547	92.43
438.749	96.14
438.951	97.29
439.154	110.11
439.356	101.08
439.558	103.63
439.761	100.04
439.963	89.53
440.165	80.62
440.368	80.99
440.57	59.81
440.772	65.75
440.975	43.51
441.177	48.91
441.379	42.9
441.581	34.92
441.784	32.62
441.986	36.69
442.188	27.46
442.39	22.93
442.592	16.69
442.795	20.43
442.997	18.14
443.199	18.19
443.401	16.92
443.603	17.56
443.805	22.98
444.007	26.17
444.209	23.64
444.411	30.33
444.613	20.21
444.815	31.78
445.017	31.14
445.219	33.88
445.421	31.41
445.623	32.96
445.825	29.06
446.027	27.33
446.229	21.91
446.431	41.47
446.633	37.53
446.835	47.14
447.037	43.92
447.239	50.9
447.441	54.36
447.643	53.3
447.844	54.32
448.046	60.05
448.248	59.07
448.45	74.92
448.652	81.11
448.853	83.1
449.055	82.54
449.257	82.8
449.459	83.01
449.66	80.03
449.862	77.29
450.064	80.29
450.266	78.27
450.467	74.42
450.669	77.07
450.871	89.39
451.072	85.27
451.274	96.62
451.475	74.5
451.677	68.87
451.879	74.9
452.08	64.81
452.282	50.96
452.483	63.76
452.685	49.92
452.886	44.49
453.088	34.01
453.289	21.13
453.491	27.06
453.692	32.57
453.894	41.09
454.095	50.55
454.297	41.53
454.498	43.01
454.7	48.78
454.901	41.58
455.102	40.73
455.304	47.43
455.505	35.12
455.706	35.72
455.908	34.12
456.109	37.95
456.31	44.49
456.512	41.78
456.713	37.38
456.914	38.37
457.116	32.72
457.317	39.44
457.518	41.21
457.719	36.72
457.921	38.06
458.122	26.09
458.323	21.82
458.524	28.31
458.725	29.31
458.926	22.27
459.128	15.19
459.329	6.99
459.53	-2.77
459.731	-3.35
459.932	-3.44
460.133	1.52
460.334	4.19
460.535	-0.02
460.736	9.35
460.937	3
461.138	-3.72
461.339	2.84
461.54	0.05
461.741	-0.52
461.942	-0.28
462.143	5.9
462.344	3.16
462.545	2.24
462.746	-3.32
462.947	-4.64
463.148	6.01
463.348	13.85
463.549	23.94
463.75	20.31
463.951	24.81
464.152	25.08
464.353	18.44
464.553	26.91
464.754	30.52
464.955	24.65
465.156	27.8
465.356	31.89
465.557	27.78
465.758	33.12
465.959	39.04
466.159	38.75
466.36	33.52
466.561	43.03
466.761	45.23
466.962	43.35
467.163	50.61
467.363	48.12
467.564	48.05
467.764	48.62
467.965	46.42
468.166	40.68
468.366	46.65
468.567	54.41
468.767	53.35
468.968	52.77
469.168	53.6
469.369	58.98
469.569	48.05
469.77	49.93
469.97	44.18
470.17	37.24
470.371	37.81
470.571	35.56
470.772	36.9
470.972	41.34
471.172	42.45
471.373	31.76
471.573	33.01
471.773	34.48
471.974	36.34
472.174	40.78
472.374	42.17
472.575	40.76
472.775	40.24
472.975	32.71
473.175	35.02
473.376	32.92
473.576	30.49
473.776	34.06
473.976	35.67
474.177	43.27
474.377	46.72
474.577	48.36
474.777	44.39
474.977	40.24
475.177	36.64
475.377	38.91
475.577	46.84
475.777	45.48
475.978	42.18
476.178	36.11
476.378	37.26
476.578	41.85
476.778	39.11
476.978	38.03
477.178	40.5
477.378	38.59
477.578	36.62
477.778	33.9
477.977	32.13
478.177	30.38
478.377	26.87
478.577	23.73
478.777	30
478.977	35.84
479.177	34.41
479.377	33.1
479.577	27.63
479.776	27.17
479.976	26.38
480.176	26.73
480.376	30.08
480.576	28.31
480.775	25.25
480.975	29.88
481.175	20.66
481.374	19.54
481.574	19.7
481.774	22.52
481.974	25.29
482.173	23.76
482.373	22.48
482.572	22.72
482.772	27.78
482.972	24.39
483.171	22.18
483.371	27.21
483.57	26.5
483.77	31.57
483.97	27.12
484.169	26.39
484.369	25.09
484.568	22.94
484.768	22
484.967	23.94
485.167	23.31
485.366	27.43
485.566	25.46
485.765	26.94
485.964	23.21
486.164	22.96
486.363	24.75
486.563	24.38
486.762	27.55
486.961	29.87
487.161	31.73
487.36	31.7
487.559	29.56
487.759	28.25
487.958	23.01
488.157	20.84
488.356	24.09
488.556	26.92
488.755	27.56
488.954	27.84
489.153	28.01
489.353	26.42
489.552	27.03
489.751	22.26
489.95	20.11
490.149	26.57
490.348	26.94
490.548	30.64
490.747	33.59
490.946	33.65
491.145	27.5
491.344	19.47
491.543	20.55
491.742	20.89
491.941	18.93
492.14	16.94
492.339	17.54
492.538	12.85
492.737	12.5
492.936	13.77
493.135	11.98
493.334	6.36
493.533	1.48
493.732	4.49
493.931	16.6
494.13	16.11
494.328	15.08
494.527	13.67
494.726	10.72
494.925	10.6
495.124	5.3
495.323	8.55
495.521	13
495.72	12.22
495.919	10.9
496.118	14.51
496.316	16.74
496.515	19.31
496.714	18.22
496.913	18.71
497.111	20.94
497.31	18.96
497.509	19.37
497.707	21.74
497.906	23.28
498.105	17.3
498.303	17.99
498.502	15.84
498.7	18.67
498.899	16.13
499.097	16.28
499.296	18.24
499.495	18.43
499.693	17.59
499.892	17.76
500.09	15.64
500.289	17.59
500.487	17.15
500.686	16.7
500.884	14.41
501.082	11.84
501.281	5.77
501.479	10.47
501.678	14.17
501.876	11.19
502.074	8.97
502.273	11.3
502.471	9.11
502.669	10.04
502.868	6.33
503.066	10.16
503.264	13.84
503.463	11.53
503.661	9.26
503.859	7.01
504.057	9.03
504.256	14.79
504.454	9.88
504.652	12.25
504.85	11.64
505.048	17.72
505.246	18.6
505.445	21.82
505.643	22.98
505.841	23.78
506.039	27.04
506.237	26.89
506.435	26.46
506.633	28.02
506.831	31.11
507.029	31.02
507.227	33.73
507.425	33.34
507.623	34.47
507.821	31.04
508.019	32.69
508.217	32.63
508.415	31.64
508.613	34.24
508.811	31.44
509.009	30.65
509.207	32.26
509.405	32.2
509.603	33.21
509.8	33.14
509.998	30.74
510.196	28.36
510.394	29.04
510.592	27.26
510.79	23.38
510.987	18.24
511.185	19.6
511.383	16.02
511.581	13.56
511.778	16.72
511.976	18.2
512.174	15.75
512.371	12.91
512.569	11.01
512.767	13.28
512.964	11.44
513.162	13.06
513.36	7.72
513.557	3.56
513.755	-1.6
513.952	-0.65
514.15	-4.62
514.348	0.73
514.545	-2.46
514.743	5.98
514.94	10.96
515.138	14.87
515.335	15.25
515.533	12.59
515.73	11.85
515.927	5.72
516.125	7.56
516.322	9.43
516.52	13.27
516.717	13.06
516.915	12.84
517.112	15.71
517.309	13.2
517.507	17.73
517.704	19.37
517.901	18.85
518.099	19.96
518.296	25.56
518.493	26.97
518.69	30.1
518.888	25.45
519.085	25.28
519.282	23.98
519.479	25.83
519.676	25.46
519.874	23.68
520.071	25.45
520.268	25.62
520.465	26.09
520.662	26.43
520.859	26.6
521.056	23.5
521.254	22.91
521.451	27.21
521.648	26.82
521.845	26.97
522.042	28.43
522.239	28.35
522.436	25.88
522.633	20.58
522.83	17.2
523.027	16.57
523.224	13.47
523.421	12.71
523.618	8.25
523.815	15.65
524.011	18.32
524.208	21.2
524.405	21.3
524.602	21.12
524.799	12.59
524.996	10.12
525.193	11.31
525.389	11.58
525.586	10.42
525.783	4.22
525.98	6.34
526.176	8.8
526.373	1.88
526.57	1.91
526.767	-1.81
526.963	-1.14
527.16	-1.98
527.357	4.39
527.553	6.88
527.75	8.3
527.947	0.4
528.143	2.13
528.34	-2.21
528.537	-1.07
528.733	0.06
528.93	7.54
529.126	11.77
529.323	11
529.519	10.22
529.716	5.44
529.912	6.28
530.109	4.42
530.305	2.67
530.502	8.01
530.698	6.29
530.895	4.9
531.091	7.98
531.288	8.34
531.484	5.46
531.68	5.32
531.877	6.16
532.073	5.77
532.269	3.07
532.466	4.99
532.662	2.9
532.858	3.01
533.055	4.2
533.251	1.3
533.447	2.91
533.643	5.79
533.84	7.6
534.036	9.56
534.232	12.87
534.428	14.45
534.624	11.05
534.821	14.79
535.017	19.89
535.213	18.75
535.409	19.22
535.605	20.31
535.801	18
535.997	18.03
536.193	21.12
536.389	23.41
536.586	23.88
536.782	26.24
536.978	26.18
537.174	25.77
537.37	29.65
537.566	30.5
537.762	26.06
537.958	28.43
538.153	27.09
538.349	24.7
538.545	20.67
538.741	23.64
538.937	19.1
539.133	19.38
539.329	19.06
539.525	20.38
539.721	21.79
539.916	24.33
540.112	20.62
540.308	22.74
540.504	25.04
540.699	26.24
540.895	24.28
541.091	25.04
541.287	26.33
541.482	23.74
541.678	23.14
541.874	26.93
542.069	24.77
542.265	27.98
542.461	27.96
542.656	29.17
542.852	28.67
543.048	29.41
543.243	28.19
543.439	25.63
543.634	25.66
543.83	22.88
544.025	20.81
544.221	23.76
544.417	22.08
544.612	20.18
544.807	19.83
545.003	18.61
545.198	17.99
545.394	15.59
545.589	18.2
545.785	17.14
545.98	14.97
546.176	13.4
546.371	9.74
546.566	9.77
546.762	8.18
546.957	8.76
547.152	8.48
547.348	5.91
547.543	6.72
547.738	5.42
547.933	3.39
548.129	5.84
548.324	4.52
548.519	3.49
548.714	0.66
548.91	-1.89
549.105	0.46
549.3	-0.42
549.495	1.92
549.69	-2.35
549.885	-2.21
550.08	0.54
550.276	2.84
550.471	7.53
550.666	9.04
550.861	12.41
551.056	10.76
551.251	14.53
551.446	16.45
551.641	18.66
551.836	16.33
552.031	17.57
552.226	15.36
552.421	14.92
552.616	16.98
552.811	20.14
553.006	20.31
553.201	18.57
553.395	19.38
553.59	17.35
553.785	18.12
553.98	18.78
554.175	15.89
554.37	15.45
554.565	14.21
554.759	11.47
554.954	9.24
555.149	10.36
555.344	7.65
555.538	8.37
555.733	9.19
555.928	11.94
556.122	11.16
556.317	10.16
556.512	10.23
556.706	8
556.901	5.49
557.096	6.53
557.29	9.75
557.485	8.75
557.68	5.25
557.874	5.88
558.069	5.14
558.263	4.92
558.458	5.9
558.652	5.46
558.847	8.19
559.041	12.06
559.236	8.43
559.43	7.63
559.625	7.65
559.819	6.41
560.014	3.5
560.208	4.09
560.402	5.03
560.597	5.86
560.791	7.17
560.986	9.72
561.18	7.48
561.374	3.97
561.569	2.99
561.763	7.77
561.957	6.88
562.151	4.16
562.346	5.95
562.54	8.25
562.734	6.81
562.928	5.82
563.123	3.58
563.317	5.95
563.511	6.74
563.705	3.92
563.899	2.2
564.093	4.34
564.288	6.42
564.482	5.69
564.676	8.37
564.87	9.52
565.064	6.77
565.258	9.18
565.452	9.57
565.646	15.08
565.84	12.01
566.034	12
566.228	14.9
566.422	15.87
566.616	13.11
566.81	13.61
567.004	12.59
567.198	13.57
567.392	13.08
567.586	11.95
567.779	14.36
567.973	15.5
568.167	17.53
568.361	16.3
568.555	18.01
568.749	14.38
568.942	12.65
569.136	17.03
569.33	14.54
569.524	16.07
569.718	15.1
569.911	15.87
570.105	17.46
570.299	17.08
570.492	16.98
570.686	18.67
570.88	19.36
571.073	20.21
571.267	19.58
571.461	19.84
571.654	21.16
571.848	19.93
572.041	21.77
572.235	20.38
572.429	21.54
572.622	20.18
572.816	21.57
573.009	21.31
573.203	18.4
573.396	22.39
573.59	21.53
573.783	19.51
573.976	19.53
574.17	19.29
574.363	18.96
574.557	17.9
574.75	16.69
574.943	18.08
575.137	19.8
575.33	20.25
575.523	19.31
575.717	18.69
575.91	18.01
576.103	15.83
576.297	15.18
576.49	13.29
576.683	14.58
576.876	13.32
577.07	11.65
577.263	14.03
577.456	13.15
577.649	11.39
577.842	12.48
578.036	14.8
578.229	14.1
578.422	13.52
578.615	13.36
578.808	12.51
579.001	12.63
579.194	10.95
579.387	10.69
579.58	10.98
579.773	10.17
579.966	11.99
580.159	11.65
580.352	11.76
580.545	12.77
580.738	11.72
580.931	13.09
581.124	14.44
581.317	10.47
581.51	8.41
581.703	10.23
581.896	8.69
582.088	6.61
582.281	8.59
582.474	8.65
582.667	9.4
582.86	10.35
583.053	8.87
583.245	9.91
583.438	9.23
583.631	10.17
583.824	11.84
584.016	10.55
584.209	11.04
584.402	12.87
584.594	12.14
584.787	13.11
584.98	12.03
585.172	12.38
585.365	13.49
585.558	14
585.75	14.78
585.943	14.92
586.135	15.55
586.328	13.97
586.52	15.39
586.713	15.3
586.906	15.91
587.098	15.92
587.291	16.08
587.483	15.62
587.675	15.57
587.868	14.08
588.06	14.02
588.253	14.41
588.445	12.97
588.638	13.21
588.83	11.75
589.022	11.41
589.215	11.01
589.407	11.28
589.599	11.59
589.792	10.53
589.984	11.77
590.176	11.38
590.368	11.38
590.561	10.64
590.753	9.87
590.945	8.72
591.137	7.13
591.33	5.21
591.522	7.63
591.714	7.75
591.906	11.27
592.098	12.76
592.29	14.01
592.482	14.66
592.674	14.67
592.867	15.37
593.059	16.33
593.251	16.2
593.443	18.15
593.635	16.94
593.827	17.27
594.019	15.67
594.211	14.87
594.403	16.56
594.595	17.16
594.787	17.36
594.979	16.97
595.17	18.39
595.362	19.22
595.554	18.02
595.746	15.44
595.938	14.01
596.13	14.95
596.322	13.81
596.513	11.77
596.705	11.98
596.897	12.26
597.089	11.94
597.281	12.65
597.472	10.28
597.664	10.15
597.856	11
598.048	11.65
598.239	12.62
598.431	11.89
598.623	9.99
598.814	9.45
599.006	10.93
599.197	12.13
599.389	11.69
599.581	9.8
599.772	12.91
599.964	12.23
600.155	11.23
600.347	10.93
600.538	11.1
600.73	9.84
600.921	9.43
601.113	9.08
601.304	10.32
601.496	13.24
601.687	13.7
601.879	12.4
602.07	13.22
602.262	12.41
602.453	11.51
602.644	11.87
602.836	12.46
603.027	10.09
603.218	7.65
603.41	8.29
603.601	8.8
603.792	8.2
603.983	8.29
604.175	7.83
604.366	8.4
604.557	11.11
604.748	11.29
604.94	10.72
605.131	11.22
605.322	11
605.513	9.95
605.704	9.7
605.895	9.51
606.086	8.55
606.278	9.09
606.469	9.14
606.66	9.51
606.851	8.81
607.042	10.35
607.233	9.72
607.424	8.54
607.615	9.02
607.806	8.7
607.997	9.94
608.188	10.55
608.379	10.79
608.57	7.7
608.761	8.61
608.952	8.44
609.142	9.06
609.333	8.18
609.524	8.11
609.715	8.54
609.906	8.52
610.097	10.11
610.287	8.64
610.478	9.4
610.669	11.49
610.86	12.35
611.051	10.96
611.241	12.07
611.432	13.05
611.623	14.61
611.813	13.2
612.004	12.03
612.195	12.56
612.385	12.27
612.576	14.69
612.767	14.53
612.957	14.54
613.148	13.46
613.338	11.41
613.529	10.53
613.72	11.22
613.91	11.25
614.101	10.14
614.291	11.16
614.482	11.21
614.672	9.78
614.863	9.85
615.053	9.02
615.243	10.59
615.434	10.7
615.624	8.85
615.815	10.96
616.005	9.59
616.195	6.71
616.386	5.94
616.576	4.99
616.766	5.51
616.957	5.99
617.147	5.13
617.337	5.28
617.528	5.17
617.718	5.19
617.908	4.7
618.098	4.79
618.289	5.61
618.479	3.86
618.669	3.42
618.859	3.92
619.049	6.82
619.239	6.03
619.43	5.17
619.62	4.76
619.81	4.45
620	5.06
620.19	5.2
620.38	5.37
620.57	5.45
620.76	3.91
620.95	5.4
621.14	5.71
621.33	7.8
621.52	8.15
621.71	6.47
621.9	7.37
622.09	6.85
622.28	6.03
622.47	7.38
622.659	7.19
622.849	6.21
623.039	5.16
623.229	4.17
623.419	6.08
623.609	7.76
623.799	6.99
623.988	7.34
624.178	8.08
624.368	7.43
624.558	8.26
624.747	8.45
624.937	8.62
625.127	8.79
625.316	8.23
625.506	8.36
625.696	10.09
625.885	8.67
626.075	8.17
626.265	8.54
626.454	6.59
626.644	7.15
626.833	6.68
627.023	6.59
627.212	7.52
627.402	7.55
627.591	7.31
627.781	6.63
627.97	6.89
628.16	6.74
628.349	7.06
628.539	5.39
628.728	6.73
628.918	5.13
629.107	5.89
629.296	5.03
629.486	4.99
629.675	5.6
629.865	7.85
630.054	8.55
630.243	6.03
630.432	8.02
630.622	7.25
630.811	9.63
631	9.36
631.19	9.67
631.379	7.36
631.568	6.63
631.757	7.32
631.946	6.69
632.136	8.29
632.325	8.23
632.514	9.38
632.703	9.29
632.892	9.24
633.081	8.92
633.27	9.99
633.459	10.3
633.648	8.48
633.837	7.04
634.026	6.88
634.215	9.47
634.404	9.64
634.593	12.7
634.782	12
634.971	11.68
635.16	10.22
635.349	12.17
635.538	12.55
635.727	12.27
635.916	11.86
636.105	11.38
636.294	12.74
636.482	12.89
636.671	11.7
636.86	12.34
637.049	12.75
637.238	12.17
637.426	11.62
637.615	11.17
637.804	11.42
637.993	12.21
638.181	12.56
638.37	12.64
638.559	11.41
638.747	10.16
638.936	11.23
639.125	12.02
639.313	10.06
639.502	10.4
639.691	11.44
639.879	11.1
640.068	10.63
640.256	8.04
640.445	7.14
640.633	6.55
640.822	5.33
641.01	5.66
641.199	6.41
641.387	6.18
641.576	8.73
641.764	10.22
641.953	9.44
642.141	8.89
642.329	11.16
642.518	9.26
642.706	8.4
642.894	7.57
643.083	7.19
643.271	8.91
643.459	9.01
643.648	9.3
643.836	9.53
644.024	9.23
644.213	11.59
644.401	12.35
644.589	11.72
644.777	13.18
644.965	13.12
645.154	12.46
645.342	13.3
645.53	12.1
645.718	10.2
645.906	9.19
646.094	8.64
646.282	6.25
646.47	7.99
646.658	8.76
646.846	8.56
647.034	9.97
647.223	10.37
647.411	10.23
647.599	7.92
647.786	8.33
647.974	8.47
648.162	7.01
648.35	6.22
648.538	8.47
648.726	9.17
648.914	9.59
649.102	10.06
649.29	8.82
649.478	9.94
649.665	10.74
649.853	11.42
650.041	10.49
650.229	10.2
650.417	10.35
650.604	9.95
650.792	11.18
650.98	9.67
651.168	8.37
651.355	7.65
651.543	8.62
651.731	8.2
651.918	8.27
652.106	9.61
652.294	9.81
652.481	9.8
652.669	8.56
652.856	8.07
653.044	8.16
653.231	7.83
653.419	6.95
653.606	6.68
653.794	7.29
653.981	8.25
654.169	8.37
654.356	5.74
654.544	7.34
654.731	6.83
654.919	6.68
655.106	6.43
655.294	6.79
655.481	7.23
655.668	8.69
655.856	7.02
656.043	7.58
656.23	7.46
656.418	6.64
656.605	7.53
656.792	6.96
656.979	6.72
657.167	8.24
657.354	8.06
657.541	7.64
657.728	7.98
657.916	7.77
658.103	7.07
658.29	9.3
658.477	9.2
658.664	9.39
658.851	10.65
659.038	11.61
659.225	11.74
659.412	11.65
659.6	10.88
659.787	13.14
659.974	10.97
660.161	12.28
660.348	12.47
660.535	13.16
660.722	12.53
660.909	11.83
661.095	12.68
661.282	12.81
661.469	13.49
661.656	11.97
661.843	13.37
662.03	12.29
662.217	12.11
662.404	11.42
662.59	11.14
662.777	10.27
662.964	10.75
663.151	11.16
663.338	12.74
663.524	12.03
663.711	9.59
663.898	10.32
664.085	9.01
664.271	9.05
664.458	7.95
664.645	8.71
664.831	9.35
665.018	7.24
665.204	7.62
665.391	7.76
665.578	8.27
665.764	7.39
665.951	8.92
666.137	8.55
666.324	8.57
666.51	9.44
666.697	8.57
666.883	7.71
667.07	7.32
667.256	6.45
667.443	6.42
667.629	8.58
667.816	7.81
668.002	8.13
668.188	8.69
668.375	8.59
668.561	8.38
668.747	8.02
668.934	8.4
669.12	8.34
669.306	8.3
669.493	8.16
669.679	7.21
669.865	7.05
670.051	5.9
670.238	7.1
670.424	4.89
670.61	5.01
670.796	4.88
670.982	4.63
671.169	4.04
671.355	4.15
671.541	3.35
671.727	4.41
671.913	4.89
672.099	4.93
672.285	3.68
672.471	3.59
672.657	3.88
672.843	4.59
673.029	3.44
673.215	4.52
673.401	6.62
673.587	5.84
673.773	6.22
673.959	7.68
674.145	6.48
674.331	7.15
674.517	7.87
674.703	7.92
674.888	8.06
675.074	7.17
675.26	8.09
675.446	8.32
675.632	7.28
675.817	6.61
676.003	7.42
676.189	7.98
676.375	8.6
676.56	7.84
676.746	7.02
676.932	6.46
677.117	4.04
677.303	2.58
677.489	2.58
677.674	0.51
677.86	-0.25
678.046	-0.41
678.231	0.04
678.417	-0.84
678.602	-0.39
678.788	1.32
678.973	2.52
679.159	4.31
679.344	4.19
679.53	5.21
679.715	4.12
679.901	2.62
680.086	2.31
680.272	1.43
680.457	1.76
680.643	2.84
680.828	4.04
681.013	4.65
681.199	3.71
681.384	5.56
681.569	7.26
681.755	8.38
681.94	7.77
682.125	7.67
682.31	9.81
682.496	8.51
682.681	7.49
682.866	7.71
683.051	5.62
683.237	5.95
683.422	5.33
683.607	6.56
683.792	7.22
683.977	7.42
684.162	8.53
684.347	9.5
684.532	9.4
684.717	9.07
684.903	8.88
685.088	9.83
685.273	9.03
685.458	8.08
685.643	7.99
685.828	7.26
686.013	8.54
686.198	6.74
686.382	8.78
686.567	9.19
686.752	8
686.937	8.93
687.122	8.75
687.307	8.55
687.492	8.83
687.677	7.19
687.861	6.67
688.046	4.98
688.231	3.11
688.416	3.31
688.601	3.22
688.785	3.94
688.97	4.38
689.155	5.28
689.339	5.04
689.524	2.95
689.709	3.96
689.893	4.04
690.078	4.98
690.263	3.37
690.447	1.84
690.632	0.07
690.816	0.75
691.001	1.3
691.186	0.97
691.37	1.46
691.555	2.84
691.739	3
691.924	4.37
692.108	5.59
692.293	4.15
692.477	4.8
692.661	3.34
692.846	3.22
693.03	3.03
693.215	3.63
693.399	4.82
693.583	4.62
693.768	2.53
693.952	2.11
694.136	2.5
694.321	3.95
694.505	7.03
694.689	5.54
694.873	6.2
695.058	7.72
695.242	6.91
695.426	6.88
695.61	6.13
695.794	7.26
695.979	7.03
696.163	7.74
696.347	7.5
696.531	8.53
696.715	8.68
696.899	7.37
697.083	6.51
697.267	7.29
697.451	7.37
697.635	9.27
697.819	8.83
698.003	9.02
698.187	9.03
698.371	8.7
698.555	9.48
698.739	8.95
698.923	8.76
699.107	8.95
699.291	9.43
699.475	10.8
699.659	9.66
699.842	9.48
700.026	8.85
700.21	9.01
700.394	10.41
700.578	10.1
700.761	11.14
700.945	13.42
701.129	11.75
701.313	12.07
701.496	12.2
701.68	12.11
701.864	11.3
702.047	12.34
702.231	13.07
702.415	12.84
702.598	11.24
702.782	10.86
702.965	11.34
703.149	10.46
703.333	10.02
703.516	9.62
703.7	8.97
703.883	9.46
704.067	8.38
704.25	6.88
704.434	5.16
704.617	4.36
704.801	2.93
704.984	3.82
705.167	3.6
705.351	2.7
705.534	2.75
705.718	4.26
705.901	1.95
706.084	1.14
706.268	0.92
706.451	1.36
706.634	2.05
706.817	0.77
707.001	0.02
707.184	-0.1
707.367	0.31
707.55	1.2
707.734	0.46
707.917	1.44
708.1	2.04
708.283	3.54
708.466	3.87
708.649	3.91
708.832	4.24
709.015	4.57
709.199	5.23
709.382	5.6
709.565	4.82
709.748	6.29
709.931	5.21
710.114	5.5
710.297	5.64
710.48	5.83
710.663	6.05
710.846	6.17
711.028	7.3
711.211	6.36
711.394	6.43
711.577	7.86
711.76	6.07
711.943	5.52
712.126	6.37
712.309	8.37
712.491	9.51
712.674	8.13
712.857	8.61
713.04	7.81
713.222	8.12
713.405	7.72
713.588	7.61
713.771	8.04
713.953	7.04
714.136	7.78
714.319	7.33
714.501	6.67
714.684	6.96
714.866	6.79
715.049	7.42
715.232	7.48
715.414	6.14
715.597	8.21
715.779	7
715.962	6.62
716.144	4.77
716.327	3.83
716.509	5.32
716.692	3.37
716.874	2.32
717.057	3.01
717.239	3.07
717.421	2.34
717.604	0.89
717.786	2.59
717.968	1.53
718.151	0.44
718.333	-0.57
718.515	0.64
718.698	-0.77
718.88	0.13
719.062	-1.14
719.244	-0.03
719.427	-1.76
719.609	0.78
719.791	0.51
719.973	0.91
720.155	-0.04
720.338	-0.46
720.52	0.93
720.702	4.1
720.884	2.94
721.066	5.28
721.248	2.78
721.43	5.03
721.612	3.28
721.794	5.36
721.976	5.93
722.158	9.37
722.34	8.3
722.522	9.51
722.704	8.3
722.886	8.3
723.068	7.7
723.25	9.67
723.432	8.18
723.614	6.88
723.796	7.85
723.977	7.58
724.159	7.23
724.341	6.73
724.523	4.31
724.705	3.86
724.886	2.6
725.068	5.47
725.25	5.48
725.432	6.49
725.613	4.81
725.795	5.84
725.977	4.67
726.158	5.51
726.34	5.59
726.522	5.23
726.703	6.3
726.885	6.02
727.066	4.51
727.248	6.09
727.43	7.16
727.611	7.44
727.793	8.63
727.974	7.94
728.156	8.53
728.337	7.36
728.519	8.26
728.7	8.83
728.882	8.4
729.063	8.29
729.244	7.73
729.426	9.34
729.607	9.21
729.788	9.12
729.97	10.15
730.151	9.6
730.332	10.51
730.514	11.88
730.695	13.84
730.876	13.59
731.058	12.32
731.239	12.47
731.42	10.61
731.601	9.5
731.782	8.9
731.964	9.2
732.145	11.19
732.326	9.26
732.507	9.3
732.688	9.12
732.869	10.66
733.05	11.27
733.231	12.18
733.412	11
733.593	11.69
733.774	10.78
733.955	10.26
734.136	9.26
734.317	7.62
734.498	7.96
734.679	8.24
734.86	7.1
735.041	7.36
735.222	8.53
735.403	9.71
735.584	11.15
735.765	11.3
735.946	10.08
736.126	10.83
736.307	10.83
736.488	11.41
736.669	7.69
736.849	6.86
737.03	6.81
737.211	8.06
737.392	8.16
737.572	6.49
737.753	7.62
737.934	8.09
738.114	8.78
738.295	7.04
738.476	8.61
738.656	10.73
738.837	10.47
739.017	10.75
739.198	10.72
739.378	12.44
739.559	12.46
739.74	13.48
739.92	13.44
740.1	11.54
740.281	10.13
740.461	11.28
740.642	12.15
740.822	9.46
741.003	10.5
741.183	10.2
741.363	12.4
741.544	11.39
741.724	11.01
741.904	9.64
742.085	9.8
742.265	7.86
742.445	7.32
742.626	8.86
742.806	9.29
742.986	9.12
743.166	8.24
743.347	7.42
743.527	6.81
743.707	6.11
743.887	5.86
744.067	6.39
744.247	6.65
744.427	5.96
744.608	7.25
744.788	7.3
744.968	8.34
745.148	7.97
745.328	8.56
745.508	8.41
745.688	8.84
745.868	7.71
746.048	8.38
746.228	8.26
746.408	5.95
746.588	5.24
746.767	5.58
746.947	6.38
747.127	6.91
747.307	5.9
747.487	8.26
747.667	8.22
747.847	9.43
748.026	10.06
748.206	10.85
748.386	10.7
748.566	8.41
748.745	7.64
748.925	8.16
749.105	9.16
749.285	8.28
749.464	8.45
749.644	9.64
749.824	9.94
750.003	9.05
750.183	8.1
750.362	7.99
750.542	7.68
750.722	5.6
750.901	5.49
751.081	6.58
751.26	6.75
751.44	6.83
751.619	5.52
751.799	5.55
751.978	4.13
752.158	3.56
752.337	3.47
752.516	3.22
752.696	3.02
752.875	3.74
753.055	5.54
753.234	7.82
753.413	8.07
753.593	9.76
753.772	11.7
753.951	12.96
754.13	13.29
754.31	11.62
754.489	11.55
754.668	11.19
754.847	11.71
755.027	10.18
755.206	11.44
755.385	12.88
755.564	13.06
755.743	13.9
755.922	14.5
756.101	14.86
756.28	15.05
756.46	14.26
756.639	11.15
756.818	11.18
756.997	9.87
757.176	9.44
757.355	7.67
757.534	5.68
757.713	5.3
757.892	4.23
758.07	6.97
758.249	7.24
758.428	6.82
758.607	5.81
758.786	7.16
758.965	6.39
759.144	7
759.323	5.51
759.501	3.27
759.68	3.06
759.859	4.38
760.038	3.77
760.216	2.84
760.395	5.45
760.574	4.77
760.753	5.23
760.931	6.3
761.11	6.46
761.289	7.03
761.467	7.12
761.646	7.79
761.824	7.62
762.003	7.37
762.182	7.95
762.36	8.67
762.539	8.21
762.717	8.92
762.896	7.05
763.074	7.26
763.253	9.9
763.431	10.17
763.61	9.22
763.788	9.24
763.966	10.09
764.145	8.82
764.323	10.03
764.502	8.09
764.68	6.51
764.858	5.68
765.037	7.28
765.215	7.78
765.393	8.02
765.571	8.01
765.75	8.3
765.928	6.69
766.106	5.87
766.284	6.77
766.463	6.52
766.641	6.82
766.819	8.42
766.997	7.79
767.175	7.69
767.353	7.28
767.531	8.44
767.71	8.64
767.888	7.51
768.066	5.63
768.244	6.39
768.422	6.77
768.6	9
768.778	7.75
768.956	7.32
769.134	6.6
769.312	5.25
769.489	4.4
769.667	6.67
769.845	8.3
770.023	7.86
770.201	8.19
770.379	7.46
770.557	7.12
770.735	7.08
770.912	6.12
771.09	6.65
771.268	7
771.446	7.06
771.623	7.41
771.801	9.91
771.979	10.65
772.157	10.31
772.334	9.32
772.512	9.16
772.69	9.32
772.867	9.15
773.045	9.51
773.222	9.89
773.4	10.48
773.577	9.3
773.755	9.03
773.933	9.31
774.11	9.71
774.288	8.71
774.465	9.74
774.643	9.98
774.82	10.15
774.997	9.58
775.175	8.64
775.352	12.59
775.53	11.91
775.707	13.09
775.884	14.67
776.062	14.09
776.239	14.1
776.416	15.05
776.594	15.46
776.771	15.67
776.948	15.88
777.125	15.44
777.303	14.72
777.48	14.16
777.657	12.25
777.834	13.27
778.012	13.02
778.189	12.32
778.366	11.99
778.543	11.29
778.72	9.96
778.897	10.95
779.074	8.94
779.251	9.97
779.428	7.77
779.605	5.29
779.782	6.47
779.959	5.54
780.136	3.43
780.313	4.56
780.49	1.92
780.667	3.24
780.844	2.32
781.021	2.83
781.198	0.93
781.375	2.25
781.552	0.46
781.728	0.43
781.905	1.6
782.082	2.47
782.259	2.75
782.436	3.33
782.612	2.19
782.789	1.48
782.966	-1.66
783.143	0.4
783.319	2.15
783.496	2.86
783.673	3.39
783.849	4.75
784.026	3.17
784.203	6.23
784.379	5.94
784.556	6.47
784.732	6.49
784.909	8.3
785.085	7.89
785.262	8.93
785.438	10.81
785.615	9.82
785.791	11.47
785.968	10.46
786.144	12.25
786.321	15.87
786.497	14.02
786.673	14.44
786.85	11.66
787.026	10.25
787.203	6.62
787.379	4.15
787.555	1.21
787.731	1.28
787.908	-2.25
788.084	-1.96
788.26	-3.29
788.437	-1.99
788.613	-2.43
788.789	-4.42
788.965	-3.14
789.141	-4.56
789.317	-5.65
789.494	-6.69
789.67	-4.97
789.846	-6.83
790.022	-9.81
790.198	-8.8
790.374	-8.12
790.55	-7.46
790.726	-7.93
790.902	-5.98
791.078	-1.26
791.254	1.49
791.43	2.54
791.606	5.3
791.782	4.75
791.958	4.92
792.134	3.39
792.31	3.79
792.486	3.73
792.661	1.08
792.837	3.88
793.013	1.66
793.189	2.33
793.365	1.46
793.54	2.4
793.716	2.36
793.892	5.14
794.068	3.91
794.243	4.66
794.419	5.38
794.595	4.33
794.77	3.77
794.946	4.53
795.122	4.91
795.297	4.19
795.473	5.23
795.648	5.77
795.824	5.53
796	5.74
796.175	8.59
796.351	9.94
796.526	8.95
796.702	10.87
796.877	11.84
797.052	14.6
797.228	11.29
797.403	9.26
797.579	7.21
797.754	8.54
797.929	10.31
798.105	12.15
798.28	13.95
798.455	15.65
798.631	15.45
798.806	15.77
798.981	18.91
799.157	17.5
799.332	18.94
799.507	22.63
799.682	23.17
799.858	24.91
800.033	23.21
800.208	24.28
800.383	25.74
800.558	25.5
800.733	22.53
800.908	24.5
801.083	25.98
801.258	25.73
801.434	28.34
801.609	26.31
801.784	25.74
801.959	26.26
802.134	24.33
802.309	22.78
802.484	21.62
802.658	18.89
802.833	17.98
803.008	17.13
803.183	13.08
803.358	12.87
803.533	9.95
803.708	11.97
803.883	11.24
804.057	8.04
804.232	9.33
804.407	11.52
804.582	13.35
804.756	10.39
804.931	12.65
805.106	8.98
805.281	11.02
805.455	7.67
805.63	6.81
805.805	8.02
805.979	10.94
806.154	11.15
806.328	11.86
806.503	12.86
806.678	15.36
806.852	16.31
807.027	16.58
807.201	14.21
807.376	15.49
807.55	15.17
807.725	15.88
807.899	15.56
808.074	13.96
808.248	13.28
808.422	16.06
808.597	14.96
808.771	17.64
808.946	18.74
809.12	22.92
809.294	22.14
809.468	20.79
809.643	19.86
809.817	21
809.991	19.96
810.166	20.13
810.34	17.88
810.514	19.2
810.688	18.47
810.862	20.53
811.037	20.97
811.211	20.6
811.385	18.7
811.559	17.55
811.733	19.43
811.907	19.52
812.081	17.89
812.255	16.17
812.429	13.49
812.603	11.49
812.777	10.58
812.951	7.47
813.125	7.39
813.299	3.85
813.473	0.12
813.647	5.82
813.821	8.56
813.995	6.91
814.169	5.94
814.343	9.14
814.516	11.51
814.69	12.14
814.864	10.1
815.038	15.65
815.212	15.61
815.385	13.97
815.559	15.26
815.733	17.28
815.907	18.24
816.08	21.34
816.254	19.36
816.428	20.71
816.601	24.07
816.775	25.29
816.948	29.22
817.122	32.35
817.296	28.62
817.469	26.13
817.643	28.27
817.816	26.77
817.99	23.22
818.163	21.85
818.337	18.39
818.51	21.14
818.684	20.61
818.857	22.87
819.031	22.49
819.204	19.33
819.377	18.42
819.551	15.24
819.724	14.29
819.897	16.93
820.071	16.07
820.244	15.22
820.417	13.48
820.591	10.42
820.764	11.1
820.937	13.07
821.11	10.88
821.284	10.33
821.457	13.1
821.63	13.89
821.803	14.34
821.976	17.98
822.149	19.86
822.322	18.84
822.496	15.85
822.669	16.97
822.842	18.5
823.015	20.28
823.188	23.64
823.361	23.77
823.534	21.18
823.707	23.05
823.88	22.16
824.053	20.52
824.226	19.88
824.399	18.35
824.571	17.74
824.744	20.52
824.917	20.1
825.09	17.82
825.263	20.73
825.436	22.57
825.608	17.6
825.781	12.3
825.954	14.17
826.127	15.59
826.299	13.51
826.472	12.58
826.645	11.32
826.818	14.04
826.99	13.61
827.163	15.1
827.336	13.35
827.508	15.6
827.681	20
827.853	20.01
828.026	19.67
828.198	19.51
828.371	20.99
828.544	22.49
828.716	22.21
828.889	19.11
829.061	16.26
829.233	17.39
829.406	19.3
829.578	15.04
829.751	12.95
829.923	15.23
830.096	14.54
830.268	14.89
830.44	10.77
830.613	10.18
830.785	10.21
830.957	10.9
831.129	10.93
831.302	8.17
831.474	8.06
831.646	11.46
831.818	10.57
831.991	11.09
832.163	10.44
832.335	10.53
832.507	10.78
832.679	9.74
832.851	7.64
833.023	9.57
833.195	11.49
833.368	11.11
833.54	13.48
833.712	13.4
833.884	13.82
834.056	15.59
834.228	17.9
834.4	17.12
834.571	14.5
834.743	13.23
834.915	10.18
835.087	11.08
835.259	11.27
835.431	9
835.603	4.93
835.775	4.45
835.946	5.37
836.118	5.32
836.29	8.52
836.462	9.16
836.634	6.3
836.805	6.04
836.977	5.37
837.149	3.47
837.32	5.64
837.492	5.04
837.664	-0.54
837.835	-4.4
838.007	-5.24
838.179	-4.89
838.35	-0.22
838.522	7.03
838.693	8.61
838.865	3.04
839.036	3.03
839.208	7.75
839.379	7.55
839.551	10.63
839.722	12.53
839.894	8.03
840.065	12.01
840.237	12.43
840.408	12.93
840.579	17.67
840.751	16.16
840.922	16.09
841.093	16.27
841.265	17.98
841.436	22.13
841.607	25.68
841.778	24.74
841.95	23.45
842.121	20.57
842.292	20.15
842.463	23.92
842.635	28.88
842.806	30.42
842.977	29.92
843.148	28.55
843.319	28.93
843.49	32.81
843.661	30.82
843.832	30.61
844.003	35.21
844.174	36.55
844.345	38.03
844.516	34.33
844.687	30.7
844.858	34.12
845.029	30.75
845.2	24.41
845.371	26.7
845.542	23.85
845.713	20.62
845.884	20.69
846.055	18.45
846.225	18.29
846.396	12.24
846.567	17.43
846.738	11.97
846.909	9.85
847.079	10.45
847.25	12.71
847.421	15.15
847.591	5.37
847.762	-0.17
847.933	-4.23
848.103	4.57
848.274	6.53
848.445	7.62
848.615	8.95
848.786	18.85
848.956	19.45
849.127	22.29
849.297	26.86
849.468	29.52
849.638	30.79
849.809	27.41
849.979	24.12
850.15	23.21
850.32	27.95
850.491	32.82
850.661	34.09
850.831	34.65
851.002	33.89
851.172	38.79
851.342	39.77
851.513	39.11
851.683	34.67
851.853	36.72
852.024	37.05
852.194	33.48
852.364	30.4
852.534	26.69
852.705	21.68
852.875	20.88
853.045	17.35
853.215	11.74
853.385	16.6
853.555	23.8
853.725	21.83
853.895	18.18
854.066	12.11
854.236	8.82
854.406	6.58
854.576	8.59
854.746	3.52
854.916	5.21
855.086	9.18
855.256	15.82
855.425	15.82
855.595	16.15
855.765	18.19
855.935	13.64
856.105	22.84
856.275	31.21
856.445	25.65
856.614	27.9
856.784	34.44
856.954	28.92
857.124	24.28
857.294	28.75
857.463	32.08
857.633	34.19
857.803	35.37
857.972	32.81
858.142	32.57
858.312	35.57
858.481	35.38
858.651	29.06
858.821	26.11
858.99	23.45
859.16	17.9
859.329	17.16
859.499	22.32
859.668	19.36
859.838	21.12
860.007	33.13
860.177	37.64
860.346	41.7
860.516	44.26
860.685	41.47
860.854	37.02
861.024	35.51
861.193	37.71
861.363	37.92
861.532	37.34
861.701	33.98
861.87	33.48
862.04	31.93
862.209	36.7
862.378	32.76
862.547	32.41
862.717	35.81
862.886	39.37
863.055	37.3
863.224	34.83
863.393	28.03
863.563	24.11
863.732	19.71
863.901	11.29
864.07	12.08
864.239	19.54
864.408	18.53
864.577	12.81
864.746	14.43
864.915	10.58
865.084	15.16
865.253	12.89
865.422	17.73
865.591	16.6
865.76	11.18
865.929	13.97
866.097	19.58
866.266	16.22
866.435	16.02
866.604	17.22
866.773	19.35
866.942	22.01
867.11	18.21
867.279	21.18
867.448	34.37
867.617	34.15
867.785	28.72
867.954	27.05
868.123	48.67
868.291	45.02
868.46	61.54
868.629	58.39
868.797	60.09
868.966	57.41
869.134	56.67
869.303	57.93
869.472	51.1
869.64	43.16
869.809	53.54
869.977	48.54
870.146	46.46
870.314	49.62
870.482	49.41
870.651	49.1
870.819	41.73
870.988	27.86
871.156	31.18
871.324	22.53
871.493	22.51
871.661	19.85
871.829	24.85
871.998	12.8
872.166	8.31
872.334	10.48
872.502	7.64
872.671	5.04
872.839	8.71
873.007	19.69
873.175	23.45
873.343	22.6
873.512	23.69
873.68	32.34
873.848	29.77
874.016	29.96
874.184	28.52
874.352	31.93
874.52	36.91
874.688	39.05
874.856	45.83
875.024	48.19
875.192	46.42
875.36	44.2
875.528	38.72
875.696	46.76
875.864	46.52
876.032	55.45
876.199	59.04
876.367	65.69
876.535	59.14
876.703	51.95
876.871	55.36
877.039	65.11
877.206	59.12
877.374	57.77
877.542	64.08
877.71	64.62
877.877	69.44
878.045	67.99
878.213	59.12
878.38	64.51
878.548	71.2
878.715	71.6
878.883	71.12
879.051	84.01
879.218	70.7
879.386	70.75
879.553	69.05
879.721	72.06
879.888	65.12
880.056	71.63
880.223	81.71
880.391	72.49
880.558	54.8
880.726	66.55
880.893	73.49
881.06	49.62
881.228	56.08
881.395	49.14
881.562	66.09
881.73	67.63
881.897	58.4
882.064	46.77
882.231	35.52
882.399	51.02
882.566	56.9
882.733	70.89
882.9	56.1
883.068	50.38
883.235	45.63
883.402	45.78
883.569	45.63
883.736	53.97
883.903	54.45
884.07	60.38
884.237	48.88
884.404	47.11
884.571	73.75
884.738	62.43
884.905	69.44
885.072	61.33
885.239	61.79
885.406	70.66
