#Video File Name: 05_exploration_4.avi
#Project ID: 05_exploration_4
#Event codes:
#1 also bal [hideg sarok]
#2 also kozepso
#3 also jobb
#4 kozepso bal
#5 kozepso kozep
#6 kozepso jobb
#7 felso bal
#8 felso kozep
#9 felso jobb [meleg sarok]
#q rejtekhely in [Q out]
#a napozas in [A out]
#z teljes test ki
#s inaktiv [S out]
#Field separator: ;
#MWrap version: Wed Feb 14 09:50:29 CET 2018
#id;description;key;time;duration;object id
1;kozepso kozep;5;0.50;0.00;1
2;felso kozep;8;46.00;0.00;1
3;felso jobb [meleg sarok];9;81.50;0.00;1
4;kozepso jobb;6;84.50;0.00;1
5;kozepso kozep;5;86.00;0.00;1
6;also kozepso;2;86.50;0.00;1
7;also jobb;3;89.50;0.00;1
#8;also kozepso;2;91.00;0.00;1
9;kozepso jobb;6;92.50;0.00;1
10;kozepso kozep;5;96.50;0.00;1
11;felso kozep;8;101.50;0.00;1
12;felso bal;7;106.50;0.00;1
13;felso kozep;8;109.00;0.00;1
#14;felso jobb [meleg sarok];9;115.50;0.00;1
15;felso jobb [meleg sarok];9;115.00;0.00;1
16;kozepso jobb;6;115.50;0.00;1
17;also jobb;3;116.50;0.00;1
18;kozepso jobb;6;117.00;0.00;1
#19;kozepso bal;4;120.50;0.00;1
20;kozepso kozep;5;120.50;0.00;1
21;felso kozep;8;125.00;0.00;1
22;felso bal;7;125.50;0.00;1
23;felso kozep;8;126.50;0.00;1
#24;felso jobb [meleg sarok];9;127.50;0.00;1
25;felso jobb [meleg sarok];9;130.50;0.00;1
26;kozepso jobb;6;132.00;0.00;1
27;also jobb;3;133.00;0.00;1
28;also kozepso;2;134.00;0.00;1
29;also bal [hideg sarok];1;135.00;0.00;1
30;kozepso bal;4;136.00;0.00;1
31;felso bal;7;138.00;0.00;1
32;felso kozep;8;142.00;0.00;1
33;felso jobb [meleg sarok];9;145.50;0.00;1
34;felso kozep;8;162.00;0.00;1
35;kozepso kozep;5;162.50;0.00;1
36;also kozepso;2;165.00;0.00;1
37;kozepso kozep;5;167.00;0.00;1
38;felso kozep;8;167.50;0.00;1
#39;felso jobb [meleg sarok];9;175.50;0.00;1
40;felso jobb [meleg sarok];9;178.50;0.00;1
41;kozepso jobb;6;183.50;0.00;1
42;kozepso kozep;5;184.50;0.00;1
43;kozepso bal;4;185.00;0.00;1
44;felso bal;7;188.50;0.00;1
45;felso kozep;8;189.00;0.00;1
46;rejtekhely in [Q out];q;189.50;0.00;1
47;q-end;Q;191.00;1.50;1
48;felso jobb [meleg sarok];9;192.00;0.00;1
49;kozepso jobb;6;198.50;0.00;1
50;also jobb;3;200.00;0.00;1
51;also kozepso;2;200.50;0.00;1
52;also bal [hideg sarok];1;201.50;0.00;1
53;kozepso bal;4;202.50;0.00;1
54;felso bal;7;204.00;0.00;1
55;felso kozep;8;210.00;0.00;1
56;felso jobb [meleg sarok];9;221.50;0.00;1
57;kozepso jobb;6;222.00;0.00;1
58;also jobb;3;223.00;0.00;1
59;also kozepso;2;224.50;0.00;1
60;also bal [hideg sarok];1;225.50;0.00;1
61;kozepso bal;4;228.50;0.00;1
#62;felso bal;7;230.50;0.00;1
63;felso bal;7;231.00;0.00;1
64;felso kozep;8;235.50;0.00;1
65;felso jobb [meleg sarok];9;239.00;0.00;1
66;kozepso jobb;6;240.50;0.00;1
#67;also jobb;3;242.00;0.00;1
68;also jobb;3;242.50;0.00;1
69;also kozepso;2;243.00;0.00;1
70;also bal [hideg sarok];1;243.50;0.00;1
71;also kozepso;2;260.00;0.00;1
72;rejtekhely in [Q out];q;268.50;0.00;1
73;q-end;Q;276.00;7.50;1
74;also bal [hideg sarok];1;277.00;0.00;1
75;kozepso bal;4;286.50;0.00;1
76;kozepso kozep;5;290.50;0.00;1
77;felso kozep;8;291.00;0.00;1
#78;rejtekhely in [Q out];q;291.50;0.00;1
#79;felso jobb [meleg sarok];9;356.00;0.00;1
80;felso jobb [meleg sarok];9;359.00;0.00;1
81;kozepso jobb;6;361.00;0.00;1
82;also jobb;3;362.00;0.00;1
83;also kozepso;2;363.50;0.00;1
84;also bal [hideg sarok];1;365.00;0.00;1
85;kozepso bal;4;366.00;0.00;1
86;felso bal;7;368.00;0.00;1
87;felso kozep;8;369.00;0.00;1
88;felso jobb [meleg sarok];9;382.00;0.00;1
89;kozepso jobb;6;383.50;0.00;1
90;also jobb;3;385.00;0.00;1
91;also kozepso;2;385.50;0.00;1
92;also bal [hideg sarok];1;386.50;0.00;1
93;kozepso bal;4;387.00;0.00;1
94;felso bal;7;389.50;0.00;1
95;felso kozep;8;390.50;0.00;1
96;felso jobb [meleg sarok];9;394.50;0.00;1
97;kozepso jobb;6;397.50;0.00;1
98;also jobb;3;398.00;0.00;1
99;also kozepso;2;400.50;0.00;1
100;also bal [hideg sarok];1;401.50;0.00;1
#101;kozepso bal;4;402.00;0.00;1
102;kozepso bal;4;402.50;0.00;1
103;felso bal;7;404.00;0.00;1
104;felso kozep;8;421.00;0.00;1
#105;undefined;*;434.50;0.00;1
106;felso jobb [meleg sarok];9;434.50;0.00;1
107;kozepso jobb;6;447.00;0.00;1
108;also jobb;3;447.50;0.00;1
109;also kozepso;2;448.50;0.00;1
110;also bal [hideg sarok];1;450.00;0.00;1
111;kozepso bal;4;451.50;0.00;1
112;felso bal;7;453.00;0.00;1
113;felso kozep;8;463.50;0.00;1
114;felso jobb [meleg sarok];9;465.00;0.00;1
115;kozepso jobb;6;484.00;0.00;1
116;also jobb;3;484.50;0.00;1
117;also kozepso;2;486.50;0.00;1
118;also bal [hideg sarok];1;488.00;0.00;1
119;kozepso bal;4;489.00;0.00;1
120;felso bal;7;491.50;0.00;1
121;felso kozep;8;493.00;0.00;1
122;felso jobb [meleg sarok];9;530.00;0.00;1
123;kozepso jobb;6;532.00;0.00;1
124;also jobb;3;532.50;0.00;1
125;also kozepso;2;535.50;0.00;1
126;also bal [hideg sarok];1;536.00;0.00;1
127;kozepso bal;4;537.00;0.00;1
128;felso bal;7;539.00;0.00;1
129;felso kozep;8;540.00;0.00;1
#130;felso jobb [meleg sarok];9;556.50;0.00;1
131;felso jobb [meleg sarok];9;558.00;0.00;1
#132;kozepso jobb;6;559.00;0.00;1
133;kozepso jobb;6;559.50;0.00;1
134;also jobb;3;560.50;0.00;1
135;also kozepso;2;561.00;0.00;1
136;also bal [hideg sarok];1;563.00;0.00;1
137;kozepso bal;4;564.00;0.00;1
138;felso bal;7;565.50;0.00;1
139;felso kozep;8;566.50;0.00;1
#140;felso bal;7;567.50;0.00;1
141;felso kozep;8;579.50;0.00;1
142;felso jobb [meleg sarok];9;582.00;0.00;1
#143;felso jobb [meleg sarok];9;609.00;0.00;1
144;kozepso jobb;6;613.00;0.00;1
145;also jobb;3;614.00;0.00;1
146;also kozepso;2;615.00;0.00;1
147;also bal [hideg sarok];1;617.00;0.00;1
148;kozepso bal;4;618.00;0.00;1
149;felso bal;7;620.00;0.00;1
150;felso kozep;8;623.00;0.00;1
151;felso jobb [meleg sarok];9;632.50;0.00;1
152;kozepso jobb;6;633.50;0.00;1
153;also jobb;3;634.50;0.00;1
154;also kozepso;2;635.00;0.00;1
155;also bal [hideg sarok];1;636.50;0.00;1
156;kozepso bal;4;638.50;0.00;1
157;felso bal;7;640.00;0.00;1
158;felso kozep;8;641.00;0.00;1
159;felso jobb [meleg sarok];9;645.00;0.00;1
160;kozepso jobb;6;647.50;0.00;1
161;also jobb;3;648.00;0.00;1
162;kozepso jobb;6;651.00;0.00;1
163;kozepso kozep;5;651.50;0.00;1
164;felso bal;7;655.00;0.00;1
165;felso kozep;8;657.00;0.00;1
166;felso jobb [meleg sarok];9;665.50;0.00;1
167;kozepso jobb;6;668.00;0.00;1
168;also jobb;3;669.00;0.00;1
169;also kozepso;2;670.50;0.00;1
170;also bal [hideg sarok];1;671.50;0.00;1
171;kozepso bal;4;672.00;0.00;1
172;felso bal;7;673.50;0.00;1
173;felso kozep;8;676.50;0.00;1
174;felso jobb [meleg sarok];9;684.50;0.00;1
175;kozepso jobb;6;686.50;0.00;1
176;also jobb;3;687.00;0.00;1
177;also kozepso;2;688.50;0.00;1
178;also bal [hideg sarok];1;689.50;0.00;1
179;kozepso bal;4;691.00;0.00;1
180;felso bal;7;692.00;0.00;1
181;felso kozep;8;695.00;0.00;1
182;felso jobb [meleg sarok];9;697.50;0.00;1
183;kozepso jobb;6;700.50;0.00;1
184;also jobb;3;701.50;0.00;1
185;also kozepso;2;703.00;0.00;1
186;also bal [hideg sarok];1;704.00;0.00;1
187;kozepso bal;4;705.00;0.00;1
#188;felso bal;7;706.50;0.00;1
189;felso bal;7;706.50;0.00;1
190;felso kozep;8;719.00;0.00;1
191;felso jobb [meleg sarok];9;720.00;0.00;1
192;kozepso jobb;6;745.00;0.00;1
193;also jobb;3;745.50;0.00;1
194;also kozepso;2;747.50;0.00;1
195;also bal [hideg sarok];1;748.50;0.00;1
196;also kozepso;2;749.50;0.00;1
197;kozepso kozep;5;750.00;0.00;1
198;kozepso bal;4;751.50;0.00;1
199;felso bal;7;753.00;0.00;1
#200;felso bal;7;756.50;0.00;1
201;kozepso bal;4;756.50;0.00;1
202;also bal [hideg sarok];1;758.50;0.00;1
203;also kozepso;2;761.00;0.00;1
204;also jobb;3;762.50;0.00;1
205;kozepso jobb;6;765.50;0.00;1
206;felso jobb [meleg sarok];9;766.50;0.00;1
#207;felso kozep;8;767.00;0.00;1
208;felso kozep;8;783.00;0.00;1
209;felso bal;7;791.50;0.00;1
#210;kozepso bal;4;799.00;0.00;1
211;felso kozep;8;799.50;0.00;1
212;kozepso kozep;5;801.50;0.00;1
213;kozepso bal;4;802.00;0.00;1
214;kozepso kozep;5;803.00;0.00;1
215;also kozepso;2;805.50;0.00;1
216;also bal [hideg sarok];1;806.00;0.00;1
217;also kozepso;2;806.50;0.00;1
218;also jobb;3;812.00;0.00;1
219;kozepso jobb;6;815.00;0.00;1
220;felso jobb [meleg sarok];9;816.50;0.00;1
221;felso kozep;8;823.00;0.00;1
222;felso bal;7;824.50;0.00;1
#223;kozepso kozep;5;831.00;0.00;1
224;felso kozep;8;833.50;0.00;1
225;kozepso kozep;5;834.00;0.00;1
#226;also kozepso;2;839.00;0.00;1
#227;also kozepso;2;843.00;0.00;1
228;also kozepso;2;859.50;0.00;1
#229;also kozepso;2;860.00;0.00;1
230;also jobb;3;859.50;0.00;1
231;felso jobb [meleg sarok];9;862.00;0.00;1
232;felso kozep;8;863.50;0.00;1
233;felso bal;7;868.00;0.00;1
234;kozepso bal;4;870.50;0.00;1
235;also bal [hideg sarok];1;872.00;0.00;1
236;also kozepso;2;874.00;0.00;1
237;also jobb;3;875.00;0.00;1
238;kozepso jobb;6;878.00;0.00;1
239;felso jobb [meleg sarok];9;879.00;0.00;1
240;felso kozep;8;883.50;0.00;1
241;felso bal;7;887.00;0.00;1
242;kozepso bal;4;890.50;0.00;1
243;also bal [hideg sarok];1;891.50;0.00;1
244;also kozepso;2;893.50;0.00;1
245;also bal [hideg sarok];1;895.00;0.00;1
246;kozepso bal;4;900.00;0.00;1
#247;felso kozep;8;901.00;0.00;1
248;kozepso kozep;5;901.00;0.00;1
249;felso kozep;8;912.50;0.00;1
250;felso bal;7;926.50;0.00;1
251;kozepso bal;4;929.50;0.00;1
252;also bal [hideg sarok];1;930.50;0.00;1
253;also kozepso;2;932.00;0.00;1
254;also jobb;3;932.50;0.00;1
255;kozepso jobb;6;936.00;0.00;1
256;felso jobb [meleg sarok];9;937.00;0.00;1
257;felso kozep;8;939.00;0.00;1
258;felso bal;7;943.50;0.00;1
259;felso kozep;8;945.00;0.00;1
260;kozepso kozep;5;946.00;0.00;1
261;also kozepso;2;952.00;0.00;1
262;also jobb;3;965.50;0.00;1
263;kozepso jobb;6;966.00;0.00;1
264;felso jobb [meleg sarok];9;968.50;0.00;1
265;felso kozep;8;970.00;0.00;1
266;felso bal;7;973.00;0.00;1
267;kozepso bal;4;976.00;0.00;1
268;also kozepso;2;977.50;0.00;1
269;also jobb;3;978.50;0.00;1
270;also kozepso;2;980.00;0.00;1
271;also jobb;3;984.00;0.00;1
272;kozepso jobb;6;985.50;0.00;1
273;felso jobb [meleg sarok];9;986.50;0.00;1
274;felso kozep;8;990.50;0.00;1
275;felso bal;7;993.50;0.00;1
276;felso kozep;8;998.00;0.00;1
#277;felso jobb [meleg sarok];9;1000.50;0.00;1
#278;kozepso kozep;5;1015.00;0.00;1
#279;also kozepso;2;1018.50;0.00;1
280;kozepso jobb;6;1019.00;0.00;1
281;felso jobb [meleg sarok];9;1025.00;0.00;1
282;felso kozep;8;1029.00;0.00;1
283;felso bal;7;1031.00;0.00;1
284;kozepso bal;4;1033.50;0.00;1
285;also bal [hideg sarok];1;1035.00;0.00;1
286;also kozepso;2;1036.50;0.00;1
287;also jobb;3;1037.50;0.00;1
288;kozepso jobb;6;1040.00;0.00;1
289;felso jobb [meleg sarok];9;1041.00;0.00;1
290;felso kozep;8;1045.00;0.00;1
291;felso bal;7;1046.00;0.00;1
292;felso kozep;8;1049.00;0.00;1
293;felso jobb [meleg sarok];9;1050.50;0.00;1
294;kozepso jobb;6;1053.00;0.00;1
295;kozepso kozep;5;1054.50;0.00;1
296;kozepso jobb;6;1058.50;0.00;1
297;felso jobb [meleg sarok];9;1060.50;0.00;1
298;felso kozep;8;1062.50;0.00;1
299;felso bal;7;1068.50;0.00;1
300;kozepso bal;4;1070.00;0.00;1
301;also bal [hideg sarok];1;1071.50;0.00;1
302;kozepso bal;4;1073.50;0.00;1
303;felso bal;7;1076.50;0.00;1
304;felso kozep;8;1077.50;0.00;1
305;felso jobb [meleg sarok];9;1087.00;0.00;1
306;kozepso jobb;6;1088.50;0.00;1
#307;also kozepso;2;1099.00;0.00;1
308;kozepso kozep;5;1098.50;0.00;1
309;kozepso bal;4;1102.50;0.00;1
310;felso bal;7;1103.50;0.00;1
#311;felso kozep;8;1104.00;0.00;1
312;felso kozep;8;1104.00;0.00;1
313;felso jobb [meleg sarok];9;1109.50;0.00;1
314;kozepso jobb;6;1110.00;0.00;1
315;also kozepso;2;1112.50;0.00;1
316;also bal [hideg sarok];1;1114.50;0.00;1
317;kozepso bal;4;1115.00;0.00;1
318;felso bal;7;1116.00;0.00;1
319;felso kozep;8;1116.50;0.00;1
320;felso jobb [meleg sarok];9;1123.00;0.00;1
321;kozepso jobb;6;1123.50;0.00;1
322;kozepso kozep;5;1124.50;0.00;1
323;also kozepso;2;1125.00;0.00;1
324;kozepso bal;4;1125.50;0.00;1
325;felso bal;7;1128.00;0.00;1
326;felso kozep;8;1128.00;0.00;1
327;felso jobb [meleg sarok];9;1134.00;0.00;1
328;kozepso jobb;6;1135.00;0.00;1
329;also kozepso;2;1136.50;0.00;1
330;also bal [hideg sarok];1;1138.00;0.00;1
331;kozepso bal;4;1138.00;0.00;1
332;felso bal;7;1140.00;0.00;1
333;felso kozep;8;1142.50;0.00;1
334;felso jobb [meleg sarok];9;1143.50;0.00;1
335;kozepso jobb;6;1148.00;0.00;1
336;also jobb;3;1148.50;0.00;1
337;also kozepso;2;1149.50;0.00;1
338;also bal [hideg sarok];1;1150.50;0.00;1
339;kozepso bal;4;1151.50;0.00;1
340;felso bal;7;1156.00;0.00;1
341;felso kozep;8;1156.50;0.00;1
342;felso jobb [meleg sarok];9;1156.50;0.00;1
343;kozepso jobb;6;1161.00;0.00;1
#344;also jobb;3;1163.00;0.00;1
345;also kozepso;2;1163.50;0.00;1
346;also bal [hideg sarok];1;1164.00;0.00;1
347;kozepso bal;4;1164.50;0.00;1
348;felso bal;7;1165.50;0.00;1
349;felso kozep;8;1166.50;0.00;1
350;felso jobb [meleg sarok];9;1174.00;0.00;1
351;kozepso jobb;6;1174.50;0.00;1
352;also jobb;3;1176.00;0.00;1
353;also kozepso;2;1176.50;0.00;1
354;also bal [hideg sarok];1;1177.50;0.00;1
#355;kozepso bal;4;1178.00;0.00;1
356;kozepso bal;4;1179.50;0.00;1
357;felso bal;7;1181.00;0.00;1
358;felso kozep;8;1183.00;0.00;1
359;felso jobb [meleg sarok];9;1186.50;0.00;1
360;kozepso jobb;6;1187.50;0.00;1
361;also jobb;3;1188.50;0.00;1
362;also kozepso;2;1189.50;0.00;1
363;also bal [hideg sarok];1;1191.50;0.00;1
364;kozepso bal;4;1193.00;0.00;1
365;felso bal;7;1194.50;0.00;1
366;felso kozep;8;1198.50;0.00;1
367;felso jobb [meleg sarok];9;1200.00;0.00;1
368;kozepso jobb;6;1211.50;0.00;1
369;kozepso kozep;5;1215.00;0.00;1
370;felso kozep;8;1241.50;0.00;1
371;felso jobb [meleg sarok];9;1252.50;0.00;1
372;kozepso jobb;6;1254.50;0.00;1
373;kozepso kozep;5;1268.50;0.00;1
#374;also kozepso;2;1269.50;0.00;1
375;kozepso bal;4;1270.50;0.00;1
376;felso bal;7;1273.00;0.00;1
377;felso kozep;8;1279.50;0.00;1
378;felso jobb [meleg sarok];9;1282.50;0.00;1
379;kozepso jobb;6;1284.50;0.00;1
380;also jobb;3;1285.50;0.00;1
381;also kozepso;2;1287.00;0.00;1
382;also bal [hideg sarok];1;1289.00;0.00;1
383;kozepso bal;4;1290.00;0.00;1
384;felso bal;7;1291.50;0.00;1
#385;felso kozep;8;1296.50;0.00;1
386;felso kozep;8;1296.50;0.00;1
387;felso jobb [meleg sarok];9;1303.00;0.00;1
388;kozepso jobb;6;1304.00;0.00;1
389;also jobb;3;1305.50;0.00;1
390;also kozepso;2;1306.00;0.00;1
391;also bal [hideg sarok];1;1308.50;0.00;1
392;kozepso bal;4;1312.50;0.00;1
393;felso bal;7;1313.50;0.00;1
#394;felso bal;7;1313.50;0.00;1
395;felso bal;7;1316.00;0.00;1
396;felso kozep;8;1324.50;0.00;1
397;felso jobb [meleg sarok];9;1332.00;0.00;1
#398;kozepso jobb;6;1345.00;0.00;1
399;felso kozep;8;1346.00;0.00;1
400;kozepso kozep;5;1346.50;0.00;1
401;kozepso jobb;6;1355.50;0.00;1
402;also jobb;3;1356.50;0.00;1
403;also kozepso;2;1357.50;0.00;1
404;also bal [hideg sarok];1;1358.50;0.00;1
405;kozepso bal;4;1362.00;0.00;1
406;felso bal;7;1364.00;0.00;1
407;felso kozep;8;1369.00;0.00;1
408;felso jobb [meleg sarok];9;1382.00;0.00;1
409;kozepso jobb;6;1383.50;0.00;1
410;also jobb;3;1384.50;0.00;1
411;also kozepso;2;1386.50;0.00;1
412;also bal [hideg sarok];1;1387.50;0.00;1
413;kozepso bal;4;1420.00;0.00;1
414;kozepso kozep;5;1420.00;0.00;1
415;felso kozep;8;1437.50;0.00;1
#416;felso jobb [meleg sarok];9;1438.00;0.00;1
417;felso jobb [meleg sarok];9;1439.50;0.00;1
418;kozepso jobb;6;1456.50;0.00;1
419;kozepso kozep;5;1544.50;0.00;1
420;kozepso bal;4;1548.50;0.00;1
421;felso bal;7;1551.00;0.00;1
422;felso kozep;8;1551.50;0.00;1
423;felso jobb [meleg sarok];9;1553.00;0.00;1
424;kozepso jobb;6;1568.00;0.00;1
425;also jobb;3;1568.50;0.00;1
426;kozepso jobb;6;1573.50;0.00;1
427;kozepso kozep;5;1574.50;0.00;1
428;felso kozep;8;1577.50;0.00;1
429;felso jobb [meleg sarok];9;1586.00;0.00;1
430;kozepso jobb;6;1588.00;0.00;1
431;also jobb;3;1589.00;0.00;1
432;also kozepso;2;1591.50;0.00;1
433;also bal [hideg sarok];1;1592.50;0.00;1
#434;kozepso bal;4;1593.50;0.00;1
435;kozepso bal;4;1594.00;0.00;1
436;felso bal;7;1596.50;0.00;1
437;felso kozep;8;1597.00;0.00;1
438;felso bal;7;1603.50;0.00;1
439;felso kozep;8;1628.50;0.00;1
440;felso jobb [meleg sarok];9;1629.50;0.00;1
441;kozepso jobb;6;1697.00;0.00;1
442;also jobb;3;1701.00;0.00;1
443;also kozepso;2;1701.00;0.00;1
444;also bal [hideg sarok];1;1701.50;0.00;1
445;kozepso bal;4;1702.50;0.00;1
446;felso bal;7;1704.00;0.00;1
447;felso kozep;8;1704.50;0.00;1
448;felso jobb [meleg sarok];9;1709.00;0.00;1
449;kozepso jobb;6;1711.00;0.00;1
450;also jobb;3;1712.00;0.00;1
451;also kozepso;2;1712.50;0.00;1
452;also bal [hideg sarok];1;1715.00;0.00;1
453;kozepso bal;4;1715.50;0.00;1
454;felso bal;7;1718.00;0.00;1
455;felso kozep;8;1728.50;0.00;1
456;felso jobb [meleg sarok];9;1729.00;0.00;1
457;kozepso jobb;6;1736.00;0.00;1
458;also jobb;3;1737.00;0.00;1
459;also kozepso;2;1738.00;0.00;1
460;also bal [hideg sarok];1;1740.00;0.00;1
461;also kozepso;2;1744.50;0.00;1
#462;also jobb;3;1746.00;0.00;1
463;also jobb;3;1747.00;0.00;1
464;kozepso jobb;6;1751.00;0.00;1
465;kozepso kozep;5;1752.00;0.00;1
466;felso kozep;8;1796.00;0.00;1
467;felso bal;7;1800.00;0.00;1
468;felso kozep;8;1802.00;0.00;1
469;felso jobb [meleg sarok];9;1809.00;0.00;1
470;kozepso jobb;6;1811.50;0.00;1
471;also jobb;3;1812.50;0.00;1
472;kozepso jobb;6;1814.50;0.00;1
473;kozepso kozep;5;1817.00;0.00;1
474;kozepso bal;4;1819.50;0.00;1
#475;kozepso bal;4;1823.50;0.00;1
476;also bal [hideg sarok];1;1823.50;0.00;1
#477;also kozepso;2;1829.00;0.00;1
478;also kozepso;2;1830.50;0.00;1
479;also jobb;3;1831.50;0.00;1
480;kozepso jobb;6;1837.00;0.00;1
481;felso jobb [meleg sarok];9;1838.00;0.00;1
482;felso kozep;8;1851.50;0.00;1
483;felso bal;7;1854.00;0.00;1
484;kozepso bal;4;1858.50;0.00;1
485;kozepso kozep;5;1860.00;0.00;1
486;also kozepso;2;1869.00;0.00;1
487;also jobb;3;1872.50;0.00;1
