Data from Transmission_10-04-16-670.txt Node
Date: Fri Aug 24 10:04:16 EEST 2018
User: tibor.sos
Spectrometer: USB4F01757
Scans to average: 10
Trigger mode: 4
Integration Time (sec): 1.000000E-2
Electric dark correction enabled: true
Boxcar width: 10
XAxis mode: Wavelengths
Number of Pixels in Spectrum: 3648
>>>>>Begin Spectral Data<<<<<
178.758	-14.56
178.974	-39.69
179.191	-51.28
179.407	15.89
179.624	-3.2
179.84	26.02
180.057	17.99
180.273	26.69
180.489	38.85
180.706	32.87
180.922	46.54
181.138	58.76
181.355	94.21
181.571	67.23
181.787	94.33
182.004	101.27
182.22	102.31
182.436	149.41
182.653	135.14
182.869	149.79
183.085	181.9
183.301	222.85
183.518	143.32
183.734	146.69
183.95	162.77
184.166	197.17
184.383	181.5
184.599	193.58
184.815	179.43
185.031	152.77
185.247	162.36
185.463	167.47
185.68	187.93
185.896	194.86
186.112	295.04
186.328	278.15
186.544	316.93
186.76	306.14
186.976	260.05
187.192	276.09
187.408	351.96
187.624	425.89
187.84	319.85
188.056	286.54
188.272	259.17
188.488	288.86
188.704	261.58
188.92	297.83
189.136	243.11
189.352	262.34
189.568	329.85
189.784	348.33
190	328.65
190.216	304.8
190.432	320.66
190.648	341.41
190.864	793.76
191.08	571.21
191.296	292.44
191.511	333.48
191.727	385.22
191.943	352.96
192.159	208.25
192.375	204.16
192.591	240.13
192.806	420.81
193.022	238.8
193.238	420.65
193.454	346.22
193.669	605.76
193.885	703.85
194.101	886.86
194.317	522.1
194.532	2849.44
194.748	-2198.32
194.964	965.44
195.18	426.6
195.395	369.75
195.611	347.14
195.827	702.55
196.042	1277.11
196.258	613.17
196.473	421.15
196.689	512.03
196.905	683.29
197.12	2851.49
197.336	827.05
197.551	-867.45
197.767	307600
197.982	803.87
198.198	3780.82
198.414	3132.58
198.629	780.6
198.845	527.79
199.06	551.82
199.276	482.52
199.491	1939.46
199.707	517.9
199.922	304.7
200.137	359.26
200.353	371.13
200.568	274.32
200.784	329.97
200.999	321.4
201.215	485.81
201.43	500.38
201.645	381.97
201.861	391.84
202.076	355.33
202.291	390.65
202.507	446.64
202.722	316.68
202.937	650.66
203.153	466.32
203.368	309.24
203.583	231.33
203.798	191.57
204.014	145.9
204.229	141.21
204.444	213.38
204.659	328.6
204.875	448.6
205.09	-867.23
205.305	1169.81
205.52	-1095.93
205.735	-1099.4
205.951	8000
206.166	-463.8
206.381	-338.23
206.596	-3927.27
206.811	-1160.23
207.026	-745.39
207.241	-213.52
207.457	560.75
207.672	1894.21
207.887	-2332.71
208.102	-447.6
208.317	-559.25
208.532	1412.43
208.747	-1241.53
208.962	-759.85
209.177	1189.26
209.392	512.15
209.607	295.93
209.822	402.67
210.037	312.71
210.252	330.98
210.467	560.48
210.682	294.11
210.897	280.11
211.112	299.62
211.326	168.14
211.541	154.53
211.756	107.33
211.971	213.5
212.186	148.73
212.401	129.07
212.616	80.06
212.831	100.42
213.045	154.13
213.26	118.26
213.475	112.14
213.69	172.32
213.905	259.76
214.119	428.96
214.334	-2059.26
214.549	-191.09
214.764	306.74
214.978	225.26
215.193	303.56
215.408	-2738.46
215.622	582.64
215.837	5048.89
216.052	-2910.34
216.266	-664.3
216.481	-716.8
216.696	-424.88
216.91	10860.61
217.125	1144.07
217.34	1693.26
217.554	1762.16
217.769	-702.55
217.983	-300.35
218.198	-547.07
218.412	-866.88
218.627	702
218.842	440.65
219.056	357.47
219.271	336.46
219.485	499.86
219.7	522.44
219.914	354.85
220.129	611.76
220.343	359.26
220.558	236.95
220.772	288.12
220.986	256.88
221.201	321.86
221.415	-194.08
221.63	-67.53
221.844	-95.05
222.058	-73.28
222.273	-129.51
222.487	-153.4
222.702	-201.33
222.916	-197.04
223.13	-115.61
223.344	-111.44
223.559	-59.45
223.773	-13.42
223.987	-38.22
224.202	-7.54
224.416	-6.07
224.63	-36.36
224.844	-51.4
225.059	-49.85
225.273	-969.7
225.487	707.2
225.701	177.98
225.915	94.64
226.13	87.77
226.344	114.09
226.558	158.73
226.772	118.36
226.986	113.41
227.2	128.49
227.415	133.88
227.629	143.84
227.843	175.51
228.057	138.18
228.271	136.91
228.485	165.34
228.699	207.04
228.913	235.99
229.127	229.63
229.341	245.4
229.555	351.59
229.769	491.26
229.983	559.04
230.197	542.26
230.411	871.17
230.625	1151.1
230.839	665.3
231.053	856.23
231.267	1974.6
231.481	1652.58
231.695	974.17
231.909	501.61
232.122	324.6
232.336	314.72
232.55	462.17
232.764	591.68
232.978	548.23
233.192	597.77
233.405	731.91
233.619	537.53
233.833	216.8
234.047	381.57
234.261	663.72
234.474	513.06
234.688	-1112.56
234.902	-807.62
235.116	-369.66
235.329	-267.01
235.543	-626.42
235.757	-213.26
235.97	-138.3
236.184	-170.12
236.398	-66.47
236.612	-25.95
236.825	-71.03
237.039	-32.52
237.252	-28.9
237.466	-58.87
237.68	-711.86
237.893	56800
238.107	251.38
238.32	-973.91
238.534	363.55
238.748	247.08
238.961	169.29
239.175	170.47
239.388	149.06
239.602	119.65
239.815	146.53
240.029	188.58
240.242	185.2
240.456	129.29
240.669	74.92
240.882	87.37
241.096	173.12
241.309	143.64
241.523	256.28
241.736	383.52
241.95	-873.74
242.163	1163.91
242.376	310.82
242.59	720
242.803	-5333.33
243.016	-30.21
243.23	-285.71
243.443	-4986.67
243.656	141.35
243.87	26.55
244.083	29.41
244.296	51.94
244.509	65.28
244.723	53.74
244.936	52.92
245.149	58.19
245.362	51.22
245.576	36.15
245.789	31.29
246.002	46.43
246.215	48.31
246.428	51.53
246.641	68.73
246.855	85.91
247.068	65.12
247.281	49.52
247.494	75.68
247.707	80.59
247.92	69.51
248.133	90.42
248.346	118.18
248.559	117.36
248.772	81.07
248.985	62.41
249.198	50.93
249.411	48.93
249.624	64.11
249.837	68.34
250.05	83.45
250.263	73.37
250.476	71.83
250.689	65.58
250.902	60.57
251.115	38.87
251.328	38.57
251.541	43.72
251.754	44.36
251.967	43.18
252.18	38.42
252.393	39.48
252.605	34.54
252.818	30.64
253.031	22.74
253.244	28.4
253.457	28.75
253.67	26
253.882	38.44
254.095	41.89
254.308	44.41
254.521	32.14
254.733	35.46
254.946	33.37
255.159	28.82
255.372	25.83
255.584	36.3
255.797	41.06
256.01	35.82
256.222	37.75
256.435	31.93
256.648	42.99
256.86	43.69
257.073	58.96
257.285	64.15
257.498	73.59
257.711	62.76
257.923	58.31
258.136	62.34
258.348	45.76
258.561	37.02
258.773	21.99
258.986	19.07
259.198	9.05
259.411	5.16
259.623	10.88
259.836	18.09
260.048	23.68
260.261	42.33
260.473	45.13
260.686	39.74
260.898	46.71
261.111	44.73
261.323	50.39
261.535	35.58
261.748	34.39
261.96	36.36
262.173	42.96
262.385	49.46
262.597	45.34
262.81	50.47
263.022	48.7
263.234	54.85
263.447	58.33
263.659	62.21
263.871	61.48
264.083	63.3
264.296	63.78
264.508	65.45
264.72	54.22
264.932	55.85
265.145	50.95
265.357	45.11
265.569	39.14
265.781	31.94
265.993	43.38
266.205	32.1
266.418	35
266.63	30.32
266.842	42.03
267.054	59.5
267.266	62.07
267.478	64.82
267.69	55.7
267.902	31.23
268.114	39.36
268.326	32.22
268.538	46.98
268.75	49.82
268.962	38.05
269.174	33.14
269.386	35.75
269.598	46.19
269.81	38.79
270.022	34.85
270.234	33.62
270.446	31.19
270.658	28.72
270.87	32.45
271.082	35.99
271.294	34.65
271.506	32.08
271.718	26.4
271.929	26.6
272.141	30.7
272.353	38.64
272.565	39.88
272.777	41.78
272.989	37.81
273.2	37.81
273.412	40.44
273.624	39.67
273.836	34.94
274.047	35.8
274.259	41.34
274.471	44.56
274.683	40.75
274.894	44.41
275.106	53.09
275.318	51.69
275.529	50.04
275.741	40.62
275.953	45.53
276.164	48.99
276.376	49.94
276.588	48.95
276.799	54.3
277.011	54.39
277.222	51.5
277.434	43.85
277.646	36.63
277.857	31.02
278.069	35.91
278.28	40.33
278.492	33.07
278.703	27.59
278.915	30.08
279.126	39.78
279.338	36.09
279.549	39.34
279.761	39.37
279.972	38.35
280.183	36.68
280.395	36.59
280.606	32.8
280.818	30.85
281.029	27.39
281.24	21.64
281.452	19.32
281.663	20.43
281.875	30.96
282.086	39.6
282.297	41.08
282.508	40.83
282.72	46.38
282.931	50.45
283.142	55.07
283.354	55
283.565	47.2
283.776	53.17
283.987	47.26
284.199	30.64
284.41	34.96
284.621	47.5
284.832	44.07
285.043	45.03
285.254	45.41
285.466	44.79
285.677	44.97
285.888	39.1
286.099	37.08
286.31	35.48
286.521	19.33
286.732	18.58
286.943	19.68
287.154	17.65
287.366	19.72
287.577	19.56
287.788	20.4
287.999	21.98
288.21	12.91
288.421	15.66
288.632	20.16
288.843	24.76
289.054	23.52
289.264	16.92
289.475	17.55
289.686	26.24
289.897	29.65
290.108	28.39
290.319	29.89
290.53	34.23
290.741	31.96
290.952	38.41
291.163	37.9
291.373	39.15
291.584	39.87
291.795	37.92
292.006	32.02
292.217	30.91
292.427	33.47
292.638	35.97
292.849	36.27
293.06	36.1
293.27	29.12
293.481	25.92
293.692	32.39
293.903	32.63
294.113	31.04
294.324	29.85
294.535	27.7
294.745	28.51
294.956	29.42
295.167	23.86
295.377	28.3
295.588	34.7
295.798	37.03
296.009	29.77
296.22	29.62
296.43	30.21
296.641	28.22
296.851	23.22
297.062	23.12
297.272	27.44
297.483	25.35
297.693	24.24
297.904	30.68
298.114	35.27
298.325	36.4
298.535	29.87
298.746	27.06
298.956	35.98
299.167	28.89
299.377	21.53
299.587	22.73
299.798	13.33
300.008	6.83
300.219	6.71
300.429	16.48
300.639	20.23
300.85	26.51
301.06	22.68
301.27	30.5
301.481	27.84
301.691	18.23
301.901	24.91
302.111	20.96
302.322	20.49
302.532	12.43
302.742	10.98
302.952	18.85
303.163	17.37
303.373	6.14
303.583	15.73
303.793	23.84
304.003	24.21
304.214	32.06
304.424	31.8
304.634	25.6
304.844	29.02
305.054	32.35
305.264	30.93
305.474	35.31
305.684	33.85
305.894	39.95
306.104	43.24
306.314	42.13
306.525	46.35
306.735	44.03
306.945	41.14
307.155	39.92
307.365	42.08
307.575	47.67
307.784	48.35
307.994	48.88
308.204	41.48
308.414	42.57
308.624	42.32
308.834	45.11
309.044	48.5
309.254	40.08
309.464	35.64
309.674	30.66
309.884	27.95
310.093	29.36
310.303	25.88
310.513	32.59
310.723	30.63
310.933	34.11
311.142	32.13
311.352	33.7
311.562	35.87
311.772	29.68
311.981	26.33
312.191	21.7
312.401	22.31
312.611	26.2
312.82	24.74
313.03	24.08
313.24	22.97
313.449	24.82
313.659	23.91
313.869	22.72
314.078	26.19
314.288	27.91
314.497	27.63
314.707	30.64
314.917	22.94
315.126	30.9
315.336	27.56
315.545	30.36
315.755	28.78
315.964	26.4
316.174	31.13
316.383	31.45
316.593	32.86
316.802	34.22
317.012	28.64
317.221	32.87
317.431	32.71
317.64	36.5
317.849	37.97
318.059	40.2
318.268	44.14
318.478	46.25
318.687	46.16
318.896	42.03
319.106	38.82
319.315	43.4
319.524	33.69
319.734	31.52
319.943	35.01
320.152	33.32
320.362	31.99
320.571	32.47
320.78	30.08
320.989	34.74
321.199	31.71
321.408	36.09
321.617	36.22
321.826	34.4
322.035	27.08
322.245	25.03
322.454	26.95
322.663	23.87
322.872	19.52
323.081	18.93
323.29	21.14
323.5	16.88
323.709	12.7
323.918	18.09
324.127	16.96
324.336	13.93
324.545	15.51
324.754	16.94
324.963	9.45
325.172	18.53
325.381	17.59
325.59	19.59
325.799	20.99
326.008	9.11
326.217	8.74
326.426	16.82
326.635	20.24
326.844	17.89
327.053	22.35
327.262	27.84
327.47	27.97
327.679	28.67
327.888	31.09
328.097	31.29
328.306	34.81
328.515	36.35
328.724	36.16
328.932	30.33
329.141	28.03
329.35	32.26
329.559	25.15
329.768	29.35
329.976	26.55
330.185	27
330.394	33.16
330.602	36.01
330.811	27.98
331.02	28.3
331.229	27.83
331.437	26.25
331.646	19.01
331.855	16.97
332.063	14.54
332.272	14.1
332.48	14.82
332.689	8.52
332.898	11.27
333.106	5.76
333.315	17.15
333.523	18.07
333.732	16.66
333.94	23.74
334.149	16.34
334.357	13.49
334.566	17.84
334.774	25.77
334.983	22.97
335.191	22.14
335.4	15.51
335.608	14.88
335.817	15.1
336.025	25.17
336.234	35.16
336.442	36.2
336.65	44.24
336.859	34.95
337.067	40.33
337.275	43.04
337.484	44.08
337.692	41.77
337.9	46.85
338.109	55.91
338.317	53.14
338.525	61.33
338.734	65.13
338.942	56.42
339.15	42.6
339.358	43.46
339.567	50.78
339.775	54.52
339.983	52.5
340.191	53.04
340.399	51.25
340.608	45.31
340.816	48.51
341.024	45.55
341.232	46.24
341.44	43.33
341.648	42.91
341.856	45.69
342.064	40.07
342.272	31.85
342.481	26.84
342.689	25.13
342.897	17.05
343.105	17.2
343.313	27.08
343.521	34.18
343.729	25.64
343.937	25.53
344.145	18.99
344.353	23.05
344.56	17.53
344.768	19.76
344.976	12.68
345.184	0.92
345.392	-0.63
345.6	8.04
345.808	6.19
346.016	-1.23
346.224	1.08
346.431	12.34
346.639	17.36
346.847	12.93
347.055	13.68
347.263	9.62
347.471	5.14
347.678	1.22
347.886	-11.36
348.094	0.27
348.302	-2.49
348.509	10.61
348.717	12.31
348.925	13.85
349.132	12.96
349.34	10.19
349.548	21.66
349.755	17.71
349.963	7.32
350.171	8.74
350.378	12.47
350.586	7
350.793	1
351.001	5.06
351.209	9.15
351.416	9.98
351.624	16.56
351.831	17.57
352.039	11.79
352.246	14.68
352.454	10.81
352.661	7.81
352.869	3.66
353.076	-2.83
353.284	3.61
353.491	8.05
353.699	16.35
353.906	17.86
354.113	26.22
354.321	26.71
354.528	29.32
354.736	30.34
354.943	34.39
355.15	37.95
355.358	38.65
355.565	45.26
355.772	49.31
355.98	49.67
356.187	50.88
356.394	44.5
356.601	41.11
356.809	42.17
357.016	45.23
357.223	49.5
357.43	46.05
357.638	49.11
357.845	50.45
358.052	46.97
358.259	47.35
358.466	44.3
358.673	49.58
358.881	49.3
359.088	46.1
359.295	42.17
359.502	38.34
359.709	28.75
359.916	24.55
360.123	27.77
360.33	22.6
360.537	19.68
360.744	32.95
360.951	30.03
361.158	44.68
361.365	52.2
361.572	45.17
361.779	54.27
361.986	49.67
362.193	41.89
362.4	42.25
362.607	30.12
362.814	31.17
363.021	27.31
363.228	23.66
363.435	23.3
363.641	20.63
363.848	16.59
364.055	25.46
364.262	28.13
364.469	24.1
364.676	30.38
364.882	25.47
365.089	22.61
365.296	27.3
365.503	17.14
365.709	5.92
365.916	3.34
366.123	-0.26
366.33	-2.45
366.536	2.58
366.743	4.33
366.95	15.87
367.156	11.88
367.363	9.34
367.57	6.5
367.776	8.1
367.983	19.57
368.19	22
368.396	23.69
368.603	24.5
368.809	34.55
369.016	37.47
369.222	40.24
369.429	41.38
369.635	39.15
369.842	41.99
370.048	51.94
370.255	47.98
370.461	48.37
370.668	49.14
370.874	45.52
371.081	44.78
371.287	41.13
371.494	42.23
371.7	44.85
371.906	44.67
372.113	42.99
372.319	39.41
372.526	43.57
372.732	35.28
372.938	27.77
373.145	17.69
373.351	11.34
373.557	14.58
373.763	11.59
373.97	11.24
374.176	16.02
374.382	12.29
374.588	19.37
374.795	19.65
375.001	14.99
375.207	14.83
375.413	14.81
375.62	15.17
375.826	16.65
376.032	19.97
376.238	21.55
376.444	20.6
376.65	13.76
376.856	3.73
377.062	9.84
377.269	17.4
377.475	10.7
377.681	9.65
377.887	1.32
378.093	-5.92
378.299	-6.53
378.505	-8.36
378.711	-14.35
378.917	-21.32
379.123	-17.04
379.329	-9.16
379.535	-11.08
379.741	-11.79
379.947	-6.84
380.152	-7.17
380.358	-7.91
380.564	-9.29
380.77	-12.09
380.976	-15.47
381.182	-10.47
381.388	-5.44
381.594	-9.97
381.799	0.86
382.005	3.1
382.211	11.38
382.417	14.44
382.623	10.24
382.828	14.6
383.034	18.13
383.24	18.33
383.445	22.96
383.651	21.77
383.857	26.59
384.063	33.01
384.268	24.04
384.474	27.29
384.68	27.54
384.885	29.61
385.091	33.56
385.296	39.3
385.502	44.22
385.708	36.08
385.913	45.5
386.119	33.63
386.324	43.52
386.53	37.77
386.735	36.51
386.941	39.53
387.146	37.17
387.352	34.77
387.557	35.97
387.763	35.11
387.968	31.05
388.174	39.69
388.379	31.37
388.585	30.35
388.79	32.88
388.996	30.42
389.201	31.59
389.406	24.92
389.612	24.38
389.817	25.07
390.022	25.93
390.228	28.45
390.433	36.84
390.638	30.58
390.844	34.05
391.049	41.44
391.254	41.88
391.459	32.97
391.665	23.43
391.87	21.37
392.075	23.58
392.28	33.54
392.485	30.24
392.691	26.27
392.896	27.88
393.101	23.35
393.306	29.87
393.511	33.02
393.716	38.46
393.922	33.58
394.127	27.48
394.332	30.31
394.537	27.98
394.742	27.6
394.947	38.26
395.152	32.06
395.357	30.74
395.562	34.11
395.767	31.73
395.972	42.73
396.177	44.82
396.382	45.48
396.587	45.05
396.792	44.46
396.997	52.73
397.202	55.13
397.407	57.56
397.611	56.05
397.816	51.63
398.021	50.85
398.226	51.9
398.431	56.2
398.636	58.92
398.841	59.31
399.045	60.15
399.25	49.99
399.455	59.08
399.66	57.21
399.864	51.38
400.069	55.31
400.274	60.65
400.479	57.35
400.683	57.55
400.888	58.43
401.093	57.78
401.297	58.4
401.502	52.85
401.707	49.78
401.911	54.68
402.116	62.91
402.321	57.55
402.525	64.78
402.73	57.96
402.934	56.31
403.139	59.6
403.344	54.16
403.548	55.02
403.753	45.79
403.957	48.65
404.162	51.47
404.366	54.53
404.571	45.09
404.775	42.42
404.98	33.99
405.184	28.63
405.388	22.75
405.593	21.21
405.797	21.9
406.002	30.63
406.206	21.42
406.41	21.17
406.615	32.34
406.819	32.01
407.023	37.84
407.228	37.89
407.432	36.12
407.636	32.83
407.841	47.3
408.045	53.46
408.249	50.59
408.453	55.67
408.658	54.98
408.862	56.74
409.066	60.28
409.27	62.85
409.474	68.45
409.679	73.82
409.883	75.16
410.087	87.71
410.291	86.98
410.495	84.42
410.699	93.4
410.903	81.76
411.108	82.27
411.312	79.56
411.516	84.52
411.72	78.16
411.924	75.48
412.128	64.88
412.332	55.14
412.536	52.73
412.74	51.07
412.944	57.91
413.148	56.48
413.352	53.81
413.556	53.61
413.76	43.46
413.964	46.43
414.167	49.48
414.371	52.06
414.575	49.76
414.779	52.83
414.983	42.5
415.187	42.76
415.391	42.61
415.594	52.39
415.798	49.28
416.002	45.81
416.206	55.55
416.41	56.27
416.613	59.3
416.817	65.5
417.021	69.39
417.225	62.12
417.428	57.86
417.632	53.01
417.836	47.16
418.039	53.22
418.243	54.32
418.447	44.6
418.65	46.29
418.854	53.22
419.057	52.12
419.261	52.12
419.465	59.68
419.668	62.65
419.872	48.75
420.075	53.97
420.279	61.31
420.482	49.32
420.686	42.34
420.889	50.43
421.093	53.8
421.296	51.21
421.5	39.88
421.703	40.62
421.907	46.61
422.11	51.04
422.314	43.79
422.517	27.92
422.72	33.95
422.924	20.48
423.127	7.9
423.33	0.98
423.534	12.58
423.737	9.44
423.94	3.93
424.144	19.5
424.347	22.06
424.55	12.87
424.754	19.6
424.957	19.73
425.16	17.12
425.363	7.22
425.567	12.85
425.77	25.77
425.973	37.66
426.176	33.57
426.379	37.61
426.582	46.13
426.786	58.95
426.989	55.98
427.192	73.61
427.395	71.58
427.598	69.28
427.801	62.08
428.004	59.59
428.207	64.09
428.41	60.98
428.613	60.43
428.816	67.68
429.019	65.47
429.222	59.9
429.425	58.46
429.628	57.87
429.831	54.82
430.034	54.62
430.237	47.89
430.44	49.9
430.643	44.17
430.846	41.82
431.049	40.36
431.252	41.14
431.454	37.48
431.657	40.5
431.86	43.32
432.063	45.09
432.266	45
432.469	38.27
432.671	38.38
432.874	37.84
433.077	30.28
433.28	27.35
433.482	32.57
433.685	31.44
433.888	27.93
434.09	26.01
434.293	17.16
434.496	21.23
434.698	19.9
434.901	27.94
435.104	30.12
435.306	28.93
435.509	23.1
435.712	21.26
435.914	12.35
436.117	17.13
436.319	22.13
436.522	17.75
436.724	18.27
436.927	4.04
437.129	5.75
437.332	9.27
437.534	14.74
437.737	3.02
437.939	18.19
438.142	21.98
438.344	17.91
438.547	31.91
438.749	33.54
438.951	27.25
439.154	25.8
439.356	25.91
439.558	20.56
439.761	32.77
439.963	27.11
440.165	22.81
440.368	22.59
440.57	7.39
440.772	16.52
440.975	11.77
441.177	39.49
441.379	42.84
441.581	29.88
441.784	23.9
441.986	36.01
442.188	18.31
442.39	22.88
442.592	25.64
442.795	21.55
442.997	10.68
443.199	9.35
443.401	9.08
443.603	9.28
443.805	7.49
444.007	9.65
444.209	14.49
444.411	22.21
444.613	16.88
444.815	23.03
445.017	28.75
445.219	38.17
445.421	31.13
445.623	23.93
445.825	26.01
446.027	29.45
446.229	24.46
446.431	36.2
446.633	28.83
446.835	23.65
447.037	20.21
447.239	26.08
447.441	35.7
447.643	35.39
447.844	25.41
448.046	34.37
448.248	32.34
448.45	38.26
448.652	34.94
448.853	54.34
449.055	56.66
449.257	43.05
449.459	29.42
449.66	43.78
449.862	50.97
450.064	52.23
450.266	44.78
450.467	40.34
450.669	44.11
450.871	52.56
451.072	65.21
451.274	77.3
451.475	71.23
451.677	65.45
451.879	70.44
452.08	72.52
452.282	60.88
452.483	69.99
452.685	56.74
452.886	59.35
453.088	37.31
453.289	27.4
453.491	6.27
453.692	-32.33
453.894	-29.89
454.095	-19.72
454.297	-33.82
454.498	-19.12
454.7	-4.93
454.901	4.95
455.102	-4.12
455.304	-5.02
455.505	-0.54
455.706	-3.13
455.908	-4.12
456.109	-2.05
456.31	4.58
456.512	1.29
456.713	6.77
456.914	7.59
457.116	0.35
457.317	9.03
457.518	16.28
457.719	29.02
457.921	48.25
458.122	40.7
458.323	34.92
458.524	44.32
458.725	40.52
458.926	42.75
459.128	41.25
459.329	47.15
459.53	48.36
459.731	49.22
459.932	51.25
460.133	50.88
460.334	58.65
460.535	64.4
460.736	60.41
460.937	52.54
461.138	39.59
461.339	47.35
461.54	45.01
461.741	42.8
461.942	40.73
462.143	43.21
462.344	42.58
462.545	44.76
462.746	47.29
462.947	52.45
463.148	50.62
463.348	39.52
463.549	38.46
463.75	33.88
463.951	29.43
464.152	24.24
464.353	27.71
464.553	30.29
464.754	26.44
464.955	28.08
465.156	26.77
465.356	33.95
465.557	29.52
465.758	30.32
465.959	31.97
466.159	34.41
466.36	30.05
466.561	36.74
466.761	42.3
466.962	36.65
467.163	34.6
467.363	31.47
467.564	37.99
467.764	44.27
467.965	44.73
468.166	46.96
468.366	59.67
468.567	56.88
468.767	59.36
468.968	59.76
469.168	60.09
469.369	70.49
469.569	68.2
469.77	62.3
469.97	64.95
470.17	62.94
470.371	59.77
470.571	58.54
470.772	64.59
470.972	59.89
471.172	62.71
471.373	62.68
471.573	59.08
471.773	59.5
471.974	58.18
472.174	58.6
472.374	61.9
472.575	58.94
472.775	53
472.975	42.64
473.175	41.32
473.376	37.66
473.576	30.46
473.776	29.49
473.976	35.87
474.177	39.84
474.377	34.52
474.577	31.44
474.777	34.26
474.977	24.5
475.177	23.06
475.377	22.49
475.577	24.54
475.777	21.77
475.978	17.16
476.178	17.59
476.378	22.13
476.578	18.82
476.778	13.96
476.978	13.94
477.178	19.43
477.378	18.04
477.578	18.95
477.778	17.77
477.977	18.11
478.177	13.52
478.377	6.23
478.577	8.75
478.777	16.27
478.977	14.6
479.177	16.29
479.377	17.47
479.577	12.1
479.776	14.5
479.976	16.26
480.176	23.76
480.376	26.18
480.576	22.29
480.775	15.49
480.975	21.88
481.175	24.62
481.374	26.46
481.574	28.18
481.774	28.35
481.974	30.69
482.173	25.11
482.373	26.01
482.572	27.45
482.772	26.07
482.972	23.69
483.171	23.09
483.371	26.73
483.57	26.71
483.77	33.25
483.97	32
484.169	27.75
484.369	21.9
484.568	18.94
484.768	24.1
484.967	28.82
485.167	28.17
485.366	27.24
485.566	26.48
485.765	28.4
485.964	27.81
486.164	25.77
486.363	29.06
486.563	32.33
486.762	31.87
486.961	34.35
487.161	36.73
487.36	34.32
487.559	32.18
487.759	31.62
487.958	24.48
488.157	20.44
488.356	26.98
488.556	25.54
488.755	25.67
488.954	22.32
489.153	21.09
489.353	22.99
489.552	23.07
489.751	17.22
489.95	20.4
490.149	18.7
490.348	18.95
490.548	21.05
490.747	18.55
490.946	18.82
491.145	20.77
491.344	14.63
491.543	14.33
491.742	11.38
491.941	5.56
492.14	6.17
492.339	6.12
492.538	2.99
492.737	4.57
492.936	5.67
493.135	4.21
493.334	0.43
493.533	-6.82
493.732	-2.87
493.931	7.72
494.13	-2.64
494.328	2.84
494.527	1.15
494.726	-0.5
494.925	-0.34
495.124	-3.34
495.323	-7.73
495.521	-5.75
495.72	0.49
495.919	2.06
496.118	4.13
496.316	7.43
496.515	11.37
496.714	8.91
496.913	11.83
497.111	9.99
497.31	7.53
497.509	9.51
497.707	12.34
497.906	14.41
498.105	6.68
498.303	11.43
498.502	8.53
498.7	14.51
498.899	11.9
499.097	10.37
499.296	12.14
499.495	17.42
499.693	18.84
499.892	14.37
500.09	13.25
500.289	17.36
500.487	15.98
500.686	13.67
500.884	17.13
501.082	14.92
501.281	11.35
501.479	10.8
501.678	12.11
501.876	7.22
502.074	3.22
502.273	5.76
502.471	9.86
502.669	10.81
502.868	6.77
503.066	6.86
503.264	9.1
503.463	7.54
503.661	-0.52
503.859	-1.44
504.057	3.34
504.256	9.19
504.454	8.3
504.652	4.17
504.85	8.28
505.048	7.23
505.246	7.8
505.445	11.88
505.643	13.59
505.841	17.04
506.039	20.19
506.237	20.21
506.435	23.2
506.633	17.14
506.831	21.48
507.029	23.83
507.227	30.58
507.425	33.94
507.623	35.4
507.821	38.44
508.019	40.86
508.217	46.31
508.415	43.91
508.613	42.22
508.811	45.23
509.009	41.55
509.207	43.53
509.405	41.47
509.603	37.43
509.8	34.76
509.998	31.79
510.196	31.02
510.394	30.13
510.592	30.01
510.79	31.78
510.987	28.19
511.185	26.29
511.383	21.44
511.581	15.65
511.778	21.54
511.976	22.49
512.174	17.4
512.371	9.21
512.569	9.36
512.767	10.08
512.964	5.53
513.162	6.11
513.36	0.57
513.557	1.18
513.755	6.48
513.952	12.99
514.15	11.18
514.348	10.9
514.545	15.88
514.743	18.18
514.94	18.24
515.138	16.62
515.335	19.81
515.533	20
515.73	21.02
515.927	18.71
516.125	18.45
516.322	23.36
516.52	26.62
516.717	26.7
516.915	25.56
517.112	25.87
517.309	25.61
517.507	32.67
517.704	30.04
517.901	25.04
518.099	22.56
518.296	24.67
518.493	26.8
518.69	24.16
518.888	21.2
519.085	22.43
519.282	24.62
519.479	25.46
519.676	25.64
519.874	24.86
520.071	20.72
520.268	24
520.465	21.91
520.662	21.05
520.859	20.94
521.056	19.77
521.254	26.66
521.451	28.33
521.648	27.33
521.845	29.53
522.042	32.1
522.239	31.77
522.436	31.62
522.633	30.16
522.83	30.55
523.027	25.82
523.224	28.53
523.421	27.26
523.618	21.98
523.815	24
524.011	28.29
524.208	32.18
524.405	30.17
524.602	29.94
524.799	24.79
524.996	22.42
525.193	25.63
525.389	17.79
525.586	18.85
525.783	12.3
525.98	14.38
526.176	15.56
526.373	14.45
526.57	11.81
526.767	12.9
526.963	13.33
527.16	16.17
527.357	11.75
527.553	10.5
527.75	9.33
527.947	5.06
528.143	2.79
528.34	-1.36
528.537	-1.17
528.733	4.14
528.93	9.18
529.126	12.51
529.323	11.4
529.519	17.21
529.716	13.69
529.912	18.68
530.109	17.66
530.305	15.12
530.502	19.48
530.698	19.11
530.895	17.28
531.091	18.03
531.288	16.84
531.484	18.24
531.68	18.27
531.877	18.79
532.073	20.33
532.269	20.37
532.466	22.09
532.662	21.75
532.858	18.63
533.055	18.12
533.251	17.69
533.447	17.61
533.643	19.48
533.84	19.76
534.036	21.03
534.232	21.75
534.428	23.23
534.624	20.01
534.821	23.3
535.017	25.27
535.213	25.29
535.409	28.54
535.605	29.33
535.801	28.48
535.997	32.21
536.193	31.48
536.389	33.52
536.586	32.06
536.782	32.45
536.978	34.58
537.174	35.22
537.37	35.99
537.566	36.42
537.762	32.3
537.958	32.55
538.153	28.65
538.349	28.86
538.545	28.31
538.741	29.38
538.937	28.14
539.133	31.29
539.329	32.11
539.525	31.23
539.721	28.24
539.916	33.25
540.112	31.2
540.308	32.7
540.504	31
540.699	32.98
540.895	33.4
541.091	35.35
541.287	36.17
541.482	34.99
541.678	39.28
541.874	39.49
542.069	40.44
542.265	41.29
542.461	40.88
542.656	42.67
542.852	42.99
543.048	44.43
543.243	41.96
543.439	41.53
543.634	40.05
543.83	42.46
544.025	39.16
544.221	38.37
544.417	38.08
544.612	39.6
544.807	39.5
545.003	39.52
545.198	37.15
545.394	38.85
545.589	43.28
545.785	41.05
545.98	39.35
546.176	38.19
546.371	36.37
546.566	36.74
546.762	33.29
546.957	33.98
547.152	31.04
547.348	29.16
547.543	29.78
547.738	30.05
547.933	28.44
548.129	29.1
548.324	31.08
548.519	30.74
548.714	28.12
548.91	27.45
549.105	24.66
549.3	23.53
549.495	24.2
549.69	19.4
549.885	17.54
550.08	24.56
550.276	27.67
550.471	31.72
550.666	30.75
550.861	31.87
551.056	31.56
551.251	33.14
551.446	35.62
551.641	32.53
551.836	33.23
552.031	34.54
552.226	33.46
552.421	32.93
552.616	34.17
552.811	35.6
553.006	34.13
553.201	32.72
553.395	34.48
553.59	30.79
553.785	30.29
553.98	31.46
554.175	26.17
554.37	24.47
554.565	24.22
554.759	23.22
554.954	23.53
555.149	22.83
555.344	24.66
555.538	21.29
555.733	22.44
555.928	23.36
556.122	22.72
556.317	24.5
556.512	22.92
556.706	23.37
556.901	22.2
557.096	23.52
557.29	26.24
557.485	25.17
557.68	26.5
557.874	26.8
558.069	28.57
558.263	28.07
558.458	30.09
558.652	29.59
558.847	30.68
559.041	34.74
559.236	33.9
559.43	34.86
559.625	38.2
559.819	36.47
560.014	36.1
560.208	35.35
560.402	36.01
560.597	38.02
560.791	33.72
560.986	33.54
561.18	33.5
561.374	34.99
561.569	33.59
561.763	33.43
561.957	32.85
562.151	29.55
562.346	31.63
562.54	31.04
562.734	30.36
562.928	30.7
563.123	29.44
563.317	29.2
563.511	28.66
563.705	27.37
563.899	30.35
564.093	29.66
564.288	31.39
564.482	31.45
564.676	30.78
564.87	34.26
565.064	34.62
565.258	35.22
565.452	35.04
565.646	38.4
565.84	38.44
566.034	38.19
566.228	40.37
566.422	40.78
566.616	39.63
566.81	42.24
567.004	40.73
567.198	40.46
567.392	40.26
567.586	37.29
567.779	38.01
567.973	36.25
568.167	38.46
568.361	36.46
568.555	35.11
568.749	34.54
568.942	33.22
569.136	34.19
569.33	33.74
569.524	33.08
569.718	31.62
569.911	30.92
570.105	32.13
570.299	30.39
570.492	30.05
570.686	31.54
570.88	29.95
571.073	30.03
571.267	28.55
571.461	29.53
571.654	29.62
571.848	29.86
572.041	30.33
572.235	29.72
572.429	32.39
572.622	29.84
572.816	30.27
573.009	29.82
573.203	28.42
573.396	29.03
573.59	29.51
573.783	30.54
573.976	30.07
574.17	28.56
574.363	28.8
574.557	28.2
574.75	25.96
574.943	27.21
575.137	28.04
575.33	27.47
575.523	26.93
575.717	26.88
575.91	25.67
576.103	25.16
576.297	23.69
576.49	22.17
576.683	22.72
576.876	21.77
577.07	20.8
577.263	22.37
577.456	21.27
577.649	19.37
577.842	18.89
578.036	20.88
578.229	21.32
578.422	22.08
578.615	21.52
578.808	20.22
579.001	20.92
579.194	21.01
579.387	23.24
579.58	23.56
579.773	23.35
579.966	23.59
580.159	23.6
580.352	23.68
580.545	23.69
580.738	25.08
580.931	24.01
581.124	24.56
581.317	22.05
581.51	23.94
581.703	26.48
581.896	26.35
582.088	25.85
582.281	26.69
582.474	26.3
582.667	28.69
582.86	32.21
583.053	31.43
583.245	31.74
583.438	30.31
583.631	30.17
583.824	30.58
584.016	31.08
584.209	32.45
584.402	33.98
584.594	34.92
584.787	35.15
584.98	36.2
585.172	38.2
585.365	39.4
585.558	37.66
585.75	36.41
585.943	35.65
586.135	33.78
586.328	33
586.52	34.24
586.713	33.14
586.906	32.26
587.098	30.98
587.291	31.58
587.483	29.55
587.675	29.77
587.868	28.45
588.06	27.52
588.253	28.32
588.445	26.79
588.638	25.27
588.83	25.91
589.022	26.07
589.215	25.16
589.407	27.1
589.599	28.8
589.792	28.36
589.984	28.12
590.176	29.51
590.368	30.84
590.561	28.86
590.753	30.18
590.945	28.39
591.137	28.62
591.33	27.37
591.522	31.23
591.714	32.42
591.906	36.47
592.098	36.95
592.29	36.26
592.482	36.55
592.674	36.45
592.867	35.68
593.059	36.28
593.251	36.35
593.443	36.85
593.635	35.05
593.827	34.52
594.019	34.45
594.211	34.01
594.403	36.11
594.595	37.45
594.787	35.13
594.979	34.66
595.17	34.91
595.362	34.91
595.554	35.28
595.746	33.87
595.938	30.32
596.13	30.07
596.322	27.97
596.513	26.84
596.705	27.18
596.897	25.59
597.089	24.95
597.281	23.86
597.472	21.77
597.664	21.11
597.856	23.03
598.048	23.73
598.239	22.03
598.431	19.75
598.623	17.92
598.814	15.66
599.006	18.98
599.197	19.76
599.389	20.2
599.581	18.45
599.772	18.31
599.964	20.62
600.155	20.34
600.347	22.53
600.538	23.74
600.73	24.63
600.921	26.39
601.113	26.92
601.304	26.5
601.496	27.11
601.687	27.08
601.879	24.63
602.07	25.29
602.262	27.51
602.453	27.89
602.644	27.79
602.836	29.91
603.027	28.55
603.218	27.45
603.41	26.31
603.601	25.33
603.792	25.54
603.983	25.46
604.175	26.33
604.366	24.74
604.557	25.49
604.748	23.9
604.94	23.53
605.131	21.59
605.322	22.32
605.513	23.4
605.704	24.73
605.895	26.57
606.086	25.28
606.278	24.74
606.469	25.31
606.66	28.09
606.851	28.14
607.042	27.25
607.233	28.1
607.424	28
607.615	28.89
607.806	28.57
607.997	26.01
608.188	26.78
608.379	25.9
608.57	25.43
608.761	24.94
608.952	24.24
609.142	25.3
609.333	25.71
609.524	25.39
609.715	25.44
609.906	25.14
610.097	27.12
610.287	27.64
610.478	26.63
610.669	24.93
610.86	25.3
611.051	25.75
611.241	26.96
611.432	28.54
611.623	28.52
611.813	27.88
612.004	30.14
612.195	30.51
612.385	31.31
612.576	31.74
612.767	33.26
612.957	32.15
613.148	32.56
613.338	32.12
613.529	31.59
613.72	30.84
613.91	30.34
614.101	28.39
614.291	28.01
614.482	29.04
614.672	28.17
614.863	27.87
615.053	27.83
615.243	26.39
615.434	24.73
615.624	24.75
615.815	26.72
616.005	25.07
616.195	22.48
616.386	23.05
616.576	22.18
616.766	20.98
616.957	21.68
617.147	20.95
617.337	19.11
617.528	18.74
617.718	18.7
617.908	19.25
618.098	19.72
618.289	20.48
618.479	19.56
618.669	20.52
618.859	21.63
619.049	21.98
619.239	22.88
619.43	22.6
619.62	22.04
619.81	21.85
620	23.09
620.19	23.33
620.38	21.65
620.57	22.26
620.76	21.98
620.95	23.57
621.14	24
621.33	25.35
621.52	25.51
621.71	25.72
621.9	24.03
622.09	24.63
622.28	24.7
622.47	23.25
622.659	22.25
622.849	21.72
623.039	22.72
623.229	21.08
623.419	23.19
623.609	22.71
623.799	21.32
623.988	19.67
624.178	21.19
624.368	21.72
624.558	21.64
624.747	22.53
624.937	22.86
625.127	21.83
625.316	21.24
625.506	22.41
625.696	21.64
625.885	21.09
626.075	20.88
626.265	20.81
626.454	23.06
626.644	23.32
626.833	21.62
627.023	21.1
627.212	21.15
627.402	20.5
627.591	21.97
627.781	22.97
627.97	24.45
628.16	24.26
628.349	25.14
628.539	24.27
628.728	24.27
628.918	23.41
629.107	24.09
629.296	24.35
629.486	22.98
629.675	23.92
629.865	25.38
630.054	26.13
630.243	24.25
630.432	23.78
630.622	24.97
630.811	27.14
631	26.88
631.19	28.14
631.379	26.74
631.568	26.6
631.757	26.37
631.946	25.54
632.136	25.79
632.325	25.47
632.514	25.93
632.703	25.3
632.892	23.99
633.081	23.9
633.27	25.38
633.459	25.53
633.648	24.68
633.837	24.73
634.026	23.89
634.215	26.76
634.404	26.52
634.593	27.36
634.782	27.19
634.971	26.98
635.16	25.69
635.349	25.66
635.538	25.51
635.727	23.87
635.916	22.94
636.105	21.51
636.294	22.46
636.482	23.27
636.671	23.53
636.86	25.72
637.049	25.58
637.238	25.29
637.426	25.57
637.615	24.94
637.804	24.8
637.993	23.98
638.181	22.77
638.37	23.66
638.559	22.68
638.747	21.93
638.936	22.68
639.125	23.48
639.313	24.08
639.502	23.74
639.691	23.65
639.879	23.58
640.068	24.08
640.256	21.61
640.445	21.47
640.633	22.47
640.822	20.85
641.01	20.68
641.199	19.54
641.387	19.06
641.576	21.09
641.764	22.92
641.953	23.86
642.141	23.14
642.329	23.58
642.518	22.25
642.706	22.32
642.894	20.59
643.083	21.63
643.271	22.9
643.459	23.47
643.648	26.34
643.836	25.75
644.024	25.35
644.213	27.68
644.401	27.1
644.589	25.82
644.777	26.08
644.965	27.84
645.154	26.92
645.342	26.62
645.53	27.39
645.718	25.95
645.906	26.03
646.094	25.85
646.282	23.09
646.47	23.93
646.658	24.13
646.846	24.73
647.034	24.08
647.223	24.29
647.411	23.23
647.599	21.11
647.786	22.77
647.974	22.35
648.162	20
648.35	18.16
648.538	17.1
648.726	16.59
648.914	15.38
649.102	16.68
649.29	16.9
649.478	16.27
649.665	16.9
649.853	15.04
650.041	14.7
650.229	16.05
650.417	16.64
650.604	17.09
650.792	17.73
650.98	15.69
651.168	13.89
651.355	14
651.543	14.26
651.731	13.99
651.918	14.29
652.106	15.78
652.294	17.78
652.481	19.36
652.669	19.38
652.856	19.76
653.044	19.84
653.231	19.48
653.419	19.52
653.606	19.84
653.794	22.11
653.981	22.38
654.169	22.26
654.356	20.88
654.544	20.53
654.731	20.63
654.919	20.62
655.106	19.99
655.294	20.45
655.481	21.02
655.668	21.46
655.856	20.68
656.043	21.08
656.23	19.63
656.418	19.17
656.605	19.88
656.792	19.33
656.979	19.07
657.167	19.49
657.354	19.25
657.541	18.52
657.728	17.36
657.916	17.19
658.103	16.13
658.29	16.62
658.477	16.2
658.664	15.85
658.851	17.06
659.038	18.51
659.225	17.25
659.412	17.94
659.6	16.62
659.787	17.88
659.974	17.2
660.161	20.13
660.348	19.29
660.535	21.17
660.722	20.5
660.909	19.08
661.095	18.68
661.282	18.65
661.469	17.82
661.656	17.15
661.843	17.45
662.03	17.82
662.217	18.86
662.404	20.28
662.59	19.05
662.777	18.97
662.964	18.53
663.151	20.29
663.338	20.59
663.524	21.24
663.711	20.18
663.898	21.33
664.085	19.69
664.271	20.21
664.458	17.78
664.645	18.25
664.831	20.03
665.018	19.67
665.204	18.55
665.391	19.15
665.578	19.92
665.764	18.98
665.951	18.9
666.137	18.21
666.324	17.89
666.51	18.9
666.697	17.86
666.883	18.65
667.07	17.62
667.256	16.7
667.443	15.62
667.629	16.02
667.816	14.35
668.002	13.04
668.188	14.47
668.375	13.96
668.561	13.04
668.747	11.38
668.934	12.11
669.12	13.92
669.306	14.02
669.493	13.36
669.679	14.29
669.865	14.65
670.051	14.3
670.238	14.34
670.424	13.82
670.61	14.65
670.796	14.58
670.982	14.41
671.169	14.54
671.355	14.78
671.541	14.77
671.727	16.53
671.913	17.32
672.099	15.75
672.285	15.62
672.471	16.06
672.657	17.64
672.843	18.9
673.029	17.46
673.215	16.75
673.401	18.55
673.587	17.84
673.773	19
673.959	19.28
674.145	19.04
674.331	19.88
674.517	19.05
674.703	19.08
674.888	19.55
675.074	18.26
675.26	18.57
675.446	18.55
675.632	15.64
675.817	15.14
676.003	15.99
676.189	17.27
676.375	16.81
676.56	17.1
676.746	15.99
676.932	15.27
677.117	16.48
677.303	15.47
677.489	15.38
677.674	13.4
677.86	13.28
678.046	13.87
678.231	12.15
678.417	12.99
678.602	11.58
678.788	11.81
678.973	12.62
679.159	14.21
679.344	14.72
679.53	15.06
679.715	15.9
679.901	15.58
680.086	14.63
680.272	14.74
680.457	11.97
680.643	11.29
680.828	11.44
681.013	10.34
681.199	9.64
681.384	10.28
681.569	12
681.755	12.68
681.94	10.34
682.125	11.52
682.31	11.67
682.496	11.95
682.681	12.46
682.866	12.61
683.051	10.84
683.237	10.37
683.422	12
683.607	11.21
683.792	13.16
683.977	12.6
684.162	13.57
684.347	15.28
684.532	14.53
684.717	14.73
684.903	13.91
685.088	14.72
685.273	14.31
685.458	11.76
685.643	11.55
685.828	12.3
686.013	12.43
686.198	12.02
686.382	13.56
686.567	12.7
686.752	13.2
686.937	13.47
687.122	14.46
687.307	14.03
687.492	14.39
687.677	12.39
687.861	14.06
688.046	13.11
688.231	14.48
688.416	16.56
688.601	16.27
688.785	16.49
688.97	16.73
689.155	18.27
689.339	19.62
689.524	18.68
689.709	18.99
689.893	19.83
690.078	19.91
690.263	19.64
690.447	19.49
690.632	18.68
690.816	19.99
691.001	18.97
691.186	19.74
691.37	19.27
691.555	19.31
691.739	19.36
691.924	19.78
692.108	18.86
692.293	17.66
692.477	18.84
692.661	19.21
692.846	18.36
693.03	17.81
693.215	16.94
693.399	17.99
693.583	17.18
693.768	16.84
693.952	16.22
694.136	14.96
694.321	16.46
694.505	15.83
694.689	15.83
694.873	16.16
695.058	16.09
695.242	17.33
695.426	18.32
695.61	17.96
695.794	18.17
695.979	16.76
696.163	15.75
696.347	15.1
696.531	15.6
696.715	16.94
696.899	16.57
697.083	17.59
697.267	17.83
697.451	17.78
697.635	17.28
697.819	17.37
698.003	18.48
698.187	16.88
698.371	17.4
698.555	17.25
698.739	18.66
698.923	18.25
699.107	18.12
699.291	16.82
699.475	16.04
699.659	15.4
699.842	16.58
700.026	17.37
700.21	16.99
700.394	17.1
700.578	16.41
700.761	16.19
700.945	17.05
701.129	15.3
701.313	15.08
701.496	16.34
701.68	16.46
701.864	15.81
702.047	16.69
702.231	19.71
702.415	19.26
702.598	17.44
702.782	17.33
702.965	16.53
703.149	16.73
703.333	17.42
703.516	17.29
703.7	16.4
703.883	17.57
704.067	17.87
704.25	17.77
704.434	15.84
704.617	15.79
704.801	14.31
704.984	15.36
705.167	15.44
705.351	14.69
705.534	14.73
705.718	14.48
705.901	13.07
706.084	9.98
706.268	9.73
706.451	9.93
706.634	10.04
706.817	9.17
707.001	7.95
707.184	8.35
707.367	9.56
707.55	11.18
707.734	10.53
707.917	10.65
708.1	10.38
708.283	12.08
708.466	12.28
708.649	12.55
708.832	12.49
709.015	13.94
709.199	14.07
709.382	15.07
709.565	15.26
709.748	17.59
709.931	17.64
710.114	18.02
710.297	18.28
710.48	18.63
710.663	19.45
710.846	19.77
711.028	18.93
711.211	17.85
711.394	17.93
711.577	17.37
711.76	15.7
711.943	15.66
712.126	15.94
712.309	17.49
712.491	18.12
712.674	17.99
712.857	18.19
713.04	17.2
713.222	16.35
713.405	16.51
713.588	15.93
713.771	16.37
713.953	16.28
714.136	16.45
714.319	17.35
714.501	15.67
714.684	16.35
714.866	17.74
715.049	18.65
715.232	18.53
715.414	18.73
715.597	19.83
715.779	20.06
715.962	20.78
716.144	18.52
716.327	19.26
716.509	18.57
716.692	17.17
716.874	17.52
717.057	17.06
717.239	17.54
717.421	16.57
717.604	14.3
717.786	14.59
717.968	14.14
718.151	11.97
718.333	12.75
718.515	13.09
718.698	12.13
718.88	12.07
719.062	11.49
719.244	11.56
719.427	10.51
719.609	9.49
719.791	8.07
719.973	8.83
720.155	6.73
720.338	8.05
720.52	9.02
720.702	9.11
720.884	10.07
721.066	9.51
721.248	7.42
721.43	9.87
721.612	7.85
721.794	9.21
721.976	10.66
722.158	11.17
722.34	10.34
722.522	10.16
722.704	9.9
722.886	9.68
723.068	10.58
723.25	12.7
723.432	13.57
723.614	13.14
723.796	13.39
723.977	12.33
724.159	11.97
724.341	11.27
724.523	9.51
724.705	8.93
724.886	9.3
725.068	12.09
725.25	12.79
725.432	15.06
725.613	15
725.795	14.08
725.977	14.51
726.158	14.1
726.34	13.97
726.522	14.52
726.703	16.07
726.885	16.5
727.066	15.08
727.248	14.96
727.43	15.69
727.611	15.28
727.793	17.23
727.974	17.58
728.156	17.98
728.337	18.96
728.519	18.32
728.7	17.74
728.882	16.65
729.063	16.06
729.244	15.71
729.426	15.44
729.607	16.08
729.788	15.73
729.97	17.29
730.151	17.88
730.332	17.32
730.514	15.92
730.695	15.56
730.876	14.7
731.058	15.61
731.239	16.75
731.42	16.22
731.601	16.43
731.782	15.63
731.964	15.63
732.145	15.73
732.326	14.67
732.507	15.62
732.688	16.71
732.869	17.57
733.05	17.91
733.231	17.32
733.412	15.7
733.593	16.5
733.774	15.65
733.955	15.58
734.136	16.76
734.317	16.77
734.498	16.74
734.679	16.97
734.86	14.95
735.041	14.88
735.222	15.15
735.403	14.83
735.584	14.34
735.765	14.54
735.946	14.79
736.126	16.32
736.307	17.09
736.488	15.61
736.669	13.01
736.849	11.47
737.03	11.54
737.211	13.8
737.392	13.62
737.572	11.35
737.753	10.73
737.934	9.85
738.114	10.82
738.295	9.95
738.476	11.15
738.656	12.83
738.837	12.33
739.017	14.02
739.198	13.75
739.378	15.41
739.559	15.49
739.74	16.2
739.92	14.5
740.1	13.69
740.281	12.52
740.461	14.38
740.642	14.54
740.822	13.64
741.003	13.79
741.183	13.14
741.363	15.9
741.544	15.99
741.724	15.17
741.904	12.72
742.085	12.69
742.265	12.47
742.445	12.54
742.626	12.13
742.806	10.88
742.986	11.06
743.166	11.12
743.347	10.58
743.527	10.32
743.707	11.33
743.887	10.12
744.067	10.41
744.247	9
744.427	9.47
744.608	8.29
744.788	8.87
744.968	9.62
745.148	9.27
745.328	7.85
745.508	7.11
745.688	9.51
745.868	10.28
746.048	9.54
746.228	8.44
746.408	8.39
746.588	7.25
746.767	7.61
746.947	7.39
747.127	5.89
747.307	4.04
747.487	5.44
747.667	6.32
747.847	8.96
748.026	9.36
748.206	9.38
748.386	12
748.566	10.35
748.745	10.18
748.925	10.04
749.105	12.41
749.285	12.59
749.464	11.93
749.644	12.89
749.824	14.62
750.003	16.11
750.183	15.41
750.362	17.11
750.542	16.8
750.722	15.75
750.901	16.58
751.081	17.6
751.26	18.44
751.44	17.06
751.619	15.34
751.799	15.51
751.978	13.7
752.158	12.42
752.337	11.94
752.516	12.04
752.696	12.35
752.875	11.73
753.055	12.1
753.234	12.14
753.413	10.88
753.593	12.16
753.772	11.34
753.951	12.77
754.13	12.14
754.31	11.82
754.489	11.57
754.668	12.56
754.847	13.76
755.027	13.08
755.206	14.08
755.385	14.35
755.564	14.71
755.743	16.48
755.922	14.76
756.101	14.97
756.28	14.95
756.46	14.29
756.639	12.21
756.818	13.27
756.997	13.74
757.176	13.71
757.355	12.34
757.534	11.47
757.713	10.57
757.892	10.87
758.07	10.24
758.249	10.86
758.428	10.93
758.607	9.29
758.786	9.2
758.965	8.7
759.144	9.7
759.323	9.19
759.501	8.95
759.68	10.8
759.859	12.16
760.038	12.92
760.216	13.55
760.395	15.1
760.574	13.93
760.753	14.17
760.931	15.5
761.11	15.72
761.289	15.31
761.467	15.09
761.646	14.54
761.824	15.64
762.003	14.39
762.182	14.38
762.36	15.7
762.539	15.56
762.717	15.81
762.896	15
763.074	15.03
763.253	14.71
763.431	15.65
763.61	14.04
763.788	13.64
763.966	13.35
764.145	13.54
764.323	14.97
764.502	13.3
764.68	11.76
764.858	10.34
765.037	11.98
765.215	11.76
765.393	12.37
765.571	12.87
765.75	13.76
765.928	12.6
766.106	11.15
766.284	11.36
766.463	10.67
766.641	10.69
766.819	12.58
766.997	12.88
767.175	12.12
767.353	13.25
767.531	13.39
767.71	13.13
767.888	13.05
768.066	11.22
768.244	12.44
768.422	12.87
768.6	15.76
768.778	15.03
768.956	15.5
769.134	14.91
769.312	14.05
769.489	12.83
769.667	13.86
769.845	13.99
770.023	14.35
770.201	15.55
770.379	15.04
770.557	13.98
770.735	13.17
770.912	11.51
771.09	11.47
771.268	10.68
771.446	11
771.623	12.02
771.801	14.07
771.979	12.98
772.157	12
772.334	10.38
772.512	11.62
772.69	10.94
772.867	12.32
773.045	14.27
773.222	15.48
773.4	16.09
773.577	16.47
773.755	15.45
773.933	14.7
774.11	15.88
774.288	15.41
774.465	16.53
774.643	17.02
774.82	18.37
774.997	17.64
775.175	16.3
775.352	17.44
775.53	18.13
775.707	18.58
775.884	20.92
776.062	20.83
776.239	19.86
776.416	21.48
776.594	19.9
776.771	18.37
776.948	17.91
777.125	18.23
777.303	18.78
777.48	18.33
777.657	17.51
777.834	17.29
778.012	16.22
778.189	16.96
778.366	17.65
778.543	13.83
778.72	14.82
778.897	16.01
779.074	13
779.251	13.41
779.428	13.79
779.605	11.19
779.782	11.79
779.959	12.47
780.136	11.12
780.313	13.42
780.49	11.36
780.667	12.59
780.844	10.58
781.021	11.04
781.198	12.64
781.375	14.21
781.552	14.19
781.728	13.13
781.905	12.08
782.082	12.56
782.259	13.29
782.436	12.39
782.612	11.71
782.789	10.83
782.966	8.21
783.143	7.78
783.319	9.57
783.496	8.87
783.673	6.89
783.849	7.23
784.026	4.95
784.203	7.19
784.379	4.22
784.556	5.1
784.732	5.46
784.909	5.68
785.085	6.05
785.262	6.25
785.438	8.64
785.615	9.6
785.791	9.99
785.968	11.02
786.144	11.8
786.321	14.74
786.497	13.53
786.673	13.72
786.85	14.02
787.026	14.13
787.203	13.15
787.379	14.51
787.555	14.11
787.731	15.87
787.908	15.73
788.084	19.39
788.26	18.15
788.437	18.57
788.613	16.42
788.789	16.59
788.965	16.4
789.141	18.24
789.317	15.79
789.494	14.16
789.67	14.73
789.846	15.49
790.022	13.38
790.198	16.85
790.374	16.22
790.55	14.92
790.726	13.22
790.902	13.27
791.078	15.41
791.254	14.78
791.43	14.21
791.606	12.9
791.782	12.8
791.958	10.83
792.134	10.62
792.31	11.87
792.486	7.97
792.661	8.41
792.837	9.36
793.013	10.41
793.189	13.55
793.365	13.88
793.54	15.43
793.716	14.71
793.892	14.4
794.068	14.37
794.243	15.98
794.419	14.66
794.595	14.62
794.77	12.92
794.946	15.28
795.122	15.2
795.297	17.54
795.473	16.94
795.648	20.97
795.824	20.36
796	20.4
796.175	22.49
796.351	20.96
796.526	18.83
796.702	20.98
796.877	18.11
797.052	18.6
797.228	13.36
797.403	10.65
797.579	10.42
797.754	10.04
797.929	10.64
798.105	13.8
798.28	15.61
798.455	16.09
798.631	13.62
798.806	14.6
798.981	14.06
799.157	14.96
799.332	11.98
799.507	12.52
799.682	12.12
799.858	12.49
800.033	13.63
800.208	13.25
800.383	12.08
800.558	14.54
800.733	13.95
800.908	17.19
801.083	21.09
801.258	20.06
801.434	21.45
801.609	19.86
801.784	19.49
801.959	20.33
802.134	21.91
802.309	21.59
802.484	19.47
802.658	18.09
802.833	16.02
803.008	19.95
803.183	17.04
803.358	17.73
803.533	18.71
803.708	17.65
803.883	16
804.057	13.89
804.232	14.9
804.407	16.06
804.582	18.57
804.756	16.27
804.931	18.25
805.106	14.88
805.281	16.6
805.455	16.6
805.63	15.07
805.805	13.95
805.979	16.75
806.154	16.79
806.328	18.19
806.503	18.68
806.678	17.52
806.852	20.79
807.027	19.04
807.201	15.03
807.376	17.96
807.55	21.16
807.725	22.83
807.899	22.5
808.074	23.88
808.248	22.12
808.422	23.52
808.597	24.43
808.771	29.13
808.946	30.18
809.12	31.22
809.294	30.52
809.468	27.88
809.643	28.4
809.817	29.6
809.991	30.32
810.166	30.52
810.34	28.87
810.514	27.67
810.688	30.02
810.862	31.65
811.037	31.75
811.211	31.85
811.385	31.04
811.559	29.51
811.733	29.37
811.907	28.12
812.081	29.71
812.255	27.47
812.429	22.65
812.603	18.72
812.777	16.53
812.951	14.26
813.125	12.7
813.299	10.89
813.473	10.65
813.647	10.59
813.821	12.4
813.995	12.57
814.169	11.71
814.343	9.01
814.516	11.93
814.69	10.76
814.864	7.29
815.038	7.9
815.212	10.13
815.385	9.14
815.559	13.35
815.733	12.77
815.907	14.66
816.08	20.57
816.254	21.57
816.428	22.13
816.601	24.55
816.775	28.84
816.948	27.82
817.122	29.96
817.296	30.04
817.469	29.4
817.643	29.99
817.816	31.34
817.99	33.05
818.163	33.74
818.337	32.49
818.51	34.8
818.684	38.87
818.857	38.38
819.031	38.26
819.204	30.9
819.377	30.59
819.551	29.17
819.724	24.57
819.897	28.6
820.071	27.38
820.244	24.6
820.417	24.59
820.591	25.52
820.764	27.44
820.937	27.59
821.11	27.94
821.284	27.26
821.457	29.08
821.63	26.89
821.803	21.59
821.976	23.83
822.149	25.02
822.322	24.69
822.496	24.86
822.669	26.64
822.842	28.87
823.015	27.96
823.188	26.45
823.361	29.88
823.534	25.08
823.707	23.59
823.88	27.08
824.053	26.69
824.226	28.39
824.399	27.22
824.571	27.38
824.744	26.08
824.917	27.79
825.09	25.51
825.263	29.85
825.436	35.59
825.608	35.91
825.781	35.64
825.954	36.12
826.127	32.47
826.299	31.25
826.472	30.44
826.645	31.73
826.818	31.2
826.99	32.29
827.163	32.9
827.336	34.03
827.508	33.09
827.681	31.76
827.853	29.31
828.026	28.58
828.198	28.75
828.371	27.14
828.544	28.77
828.716	25.85
828.889	23.63
829.061	18.45
829.233	16.43
829.406	13.54
829.578	7.28
829.751	8.9
829.923	7.08
830.096	4.07
830.268	5.52
830.44	9.62
830.613	7.31
830.785	7.14
830.957	8.05
831.129	9.36
831.302	12.8
831.474	12.17
831.646	14.17
831.818	13.7
831.991	15.45
832.163	12.51
832.335	15.49
832.507	14.92
832.679	18.27
832.851	18.02
833.023	18.96
833.195	20.96
833.368	22.02
833.54	21.27
833.712	21.23
833.884	19.82
834.056	17.26
834.228	17.28
834.4	21.12
834.571	20.99
834.743	21.19
834.915	17.94
835.087	18.35
835.259	18.47
835.431	17.45
835.603	15.97
835.775	13.34
835.946	12.83
836.118	13.37
836.29	10.35
836.462	8.01
836.634	11.97
836.805	7.26
836.977	9.85
837.149	13.87
837.32	17.51
837.492	19.16
837.664	18.85
837.835	17
838.007	10.55
838.179	9.85
838.35	14.96
838.522	18.18
838.693	17.92
838.865	12.02
839.036	9.41
839.208	15.05
839.379	17.47
839.551	16.82
839.722	19.23
839.894	18.92
840.065	20.83
840.237	16.21
840.408	19.14
840.579	18.97
840.751	15.03
840.922	16.34
841.093	14.3
841.265	15.94
841.436	21.99
841.607	25.42
841.778	25.39
841.95	16.77
842.121	17.84
842.292	17.91
842.463	23.58
842.635	28.41
842.806	25.53
842.977	25.21
843.148	27.92
843.319	26.39
843.49	30.82
843.661	32.88
843.832	38.34
844.003	44.32
844.174	47.53
844.345	52.29
844.516	49.71
844.687	54.72
844.858	54.1
845.029	45.97
845.2	42.36
845.371	40.98
845.542	44.11
845.713	36.32
845.884	38.57
846.055	25.94
846.225	27.22
846.396	31.38
846.567	36.11
846.738	33.43
846.909	30.43
847.079	25.3
847.25	26.36
847.421	21.3
847.591	13.75
847.762	9.35
847.933	7.54
848.103	13.2
848.274	7.86
848.445	8.73
848.615	9.71
848.786	15.97
848.956	19.75
849.127	20.59
849.297	32.99
849.468	36.88
849.638	42.13
849.809	36.01
849.979	33.57
850.15	30.26
850.32	34.08
850.491	36.38
850.661	38.55
850.831	37.82
851.002	42.23
851.172	41.31
851.342	41.8
851.513	41.97
851.683	43.21
851.853	40.81
852.024	39.41
852.194	40.94
852.364	41.79
852.534	43
852.705	47.81
852.875	42.42
853.045	41.55
853.215	43.75
853.385	50.09
853.555	53.88
853.725	49.98
853.895	46.84
854.066	46.95
854.236	48.56
854.406	49.05
854.576	49.32
854.746	49.01
854.916	54.03
855.086	52.93
855.256	48.2
855.425	51.47
855.595	51.22
855.765	50.83
855.935	47.51
856.105	44.85
856.275	39.29
856.445	36.44
856.614	29.46
856.784	35.68
856.954	33.31
857.124	27.02
857.294	30.95
857.463	27.2
857.633	24.43
857.803	19.28
857.972	20.27
858.142	23.49
858.312	29.45
858.481	29.33
858.651	28.74
858.821	30.2
858.99	29.2
859.16	23.56
859.329	27.85
859.499	32.23
859.668	35.94
859.838	35.02
860.007	46.77
860.177	49.47
860.346	44.88
860.516	45.19
860.685	43.2
860.854	41.29
861.024	42.78
861.193	44.67
861.363	46.32
861.532	47.75
861.701	42.59
861.87	40.76
862.04	43.45
862.209	49.86
862.378	53
862.547	50.35
862.717	52.98
862.886	47.74
863.055	42.24
863.224	39.71
863.393	39.85
863.563	35.31
863.732	38.52
863.901	39.31
864.07	36.96
864.239	34.17
864.408	37.49
864.577	37.69
864.746	40.05
864.915	39.51
865.084	41.65
865.253	42.01
865.422	41.19
865.591	40.08
865.76	34.5
865.929	28.55
866.097	35.98
866.266	31.98
866.435	28.1
866.604	38.63
866.773	38.03
866.942	39.28
867.11	38.38
867.279	35.2
867.448	38.97
867.617	43.29
867.785	49.74
867.954	42.48
868.123	48.22
868.291	42.54
868.46	36.58
868.629	34.44
868.797	35.14
868.966	39.63
869.134	31.78
869.303	28.4
869.472	32.09
869.64	24.74
869.809	32.64
869.977	38.13
870.146	24.33
870.314	28.64
870.482	32.93
870.651	29.93
870.819	35.27
870.988	31.05
871.156	23.03
871.324	33.15
871.493	31.28
871.661	44.76
871.829	48.14
871.998	54.56
872.166	56.93
872.334	53.65
872.502	54.47
872.671	56.38
872.839	59.91
873.007	63.54
873.175	63.71
873.343	53.14
873.512	51.28
873.68	57.99
873.848	65.29
874.016	58.75
874.184	56.57
874.352	33.91
874.52	37.07
874.688	40.9
874.856	32.81
875.024	41.13
875.192	28.31
875.36	29.48
875.528	30.55
875.696	29.92
875.864	33.08
876.032	34.83
876.199	41.98
876.367	38.13
876.535	28.64
876.703	24
876.871	24.78
877.039	31.83
877.206	31.89
877.374	21.56
877.542	28.36
877.71	29.73
877.877	48.56
878.045	55.56
878.213	55.42
878.38	62.16
878.548	63.21
878.715	63.95
878.883	63.34
879.051	57.83
879.218	45.79
879.386	46.85
879.553	40.07
879.721	23.13
879.888	25.39
880.056	36.29
880.223	43.62
880.391	61.1
880.558	57.38
880.726	57.14
880.893	66.76
881.06	43.93
881.228	64.25
881.395	50.69
881.562	45.29
881.73	52.73
881.897	43.72
882.064	42.93
882.231	39.23
882.399	38.22
882.566	53.8
882.733	84.05
882.9	82.6
883.068	98.7
883.235	109.22
883.402	114.11
883.569	98.85
883.736	83.92
883.903	74.27
884.07	76.26
884.237	79.44
884.404	69.99
884.571	99.05
884.738	73.58
884.905	88.94
885.072	83.98
885.239	73.92
885.406	76.81
