Data from Transmission_09-25-27-802.txt Node
Date: Fri Aug 24 09:25:27 EEST 2018
User: tibor.sos
Spectrometer: USB4F01757
Scans to average: 10
Trigger mode: 4
Integration Time (sec): 1.000000E-2
Electric dark correction enabled: true
Boxcar width: 10
XAxis mode: Wavelengths
Number of Pixels in Spectrum: 3648
>>>>>Begin Spectral Data<<<<<
178.758	38.5
178.974	41.22
179.191	25.87
179.407	49.49
179.624	43.57
179.84	-3.8
180.057	32.22
180.273	60.72
180.489	98.91
180.706	87.04
180.922	77.59
181.138	68.74
181.355	61.38
181.571	47.43
181.787	91.74
182.004	97.19
182.22	94.58
182.436	151.44
182.653	158.9
182.869	132.71
183.085	120.13
183.301	127.24
183.518	96.77
183.734	100.38
183.95	115.8
184.166	133.71
184.383	150.22
184.599	136.63
184.815	96.81
185.031	80.87
185.247	98.73
185.463	116.53
185.68	122.92
185.896	145.31
186.112	198.63
186.328	161.97
186.544	173.01
186.76	177.38
186.976	153.34
187.192	137.84
187.408	162.73
187.624	197.88
187.84	142.98
188.056	114.7
188.272	110.04
188.488	109.74
188.704	97.67
188.92	137.16
189.136	111.7
189.352	132.1
189.568	150.38
189.784	163
190	131.97
190.216	151.21
190.432	167.49
190.648	162.02
190.864	342.98
191.08	285.73
191.296	126.77
191.511	110.14
191.727	130.43
191.943	175.43
192.159	93.89
192.375	120.11
192.591	186.32
192.806	284.92
193.022	169.44
193.238	295.87
193.454	172.47
193.669	231.67
193.885	253.76
194.101	269.97
194.317	187.44
194.532	1495.51
194.748	-678.15
194.964	275.07
195.18	145.42
195.395	102.16
195.611	93.96
195.827	264.64
196.042	238.96
196.258	288.02
196.473	127.31
196.689	236.09
196.905	276.47
197.12	676.24
197.336	87.9
197.551	-106.27
197.767	73900
197.982	216.71
198.198	1368.49
198.414	1252.81
198.629	346.19
198.845	181.53
199.06	157.19
199.276	130.22
199.491	170.27
199.707	71.99
199.922	82.16
200.137	99.26
200.353	52.89
200.568	90.38
200.784	29.83
200.999	43.17
201.215	30.36
201.43	31.11
201.645	58.12
201.861	105.25
202.076	78.35
202.291	30.5
202.507	42.57
202.722	12.37
202.937	29.08
203.153	62.05
203.368	95.67
203.583	81.63
203.798	62.31
204.014	84.73
204.229	100.47
204.444	112.25
204.659	64.3
204.875	356.07
205.09	-436.13
205.305	1507.55
205.52	-821.95
205.735	-770.66
205.951	3244
206.166	-88.86
206.381	-8.1
206.596	-834.55
206.811	-273.1
207.026	-210.7
207.241	-49.23
207.457	187.85
207.672	448.76
207.887	-698.13
208.102	26.1
208.317	-11.94
208.532	64.97
208.747	116.39
208.962	102.32
209.177	-14.09
209.392	-86.29
209.607	19.4
209.822	57.01
210.037	46.68
210.252	103.4
210.467	187.43
210.682	138.17
210.897	82.3
211.112	56.94
211.326	71.91
211.541	31.92
211.756	6.17
211.971	-37.83
212.186	-57.3
212.401	-124.98
212.616	-93.66
212.831	-81.79
213.045	-162.39
213.26	-87.58
213.475	-75.87
213.69	-89.56
213.905	-167.99
214.119	-729.86
214.334	8107.41
214.549	863.56
214.764	-1287.56
214.978	-801.71
215.193	-971.15
215.408	3828.21
215.622	-539.25
215.837	-3540
216.052	1642.53
216.266	226.08
216.481	152.8
216.696	83.31
216.91	821.21
217.125	199.09
217.34	476.17
217.554	777.84
217.769	-343.16
217.983	-119.74
218.198	-376.36
218.412	-696.78
218.627	537.86
218.842	327.6
219.056	232.2
219.271	268.04
219.485	373.34
219.7	343.98
219.914	234.07
220.129	463.99
220.343	268.89
220.558	193.84
220.772	239.5
220.986	215.6
221.201	351.06
221.415	-252.16
221.63	-81.33
221.844	-67.42
222.058	-36.92
222.273	2.77
222.487	4.7
222.702	34.22
222.916	65.81
223.13	13.22
223.344	16.5
223.559	29
223.773	62.28
223.987	54.74
224.202	58.25
224.416	124.92
224.63	106.51
224.844	65.79
225.059	99.8
225.273	-87.88
225.487	-224.8
225.701	42.09
225.915	76.48
226.13	44.74
226.344	59.04
226.558	58.73
226.772	55.96
226.986	68.53
227.2	54.4
227.415	64.68
227.629	62
227.843	40.31
228.057	52.58
228.271	48.05
228.485	54.14
228.699	86.01
228.913	111
229.127	103.41
229.341	112.08
229.555	192.01
229.769	205.56
229.983	281.46
230.197	266.53
230.411	312.27
230.625	486.8
230.839	304.79
231.053	420.95
231.267	799.47
231.481	553.52
231.695	321.62
231.909	153.43
232.122	81.38
232.336	106.52
232.55	52.87
232.764	19.35
232.978	32.59
233.192	-30.51
233.405	-243.47
233.619	-117.61
233.833	-65.51
234.047	-108.45
234.261	-260.25
234.474	-82.85
234.688	422.79
234.902	466.35
235.116	427.69
235.329	326.7
235.543	567.39
235.757	328.15
235.97	239.26
236.184	223.5
236.398	157.19
236.612	160.2
236.825	205.08
237.039	251
237.252	229.63
237.466	945.89
237.68	3093.22
237.893	-108500
238.107	-261.26
238.32	717.39
238.534	-265.95
238.748	-115.58
238.961	-124.57
239.175	-184.02
239.388	-130.77
239.602	-209.09
239.815	-75.18
240.029	-226
240.242	-98.84
240.456	-62.39
240.669	-60.7
240.882	-22.43
241.096	-14.83
241.309	49.82
241.523	123.01
241.736	164.53
241.95	-573.74
242.163	477.44
242.376	101.32
242.59	-106.4
242.803	-1086.67
243.016	24.47
243.23	310.08
243.443	1126.67
243.656	2.26
243.87	29.29
244.083	29.67
244.296	28.47
244.509	54.73
244.723	40.52
244.936	41.57
245.149	33.94
245.362	-3.7
245.576	-6.01
245.789	11.8
246.002	39.89
246.215	57.49
246.428	34.37
246.641	52.72
246.855	52.53
247.068	45.57
247.281	-29.96
247.494	16.53
247.707	16.15
247.92	-18.55
248.133	0.5
248.346	-30.37
248.559	9.34
248.772	-14.95
248.985	-5.81
249.198	2.87
249.411	-1.02
249.624	7
249.837	8.05
250.05	22.4
250.263	9.99
250.476	-18.39
250.689	-15.61
250.902	-10.17
251.115	-20.95
251.328	-3.25
251.541	4.66
251.754	15.2
251.967	9.93
252.18	11.52
252.393	22
252.605	19.01
252.818	15.75
253.031	5.07
253.244	9.52
253.457	6.41
253.67	17.88
253.882	22.66
254.095	28.82
254.308	34.97
254.521	24.21
254.733	20.8
254.946	30.48
255.159	29.89
255.372	25.09
255.584	29.11
255.797	22.67
256.01	12.79
256.222	18.15
256.435	22.9
256.648	26.8
256.86	21.46
257.073	19.34
257.285	33.07
257.498	31.2
257.711	22.41
257.923	22.2
258.136	13.28
258.348	7.5
258.561	-0.12
258.773	-19.34
258.986	-39.51
259.198	-49.65
259.411	-89.47
259.623	-65.32
259.836	-48.91
260.048	-32.71
260.261	-26.57
260.473	-9.94
260.686	-8.8
260.898	-11.09
261.111	-17.86
261.323	-11.49
261.535	-4.96
261.748	-3.29
261.96	10.14
262.173	14.58
262.385	13.46
262.597	13.14
262.81	20.08
263.022	17.3
263.234	20.95
263.447	29.67
263.659	29.25
263.871	31.98
264.083	33.33
264.296	33.7
264.508	32.76
264.72	33.78
264.932	32.64
265.145	21.56
265.357	12.39
265.569	12.42
265.781	12.55
265.993	0.19
266.205	-15.66
266.418	-39.1
266.63	-62.41
266.842	-52.78
267.054	-52.18
267.266	-65.08
267.478	-64.57
267.69	-52.45
267.902	-64.33
268.114	-73.36
268.326	-81.03
268.538	-91.59
268.75	-73.34
268.962	-72.37
269.174	-57.62
269.386	-32.77
269.598	-15.89
269.81	-5.83
270.022	-10.45
270.234	-7.33
270.446	1.05
270.658	2.9
270.87	12.26
271.082	17.05
271.294	15.9
271.506	15.77
271.718	19.36
271.929	21.42
272.141	24.59
272.353	28.43
272.565	29.38
272.777	29.86
272.989	33.7
273.2	35.97
273.412	32.88
273.624	29.14
273.836	24.42
274.047	26.61
274.259	26.63
274.471	31.58
274.683	28.5
274.894	30.25
275.106	29.61
275.318	25.98
275.529	26.29
275.741	24.96
275.953	29.61
276.164	32.33
276.376	25.49
276.588	17.77
276.799	13.34
277.011	12.97
277.222	14.03
277.434	3.36
277.646	-7.3
277.857	-3.53
278.069	-2.66
278.28	-4.51
278.492	-12
278.703	-11.64
278.915	-6.64
279.126	-12.27
279.338	-11.39
279.549	-0.02
279.761	4.99
279.972	2.63
280.183	0.77
280.395	-0.87
280.606	-8.01
280.818	-4.16
281.029	0.79
281.24	5.08
281.452	-0.43
281.663	4.43
281.875	4.06
282.086	3.08
282.297	-7.06
282.508	-2.42
282.72	8.82
282.931	10.53
283.142	11.15
283.354	6.57
283.565	13.76
283.776	15.66
283.987	-3.08
284.199	-7.22
284.41	10.73
284.621	12.85
284.832	13.16
285.043	13.98
285.254	8.57
285.466	6.5
285.677	7
285.888	15.01
286.099	9.95
286.31	17.04
286.521	7.03
286.732	12.52
286.943	13.09
287.154	11.09
287.366	12.32
287.577	14.74
287.788	13.45
287.999	6.86
288.21	-3.34
288.421	4.84
288.632	1.24
288.843	-6.55
289.054	-2.94
289.264	-8.99
289.475	-1.81
289.686	7.91
289.897	14.64
290.108	17.31
290.319	8.98
290.53	15
290.741	11.85
290.952	17.43
291.163	19.62
291.373	16.29
291.584	12.26
291.795	10.69
292.006	14.37
292.217	15.56
292.427	24.17
292.638	27.28
292.849	25.91
293.06	32.14
293.27	30.83
293.481	30.75
293.692	35.15
293.903	34.05
294.113	30.7
294.324	23.95
294.535	12.34
294.745	14.88
294.956	10.9
295.167	9.57
295.377	13.14
295.588	14.15
295.798	13.97
296.009	5.71
296.22	5.9
296.43	-2.89
296.641	-7.49
296.851	-9.89
297.062	-12.05
297.272	-4.26
297.483	-8.3
297.693	-1.54
297.904	-0.12
298.114	-1.6
298.325	-5.93
298.535	-12.23
298.746	-6.96
298.956	-1.83
299.167	-2.94
299.377	-2.73
299.587	-4.79
299.798	-5.09
300.008	-8.89
300.219	-5.83
300.429	5.54
300.639	3.15
300.85	3.12
301.06	6.6
301.27	9.43
301.481	10.24
301.691	2.75
301.901	4.17
302.111	-2.45
302.322	-2.98
302.532	0.27
302.742	2.65
302.952	4.03
303.163	-3.52
303.373	0.23
303.583	6.12
303.793	3.77
304.003	8.86
304.214	6.5
304.424	13.3
304.634	11.57
304.844	7.19
305.054	13.33
305.264	19.43
305.474	19.76
305.684	13.83
305.894	19.2
306.104	21.37
306.314	18.57
306.525	24.22
306.735	22.72
306.945	15.27
307.155	15.99
307.365	20.55
307.575	25.91
307.784	20.49
307.994	16.93
308.204	17.72
308.414	19.75
308.624	18.95
308.834	14.79
309.044	18.01
309.254	20.5
309.464	12.58
309.674	9.05
309.884	4.45
310.093	8.44
310.303	7.48
310.513	12.88
310.723	13.37
310.933	12.43
311.142	14.98
311.352	15.81
311.562	11.51
311.772	7.01
311.981	4.16
312.191	3.9
312.401	6.94
312.611	8.74
312.82	4.29
313.03	6.94
313.24	3.74
313.449	5.39
313.659	3.7
313.869	2.27
314.078	4.84
314.288	2.81
314.497	2.97
314.707	3.23
314.917	-5.88
315.126	2.69
315.336	5.33
315.545	3.67
315.755	8.66
315.964	8.64
316.174	15.3
316.383	19.31
316.593	20.35
316.802	19.35
317.012	17.45
317.221	21.49
317.431	16.31
317.64	19.18
317.849	12.2
318.059	15.13
318.268	22.89
318.478	23.03
318.687	28.18
318.896	25.26
319.106	22.87
319.315	24.61
319.524	14.84
319.734	7.95
319.943	9.27
320.152	6.36
320.362	8.53
320.571	12.82
320.78	5.75
320.989	10.98
321.199	13.28
321.408	10.32
321.617	11.27
321.826	19.22
322.035	15.41
322.245	17.72
322.454	15.37
322.663	5.6
322.872	1.14
323.081	-3.27
323.29	-6.62
323.5	-4.37
323.709	-4.26
323.918	1.79
324.127	4.94
324.336	-3.5
324.545	-1.4
324.754	0.13
324.963	-7.93
325.172	-0.1
325.381	-5.32
325.59	-8.42
325.799	-7.88
326.008	-10.28
326.217	-20.34
326.426	-5.64
326.635	-3.59
326.844	-7.51
327.053	2.63
327.262	9.49
327.47	11.24
327.679	16.27
327.888	22.31
328.097	21.42
328.306	24.42
328.515	21.45
328.724	26.97
328.932	18.52
329.141	18.9
329.35	21.93
329.559	17.7
329.768	23.77
329.976	24.89
330.185	23.43
330.394	16.55
330.602	23.1
330.811	7.71
331.02	9.13
331.229	15.71
331.437	18.47
331.646	14.83
331.855	16.75
332.063	17.11
332.272	12.64
332.48	11.9
332.689	9.9
332.898	10.58
333.106	8.11
333.315	18.6
333.523	15.51
333.732	9
333.94	12.12
334.149	13.43
334.357	14.87
334.566	20.98
334.774	29.31
334.983	23.63
335.191	25.79
335.4	17.07
335.608	6.16
335.817	-1.4
336.025	14.85
336.234	13.79
336.442	15.99
336.65	6.67
336.859	19.53
337.067	19.87
337.275	30.14
337.484	29.1
337.692	25.65
337.9	33.15
338.109	36.45
338.317	37.24
338.525	34.81
338.734	34.91
338.942	23.9
339.15	18.34
339.358	11.74
339.567	18.9
339.775	24.07
339.983	28.48
340.191	32.56
340.399	22.24
340.608	27.17
340.816	30.09
341.024	36.77
341.232	28.75
341.44	28.46
341.648	25.63
341.856	29.53
342.064	28.52
342.272	17.89
342.481	19.44
342.689	14.42
342.897	7.39
343.105	6.14
343.313	16.19
343.521	20.63
343.729	20.84
343.937	18.38
344.145	19.49
344.353	25.46
344.56	20.87
344.768	20.57
344.976	13.22
345.184	4.82
345.392	-1.32
345.6	0.93
345.808	5.36
346.016	4.18
346.224	5.27
346.431	8.74
346.639	16.86
346.847	13.44
347.055	13.61
347.263	17.41
347.471	12.02
347.678	6.3
347.886	-0.44
348.094	2.78
348.302	8.21
348.509	8.61
348.717	1.05
348.925	7.64
349.132	6.82
349.34	3.58
349.548	13.46
349.755	12.23
349.963	6.42
350.171	-5.32
350.378	-4.11
350.586	-4.06
350.793	-9.3
351.001	-12.7
351.209	-9.76
351.416	-4.36
351.624	-5.55
351.831	-10.95
352.039	-14.18
352.246	-16.08
352.454	-15.97
352.661	-18.86
352.869	-21.6
353.076	-28.28
353.284	-22.98
353.491	-18.24
353.699	-14.55
353.906	-22.84
354.113	-13.24
354.321	-12.39
354.528	-4.88
354.736	-6.48
354.943	-9.05
355.15	-6.61
355.358	-16.26
355.565	-23.04
355.772	-21.24
355.98	-13.54
356.187	0.6
356.394	-0.62
356.601	-2.03
356.809	3.66
357.016	10.91
357.223	15.96
357.43	22.66
357.638	20.53
357.845	23.65
358.052	22.3
358.259	27.47
358.466	24.79
358.673	20.91
358.881	11.11
359.088	9.46
359.295	11.87
359.502	9.21
359.709	17.05
359.916	19.21
360.123	15.61
360.33	-0.39
360.537	-12.07
360.744	-9.75
360.951	-5.58
361.158	-7.21
361.365	-7.91
361.572	-11.31
361.779	-8.64
361.986	-4.36
362.193	-11.2
362.4	-7.29
362.607	-18.07
362.814	-14.64
363.021	-3.32
363.228	-6.92
363.435	1.57
363.641	4.32
363.848	7.09
364.055	9.07
364.262	16.52
364.469	13.76
364.676	28.44
364.882	31.18
365.089	31.66
365.296	31.29
365.503	25.68
365.709	12.21
365.916	11.94
366.123	8.69
366.33	1.47
366.536	8.12
366.743	10.52
366.95	15.38
367.156	19.61
367.363	17.7
367.57	25.97
367.776	18.65
367.983	22.78
368.19	16.34
368.396	17.63
368.603	11.81
368.809	19.94
369.016	16.08
369.222	18.54
369.429	18.64
369.635	19.83
369.842	18.58
370.048	27.83
370.255	29.84
370.461	32.09
370.668	33.21
370.874	21.72
371.081	22.38
371.287	24.71
371.494	20.44
371.7	21.02
371.906	12.27
372.113	8.91
372.319	1.98
372.526	6.74
372.732	-0.06
372.938	-5.68
373.145	-12.27
373.351	-12.12
373.557	-15.06
373.763	-21.04
373.97	-18.72
374.176	-10.3
374.382	-8.36
374.588	-12.75
374.795	-8.86
375.001	-16.22
375.207	-14.23
375.413	-13.1
375.62	-8.07
375.826	-3.96
376.032	-6.83
376.238	-1.69
376.444	-5.2
376.65	-4.44
376.856	-10.5
377.062	5.61
377.269	20.24
377.475	22.66
377.681	22.85
377.887	13.67
378.093	8.97
378.299	4.6
378.505	-5.87
378.711	-3.37
378.917	-3.85
379.123	0.04
379.329	9.14
379.535	10.87
379.741	4.64
379.947	-5.04
380.152	-5.18
380.358	-5.29
380.564	-6.27
380.77	-11.34
380.976	-15.37
381.182	-10.48
381.388	-17.27
381.594	-26.04
381.799	-18.19
382.005	-19.83
382.211	-9.49
382.417	-0.53
382.623	-4.22
382.828	3.8
383.034	0.14
383.24	3.09
383.445	-3.68
383.651	-4.1
383.857	0.39
384.063	9.07
384.268	11.42
384.474	15.97
384.68	23.39
384.885	30.55
385.091	36.45
385.296	43.48
385.502	40.76
385.708	36.44
385.913	51.03
386.119	47.72
386.324	60.3
386.53	59.3
386.735	60.12
386.941	60.43
387.146	65.11
387.352	62.28
387.557	57.78
387.763	58.55
387.968	47.88
388.174	43.98
388.379	44.7
388.585	40.62
388.79	34.74
388.996	33.53
389.201	33.65
389.406	27.8
389.612	20.84
389.817	26.09
390.022	39.04
390.228	32.56
390.433	30.05
390.638	33
390.844	32.61
391.049	27.35
391.254	19.05
391.459	12.99
391.665	3.21
391.87	-6.36
392.075	6.96
392.28	12.35
392.485	6.98
392.691	-2.23
392.896	-1.56
393.101	-8.35
393.306	-3.95
393.511	-3.88
393.716	4.04
393.922	6.66
394.127	-3.89
394.332	-6.63
394.537	-6.94
394.742	-3.58
394.947	-16.88
395.152	-9.81
395.357	-4.78
395.562	-0.22
395.767	-4.86
395.972	1.44
396.177	5.59
396.382	-6.78
396.587	-4.7
396.792	-1.62
396.997	15.82
397.202	21.71
397.407	25.51
397.611	25.32
397.816	23.33
398.021	19.85
398.226	18.39
398.431	22.17
398.636	22.48
398.841	17.69
399.045	25.65
399.25	34.29
399.455	29.24
399.66	28.85
399.864	25.94
400.069	21.54
400.274	27.29
400.479	30
400.683	31.01
400.888	32.57
401.093	25.01
401.297	16.06
401.502	8.86
401.707	11.29
401.911	15.68
402.116	21.05
402.321	26.88
402.525	27.33
402.73	26.78
402.934	25.26
403.139	32.48
403.344	27.06
403.548	6.64
403.753	10.86
403.957	-3.82
404.162	-16.16
404.366	-3.33
404.571	-20.1
404.775	-31.98
404.98	-24.83
405.184	-23.73
405.388	-10.67
405.593	-21.61
405.797	-15.87
406.002	-12.27
406.206	-26.01
406.41	-18.6
406.615	-24.59
406.819	-17.71
407.023	-15.32
407.228	-22.39
407.432	-31.25
407.636	-40.61
407.841	-26
408.045	-27.57
408.249	-16.15
408.453	7.32
408.658	7.32
408.862	19.96
409.066	22.71
409.27	21.14
409.474	21.34
409.679	12.96
409.883	13.84
410.087	7.27
410.291	17.22
410.495	19.68
410.699	6.81
410.903	6.89
411.108	12.63
411.312	3.52
411.516	13
411.72	21.17
411.924	18.97
412.128	15.5
412.332	11.64
412.536	8.13
412.74	-4.82
412.944	-2.32
413.148	-11.06
413.352	-12.45
413.556	-14.26
413.76	-22.54
413.964	-6.55
414.167	4.51
414.371	11.41
414.575	3.07
414.779	-0.35
414.983	15.09
415.187	14.2
415.391	6.68
415.594	18.39
415.798	12.87
416.002	12.37
416.206	14.2
416.41	14.68
416.613	13.93
416.817	14.79
417.021	20.63
417.225	18.31
417.428	9.42
417.632	4.48
417.836	6.68
418.039	20.48
418.243	22.63
418.447	7.59
418.65	13.24
418.854	25.22
419.057	32.58
419.261	29.5
419.465	30.17
419.668	26.93
419.872	34.66
420.075	38.45
420.279	39.77
420.482	41.43
420.686	36.66
420.889	36.3
421.093	45.61
421.296	38.08
421.5	33.09
421.703	34.72
421.907	45.58
422.11	32.33
422.314	27.92
422.517	14.11
422.72	30.95
422.924	23.25
423.127	14.94
423.33	5.31
423.534	-2.09
423.737	4.83
423.94	7.67
424.144	3.41
424.347	11.08
424.55	-0.02
424.754	-0.49
424.957	-11.83
425.16	-10.3
425.363	-25.32
425.567	-21.23
425.77	-16.53
425.973	-8.15
426.176	-23.73
426.379	-6.97
426.582	-3.02
426.786	3.15
426.989	-11.31
427.192	3.22
427.395	8.72
427.598	8.65
427.801	10.14
428.004	6.68
428.207	8.16
428.41	4.21
428.613	-3.36
428.816	9.61
429.019	9.78
429.222	5.07
429.425	7.33
429.628	20.75
429.831	22.67
430.034	24.68
430.237	24.36
430.44	25.46
430.643	25.63
430.846	27.05
431.049	28.34
431.252	32.66
431.454	22.58
431.657	19.16
431.86	25.59
432.063	26.21
432.266	26.53
432.469	24.65
432.671	19.18
432.874	32
433.077	20.77
433.28	24.06
433.482	35.03
433.685	34.18
433.888	16.84
434.09	16.52
434.293	3.38
434.496	-2.45
434.698	2.06
434.901	7.95
435.104	2.33
435.306	3.6
435.509	-0.88
435.712	8.82
435.914	-3.71
436.117	-7.66
436.319	0.43
436.522	-2.52
436.724	3.7
436.927	3.01
437.129	-14.8
437.332	-13.74
437.534	-23.75
437.737	-42.94
437.939	-26.17
438.142	-24.01
438.344	-19.25
438.547	-23.2
438.749	-10.14
438.951	-17.19
439.154	-24.72
439.356	-16.18
439.558	-20.68
439.761	-24.05
439.963	-34.08
440.165	-14
440.368	-14.68
440.57	-44.81
440.772	-55.89
440.975	-67.26
441.177	-54.02
441.379	-48.58
441.581	-37.41
441.784	-33.08
441.986	-17.96
442.188	-31.38
442.39	-33.99
442.592	-40.33
442.795	-30.79
442.997	-31.49
443.199	-27.35
443.401	-25.55
443.603	-26.76
443.805	-36.33
444.007	-27.58
444.209	-27.51
444.411	-19.6
444.613	-17.22
444.815	-3.47
445.017	4.55
445.219	11.95
445.421	12.69
445.623	14.52
445.825	14.58
446.027	8.09
446.229	7.11
446.431	20.25
446.633	25.47
446.835	28.86
447.037	32.38
447.239	32.61
447.441	35.28
447.643	32.27
447.844	31.08
448.046	41.29
448.248	41.57
448.45	51.8
448.652	48.09
448.853	48.31
449.055	48.69
449.257	41.35
449.459	43.08
449.66	32.95
449.862	36.71
450.064	32.94
450.266	30.77
450.467	21.89
450.669	16.95
450.871	14.52
451.072	24.66
451.274	27.75
451.475	30.1
451.677	28.69
451.879	20.11
452.08	3.71
452.282	6.95
452.483	-2.4
452.685	-1.86
452.886	2.76
453.088	-6.76
453.289	-26.81
453.491	-26.22
453.692	-54.73
453.894	-32.12
454.095	-30.78
454.297	-42.86
454.498	-29.87
454.7	-18.93
454.901	-11.11
455.102	-2.47
455.304	-2.29
455.505	-9
455.706	-23.31
455.908	-25.23
456.109	-21.12
456.31	-14.01
456.512	-24.94
456.713	-21.28
456.914	-25.82
457.116	-43.91
457.317	-36.81
457.518	-33.95
457.719	-34.49
457.921	-25.8
458.122	-33.2
458.323	-31.34
458.524	-20.37
458.725	-27.22
458.926	-27.04
459.128	-26.45
459.329	-31.76
459.53	-43.31
459.731	-47.37
459.932	-41.74
460.133	-31.62
460.334	-19.81
460.535	-11.17
460.736	-6.24
460.937	-18.59
461.138	-14.73
461.339	-3.9
461.54	-1.32
461.741	5.21
461.942	10.36
462.143	15.87
462.344	9.87
462.545	6.35
462.746	5.6
462.947	6.77
463.148	5.79
463.348	6.04
463.549	4.19
463.75	4.75
463.951	16.14
464.152	11.48
464.353	1.32
464.553	7.57
464.754	11.72
464.955	14.46
465.156	26.71
465.356	27.56
465.557	21.4
465.758	18.33
465.959	18.01
466.159	16.82
466.36	13.37
466.561	17.61
466.761	11.41
466.962	8.87
467.163	17.79
467.363	14.95
467.564	18.19
467.764	20.86
467.965	19.79
468.166	15.07
468.366	19
468.567	20.41
468.767	17.66
468.968	9.37
469.168	0.8
469.369	-5.29
469.569	-14.4
469.77	-6.5
469.97	-9.64
470.17	-6
470.371	-10.05
470.571	-14.09
470.772	-10.16
470.972	2.9
471.172	5.93
471.373	-2
471.573	1.07
471.773	-4.26
471.974	-2.49
472.174	-3.15
472.374	4.96
472.575	3.81
472.775	8.25
472.975	3.75
473.175	6.55
473.376	13.57
473.576	16.15
473.776	21.64
473.976	21.89
474.177	25.04
474.377	23.28
474.577	26
474.777	26.54
474.977	25.26
475.177	14.74
475.377	17.96
475.577	21.98
475.777	23.59
475.978	21.72
476.178	20.07
476.378	22.5
476.578	22.76
476.778	20.06
476.978	13.74
477.178	14.53
477.378	13.61
477.578	10.45
477.778	5.61
477.977	2.7
478.177	1.57
478.377	-2.97
478.577	-5.83
478.777	-5.49
478.977	-5.77
479.177	-5.73
479.377	-2.93
479.577	-10.55
479.776	-9.29
479.976	-15.98
480.176	-12.92
480.376	-11.26
480.576	-13.16
480.775	-18.94
480.975	-17.17
481.175	-13.79
481.374	-13.28
481.574	-7.77
481.774	-6.99
481.974	-1.44
482.173	2.07
482.373	-1.49
482.572	4.27
482.772	9.84
482.972	11.82
483.171	11.11
483.371	15.45
483.57	11.99
483.77	19.14
483.97	17.33
484.169	14.59
484.369	8.52
484.568	5.61
484.768	8.98
484.967	8.85
485.167	8.59
485.366	9.93
485.566	9.42
485.765	8.69
485.964	3.7
486.164	-5.07
486.363	-9.65
486.563	-6.75
486.762	-8.44
486.961	-11.35
487.161	-13.48
487.36	-14.01
487.559	-14.63
487.759	-15.51
487.958	-19.72
488.157	-22.5
488.356	-16.8
488.556	-10.53
488.755	-8.64
488.954	-10.84
489.153	-9.72
489.353	-11.15
489.552	-11.27
489.751	-17.19
489.95	-19.43
490.149	-15.58
490.348	-10.14
490.548	-4.21
490.747	-4.13
490.946	-7.51
491.145	-7.1
491.344	-9.83
491.543	-8.71
491.742	-13.53
491.941	-11.48
492.14	-13.93
492.339	-11.9
492.538	-13.84
492.737	-13.85
492.936	-14.29
493.135	-17.52
493.334	-19.9
493.533	-23.81
493.732	-15.44
493.931	-7.73
494.13	-7.49
494.328	-2.25
494.527	0.62
494.726	-4.95
494.925	-9.69
495.124	-7.06
495.323	-8.07
495.521	-8.87
495.72	-5.69
495.919	-4.86
496.118	-5.27
496.316	-3.51
496.515	-3.26
496.714	-6.36
496.913	-6.29
497.111	-8.18
497.31	-8.55
497.509	-6.93
497.707	-3.2
497.906	-3.55
498.105	-6.55
498.303	-7.79
498.502	-9.98
498.7	-4.89
498.899	-1.46
499.097	2.98
499.296	0.41
499.495	4.73
499.693	7.56
499.892	2.03
500.09	-2.05
500.289	3.82
500.487	-2.01
500.686	-3.3
500.884	-1.24
501.082	2.69
501.281	1.95
501.479	6.29
501.678	10.48
501.876	9.61
502.074	7.12
502.273	8.84
502.471	9.47
502.669	7.58
502.868	-0.77
503.066	1.55
503.264	3.58
503.463	2.51
503.661	-0.99
503.859	-0.57
504.057	5.38
504.256	10.49
504.454	8.03
504.652	10.57
504.85	11.77
505.048	17.29
505.246	11.71
505.445	12.43
505.643	9.41
505.841	5.89
506.039	9.04
506.237	4.13
506.435	7.93
506.633	6.81
506.831	8.57
507.029	10.27
507.227	10.47
507.425	10.33
507.623	13.77
507.821	11.16
508.019	10.24
508.217	11.79
508.415	12.03
508.613	10.77
508.811	13.95
509.009	11.89
509.207	10.31
509.405	11.99
509.603	10.96
509.8	10.91
509.998	12.39
510.196	11.71
510.394	11.77
510.592	6.4
510.79	8.41
510.987	8.53
511.185	11.78
511.383	8.56
511.581	5.36
511.778	8.33
511.976	13.73
512.174	11.76
512.371	6.68
512.569	4.29
512.767	2.31
512.964	-0.99
513.162	2.26
513.36	-1.07
513.557	-1.58
513.755	-1.56
513.952	0.72
514.15	-1.63
514.348	-2.12
514.545	-1.64
514.743	1.69
514.94	3
515.138	1.71
515.335	-0.45
515.533	-1.18
515.73	2.07
515.927	-2.15
516.125	-3.33
516.322	0.4
516.52	-0.33
516.717	2.2
516.915	6.88
517.112	8.8
517.309	6.7
517.507	9.33
517.704	4.75
517.901	3.22
518.099	3.97
518.296	3.51
518.493	5.54
518.69	9.28
518.888	9.18
519.085	6.88
519.282	7.16
519.479	5.74
519.676	4.65
519.874	1.44
520.071	-2.5
520.268	-2.11
520.465	-1.31
520.662	1.27
520.859	-0.88
521.056	-4.37
521.254	-2.13
521.451	-1.33
521.648	-2.2
521.845	1.26
522.042	5.07
522.239	4.86
522.436	3.22
522.633	-2.91
522.83	-4.9
523.027	-7.38
523.224	-6.7
523.421	-5.6
523.618	-7.14
523.815	-3.1
524.011	-0.73
524.208	9
524.405	8.5
524.602	5.56
524.799	2.37
524.996	0.11
525.193	1.86
525.389	0.51
525.586	2.15
525.783	-0.52
525.98	1.44
526.176	3.3
526.373	-2.15
526.57	5.05
526.767	4.45
526.963	2.94
527.16	8.83
527.357	6.98
527.553	11.89
527.75	14.02
527.947	12.22
528.143	10.45
528.34	6.45
528.537	1.52
528.733	5.46
528.93	4.77
529.126	11.24
529.323	10.25
529.519	11.68
529.716	7.73
529.912	11.28
530.109	10.1
530.305	7.12
530.502	8.04
530.698	5.78
530.895	7.23
531.091	7.64
531.288	3.24
531.484	5.76
531.68	2
531.877	2.64
532.073	2.93
532.269	1.43
532.466	0.11
532.662	2.74
532.858	0.64
533.055	1.37
533.251	0.97
533.447	2.27
533.643	4.47
533.84	4.15
534.036	3.36
534.232	4.23
534.428	1.58
534.624	2.62
534.821	3.1
535.017	5.19
535.213	4.21
535.409	7.14
535.605	7.21
535.801	3.6
535.997	2.88
536.193	4.09
536.389	4.84
536.586	3.12
536.782	2.74
536.978	3.08
537.174	2.7
537.37	1.45
537.566	0.28
537.762	-7.9
537.958	-5.67
538.153	-7.16
538.349	-10.59
538.545	-7.1
538.741	-5.05
538.937	-8.55
539.133	-9
539.329	-5.87
539.525	-9.83
539.721	-11.81
539.916	-4.71
540.112	-4.88
540.308	-3.7
540.504	0.41
540.699	4.49
540.895	5.52
541.091	8.71
541.287	10.9
541.482	8.35
541.678	10.09
541.874	10.4
542.069	10.17
542.265	11.1
542.461	15.26
542.656	18.3
542.852	16.46
543.048	16.91
543.243	17.8
543.439	15.91
543.634	16.04
543.83	17.88
544.025	16.32
544.221	19.52
544.417	19.59
544.612	20.74
544.807	19.99
545.003	16.75
545.198	12.92
545.394	13.27
545.589	18
545.785	17.06
545.98	21.16
546.176	20.51
546.371	19.09
546.566	16.19
546.762	12.39
546.957	13.15
547.152	11.6
547.348	10.68
547.543	10.66
547.738	8.94
547.933	6.95
548.129	7.86
548.324	2.92
548.519	1.2
548.714	-3.36
548.91	-4.83
549.105	-3.43
549.3	-2.14
549.495	-2.42
549.69	-7.28
549.885	-9.33
550.08	-9.64
550.276	-8.3
550.471	-4.37
550.666	-3.97
550.861	-0.98
551.056	-3.05
551.251	-0.42
551.446	-0.5
551.641	0.02
551.836	-0.21
552.031	3.04
552.226	1.67
552.421	4.06
552.616	3.37
552.811	8.21
553.006	7.62
553.201	6.63
553.395	7.65
553.59	8.02
553.785	9.08
553.98	11.25
554.175	8.28
554.37	7.43
554.565	6.2
554.759	6.85
554.954	5.61
555.149	6.12
555.344	6.89
555.538	5.89
555.733	7.29
555.928	12.32
556.122	12.06
556.317	10.53
556.512	9.31
556.706	10.25
556.901	9.23
557.096	11.55
557.29	12.81
557.485	12.58
557.68	10.38
557.874	9.65
558.069	8.1
558.263	8.31
558.458	9.07
558.652	9.32
558.847	7.78
559.041	10.39
559.236	9.03
559.43	7.99
559.625	9.75
559.819	8.45
560.014	7.15
560.208	7.46
560.402	8.58
560.597	10
560.791	8.09
560.986	7.71
561.18	5.53
561.374	5.29
561.569	3.3
561.763	4.35
561.957	2.68
562.151	2.88
562.346	4.49
562.54	5.28
562.734	4.52
562.928	2.64
563.123	3.04
563.317	3.99
563.511	3.44
563.705	1.02
563.899	0.06
564.093	-1.43
564.288	-3.02
564.482	-1.43
564.676	-4.3
564.87	0.02
565.064	-0.41
565.258	1.27
565.452	1.75
565.646	4.85
565.84	2.8
566.034	5.52
566.228	4.13
566.422	3.78
566.616	4.06
566.81	4
567.004	8.41
567.198	8.01
567.392	5.54
567.586	3.73
567.779	4.87
567.973	7.04
568.167	9.57
568.361	9.02
568.555	8.54
568.749	9.53
568.942	6.99
569.136	9.06
569.33	7.57
569.524	9.45
569.718	9.81
569.911	13.06
570.105	12.51
570.299	13.64
570.492	12.6
570.686	13.03
570.88	14.95
571.073	13.44
571.267	13.19
571.461	14.81
571.654	17.51
571.848	18.84
572.041	18.79
572.235	17.14
572.429	18.76
572.622	17.24
572.816	18.28
573.009	19.51
573.203	16.25
573.396	19.17
573.59	18.89
573.783	17.2
573.976	14.82
574.17	14.8
574.363	12.69
574.557	14.36
574.75	11.22
574.943	11.21
575.137	12.12
575.33	11.29
575.523	11.52
575.717	9.62
575.91	7.59
576.103	6.01
576.297	6.09
576.49	5.28
576.683	5.88
576.876	5.94
577.07	4.35
577.263	5.04
577.456	3.56
577.649	2.63
577.842	4.91
578.036	7.95
578.229	7.74
578.422	8.75
578.615	7.63
578.808	8.34
579.001	8.03
579.194	8.04
579.387	8.68
579.58	9.43
579.773	10.16
579.966	11.1
580.159	11.61
580.352	12.85
580.545	13.57
580.738	13.45
580.931	12.67
581.124	13.15
581.317	12.28
581.51	12.29
581.703	13.75
581.896	11.26
582.088	8.42
582.281	8.57
582.474	8.23
582.667	7.28
582.86	8.74
583.053	8.3
583.245	8.86
583.438	7.35
583.631	7.85
583.824	6.42
584.016	7.4
584.209	4.73
584.402	5.18
584.594	5.89
584.787	7.15
584.98	8.1
585.172	8.82
585.365	8.96
585.558	10.17
585.75	9.31
585.943	9.35
586.135	10.42
586.328	10.51
586.52	13.78
586.713	15.6
586.906	14.38
587.098	14.11
587.291	15.36
587.483	14.53
587.675	14.95
587.868	15.12
588.06	15.18
588.253	18.3
588.445	17.53
588.638	15.66
588.83	14.84
589.022	15.23
589.215	14.67
589.407	17.75
589.599	16.45
589.792	17.72
589.984	19.36
590.176	19.28
590.368	19.73
590.561	17.84
590.753	17.11
590.945	18.23
591.137	15.37
591.33	11.38
591.522	14.2
591.714	11.92
591.906	14.81
592.098	13.56
592.29	12.47
592.482	12.98
592.674	13.44
592.867	12.2
593.059	11
593.251	10.84
593.443	8.98
593.635	7.03
593.827	4.11
594.019	3.64
594.211	3.59
594.403	3.45
594.595	3.97
594.787	6.13
594.979	6.75
595.17	8.52
595.362	11.47
595.554	10.25
595.746	10.94
595.938	8.89
596.13	9.07
596.322	10.22
596.513	7.37
596.705	8
596.897	7.25
597.089	9.23
597.281	9.43
597.472	9.41
597.664	10.25
597.856	11.87
598.048	11.48
598.239	10.52
598.431	8.36
598.623	6.16
598.814	2.85
599.006	3.42
599.197	3.83
599.389	3.08
599.581	1.88
599.772	3.6
599.964	6.33
600.155	5.95
600.347	5.13
600.538	6.81
600.73	6.01
600.921	6.65
601.113	4
601.304	4.53
601.496	5.82
601.687	8.13
601.879	6.46
602.07	7.76
602.262	8.99
602.453	9.1
602.644	9.93
602.836	8.87
603.027	8.33
603.218	7.66
603.41	8.21
603.601	9.88
603.792	7.62
603.983	5.51
604.175	5.89
604.366	5.48
604.557	6.08
604.748	6.28
604.94	7.23
605.131	7.64
605.322	8.27
605.513	7.88
605.704	7.54
605.895	8.35
606.086	6.82
606.278	7.35
606.469	10.64
606.66	10.28
606.851	12.23
607.042	10.36
607.233	10.82
607.424	9.51
607.615	9.71
607.806	10.95
607.997	12.47
608.188	12.75
608.379	12.66
608.57	12.46
608.761	12.42
608.952	13.25
609.142	14.61
609.333	13.44
609.524	11.82
609.715	11.22
609.906	11.25
610.097	11.84
610.287	10.98
610.478	9.77
610.669	12.87
610.86	12.14
611.051	12.75
611.241	13.67
611.432	13.11
611.623	12.77
611.813	12.32
612.004	11.87
612.195	12.61
612.385	13.03
612.576	13.02
612.767	13.23
612.957	12.07
613.148	11.07
613.338	11.61
613.529	10.71
613.72	9.91
613.91	10.33
614.101	9.95
614.291	9.74
614.482	10.38
614.672	7.95
614.863	8.37
615.053	8.52
615.243	8.22
615.434	10.19
615.624	9.57
615.815	10.26
616.005	8.57
616.195	6.62
616.386	5.99
616.576	6.1
616.766	6.41
616.957	7.29
617.147	6.91
617.337	5.59
617.528	5.99
617.718	5.27
617.908	3.79
618.098	3.6
618.289	4.59
618.479	3.5
618.669	4.37
618.859	5
619.049	5.52
619.239	6.49
619.43	5.56
619.62	4.02
619.81	5.3
620	6.2
620.19	6.54
620.38	6.62
620.57	5.86
620.76	5.8
620.95	7.31
621.14	8.51
621.33	10.45
621.52	10.54
621.71	10.11
621.9	9.86
622.09	10.65
622.28	10.09
622.47	9.23
622.659	7.37
622.849	6.62
623.039	6.93
623.229	5.15
623.419	4.8
623.609	6.49
623.799	4.96
623.988	4.68
624.178	6.04
624.368	5.41
624.558	8.62
624.747	8.55
624.937	7.03
625.127	4.72
625.316	3.33
625.506	5
625.696	6.2
625.885	6.47
626.075	7.23
626.265	7.34
626.454	8.91
626.644	10.4
626.833	10.27
627.023	10.22
627.212	10.66
627.402	13.08
627.591	13.22
627.781	12.07
627.97	12.26
628.16	10.85
628.349	11.59
628.539	7.96
628.728	9.3
628.918	10.09
629.107	12.02
629.296	11.22
629.486	10.07
629.675	11.07
629.865	11.89
630.054	12
630.243	10.25
630.432	9.01
630.622	9.97
630.811	11.3
631	9.9
631.19	12.16
631.379	8.94
631.568	8.46
631.757	9.93
631.946	9.17
632.136	10.42
632.325	9.38
632.514	9.7
632.703	8.17
632.892	7.05
633.081	5.33
633.27	7.26
633.459	7.63
633.648	6.44
633.837	6.15
634.026	5.48
634.215	8.19
634.404	8.11
634.593	8.16
634.782	7.19
634.971	8.44
635.16	4.42
635.349	5.6
635.538	6.33
635.727	4.29
635.916	3.53
636.105	3.39
636.294	4.57
636.482	5.1
636.671	3.09
636.86	4.79
637.049	6.67
637.238	6.54
637.426	7.83
637.615	7.29
637.804	6.75
637.993	6.77
638.181	6.87
638.37	8.42
638.559	7.56
638.747	8.1
638.936	8.38
639.125	10.44
639.313	9.56
639.502	9.21
639.691	9.72
639.879	9.58
640.068	9.19
640.256	7.98
640.445	8.22
640.633	10.08
640.822	8.37
641.01	9.27
641.199	8.04
641.387	7.23
641.576	7.48
641.764	9.52
641.953	9.17
642.141	8.11
642.329	7.96
642.518	7.31
642.706	6.46
642.894	6.49
643.083	6.84
643.271	7.61
643.459	7.29
643.648	8.45
643.836	9.82
644.024	9.12
644.213	9.26
644.401	9.06
644.589	8.37
644.777	8.18
644.965	6.64
645.154	7.11
645.342	7.65
645.53	8.2
645.718	6.61
645.906	5.75
646.094	6.1
646.282	4.69
646.47	5.87
646.658	5.59
646.846	4.17
647.034	4.37
647.223	5.14
647.411	5.13
647.599	3.85
647.786	3.34
647.974	4.64
648.162	5.22
648.35	4.38
648.538	5.98
648.726	7.61
648.914	7.89
649.102	8.44
649.29	8.62
649.478	8.27
649.665	9.91
649.853	10.38
650.041	9.81
650.229	10.47
650.417	9.3
650.604	10.17
650.792	11.5
650.98	10.86
651.168	8.83
651.355	9.03
651.543	9.38
651.731	9.3
651.918	8.99
652.106	9.94
652.294	10.86
652.481	11.12
652.669	9.72
652.856	10.18
653.044	9.72
653.231	7.61
653.419	7.39
653.606	6.08
653.794	7.08
653.981	7.56
654.169	7.43
654.356	6.38
654.544	5.88
654.731	4.55
654.919	3.45
655.106	4.41
655.294	3.66
655.481	4.53
655.668	6.01
655.856	4.11
656.043	2.96
656.23	2.74
656.418	1.69
656.605	3.12
656.792	4.68
656.979	4.78
657.167	5.38
657.354	5.73
657.541	5.43
657.728	4.66
657.916	4.37
658.103	3.66
658.29	5.74
658.477	7.17
658.664	8.84
658.851	10.38
659.038	11.49
659.225	13.12
659.412	13
659.6	11.21
659.787	12.64
659.974	12.9
660.161	14.27
660.348	13.4
660.535	14.35
660.722	10.36
660.909	10
661.095	11.34
661.282	11.11
661.469	12.24
661.656	10.41
661.843	11.76
662.03	11.52
662.217	11.17
662.404	10.23
662.59	9.13
662.777	8.93
662.964	8.13
663.151	6.76
663.338	6.77
663.524	6.63
663.711	6.87
663.898	8.42
664.085	6.37
664.271	7.21
664.458	5.06
664.645	6.61
664.831	8.32
665.018	7.05
665.204	6.76
665.391	5.34
665.578	6.62
665.764	6
665.951	6.15
666.137	4.48
666.324	4.75
666.51	3.64
666.697	3.53
666.883	3.46
667.07	3.27
667.256	2.83
667.443	2.45
667.629	2.6
667.816	0.17
668.002	0.01
668.188	0.45
668.375	0.73
668.561	0.72
668.747	-2.2
668.934	-2.13
669.12	-0.39
669.306	-0.33
669.493	-0.3
669.679	-0.27
669.865	-0.52
670.051	0.55
670.238	-0.84
670.424	0.01
670.61	-0.98
670.796	-1.55
670.982	-1.6
671.169	-1.95
671.355	-1.82
671.541	-3.6
671.727	-3.39
671.913	-2.23
672.099	-2.22
672.285	-2.79
672.471	-2.84
672.657	-1.3
672.843	-0.52
673.029	-0.7
673.215	1.17
673.401	3.39
673.587	1.53
673.773	2.87
673.959	3.24
674.145	3.49
674.331	4.1
674.517	4.87
674.703	5.59
674.888	5.87
675.074	5.7
675.26	7.05
675.446	8.59
675.632	8.37
675.817	8.3
676.003	9.45
676.189	9.39
676.375	8.46
676.56	9.34
676.746	8.48
676.932	6.08
677.117	4.83
677.303	1.72
677.489	3.79
677.674	2.23
677.86	1.55
678.046	2.18
678.231	3.09
678.417	3.85
678.602	4.54
678.788	5.44
678.973	6.4
679.159	6.62
679.344	6.79
679.53	7.22
679.715	6.68
679.901	4.24
680.086	3.94
680.272	4.38
680.457	3.51
680.643	3.7
680.828	4.8
681.013	4.77
681.199	5.6
681.384	5.46
681.569	5.85
681.755	6.24
681.94	5.52
682.125	3.81
682.31	3.75
682.496	2.07
682.681	2.2
682.866	1.49
683.051	0.72
683.237	0.85
683.422	0.71
683.607	0.27
683.792	1.16
683.977	0.88
684.162	0.35
684.347	0.65
684.532	0.12
684.717	0.97
684.903	1.74
685.088	2.02
685.273	0.49
685.458	1.16
685.643	1.4
685.828	1.6
686.013	3.27
686.198	3
686.382	4.35
686.567	4.63
686.752	4.59
686.937	4.59
687.122	4.87
687.307	6.2
687.492	6.23
687.677	6.9
687.861	7.5
688.046	7.26
688.231	6.55
688.416	8.28
688.601	7.52
688.785	6.73
688.97	6.87
689.155	8.77
689.339	8.66
689.524	7.45
689.709	6.73
689.893	6.49
690.078	6.61
690.263	6.59
690.447	5.12
690.632	4.03
690.816	5.16
691.001	5.23
691.186	5.33
691.37	6.04
691.555	6.43
691.739	7.44
691.924	7.67
692.108	7.48
692.293	7.99
692.477	8.48
692.661	9.59
692.846	9.75
693.03	8.6
693.215	7.28
693.399	8.71
693.583	8.15
693.768	8.07
693.952	7.74
694.136	6.53
694.321	7.84
694.505	9.78
694.689	8.74
694.873	8.97
695.058	7.43
695.242	7.62
695.426	6.96
695.61	5.67
695.794	6.72
695.979	5.55
696.163	4.32
696.347	3.55
696.531	2.86
696.715	2.68
696.899	2.89
697.083	2.95
697.267	3.38
697.451	5.16
697.635	4.75
697.819	4.6
698.003	6.1
698.187	5.53
698.371	5.13
698.555	4.88
698.739	4.45
698.923	5.87
699.107	5.83
699.291	5.82
699.475	5.47
699.659	5.12
699.842	5.6
700.026	5.71
700.21	5.65
700.394	5.46
700.578	6.94
700.761	6.64
700.945	7.86
701.129	7.09
701.313	6.67
701.496	8.3
701.68	8.24
701.864	6.19
702.047	6.93
702.231	9.09
702.415	8.77
702.598	7.46
702.782	5.88
702.965	6.25
703.149	5.19
703.333	6.06
703.516	5.68
703.7	6.73
703.883	6.91
704.067	7
704.25	6.94
704.434	5.13
704.617	5.05
704.801	3.98
704.984	3.66
705.167	3.1
705.351	0.77
705.534	0.14
705.718	1.02
705.901	-0.35
706.084	-3.5
706.268	-2.68
706.451	-2.49
706.634	-1.5
706.817	-2.62
707.001	-2.5
707.184	-2.37
707.367	-2.15
707.55	-2.01
707.734	-2.13
707.917	-2.3
708.1	-2.83
708.283	-2.01
708.466	-1.98
708.649	-0.58
708.832	-0.25
709.015	2.46
709.199	3.26
709.382	4.29
709.565	5.25
709.748	6.76
709.931	6.91
710.114	7.05
710.297	7.17
710.48	6.38
710.663	7.31
710.846	8.2
711.028	7.27
711.211	7.89
711.394	6.71
711.577	6.77
711.76	5.27
711.943	5.43
712.126	6.17
712.309	6.59
712.491	5.68
712.674	4.85
712.857	2.84
713.04	2.39
713.222	1.56
713.405	0.92
713.588	0.74
713.771	1.27
713.953	1.95
714.136	2.61
714.319	3.14
714.501	2.27
714.684	0.73
714.866	1.85
715.049	1.13
715.232	1.88
715.414	0.65
715.597	2.26
715.779	2.12
715.962	2.22
716.144	1.7
716.327	2.83
716.509	3.8
716.692	3.55
716.874	3.05
717.057	3.64
717.239	3.57
717.421	2.13
717.604	0.85
717.786	1.75
717.968	1.27
718.151	0.28
718.333	-0.39
718.515	1.15
718.698	0.08
718.88	0.48
719.062	-0.42
719.244	0.34
719.427	-0.16
719.609	0.6
719.791	-1.19
719.973	-0.03
720.155	-1.65
720.338	-2.45
720.52	-3
720.702	-2.45
720.884	-2.29
721.066	-1.08
721.248	-1.92
721.43	-0.18
721.612	-3.28
721.794	-1.41
721.976	0.27
722.158	0.25
722.34	-0.31
722.522	2.34
722.704	1.92
722.886	1.7
723.068	1.62
723.25	3.07
723.432	3.42
723.614	5.22
723.796	4.28
723.977	4.6
724.159	5.33
724.341	5.6
724.523	4.4
724.705	3.63
724.886	2.52
725.068	4.87
725.25	4.74
725.432	3.81
725.613	3.03
725.795	3
725.977	5.03
726.158	5.72
726.34	4.35
726.522	4.29
726.703	6.23
726.885	7
727.066	5.89
727.248	6.81
727.43	5.53
727.611	4.64
727.793	3.77
727.974	2.67
728.156	2.3
728.337	1
728.519	1.07
728.7	2.9
728.882	1.67
729.063	0.57
729.244	2.74
729.426	1.86
729.607	0.95
729.788	-1.03
729.97	-1.73
730.151	-2.81
730.332	-0.85
730.514	-1.28
730.695	0.04
730.876	-0.21
731.058	-2.4
731.239	-2.38
731.42	-1.65
731.601	-0.67
731.782	-0.72
731.964	0.17
732.145	2.14
732.326	1.93
732.507	1.25
732.688	1.7
732.869	4.62
733.05	5.74
733.231	6.01
733.412	5.41
733.593	6.87
733.774	7.12
733.955	8.82
734.136	7.81
734.317	6.51
734.498	6.13
734.679	6.32
734.86	5.33
735.041	6.28
735.222	6.1
735.403	6.12
735.584	6.34
735.765	7.15
735.946	6.96
736.126	6.28
736.307	5.38
736.488	4.48
736.669	0.76
736.849	-1.04
737.03	0.13
737.211	1.69
737.392	1.93
737.572	0.58
737.753	-1.14
737.934	-1.94
738.114	0.56
738.295	0.1
738.476	-0.07
738.656	2.32
738.837	1.41
739.017	2.16
739.198	3.07
739.378	4.72
739.559	3.88
739.74	4.55
739.92	5.11
740.1	4.16
740.281	2.94
740.461	4.02
740.642	5.04
740.822	3.08
741.003	2.39
741.183	0.87
741.363	2.56
741.544	3.07
741.724	3.48
741.904	2.32
742.085	1.58
742.265	2.38
742.445	2.12
742.626	3.53
742.806	4.21
742.986	3.47
743.166	2.13
743.347	1.88
743.527	3.74
743.707	1.63
743.887	2.7
744.067	2.89
744.247	2.95
744.427	2.16
744.608	1.79
744.788	5.01
744.968	6.55
745.148	6.7
745.328	6.01
745.508	5.05
745.688	5.43
745.868	4.47
746.048	4.67
746.228	6.37
746.408	5.27
746.588	4
746.767	4.47
746.947	6.04
747.127	4.98
747.307	2.5
747.487	6.15
747.667	5.39
747.847	6.82
748.026	6.32
748.206	6.5
748.386	8.48
748.566	6.28
748.745	6.52
748.925	7.94
749.105	8.35
749.285	9.07
749.464	8.85
749.644	10.45
749.824	10.64
750.003	8.31
750.183	6.56
750.362	7.83
750.542	5.4
750.722	3.89
750.901	4.42
751.081	5.54
751.26	5.35
751.44	5.66
751.619	5.26
751.799	5.83
751.978	3.89
752.158	2.78
752.337	3.65
752.516	1.4
752.696	0.17
752.875	0.41
753.055	1.01
753.234	1.22
753.413	1.04
753.593	1.61
753.772	2.32
753.951	3.86
754.13	3.6
754.31	4.41
754.489	5.37
754.668	6.26
754.847	5.92
755.027	5.9
755.206	6.3
755.385	5.99
755.564	7.7
755.743	9.31
755.922	8.88
756.101	7.29
756.28	8.28
756.46	7.8
756.639	7.36
756.818	7.47
756.997	7.69
757.176	6.69
757.355	5.44
757.534	4.57
757.713	4.58
757.892	3.81
758.07	5.01
758.249	4.69
758.428	3.9
758.607	3.82
758.786	3.68
758.965	2.86
759.144	3.83
759.323	0.91
759.501	0.6
759.68	1.4
759.859	3.34
760.038	3.4
760.216	3.47
760.395	3.56
760.574	3.58
760.753	3.33
760.931	4.02
761.11	4.41
761.289	3.55
761.467	3.64
761.646	3.53
761.824	4.38
762.003	2.68
762.182	3.16
762.36	2.36
762.539	2.42
762.717	2.52
762.896	2.06
763.074	2.74
763.253	2.85
763.431	3.97
763.61	2.3
763.788	1.84
763.966	2.16
764.145	3.19
764.323	2.73
764.502	1.39
764.68	1.03
764.858	0.9
765.037	3.24
765.215	3.79
765.393	3.47
765.571	2.9
765.75	4.64
765.928	4.73
766.106	4.71
766.284	5.26
766.463	5.75
766.641	6.04
766.819	6.33
766.997	5.93
767.175	3.51
767.353	4.22
767.531	4.44
767.71	4.11
767.888	2.94
768.066	1.45
768.244	3.47
768.422	4.24
768.6	5.81
768.778	4.71
768.956	3.92
769.134	5.84
769.312	4.61
769.489	2.62
769.667	2.9
769.845	4.26
770.023	3.42
770.201	3.19
770.379	2.66
770.557	3.63
770.735	4.35
770.912	5.32
771.09	5.85
771.268	5.81
771.446	4.65
771.623	5.67
771.801	6.63
771.979	5.77
772.157	4.99
772.334	3.2
772.512	2.11
772.69	1.15
772.867	-1
773.045	-0.45
773.222	0.77
773.4	0.35
773.577	0.18
773.755	0.13
773.933	0.69
774.11	-0.3
774.288	-1.24
774.465	-1.29
774.643	-0.41
774.82	-0.25
774.997	-0.05
775.175	0.21
775.352	1.3
775.53	2.64
775.707	2.53
775.884	2.85
776.062	2.77
776.239	4.99
776.416	6.84
776.594	6.9
776.771	5.36
776.948	6.2
777.125	5.07
777.303	3.73
777.48	2.37
777.657	1.3
777.834	4.3
778.012	4
778.189	3.03
778.366	0.97
778.543	-1.6
778.72	-0.99
778.897	0.72
779.074	-2.47
779.251	-2
779.428	-1.51
779.605	-2.25
779.782	-1.81
779.959	-3.71
780.136	-6.04
780.313	-5.88
780.49	-4.48
780.667	-4.37
780.844	-3.48
781.021	-2.34
781.198	-0.66
781.375	2.36
781.552	-0.16
781.728	0.57
781.905	2.94
782.082	4.02
782.259	3.34
782.436	3.39
782.612	2.76
782.789	3.69
782.966	2.7
783.143	3.39
783.319	5.52
783.496	6.65
783.673	7.95
783.849	9.92
784.026	10.25
784.203	9.88
784.379	7.84
784.556	10.55
784.732	10.62
784.909	10.21
785.085	8.72
785.262	10.71
785.438	11.48
785.615	11.95
785.791	12.59
785.968	14.31
786.144	14.69
786.321	14.62
786.497	14.52
786.673	10.94
786.85	9.4
787.026	9.11
787.203	7.46
787.379	5.85
787.555	4.01
787.731	3.88
787.908	2.99
788.084	5.74
788.26	4.06
788.437	5.05
788.613	4.11
788.789	2.81
788.965	1.79
789.141	0.1
789.317	-4.76
789.494	-5.71
789.67	-5.79
789.846	-6.29
790.022	-6.76
790.198	-5.32
790.374	-2.42
790.55	-2.8
790.726	-5.77
790.902	-5.88
791.078	-4.18
791.254	-5.24
791.43	-4.19
791.606	-2.39
791.782	-2.01
791.958	-5.7
792.134	-7.36
792.31	-7.95
792.486	-6.89
792.661	-6.63
792.837	-4.62
793.013	-1.96
793.189	-2.35
793.365	-1.45
793.54	-0.49
793.716	-0.56
793.892	-0.69
794.068	-2.84
794.243	-1.82
794.419	-1.7
794.595	-1.27
794.77	-1.26
794.946	2.31
795.122	0.93
795.297	1.59
795.473	1.36
795.648	6.22
795.824	6.29
796	7.5
796.175	6.85
796.351	4.33
796.526	5.35
796.702	5.21
796.877	6.35
797.052	3.82
797.228	2.97
797.403	0.68
797.579	3.75
797.754	5.7
797.929	3.86
798.105	4.91
798.28	3.81
798.455	4.52
798.631	2.95
798.806	4.98
798.981	5.88
799.157	5.34
799.332	1.34
799.507	2.7
799.682	3.95
799.858	6.19
800.033	9.51
800.208	6.5
800.383	7.94
800.558	7.82
800.733	9.55
800.908	8.7
801.083	11.02
801.258	6.84
801.434	8.85
801.609	10.41
801.784	12.05
801.959	12.77
802.134	11.61
802.309	9.3
802.484	7.5
802.658	9.47
802.833	7.27
803.008	10.01
803.183	9.61
803.358	9.2
803.533	8.16
803.708	6.55
803.883	7.46
804.057	2.09
804.232	3.49
804.407	5.45
804.582	7.28
804.756	7.59
804.931	9.12
805.106	7.91
805.281	8.61
805.455	7.65
805.63	7.17
805.805	5.43
805.979	10.43
806.154	10.23
806.328	8.23
806.503	9.53
806.678	6.62
806.852	5.06
807.027	3.82
807.201	1.12
807.376	3.07
807.55	4.3
807.725	6.52
807.899	7.53
808.074	7.48
808.248	8.81
808.422	6.57
808.597	7.25
808.771	8.6
808.946	11.87
809.12	11.81
809.294	14.17
809.468	15.39
809.643	13.44
809.817	14.09
809.991	11.61
810.166	12.28
810.34	12.27
810.514	15.26
810.688	16.73
810.862	18.17
811.037	19.06
811.211	16.88
811.385	17.43
811.559	17.36
811.733	17.29
811.907	12.23
812.081	13.42
812.255	9.28
812.429	6.72
812.603	1.86
812.777	4.33
812.951	3.72
813.125	2.48
813.299	0.39
813.473	-2.64
813.647	0.84
813.821	3.14
813.995	5.53
814.169	3.08
814.343	3.13
814.516	4.19
814.69	3.84
814.864	3.16
815.038	6.86
815.212	8.73
815.385	7.64
815.559	12.16
815.733	12.96
815.907	16.8
816.08	17.86
816.254	18.06
816.428	15.86
816.601	15.08
816.775	16.17
816.948	17.21
817.122	22.31
817.296	21.81
817.469	23.15
817.643	26.04
817.816	24.93
817.99	22.66
818.163	23.36
818.337	20.6
818.51	24.37
818.684	23.19
818.857	19.82
819.031	18.83
819.204	14.81
819.377	15.46
819.551	13.42
819.724	14.89
819.897	16.57
820.071	17.7
820.244	15.62
820.417	15.07
820.591	14.48
820.764	15.49
820.937	13.91
821.11	10.48
821.284	6.63
821.457	10.14
821.63	13.87
821.803	10.31
821.976	13
822.149	13.98
822.322	12.62
822.496	13.99
822.669	16.85
822.842	18.52
823.015	15.75
823.188	17.1
823.361	18.69
823.534	13.6
823.707	10.36
823.88	11.42
824.053	12.78
824.226	12.69
824.399	10.7
824.571	12.05
824.744	11.94
824.917	14.8
825.09	14.07
825.263	12.31
825.436	17.61
825.608	16.25
825.781	16.06
825.954	18
826.127	16.65
826.299	14.2
826.472	13.52
826.645	15.75
826.818	14.85
826.99	8.54
827.163	12.2
827.336	11.8
827.508	11.73
827.681	12.32
827.853	12.21
828.026	9.04
828.198	10.3
828.371	8.2
828.544	6.77
828.716	5.98
828.889	3.83
829.061	-0.28
829.233	-1.33
829.406	-4.92
829.578	-6.29
829.751	-6.34
829.923	-4.43
830.096	-4.83
830.268	-9.42
830.44	-6.82
830.613	-4.22
830.785	-2.77
830.957	-1.6
831.129	3.12
831.302	2.11
831.474	3.99
831.646	8.81
831.818	7
831.991	7.05
832.163	8.17
832.335	9.4
832.507	9.47
832.679	8.83
832.851	10.26
833.023	14.69
833.195	13.44
833.368	11.29
833.54	11.44
833.712	11.22
833.884	16.79
834.056	12.63
834.228	14.94
834.4	17.67
834.571	19.96
834.743	15.36
834.915	11.31
835.087	9.9
835.259	10.51
835.431	9.93
835.603	11.58
835.775	9.58
835.946	9.51
836.118	10.87
836.29	9.03
836.462	6.39
836.634	5.15
836.805	4.66
836.977	5.78
837.149	4.22
837.32	7.01
837.492	6.75
837.664	4.78
837.835	3.36
838.007	-2.3
838.179	-1.54
838.35	3.98
838.522	9.56
838.693	10.94
838.865	2.37
839.036	-0.07
839.208	2.63
839.379	4.08
839.551	3.84
839.722	9.75
839.894	11.36
840.065	11.63
840.237	10.69
840.408	9.43
840.579	12.65
840.751	10.96
840.922	9.49
841.093	6.39
841.265	10.54
841.436	10.44
841.607	14.43
841.778	13.39
841.95	12.1
842.121	16.26
842.292	14.24
842.463	22.82
842.635	25.9
842.806	28.13
842.977	26.41
843.148	28.58
843.319	25.24
843.49	25.68
843.661	24.51
843.832	22.84
844.003	27.31
844.174	24.81
844.345	29.32
844.516	23.35
844.687	23.65
844.858	23.89
845.029	22.97
845.2	16.71
845.371	15.05
845.542	8.37
845.713	-0.67
845.884	0.18
846.055	-7.89
846.225	-8.17
846.396	-13.34
846.567	-9.98
846.738	-16.75
846.909	-16.58
847.079	-16.22
847.25	-8.78
847.421	-11.52
847.591	-20.54
847.762	-17.39
847.933	-23.58
848.103	-14.69
848.274	-16.09
848.445	-17.29
848.615	-14.39
848.786	-12.09
848.956	-4.94
849.127	1.74
849.297	9.24
849.468	15.03
849.638	14.71
849.809	12.24
849.979	11.35
850.15	10.76
850.32	11.4
850.491	12.61
850.661	18.85
850.831	18.17
851.002	22.39
851.172	26
851.342	20
851.513	20.38
851.683	20.81
851.853	24.41
852.024	23
852.194	21.36
852.364	19.89
852.534	16.79
852.705	17.71
852.875	16.75
853.045	9.81
853.215	13.72
853.385	18.64
853.555	20.21
853.725	15.72
853.895	16.14
854.066	13.09
854.236	8.26
854.406	10.19
854.576	10.53
854.746	10.34
854.916	18.65
855.086	21.25
855.256	24.97
855.425	20.66
855.595	22.34
855.765	24.22
855.935	23.94
856.105	21
856.275	17.76
856.445	9.07
856.614	10.48
856.784	12.96
856.954	9.62
857.124	14.17
857.294	16.39
857.463	20.79
857.633	24
857.803	21.23
857.972	17.81
858.142	17.63
858.312	24.78
858.481	20.55
858.651	15.13
858.821	7.29
858.99	8.39
859.16	1.9
859.329	4.52
859.499	5.39
859.668	11.34
859.838	20.27
860.007	31.42
860.177	37.68
860.346	31.66
860.516	31.67
860.685	26.64
860.854	26.52
861.024	22.67
861.193	20.6
861.363	21.27
861.532	19.91
861.701	19.77
861.87	14.04
862.04	14.39
862.209	15.37
862.378	17.9
862.547	19.64
862.717	22.94
862.886	21.03
863.055	17.9
863.224	12.48
863.393	6.82
863.563	1.03
863.732	-2.06
863.901	-3.88
864.07	-2.61
864.239	-6.19
864.408	-2.49
864.577	-9.1
864.746	-3.4
864.915	-0.46
865.084	2.9
865.253	-2.28
865.422	-2.88
865.591	-1.11
865.76	5.13
865.929	3.77
866.097	2.7
866.266	-0.39
866.435	-3.75
866.604	-1.9
866.773	3.9
866.942	-0.43
867.11	-7.87
867.279	-12.14
867.448	-3.79
867.617	-3.53
867.785	3.75
867.954	-5.45
868.123	10.73
868.291	-5.9
868.46	-12.8
868.629	-7.98
868.797	0.69
868.966	-7.33
869.134	-5.22
869.303	-2.56
869.472	3.51
869.64	0.05
869.809	2.51
869.977	7.6
870.146	12.68
870.314	9.66
870.482	16.48
870.651	17.53
870.819	18.52
870.988	15.11
871.156	15.99
871.324	18.46
871.493	21.66
871.661	28.37
871.829	33.4
871.998	37.43
872.166	30.84
872.334	28.8
872.502	37.98
872.671	37.59
872.839	33.77
873.007	35.4
873.175	38.02
873.343	39.43
873.512	38.98
873.68	40.16
873.848	45.22
874.016	38.54
874.184	45.11
874.352	45.85
874.52	46.34
874.688	45.7
874.856	39.44
875.024	41.62
875.192	31.01
875.36	31.64
875.528	28.05
875.696	31.56
875.864	35.5
876.032	36.49
876.199	33.23
876.367	35.13
876.535	29.51
876.703	25.97
876.871	34.83
877.039	35.4
877.206	37.68
877.374	34.3
877.542	42.25
877.71	38.75
877.877	42.07
878.045	51.62
878.213	43.3
878.38	45.43
878.548	49.41
878.715	60.92
878.883	68.52
879.051	79.72
879.218	63.66
879.386	64.62
879.553	57.53
879.721	57.8
879.888	55.44
880.056	58.32
880.223	59.9
880.391	59.45
880.558	51.74
880.726	56.67
880.893	43.43
881.06	34.94
881.228	42.75
881.395	42.83
881.562	41.52
881.73	41.21
881.897	42.22
882.064	36.29
882.231	11.77
882.399	-4.04
882.566	-7.04
882.733	5.55
882.9	-22.6
883.068	-7.4
883.235	-7.41
883.402	2.26
883.569	13.89
883.736	26.45
883.903	22.22
884.07	29.07
884.237	11.85
884.404	24.73
884.571	23.3
884.738	17.58
884.905	10.76
885.072	-3.95
885.239	18.77
885.406	20.69
