Data from Transmission_09-21-37-707.txt Node
Date: Fri Aug 24 09:21:37 EEST 2018
User: tibor.sos
Spectrometer: USB4F01757
Scans to average: 10
Trigger mode: 4
Integration Time (sec): 1.000000E-2
Electric dark correction enabled: true
Boxcar width: 10
XAxis mode: Wavelengths
Number of Pixels in Spectrum: 3648
>>>>>Begin Spectral Data<<<<<
178.758	79.03
178.974	124.43
179.191	165.89
179.407	122.54
179.624	96.16
179.84	62.48
180.057	49.49
180.273	61.02
180.489	83.42
180.706	78.86
180.922	81.86
181.138	69.84
181.355	102.29
181.571	76.26
181.787	114.84
182.004	83.39
182.22	90.37
182.436	142.26
182.653	131.42
182.869	128.45
183.085	153.58
183.301	153.97
183.518	122.39
183.734	138.26
183.95	154.69
184.166	172.54
184.383	177.85
184.599	207.97
184.815	182.14
185.031	154.92
185.247	161.19
185.463	169.36
185.68	176.63
185.896	179.22
186.112	281.47
186.328	253.64
186.544	300.97
186.76	322.57
186.976	251.7
187.192	265.99
187.408	320.48
187.624	354.33
187.84	266.65
188.056	250.1
188.272	225.03
188.488	252.21
188.704	222.73
188.92	279.07
189.136	227.75
189.352	276.08
189.568	333.35
189.784	379.72
190	351.44
190.216	346.8
190.432	357.6
190.648	389.92
190.864	935.36
191.08	748.66
191.296	332.24
191.511	399.79
191.727	533.77
191.943	504.54
192.159	325.33
192.375	383.64
192.591	504.59
192.806	786.61
193.022	468.69
193.238	1012.91
193.454	793.98
193.669	1184.07
193.885	1062.94
194.101	1585.25
194.317	836.41
194.532	5596.63
194.748	-4320.17
194.964	1730.59
195.18	732.87
195.395	680.55
195.611	591.57
195.827	1213.56
196.042	2185.14
196.258	1130.74
196.473	915.27
196.689	1073.79
196.905	1413.88
197.12	5236.63
197.336	1759.79
197.551	-1867.06
197.767	451700
197.982	1218.64
198.198	6954.79
198.414	6338.2
198.629	1348.96
198.845	968.55
199.06	993.59
199.276	745.47
199.491	3066.49
199.707	772.35
199.922	442.82
200.137	467.88
200.353	460.67
200.568	373.86
200.784	376.54
200.999	369.69
201.215	513.13
201.43	515.36
201.645	403.1
201.861	418.37
202.076	389.51
202.291	515.3
202.507	465.68
202.722	315.8
202.937	551.03
203.153	432.31
203.368	328.05
203.583	197.55
203.798	187.51
204.014	151.68
204.229	165.56
204.444	211.59
204.659	411.4
204.875	614.64
205.09	-1116.81
205.305	2666.04
205.52	-1226.83
205.735	-1653.29
205.951	11124
206.166	-640.25
206.381	-423.54
206.596	-4110.91
206.811	-1032.16
207.026	-654.24
207.241	-212.22
207.457	780.37
207.672	2228.93
207.887	-2483.18
208.102	-471.19
208.317	-621.31
208.532	1686.44
208.747	-1353.55
208.962	-774.13
209.177	1286.58
209.392	588.47
209.607	230.08
209.822	283.18
210.037	196.74
210.252	100
210.467	199.8
210.682	145.03
210.897	165.21
211.112	192.23
211.326	156.93
211.541	159.36
211.756	66.53
211.971	117.15
212.186	61.66
212.401	29.22
212.616	2.66
212.831	12.52
213.045	24.16
213.26	25.5
213.475	50.04
213.69	49.17
213.905	83.53
214.119	268.33
214.334	-3292.59
214.549	-353.44
214.764	680.31
214.978	591.47
215.193	571.15
215.408	-3110.26
215.622	451.7
215.837	3255.56
216.052	-1982.76
216.266	-499.49
216.481	-565.6
216.696	-413.26
216.91	11178.79
217.125	1313.37
217.34	2236.79
217.554	2024.32
217.769	-956.15
217.983	-472.03
218.198	-967.47
218.412	-1592.6
218.627	1211.8
218.842	589.34
219.056	466.3
219.271	456.66
219.485	594.22
219.7	642.64
219.914	500
220.129	892.87
220.343	525.41
220.558	392.45
220.772	469.75
220.986	369.11
221.201	546.42
221.415	-407.52
221.63	-89.47
221.844	-97.48
222.058	-168.93
222.273	-134.96
222.487	-101.34
222.702	-81.09
222.916	-39.43
223.13	-41.3
223.344	-73.95
223.559	-57.49
223.773	-15.91
223.987	-29.26
224.202	-38.96
224.416	4.23
224.63	-23.77
224.844	-37.87
225.059	-58.59
225.273	-1697.98
225.487	1440.8
225.701	237.65
225.915	196.87
226.13	225.45
226.344	216.6
226.558	184.26
226.772	177.59
226.986	174.89
227.2	203.63
227.415	209.18
227.629	215.91
227.843	234.15
228.057	159.34
228.271	153.24
228.485	176.41
228.699	196.67
228.913	252.06
229.127	236.5
229.341	245.02
229.555	337.7
229.769	455.96
229.983	600.45
230.197	546.3
230.411	748.67
230.625	660.39
230.839	534.87
231.053	843.77
231.267	1498.94
231.481	1194.84
231.695	776.28
231.909	414.16
232.122	233.54
232.336	303.66
232.55	412.87
232.764	486.98
232.978	510.43
233.192	661.25
233.405	583.89
233.619	474
233.833	248.71
234.047	444.72
234.261	758.68
234.474	514.04
234.688	-999.53
234.902	-640.32
235.116	-392.42
235.329	-208.6
235.543	-533.96
235.757	-262.11
235.97	-185.77
236.184	-134.82
236.398	-28.71
236.612	-37.7
236.825	-46.89
237.039	-93.88
237.252	-123.66
237.466	-821.21
237.68	-3093.22
237.893	230500
238.107	827.27
238.32	-1635.65
238.534	501.92
238.748	365.49
238.961	255.41
239.175	314.92
239.388	352.99
239.602	426.1
239.815	287.89
240.029	304.65
240.242	186.5
240.456	134.08
240.669	217.5
240.882	234.77
241.096	363.18
241.309	190.37
241.523	241.59
241.736	295.88
241.95	-389.39
242.163	481.95
242.376	191.83
242.59	666.4
242.803	-7473.33
243.016	-117.52
243.23	-531.93
243.443	-3660
243.656	268.42
243.87	97.69
244.083	61.74
244.296	37.74
244.509	90.87
244.723	68.09
244.936	62.39
245.149	6.68
245.362	3.34
245.576	5.37
245.789	-4.73
246.002	24.45
246.215	42.69
246.428	36.8
246.641	43.63
246.855	54.86
247.068	18.28
247.281	7.69
247.494	53.79
247.707	42.32
247.92	48.51
248.133	48.65
248.346	41.35
248.559	71.68
248.772	52.31
248.985	13.62
249.198	27.22
249.411	22.21
249.624	29.8
249.837	28.66
250.05	39.85
250.263	52.07
250.476	47.74
250.689	41.6
250.902	44.75
251.115	32.63
251.328	25.1
251.541	30.27
251.754	30.44
251.967	33.9
252.18	32.89
252.393	32.97
252.605	37.99
252.818	38.72
253.031	34.59
253.244	46.53
253.457	57.22
253.67	59.37
253.882	74.07
254.095	64.18
254.308	69.23
254.521	67.02
254.733	60.83
254.946	60.32
255.159	51.3
255.372	47.75
255.584	53.75
255.797	48.8
256.01	55.87
256.222	54.12
256.435	39.82
256.648	38.81
256.86	48.34
257.073	56.42
257.285	53.37
257.498	59.53
257.711	55.85
257.923	52.04
258.136	56.12
258.348	40.9
258.561	48.63
258.773	30.95
258.986	29.85
259.198	31.7
259.411	-2.43
259.623	22.99
259.836	42.72
260.048	39.6
260.261	72.64
260.473	60.96
260.686	64.49
260.898	65.79
261.111	54.34
261.323	40.28
261.535	25.57
261.748	37.07
261.96	38.45
262.173	42.22
262.385	48.22
262.597	44.41
262.81	46.93
263.022	42.51
263.234	48.29
263.447	49.12
263.659	50.26
263.871	54.92
264.083	53.35
264.296	52.94
264.508	51.9
264.72	37.39
264.932	39.67
265.145	32.15
265.357	26.49
265.569	30.67
265.781	39.86
265.993	56.73
266.205	54.8
266.418	61.36
266.63	47.86
266.842	32.86
267.054	30.43
267.266	34.39
267.478	38.78
267.69	39.97
267.902	4.34
268.114	5.87
268.326	6.4
268.538	2.97
268.75	5.45
268.962	11.3
269.174	26.51
269.386	38.58
269.598	40.32
269.81	43.39
270.022	46.88
270.234	36.35
270.446	34.59
270.658	34.36
270.87	35.97
271.082	35.56
271.294	36.37
271.506	38.31
271.718	36.55
271.929	38.96
272.141	38.72
272.353	47.86
272.565	46.67
272.777	48.24
272.989	50.11
273.2	56.15
273.412	56.32
273.624	55.25
273.836	53.82
274.047	55.52
274.259	59.07
274.471	59.19
274.683	56.78
274.894	61.18
275.106	59.33
275.318	57.01
275.529	59.28
275.741	55.35
275.953	62.19
276.164	70.89
276.376	68.96
276.588	68.27
276.799	73.36
277.011	69.73
277.222	80.12
277.434	75.63
277.646	58.57
277.857	69.84
278.069	76.11
278.28	62.79
278.492	68.48
278.703	61.63
278.915	61.45
279.126	67.05
279.338	57.73
279.549	65.38
279.761	61.05
279.972	59.67
280.183	58.28
280.395	50.69
280.606	39.74
280.818	37.42
281.029	38.61
281.24	34.14
281.452	35.35
281.663	33.1
281.875	37.05
282.086	43.85
282.297	34.39
282.508	27.78
282.72	34.6
282.931	28.51
283.142	25.98
283.354	28.6
283.565	32.89
283.776	34.41
283.987	9.83
284.199	7.31
284.41	16.22
284.621	25.45
284.832	24.96
285.043	30.42
285.254	30.7
285.466	31.61
285.677	29.92
285.888	29.43
286.099	23.99
286.31	26.5
286.521	14.99
286.732	13.46
286.943	18.38
287.154	21.12
287.366	26.71
287.577	29.02
287.788	18.46
287.999	16.75
288.21	15.07
288.421	23.17
288.632	28.22
288.843	27.66
289.054	27.95
289.264	27.65
289.475	28.92
289.686	33.92
289.897	35.11
290.108	42.18
290.319	38.9
290.53	37.62
290.741	37.98
290.952	43.83
291.163	44.18
291.373	43.97
291.584	48.87
291.795	50.32
292.006	50.15
292.217	54.13
292.427	59.02
292.638	60.57
292.849	64.64
293.06	70.1
293.27	69.78
293.481	70.43
293.692	68.06
293.903	64.13
294.113	60.15
294.324	57.06
294.535	50.76
294.745	54.43
294.956	62.56
295.167	57.91
295.377	54.99
295.588	57.61
295.798	53.91
296.009	42.97
296.22	47.27
296.43	42.64
296.641	43.77
296.851	38.24
297.062	35.67
297.272	33.67
297.483	23.25
297.693	20.3
297.904	20.45
298.114	25.89
298.325	30.68
298.535	30.52
298.746	31.64
298.956	37.09
299.167	36.73
299.377	32.69
299.587	36.18
299.798	40.01
300.008	36.95
300.219	40.42
300.429	50.33
300.639	40.1
300.85	45.28
301.06	42.38
301.27	40.38
301.481	39.28
301.691	35.93
301.901	37.14
302.111	38.7
302.322	40.63
302.532	36.77
302.742	29.81
302.952	26.9
303.163	22.12
303.373	12.84
303.583	19.37
303.793	23.75
304.003	24.47
304.214	23.08
304.424	22.65
304.634	19.64
304.844	18.73
305.054	24.43
305.264	19.45
305.474	22.4
305.684	29.1
305.894	32.15
306.104	37.22
306.314	39.14
306.525	44.09
306.735	43
306.945	44.53
307.155	48.83
307.365	54.29
307.575	58.48
307.784	58.65
307.994	53.62
308.204	50.42
308.414	53.24
308.624	50.01
308.834	53.22
309.044	57.66
309.254	54.68
309.464	47.75
309.674	47.08
309.884	44.01
310.093	39.73
310.303	38.52
310.513	40.38
310.723	37.28
310.933	33.91
311.142	33.74
311.352	37.78
311.562	38.48
311.772	33.42
311.981	33.91
312.191	33.87
312.401	39.09
312.611	39.06
312.82	34.75
313.03	38.32
313.24	36.36
313.449	35.5
313.659	35.28
313.869	37.98
314.078	39.13
314.288	39.54
314.497	39.66
314.707	39.4
314.917	35.36
315.126	40.02
315.336	42.31
315.545	37.81
315.755	34.13
315.964	29.57
316.174	36.55
316.383	32.61
316.593	29.58
316.802	27.87
317.012	28.89
317.221	29.67
317.431	27.81
317.64	27.61
317.849	22.49
318.059	18.8
318.268	18.33
318.478	24.29
318.687	26.1
318.896	26.19
319.106	26.19
319.315	29.27
319.524	24.78
319.734	18.42
319.943	21.68
320.152	24.08
320.362	21
320.571	20.26
320.78	21.77
320.989	27.8
321.199	29.15
321.408	27.46
321.617	28.47
321.826	30.04
322.035	29.41
322.245	29.67
322.454	34.72
322.663	34.62
322.872	31.73
323.081	33.82
323.29	37.02
323.5	37.66
323.709	39.92
323.918	40.63
324.127	41.55
324.336	35.96
324.545	30.75
324.754	40.71
324.963	37.57
325.172	39.05
325.381	39.07
325.59	36.46
325.799	38.6
326.008	37.82
326.217	38.51
326.426	46.56
326.635	56.32
326.844	49.22
327.053	51.62
327.262	47.51
327.47	42.47
327.679	36.52
327.888	34.53
328.097	30.82
328.306	35.37
328.515	37.21
328.724	40.94
328.932	41.9
329.141	38.98
329.35	41.41
329.559	40.21
329.768	40.04
329.976	37.11
330.185	36.19
330.394	36.43
330.602	32.94
330.811	21.57
331.02	17.35
331.229	17.36
331.437	19.95
331.646	17.16
331.855	19.62
332.063	24.23
332.272	21.93
332.48	18.42
332.689	10.34
332.898	7.14
333.106	14.7
333.315	22.55
333.523	18.49
333.732	14.67
333.94	16.79
334.149	15.25
334.357	13.44
334.566	17.53
334.774	19.75
334.983	21.53
335.191	18.62
335.4	24.51
335.608	30.1
335.817	30.69
336.025	45.49
336.234	43.95
336.442	39.18
336.65	46.62
336.859	41.97
337.067	46.48
337.275	62.14
337.484	55.33
337.692	54.82
337.9	64.76
338.109	71.28
338.317	79.73
338.525	77.32
338.734	88.28
338.942	86.67
339.15	80.9
339.358	91.64
339.567	94.61
339.775	88.58
339.983	83.95
340.191	78.26
340.399	69.94
340.608	67.57
340.816	66.16
341.024	65.2
341.232	68.63
341.44	68.39
341.648	59.93
341.856	60.44
342.064	57.54
342.272	46.04
342.481	38.98
342.689	31.58
342.897	37.11
343.105	29.71
343.313	37.16
343.521	40.9
343.729	35.87
343.937	32.28
344.145	30.78
344.353	32.47
344.56	29.24
344.768	30.1
344.976	24.66
345.184	21.85
345.392	18.46
345.6	24.38
345.808	23.65
346.016	26.24
346.224	33.1
346.431	36.37
346.639	40.56
346.847	42.27
347.055	42.53
347.263	34.63
347.471	31.92
347.678	19.09
347.886	12.08
348.094	21.79
348.302	24.12
348.509	21.06
348.717	18.24
348.925	22.32
349.132	19.87
349.34	16.69
349.548	21.78
349.755	25.36
349.963	20.01
350.171	15.22
350.378	11.75
350.586	0.4
350.793	-1.79
351.001	1.36
351.209	8.75
351.416	10.99
351.624	7.09
351.831	11.33
352.039	17.05
352.246	16.56
352.454	3.45
352.661	-0.39
352.869	7.4
353.076	8.38
353.284	14.84
353.491	28.98
353.699	25.07
353.906	22.72
354.113	21.44
354.321	23.22
354.528	27.78
354.736	31.38
354.943	30.52
355.15	31.06
355.358	30.08
355.565	25.24
355.772	35.61
355.98	48.47
356.187	42.55
356.394	31.44
356.601	42.47
356.809	47.86
357.016	51.05
357.223	53.2
357.43	51.34
357.638	50.42
357.845	39.87
358.052	40.99
358.259	45.89
358.466	48.54
358.673	44.65
358.881	37.01
359.088	36.52
359.295	34.28
359.502	28.55
359.709	25.67
359.916	23.92
360.123	15.64
360.33	-1.12
360.537	8.69
360.744	23.61
360.951	14.17
361.158	20.04
361.365	24.98
361.572	21.02
361.779	30.43
361.986	28.22
362.193	36.28
362.4	46.75
362.607	35.12
362.814	29.44
363.021	33.04
363.228	39.05
363.435	29.73
363.641	35.36
363.848	41.62
364.055	40.06
364.262	46.44
364.469	41.34
364.676	49.65
364.882	45.79
365.089	41.99
365.296	42.24
365.503	39.62
365.709	32.43
365.916	33.63
366.123	34.32
366.33	38.19
366.536	37.15
366.743	27.28
366.95	36.73
367.156	41.01
367.363	38.76
367.57	38
367.776	41.37
367.983	44.99
368.19	37.41
368.396	44.68
368.603	42.12
368.809	51.55
369.016	55.13
369.222	49.06
369.429	46.16
369.635	44.64
369.842	41.46
370.048	46.01
370.255	44.52
370.461	41.97
370.668	41.62
370.874	43.57
371.081	48.41
371.287	44.72
371.494	41.34
371.7	44.51
371.906	39.43
372.113	36.77
372.319	35.06
372.526	36.79
372.732	31.99
372.938	32.49
373.145	33.83
373.351	30.61
373.557	36.45
373.763	36.7
373.97	41.62
374.176	44.89
374.382	45.34
374.588	38.49
374.795	39.04
375.001	31.55
375.207	24.86
375.413	25.33
375.62	24.22
375.826	30.09
376.032	37.12
376.238	39.2
376.444	43.8
376.65	40.14
376.856	38.74
377.062	48.24
377.269	50.03
377.475	48.35
377.681	51.69
377.887	41.81
378.093	38.09
378.299	38.89
378.505	38.81
378.711	35.42
378.917	44.66
379.123	43.32
379.329	45
379.535	46
379.741	43.28
379.947	47.87
380.152	45.32
380.358	33.05
380.564	34.49
380.77	33.49
380.976	33.82
381.182	36.09
381.388	32.94
381.594	21.85
381.799	25.72
382.005	27.53
382.211	34.98
382.417	38.18
382.623	34.79
382.828	36.82
383.034	35.47
383.24	37.85
383.445	39
383.651	42.15
383.857	38.79
384.063	45.5
384.268	38.94
384.474	35.97
384.68	36.87
384.885	37.43
385.091	43.69
385.296	47.52
385.502	54.51
385.708	52.59
385.913	61.52
386.119	55.49
386.324	60.58
386.53	55.05
386.735	58.21
386.941	58.34
387.146	52.51
387.352	57.32
387.557	48.69
387.763	54.85
387.968	49.33
388.174	51.81
388.379	45.81
388.585	50.65
388.79	45.98
388.996	49.94
389.201	55.1
389.406	40.84
389.612	41.04
389.817	32.32
390.022	34.74
390.228	35.87
390.433	43.14
390.638	37.33
390.844	37.09
391.049	39.77
391.254	36.64
391.459	33.41
391.665	24.22
391.87	29.24
392.075	29.02
392.28	32.17
392.485	34.5
392.691	30.35
392.896	22.48
393.101	26.11
393.306	34.53
393.511	33.96
393.716	40.63
393.922	36.36
394.127	38.78
394.332	44.95
394.537	48.77
394.742	42.8
394.947	45.39
395.152	49.07
395.357	44.76
395.562	49.9
395.767	59.72
395.972	65.98
396.177	64.78
396.382	64.76
396.587	65.36
396.792	59.31
396.997	69.08
397.202	77.29
397.407	79.28
397.611	74.67
397.816	72.53
398.021	77.22
398.226	74.84
398.431	81.53
398.636	78.02
398.841	78.92
399.045	79.88
399.25	75.3
399.455	78.42
399.66	78.51
399.864	72.3
400.069	68.64
400.274	62.77
400.479	63.13
400.683	56.95
400.888	63.55
401.093	57.92
401.297	51.58
401.502	40.12
401.707	36.46
401.911	44.04
402.116	39.09
402.321	44.36
402.525	54.05
402.73	42.55
402.934	46.63
403.139	50.28
403.344	50.09
403.548	46.87
403.753	32.59
403.957	29.7
404.162	24.32
404.366	30.97
404.571	40.17
404.775	33.4
404.98	34.93
405.184	30.19
405.388	40.27
405.593	32.82
405.797	36.91
406.002	41.53
406.206	34.59
406.41	42.3
406.615	38.68
406.819	36.95
407.023	42.11
407.228	37.37
407.432	28.21
407.636	27.14
407.841	29.97
408.045	49.22
408.249	49.68
408.453	51.36
408.658	45.15
408.862	45.72
409.066	43.67
409.27	46.51
409.474	43.52
409.679	41.49
409.883	52.77
410.087	50.05
410.291	53.62
410.495	55.22
410.699	49.8
410.903	51.63
411.108	48.01
411.312	33.85
411.516	37.69
411.72	47.98
411.924	40.71
412.128	40.78
412.332	26.27
412.536	27.79
412.74	38.53
412.944	31.48
413.148	34.11
413.352	36
413.556	37.72
413.76	35.15
413.964	46.6
414.167	57.82
414.371	64.64
414.575	64.28
414.779	61.15
414.983	66.3
415.187	62.58
415.391	70.34
415.594	82.65
415.798	73.64
416.002	76.6
416.206	80.47
416.41	86.21
416.613	90.8
416.817	88.29
417.021	79.35
417.225	103.12
417.428	93.02
417.632	78.2
417.836	80.29
418.039	89.17
418.243	82.69
418.447	66.09
418.65	66.08
418.854	67.47
419.057	71.74
419.261	66.9
419.465	64.21
419.668	60.25
419.872	54.18
420.075	60.12
420.279	51.38
420.482	60.39
420.686	59.94
420.889	69.28
421.093	74.97
421.296	76.01
421.5	63.84
421.703	72.86
421.907	87.76
422.11	92.19
422.314	90.82
422.517	87.88
422.72	89.43
422.924	86.23
423.127	98.41
423.33	98.67
423.534	121.03
423.737	115.51
423.94	115.13
424.144	106.77
424.347	94.45
424.55	103.34
424.754	97.65
424.957	101.23
425.16	91.04
425.363	83.59
425.567	86.79
425.77	79.34
425.973	80.9
426.176	76.22
426.379	69.05
426.582	75.32
426.786	82.03
426.989	80.68
427.192	87.49
427.395	75.88
427.598	73.91
427.801	58.91
428.004	62.07
428.207	60.67
428.41	67.24
428.613	68
428.816	70.5
429.019	75.06
429.222	73.1
429.425	72.03
429.628	70.74
429.831	67.35
430.034	71.96
430.237	68.67
430.44	65.56
430.643	61.58
430.846	58.43
431.049	57.02
431.252	56.2
431.454	56.37
431.657	51.25
431.86	56.68
432.063	59.7
432.266	54.1
432.469	55.85
432.671	51.8
432.874	59.16
433.077	48.16
433.28	45.47
433.482	42.26
433.685	35.12
433.888	35.58
434.09	37.32
434.293	29.34
434.496	28.89
434.698	32.45
434.901	36.65
435.104	28.43
435.306	31.4
435.509	32.04
435.712	31.38
435.914	22.55
436.117	23.89
436.319	34
436.522	35.34
436.724	34.29
436.927	26.19
437.129	20.68
437.332	28.19
437.534	25.11
437.737	22.95
437.939	27.16
438.142	30.3
438.344	32.96
438.547	31.5
438.749	31.01
438.951	23.91
439.154	28.53
439.356	38.01
439.558	35.46
439.761	30.58
439.963	25
440.165	32.36
440.368	29.83
440.57	12.66
440.772	13.92
440.975	3.47
441.177	16.39
441.379	20.05
441.581	23.51
441.784	20.27
441.986	33.11
442.188	28.29
442.39	25.72
442.592	19.8
442.795	31.29
442.997	28.23
443.199	31.97
443.401	32.64
443.603	35.71
443.805	29.79
444.007	36.71
444.209	39.51
444.411	47.5
444.613	46.74
444.815	52.63
445.017	52.56
445.219	53.22
445.421	53.87
445.623	51.44
445.825	43.85
446.027	45.55
446.229	38.87
446.431	48.38
446.633	47.35
446.835	48.94
447.037	41.59
447.239	57.49
447.441	63.75
447.643	64
447.844	51.85
448.046	58.52
448.248	54.6
448.45	52.01
448.652	50.88
448.853	55.44
449.055	59.25
449.257	54.51
449.459	66.02
449.66	64.8
449.862	74.29
450.064	80.33
450.266	80.72
450.467	76.64
450.669	77.99
450.871	81.49
451.072	96.58
451.274	116.23
451.475	96.61
451.677	91.14
451.879	99.06
452.08	105.55
452.282	100
452.483	115.51
452.685	105.88
452.886	107.59
453.088	107.09
453.289	107.97
453.491	104.48
453.692	115.63
453.894	103.13
454.095	86.39
454.297	91.11
454.498	83.95
454.7	92.29
454.901	90.56
455.102	77.97
455.304	62.94
455.505	50.82
455.706	44.04
455.908	41.46
456.109	35.67
456.31	37.28
456.512	22.37
456.713	19.95
456.914	19.08
457.116	3.33
457.317	7.74
457.518	3.53
457.719	14.47
457.921	22.08
458.122	16.7
458.323	13.41
458.524	13.72
458.725	12.1
458.926	8.07
459.128	4.52
459.329	14.43
459.53	18.48
459.731	19.78
459.932	19.17
460.133	24.65
460.334	36.5
460.535	38.55
460.736	53.16
460.937	53.18
461.138	52.71
461.339	70.02
461.54	68.12
461.741	68.87
461.942	68.14
462.143	66.18
462.344	74.21
462.545	71.94
462.746	75.34
462.947	72.99
463.148	65.94
463.348	69.9
463.549	60.37
463.75	61.14
463.951	57.62
464.152	58.15
464.353	53.97
464.553	60.1
464.754	53.27
464.955	45.42
465.156	43.96
465.356	48.6
465.557	36.11
465.758	31.85
465.959	34.53
466.159	30.49
466.36	28.11
466.561	21.71
466.761	24.34
466.962	24.18
467.163	30.22
467.363	35.83
467.564	31.66
467.764	34.27
467.965	31.57
468.166	31.32
468.366	38.99
468.567	39.55
468.767	37.12
468.968	35.09
469.168	37.48
469.369	43.14
469.569	38.19
469.77	40.32
469.97	39.6
470.17	40.03
470.371	44.64
470.571	46.64
470.772	57.06
470.972	59.03
471.172	63.28
471.373	60.76
471.573	59.58
471.773	61.71
471.974	62.26
472.174	67.77
472.374	65.83
472.575	61.54
472.775	56.61
472.975	49.32
473.175	56.71
473.376	56.57
473.576	56.41
473.776	59.59
473.976	58.84
474.177	64.91
474.377	61.07
474.577	59.11
474.777	53.96
474.977	48.83
475.177	44.68
475.377	45.74
475.577	50.23
475.777	52.39
475.978	48.75
476.178	45.7
476.378	43.21
476.578	48.52
476.778	46.8
476.978	47.36
477.178	48.75
477.378	48.45
477.578	48.73
477.778	42.63
477.977	37.37
478.177	38.88
478.377	35.81
478.577	38.16
478.777	39.03
478.977	37.87
479.177	38.41
479.377	45.49
479.577	41.47
479.776	36.75
479.976	32.15
480.176	34.71
480.376	38.01
480.576	42.19
480.775	39.49
480.975	39.13
481.175	37.86
481.374	38.83
481.574	36.67
481.774	37.21
481.974	38.62
482.173	41.17
482.373	40.1
482.572	39.33
482.772	37.98
482.972	32.42
483.171	35.14
483.371	35.33
483.57	29.95
483.77	31.66
483.97	33.92
484.169	31.39
484.369	25.52
484.568	25.51
484.768	21.44
484.967	21.09
485.167	25.5
485.366	30.05
485.566	29.73
485.765	33.44
485.964	31.46
486.164	34.63
486.363	33.2
486.563	33.31
486.762	34.14
486.961	37.06
487.161	38.6
487.36	37.78
487.559	39.12
487.759	36.73
487.958	31.56
488.157	25.83
488.356	33.92
488.556	39.43
488.755	35.73
488.954	35.45
489.153	38.09
489.353	36.71
489.552	34.07
489.751	28.86
489.95	23.04
490.149	20.99
490.348	20.61
490.548	21.81
490.747	21.26
490.946	19.4
491.145	14.9
491.344	13.08
491.543	11.63
491.742	13.06
491.941	11.79
492.14	13.82
492.339	15.14
492.538	9.57
492.737	12.21
492.936	12.06
493.135	14.19
493.334	13.93
493.533	10.51
493.732	14.12
493.931	22.64
494.13	19.52
494.328	22.73
494.527	22.53
494.726	18.81
494.925	18.65
495.124	19.18
495.323	22.66
495.521	23.74
495.72	23.75
495.919	20.63
496.118	25.3
496.316	25.38
496.515	24.56
496.714	24.01
496.913	17.8
497.111	19.71
497.31	14.35
497.509	12.07
497.707	13.31
497.906	15.24
498.105	8.94
498.303	14.52
498.502	16
498.7	16.9
498.899	15.41
499.097	16.4
499.296	16.32
499.495	19.12
499.693	23.04
499.892	25.35
500.09	25.41
500.289	31.38
500.487	32.66
500.686	35.3
500.884	33.96
501.082	39.86
501.281	40.86
501.479	47.37
501.678	51.83
501.876	50.86
502.074	50.28
502.273	52.16
502.471	51.64
502.669	50.19
502.868	50.4
503.066	54.62
503.264	56.91
503.463	56.85
503.661	51.51
503.859	50.73
504.057	50.62
504.256	50.6
504.454	47.32
504.652	47.22
504.85	48.27
505.048	50.86
505.246	43.45
505.445	42.25
505.643	37.5
505.841	35.59
506.039	37.87
506.237	34.3
506.435	33.63
506.633	32.87
506.831	33.64
507.029	34.95
507.227	37.71
507.425	36.92
507.623	38.76
507.821	40.81
508.019	38.7
508.217	37.97
508.415	41.47
508.613	42.05
508.811	40.93
509.009	40.34
509.207	43.04
509.405	46.39
509.603	47.08
509.8	48.77
509.998	45.69
510.196	46.07
510.394	46.85
510.592	43.52
510.79	41.05
510.987	38.5
511.185	36.53
511.383	33.75
511.581	33.71
511.778	32.32
511.976	32.77
512.174	32.25
512.371	30.04
512.569	26.87
512.767	27.61
512.964	25.48
513.162	24.65
513.36	21.19
513.557	20.44
513.755	19.88
513.952	21.6
514.15	24.66
514.348	23.28
514.545	25.78
514.743	29.81
514.94	33.81
515.138	32.94
515.335	32.91
515.533	33.33
515.73	32.19
515.927	31.97
516.125	32.96
516.322	34.77
516.52	35.68
516.717	34.13
516.915	30.89
517.112	32.16
517.309	30.61
517.507	34.08
517.704	32.56
517.901	31.15
518.099	28.02
518.296	29.59
518.493	33.15
518.69	31.97
518.888	33.72
519.085	36.96
519.282	40.35
519.479	41.46
519.676	40.62
519.874	39.28
520.071	39.3
520.268	39.59
520.465	39.91
520.662	43.11
520.859	46.31
521.056	47.93
521.254	48.89
521.451	48.2
521.648	44.1
521.845	45.15
522.042	47.87
522.239	52.72
522.436	52.05
522.633	44.27
522.83	46.58
523.027	40.11
523.224	37.47
523.421	36.33
523.618	34.87
523.815	38.41
524.011	37.76
524.208	39.25
524.405	39.52
524.602	39.26
524.799	33.52
524.996	25.96
525.193	25.55
525.389	23.39
525.586	26.79
525.783	26.97
525.98	27.14
526.176	25.75
526.373	21.01
526.57	21.95
526.767	21.45
526.963	16.22
527.16	21.17
527.357	22.62
527.553	22.55
527.75	24.85
527.947	18.55
528.143	17.83
528.34	18.63
528.537	17.62
528.733	21.19
528.93	23.81
529.126	30.83
529.323	27.91
529.519	31.28
529.716	28.08
529.912	26.31
530.109	27.14
530.305	25.13
530.502	27.84
530.698	26.86
530.895	26.29
531.091	27.11
531.288	22.83
531.484	20.12
531.68	16.73
531.877	17.22
532.073	19.42
532.269	20.78
532.466	20.48
532.662	20.96
532.858	17.11
533.055	16.45
533.251	16.39
533.447	16.03
533.643	17.5
533.84	16.21
534.036	20.24
534.232	21.71
534.428	20.75
534.624	21.49
534.821	21.69
535.017	26.37
535.213	25.87
535.409	32.81
535.605	34.45
535.801	37.64
535.997	33.01
536.193	32.66
536.389	32
536.586	29.04
536.782	28.16
536.978	26.78
537.174	28.99
537.37	30.19
537.566	30.56
537.762	24.59
537.958	29.76
538.153	26.1
538.349	24
538.545	26.2
538.741	24.79
538.937	21.68
539.133	19.39
539.329	21.01
539.525	17.83
539.721	16.58
539.916	19.54
540.112	20.15
540.308	22.57
540.504	25.51
540.699	29.25
540.895	28.74
541.091	34.22
541.287	34.54
541.482	32.69
541.678	35.34
541.874	37.87
542.069	37.54
542.265	40.91
542.461	40.96
542.656	40.59
542.852	41.5
543.048	40.69
543.243	42.71
543.439	41.58
543.634	41.85
543.83	42.87
544.025	40.89
544.221	43.36
544.417	43.14
544.612	41.84
544.807	39.54
545.003	38.48
545.198	37.5
545.394	36.36
545.589	38.94
545.785	38.72
545.98	38.09
546.176	36.55
546.371	33
546.566	32.27
546.762	33.2
546.957	35.08
547.152	36.12
547.348	34.82
547.543	34.08
547.738	29.56
547.933	26.42
548.129	27.05
548.324	25.58
548.519	21.21
548.714	20.66
548.91	23.07
549.105	23.83
549.3	24.85
549.495	23.82
549.69	21.55
549.885	20.61
550.08	23.9
550.276	23.97
550.471	28.46
550.666	30.22
550.861	31.02
551.056	26.28
551.251	27.13
551.446	25.88
551.641	27.64
551.836	28.72
552.031	29.91
552.226	28.91
552.421	30.62
552.616	32.52
552.811	35.2
553.006	33.32
553.201	33.54
553.395	31.56
553.59	31.8
553.785	30.48
553.98	31.94
554.175	29.24
554.37	27.58
554.565	25.67
554.759	22.92
554.954	19.9
555.149	22.24
555.344	22.43
555.538	23.28
555.733	24.76
555.928	30.25
556.122	31.56
556.317	31.4
556.512	28.33
556.706	29.14
556.901	28.77
557.096	29.51
557.29	29.97
557.485	29.45
557.68	30.5
557.874	28.45
558.069	27.23
558.263	25.09
558.458	27.25
558.652	28.32
558.847	30.27
559.041	32.04
559.236	28.74
559.43	27.82
559.625	27.63
559.819	26.4
560.014	24.14
560.208	22.55
560.402	22.68
560.597	26.78
560.791	24.88
560.986	24.72
561.18	23.33
561.374	22.44
561.569	22.83
561.763	22.37
561.957	22.44
562.151	23.88
562.346	27.72
562.54	27.51
562.734	27.06
562.928	27.77
563.123	27.4
563.317	30.75
563.511	30.97
563.705	30.91
563.899	29.84
564.093	25.66
564.288	26.31
564.482	27.73
564.676	25.73
564.87	28.34
565.064	27.22
565.258	28.38
565.452	29.43
565.646	31.56
565.84	30.38
566.034	30.44
566.228	27.22
566.422	26.37
566.616	24.61
566.81	24.6
567.004	23.21
567.198	23.66
567.392	23.36
567.586	23.28
567.779	23.87
567.973	24.89
568.167	28.73
568.361	29.65
568.555	29
568.749	30.59
568.942	28.02
569.136	30.71
569.33	31.04
569.524	30.24
569.718	28.2
569.911	28.96
570.105	30.52
570.299	31.43
570.492	32.71
570.686	34.9
570.88	34.32
571.073	33.5
571.267	32.68
571.461	32.9
571.654	33.59
571.848	34.22
572.041	34.97
572.235	34.57
572.429	35.27
572.622	33.56
572.816	32.76
573.009	33.77
573.203	31.43
573.396	32.24
573.59	32.6
573.783	32.59
573.976	32.74
574.17	33.53
574.363	33.62
574.557	29.37
574.75	27.61
574.943	28.64
575.137	30.58
575.33	30.1
575.523	27.13
575.717	25.59
575.91	23.1
576.103	21.47
576.297	20.74
576.49	18.92
576.683	19.49
576.876	17.8
577.07	18.19
577.263	18.69
577.456	17.71
577.649	17.21
577.842	18.17
578.036	19.37
578.229	19.86
578.422	19.34
578.615	21.82
578.808	21.23
579.001	21.85
579.194	21.1
579.387	23.41
579.58	25.26
579.773	24.12
579.966	24.82
580.159	24.53
580.352	25.11
580.545	26.08
580.738	26.47
580.931	26.07
581.124	26.2
581.317	24.51
581.51	24.29
581.703	23.54
581.896	23.06
582.088	21.38
582.281	22.96
582.474	22.42
582.667	22.47
582.86	23.55
583.053	20.58
583.245	22.73
583.438	19.91
583.631	20.33
583.824	22.34
584.016	22.18
584.209	22.22
584.402	21.86
584.594	22.09
584.787	22.12
584.98	22.88
585.172	23.06
585.365	22.33
585.558	23.68
585.75	23.58
585.943	22.12
586.135	22.52
586.328	18.53
586.52	19.51
586.713	20.36
586.906	20.05
587.098	20.85
587.291	20.74
587.483	20
587.675	19.38
587.868	17.11
588.06	17.75
588.253	18.72
588.445	18.24
588.638	16.76
588.83	16.22
589.022	15.88
589.215	15.55
589.407	18.4
589.599	17.8
589.792	19.51
589.984	19.94
590.176	20.61
590.368	20.55
590.561	21.41
590.753	20.74
590.945	19.49
591.137	17.79
591.33	14.5
591.522	18.44
591.714	18.27
591.906	22.5
592.098	22.12
592.29	21.95
592.482	23.04
592.674	22.76
592.867	22.14
593.059	21.38
593.251	21.21
593.443	20.83
593.635	19.05
593.827	17.05
594.019	17.79
594.211	16.37
594.403	18.22
594.595	17.96
594.787	17.5
594.979	19.62
595.17	21.48
595.362	22.1
595.554	20.45
595.746	18.91
595.938	18.12
596.13	18.52
596.322	18.12
596.513	15.43
596.705	16.24
596.897	14.71
597.089	17.23
597.281	16.91
597.472	17.21
597.664	16.46
597.856	16.91
598.048	16.25
598.239	16.17
598.431	15.22
598.623	13.15
598.814	10.95
599.006	10.58
599.197	10.23
599.389	9.69
599.581	7.86
599.772	9.5
599.964	8.95
600.155	8.12
600.347	7.52
600.538	9.31
600.73	9.78
600.921	12.11
601.113	9.71
601.304	9.76
601.496	9.71
601.687	12.24
601.879	12.33
602.07	14.1
602.262	14.32
602.453	14.28
602.644	15.38
602.836	17.26
603.027	16.74
603.218	15.43
603.41	16.32
603.601	17.09
603.792	17.24
603.983	17
604.175	17.33
604.366	17.12
604.557	18.18
604.748	17.11
604.94	15.48
605.131	15.71
605.322	15.71
605.513	16.18
605.704	15.71
605.895	17.03
606.086	15.45
606.278	15.91
606.469	17.22
606.66	18.47
606.851	18.63
607.042	18.78
607.233	20.22
607.424	20.24
607.615	20.14
607.806	19.45
607.997	18.38
608.188	18.89
608.379	19.97
608.57	18.63
608.761	19.06
608.952	20.51
609.142	20.69
609.333	20.89
609.524	19.24
609.715	17.97
609.906	16.6
610.097	18.72
610.287	18.5
610.478	19.02
610.669	19.62
610.86	18.93
611.051	19.4
611.241	19.46
611.432	19.57
611.623	20.97
611.813	21.38
612.004	22.86
612.195	23.35
612.385	22.02
612.576	22.8
612.767	23.38
612.957	22.88
613.148	22.37
613.338	21.87
613.529	20.94
613.72	21.9
613.91	22.11
614.101	20.06
614.291	21.13
614.482	20.01
614.672	19.33
614.863	18.73
615.053	15.49
615.243	16.51
615.434	16.25
615.624	14.51
615.815	15.65
616.005	14.15
616.195	12.97
616.386	12.88
616.576	13.22
616.766	12.7
616.957	12.37
617.147	12.84
617.337	11.95
617.528	13.3
617.718	12.38
617.908	12.54
618.098	13.9
618.289	13.47
618.479	13.07
618.669	12.95
618.859	14.03
619.049	16.67
619.239	15.69
619.43	15.77
619.62	16.15
619.81	15.7
620	16.91
620.19	16.66
620.38	17.82
620.57	17.89
620.76	17.43
620.95	18.38
621.14	18.89
621.33	20.12
621.52	20.51
621.71	21.47
621.9	20.35
622.09	19.34
622.28	19.66
622.47	19.45
622.659	18.67
622.849	18.81
623.039	19.18
623.229	20.91
623.419	21.57
623.609	21.49
623.799	21.35
623.988	21.45
624.178	22.19
624.368	20.9
624.558	20.98
624.747	21.57
624.937	21.21
625.127	20.61
625.316	20.18
625.506	20.43
625.696	19.79
625.885	19.96
626.075	20.03
626.265	19.66
626.454	19.57
626.644	20.09
626.833	20.03
627.023	19.68
627.212	17.43
627.402	18.4
627.591	18.88
627.781	17.13
627.97	16.6
628.16	16.22
628.349	16.46
628.539	14.86
628.728	15.64
628.918	15.43
629.107	16.24
629.296	15.02
629.486	13.59
629.675	14.99
629.865	15.28
630.054	15.96
630.243	15.11
630.432	15.51
630.622	15.9
630.811	15.67
631	15.04
631.19	16.21
631.379	14.55
631.568	14.79
631.757	16.58
631.946	16.97
632.136	17.33
632.325	16.97
632.514	18.14
632.703	17.12
632.892	16.42
633.081	15.73
633.27	18.11
633.459	19.84
633.648	18.01
633.837	17.49
634.026	16.55
634.215	19.05
634.404	18.07
634.593	17.41
634.782	18.45
634.971	17.69
635.16	15.56
635.349	15.09
635.538	13.92
635.727	10.6
635.916	10.39
636.105	12.02
636.294	13.15
636.482	12.16
636.671	11.23
636.86	13.33
637.049	13.24
637.238	11.33
637.426	10.67
637.615	10.21
637.804	11.27
637.993	12.52
638.181	10.88
638.37	12.38
638.559	12.8
638.747	12.51
638.936	13.97
639.125	15.82
639.313	16.88
639.502	18.21
639.691	20.17
639.879	19.15
640.068	18.76
640.256	17.5
640.445	18.45
640.633	19.53
640.822	18.55
641.01	19.59
641.199	21.43
641.387	21.56
641.576	23.35
641.764	23.64
641.953	22.22
642.141	21.68
642.329	21.61
642.518	20.43
642.706	19.56
642.894	19.99
643.083	20.32
643.271	20.38
643.459	19.69
643.648	20.51
643.836	20.25
644.024	18.35
644.213	20.07
644.401	18.34
644.589	17.67
644.777	18.18
644.965	18.66
645.154	16.61
645.342	15.77
645.53	15.32
645.718	15.26
645.906	14.81
646.094	14.84
646.282	13.74
646.47	14.34
646.658	14.47
646.846	13.59
647.034	13.83
647.223	13.29
647.411	13.22
647.599	11.94
647.786	13.99
647.974	14.28
648.162	13.23
648.35	15.06
648.538	15.25
648.726	15.81
648.914	15.17
649.102	17.05
649.29	17.17
649.478	16.51
649.665	16.56
649.853	17.53
650.041	17.29
650.229	17.96
650.417	17.92
650.604	16.95
650.792	17.98
650.98	16.73
651.168	16.2
651.355	16.36
651.543	15.39
651.731	13.34
651.918	13.07
652.106	13.51
652.294	13.96
652.481	14.06
652.669	12.92
652.856	13.07
653.044	11.81
653.231	11.16
653.419	11.57
653.606	10.66
653.794	11.61
653.981	12.12
654.169	11.18
654.356	10.27
654.544	11.33
654.731	11.34
654.919	11.75
655.106	11.55
655.294	11.44
655.481	13.54
655.668	14.73
655.856	13.69
656.043	14.9
656.23	13.61
656.418	14.47
656.605	14.41
656.792	14.55
656.979	14.92
657.167	16.64
657.354	17.7
657.541	18.35
657.728	17.97
657.916	16.35
658.103	16.65
658.29	19.01
658.477	18.3
658.664	18.75
658.851	17.57
659.038	18.03
659.225	16.93
659.412	16.42
659.6	16.13
659.787	17.36
659.974	15.62
660.161	17.61
660.348	15.64
660.535	17.18
660.722	14.88
660.909	13.05
661.095	12.92
661.282	12.24
661.469	12.79
661.656	11.77
661.843	14.04
662.03	13.96
662.217	13.39
662.404	13.72
662.59	11.03
662.777	10.67
662.964	10.24
663.151	12.55
663.338	13.46
663.524	13.05
663.711	12.33
663.898	13.1
664.085	12.26
664.271	13.09
664.458	12.56
664.645	13.81
664.831	16.51
665.018	14.59
665.204	14.97
665.391	14
665.578	14.14
665.764	13.05
665.951	12.51
666.137	11.86
666.324	13.5
666.51	14.35
666.697	14.45
666.883	14.98
667.07	14.39
667.256	14.86
667.443	14.61
667.629	15.66
667.816	14.59
668.002	12.91
668.188	13.19
668.375	12.78
668.561	13.79
668.747	11.45
668.934	12.03
669.12	11.58
669.306	13.17
669.493	12.01
669.679	12.74
669.865	12.65
670.051	12.32
670.238	11.82
670.424	11.13
670.61	11.84
670.796	12.24
670.982	10.85
671.169	10.39
671.355	10.6
671.541	9.34
671.727	9.76
671.913	10.12
672.099	9.26
672.285	6.79
672.471	6.18
672.657	6.66
672.843	8.71
673.029	8.13
673.215	7.59
673.401	10.98
673.587	9.13
673.773	9.97
673.959	10.06
674.145	8.06
674.331	9.36
674.517	9.88
674.703	9.23
674.888	10.71
675.074	8.97
675.26	9.27
675.446	9.05
675.632	8.4
675.817	8.93
676.003	9.54
676.189	10.83
676.375	10.3
676.56	9.99
676.746	8.92
676.932	6.79
677.117	5.99
677.303	3.79
677.489	4.8
677.674	4.3
677.86	5
678.046	6.73
678.231	5.49
678.417	5.9
678.602	5.92
678.788	5.32
678.973	5.2
679.159	7.24
679.344	8.36
679.53	8.85
679.715	8.85
679.901	8.82
680.086	10.12
680.272	10.24
680.457	11.54
680.643	10.25
680.828	12.65
681.013	12.79
681.199	13.4
681.384	13.45
681.569	13.36
681.755	13.09
681.94	13.12
682.125	13.82
682.31	13.87
682.496	12.99
682.681	12.95
682.866	13.65
683.051	11.98
683.237	12.67
683.422	14.17
683.607	14.61
683.792	14.85
683.977	14.34
684.162	14.31
684.347	13.89
684.532	14.19
684.717	12.47
684.903	11.91
685.088	11.74
685.273	12.56
685.458	12.2
685.643	12.77
685.828	11.41
686.013	12.48
686.198	12.5
686.382	14.48
686.567	14.72
686.752	16.56
686.937	17.62
687.122	16.64
687.307	15.43
687.492	14.75
687.677	14.45
687.861	15.04
688.046	13.21
688.231	13.18
688.416	13.95
688.601	15.66
688.785	16.88
688.97	17.32
689.155	16.96
689.339	17.63
689.524	16.66
689.709	16.24
689.893	15.5
690.078	15.38
690.263	14.8
690.447	14.7
690.632	12.28
690.816	13.02
691.001	13.09
691.186	13.09
691.37	12.96
691.555	13.71
691.739	12.97
691.924	14.26
692.108	16.07
692.293	16.34
692.477	15.81
692.661	14.39
692.846	13.04
693.03	13.39
693.215	13.75
693.399	13.63
693.583	13.99
693.768	14.8
693.952	13.78
694.136	13.06
694.321	14.15
694.505	14.79
694.689	13.74
694.873	14.33
695.058	13.67
695.242	14.61
695.426	14.28
695.61	13.9
695.794	14.68
695.979	12.97
696.163	12.34
696.347	11.64
696.531	12.45
696.715	13.86
696.899	14.04
697.083	12.52
697.267	13.98
697.451	14.41
697.635	13.04
697.819	13.87
698.003	13.66
698.187	11.92
698.371	11.98
698.555	11.87
698.739	12.14
698.923	12.7
699.107	11.99
699.291	11.86
699.475	12.32
699.659	11.8
699.842	11.89
700.026	11.64
700.21	12.73
700.394	12.63
700.578	12.72
700.761	12.6
700.945	14.38
701.129	14.02
701.313	13.37
701.496	15.4
701.68	14.62
701.864	15.18
702.047	16.57
702.231	17.53
702.415	16.83
702.598	15.45
702.782	15.82
702.965	16.55
703.149	16.39
703.333	15.26
703.516	15.66
703.7	14.97
703.883	16.12
704.067	14.82
704.25	15.21
704.434	12.9
704.617	11.84
704.801	10.77
704.984	9.69
705.167	9.63
705.351	8.36
705.534	8.74
705.718	8.04
705.901	7.73
706.084	6.7
706.268	7.46
706.451	8.11
706.634	7.62
706.817	7.01
707.001	6.14
707.184	7.3
707.367	7.45
707.55	8.55
707.734	8.48
707.917	9.16
708.1	9.27
708.283	10.27
708.466	10.96
708.649	11.75
708.832	12.11
709.015	13.72
709.199	14.31
709.382	13.67
709.565	14.87
709.748	15.43
709.931	16.25
710.114	16.27
710.297	15.9
710.48	16.19
710.663	15.88
710.846	16.52
711.028	16.92
711.211	15.22
711.394	14.32
711.577	13.54
711.76	13.03
711.943	13.04
712.126	13.56
712.309	13.73
712.491	13.4
712.674	11.93
712.857	11.36
713.04	10.56
713.222	11.6
713.405	11.14
713.588	11
713.771	10.8
713.953	10.18
714.136	11
714.319	11.53
714.501	11.83
714.684	12.7
714.866	12.74
715.049	13.91
715.232	13.73
715.414	13.21
715.597	13.56
715.779	12.44
715.962	14.48
716.144	14.02
716.327	14.99
716.509	16.08
716.692	14.74
716.874	14.28
717.057	14.29
717.239	14.19
717.421	12.96
717.604	11.14
717.786	12.44
717.968	11.76
718.151	10.98
718.333	9.59
718.515	8.71
718.698	8.27
718.88	7.81
719.062	7.13
719.244	7.2
719.427	6.69
719.609	7.92
719.791	5.36
719.973	6.44
720.155	4.79
720.338	4.14
720.52	6.01
720.702	7.24
720.884	8.44
721.066	9.29
721.248	7.58
721.43	9.32
721.612	7.39
721.794	8.01
721.976	8.09
722.158	10.44
722.34	10.87
722.522	10.74
722.704	11.52
722.886	12.33
723.068	13.28
723.25	14.37
723.432	14.62
723.614	15.94
723.796	14.98
723.977	15.43
724.159	16.81
724.341	16.04
724.523	14.96
724.705	12.27
724.886	11.64
725.068	13.64
725.25	13.7
725.432	14.49
725.613	13.22
725.795	12.56
725.977	11.64
726.158	11.4
726.34	10.76
726.522	10.16
726.703	10.7
726.885	11.08
727.066	9.79
727.248	9.34
727.43	8.84
727.611	10.16
727.793	10.2
727.974	10.32
728.156	11.27
728.337	11.42
728.519	12.73
728.7	13.36
728.882	13.74
729.063	14.22
729.244	14
729.426	16.39
729.607	17.67
729.788	18.08
729.97	19.49
730.151	19.66
730.332	19.81
730.514	20.03
730.695	20.42
730.876	21.05
731.058	21.58
731.239	21.65
731.42	19.91
731.601	18.36
731.782	17.07
731.964	16.43
732.145	16.22
732.326	14.29
732.507	13.81
732.688	13.62
732.869	14.75
733.05	15.71
733.231	14.82
733.412	14.08
733.593	13.91
733.774	13.1
733.955	12.67
734.136	13.31
734.317	12.71
734.498	13.25
734.679	13.02
734.86	11.32
735.041	10.96
735.222	10.74
735.403	12.03
735.584	12.55
735.765	13.11
735.946	13.71
736.126	14.14
736.307	14.86
736.488	13.69
736.669	9.4
736.849	8.14
737.03	8.32
737.211	8.35
737.392	8.53
737.572	6.05
737.753	6.53
737.934	5.51
738.114	6.99
738.295	3.99
738.476	4.42
738.656	6.76
738.837	7.65
739.017	10.07
739.198	10.32
739.378	11.51
739.559	11.57
739.74	12.12
739.92	13.47
740.1	11.7
740.281	11.72
740.461	13.76
740.642	15.05
740.822	13.57
741.003	14.53
741.183	14.43
741.363	16.32
741.544	16
741.724	15.94
741.904	14.37
742.085	14.44
742.265	13.67
742.445	13.25
742.626	13.54
742.806	11.96
742.986	11.35
743.166	11.22
743.347	10.38
743.527	10.86
743.707	9.06
743.887	10.23
744.067	8.93
744.247	10.04
744.427	8.76
744.608	9.53
744.788	10.08
744.968	10.14
745.148	11.32
745.328	10.63
745.508	9.85
745.688	9.56
745.868	10.01
746.048	10.4
746.228	9.62
746.408	8.49
746.588	8.58
746.767	10.16
746.947	10.42
747.127	10.84
747.307	9.05
747.487	10.57
747.667	10.66
747.847	12.93
748.026	11.49
748.206	12.39
748.386	12.65
748.566	10.39
748.745	9.08
748.925	7.73
749.105	10
749.285	11.34
749.464	11.17
749.644	12.42
749.824	13.2
750.003	13.31
750.183	12.51
750.362	12.93
750.542	11.19
750.722	10.16
750.901	8.9
751.081	8.79
751.26	8.76
751.44	7.9
751.619	7.3
751.799	5.63
751.978	2.76
752.158	2.35
752.337	2.45
752.516	3.71
752.696	2.76
752.875	3.5
753.055	3.42
753.234	4.55
753.413	4.25
753.593	4.54
753.772	3.1
753.951	4.15
754.13	3.64
754.31	3.06
754.489	3.34
754.668	3.63
754.847	4.5
755.027	5.45
755.206	5.02
755.385	5.54
755.564	9.23
755.743	11.28
755.922	11.66
756.101	11.97
756.28	12.09
756.46	12.79
756.639	10.87
756.818	11.9
756.997	12.48
757.176	12.32
757.355	11.1
757.534	11.54
757.713	12.29
757.892	12.22
758.07	12.86
758.249	13.23
758.428	13.09
758.607	12.14
758.786	12.96
758.965	13.56
759.144	13.24
759.323	11.68
759.501	11.08
759.68	11.01
759.859	11.82
760.038	12.22
760.216	12.06
760.395	12.28
760.574	10.81
760.753	10.8
760.931	11.42
761.11	11.24
761.289	10.73
761.467	10.23
761.646	10.89
761.824	12.61
762.003	10.49
762.182	9.7
762.36	10.58
762.539	10.26
762.717	10.49
762.896	10.3
763.074	9.96
763.253	10.31
763.431	11.4
763.61	10.84
763.788	9.81
763.966	9.06
764.145	10.41
764.323	10.04
764.502	8.07
764.68	8.18
764.858	7.74
765.037	9.96
765.215	9.34
765.393	8.8
765.571	7.14
765.75	7.75
765.928	8.71
766.106	7.31
766.284	5.57
766.463	6.13
766.641	6.78
766.819	8.54
766.997	9.07
767.175	8.87
767.353	9.4
767.531	10.58
767.71	11.94
767.888	10.86
768.066	11.89
768.244	13.52
768.422	12.45
768.6	15.34
768.778	14.26
768.956	12.72
769.134	12.41
769.312	12.66
769.489	12.75
769.667	13.19
769.845	13.86
770.023	14.94
770.201	14.78
770.379	12.73
770.557	12.05
770.735	10.63
770.912	8.77
771.09	8.38
771.268	8.44
771.446	7.54
771.623	8.63
771.801	9.63
771.979	8.19
772.157	7.82
772.334	5.23
772.512	5.27
772.69	6.4
772.867	6.37
773.045	6.76
773.222	7.31
773.4	8.51
773.577	9.31
773.755	9.02
773.933	8.95
774.11	10.71
774.288	10
774.465	11.05
774.643	11.44
774.82	12.48
774.997	12.36
775.175	12.55
775.352	13.22
775.53	13.58
775.707	14.46
775.884	15.4
776.062	16.75
776.239	17.7
776.416	18.47
776.594	18.79
776.771	17.66
776.948	18.56
777.125	16.13
777.303	14.82
777.48	14.53
777.657	13.57
777.834	14.08
778.012	13.39
778.189	14.68
778.366	14.98
778.543	12.84
778.72	11.77
778.897	11.68
779.074	10.88
779.251	9.95
779.428	10.5
779.605	9.17
779.782	9.04
779.959	8.75
780.136	9.33
780.313	9.83
780.49	9.43
780.667	9.56
780.844	10.17
781.021	10.35
781.198	10.6
781.375	13.14
781.552	11.88
781.728	12.25
781.905	11.45
782.082	12.88
782.259	13.1
782.436	14.56
782.612	14.81
782.789	14.17
782.966	12.66
783.143	13.89
783.319	14.28
783.496	14.3
783.673	13.56
783.849	13.93
784.026	13.37
784.203	13.8
784.379	13.19
784.556	14.5
784.732	15.1
784.909	15.2
785.085	13.46
785.262	15.28
785.438	16.56
785.615	16.11
785.791	16.2
785.968	17.1
786.144	15.97
786.321	17.05
786.497	16.63
786.673	16.26
786.85	13.79
787.026	13.21
787.203	11.8
787.379	12.73
787.555	10.42
787.731	11.49
787.908	12.71
788.084	12.89
788.26	11.06
788.437	11.53
788.613	12.49
788.789	11.25
788.965	10.73
789.141	10.01
789.317	10.03
789.494	8.01
789.67	7.28
789.846	8.17
790.022	6.81
790.198	6.54
790.374	9.32
790.55	10.33
790.726	10.99
790.902	11.82
791.078	10.52
791.254	10
791.43	9.31
791.606	8.33
791.782	6
791.958	8
792.134	8.6
792.31	7.2
792.486	9.63
792.661	10.02
792.837	12.22
793.013	11.5
793.189	12.74
793.365	14.17
793.54	15.5
793.716	19.43
793.892	20.21
794.068	17.98
794.243	18.06
794.419	18.87
794.595	18.9
794.77	19.56
794.946	21.01
795.122	19.74
795.297	19.85
795.473	23.79
795.648	23.11
795.824	22.68
796	23.78
796.175	23.36
796.351	22.41
796.526	21.13
796.702	22.67
796.877	21.66
797.052	22.12
797.228	20.07
797.403	15.87
797.579	16.28
797.754	17.14
797.929	17.98
798.105	19.09
798.28	16.39
798.455	17.18
798.631	15.83
798.806	17.76
798.981	19.02
799.157	16.92
799.332	15.78
799.507	16.82
799.682	18.12
799.858	17.63
800.033	18.72
800.208	18.18
800.383	16.89
800.558	18.76
800.733	17.33
800.908	17.81
801.083	18.13
801.258	16.63
801.434	19.04
801.609	17.54
801.784	14.7
801.959	17.19
802.134	14.77
802.309	13.99
802.484	11.52
802.658	12.2
802.833	11.45
803.008	14.08
803.183	13.59
803.358	12.81
803.533	11.55
803.708	10.79
803.883	10.26
804.057	7.36
804.232	8.57
804.407	10.98
804.582	10.62
804.756	9.02
804.931	9.69
805.106	7.31
805.281	11.13
805.455	11.78
805.63	13.27
805.805	15.32
805.979	18.85
806.154	21.03
806.328	20.29
806.503	24.43
806.678	24.07
806.852	23.77
807.027	21.08
807.201	20.45
807.376	21.95
807.55	21.09
807.725	22.06
807.899	22.39
808.074	21.19
808.248	22.77
808.422	24.2
808.597	25.11
808.771	25.21
808.946	23.72
809.12	27.16
809.294	25.76
809.468	26.37
809.643	26.45
809.817	25.51
809.991	26.61
810.166	23.11
810.34	21.87
810.514	22.29
810.688	22.63
810.862	23.89
811.037	24.2
811.211	25.73
811.385	27.44
811.559	25.15
811.733	27.36
811.907	26
812.081	26.13
812.255	23.8
812.429	22.83
812.603	23.67
812.777	21.61
812.951	20.75
813.125	19.37
813.299	15.52
813.473	14.6
813.647	14.12
813.821	13.54
813.995	15.2
814.169	14.18
814.343	17.06
814.516	20.38
814.69	20.29
814.864	20.06
815.038	20.63
815.212	19.51
815.385	16.49
815.559	19.7
815.733	18.95
815.907	18.41
816.08	20.29
816.254	19.24
816.428	21.52
816.601	23.3
816.775	23.98
816.948	25.42
817.122	28.72
817.296	29.22
817.469	29.61
817.643	28.09
817.816	27.12
817.99	25.69
818.163	25.74
818.337	21.92
818.51	21.7
818.684	22.28
818.857	22.44
819.031	22.83
819.204	16.9
819.377	19.93
819.551	19.56
819.724	19.05
819.897	18.58
820.071	16.18
820.244	13.44
820.417	14.51
820.591	14.92
820.764	13.71
820.937	11.61
821.11	8.68
821.284	11.09
821.457	14.43
821.63	16.89
821.803	12.66
821.976	17.39
822.149	19.24
822.322	19.07
822.496	22.36
822.669	24.03
822.842	25.85
823.015	25.1
823.188	26.39
823.361	29.07
823.534	28.61
823.707	28.42
823.88	32
824.053	32.67
824.226	35.53
824.399	36.24
824.571	38.36
824.744	40.82
824.917	41.74
825.09	39.42
825.263	35.04
825.436	42.53
825.608	40.53
825.781	40.98
825.954	43.5
826.127	42.94
826.299	41.1
826.472	40.7
826.645	40.79
826.818	39.83
826.99	37.27
827.163	36.47
827.336	37.08
827.508	34.5
827.681	33.38
827.853	32.08
828.026	31.63
828.198	32.6
828.371	35.29
828.544	36.06
828.716	35.8
828.889	36.48
829.061	27.4
829.233	25.16
829.406	22.75
829.578	17.51
829.751	18.39
829.923	18.61
830.096	17.74
830.268	15.77
830.44	17.68
830.613	20.07
830.785	21.94
830.957	21.59
831.129	23.1
831.302	21.81
831.474	21.14
831.646	20.26
831.818	19.08
831.991	15.46
832.163	13.36
832.335	16.23
832.507	18.62
832.679	22.08
832.851	21.75
833.023	22.78
833.195	25.84
833.368	23
833.54	24.09
833.712	24.29
833.884	28.2
834.056	27.74
834.228	26.01
834.4	28.6
834.571	26.66
834.743	24.59
834.915	26.7
835.087	30.01
835.259	33.88
835.431	30.38
835.603	30.93
835.775	25.77
835.946	25.9
836.118	26.08
836.29	24.96
836.462	28.26
836.634	28.94
836.805	28.98
836.977	31.66
837.149	30.25
837.32	30.87
837.492	28.7
837.664	28.9
837.835	28.32
838.007	21.51
838.179	21.28
838.35	24.6
838.522	27.4
838.693	20.02
838.865	14.98
839.036	17.4
839.208	18.85
839.379	23.16
839.551	22.35
839.722	24.46
839.894	22.68
840.065	21.74
840.237	19.91
840.408	19.3
840.579	20.65
840.751	20.52
840.922	19.16
841.093	18.06
841.265	16.38
841.436	16.24
841.607	15.53
841.778	19.15
841.95	20.16
842.121	18.45
842.292	21.77
842.463	23.21
842.635	27.15
842.806	26.34
842.977	24.43
843.148	22.94
843.319	18.45
843.49	20.33
843.661	18.67
843.832	20.85
844.003	23.26
844.174	24.3
844.345	27.14
844.516	29.53
844.687	29.72
844.858	33.89
845.029	35.28
845.2	39.48
845.371	32.61
845.542	28.83
845.713	22.58
845.884	23.54
846.055	19.39
846.225	19.03
846.396	18.32
846.567	25.69
846.738	28
846.909	28.62
847.079	26.6
847.25	29.07
847.421	24.63
847.591	20.46
847.762	17.51
847.933	18.28
848.103	21.24
848.274	19.84
848.445	20.05
848.615	20.64
848.786	20.57
848.956	25.12
849.127	26.69
849.297	34.5
849.468	33.9
849.638	36.12
849.809	34.25
849.979	32.7
850.15	27.92
850.32	30.32
850.491	29.82
850.661	31.32
850.831	30.4
851.002	35.87
851.172	35.51
851.342	33.03
851.513	33.06
851.683	34.46
851.853	37.75
852.024	35.27
852.194	32.18
852.364	30.64
852.534	31.82
852.705	30.33
852.875	32.12
853.045	30.01
853.215	28.58
853.385	31.84
853.555	36.94
853.725	34.69
853.895	29.45
854.066	30.89
854.236	26.37
854.406	26.27
854.576	29.74
854.746	25.71
854.916	31.51
855.086	32.76
855.256	30.6
855.425	31.49
855.595	40.54
855.765	42.86
855.935	46.1
856.105	38.91
856.275	43.73
856.445	33.47
856.614	39.15
856.784	39.42
856.954	35.33
857.124	30.01
857.294	36.53
857.463	39.96
857.633	41.33
857.803	50.37
857.972	49.31
858.142	46.72
858.312	49.38
858.481	43.13
858.651	36.18
858.821	29.47
858.99	25.3
859.16	14.15
859.329	21.42
859.499	19.86
859.668	27.79
859.838	26.79
860.007	34.33
860.177	36.01
860.346	35.82
860.516	33.34
860.685	33.17
860.854	29.99
861.024	27.88
861.193	26.73
861.363	24.42
861.532	21.01
861.701	23.14
861.87	24.02
862.04	25.26
862.209	26.41
862.378	33.51
862.547	33.9
862.717	40.43
862.886	37.49
863.055	40.45
863.224	43.01
863.393	41.93
863.563	41.22
863.732	38.23
863.901	35.5
864.07	39.78
864.239	42.57
864.408	43.93
864.577	45.77
864.746	53.62
864.915	49.94
865.084	56.67
865.253	54.74
865.422	56.99
865.591	59.26
865.76	60.95
865.929	61.14
866.097	60.42
866.266	58.25
866.435	59.38
866.604	57.21
866.773	48.72
866.942	50.69
867.11	52.5
867.279	57.18
867.448	63.53
867.617	63.54
867.785	62.5
867.954	58.95
868.123	55.31
868.291	29.99
868.46	41.87
868.629	44.27
868.797	41.54
868.966	42.84
869.134	36.76
869.303	43.99
869.472	38.61
869.64	40.95
869.809	41.78
869.977	43.13
870.146	36.23
870.314	41.21
870.482	44.76
870.651	40.83
870.819	36.51
870.988	30.82
871.156	24.62
871.324	32.48
871.493	33.2
871.661	45.65
871.829	53.65
871.998	56.08
872.166	52.09
872.334	54.33
872.502	51.24
872.671	45.57
872.839	47.75
873.007	58.53
873.175	53.43
873.343	53.3
873.512	43.8
873.68	53.59
873.848	53.13
874.016	54.9
874.184	56.09
874.352	53.43
874.52	49.56
874.688	58.01
874.856	47.43
875.024	47.33
875.192	34.53
875.36	32.15
875.528	26.77
875.696	25.43
875.864	31.47
876.032	39.69
876.199	48.53
876.367	38.39
876.535	35.74
876.703	40.6
876.871	45.17
877.039	55.44
877.206	57.67
877.374	62.47
877.542	56.89
877.71	57.52
877.877	66.7
878.045	94.08
878.213	86.33
878.38	98.9
878.548	109.05
878.715	114.44
878.883	124.94
879.051	142.23
879.218	133.5
879.386	119
879.553	104.96
879.721	109.64
879.888	110.54
880.056	120.01
880.223	133.22
880.391	149.92
880.558	150.62
880.726	146.38
880.893	144.98
881.06	141.8
881.228	166.64
881.395	132.58
881.562	109.81
881.73	114.04
881.897	103.35
882.064	90.39
882.231	73.63
882.399	72.47
882.566	55.08
882.733	81.01
882.9	98.27
883.068	114.36
883.235	91.53
883.402	119.28
883.569	103.2
883.736	92.39
883.903	85.71
884.07	87.07
884.237	77.32
884.404	74.76
884.571	78.55
884.738	65.48
884.905	79.46
885.072	82.47
885.239	92.86
885.406	99.57
