Data from Transmission_09-21-39-137.txt Node
Date: Fri Aug 24 09:21:39 EEST 2018
User: tibor.sos
Spectrometer: USB4F01757
Scans to average: 10
Trigger mode: 4
Integration Time (sec): 1.000000E-2
Electric dark correction enabled: true
Boxcar width: 10
XAxis mode: Wavelengths
Number of Pixels in Spectrum: 3648
>>>>>Begin Spectral Data<<<<<
178.758	-15.54
178.974	-121.37
179.191	-168.61
179.407	-35.71
179.624	-34.69
179.84	-39.57
180.057	-34.36
180.273	-2.1
180.489	33.62
180.706	-24.38
180.922	-3.59
181.138	-15.24
181.355	55.13
181.571	45.79
181.787	84.67
182.004	88.81
182.22	76.83
182.436	56.56
182.653	76.78
182.869	93.01
183.085	105
183.301	104.71
183.518	82.07
183.734	86.43
183.95	116.67
184.166	141.53
184.383	144.73
184.599	133.58
184.815	103.45
185.031	80.69
185.247	101.64
185.463	116.8
185.68	137.46
185.896	129.75
186.112	187.09
186.328	180.2
186.544	224.01
186.76	225.62
186.976	181.53
187.192	179.21
187.408	206.65
187.624	252.75
187.84	200.55
188.056	169.95
188.272	170.1
188.488	160.89
188.704	141.04
188.92	162.01
189.136	144.28
189.352	164.96
189.568	195.13
189.784	221.81
190	192.76
190.216	191.89
190.432	193.82
190.648	226.63
190.864	473.83
191.08	368.66
191.296	219.99
191.511	286.51
191.727	367.46
191.943	388.48
192.159	242.12
192.375	268.05
192.591	372.32
192.806	490.77
193.022	306.91
193.238	600.69
193.454	512.93
193.669	741.27
193.885	798.17
194.101	1228.42
194.317	728.46
194.532	4662.92
194.748	-3242.02
194.964	1389.8
195.18	644.17
195.395	585.59
195.611	472.63
195.827	823.18
196.042	1510.84
196.258	869.06
196.473	552.42
196.689	655.3
196.905	857.88
197.12	3645.54
197.336	1357.3
197.551	-1591.37
197.767	443000
197.982	1007.75
198.198	6216.44
198.414	4626.97
198.629	854.04
198.845	554.08
199.06	619.41
199.276	493.3
199.491	1572.97
199.707	339.83
199.922	230.77
200.137	253.53
200.353	229.82
200.568	173.1
200.784	164.84
200.999	204.09
201.215	271.75
201.43	272.73
201.645	214.65
201.861	221.38
202.076	188.75
202.291	236.13
202.507	223.32
202.722	153.71
202.937	276.55
203.153	316.92
203.368	242.42
203.583	143.95
203.798	165.71
204.014	125.2
204.229	141.69
204.444	152.87
204.659	169.89
204.875	393.15
205.09	-956.3
205.305	1739.62
205.52	-372.36
205.735	-389.22
205.951	2440
206.166	-144.3
206.381	-73.45
206.596	-1756.36
206.811	-134.5
207.026	-220.66
207.241	-36.3
207.457	489.1
207.672	1171.9
207.887	-1441.12
208.102	-161.59
208.317	-95.08
208.532	473.45
208.747	-499.45
208.962	-115.06
209.177	377.18
209.392	50.47
209.607	66.67
209.822	91.05
210.037	136.56
210.252	165.49
210.467	225.55
210.682	132.1
210.897	113.41
211.112	46.62
211.326	53.72
211.541	24.73
211.756	31.04
211.971	-30.23
212.186	-40.81
212.401	-98.59
212.616	-76.75
212.831	-19.53
213.045	-6.73
213.26	-38.88
213.475	25.41
213.69	58.31
213.905	118.73
214.119	219.91
214.334	-1429.63
214.549	-83.4
214.764	386.53
214.978	378.84
215.193	264.82
215.408	-3317.95
215.622	556.23
215.837	3115.56
216.052	-1625.29
216.266	-293.16
216.481	-255.47
216.696	-148.28
216.91	6806.06
217.125	936.78
217.34	1462.18
217.554	1376.22
217.769	-629.7
217.983	-262.04
218.198	-503.84
218.412	-736.33
218.627	713.14
218.842	410.79
219.056	313.94
219.271	302.85
219.485	420.03
219.7	454.38
219.914	347.45
220.129	572.19
220.343	407.23
220.558	304.42
220.772	406.96
220.986	383.89
221.201	653.38
221.415	-607.29
221.63	-171.8
221.844	-142.57
222.058	-200.76
222.273	-212.61
222.487	-219.94
222.702	-276.17
222.916	-197.85
223.13	-69.16
223.344	-117.28
223.559	-68.09
223.773	-27.76
223.987	-69.41
224.202	-90.28
224.416	-55.69
224.63	-87.57
224.844	-78.47
225.059	-106.18
225.273	-1844.44
225.487	1467.2
225.701	255.13
225.915	186.64
226.13	180.24
226.344	188.59
226.558	184.81
226.772	141.81
226.986	144.04
227.2	152.56
227.415	180.73
227.629	233.32
227.843	236.18
228.057	194.56
228.271	150.97
228.485	178.59
228.699	203.67
228.913	261.72
229.127	243.78
229.341	247.25
229.555	332.51
229.769	448.81
229.983	589.84
230.197	529.15
230.411	727.61
230.625	769.19
230.839	521.37
231.053	693.37
231.267	1419.05
231.481	1108.92
231.695	804.2
231.909	486.72
232.122	209.69
232.336	258.55
232.55	325.35
232.764	511.75
232.978	426.44
233.192	515.37
233.405	493.01
233.619	355.14
233.833	213.44
234.047	391.94
234.261	528.08
234.474	292.79
234.688	-711.63
234.902	-360
235.116	-267.02
235.329	-177.92
235.543	-372.51
235.757	-135.05
235.97	-80.42
236.184	-69.84
236.398	6.69
236.612	-1.05
236.825	2.1
237.039	17.95
237.252	31.2
237.466	-167.1
237.68	-891.53
237.893	71800
238.107	407.11
238.32	-1093.91
238.534	339.09
238.748	323.89
238.961	319.09
239.175	337.6
239.388	411.97
239.602	588.27
239.815	324.67
240.029	446.09
240.242	352.69
240.456	229.38
240.669	222.52
240.882	226.64
241.096	370.33
241.309	235.2
241.523	414.51
241.736	521.28
241.95	-1256.98
242.163	1818.05
242.376	605.3
242.59	1416
242.803	-10973.33
243.016	-369.18
243.23	-1208.4
243.443	-4493.33
243.656	263.16
243.87	101.3
244.083	123.47
244.296	122.25
244.509	140.36
244.723	144.02
244.936	141.71
245.149	197.44
245.362	162.49
245.576	130.46
245.789	170.47
246.002	109.89
246.215	123.27
246.428	114.44
246.641	124.31
246.855	125.6
247.068	146.37
247.281	105.35
247.494	106.74
247.707	108.74
247.92	138.91
248.133	107.2
248.346	114.33
248.559	73.6
248.772	37.66
248.985	32.14
249.198	37.06
249.411	54.07
249.624	59.24
249.837	61.82
250.05	38.03
250.263	21.91
250.476	29.68
250.689	31.54
250.902	16.76
251.115	5.09
251.328	11.13
251.541	12.51
251.754	19.47
251.967	9.19
252.18	11.57
252.393	17.15
252.605	25
252.818	22.27
253.031	21.98
253.244	31.3
253.457	23.45
253.67	17.37
253.882	15.13
254.095	13.51
254.308	19.57
254.521	26.99
254.733	31.48
254.946	33.74
255.159	31.86
255.372	37.76
255.584	38.27
255.797	34.71
256.01	42.22
256.222	35.47
256.435	32.23
256.648	34.95
256.86	35.67
257.073	35.49
257.285	38.89
257.498	42.73
257.711	38.2
257.923	45.22
258.136	42.12
258.348	32.11
258.561	33.31
258.773	8.07
258.986	-5.07
259.198	-11.89
259.411	-50.49
259.623	-21.67
259.836	-9.12
260.048	9.52
260.261	32.21
260.473	29.9
260.686	28.06
260.898	41.95
261.111	29.94
261.323	29.64
261.535	35.62
261.748	39.33
261.96	45
262.173	52.19
262.385	53.13
262.597	58.4
262.81	58.68
263.022	59.57
263.234	67.79
263.447	70.56
263.659	73.64
263.871	81.66
264.083	77
264.296	67.91
264.508	65.68
264.72	62.19
264.932	67.3
265.145	69.23
265.357	67.66
265.569	70.13
265.781	83.97
265.993	90.08
266.205	103.98
266.418	87.43
266.63	85.66
266.842	91
267.054	82.29
267.266	85.9
267.478	86.78
267.69	92.94
267.902	60.83
268.114	59.33
268.326	25.92
268.538	36.37
268.75	39.82
268.962	34.6
269.174	34.77
269.386	30.35
269.598	39.15
269.81	31.47
270.022	27.98
270.234	25.84
270.446	32.93
270.658	28.16
270.87	33.72
271.082	33.61
271.294	29.37
271.506	23.76
271.718	16.46
271.929	20.2
272.141	18.48
272.353	25.97
272.565	27.17
272.777	33.78
272.989	35.41
273.2	37.2
273.412	35.69
273.624	30.67
273.836	28.06
274.047	30.05
274.259	34.15
274.471	36.52
274.683	32.06
274.894	25.3
275.106	28.27
275.318	19.96
275.529	16.45
275.741	14.06
275.953	22.45
276.164	27.17
276.376	20.15
276.588	16.06
276.799	15.85
277.011	13.58
277.222	12.4
277.434	1.9
277.646	-12.36
277.857	-2.14
278.069	15.01
278.28	19.67
278.492	14.95
278.703	12.29
278.915	16.6
279.126	18.45
279.338	13.9
279.549	22.42
279.761	24.75
279.972	29.88
280.183	38.58
280.395	41.77
280.606	38.58
280.818	41.42
281.029	46.31
281.24	39.59
281.452	36.62
281.663	34.48
281.875	41.68
282.086	48.85
282.297	44.38
282.508	46.45
282.72	45.26
282.931	39.53
283.142	45
283.354	48.71
283.565	37.14
283.776	47.07
283.987	36.49
284.199	33.28
284.41	32.35
284.621	31.45
284.832	34.4
285.043	29.8
285.254	21.4
285.466	14.09
285.677	23.3
285.888	24.32
286.099	16.15
286.31	13.99
286.521	6.37
286.732	6.72
286.943	1.66
287.154	3.3
287.366	4.44
287.577	7.01
287.788	3.88
287.999	14.68
288.21	8.43
288.421	16.07
288.632	17.79
288.843	21.41
289.054	17.38
289.264	10.36
289.475	22.51
289.686	32.91
289.897	31.13
290.108	33.44
290.319	34.54
290.53	37.22
290.741	37.26
290.952	36.01
291.163	43.53
291.373	44.38
291.584	44
291.795	45.56
292.006	43.62
292.217	49.39
292.427	45.86
292.638	49.93
292.849	42.57
293.06	47.62
293.27	43.32
293.481	45.52
293.692	41.85
293.903	34.99
294.113	31.44
294.324	34.42
294.535	24.3
294.745	21.59
294.956	20.82
295.167	19.36
295.377	17.44
295.588	13.03
295.798	12.08
296.009	7.98
296.22	1.58
296.43	-2.61
296.641	-19.07
296.851	-20.33
297.062	-31.19
297.272	-26.49
297.483	-28.79
297.693	-26.44
297.904	-27.66
298.114	-18.29
298.325	-9.05
298.535	-19.36
298.746	-24.22
298.956	-19.36
299.167	-17.44
299.377	-21.12
299.587	-16.52
299.798	-11.4
300.008	-17.33
300.219	-16.32
300.429	-9.51
300.639	3.08
300.85	3.16
301.06	4.86
301.27	9.79
301.481	20.43
301.691	24.97
301.901	24.57
302.111	21.3
302.322	24.85
302.532	24.93
302.742	15.8
302.952	23.51
303.163	19.79
303.373	25.75
303.583	24.82
303.793	29.21
304.003	28.72
304.214	31.95
304.424	28.5
304.634	26.93
304.844	23.42
305.054	25.79
305.264	27.32
305.474	35.16
305.684	32.85
305.894	28.95
306.104	32.8
306.314	28.7
306.525	28.9
306.735	23.7
306.945	21.55
307.155	23.54
307.365	22.86
307.575	28.49
307.784	23.95
307.994	22.57
308.204	18.92
308.414	14.16
308.624	8.28
308.834	17.11
309.044	12.72
309.254	15.29
309.464	11.42
309.674	12.07
309.884	5.56
310.093	6.87
310.303	10.68
310.513	13.8
310.723	15.37
310.933	14.63
311.142	17.89
311.352	17.07
311.562	22.45
311.772	18.29
311.981	19.5
312.191	22.38
312.401	22.85
312.611	24.83
312.82	25.49
313.03	26.22
313.24	22.47
313.449	24.94
313.659	19.42
313.869	14.9
314.078	18.13
314.288	20.64
314.497	18.82
314.707	16.94
314.917	8.67
315.126	10.88
315.336	16.77
315.545	9.96
315.755	12.49
315.964	6.8
316.174	18.23
316.383	18.9
316.593	16.74
316.802	19.74
317.012	16.41
317.221	23.77
317.431	22.64
317.64	27.85
317.849	29.61
318.059	35.39
318.268	40.63
318.478	37.42
318.687	35.47
318.896	37.94
319.106	32.91
319.315	38.32
319.524	36.62
319.734	32.73
319.943	38.94
320.152	35.91
320.362	34.79
320.571	22.27
320.78	18.3
320.989	22.5
321.199	22.46
321.408	27.63
321.617	17.7
321.826	20.6
322.035	13.24
322.245	12.3
322.454	12.3
322.663	11.5
322.872	3.23
323.081	2.45
323.29	-0.06
323.5	4.38
323.709	3.5
323.918	1.45
324.127	-4.02
324.336	-9.88
324.545	-12.38
324.754	-5.39
324.963	-2.36
325.172	3.27
325.381	2.19
325.59	3.05
325.799	-2.84
326.008	-5.08
326.217	-11.14
326.426	-1
326.635	5.86
326.844	12.46
327.053	19.68
327.262	30.06
327.47	28.47
327.679	31.51
327.888	31.93
328.097	28.87
328.306	32.29
328.515	40.4
328.724	46.89
328.932	48.94
329.141	45.96
329.35	48.98
329.559	47.94
329.768	51.56
329.976	46.73
330.185	44.4
330.394	45.78
330.602	46.02
330.811	40.57
331.02	36.4
331.229	34.28
331.437	36.01
331.646	29.67
331.855	34.78
332.063	31.82
332.272	34.83
332.48	39.39
332.689	35.82
332.898	32.22
333.106	23.33
333.315	26.8
333.523	28.43
333.732	23.6
333.94	23.45
334.149	23.06
334.357	22.53
334.566	27.91
334.774	28.17
334.983	32.22
335.191	29.49
335.4	23.71
335.608	26.21
335.817	21.2
336.025	34.18
336.234	26.7
336.442	33.53
336.65	30.57
336.859	30.85
337.067	39.66
337.275	51.07
337.484	52.62
337.692	54.24
337.9	57.38
338.109	71.44
338.317	78.16
338.525	66.87
338.734	73.75
338.942	74.46
339.15	72.6
339.358	77.47
339.567	87.72
339.775	90.2
339.983	87.04
340.191	83.24
340.399	90.53
340.608	82.96
340.816	83.63
341.024	80.22
341.232	69.33
341.44	60.45
341.648	53.11
341.856	52.07
342.064	53.29
342.272	42.09
342.481	33.3
342.689	33.72
342.897	30.92
343.105	25.02
343.313	30.55
343.521	34.85
343.729	28.12
343.937	16.27
344.145	10.23
344.353	17.51
344.56	12.55
344.768	6.77
344.976	-2.8
345.184	-15.85
345.392	-18.73
345.6	-7.7
345.808	-6.63
346.016	-6.85
346.224	-3.21
346.431	0.3
346.639	6.34
346.847	12.13
347.055	5.12
347.263	7.72
347.471	7.93
347.678	-1.12
347.886	-2.58
348.094	13.75
348.302	22.15
348.509	27.28
348.717	24.4
348.925	29.62
349.132	29.15
349.34	29.55
349.548	34.36
349.755	37.14
349.963	33.46
350.171	36.4
350.378	36.7
350.586	38.95
350.793	33.05
351.001	39.55
351.209	37
351.416	44.34
351.624	44.23
351.831	47.41
352.039	53.18
352.246	52.01
352.454	44.08
352.661	37.38
352.869	36.46
353.076	29.33
353.284	41.04
353.491	45.36
353.699	40.13
353.906	48.07
354.113	41.93
354.321	37.14
354.528	44.91
354.736	34.4
354.943	26.55
355.15	22.33
355.358	10.98
355.565	2.45
355.772	-2.81
355.98	-3.05
356.187	-8.21
356.394	-16.4
356.601	-18.57
356.809	-12.63
357.016	-0.22
357.223	5.58
357.43	0.03
357.638	-7.06
357.845	-0.98
358.052	-0.42
358.259	7.35
358.466	10.9
358.673	13.47
358.881	2.53
359.088	7.88
359.295	14.78
359.502	12.36
359.709	20.6
359.916	21.45
360.123	24.87
360.33	26.61
360.537	19.98
360.744	29.8
360.951	31.67
361.158	34.77
361.365	31.54
361.572	28.66
361.779	41.79
361.986	40.82
362.193	34.4
362.4	33.11
362.607	17.35
362.814	14.53
363.021	16.29
363.228	11.8
363.435	17.8
363.641	14.25
363.848	16.68
364.055	18.66
364.262	29.85
364.469	20.56
364.676	23.74
364.882	29.14
365.089	23.58
365.296	26.24
365.503	19.67
365.709	15.47
365.916	13.69
366.123	10.02
366.33	12.17
366.536	14.22
366.743	17.23
366.95	22.85
367.156	22.27
367.363	24.66
367.57	28.22
367.776	25.74
367.983	32.53
368.19	33.42
368.396	37.34
368.603	32.13
368.809	42.96
369.016	50.13
369.222	48.6
369.429	52.72
369.635	49.49
369.842	51.39
370.048	59.81
370.255	56.83
370.461	52.99
370.668	52.81
370.874	54.74
371.081	57.92
371.287	53.43
371.494	55.3
371.7	57.9
371.906	57.99
372.113	55.4
372.319	53.94
372.526	58.05
372.732	56.29
372.938	51.98
373.145	47.23
373.351	37.96
373.557	42.24
373.763	40.73
373.97	38.14
374.176	46.23
374.382	39.48
374.588	40.73
374.795	40.7
375.001	44.72
375.207	36.62
375.413	25.91
375.62	31.19
375.826	34.16
376.032	33.94
376.238	28.61
376.444	30.87
376.65	26.01
376.856	16.48
377.062	16.04
377.269	29.8
377.475	25.06
377.681	29.27
377.887	24.63
378.093	12.41
378.299	14.09
378.505	7.69
378.711	11.11
378.917	6.26
379.123	6.6
379.329	2.8
379.535	4.97
379.741	10.3
379.947	2.69
380.152	-1.44
380.358	-2.71
380.564	-6.38
380.77	-9.93
380.976	-13.66
381.182	-8.69
381.388	-9.28
381.594	-19.69
381.799	-10.07
382.005	-5.42
382.211	0.91
382.417	14.11
382.623	10.45
382.828	14.48
383.034	12.67
383.24	17.9
383.445	20.62
383.651	15.29
383.857	18.26
384.063	13.88
384.268	8.83
384.474	17.37
384.68	10.37
384.885	27.25
385.091	32.07
385.296	39.09
385.502	42.2
385.708	47.88
385.913	49.75
386.119	43.87
386.324	29.79
386.53	28.35
386.735	17.62
386.941	22.91
387.146	21.9
387.352	20.26
387.557	23.9
387.763	31.78
387.968	36.49
388.174	33.13
388.379	32.55
388.585	33.46
388.79	35.62
388.996	38.68
389.201	39.97
389.406	31.61
389.612	24.27
389.817	27.95
390.022	17.36
390.228	27.82
390.433	23.87
390.638	20.78
390.844	21.63
391.049	19.88
391.254	24.98
391.459	26.85
391.665	29.85
391.87	28.06
392.075	24.06
392.28	21.57
392.485	24.89
392.691	29.53
392.896	38.31
393.101	35.26
393.306	38.63
393.511	34.95
393.716	39.57
393.922	43.48
394.127	37.41
394.332	40.46
394.537	39.55
394.742	49.89
394.947	63.82
395.152	66.08
395.357	61.56
395.562	60.56
395.767	60.69
395.972	53.54
396.177	53.02
396.382	60.15
396.587	65.43
396.792	61.65
396.997	58.48
397.202	61.19
397.407	60.62
397.611	56.03
397.816	52.74
398.021	51.64
398.226	48.43
398.431	51.14
398.636	51.05
398.841	49.56
399.045	51.69
399.25	46.02
399.455	42.3
399.66	49.61
399.864	44.77
400.069	39.62
400.274	43.14
400.479	42.07
400.683	38.98
400.888	30
401.093	22.03
401.297	25.84
401.502	7.46
401.707	4.25
401.911	12.75
402.116	11.57
402.321	15.84
402.525	20.94
402.73	23.12
402.934	17.92
403.139	23.35
403.344	9.09
403.548	10.03
403.753	7.7
403.957	-0.82
404.162	-3.29
404.366	0.89
404.571	-9.52
404.775	-17.03
404.98	-18.33
405.184	-4.43
405.388	0.04
405.593	-8.9
405.797	8.9
406.002	15.68
406.206	13.63
406.41	14.79
406.615	12.68
406.819	14
407.023	16.2
407.228	22.03
407.432	21.04
407.636	22.19
407.841	20.96
408.045	20.44
408.249	21.03
408.453	20.89
408.658	28.34
408.862	34.94
409.066	41.53
409.27	36.68
409.474	34.82
409.679	35.81
409.883	44.3
410.087	32.83
410.291	28.24
410.495	21.23
410.699	24.93
410.903	24.28
411.108	25.91
411.312	13.88
411.516	9.14
411.72	5.96
411.924	16.56
412.128	21.21
412.332	23.81
412.536	29.96
412.74	37.48
412.944	30.39
413.148	32.72
413.352	29.76
413.556	32.81
413.76	37.87
413.964	41.04
414.167	36
414.371	42.63
414.575	42.2
414.779	44.35
414.983	43.47
415.187	42.92
415.391	32
415.594	40.51
415.798	45.23
416.002	44.85
416.206	39.34
416.41	44.46
416.613	50.78
416.817	49.25
417.021	42.1
417.225	47.91
417.428	38.67
417.632	25.7
417.836	28.95
418.039	33.83
418.243	43.9
418.447	44.56
418.65	43.28
418.854	47.8
419.057	52.09
419.261	48.51
419.465	54.58
419.668	65.17
419.872	64.66
420.075	61.97
420.279	63.5
420.482	69.97
420.686	61.2
420.889	55.8
421.093	58.14
421.296	64.43
421.5	56.41
421.703	61.6
421.907	74
422.11	77.85
422.314	71.69
422.517	61.82
422.72	60.64
422.924	54.27
423.127	49.61
423.33	46.75
423.534	57.5
423.737	50.38
423.94	45.77
424.144	45.97
424.347	48.86
424.55	36.87
424.754	27.25
424.957	32.2
425.16	34.05
425.363	31.98
425.567	37.89
425.77	40.66
425.973	41.35
426.176	34.53
426.379	27.83
426.582	37.3
426.786	44.17
426.989	42.56
427.192	49.6
427.395	55.68
427.598	54.51
427.801	49.17
428.004	48.63
428.207	49.89
428.41	53.14
428.613	49.28
428.816	61.67
429.019	66.39
429.222	52.79
429.425	45.71
429.628	42.93
429.831	38.23
430.034	39.68
430.237	40.91
430.44	41.72
430.643	40.52
430.846	33.12
431.049	27.84
431.252	25.75
431.454	23.14
431.657	18.24
431.86	17.89
432.063	19.89
432.266	21.12
432.469	19.05
432.671	16.52
432.874	22.72
433.077	18.35
433.28	21.67
433.482	28.55
433.685	28.07
433.888	26.1
434.09	32.85
434.293	24.94
434.496	27.19
434.698	28.93
434.901	35.09
435.104	36.64
435.306	37.73
435.509	36.31
435.712	48.24
435.914	35.8
436.117	40.5
436.319	48.13
436.522	44.69
436.724	47.09
436.927	41.55
437.129	36.51
437.332	30.25
437.534	25.35
437.737	19.09
437.939	30.05
438.142	33.93
438.344	28.62
438.547	31.96
438.749	26.73
438.951	18.74
439.154	19.75
439.356	15.16
439.558	12.72
439.761	25.3
439.963	24.46
440.165	33.23
440.368	32.82
440.57	18.78
440.772	20.16
440.975	1.02
441.177	19.7
441.379	23.54
441.581	26.72
441.784	22.37
441.986	33.95
442.188	27.13
442.39	19.59
442.592	17.17
442.795	22.58
442.997	21.72
443.199	25.66
443.401	26.26
443.603	35.34
443.805	33.1
444.007	33.05
444.209	25.04
444.411	33.96
444.613	30.86
444.815	35.32
445.017	34.86
445.219	42.9
445.421	39.66
445.623	41.6
445.825	38.35
446.027	31.71
446.229	22.17
446.431	32.04
446.633	36.15
446.835	34.08
447.037	34.37
447.239	39.92
447.441	45.32
447.643	42.16
447.844	35.99
448.046	45.24
448.248	52.91
448.45	61.51
448.652	51.73
448.853	55.01
449.055	51.23
449.257	49.48
449.459	51.71
449.66	44.45
449.862	34.27
450.064	33.39
450.266	49.02
450.467	55.83
450.669	57.59
450.871	62.36
451.072	73.9
451.274	73.81
451.475	62.03
451.677	60.41
451.879	66.21
452.08	58.26
452.282	38.36
452.483	23.11
452.685	24.83
452.886	26.85
453.088	13.78
453.289	1.48
453.491	-1.85
453.692	-19.33
453.894	-1.91
454.095	22.13
454.297	34.92
454.498	26.02
454.7	33.44
454.901	40.92
455.102	30.88
455.304	22.52
455.505	20.76
455.706	14.45
455.908	12.13
456.109	11.13
456.31	15.05
456.512	20.02
456.713	24.65
456.914	20.33
457.116	18.8
457.317	28.55
457.518	30.65
457.719	34.38
457.921	38.5
458.122	27.27
458.323	13.18
458.524	13.85
458.725	12.17
458.926	5.15
459.128	-3.17
459.329	2.61
459.53	-1.48
459.731	-11.28
459.932	-6.89
460.133	-4.58
460.334	7.43
460.535	15.59
460.736	10.83
460.937	8.71
461.138	9.28
461.339	5.46
461.54	3.64
461.741	3.97
461.942	0.76
462.143	5.88
462.344	9.44
462.545	12.35
462.746	8.21
462.947	5.93
463.148	10.26
463.348	14.64
463.549	20.13
463.75	18.91
463.951	32.27
464.152	32.29
464.353	30.42
464.553	35.32
464.754	27.96
464.955	34.17
465.156	37.76
465.356	42.04
465.557	47.44
465.758	49.26
465.959	54.45
466.159	63.22
466.36	57.51
466.561	61.59
466.761	60.4
466.962	62.62
467.163	69.18
467.363	64.86
467.564	68.27
467.764	65.91
467.965	67.24
468.166	59.84
468.366	62.91
468.567	59.36
468.767	55.81
468.968	61.28
469.168	62.45
469.369	60.14
469.569	53.08
469.77	50.28
469.97	49.51
470.17	47.72
470.371	40.4
470.571	43.58
470.772	40.36
470.972	43.53
471.172	39.67
471.373	38.3
471.573	39.76
471.773	38.01
471.974	42.08
472.174	39.62
472.374	45.33
472.575	46.08
472.775	49.34
472.975	43.88
473.175	45.47
473.376	42.11
473.576	45.8
473.776	55.52
473.976	54.49
474.177	57.28
474.377	56.62
474.577	57.97
474.777	53.63
474.977	54.35
475.177	53.64
475.377	58.13
475.577	56.69
475.777	55.64
475.978	53.85
476.178	49.94
476.378	54.12
476.578	61.13
476.778	55.8
476.978	58
477.178	59.61
477.378	59.05
477.578	56.08
477.778	50.41
477.977	41.11
478.177	44.42
478.377	38.63
478.577	39.28
478.777	43.72
478.977	44.18
479.177	39.72
479.377	39.94
479.577	33.24
479.776	31.23
479.976	29.43
480.176	21.77
480.376	24.06
480.576	20.13
480.775	13.07
480.975	18.3
481.175	11.83
481.374	13.99
481.574	14.94
481.774	13.93
481.974	16.3
482.173	16.78
482.373	8.18
482.572	11.71
482.772	11.81
482.972	7.85
483.171	6.58
483.371	12.83
483.57	14.09
483.77	13.52
483.97	14.69
484.169	15.9
484.369	20.34
484.568	17.95
484.768	17.29
484.967	18.96
485.167	20.13
485.366	21.32
485.566	16.94
485.765	14.7
485.964	16.15
486.164	17.68
486.363	18.68
486.563	23.38
486.762	23.92
486.961	21.22
487.161	24.58
487.36	25.06
487.559	25.49
487.759	21.39
487.958	23.75
488.157	19.75
488.356	27.29
488.556	25.1
488.755	25.22
488.954	25.08
489.153	24.99
489.353	20.48
489.552	16.27
489.751	13.97
489.95	14.84
490.149	10.64
490.348	14.15
490.548	16.91
490.747	16.33
490.946	20.71
491.145	21.45
491.344	17
491.543	19.67
491.742	20.45
491.941	20.02
492.14	16.29
492.339	18.15
492.538	8.26
492.737	13.58
492.936	11.53
493.135	14.63
493.334	11.6
493.533	13.74
493.732	20.65
493.931	26.65
494.13	24.92
494.328	31.73
494.527	28.9
494.726	24.57
494.925	24.9
495.124	20.01
495.323	21.8
495.521	21.79
495.72	21.59
495.919	19.31
496.118	19.42
496.316	22.62
496.515	20.93
496.714	19.63
496.913	20.32
497.111	23.38
497.31	21.48
497.509	21.39
497.707	19.34
497.906	20.8
498.105	17.74
498.303	17.81
498.502	14.8
498.7	12.74
498.899	13.3
499.097	7.67
499.296	9.54
499.495	8.21
499.693	10.4
499.892	10.49
500.09	9.18
500.289	16.71
500.487	15.58
500.686	17.73
500.884	13.55
501.082	12.07
501.281	8.8
501.479	12.72
501.678	15.09
501.876	12.44
502.074	11.86
502.273	12.61
502.471	13.2
502.669	9.75
502.868	10.42
503.066	12.58
503.264	16.88
503.463	11.65
503.661	11.67
503.859	7.98
504.057	9.36
504.256	11.52
504.454	4.58
504.652	5.32
504.85	6.78
505.048	14.13
505.246	12.58
505.445	15.28
505.643	11.45
505.841	11.36
506.039	12.96
506.237	8.05
506.435	10.61
506.633	10.57
506.831	16.49
507.029	18.35
507.227	21.84
507.425	23.41
507.623	27.43
507.821	26.37
508.019	31.72
508.217	31.9
508.415	31.57
508.613	34.41
508.811	36.65
509.009	35.35
509.207	34.68
509.405	32.16
509.603	35.29
509.8	36.45
509.998	33.76
510.196	34.31
510.394	35.83
510.592	35.5
510.79	36.62
510.987	33.98
511.185	29.8
511.383	26.63
511.581	24.68
511.778	26.74
511.976	28.66
512.174	25.28
512.371	23.75
512.569	26.66
512.767	25.85
512.964	23.1
513.162	24.37
513.36	23.3
513.557	24.89
513.755	22.19
513.952	26.41
514.15	25.4
514.348	22.85
514.545	25.18
514.743	27.76
514.94	26.77
515.138	25.35
515.335	27.96
515.533	26.59
515.73	29.71
515.927	28.27
516.125	26.54
516.322	28.23
516.52	28.54
516.717	23.82
516.915	23.1
517.112	23.74
517.309	24.98
517.507	27.28
517.704	26.38
517.901	24.02
518.099	21.73
518.296	26.29
518.493	30.89
518.69	30.14
518.888	31.04
519.085	33.59
519.282	36.25
519.479	34.85
519.676	36.02
519.874	33.78
520.071	31.21
520.268	31.69
520.465	31
520.662	30.67
520.859	29.42
521.056	32.56
521.254	35.32
521.451	35.61
521.648	34.6
521.845	37.39
522.042	38.32
522.239	39.02
522.436	35.75
522.633	30.66
522.83	32.58
523.027	24.75
523.224	25.84
523.421	27.39
523.618	26.17
523.815	31.1
524.011	31.55
524.208	34.47
524.405	34.09
524.602	33.55
524.799	30.22
524.996	32.57
525.193	30.12
525.389	25
525.586	23.15
525.783	23.58
525.98	25.76
526.176	27.57
526.373	22.49
526.57	25.69
526.767	22.23
526.963	21.64
527.16	25.34
527.357	23.68
527.553	19.69
527.75	21.47
527.947	14.61
528.143	16.44
528.34	13.83
528.537	12.05
528.733	12.79
528.93	17.38
529.126	18
529.323	16.82
529.519	19.47
529.716	15.31
529.912	14.85
530.109	11.71
530.305	10.65
530.502	13.27
530.698	12.88
530.895	14.74
531.091	16.27
531.288	13.78
531.484	14.46
531.68	14.93
531.877	15.72
532.073	15.32
532.269	15.2
532.466	17.89
532.662	20.01
532.858	18.55
533.055	20.64
533.251	20.73
533.447	21.18
533.643	23.7
533.84	23.6
534.036	22.84
534.232	22.56
534.428	18.67
534.624	20.52
534.821	19.36
535.017	20.39
535.213	17.9
535.409	24.47
535.605	25.96
535.801	23.1
535.997	22.58
536.193	21.82
536.389	21.4
536.586	18.72
536.782	20.29
536.978	23.19
537.174	21.34
537.37	22.21
537.566	24.05
537.762	21.03
537.958	24.59
538.153	25.53
538.349	23.58
538.545	27.47
538.741	26.59
538.937	27
539.133	29.84
539.329	31.57
539.525	27.5
539.721	28.47
539.916	32.83
540.112	32.48
540.308	34.32
540.504	35.05
540.699	36.44
540.895	35.67
541.091	33.54
541.287	32.58
541.482	32.49
541.678	30.37
541.874	30.45
542.069	32.98
542.265	36.16
542.461	37.9
542.656	38.22
542.852	37.53
543.048	38.26
543.243	38.94
543.439	40.78
543.634	39.66
543.83	37.3
544.025	35.61
544.221	37.9
544.417	38.52
544.612	38.71
544.807	39.63
545.003	37.52
545.198	36.17
545.394	35.63
545.589	38.72
545.785	37.59
545.98	37.93
546.176	34.11
546.371	31.64
546.566	31
546.762	28.93
546.957	31.38
547.152	31.23
547.348	30.88
547.543	29.81
547.738	28.39
547.933	26.51
548.129	27.59
548.324	25.37
548.519	23.27
548.714	21.61
548.91	22.03
549.105	22.56
549.3	24.29
549.495	25.47
549.69	22.68
549.885	25.7
550.08	25.58
550.276	27.11
550.471	30.35
550.666	30.23
550.861	33
551.056	29.52
551.251	31.15
551.446	29.8
551.641	28.29
551.836	28.45
552.031	30.61
552.226	31.93
552.421	31.69
552.616	32.33
552.811	33.07
553.006	29.81
553.201	29.5
553.395	29.19
553.59	28.26
553.785	26.72
553.98	27.38
554.175	27
554.37	26.26
554.565	23.23
554.759	25.57
554.954	23.52
555.149	25.55
555.344	24.02
555.538	23.39
555.733	24.23
555.928	26.81
556.122	25.1
556.317	22.22
556.512	22.4
556.706	20.35
556.901	17.91
557.096	18
557.29	18.55
557.485	18.74
557.68	17.15
557.874	16.55
558.069	13.79
558.263	12.31
558.458	14.78
558.652	16.61
558.847	13.92
559.041	16.6
559.236	12.12
559.43	11.48
559.625	12.27
559.819	9.96
560.014	10.56
560.208	11.41
560.402	12.14
560.597	13.42
560.791	15.72
560.986	18.37
561.18	18.7
561.374	18.72
561.569	18.63
561.763	22.59
561.957	20.87
562.151	20.95
562.346	24.98
562.54	25.92
562.734	25.77
562.928	24.94
563.123	24.74
563.317	28.58
563.511	30.02
563.705	28.61
563.899	32.23
564.093	29.63
564.288	29.83
564.482	29.87
564.676	29.7
564.87	29.45
565.064	29.93
565.258	29.84
565.452	30.18
565.646	32.26
565.84	27.72
566.034	30.72
566.228	31.64
566.422	28.7
566.616	29.15
566.81	28.82
567.004	30.75
567.198	29.67
567.392	28.56
567.586	24.58
567.779	24.19
567.973	21.23
568.167	22.76
568.361	22.37
568.555	22.93
568.749	21.49
568.942	21.11
569.136	20.56
569.33	20.21
569.524	18.18
569.718	18.77
569.911	21.28
570.105	21.87
570.299	21.06
570.492	21.23
570.686	20.43
570.88	20.39
571.073	19.28
571.267	18.48
571.461	17.34
571.654	20.27
571.848	20.98
572.041	20.25
572.235	18.73
572.429	19.11
572.622	17.03
572.816	17.89
573.009	17.94
573.203	16.41
573.396	17.18
573.59	19.35
573.783	16.37
573.976	15.24
574.17	13.94
574.363	14.8
574.557	14.1
574.75	10.92
574.943	11.67
575.137	13.78
575.33	16.35
575.523	15.78
575.717	14.26
575.91	15.49
576.103	17.12
576.297	16.7
576.49	17.32
576.683	19.51
576.876	18.06
577.07	18.28
577.263	19.66
577.456	18.8
577.649	17.63
577.842	17.76
578.036	18.27
578.229	18.27
578.422	16.99
578.615	18.13
578.808	18.96
579.001	19.23
579.194	19.64
579.387	19.97
579.58	20.43
579.773	20.06
579.966	19.97
580.159	18.37
580.352	19.33
580.545	18.82
580.738	17.95
580.931	18.09
581.124	17.19
581.317	14.15
581.51	14.85
581.703	17.42
581.896	18.37
582.088	17.76
582.281	18.7
582.474	19.75
582.667	19.26
582.86	18.47
583.053	17.69
583.245	16.76
583.438	14.56
583.631	17.45
583.824	18.95
584.016	17.97
584.209	18.42
584.402	18.7
584.594	19.67
584.787	20.13
584.98	21.66
585.172	23.89
585.365	25.15
585.558	25.83
585.75	24.51
585.943	22.76
586.135	22.58
586.328	22.53
586.52	23.25
586.713	23.48
586.906	24.43
587.098	25.35
587.291	26.53
587.483	24.8
587.675	22.88
587.868	20.77
588.06	19.92
588.253	21.04
588.445	20.41
588.638	17.8
588.83	16.4
589.022	14.96
589.215	12.81
589.407	15.67
589.599	15.76
589.792	15.19
589.984	17.06
590.176	17.96
590.368	18.67
590.561	18.12
590.753	18.63
590.945	18.7
591.137	17.75
591.33	14.97
591.522	17.97
591.714	16.23
591.906	19.02
592.098	20.12
592.29	19.29
592.482	19.15
592.674	20.57
592.867	20.53
593.059	20.81
593.251	21.38
593.443	20.72
593.635	18.55
593.827	18.23
594.019	17.44
594.211	17.57
594.403	17.09
594.595	17.74
594.787	16.18
594.979	14.62
595.17	12.37
595.362	12.79
595.554	12.08
595.746	13.45
595.938	13.27
596.13	12.66
596.322	14.12
596.513	11.88
596.705	13.28
596.897	13.35
597.089	14.57
597.281	14.77
597.472	13.47
597.664	13.57
597.856	13.89
598.048	13.34
598.239	10.94
598.431	10.4
598.623	9.27
598.814	9.19
599.006	12.13
599.197	14.52
599.389	15.38
599.581	14.6
599.772	14.99
599.964	13.36
600.155	12.87
600.347	11.84
600.538	13.84
600.73	12.99
600.921	13.2
601.113	11.91
601.304	13.3
601.496	14.53
601.687	16
601.879	14.06
602.07	16.84
602.262	18.04
602.453	18.65
602.644	18.02
602.836	18.01
603.027	17.47
603.218	17.05
603.41	16.76
603.601	16.75
603.792	18.37
603.983	19.79
604.175	21.11
604.366	21.3
604.557	22.46
604.748	21.81
604.94	22.76
605.131	22.41
605.322	21.56
605.513	21.94
605.704	21.3
605.895	23.18
606.086	21.24
606.278	22.87
606.469	23.13
606.66	25.15
606.851	24.16
607.042	23.08
607.233	22.31
607.424	22.17
607.615	21.86
607.806	19.83
607.997	18.54
608.188	18.4
608.379	17.74
608.57	17.49
608.761	18.3
608.952	17.64
609.142	17.6
609.333	17.87
609.524	16.41
609.715	16.01
609.906	14.41
610.097	15.48
610.287	12.62
610.478	11.29
610.669	10.03
610.86	10.94
611.051	10.76
611.241	12.18
611.432	12.44
611.623	14.03
611.813	14.67
612.004	15.89
612.195	16.36
612.385	16.27
612.576	14.55
612.767	15.18
612.957	15.18
613.148	16.3
613.338	13.54
613.529	12.59
613.72	13.03
613.91	14.22
614.101	12.62
614.291	13.46
614.482	14.42
614.672	14.33
614.863	14.61
615.053	14.51
615.243	14.6
615.434	15.73
615.624	15.13
615.815	14.79
616.005	14.29
616.195	12.94
616.386	12.42
616.576	12.44
616.766	12.28
616.957	12.14
617.147	10.84
617.337	13.56
617.528	14
617.718	12.93
617.908	12.98
618.098	14.19
618.289	17.34
618.479	17.16
618.669	17.78
618.859	17.8
619.049	18.76
619.239	17.55
619.43	15.38
619.62	15.26
619.81	16.08
620	16.17
620.19	16.46
620.38	16.61
620.57	18.56
620.76	17.36
620.95	18.26
621.14	18.46
621.33	16.37
621.52	16.28
621.71	15.82
621.9	15.64
622.09	15
622.28	13.52
622.47	13.22
622.659	11.34
622.849	10.21
623.039	11.14
623.229	12.71
623.419	13.49
623.609	13.22
623.799	12.57
623.988	12.95
624.178	12.96
624.368	12.91
624.558	11.74
624.747	11.58
624.937	11.4
625.127	9.69
625.316	10.14
625.506	11.92
625.696	13.25
625.885	11.57
626.075	12.04
626.265	11.88
626.454	12.37
626.644	12.66
626.833	14.15
627.023	12.43
627.212	10.3
627.402	11.73
627.591	12.44
627.781	11.46
627.97	12.3
628.16	11.83
628.349	10.98
628.539	10.82
628.728	13.24
628.918	13.05
629.107	15.04
629.296	15.18
629.486	13.93
629.675	14.7
629.865	15.26
630.054	15.81
630.243	14.6
630.432	12.95
630.622	15.23
630.811	15.25
631	15.12
631.19	16.29
631.379	13.2
631.568	13.52
631.757	15.31
631.946	13.71
632.136	14.18
632.325	13.76
632.514	13.82
632.703	11.56
632.892	10.11
633.081	10.4
633.27	11.51
633.459	11.19
633.648	10.53
633.837	10.78
634.026	10.79
634.215	12.78
634.404	12.38
634.593	12.05
634.782	11.49
634.971	10.48
635.16	9.37
635.349	11.01
635.538	9.97
635.727	8.39
635.916	7.5
636.105	8.91
636.294	10.48
636.482	10.86
636.671	11.13
636.86	12.8
637.049	11.95
637.238	10.62
637.426	10.32
637.615	8.3
637.804	8.51
637.993	7.01
638.181	5.36
638.37	7.61
638.559	6.07
638.747	7.01
638.936	9.36
639.125	11.12
639.313	10.86
639.502	11.22
639.691	11.09
639.879	10.46
640.068	9.67
640.256	9.22
640.445	8.33
640.633	9.09
640.822	6.75
641.01	7.45
641.199	8.39
641.387	10.08
641.576	11.73
641.764	13.25
641.953	13.85
642.141	14.49
642.329	14.55
642.518	14.67
642.706	14
642.894	13.33
643.083	12.87
643.271	12.25
643.459	12.8
643.648	13.39
643.836	14.65
644.024	14.29
644.213	15.85
644.401	16.11
644.589	15.99
644.777	18.06
644.965	18.32
645.154	18.02
645.342	17.77
645.53	18.02
645.718	16.26
645.906	15.94
646.094	16.1
646.282	13.38
646.47	14.05
646.658	14.79
646.846	14.58
647.034	15.25
647.223	16.07
647.411	15.88
647.599	15.73
647.786	17.04
647.974	16.65
648.162	14.02
648.35	13.75
648.538	11.83
648.726	10.47
648.914	9.38
649.102	9.71
649.29	8.48
649.478	9.06
649.665	10.66
649.853	10.52
650.041	10.6
650.229	12.37
650.417	12.83
650.604	12.35
650.792	13.08
650.98	11.16
651.168	10.99
651.355	10.18
651.543	9.47
651.731	7.82
651.918	7.46
652.106	9.08
652.294	10.06
652.481	11.19
652.669	11.36
652.856	12.5
653.044	12.89
653.231	13.22
653.419	12.86
653.606	12.07
653.794	13.48
653.981	13.11
654.169	12.65
654.356	10.93
654.544	11.74
654.731	10.72
654.919	9.47
655.106	8.71
655.294	10.11
655.481	12.07
655.668	12.67
655.856	12.51
656.043	12.99
656.23	12.63
656.418	13.42
656.605	13.44
656.792	13.12
656.979	13.59
657.167	13.56
657.354	11.92
657.541	11.99
657.728	10.86
657.916	9.7
658.103	10.32
658.29	12.66
658.477	11.95
658.664	12.23
658.851	14.03
659.038	14.61
659.225	13.66
659.412	13.06
659.6	13
659.787	14.89
659.974	13.86
660.161	14.57
660.348	12.7
660.535	15.76
660.722	15
660.909	12.94
661.095	14.26
661.282	16.71
661.469	17.24
661.656	16.98
661.843	18.08
662.03	18.08
662.217	15.38
662.404	15.99
662.59	14.53
662.777	14.92
662.964	14.61
663.151	14.9
663.338	14.27
663.524	13.63
663.711	11.62
663.898	11.8
664.085	12.16
664.271	13.08
664.458	10.86
664.645	11.26
664.831	12.01
665.018	11.01
665.204	10.01
665.391	9.08
665.578	8.67
665.764	8.86
665.951	8.35
666.137	8.53
666.324	7.49
666.51	9.19
666.697	8.61
666.883	9.99
667.07	8.73
667.256	9.33
667.443	9.86
667.629	9.73
667.816	9.29
668.002	8.19
668.188	7.78
668.375	8.14
668.561	8.01
668.747	6.66
668.934	6.18
669.12	7
669.306	6.31
669.493	7.12
669.679	7.37
669.865	7.55
670.051	7.9
670.238	7.97
670.424	8.06
670.61	7.52
670.796	6.07
670.982	6.53
671.169	6.52
671.355	4.97
671.541	6.34
671.727	7.56
671.913	8.41
672.099	7.94
672.285	7.44
672.471	9.01
672.657	11.18
672.843	12.32
673.029	12.86
673.215	14.81
673.401	15.97
673.587	13.85
673.773	14.25
673.959	14.7
674.145	14.08
674.331	14.62
674.517	15.06
674.703	15.6
674.888	16.11
675.074	15.98
675.26	16.84
675.446	14.91
675.632	12.6
675.817	11.47
676.003	11.64
676.189	11.21
676.375	10.19
676.56	9.1
676.746	9
676.932	6.82
677.117	6.3
677.303	4.5
677.489	5.62
677.674	5.13
677.86	4.68
678.046	5.2
678.231	5.24
678.417	4.89
678.602	3.79
678.788	4.8
678.973	5.16
679.159	6.24
679.344	8.29
679.53	10.24
679.715	9.96
679.901	10.04
680.086	10.62
680.272	9.69
680.457	9.59
680.643	9.22
680.828	9.58
681.013	8.9
681.199	9.84
681.384	10.48
681.569	11.46
681.755	11.81
681.94	11.72
682.125	11.11
682.31	12.48
682.496	12.64
682.681	12.89
682.866	11.8
683.051	10.07
683.237	10.86
683.422	11.34
683.607	11.55
683.792	12.09
683.977	11.09
684.162	9.95
684.347	10.12
684.532	9.97
684.717	10.13
684.903	11.54
685.088	11.22
685.273	10.9
685.458	9.67
685.643	10.67
685.828	10.87
686.013	10.68
686.198	10.37
686.382	11.84
686.567	10.33
686.752	10.97
686.937	11.88
687.122	10.76
687.307	9.88
687.492	11.16
687.677	9.96
687.861	10.68
688.046	11.45
688.231	12.24
688.416	13.09
688.601	13.74
688.785	12.75
688.97	13.09
689.155	14.51
689.339	14.45
689.524	13.89
689.709	14.07
689.893	14.76
690.078	13.74
690.263	13.54
690.447	14.14
690.632	13.37
690.816	14.7
691.001	13.91
691.186	14.52
691.37	13.38
691.555	13.96
691.739	14.83
691.924	15.96
692.108	15.68
692.293	15.79
692.477	15.49
692.661	15.82
692.846	14.35
693.03	13.35
693.215	13.04
693.399	12.04
693.583	10.98
693.768	9.98
693.952	10.8
694.136	10.56
694.321	10.62
694.505	11.01
694.689	11.09
694.873	12.12
695.058	10.44
695.242	11.02
695.426	11.61
695.61	10.3
695.794	10.35
695.979	9.86
696.163	9.23
696.347	9.48
696.531	7.9
696.715	9
696.899	9.89
697.083	9.03
697.267	11.14
697.451	11.24
697.635	11.99
697.819	11.45
698.003	11.23
698.187	10.57
698.371	11.75
698.555	11.52
698.739	12.26
698.923	13.39
699.107	13.16
699.291	12.39
699.475	12.12
699.659	11.96
699.842	11.67
700.026	10.9
700.21	10.37
700.394	11.26
700.578	11.05
700.761	9.98
700.945	12.21
701.129	10.98
701.313	10.79
701.496	11.03
701.68	11.26
701.864	11.44
702.047	12.65
702.231	12.68
702.415	11.25
702.598	9.06
702.782	9.3
702.965	9.84
703.149	10.77
703.333	11.27
703.516	11.6
703.7	12.07
703.883	11.73
704.067	11.91
704.25	11.95
704.434	10.71
704.617	10.16
704.801	10.37
704.984	9.86
705.167	9.45
705.351	8.76
705.534	8.03
705.718	8.48
705.901	7.71
706.084	6.74
706.268	7.81
706.451	7.56
706.634	8
706.817	6.87
707.001	5.78
707.184	5.89
707.367	4.31
707.55	3.54
707.734	4.99
707.917	4.98
708.1	5.12
708.283	6.07
708.466	7.14
708.649	5.89
708.832	5.12
709.015	6.44
709.199	5.77
709.382	5.67
709.565	5.56
709.748	6.17
709.931	6.32
710.114	5.54
710.297	5.45
710.48	4.69
710.663	5.47
710.846	5.99
711.028	5.25
711.211	5.72
711.394	6.41
711.577	4.63
711.76	3.96
711.943	3.15
712.126	3.2
712.309	3.16
712.491	4.48
712.674	4.06
712.857	4.63
713.04	6.69
713.222	6.12
713.405	5.81
713.588	5.25
713.771	5.88
713.953	5.86
714.136	7.63
714.319	9.06
714.501	7.83
714.684	6.76
714.866	7.8
715.049	8.43
715.232	7.38
715.414	6.99
715.597	7.53
715.779	7.62
715.962	9.04
716.144	8.97
716.327	7.81
716.509	8.96
716.692	8.04
716.874	6.64
717.057	7.89
717.239	7.78
717.421	6.95
717.604	5.26
717.786	6.65
717.968	5.66
718.151	3.58
718.333	3.96
718.515	5.41
718.698	3.93
718.88	3.02
719.062	3.62
719.244	5.94
719.427	5.5
719.609	5.9
719.791	3.8
719.973	2.3
720.155	1.83
720.338	2.43
720.52	3.77
720.702	4.99
720.884	5.53
721.066	6.4
721.248	5.48
721.43	6.47
721.612	4.38
721.794	6.2
721.976	7.94
722.158	8.32
722.34	6.8
722.522	8.59
722.704	8.75
722.886	8.5
723.068	7.45
723.25	7.61
723.432	8.57
723.614	9.36
723.796	10.58
723.977	10.36
724.159	9.6
724.341	7.86
724.523	5.46
724.705	4.21
724.886	3.91
725.068	5.38
725.25	6.11
725.432	7.43
725.613	6.43
725.795	5.65
725.977	7.02
726.158	8.02
726.34	7.01
726.522	8.02
726.703	9.51
726.885	8.67
727.066	8.37
727.248	9.39
727.43	9.47
727.611	9.21
727.793	10.24
727.974	10.45
728.156	9.61
728.337	9.92
728.519	10.42
728.7	10.34
728.882	9.85
729.063	7.99
729.244	7.03
729.426	7.36
729.607	7.87
729.788	7.27
729.97	8.01
730.151	8.49
730.332	9
730.514	10.06
730.695	11.81
730.876	12.98
731.058	11.06
731.239	11.25
731.42	11.28
731.601	9.66
731.782	8.35
731.964	9.89
732.145	10.87
732.326	9.44
732.507	8.66
732.688	9.56
732.869	12.1
733.05	12.38
733.231	12.2
733.412	10.84
733.593	10.35
733.774	9.12
733.955	8.93
734.136	8.62
734.317	5.59
734.498	5.6
734.679	4.78
734.86	3.96
735.041	3.26
735.222	4.51
735.403	5.24
735.584	7.11
735.765	7.87
735.946	8.32
736.126	9.8
736.307	10.67
736.488	10.3
736.669	8.41
736.849	7.4
737.03	7.65
737.211	8.75
737.392	8.17
737.572	7.85
737.753	7.45
737.934	7.07
738.114	9.59
738.295	8.55
738.476	7.95
738.656	9.37
738.837	9.01
739.017	8.51
739.198	8.91
739.378	9.67
739.559	9.95
739.74	8.74
739.92	8.02
740.1	7.93
740.281	7.24
740.461	7.52
740.642	9.25
740.822	8.16
741.003	8.23
741.183	8.5
741.363	9.22
741.544	9.44
741.724	8.18
741.904	6.81
742.085	6.66
742.265	6.91
742.445	6.81
742.626	7.37
742.806	6.98
742.986	6.8
743.166	6.02
743.347	4.38
743.527	5.87
743.707	3.81
743.887	2.85
744.067	1.86
744.247	1.55
744.427	2.6
744.608	2.85
744.788	3.48
744.968	3.88
745.148	5.14
745.328	4.54
745.508	4.23
745.688	4.67
745.868	4.2
746.048	3.79
746.228	4.62
746.408	5.36
746.588	4.84
746.767	5.95
746.947	6.94
747.127	6.72
747.307	5.25
747.487	8.53
747.667	9.29
747.847	10.35
748.026	9.28
748.206	8.33
748.386	9.21
748.566	8.19
748.745	7.95
748.925	6.92
749.105	7.34
749.285	8.2
749.464	6.7
749.644	6.32
749.824	7.29
750.003	5.73
750.183	3.5
750.362	4.58
750.542	3.23
750.722	0.79
750.901	0.9
751.081	0.65
751.26	0.9
751.44	0.67
751.619	0.97
751.799	3.06
751.978	0.73
752.158	0.84
752.337	1.35
752.516	1.23
752.696	0.81
752.875	2.54
753.055	2.03
753.234	3.72
753.413	4.53
753.593	6.18
753.772	6.41
753.951	8.39
754.13	8.11
754.31	9.32
754.489	11.12
754.668	11.32
754.847	12.69
755.027	12.36
755.206	13.34
755.385	12.26
755.564	11.79
755.743	13.27
755.922	11.93
756.101	11.09
756.28	11.31
756.46	11.73
756.639	9.22
756.818	10.37
756.997	10.4
757.176	10.64
757.355	7.73
757.534	6.84
757.713	6.62
757.892	6.03
758.07	5.64
758.249	5.84
758.428	5.92
758.607	5.19
758.786	5.27
758.965	3.48
759.144	5.53
759.323	4.86
759.501	3.51
759.68	3.35
759.859	5.1
760.038	5.9
760.216	5.71
760.395	7.34
760.574	6.52
760.753	6.1
760.931	6.68
761.11	8.35
761.289	8.74
761.467	8.31
761.646	8.59
761.824	8.36
762.003	6.18
762.182	5.86
762.36	5.24
762.539	5.79
762.717	7.09
762.896	5.88
763.074	5.69
763.253	6.06
763.431	8.13
763.61	6.31
763.788	6.13
763.966	6.78
764.145	6.91
764.323	6.61
764.502	5.53
764.68	5.55
764.858	2.91
765.037	4.13
765.215	4.28
765.393	4.25
765.571	5.46
765.75	6.09
765.928	7.41
766.106	7.78
766.284	5.99
766.463	5.2
766.641	6.31
766.819	7.78
766.997	8.19
767.175	7.21
767.353	8.13
767.531	7.14
767.71	6.58
767.888	4.78
768.066	3.89
768.244	4.37
768.422	4.02
768.6	8.72
768.778	8.26
768.956	7.45
769.134	7.7
769.312	6.14
769.489	6.09
769.667	4.99
769.845	5.79
770.023	6.87
770.201	7.08
770.379	5.3
770.557	4.17
770.735	4.37
770.912	3.45
771.09	4.36
771.268	4.24
771.446	4.54
771.623	7.32
771.801	9.68
771.979	9.49
772.157	7.91
772.334	5.67
772.512	4.6
772.69	5.93
772.867	4.89
773.045	5.55
773.222	6.22
773.4	6.5
773.577	5.89
773.755	6.12
773.933	5.51
774.11	6.5
774.288	6.34
774.465	7.44
774.643	7.39
774.82	7.38
774.997	8.21
775.175	6.78
775.352	8.21
775.53	8.62
775.707	8.81
775.884	9.17
776.062	10.24
776.239	11.66
776.416	13.44
776.594	13.44
776.771	13.64
776.948	13.7
777.125	14.03
777.303	12.81
777.48	12.04
777.657	11.18
777.834	11.4
778.012	11.76
778.189	12.23
778.366	12.31
778.543	10.92
778.72	10.42
778.897	12.04
779.074	8.88
779.251	9.11
779.428	8.2
779.605	7.77
779.782	5.3
779.959	3.96
780.136	1.97
780.313	3.49
780.49	2.93
780.667	3.62
780.844	4.86
781.021	6.67
781.198	5.75
781.375	8.02
781.552	6.08
781.728	5.12
781.905	4.89
782.082	6.88
782.259	6.91
782.436	7.62
782.612	7.01
782.789	6.96
782.966	5.98
783.143	7.42
783.319	11.28
783.496	13.12
783.673	13.07
783.849	13.48
784.026	12.44
784.203	12.09
784.379	10.77
784.556	8.53
784.732	7.71
784.909	9.15
785.085	8.28
785.262	9.27
785.438	10.73
785.615	10.3
785.791	10.25
785.968	9.55
786.144	9.39
786.321	10.71
786.497	9.1
786.673	7.03
786.85	7.32
787.026	4.28
787.203	4.24
787.379	4.81
787.555	2.78
787.731	1.03
787.908	-0.01
788.084	1.37
788.26	1.21
788.437	4.2
788.613	3.69
788.789	3.6
788.965	3.6
789.141	3.34
789.317	0.58
789.494	-2.04
789.67	-0.9
789.846	-0.61
790.022	-3.89
790.198	-1.45
790.374	-0.56
790.55	-0.85
790.726	-2.36
790.902	-2.79
791.078	-0.83
791.254	0.3
791.43	2.54
791.606	2.92
791.782	4.2
791.958	2.65
792.134	0.51
792.31	1.2
792.486	1.2
792.661	2.63
792.837	6.35
793.013	7.92
793.189	9.29
793.365	9.93
793.54	12.51
793.716	15.1
793.892	15.81
794.068	14.9
794.243	15.95
794.419	16.58
794.595	16.41
794.77	15.54
794.946	16.63
795.122	16.45
795.297	18.03
795.473	16.16
795.648	18.32
795.824	18.18
796	18.06
796.175	18.62
796.351	17.52
796.526	13.42
796.702	14.73
796.877	15.21
797.052	14.88
797.228	10.21
797.403	7.67
797.579	6.97
797.754	9.48
797.929	8.43
798.105	11.81
798.28	11.06
798.455	13.57
798.631	12.8
798.806	13.79
798.981	13.79
799.157	13.97
799.332	14.86
799.507	16.42
799.682	17.31
799.858	16.53
800.033	16.74
800.208	19.13
800.383	18.83
800.558	17.49
800.733	15.66
800.908	18.65
801.083	22.91
801.258	22.7
801.434	24.74
801.609	25.93
801.784	26.17
801.959	25.17
802.134	22.33
802.309	20.2
802.484	16.31
802.658	17.54
802.833	17.3
803.008	16.22
803.183	13.06
803.358	10.92
803.533	12.19
803.708	12.26
803.883	12.92
804.057	11.12
804.232	12.14
804.407	13.94
804.582	14.15
804.756	11.36
804.931	10.93
805.106	6.78
805.281	8.15
805.455	5.96
805.63	7.67
805.805	9.19
805.979	11.68
806.154	14.98
806.328	15.84
806.503	16.27
806.678	18.5
806.852	21.05
807.027	22.07
807.201	19.25
807.376	18.53
807.55	14.55
807.725	13.62
807.899	14.54
808.074	16.73
808.248	14.9
808.422	12.65
808.597	12.87
808.771	14.66
808.946	15.49
809.12	15.92
809.294	16.73
809.468	17.11
809.643	18.44
809.817	18.55
809.991	15.86
810.166	17.52
810.34	14.98
810.514	15.06
810.688	14.32
810.862	14.57
811.037	17.9
811.211	21
811.385	25.04
811.559	25.46
811.733	24.87
811.907	25.14
812.081	26.32
812.255	25.66
812.429	23.71
812.603	21.14
812.777	20.19
812.951	20.27
813.125	19.67
813.299	15.5
813.473	11.44
813.647	11.03
813.821	10.15
813.995	12.19
814.169	11.07
814.343	14.84
814.516	17.13
814.69	14.57
814.864	13.81
815.038	11.12
815.212	11.92
815.385	8.65
815.559	9.64
815.733	9.54
815.907	10.43
816.08	12.65
816.254	12.27
816.428	13.35
816.601	12.58
816.775	11.28
816.948	12.16
817.122	17.52
817.296	17.98
817.469	17.32
817.643	16.87
817.816	17.58
817.99	15.99
818.163	19.01
818.337	18.43
818.51	17.12
818.684	17.74
818.857	16.34
819.031	15.59
819.204	15.02
819.377	17.49
819.551	16.61
819.724	14.75
819.897	17.72
820.071	20.13
820.244	17.24
820.417	19.67
820.591	22.56
820.764	19.05
820.937	18.8
821.11	18.94
821.284	19.46
821.457	21.25
821.63	20.62
821.803	19.54
821.976	21.21
822.149	22.86
822.322	27.16
822.496	27.62
822.669	29.08
822.842	29.08
823.015	27.68
823.188	29.48
823.361	33.09
823.534	29.84
823.707	24.61
823.88	25.41
824.053	21.82
824.226	17.45
824.399	21.79
824.571	23.42
824.744	21.34
824.917	20.88
825.09	20.79
825.263	21.52
825.436	22.2
825.608	20.68
825.781	22.95
825.954	17.71
826.127	17.3
826.299	16.83
826.472	15.54
826.645	19.09
826.818	17.58
826.99	14.86
827.163	16.63
827.336	17.21
827.508	16.64
827.681	19.08
827.853	20.65
828.026	19.24
828.198	18.5
828.371	22.4
828.544	21.38
828.716	18.49
828.889	17.06
829.061	12.54
829.233	13.03
829.406	7.04
829.578	4.49
829.751	4.31
829.923	6.67
830.096	5.21
830.268	-0.42
830.44	3.26
830.613	7.53
830.785	8.14
830.957	10.37
831.129	13.72
831.302	14.72
831.474	13.49
831.646	13.12
831.818	13.86
831.991	12.52
832.163	15.38
832.335	15.71
832.507	15.41
832.679	16.79
832.851	17.93
833.023	19.02
833.195	23.7
833.368	21.61
833.54	21.18
833.712	22.62
833.884	27.36
834.056	24.89
834.228	19.85
834.4	21.13
834.571	21.67
834.743	18.88
834.915	18.49
835.087	19.38
835.259	19.89
835.431	19.3
835.603	15.79
835.775	13.81
835.946	14.3
836.118	16.55
836.29	15.58
836.462	13.54
836.634	17.85
836.805	16.18
836.977	19.93
837.149	18.26
837.32	18.03
837.492	18.16
837.664	16.84
837.835	19.44
838.007	10.35
838.179	9.01
838.35	12.03
838.522	14.44
838.693	14.12
838.865	5.19
839.036	1.7
839.208	4.07
839.379	5.33
839.551	8.3
839.722	8.92
839.894	6.5
840.065	5.68
840.237	3.49
840.408	3.22
840.579	4.04
840.751	4.53
840.922	3.62
841.093	-0.19
841.265	-1.14
841.436	2.08
841.607	9.83
841.778	7.45
841.95	4.11
842.121	-1.45
842.292	-0.36
842.463	7.93
842.635	12.96
842.806	13.98
842.977	10.52
843.148	5.07
843.319	3.87
843.49	7.87
843.661	8.3
843.832	9.68
844.003	13.03
844.174	12.21
844.345	18.51
844.516	20.04
844.687	25.94
844.858	31.46
845.029	28.19
845.2	22.18
845.371	22.71
845.542	24.63
845.713	20.49
845.884	19.11
846.055	12.51
846.225	11.52
846.396	10.71
846.567	12.78
846.738	15.31
846.909	15.42
847.079	12.75
847.25	14.46
847.421	7.58
847.591	-1.19
847.762	-5.08
847.933	-12.19
848.103	-11.63
848.274	-17.91
848.445	-22.03
848.615	-19.26
848.786	-19.73
848.956	-16.86
849.127	-9.53
849.297	3.68
849.468	2.88
849.638	11.07
849.809	10.77
849.979	10.8
850.15	10.16
850.32	12.53
850.491	7.74
850.661	14.55
850.831	16.27
851.002	23.66
851.172	29.75
851.342	30.87
851.513	32.49
851.683	30.98
851.853	31.24
852.024	31.61
852.194	27.59
852.364	30.04
852.534	36.28
852.705	34.96
852.875	30.76
853.045	36.18
853.215	37.65
853.385	36.27
853.555	36.12
853.725	33.83
853.895	30
854.066	34.26
854.236	32.01
854.406	32.37
854.576	29.24
854.746	26.57
854.916	32.22
855.086	31.5
855.256	34.11
855.425	40.07
855.595	44.46
855.765	39.89
855.935	33.24
856.105	21.22
856.275	16.71
856.445	16.66
856.614	11.39
856.784	9.58
856.954	13.76
857.124	12.77
857.294	18.95
857.463	19.17
857.633	20.73
857.803	19.89
857.972	17.15
858.142	19.99
858.312	23.52
858.481	19.55
858.651	12.7
858.821	16.23
858.99	7.75
859.16	4.34
859.329	12.27
859.499	21.45
859.668	33.98
859.838	38.22
860.007	45.17
860.177	47.5
860.346	44.67
860.516	39.67
860.685	39.04
860.854	34.56
861.024	36.84
861.193	31.85
861.363	33.41
861.532	36
861.701	32.34
861.87	28.89
862.04	32.36
862.209	36.77
862.378	31.85
862.547	33.91
862.717	28.94
862.886	31.31
863.055	25.71
863.224	19.38
863.393	14.87
863.563	6.09
863.732	5.39
863.901	2.97
864.07	7.22
864.239	8.79
864.408	5.79
864.577	2.81
864.746	6.23
864.915	0.06
865.084	4.04
865.253	6.34
865.422	12.94
865.591	10.86
865.76	10.22
865.929	11.01
866.097	11.08
866.266	9.21
866.435	2.24
866.604	2.41
866.773	3.46
866.942	4.75
867.11	6.55
867.279	10.43
867.448	20.39
867.617	16.47
867.785	15.82
867.954	23.2
868.123	33.06
868.291	27.51
868.46	42.81
868.629	40.18
868.797	39.04
868.966	31.55
869.134	38.28
869.303	38.33
869.472	37.53
869.64	37.62
869.809	43
869.977	44.94
870.146	56.53
870.314	61.63
870.482	60.83
870.651	57.38
870.819	52.88
870.988	50.72
871.156	59.09
871.324	63.47
871.493	60.97
871.661	64.72
871.829	75.09
871.998	74.24
872.166	72.94
872.334	76
872.502	68.81
872.671	58.44
872.839	61.71
873.007	63.97
873.175	65.07
873.343	66.5
873.512	65.02
873.68	58.9
873.848	52.33
874.016	54
874.184	55.18
874.352	57.02
874.52	62.32
874.688	57.37
874.856	53.45
875.024	49.45
875.192	44.17
875.36	39.81
875.528	35.12
875.696	39.51
875.864	34.74
876.032	36.41
876.199	40.8
876.367	37.68
876.535	37.1
876.703	31.56
876.871	24.82
877.039	38.97
877.206	42.06
877.374	49.26
877.542	51.59
877.71	54.98
877.877	58.7
878.045	59
878.213	58.77
878.38	71.19
878.548	81.83
878.715	83.62
878.883	88.62
879.051	107.56
879.218	90.27
879.386	90.48
879.553	91.09
879.721	95.32
879.888	101.5
880.056	117.66
880.223	130.7
880.391	157.4
880.558	134.84
880.726	123.88
880.893	111.91
881.06	94.31
881.228	98.57
881.395	77.61
881.562	68.18
881.73	62.62
881.897	50.2
882.064	48.74
882.231	30.63
882.399	24.79
882.566	18.58
882.733	26.6
882.9	9.86
883.068	21.98
883.235	17.03
883.402	-4.16
883.569	-3.69
883.736	13.29
883.903	13.19
884.07	18.09
884.237	2.69
884.404	12.49
884.571	15.32
884.738	23.13
884.905	31.48
885.072	30.31
885.239	47.34
885.406	50.48
