#Video File Name: 14_exploration_4.avi
#Project ID: 14_exploration_4
#Event codes:
#1 also bal [hideg sarok]
#2 also kozepso
#3 also jobb
#4 kozepso bal
#5 kozepso kozep
#6 kozepso jobb
#7 felso bal
#8 felso kozep
#9 felso jobb [meleg sarok]
#q rejtekhely in [Q out]
#a napozas in [A out]
#z teljes test ki
#s inaktiv [S out]
#Field separator: ;
#MWrap version: Wed Feb 14 09:50:29 CET 2018
#id;description;key;time;duration;object id
1;kozepso kozep;5;0.50;0.00;1
2;kozepso jobb;6;28.00;0.00;1
3;kozepso kozep;5;59.50;0.00;1
4;kozepso jobb;6;60.00;0.00;1
#5;felso jobb [meleg sarok];9;64.00;0.00;1
6;felso jobb [meleg sarok];9;65.50;0.00;1
7;felso kozep;8;67.00;0.00;1
#8;kozepso kozep;5;76.00;0.00;1
9;felso bal;7;81.50;0.00;1
10;felso kozep;8;96.00;0.00;1
11;kozepso kozep;5;97.00;0.00;1
12;kozepso jobb;6;102.00;0.00;1
13;kozepso kozep;5;104.00;0.00;1
14;felso kozep;8;104.50;0.00;1
15;felso jobb [meleg sarok];9;107.00;0.00;1
16;kozepso jobb;6;109.50;0.00;1
17;kozepso kozep;5;119.50;0.00;1
18;kozepso jobb;6;120.50;0.00;1
19;kozepso kozep;5;127.50;0.00;1
20;felso kozep;8;128.00;0.00;1
21;kozepso kozep;5;132.00;0.00;1
22;kozepso jobb;6;134.00;0.00;1
#23;felso jobb [meleg sarok];9;135.00;0.00;1
24;kozepso kozep;5;138.50;0.00;1
25;felso kozep;8;144.00;0.00;1
26;felso bal;7;148.50;0.00;1
27;kozepso bal;4;152.50;0.00;1
28;kozepso kozep;5;164.50;0.00;1
29;also kozepso;2;165.00;0.00;1
30;also jobb;3;169.50;0.00;1
31;kozepso jobb;6;171.00;0.00;1
32;felso jobb [meleg sarok];9;173.00;0.00;1
33;rejtekhely in [Q out];q;176.00;0.00;1
34;q-end;Q;184.00;8.00;1
35;felso kozep;8;184.00;0.00;1
36;felso jobb [meleg sarok];9;195.50;0.00;1
37;kozepso jobb;6;247.50;0.00;1
38;also jobb;3;251.50;0.00;1
39;also kozepso;2;255.00;0.00;1
#40;also bal [hideg sarok];1;256.50;0.00;1
41;also bal [hideg sarok];1;258.00;0.00;1
42;kozepso bal;4;259.00;0.00;1
43;felso bal;7;262.50;0.00;1
44;felso kozep;8;267.00;0.00;1
45;felso jobb [meleg sarok];9;271.00;0.00;1
46;kozepso jobb;6;298.50;0.00;1
47;also jobb;3;299.50;0.00;1
48;also kozepso;2;303.00;0.00;1
49;also bal [hideg sarok];1;304.50;0.00;1
50;kozepso bal;4;307.50;0.00;1
51;felso bal;7;312.00;0.00;1
52;felso kozep;8;313.50;0.00;1
53;felso bal;7;320.50;0.00;1
54;felso kozep;8;327.50;0.00;1
55;felso bal;7;333.50;0.00;1
56;felso kozep;8;334.50;0.00;1
57;felso bal;7;335.00;0.00;1
58;kozepso bal;4;336.00;0.00;1
59;also bal [hideg sarok];1;337.00;0.00;1
60;also kozepso;2;339.50;0.00;1
61;also bal [hideg sarok];1;340.50;0.00;1
62;kozepso bal;4;358.00;0.00;1
63;kozepso kozep;5;369.00;0.00;1
64;also jobb;3;374.00;0.00;1
65;kozepso jobb;6;377.50;0.00;1
66;kozepso kozep;5;378.50;0.00;1
67;felso kozep;8;379.00;0.00;1
68;felso jobb [meleg sarok];9;403.00;0.00;1
69;felso kozep;8;411.00;0.00;1
70;felso jobb [meleg sarok];9;415.00;0.00;1
71;felso kozep;8;419.00;0.00;1
72;rejtekhely in [Q out];q;429.00;0.00;1
73;q-end;Q;430.50;1.50;1
74;kozepso jobb;6;430.50;0.00;1
75;also jobb;3;431.50;0.00;1
76;kozepso jobb;6;439.50;0.00;1
77;kozepso kozep;5;440.00;0.00;1
78;felso kozep;8;440.50;0.00;1
79;felso bal;7;467.00;0.00;1
80;kozepso bal;4;467.50;0.00;1
81;rejtekhely in [Q out];q;470.00;0.00;1
82;q-end;Q;474.00;4.00;1
83;kozepso kozep;5;474.50;0.00;1
84;also kozepso;2;480.50;0.00;1
85;kozepso kozep;5;481.00;0.00;1
86;kozepso bal;4;481.50;0.00;1
87;kozepso kozep;5;483.50;0.00;1
88;rejtekhely in [Q out];q;491.00;0.00;1
89;q-end;Q;498.00;7.00;1
90;kozepso jobb;6;498.50;0.00;1
91;teljes test ki;z;501.50;0.00;1
92;felso jobb [meleg sarok];9;507.00;0.00;1
93;rejtekhely in [Q out];q;512.00;0.00;1
94;q-end;Q;538.50;26.50;1
95;felso kozep;8;571.50;0.00;1
#96;undefined; ;610.00;0.00;1
97;felso bal;7;609.50;0.00;1
98;felso kozep;8;610.00;0.00;1
99;felso bal;7;610.50;0.00;1
100;felso kozep;8;612.00;0.00;1
101;felso bal;7;621.00;0.00;1
102;kozepso bal;4;621.50;0.00;1
103;also bal [hideg sarok];1;625.50;0.00;1
104;also kozepso;2;627.00;0.00;1
105;also jobb;3;630.50;0.00;1
106;kozepso jobb;6;633.50;0.00;1
107;rejtekhely in [Q out];q;640.00;0.00;1
108;q-end;Q;644.00;4.00;1
109;kozepso kozep;5;644.00;0.00;1
110;rejtekhely in [Q out];q;648.00;0.00;1
111;q-end;Q;660.00;12.00;1
112;also kozepso;2;660.50;0.00;1
113;teljes test ki;z;663.00;0.00;1
114;also bal [hideg sarok];1;666.50;0.00;1
115;kozepso bal;4;672.00;0.00;1
116;felso bal;7;675.00;0.00;1
117;felso kozep;8;675.50;0.00;1
#118;felso jobb [meleg sarok];9;694.00;0.00;1
119;kozepso kozep;5;755.00;0.00;1
120;also kozepso;2;808.50;0.00;1
121;also jobb;3;810.00;0.00;1
122;also kozepso;2;811.00;0.00;1
123;kozepso kozep;5;811.50;0.00;1
124;kozepso jobb;6;812.00;0.00;1
#125;felso jobb [meleg sarok];9;812.50;0.00;1
126;felso kozep;8;812.50;0.00;1
127;felso bal;7;827.00;0.00;1
128;kozepso bal;4;829.00;0.00;1
#129;kozepso bal;4;833.50;0.00;1
130;felso bal;7;833.50;0.00;1
131;felso kozep;8;836.00;0.00;1
132;felso jobb [meleg sarok];9;839.50;0.00;1
133;kozepso jobb;6;846.00;0.00;1
134;kozepso kozep;5;847.50;0.00;1
135;also kozepso;2;861.00;0.00;1
136;also bal [hideg sarok];1;861.00;0.00;1
137;also kozepso;2;863.50;0.00;1
138;also jobb;3;865.50;0.00;1
139;kozepso jobb;6;868.50;0.00;1
140;felso jobb [meleg sarok];9;871.50;0.00;1
141;rejtekhely in [Q out];q;874.00;0.00;1
142;q-end;Q;886.50;12.50;1
143;kozepso jobb;6;887.00;0.00;1
144;rejtekhely in [Q out];q;888.50;0.00;1
145;q-end;Q;893.00;4.50;1
146;kozepso kozep;5;893.50;0.00;1
147;kozepso bal;4;894.00;0.00;1
148;felso kozep;8;894.00;0.00;1
149;felso jobb [meleg sarok];9;903.50;0.00;1
150;felso kozep;8;936.50;0.00;1
151;felso bal;7;1007.50;0.00;1
152;kozepso bal;4;1008.00;0.00;1
153;also bal [hideg sarok];1;1010.00;0.00;1
154;also kozepso;2;1010.50;0.00;1
155;also jobb;3;1013.00;0.00;1
156;kozepso jobb;6;1016.00;0.00;1
157;felso jobb [meleg sarok];9;1021.00;0.00;1
158;felso kozep;8;1027.00;0.00;1
159;felso bal;7;1036.00;0.00;1
#160;kozepso bal;4;1043.00;0.00;1
161;kozepso bal;4;1042.50;0.00;1
162;kozepso kozep;5;1044.00;0.00;1
163;kozepso bal;4;1045.50;0.00;1
164;also bal [hideg sarok];1;1046.00;0.00;1
#165;also kozepso;2;1049.00;0.00;1
166;also kozepso;2;1069.00;0.00;1
167;also jobb;3;1074.50;0.00;1
168;kozepso jobb;6;1077.00;0.00;1
169;felso jobb [meleg sarok];9;1082.00;0.00;1
170;felso kozep;8;1094.50;0.00;1
171;felso bal;7;1128.00;0.00;1
172;kozepso bal;4;1130.50;0.00;1
173;also bal [hideg sarok];1;1135.00;0.00;1
174;also kozepso;2;1142.00;0.00;1
175;also jobb;3;1144.50;0.00;1
176;kozepso jobb;6;1148.50;0.00;1
177;felso jobb [meleg sarok];9;1152.50;0.00;1
178;felso kozep;8;1160.50;0.00;1
179;felso bal;7;1200.50;0.00;1
180;felso kozep;8;1208.50;0.00;1
181;kozepso bal;4;1209.50;0.00;1
182;also bal [hideg sarok];1;1215.50;0.00;1
183;also kozepso;2;1222.00;0.00;1
184;also jobb;3;1226.00;0.00;1
185;kozepso jobb;6;1231.50;0.00;1
186;kozepso kozep;5;1232.50;0.00;1
187;felso kozep;8;1233.00;0.00;1
188;felso jobb [meleg sarok];9;1242.50;0.00;1
189;felso kozep;8;1252.00;0.00;1
190;felso jobb [meleg sarok];9;1256.50;0.00;1
191;kozepso jobb;6;1272.00;0.00;1
192;also jobb;3;1273.00;0.00;1
193;kozepso jobb;6;1276.50;0.00;1
194;felso jobb [meleg sarok];9;1278.00;0.00;1
195;felso kozep;8;1294.00;0.00;1
196;felso bal;7;1297.00;0.00;1
197;kozepso bal;4;1302.00;0.00;1
198;kozepso kozep;5;1326.50;0.00;1
199;also kozepso;2;1329.00;0.00;1
200;also bal [hideg sarok];1;1330.50;0.00;1
201;also kozepso;2;1332.50;0.00;1
202;rejtekhely in [Q out];q;1334.00;0.00;1
203;q-end;Q;1340.50;6.50;1
204;also jobb;3;1340.00;0.00;1
205;teljes test ki;z;1341.50;0.00;1
206;kozepso jobb;6;1351.00;0.00;1
207;felso jobb [meleg sarok];9;1354.50;0.00;1
208;felso kozep;8;1407.00;0.00;1
209;felso bal;7;1410.50;0.00;1
210;kozepso bal;4;1416.00;0.00;1
211;kozepso kozep;5;1420.50;0.00;1
212;also kozepso;2;1421.50;0.00;1
213;also bal [hideg sarok];1;1422.00;0.00;1
214;also kozepso;2;1424.50;0.00;1
215;also jobb;3;1426.00;0.00;1
216;kozepso jobb;6;1428.00;0.00;1
217;rejtekhely in [Q out];q;1438.00;0.00;1
218;q-end;Q;1475.00;37.00;1
219;felso jobb [meleg sarok];9;1483.50;0.00;1
220;rejtekhely in [Q out];q;1484.50;0.00;1
221;q-end;Q;1509.00;24.50;1
222;teljes test ki;z;1522.00;0.00;1
223;felso kozep;8;1532.00;0.00;1
224;kozepso kozep;5;1570.50;0.00;1
#225;also kozepso;2;1575.00;0.00;1
226;kozepso bal;4;1575.50;0.00;1
227;also kozepso;2;1576.50;0.00;1
#228;rejtekhely in [Q out];q;1579.50;0.00;1
229;kozepso kozep;5;1588.00;0.00;1
230;felso kozep;8;1593.50;0.00;1
231;felso bal;7;1652.50;0.00;1
232;kozepso bal;4;1654.00;0.00;1
233;also bal [hideg sarok];1;1657.50;0.00;1
234;also kozepso;2;1661.50;0.00;1
235;also jobb;3;1664.50;0.00;1
236;kozepso jobb;6;1665.50;0.00;1
237;felso jobb [meleg sarok];9;1669.00;0.00;1
238;felso kozep;8;1694.00;0.00;1
239;felso bal;7;1696.00;0.00;1
240;kozepso bal;4;1698.00;0.00;1
241;kozepso kozep;5;1698.50;0.00;1
242;kozepso bal;4;1699.00;0.00;1
243;kozepso kozep;5;1699.50;0.00;1
244;kozepso bal;4;1702.50;0.00;1
245;also bal [hideg sarok];1;1703.50;0.00;1
246;also kozepso;2;1704.00;0.00;1
247;also jobb;3;1708.00;0.00;1
248;kozepso jobb;6;1708.50;0.00;1
249;felso jobb [meleg sarok];9;1714.50;0.00;1
#250;felso kozep;8;1749.50;0.00;1
251;kozepso kozep;5;1750.00;0.00;1
#252;also kozepso;2;1758.50;0.00;1
253;kozepso bal;4;1758.50;0.00;1
254;also bal [hideg sarok];1;1759.00;0.00;1
255;also kozepso;2;1761.00;0.00;1
256;rejtekhely in [Q out];q;1761.50;0.00;1
257;q-end;Q;1765.50;4.00;1
258;also jobb;3;1765.50;0.00;1
259;kozepso jobb;6;1766.50;0.00;1
260;felso jobb [meleg sarok];9;1771.00;0.00;1
#261;rejtekhely in [Q out];q;1808.50;0.00;1
262;rejtekhely in [Q out];q;1811.50;0.00;1
263;q-end;Q;1821.00;9.50;1
264;felso kozep;8;1821.50;0.00;1
265;felso jobb [meleg sarok];9;1841.00;0.00;1
