#Video File Name: 12_exploration_2.avi
#Project ID: 12_exploration_2
#Event codes:
#1 also bal [hideg sarok]
#2 also kozepso
#3 also jobb
#4 kozepso bal
#5 kozepso kozep
#6 kozepso jobb
#7 felso bal
#8 felso kozep
#9 felso jobb [meleg sarok]
#q rejtekhely in [Q out]
#a napozas in [A out]
#z teljes test ki
#s inaktiv [S out]
#Field separator: ;
#MWrap version: Wed Feb 14 09:50:29 CET 2018
#id;description;key;time;duration;object id
1;felso jobb [meleg sarok];9;0.50;0.00;1
2;kozepso jobb;6;73.00;0.00;1
3;kozepso jobb;6;89.50;0.00;1
4;felso kozep;8;109.50;0.00;1
5;felso bal;7;110.50;0.00;1
6;kozepso bal;4;118.50;0.00;1
7;kozepso kozep;5;119.00;0.00;1
8;kozepso bal;4;120.00;0.00;1
9;also bal [hideg sarok];1;121.50;0.00;1
10;also kozepso;2;122.00;0.00;1
11;also bal [hideg sarok];1;122.50;0.00;1
12;kozepso bal;4;126.50;0.00;1
13;felso bal;7;129.00;0.00;1
#14;felso kozep;8;131.00;0.00;1
15;felso kozep;8;133.50;0.00;1
16;felso bal;7;135.50;0.00;1
17;felso kozep;8;136.00;0.00;1
18;felso jobb [meleg sarok];9;139.50;0.00;1
19;kozepso jobb;6;155.00;0.00;1
20;also jobb;3;157.00;0.00;1
21;also kozepso;2;159.00;0.00;1
22;also bal [hideg sarok];1;160.00;0.00;1
23;also kozepso;2;161.00;0.00;1
24;also jobb;3;161.50;0.00;1
25;kozepso jobb;6;163.50;0.00;1
26;felso jobb [meleg sarok];9;165.00;0.00;1
27;felso kozep;8;177.00;0.00;1
28;felso bal;7;189.50;0.00;1
29;kozepso bal;4;191.50;0.00;1
30;kozepso kozep;5;193.00;0.00;1
31;also bal [hideg sarok];1;193.50;0.00;1
32;also kozepso;2;194.50;0.00;1
33;also jobb;3;195.50;0.00;1
34;kozepso jobb;6;199.00;0.00;1
35;felso jobb [meleg sarok];9;201.00;0.00;1
#36;felso kozep;8;213.50;0.00;1
37;felso kozep;8;215.50;0.00;1
38;felso bal;7;216.50;0.00;1
39;kozepso bal;4;219.00;0.00;1
40;also bal [hideg sarok];1;221.50;0.00;1
41;also kozepso;2;226.50;0.00;1
42;also jobb;3;228.00;0.00;1
43;kozepso jobb;6;229.50;0.00;1
44;felso jobb [meleg sarok];9;230.50;0.00;1
45;felso kozep;8;238.50;0.00;1
46;felso bal;7;239.50;0.00;1
47;felso kozep;8;241.50;0.00;1
48;felso jobb [meleg sarok];9;242.50;0.00;1
49;kozepso jobb;6;251.50;0.00;1
50;also jobb;3;255.50;0.00;1
51;kozepso jobb;6;256.50;0.00;1
52;felso jobb [meleg sarok];9;258.50;0.00;1
53;felso kozep;8;272.50;0.00;1
54;felso bal;7;283.00;0.00;1
55;kozepso bal;4;284.00;0.00;1
56;also bal [hideg sarok];1;286.50;0.00;1
57;kozepso bal;4;290.00;0.00;1
58;felso bal;7;292.00;0.00;1
59;kozepso bal;4;296.00;0.00;1
60;also bal [hideg sarok];1;299.00;0.00;1
61;also kozepso;2;307.50;0.00;1
62;also jobb;3;310.00;0.00;1
63;kozepso jobb;6;311.50;0.00;1
64;felso jobb [meleg sarok];9;313.00;0.00;1
65;felso kozep;8;316.50;0.00;1
66;felso bal;7;318.00;0.00;1
67;felso kozep;8;319.00;0.00;1
68;felso jobb [meleg sarok];9;320.00;0.00;1
69;felso kozep;8;323.00;0.00;1
70;felso bal;7;324.50;0.00;1
71;felso kozep;8;324.50;0.00;1
72;felso bal;7;325.00;0.00;1
73;kozepso bal;4;326.00;0.00;1
74;also bal [hideg sarok];1;329.00;0.00;1
75;also kozepso;2;329.50;0.00;1
76;also jobb;3;330.50;0.00;1
77;also kozepso;2;331.50;0.00;1
78;also jobb;3;331.50;0.00;1
79;kozepso jobb;6;333.00;0.00;1
80;felso jobb [meleg sarok];9;334.50;0.00;1
81;felso kozep;8;340.50;0.00;1
82;felso bal;7;342.50;0.00;1
83;felso kozep;8;344.00;0.00;1
84;felso bal;7;344.50;0.00;1
85;kozepso bal;4;345.00;0.00;1
86;kozepso kozep;5;346.00;0.00;1
87;kozepso bal;4;346.50;0.00;1
88;also bal [hideg sarok];1;347.00;0.00;1
89;also kozepso;2;348.50;0.00;1
90;also jobb;3;349.50;0.00;1
91;kozepso jobb;6;351.00;0.00;1
92;felso jobb [meleg sarok];9;352.50;0.00;1
93;felso kozep;8;357.50;0.00;1
94;felso bal;7;390.50;0.00;1
95;kozepso bal;4;392.50;0.00;1
96;also bal [hideg sarok];1;394.50;0.00;1
97;also kozepso;2;395.00;0.00;1
98;also jobb;3;396.50;0.00;1
99;kozepso jobb;6;399.00;0.00;1
100;felso jobb [meleg sarok];9;400.00;0.00;1
101;felso kozep;8;402.50;0.00;1
102;felso bal;7;403.50;0.00;1
103;felso kozep;8;404.50;0.00;1
104;felso bal;7;405.50;0.00;1
105;felso kozep;8;407.50;0.00;1
106;felso bal;7;408.00;0.00;1
107;kozepso bal;4;408.50;0.00;1
108;kozepso kozep;5;409.00;0.00;1
#109;kozepso bal;4;410.00;0.00;1
110;also kozepso;2;410.50;0.00;1
111;also jobb;3;412.50;0.00;1
112;kozepso jobb;6;413.50;0.00;1
113;felso jobb [meleg sarok];9;414.50;0.00;1
114;felso kozep;8;417.50;0.00;1
115;felso bal;7;418.00;0.00;1
116;kozepso bal;4;420.50;0.00;1
117;kozepso kozep;5;421.50;0.00;1
118;kozepso jobb;6;427.50;0.00;1
119;felso jobb [meleg sarok];9;432.00;0.00;1
120;felso kozep;8;449.50;0.00;1
121;felso bal;7;457.50;0.00;1
122;kozepso bal;4;458.50;0.00;1
123;also bal [hideg sarok];1;460.50;0.00;1
124;also kozepso;2;461.00;0.00;1
125;also jobb;3;463.00;0.00;1
126;kozepso jobb;6;464.00;0.00;1
127;felso jobb [meleg sarok];9;465.50;0.00;1
128;felso kozep;8;468.50;0.00;1
129;felso bal;7;469.50;0.00;1
#130;felso kozep;8;471.00;0.00;1
131;felso kozep;8;470.50;0.00;1
132;kozepso kozep;5;471.50;0.00;1
133;kozepso jobb;6;474.50;0.00;1
134;kozepso kozep;5;481.00;0.00;1
135;felso kozep;8;485.00;0.00;1
136;rejtekhely in [Q out];q;486.50;0.00;1
137;q-end;Q;489.00;2.50;1
138;felso jobb [meleg sarok];9;489.00;0.00;1
139;felso kozep;8;500.00;0.00;1
140;felso bal;7;502.50;0.00;1
141;kozepso bal;4;503.00;0.00;1
142;kozepso kozep;5;503.00;0.00;1
143;also kozepso;2;504.00;0.00;1
144;also jobb;3;506.00;0.00;1
145;kozepso jobb;6;506.50;0.00;1
146;felso jobb [meleg sarok];9;507.50;0.00;1
147;felso kozep;8;509.50;0.00;1
148;felso bal;7;510.00;0.00;1
149;felso kozep;8;511.50;0.00;1
150;felso jobb [meleg sarok];9;512.00;0.00;1
151;kozepso jobb;6;516.00;0.00;1
152;kozepso kozep;5;518.50;0.00;1
153;felso kozep;8;520.00;0.00;1
154;felso bal;7;520.50;0.00;1
155;kozepso bal;4;523.00;0.00;1
156;also bal [hideg sarok];1;525.50;0.00;1
157;also kozepso;2;526.00;0.00;1
158;rejtekhely in [Q out];q;526.00;0.00;1
159;q-end;Q;527.00;1.00;1
160;also jobb;3;527.00;0.00;1
161;kozepso jobb;6;527.50;0.00;1
162;felso jobb [meleg sarok];9;528.50;0.00;1
163;felso kozep;8;539.00;0.00;1
164;felso bal;7;540.50;0.00;1
165;kozepso bal;4;541.00;0.00;1
166;also bal [hideg sarok];1;543.00;0.00;1
167;also kozepso;2;544.50;0.00;1
168;also bal [hideg sarok];1;546.00;0.00;1
#169;kozepso kozep;5;547.00;0.00;1
170;also kozepso;2;547.00;0.00;1
171;kozepso kozep;5;547.50;0.00;1
172;felso kozep;8;550.00;0.00;1
173;rejtekhely in [Q out];q;550.00;0.00;1
174;q-end;Q;551.50;1.50;1
175;felso jobb [meleg sarok];9;552.00;0.00;1
176;felso kozep;8;554.00;0.00;1
177;felso bal;7;555.00;0.00;1
178;felso kozep;8;556.50;0.00;1
179;felso jobb [meleg sarok];9;557.50;0.00;1
180;kozepso jobb;6;561.50;0.00;1
#181;kozepso jobb;6;563.00;0.00;1
182;felso jobb [meleg sarok];9;563.00;0.00;1
183;felso kozep;8;564.50;0.00;1
184;felso bal;7;565.00;0.00;1
185;felso kozep;8;566.50;0.00;1
186;felso bal;7;569.00;0.00;1
187;kozepso bal;4;575.50;0.00;1
188;also bal [hideg sarok];1;577.00;0.00;1
189;also kozepso;2;578.50;0.00;1
190;also jobb;3;579.50;0.00;1
191;also kozepso;2;581.00;0.00;1
192;also bal [hideg sarok];1;582.50;0.00;1
#193;also kozepso;2;584.50;0.00;1
#194;also kozepso;2;585.50;0.00;1
195;also kozepso;2;584.00;0.00;1
196;also jobb;3;585.00;0.00;1
197;kozepso jobb;6;586.00;0.00;1
198;felso jobb [meleg sarok];9;587.50;0.00;1
199;felso kozep;8;598.50;0.00;1
200;felso bal;7;599.50;0.00;1
#201;felso kozep;8;601.50;0.00;1
202;kozepso bal;4;606.00;0.00;1
203;also kozepso;2;609.00;0.00;1
204;also jobb;3;611.00;0.00;1
205;kozepso jobb;6;612.00;0.00;1
206;felso jobb [meleg sarok];9;613.00;0.00;1
207;kozepso jobb;6;619.50;0.00;1
208;felso jobb [meleg sarok];9;622.00;0.00;1
209;felso kozep;8;635.00;0.00;1
210;felso bal;7;658.00;0.00;1
211;kozepso bal;4;658.50;0.00;1
212;also bal [hideg sarok];1;660.00;0.00;1
213;also kozepso;2;662.00;0.00;1
#214;also jobb;3;663.00;0.00;1
215;also bal [hideg sarok];1;663.50;0.00;1
216;also kozepso;2;665.50;0.00;1
217;also jobb;3;666.00;0.00;1
218;kozepso jobb;6;666.50;0.00;1
219;felso jobb [meleg sarok];9;667.50;0.00;1
220;kozepso jobb;6;671.00;0.00;1
221;kozepso kozep;5;673.50;0.00;1
#222;kozepso bal;4;675.50;0.00;1
223;kozepso bal;4;675.00;0.00;1
224;felso bal;7;675.50;0.00;1
225;felso kozep;8;677.50;0.00;1
#226;felso jobb [meleg sarok];9;681.50;0.00;1
227;felso bal;7;683.00;0.00;1
228;felso kozep;8;684.50;0.00;1
229;felso bal;7;685.00;0.00;1
230;kozepso bal;4;685.50;0.00;1
231;kozepso kozep;5;686.50;0.00;1
232;rejtekhely in [Q out];q;687.00;0.00;1
233;q-end;Q;693.50;6.50;1
234;also kozepso;2;694.00;0.00;1
#235;also jobb;3;696.50;0.00;1
236;also jobb;3;697.50;0.00;1
237;kozepso jobb;6;698.00;0.00;1
238;felso jobb [meleg sarok];9;700.00;0.00;1
239;felso kozep;8;718.50;0.00;1
240;felso bal;7;719.50;0.00;1
241;felso kozep;8;722.00;0.00;1
242;felso bal;7;722.50;0.00;1
243;kozepso bal;4;723.00;0.00;1
244;also bal [hideg sarok];1;725.00;0.00;1
#245;also kozepso;2;725.50;0.00;1
246;also kozepso;2;726.50;0.00;1
247;also jobb;3;728.00;0.00;1
248;kozepso jobb;6;729.00;0.00;1
249;felso jobb [meleg sarok];9;729.50;0.00;1
250;felso kozep;8;732.00;0.00;1
251;felso bal;7;733.00;0.00;1
252;felso kozep;8;735.50;0.00;1
253;felso bal;7;736.00;0.00;1
254;kozepso bal;4;736.50;0.00;1
255;kozepso kozep;5;738.00;0.00;1
256;also kozepso;2;739.50;0.00;1
257;also jobb;3;741.00;0.00;1
258;kozepso jobb;6;741.50;0.00;1
259;felso jobb [meleg sarok];9;743.00;0.00;1
260;felso kozep;8;746.50;0.00;1
261;felso bal;7;747.50;0.00;1
#262;felso kozep;8;749.00;0.00;1
263;kozepso bal;4;750.00;0.00;1
264;kozepso kozep;5;751.00;0.00;1
265;kozepso bal;4;752.00;0.00;1
#266;kozepso bal;4;752.50;0.00;1
267;also kozepso;2;752.50;0.00;1
268;also jobb;3;754.50;0.00;1
269;kozepso jobb;6;754.50;0.00;1
270;felso jobb [meleg sarok];9;755.50;0.00;1
271;felso kozep;8;760.00;0.00;1
272;felso bal;7;760.50;0.00;1
273;felso kozep;8;762.00;0.00;1
274;felso jobb [meleg sarok];9;762.50;0.00;1
275;kozepso jobb;6;766.00;0.00;1
#276;kozepso jobb;6;769.50;0.00;1
277;felso jobb [meleg sarok];9;769.50;0.00;1
278;kozepso jobb;6;771.50;0.00;1
279;felso jobb [meleg sarok];9;772.50;0.00;1
280;felso kozep;8;776.00;0.00;1
281;felso bal;7;778.50;0.00;1
282;kozepso bal;4;780.00;0.00;1
283;also bal [hideg sarok];1;782.00;0.00;1
284;also kozepso;2;785.00;0.00;1
285;also jobb;3;786.00;0.00;1
286;kozepso jobb;6;787.50;0.00;1
287;felso jobb [meleg sarok];9;788.50;0.00;1
#288;felso kozep;8;796.00;0.00;1
289;felso kozep;8;799.50;0.00;1
290;felso bal;7;800.50;0.00;1
291;kozepso bal;4;802.00;0.00;1
#292;felso bal;7;802.50;0.00;1
293;also bal [hideg sarok];1;805.00;0.00;1
294;also kozepso;2;805.50;0.00;1
295;also jobb;3;806.50;0.00;1
296;kozepso jobb;6;807.50;0.00;1
297;felso jobb [meleg sarok];9;808.50;0.00;1
298;felso kozep;8;849.00;0.00;1
299;felso bal;7;850.50;0.00;1
300;kozepso bal;4;851.50;0.00;1
301;also bal [hideg sarok];1;854.00;0.00;1
302;also kozepso;2;854.50;0.00;1
303;rejtekhely in [Q out];q;854.50;0.00;1
304;q-end;Q;856.50;2.00;1
305;also jobb;3;857.00;0.00;1
306;kozepso jobb;6;858.00;0.00;1
307;felso jobb [meleg sarok];9;859.00;0.00;1
308;felso kozep;8;863.50;0.00;1
309;felso bal;7;864.00;0.00;1
310;kozepso bal;4;867.50;0.00;1
311;also bal [hideg sarok];1;870.00;0.00;1
312;also kozepso;2;871.00;0.00;1
313;also jobb;3;872.50;0.00;1
314;kozepso jobb;6;873.50;0.00;1
315;felso jobb [meleg sarok];9;874.50;0.00;1
316;felso kozep;8;878.00;0.00;1
317;felso bal;7;878.50;0.00;1
318;felso kozep;8;880.50;0.00;1
319;felso bal;7;881.00;0.00;1
320;kozepso bal;4;881.50;0.00;1
321;also bal [hideg sarok];1;882.50;0.00;1
322;also kozepso;2;884.50;0.00;1
#323;also jobb;3;885.00;0.00;1
324;also bal [hideg sarok];1;886.00;0.00;1
325;kozepso bal;4;886.50;0.00;1
326;felso bal;7;888.50;0.00;1
327;felso kozep;8;889.50;0.00;1
328;rejtekhely in [Q out];q;890.00;0.00;1
329;q-end;Q;892.50;2.50;1
330;kozepso jobb;6;893.00;0.00;1
331;undefined;+;893.50;0.00;1
332;felso jobb [meleg sarok];9;894.00;0.00;1
333;felso kozep;8;920.00;0.00;1
334;felso bal;7;920.50;0.00;1
335;kozepso bal;4;922.00;0.00;1
336;kozepso kozep;5;923.00;0.00;1
337;also kozepso;2;924.00;0.00;1
338;rejtekhely in [Q out];q;924.50;0.00;1
339;q-end;Q;925.50;1.00;1
340;kozepso jobb;6;927.50;0.00;1
341;felso jobb [meleg sarok];9;929.00;0.00;1
342;felso kozep;8;932.00;0.00;1
343;felso bal;7;933.00;0.00;1
#344;kozepso bal;4;936.50;0.00;1
345;felso kozep;8;936.00;0.00;1
346;felso bal;7;936.50;0.00;1
347;kozepso bal;4;937.00;0.00;1
348;kozepso kozep;5;938.50;0.00;1
349;also kozepso;2;940.00;0.00;1
350;rejtekhely in [Q out];q;941.00;0.00;1
351;q-end;Q;942.50;1.50;1
352;also jobb;3;943.00;0.00;1
353;kozepso jobb;6;945.00;0.00;1
354;felso jobb [meleg sarok];9;946.50;0.00;1
355;felso kozep;8;958.00;0.00;1
356;felso bal;7;971.50;0.00;1
357;kozepso bal;4;972.00;0.00;1
358;also bal [hideg sarok];1;973.50;0.00;1
359;also kozepso;2;975.00;0.00;1
360;also bal [hideg sarok];1;976.00;0.00;1
361;kozepso bal;4;976.50;0.00;1
362;felso bal;7;978.00;0.00;1
363;felso kozep;8;979.50;0.00;1
364;felso jobb [meleg sarok];9;988.00;0.00;1
365;kozepso jobb;6;989.00;0.00;1
366;felso jobb [meleg sarok];9;992.50;0.00;1
367;felso kozep;8;995.00;0.00;1
368;felso bal;7;996.50;0.00;1
369;kozepso bal;4;997.50;0.00;1
370;also bal [hideg sarok];1;1000.00;0.00;1
371;kozepso bal;4;1003.50;0.00;1
372;felso bal;7;1005.00;0.00;1
373;felso kozep;8;1006.50;0.00;1
374;felso jobb [meleg sarok];9;1009.50;0.00;1
375;kozepso jobb;6;1012.50;0.00;1
376;also jobb;3;1013.00;0.00;1
377;rejtekhely in [Q out];q;1014.00;0.00;1
378;q-end;Q;1015.50;1.50;1
379;also kozepso;2;1016.00;0.00;1
380;also bal [hideg sarok];1;1016.50;0.00;1
381;also kozepso;2;1018.00;0.00;1
382;also bal [hideg sarok];1;1019.00;0.00;1
383;also kozepso;2;1022.50;0.00;1
384;kozepso kozep;5;1025.00;0.00;1
385;felso kozep;8;1026.00;0.00;1
386;felso bal;7;1048.00;0.00;1
387;kozepso bal;4;1048.50;0.00;1
388;kozepso kozep;5;1049.00;0.00;1
#389;also kozepso;2;1050.50;0.00;1
390;also kozepso;2;1050.50;0.00;1
391;rejtekhely in [Q out];q;1052.50;0.00;1
392;q-end;Q;1053.00;0.50;1
393;kozepso jobb;6;1053.50;0.00;1
394;felso jobb [meleg sarok];9;1054.50;0.00;1
395;kozepso jobb;6;1058.50;0.00;1
396;also jobb;3;1059.50;0.00;1
397;also kozepso;2;1061.00;0.00;1
398;also bal [hideg sarok];1;1062.00;0.00;1
399;kozepso bal;4;1062.50;0.00;1
400;felso bal;7;1063.50;0.00;1
401;felso kozep;8;1066.50;0.00;1
402;felso jobb [meleg sarok];9;1068.00;0.00;1
403;kozepso jobb;6;1071.50;0.00;1
404;also jobb;3;1073.00;0.00;1
405;also kozepso;2;1074.50;0.00;1
406;also bal [hideg sarok];1;1075.50;0.00;1
407;kozepso bal;4;1077.00;0.00;1
408;felso bal;7;1079.00;0.00;1
409;felso kozep;8;1081.00;0.00;1
410;felso bal;7;1082.50;0.00;1
#411;felso kozep;8;1083.50;0.00;1
#412;felso kozep;8;1081.50;0.00;1
413;felso kozep;8;1082.50;0.00;1
414;felso jobb [meleg sarok];9;1084.00;0.00;1
415;felso kozep;8;1087.00;0.00;1
416;felso bal;7;1088.50;0.00;1
417;felso kozep;8;1089.50;0.00;1
418;felso jobb [meleg sarok];9;1090.00;0.00;1
419;kozepso jobb;6;1094.00;0.00;1
420;also jobb;3;1095.00;0.00;1
421;kozepso jobb;6;1095.50;0.00;1
422;rejtekhely in [Q out];q;1096.00;0.00;1
423;q-end;Q;1097.50;1.50;1
424;also kozepso;2;1097.50;0.00;1
425;also bal [hideg sarok];1;1099.00;0.00;1
426;kozepso bal;4;1101.50;0.00;1
427;felso bal;7;1102.50;0.00;1
428;felso kozep;8;1105.00;0.00;1
429;felso jobb [meleg sarok];9;1106.50;0.00;1
430;kozepso jobb;6;1110.00;0.00;1
431;also jobb;3;1110.50;0.00;1
432;kozepso jobb;6;1112.50;0.00;1
433;felso jobb [meleg sarok];9;1113.50;0.00;1
434;felso kozep;8;1129.50;0.00;1
#435;kozepso kozep;5;1130.50;0.00;1
436;kozepso jobb;6;1130.50;0.00;1
437;kozepso kozep;5;1132.00;0.00;1
438;also kozepso;2;1135.50;0.00;1
439;also bal [hideg sarok];1;1136.00;0.00;1
440;kozepso bal;4;1138.50;0.00;1
441;felso bal;7;1140.00;0.00;1
442;felso kozep;8;1142.00;0.00;1
443;felso jobb [meleg sarok];9;1144.00;0.00;1
444;kozepso jobb;6;1148.50;0.00;1
#445;also jobb;3;1150.00;0.00;1
446;rejtekhely in [Q out];q;1151.00;0.00;1
447;q-end;Q;1152.00;1.00;1
448;also kozepso;2;1152.50;0.00;1
449;also bal [hideg sarok];1;1153.00;0.00;1
450;kozepso bal;4;1156.00;0.00;1
451;felso bal;7;1157.50;0.00;1
452;felso kozep;8;1159.50;0.00;1
453;felso jobb [meleg sarok];9;1161.50;0.00;1
454;kozepso jobb;6;1164.00;0.00;1
455;also jobb;3;1165.50;0.00;1
456;kozepso jobb;6;1166.50;0.00;1
457;felso jobb [meleg sarok];9;1167.00;0.00;1
458;felso jobb [meleg sarok];9;1167.50;0.00;1
459;felso kozep;8;1171.50;0.00;1
460;felso bal;7;1172.50;0.00;1
461;kozepso bal;4;1180.50;0.00;1
462;kozepso kozep;5;1181.00;0.00;1
463;rejtekhely in [Q out];q;1182.50;0.00;1
464;q-end;Q;1184.50;2.00;1
465;kozepso jobb;6;1185.00;0.00;1
466;teljes test ki;z;1186.50;0.00;1
467;felso jobb [meleg sarok];9;1187.00;0.00;1
468;kozepso kozep;5;1213.50;0.00;1
469;kozepso bal;4;1214.50;0.00;1
470;also bal [hideg sarok];1;1217.00;0.00;1
471;also kozepso;2;1221.00;0.00;1
472;rejtekhely in [Q out];q;1221.50;0.00;1
473;q-end;Q;1223.00;1.50;1
474;kozepso jobb;6;1223.50;0.00;1
475;felso jobb [meleg sarok];9;1224.50;0.00;1
476;felso kozep;8;1228.00;0.00;1
477;felso bal;7;1229.00;0.00;1
478;felso kozep;8;1232.00;0.00;1
479;kozepso kozep;5;1233.50;0.00;1
480;also kozepso;2;1236.00;0.00;1
481;also jobb;3;1238.00;0.00;1
482;kozepso jobb;6;1238.50;0.00;1
483;felso jobb [meleg sarok];9;1239.50;0.00;1
484;felso kozep;8;1246.00;0.00;1
485;felso bal;7;1247.50;0.00;1
486;felso kozep;8;1249.50;0.00;1
487;kozepso bal;4;1257.50;0.00;1
488;kozepso kozep;5;1258.00;0.00;1
#489;also kozepso;2;1258.50;0.00;1
490;also bal [hideg sarok];1;1258.50;0.00;1
491;also kozepso;2;1260.00;0.00;1
492;also jobb;3;1261.50;0.00;1
493;also kozepso;2;1263.50;0.00;1
494;also bal [hideg sarok];1;1264.50;0.00;1
495;also kozepso;2;1276.00;0.00;1
496;also bal [hideg sarok];1;1277.00;0.00;1
497;also kozepso;2;1278.00;0.00;1
498;kozepso kozep;5;1279.00;0.00;1
499;felso kozep;8;1281.00;0.00;1
500;felso jobb [meleg sarok];9;1300.50;0.00;1
501;kozepso jobb;6;1302.50;0.00;1
502;also jobb;3;1303.50;0.00;1
503;also kozepso;2;1305.50;0.00;1
504;also bal [hideg sarok];1;1306.00;0.00;1
505;also kozepso;2;1308.00;0.00;1
506;also bal [hideg sarok];1;1309.50;0.00;1
507;also kozepso;2;1312.00;0.00;1
508;also jobb;3;1313.00;0.00;1
509;also kozepso;2;1314.00;0.00;1
510;kozepso kozep;5;1314.50;0.00;1
511;felso kozep;8;1315.50;0.00;1
512;felso jobb [meleg sarok];9;1328.00;0.00;1
513;felso kozep;8;1331.00;0.00;1
#514;felso bal;7;1332.00;0.00;1
515;kozepso kozep;5;1333.50;0.00;1
516;rejtekhely in [Q out];q;1335.50;0.00;1
517;q-end;Q;1336.50;1.00;1
518;also jobb;3;1337.00;0.00;1
519;kozepso jobb;6;1338.00;0.00;1
520;felso jobb [meleg sarok];9;1339.00;0.00;1
521;felso kozep;8;1360.50;0.00;1
522;felso bal;7;1361.00;0.00;1
523;kozepso bal;4;1362.00;0.00;1
524;also bal [hideg sarok];1;1363.50;0.00;1
525;also kozepso;2;1366.00;0.00;1
526;also jobb;3;1367.00;0.00;1
527;also kozepso;2;1368.50;0.00;1
528;also bal [hideg sarok];1;1370.00;0.00;1
529;kozepso bal;4;1371.00;0.00;1
530;kozepso kozep;5;1371.50;0.00;1
#531;felso kozep;8;1372.50;0.00;1
532;felso kozep;8;1372.00;0.00;1
533;felso jobb [meleg sarok];9;1375.50;0.00;1
534;kozepso jobb;6;1386.00;0.00;1
535;also jobb;3;1386.50;0.00;1
536;kozepso jobb;6;1388.00;0.00;1
537;felso jobb [meleg sarok];9;1389.00;0.00;1
538;felso kozep;8;1396.00;0.00;1
539;felso bal;7;1397.50;0.00;1
540;kozepso bal;4;1398.00;0.00;1
541;also bal [hideg sarok];1;1400.50;0.00;1
542;also kozepso;2;1401.00;0.00;1
543;also jobb;3;1403.50;0.00;1
544;kozepso jobb;6;1404.50;0.00;1
545;felso jobb [meleg sarok];9;1406.50;0.00;1
546;felso kozep;8;1413.00;0.00;1
547;felso bal;7;1413.50;0.00;1
548;felso kozep;8;1414.50;0.00;1
549;felso bal;7;1415.00;0.00;1
550;felso kozep;8;1416.50;0.00;1
551;kozepso kozep;5;1417.50;0.00;1
552;also kozepso;2;1419.00;0.00;1
553;also jobb;3;1422.00;0.00;1
554;kozepso jobb;6;1422.50;0.00;1
555;felso jobb [meleg sarok];9;1424.00;0.00;1
#556;felso kozep;8;1429.00;0.00;1
557;felso kozep;8;1442.00;0.00;1
558;felso bal;7;1443.00;0.00;1
559;felso kozep;8;1445.50;0.00;1
560;felso jobb [meleg sarok];9;1448.00;0.00;1
561;felso kozep;8;1452.00;0.00;1
562;felso bal;7;1452.50;0.00;1
563;kozepso bal;4;1459.00;0.00;1
564;also bal [hideg sarok];1;1462.50;0.00;1
565;also kozepso;2;1463.50;0.00;1
566;also jobb;3;1464.00;0.00;1
567;kozepso jobb;6;1465.50;0.00;1
568;felso jobb [meleg sarok];9;1466.50;0.00;1
569;felso kozep;8;1470.50;0.00;1
#570;felso bal;7;1472.50;0.00;1
571;felso bal;7;1474.00;0.00;1
572;kozepso bal;4;1475.00;0.00;1
#573;also kozepso;2;1477.50;0.00;1
574;also bal [hideg sarok];1;1477.50;0.00;1
575;also kozepso;2;1480.50;0.00;1
576;also jobb;3;1482.00;0.00;1
577;kozepso jobb;6;1483.00;0.00;1
578;felso jobb [meleg sarok];9;1484.00;0.00;1
579;felso kozep;8;1486.50;0.00;1
580;felso bal;7;1489.00;0.00;1
581;felso kozep;8;1490.00;0.00;1
582;felso bal;7;1491.50;0.00;1
583;felso kozep;8;1493.00;0.00;1
584;felso jobb [meleg sarok];9;1494.00;0.00;1
585;felso kozep;8;1495.50;0.00;1
586;felso bal;7;1496.50;0.00;1
587;felso kozep;8;1498.00;0.00;1
588;felso jobb [meleg sarok];9;1499.50;0.00;1
589;kozepso jobb;6;1513.50;0.00;1
#590;kozepso kozep;5;1515.00;0.00;1
591;kozepso kozep;5;1514.50;0.00;1
592;kozepso bal;4;1517.50;0.00;1
593;felso bal;7;1518.00;0.00;1
594;kozepso bal;4;1519.50;0.00;1
595;also bal [hideg sarok];1;1520.50;0.00;1
596;also kozepso;2;1521.50;0.00;1
597;also jobb;3;1522.00;0.00;1
598;kozepso jobb;6;1523.50;0.00;1
599;felso jobb [meleg sarok];9;1524.50;0.00;1
600;felso kozep;8;1530.00;0.00;1
601;felso bal;7;1531.00;0.00;1
602;felso kozep;8;1531.50;0.00;1
603;felso bal;7;1532.00;0.00;1
604;kozepso bal;4;1533.50;0.00;1
605;also bal [hideg sarok];1;1536.00;0.00;1
606;also kozepso;2;1537.50;0.00;1
607;rejtekhely in [Q out];q;1537.50;0.00;1
608;q-end;Q;1538.50;1.00;1
609;also jobb;3;1539.00;0.00;1
610;also kozepso;2;1540.00;0.00;1
611;also bal [hideg sarok];1;1541.00;0.00;1
612;kozepso bal;4;1542.00;0.00;1
613;kozepso kozep;5;1542.00;0.00;1
614;felso kozep;8;1543.00;0.00;1
615;felso bal;7;1543.50;0.00;1
616;felso kozep;8;1546.50;0.00;1
617;felso jobb [meleg sarok];9;1548.00;0.00;1
618;kozepso jobb;6;1550.50;0.00;1
619;also jobb;3;1552.00;0.00;1
620;kozepso jobb;6;1552.50;0.00;1
621;felso jobb [meleg sarok];9;1554.00;0.00;1
622;felso kozep;8;1566.00;0.00;1
623;felso bal;7;1569.00;0.00;1
624;kozepso bal;4;1569.50;0.00;1
625;also kozepso;2;1572.00;0.00;1
626;also jobb;3;1573.50;0.00;1
627;kozepso jobb;6;1575.00;0.00;1
628;felso jobb [meleg sarok];9;1576.50;0.00;1
629;felso kozep;8;1579.50;0.00;1
630;felso bal;7;1582.50;0.00;1
631;kozepso bal;4;1585.00;0.00;1
632;also bal [hideg sarok];1;1587.00;0.00;1
633;also kozepso;2;1588.00;0.00;1
634;also jobb;3;1589.00;0.00;1
635;kozepso jobb;6;1590.50;0.00;1
636;felso jobb [meleg sarok];9;1591.50;0.00;1
637;felso kozep;8;1596.00;0.00;1
638;felso bal;7;1597.00;0.00;1
639;felso kozep;8;1598.50;0.00;1
640;felso jobb [meleg sarok];9;1599.50;0.00;1
#641;felso kozep;8;1601.50;0.00;1
642;felso kozep;8;1630.50;0.00;1
643;felso bal;7;1631.50;0.00;1
644;kozepso bal;4;1633.00;0.00;1
645;kozepso kozep;5;1634.00;0.00;1
646;also bal [hideg sarok];1;1635.00;0.00;1
647;also kozepso;2;1636.50;0.00;1
648;also jobb;3;1637.50;0.00;1
649;also kozepso;2;1639.00;0.00;1
650;also bal [hideg sarok];1;1640.00;0.00;1
#651;kozepso bal;4;1641.00;0.00;1
652;kozepso kozep;5;1640.50;0.00;1
653;felso kozep;8;1643.00;0.00;1
654;rejtekhely in [Q out];q;1644.00;0.00;1
655;q-end;Q;1647.50;3.50;1
656;teljes test ki;z;1651.00;0.00;1
657;felso kozep;8;1653.00;0.00;1
658;felso bal;7;1654.00;0.00;1
#659;felso kozep;8;1655.50;0.00;1
660;felso kozep;8;1656.50;0.00;1
661;felso bal;7;1657.00;0.00;1
662;kozepso bal;4;1658.00;0.00;1
663;also bal [hideg sarok];1;1660.50;0.00;1
664;also kozepso;2;1661.00;0.00;1
665;also jobb;3;1663.00;0.00;1
666;kozepso jobb;6;1665.50;0.00;1
667;felso jobb [meleg sarok];9;1666.50;0.00;1
668;felso kozep;8;1669.50;0.00;1
669;felso bal;7;1670.50;0.00;1
#670;felso kozep;8;1672.50;0.00;1
671;felso kozep;8;1674.00;0.00;1
672;felso bal;7;1674.50;0.00;1
673;kozepso bal;4;1675.00;0.00;1
674;also bal [hideg sarok];1;1677.00;0.00;1
675;also kozepso;2;1679.50;0.00;1
676;also jobb;3;1680.50;0.00;1
677;kozepso jobb;6;1681.50;0.00;1
678;felso jobb [meleg sarok];9;1683.00;0.00;1
679;kozepso jobb;6;1684.50;0.00;1
680;felso jobb [meleg sarok];9;1687.00;0.00;1
681;felso kozep;8;1692.00;0.00;1
682;felso bal;7;1693.00;0.00;1
683;kozepso bal;4;1694.00;0.00;1
684;also bal [hideg sarok];1;1696.00;0.00;1
685;also kozepso;2;1698.50;0.00;1
686;rejtekhely in [Q out];q;1699.00;0.00;1
687;q-end;Q;1700.50;1.50;1
688;also jobb;3;1700.00;0.00;1
689;kozepso jobb;6;1701.50;0.00;1
690;felso jobb [meleg sarok];9;1702.50;0.00;1
691;felso kozep;8;1720.00;0.00;1
692;felso bal;7;1743.50;0.00;1
693;kozepso bal;4;1744.00;0.00;1
694;kozepso kozep;5;1745.50;0.00;1
695;rejtekhely in [Q out];q;1746.00;0.00;1
696;q-end;Q;1747.50;1.50;1
697;also kozepso;2;1748.00;0.00;1
698;also jobb;3;1749.00;0.00;1
699;kozepso jobb;6;1751.00;0.00;1
700;felso jobb [meleg sarok];9;1752.00;0.00;1
701;kozepso jobb;6;1754.50;0.00;1
#702;also jobb;3;1755.50;0.00;1
703;also jobb;3;1756.50;0.00;1
704;kozepso jobb;6;1757.50;0.00;1
705;felso jobb [meleg sarok];9;1758.50;0.00;1
706;felso kozep;8;1760.50;0.00;1
707;felso bal;7;1761.50;0.00;1
708;kozepso bal;4;1764.50;0.00;1
709;kozepso kozep;5;1765.00;0.00;1
710;kozepso bal;4;1765.50;0.00;1
711;also bal [hideg sarok];1;1766.00;0.00;1
#712;also kozepso;2;1767.00;0.00;1
713;also kozepso;2;1768.00;0.00;1
714;also jobb;3;1769.00;0.00;1
715;kozepso jobb;6;1769.50;0.00;1
716;felso jobb [meleg sarok];9;1771.00;0.00;1
717;felso kozep;8;1779.50;0.00;1
718;felso bal;7;1781.50;0.00;1
719;felso kozep;8;1783.50;0.00;1
720;kozepso kozep;5;1784.50;0.00;1
721;also kozepso;2;1785.50;0.00;1
722;also bal [hideg sarok];1;1788.00;0.00;1
723;kozepso bal;4;1791.00;0.00;1
724;kozepso kozep;5;1791.50;0.00;1
725;felso kozep;8;1792.50;0.00;1
#726;felso jobb [meleg sarok];9;1797.50;0.00;1
727;felso jobb [meleg sarok];9;1807.50;0.00;1
728;kozepso jobb;6;1810.50;0.00;1
729;also jobb;3;1811.00;0.00;1
730;also kozepso;2;1813.00;0.00;1
731;also bal [hideg sarok];1;1814.50;0.00;1
732;also kozepso;2;1815.50;0.00;1
733;also bal [hideg sarok];1;1816.00;0.00;1
734;kozepso bal;4;1823.50;0.00;1
735;felso bal;7;1825.00;0.00;1
736;felso kozep;8;1828.00;0.00;1
737;felso jobb [meleg sarok];9;1829.50;0.00;1
738;kozepso jobb;6;1832.00;0.00;1
739;also jobb;3;1833.00;0.00;1
740;kozepso jobb;6;1834.00;0.00;1
741;felso jobb [meleg sarok];9;1835.00;0.00;1
742;rejtekhely in [Q out];q;1836.50;0.00;1
743;q-end;Q;1838.00;1.50;1
744;felso kozep;8;1839.00;0.00;1
745;felso bal;7;1841.50;0.00;1
746;kozepso bal;4;1842.50;0.00;1
747;kozepso kozep;5;1844.50;0.00;1
748;rejtekhely in [Q out];q;1845.00;0.00;1
749;q-end;Q;1846.00;1.00;1
750;also jobb;3;1846.50;0.00;1
751;rejtekhely in [Q out];q;1847.50;0.00;1
752;q-end;Q;1848.50;1.00;1
#753;also kozepso;2;1849.00;0.00;1
754;also kozepso;2;1848.50;0.00;1
755;also bal [hideg sarok];1;1849.50;0.00;1
756;also kozepso;2;1850.50;0.00;1
757;also bal [hideg sarok];1;1851.00;0.00;1
758;kozepso bal;4;1851.50;0.00;1
759;felso bal;7;1853.00;0.00;1
760;felso kozep;8;1855.00;0.00;1
761;felso jobb [meleg sarok];9;1857.50;0.00;1
762;kozepso jobb;6;1874.00;0.00;1
763;also jobb;3;1876.50;0.00;1
764;kozepso jobb;6;1877.00;0.00;1
765;felso jobb [meleg sarok];9;1878.50;0.00;1
766;rejtekhely in [Q out];q;1879.50;0.00;1
767;q-end;Q;1881.00;1.50;1
768;felso kozep;8;1881.50;0.00;1
769;teljes test ki;z;1882.50;0.00;1
770;felso bal;7;1883.50;0.00;1
771;kozepso bal;4;1889.50;0.00;1
772;kozepso kozep;5;1890.50;0.00;1
773;rejtekhely in [Q out];q;1891.00;0.00;1
774;q-end;Q;1895.50;4.50;1
775;felso jobb [meleg sarok];9;1895.00;0.00;1
776;kozepso jobb;6;1904.50;0.00;1
777;also jobb;3;1905.50;0.00;1
778;also kozepso;2;1906.50;0.00;1
779;also bal [hideg sarok];1;1907.50;0.00;1
780;also kozepso;2;1911.00;0.00;1
781;also jobb;3;1912.00;0.00;1
782;kozepso jobb;6;1914.00;0.00;1
783;kozepso kozep;5;1915.00;0.00;1
784;felso kozep;8;1915.50;0.00;1
