Data from Transmission_10-00-01-279.txt Node
Date: Fri Aug 24 10:00:01 EEST 2018
User: tibor.sos
Spectrometer: USB4F01757
Scans to average: 10
Trigger mode: 4
Integration Time (sec): 1.000000E-2
Electric dark correction enabled: true
Boxcar width: 10
XAxis mode: Wavelengths
Number of Pixels in Spectrum: 3648
>>>>>Begin Spectral Data<<<<<
178.758	-78.65
178.974	-222.14
179.191	-278.94
179.407	-69.38
179.624	-75.94
179.84	-71.83
180.057	-49.9
180.273	-40.48
180.489	-10.93
180.706	-82.56
180.922	-72.03
181.138	-40.06
181.355	20.97
181.571	31.62
181.787	61.72
182.004	33.89
182.22	7.02
182.436	18.14
182.653	27.76
182.869	17.87
183.085	11.15
183.301	25.18
183.518	32.87
183.734	32.44
183.95	37.23
184.166	57.65
184.383	60.31
184.599	31.12
184.815	17.3
185.031	5.44
185.247	15.23
185.463	6.07
185.68	0.89
185.896	-10.93
186.112	16.86
186.328	32.46
186.544	56.79
186.76	64.36
186.976	72.42
187.192	80.91
187.408	118.07
187.624	130.55
187.84	101.68
188.056	73.68
188.272	69.13
188.488	75.73
188.704	68.08
188.92	64.64
189.136	60.32
189.352	93.64
189.568	113.43
189.784	156.59
190	177.08
190.216	172.5
190.432	166
190.648	148.76
190.864	242.29
191.08	180.13
191.296	111.48
191.511	112.63
191.727	115.57
191.943	105.6
192.159	68.61
192.375	86.5
192.591	143.65
192.806	220.29
193.022	100.08
193.238	148.36
193.454	138.54
193.669	272.17
193.885	268.99
194.101	319.03
194.317	98.25
194.532	-271.91
194.748	95.8
194.964	126.35
195.18	16.81
195.395	42.98
195.611	32.67
195.827	47.54
196.042	0.8
196.258	91.42
196.473	73.13
196.689	123.88
196.905	45.65
197.12	-188.12
197.336	-54.8
197.551	80.78
197.767	36600
197.982	165.13
198.198	1257.53
198.414	303.37
198.629	85.45
198.845	50.92
199.06	162.56
199.276	133.25
199.491	407.57
199.707	166.87
199.922	117.22
200.137	112.27
200.353	72.16
200.568	66.67
200.784	45.26
200.999	26.44
201.215	-40.09
201.43	-44.3
201.645	-14.84
201.861	0.97
202.076	27.79
202.291	-1.06
202.507	-33.66
202.722	-44.53
202.937	-141.46
203.153	-113.16
203.368	-56.33
203.583	-38.2
203.798	-63.41
204.014	-62.96
204.229	-13.71
204.444	-5.47
204.659	-75.27
204.875	198.75
205.09	-499.16
205.305	1181.13
205.52	-346.34
205.735	-851.5
205.951	6104
206.166	-341.77
206.381	-243.69
206.596	-2796.36
206.811	-927.49
207.026	-697.42
207.241	-201.42
207.457	750.78
207.672	1971.9
207.887	-2360.75
208.102	-457.2
208.317	-565.34
208.532	1332.2
208.747	-991.26
208.962	-507.34
209.177	938.26
209.392	246.11
209.607	115.91
209.822	206.41
210.037	200.45
210.252	236.6
210.467	334.13
210.682	178.54
210.897	127.78
211.112	72.61
211.326	71.82
211.541	25.68
211.756	9.35
211.971	-19.08
212.186	-34.42
212.401	-15.61
212.616	-46.22
212.831	-40.14
213.045	-93.99
213.26	-65.78
213.475	-16.61
213.69	-7.83
213.905	-51.26
214.119	-355.66
214.334	5533.33
214.549	551.42
214.764	-695.34
214.978	-393.86
215.193	-574.7
215.408	2702.56
215.622	-379.62
215.837	-2502.22
216.052	549.43
216.266	112.91
216.481	29.33
216.696	27.17
216.91	1521.21
217.125	399.39
217.34	633.16
217.554	742.7
217.769	-199.07
217.983	-30.79
218.198	-176.57
218.412	-332.48
218.627	264.14
218.842	135.26
219.056	65.2
219.271	61.52
219.485	101.27
219.7	138.19
219.914	144.06
220.129	280.57
220.343	137.79
220.558	58.11
220.772	26.17
220.986	60.55
221.201	50.68
221.415	157.18
221.63	158.29
221.844	101.93
222.058	86.69
222.273	64.76
222.487	100.67
222.702	282.56
222.916	269.45
223.13	131.59
223.344	127.7
223.559	94.34
223.773	113.98
223.987	141.61
224.202	165.94
224.416	264.57
224.63	182.32
224.844	123.06
225.059	112.07
225.273	280.81
225.487	-827.2
225.701	-13.51
225.915	-16.56
226.13	33.66
226.344	48.03
226.558	29.52
226.772	29.79
226.986	55.71
227.2	84.29
227.415	67.6
227.629	54.76
227.843	46.4
228.057	60.22
228.271	62.95
228.485	45.7
228.699	61.84
228.913	61.4
229.127	73.21
229.341	68.7
229.555	93.56
229.769	144.61
229.983	95.96
230.197	39.33
230.411	80.57
230.625	11.25
230.839	-33.16
231.053	-22.81
231.267	130.16
231.481	-164.32
231.695	-36.64
231.909	121.75
232.122	108.55
232.336	143.68
232.55	144.46
232.764	98.01
232.978	181.38
233.192	155.46
233.405	83.28
233.619	33.96
233.833	10.97
234.047	24.18
234.261	-225.24
234.474	1.95
234.688	-6.51
234.902	86.98
235.116	65.26
235.329	157.89
235.543	246.36
235.757	202.17
235.97	155.3
236.184	132.64
236.398	130.24
236.612	160.02
236.825	195.8
237.039	289.55
237.252	254.03
237.466	1117.75
237.68	4444.07
237.893	-272200
238.107	-1151.78
238.32	2659.13
238.534	-692.09
238.748	-396.81
238.961	-228.84
239.175	-222.53
239.388	-314.87
239.602	-659.82
239.815	-211.23
240.029	-420.72
240.242	-305.66
240.456	-140.06
240.669	-191.81
240.882	-146.33
241.096	-262.13
241.309	-170.99
241.523	-129.91
241.736	-113.96
241.95	242.46
242.163	-187.97
242.376	79.03
242.59	113.6
242.803	-2573.33
243.016	190.33
243.23	680.67
243.443	8493.33
243.656	-1144.36
243.87	-105.34
244.083	-52.61
244.296	-11.39
244.509	-10.34
244.723	-6.86
244.936	-19.48
245.149	-40.44
245.362	-62.58
245.576	-20.73
245.789	-28.9
246.002	-15.64
246.215	-42.98
246.428	-21.68
246.641	-11.57
246.855	-47.47
247.068	-46.77
247.281	-110.33
247.494	-20.68
247.707	-33.09
247.92	-29.14
248.133	-33.47
248.346	-52.17
248.559	-2.3
248.772	-27.12
248.985	1.81
249.198	15.77
249.411	21.37
249.624	25.96
249.837	23.84
250.05	18.18
250.263	5.85
250.476	-22.85
250.689	-7.12
250.902	-8.65
251.115	-25.74
251.328	-5.67
251.541	-1.17
251.754	5.26
251.967	0.32
252.18	5.95
252.393	3.52
252.605	10.41
252.818	12.12
253.031	4.84
253.244	-0.51
253.457	-9.26
253.67	-23.91
253.882	-28.73
254.095	-11.69
254.308	-3.55
254.521	-2.21
254.733	0.51
254.946	13.52
255.159	11.98
255.372	6.44
255.584	8.17
255.797	-6.35
256.01	-18.54
256.222	-14.06
256.435	-15.18
256.648	-12.24
256.86	-11.92
257.073	-6.94
257.285	-12.43
257.498	-23.71
257.711	-22.69
257.923	-23.98
258.136	-14.25
258.348	-11.59
258.561	-27.67
258.773	-56.67
258.986	-96.12
259.198	-112.59
259.411	-198.76
259.623	-149.17
259.836	-137.49
260.048	-114.72
260.261	-71.62
260.473	-50.25
260.686	-47.61
260.898	-47.27
261.111	-47.77
261.323	-38.08
261.535	-38.74
261.748	-22.51
261.96	-12.68
262.173	-6.57
262.385	-4.42
262.597	-5.91
262.81	-0.48
263.022	-6.31
263.234	2.31
263.447	19.8
263.659	24.47
263.871	28.87
264.083	23.94
264.296	29.79
264.508	30.15
264.72	21.35
264.932	21.54
265.145	6.82
265.357	7.17
265.569	1.1
265.781	-4.2
265.993	-15.68
266.205	-38.65
266.418	-37.17
266.63	-62.45
266.842	-51.82
267.054	-50.3
267.266	-59.46
267.478	-60.42
267.69	-51.82
267.902	-69.32
268.114	-95.4
268.326	-85.77
268.538	-86.69
268.75	-65.91
268.962	-71.68
269.174	-49.31
269.386	-25.63
269.598	0.11
269.81	0.61
270.022	-3.07
270.234	3.3
270.446	11.82
270.658	7.3
270.87	5.18
271.082	5.2
271.294	4.78
271.506	4.11
271.718	8.3
271.929	12.45
272.141	12.46
272.353	16.68
272.565	14.8
272.777	16.45
272.989	19.64
273.2	20.51
273.412	21.66
273.624	23.07
273.836	17.43
274.047	19.92
274.259	23.97
274.471	31.73
274.683	28.28
274.894	25.83
275.106	26.36
275.318	25.08
275.529	30.21
275.741	29.03
275.953	32.62
276.164	28.81
276.376	30.59
276.588	38.18
276.799	32.62
277.011	46.83
277.222	49.92
277.434	32.45
277.646	13.56
277.857	10.01
278.069	3.68
278.28	-0.34
278.492	-15.49
278.703	-24.4
278.915	-21.76
279.126	-23.07
279.338	-25.41
279.549	-9.35
279.761	-9.57
279.972	-12.64
280.183	-12.95
280.395	-17.79
280.606	-19.86
280.818	-25.09
281.029	-26.77
281.24	-26.27
281.452	-31.33
281.663	-30.46
281.875	-21.37
282.086	-13.21
282.297	-9.77
282.508	-11.93
282.72	-8.23
282.931	-4.79
283.142	-4.96
283.354	-10.64
283.565	-14.02
283.776	-19.28
283.987	-46.2
284.199	-35.11
284.41	-26.51
284.621	-13.22
284.832	-4.78
285.043	-0.22
285.254	-6.24
285.466	-6.09
285.677	3.29
285.888	-4.24
286.099	-15.33
286.31	-13.68
286.521	-22.95
286.732	-26.34
286.943	-23.35
287.154	-19.23
287.366	-24.28
287.577	-17.74
287.788	-25.53
287.999	-22.35
288.21	-22.81
288.421	-9.11
288.632	-16.32
288.843	-11.71
289.054	-17.95
289.264	-21.19
289.475	-23.37
289.686	-19.97
289.897	-23.44
290.108	-20.1
290.319	-13.73
290.53	-7.92
290.741	-13.59
290.952	-9.64
291.163	-5.94
291.373	-2.41
291.584	-1.53
291.795	1.42
292.006	1.85
292.217	7.48
292.427	9.45
292.638	14.36
292.849	5.49
293.06	12.84
293.27	7.95
293.481	7.02
293.692	12
293.903	8.49
294.113	12.2
294.324	17.37
294.535	10.61
294.745	1.64
294.956	12.91
295.167	12.2
295.377	12.15
295.588	12.19
295.798	5.6
296.009	-5.94
296.22	-4.24
296.43	-5.35
296.641	-3.47
296.851	-7.42
297.062	-17.22
297.272	-14.47
297.483	-21.04
297.693	-19.68
297.904	-17.26
298.114	-14.53
298.325	-9.69
298.535	-15.06
298.746	-10.57
298.956	-3.48
299.167	-2.14
299.377	-10.21
299.587	-15.11
299.798	-7.75
300.008	-12.21
300.219	-10.06
300.429	0.67
300.639	-1.29
300.85	-3.69
301.06	-7.35
301.27	-2.06
301.481	6.24
301.691	3.88
301.901	6.25
302.111	2.97
302.322	0.47
302.532	-4.26
302.742	-12.23
302.952	-15.41
303.163	-27.75
303.373	-31.03
303.583	-22.83
303.793	-22.15
304.003	-6.63
304.214	-10.94
304.424	-16.7
304.634	-20.55
304.844	-20.88
305.054	-15.91
305.264	-18.53
305.474	-17.88
305.684	-24.6
305.894	-22.63
306.104	-21.74
306.314	-27.2
306.525	-32.23
306.735	-36
306.945	-33.97
307.155	-23.8
307.365	-16.33
307.575	-15.53
307.784	-15.04
307.994	-21.41
308.204	-21.2
308.414	-25.54
308.624	-24.59
308.834	-16.36
309.044	-17.43
309.254	-13.85
309.464	-16.72
309.674	-16.43
309.884	-21.7
310.093	-14.56
310.303	-19.07
310.513	-12.94
310.723	-7.69
310.933	-2.22
311.142	1.31
311.352	-0.15
311.562	2.11
311.772	4.34
311.981	6.37
312.191	3.73
312.401	5.11
312.611	7.02
312.82	4.95
313.03	3.97
313.24	2.38
313.449	9.38
313.659	10.58
313.869	5.51
314.078	6.48
314.288	5.33
314.497	-1.25
314.707	1.88
314.917	-1.23
315.126	5.25
315.336	4.52
315.545	3.45
315.755	6.83
315.964	1.16
316.174	3.92
316.383	1.05
316.593	1.68
316.802	-0.06
317.012	-2.75
317.221	0.67
317.431	-1.76
317.64	-3.4
317.849	-11.24
318.059	-20.29
318.268	-13.96
318.478	-11.42
318.687	-5.18
318.896	-1.88
319.106	-1.83
319.315	-4.38
319.524	-20.42
319.734	-25.01
319.943	-23.74
320.152	-26.43
320.362	-30.19
320.571	-32.29
320.78	-31.66
320.989	-25.75
321.199	-22.3
321.408	-18.79
321.617	-17.86
321.826	-14.48
322.035	-17.65
322.245	-14.42
322.454	-10.32
322.663	-9.59
322.872	-12.18
323.081	-23.89
323.29	-24.01
323.5	-25.66
323.709	-22.08
323.918	-11.29
324.127	-13.11
324.336	-15.41
324.545	-22.61
324.754	-23.93
324.963	-29.61
325.172	-25.67
325.381	-27.95
325.59	-28.6
325.799	-33.67
326.008	-38.11
326.217	-42.47
326.426	-29.3
326.635	-35.62
326.844	-27.33
327.053	-21.23
327.262	-15.35
327.47	-2.31
327.679	-2.53
327.888	-4.71
328.097	1.51
328.306	-0.42
328.515	3.39
328.724	3.31
328.932	1.55
329.141	5.04
329.35	6.13
329.559	2.64
329.768	3.02
329.976	1.32
330.185	1.49
330.394	-0.73
330.602	4.59
330.811	-8.58
331.02	1.04
331.229	-2.27
331.437	-3.74
331.646	-4.63
331.855	-3.03
332.063	-4.58
332.272	-3.61
332.48	-18.17
332.689	-16.66
332.898	-21.31
333.106	-19.29
333.315	-11.11
333.523	-6.95
333.732	-3.56
333.94	-8.31
334.149	-9.57
334.357	-7.99
334.566	-1.63
334.774	-0.82
334.983	-3.66
335.191	-4.43
335.4	-11.21
335.608	-15.43
335.817	-25.8
336.025	-24.58
336.234	-31.75
336.442	-25.57
336.65	-25.42
336.859	-4.5
337.067	-8.5
337.275	0.11
337.484	-5.15
337.692	-11.73
337.9	-10.68
338.109	-19.26
338.317	-9.3
338.525	-10.88
338.734	-5.28
338.942	-15.78
339.15	-19.22
339.358	-25.04
339.567	-4.35
339.775	-11.73
339.983	-18.34
340.191	-15.08
340.399	-13.96
340.608	-1.88
340.816	-6.74
341.024	-8.91
341.232	-20.49
341.44	-19.98
341.648	-21.84
341.856	-19.38
342.064	-16.23
342.272	-21.9
342.481	-17.51
342.689	-14.98
342.897	-17.07
343.105	-17.85
343.313	-8.88
343.521	-8.2
343.729	-13.12
343.937	-20.73
344.145	-20.91
344.353	-13.07
344.56	-12.24
344.768	-11.43
344.976	-18.36
345.184	-17.7
345.392	-18.89
345.6	-14.64
345.808	-9.16
346.016	-1.37
346.224	0.31
346.431	4.81
346.639	10.58
346.847	8.97
347.055	3
347.263	3.84
347.471	1.6
347.678	-0.37
347.886	-3
348.094	9.59
348.302	11
348.509	15.98
348.717	5.89
348.925	9.22
349.132	-2.78
349.34	1.97
349.548	4.01
349.755	7.43
349.963	9.68
350.171	7.02
350.378	1.07
350.586	-2.86
350.793	-3.46
351.001	-5.09
351.209	-6.27
351.416	-2.98
351.624	3.76
351.831	0.19
352.039	-4.71
352.246	-5.81
352.454	-11.41
352.661	-7.09
352.869	-11.43
353.076	-0.66
353.284	-1.21
353.491	14.54
353.699	8.74
353.906	12.61
354.113	13.7
354.321	13.3
354.528	9.12
354.736	4.45
354.943	6.19
355.15	11.49
355.358	7.24
355.565	14.22
355.772	25.57
355.98	28
356.187	28.42
356.394	27.11
356.601	27.03
356.809	35.16
357.016	33.56
357.223	36.06
357.43	26.17
357.638	26.3
357.845	25.55
358.052	29.78
358.259	28.25
358.466	29.25
358.673	21.27
358.881	23.9
359.088	24.85
359.295	29.58
359.502	16.3
359.709	21.48
359.916	14.64
360.123	3.67
360.33	-9.94
360.537	-14.44
360.744	-12.94
360.951	-9.18
361.158	-19.79
361.365	-8.14
361.572	-0.56
361.779	5.03
361.986	5.93
362.193	-0.92
362.4	-8.7
362.607	-20.58
362.814	-16.89
363.021	-8.83
363.228	-11.92
363.435	-7.8
363.641	-14.19
363.848	-11.47
364.055	-16.54
364.262	-12.5
364.469	-11.21
364.676	-5.59
364.882	-3.98
365.089	0.02
365.296	6
365.503	4.3
365.709	-8.98
365.916	-15.92
366.123	-7.5
366.33	-9.77
366.536	-9.07
366.743	-13.32
366.95	-10.39
367.156	-17.15
367.363	-16.22
367.57	-21.84
367.776	-17.52
367.983	-9.61
368.19	-8.97
368.396	-9.16
368.603	-14.52
368.809	-12.71
369.016	-11.05
369.222	-4.93
369.429	-6.28
369.635	-9.13
369.842	-8.33
370.048	0.34
370.255	10.7
370.461	9.97
370.668	8.7
370.874	9.91
371.081	17.57
371.287	23.8
371.494	23.6
371.7	20.97
371.906	24.17
372.113	17.48
372.319	13.35
372.526	19.53
372.732	13.87
372.938	9.52
373.145	7.29
373.351	8.75
373.557	3.42
373.763	-1.02
373.97	5.94
374.176	14.05
374.382	13.31
374.588	1.99
374.795	-0.82
375.001	-5.75
375.207	-5.79
375.413	-3.42
375.62	-5.93
375.826	1.38
376.032	-2.99
376.238	-0.95
376.444	4.85
376.65	0.75
376.856	-8.22
377.062	9.26
377.269	24.55
377.475	24.42
377.681	21.55
377.887	14.18
378.093	4.29
378.299	1.95
378.505	-5.18
378.711	-10.29
378.917	-7.07
379.123	-6.83
379.329	4.02
379.535	4.23
379.741	0.28
379.947	-4.4
380.152	-6.12
380.358	-0.36
380.564	-5.73
380.77	-13.92
380.976	-16.42
381.182	-10.17
381.388	-17.61
381.594	-25.35
381.799	-14.67
382.005	-9.37
382.211	-2.07
382.417	8.67
382.623	-0.65
382.828	1.49
383.034	3.8
383.24	3.86
383.445	2.93
383.651	-1.44
383.857	-9.56
384.063	-5.04
384.268	-13.38
384.474	-10.69
384.68	-17.02
384.885	-8.72
385.091	-6.16
385.296	3.92
385.502	6.43
385.708	3.81
385.913	6.99
386.119	-7.39
386.324	-17.33
386.53	-18.71
386.735	-35.68
386.941	-17.47
387.146	-22.41
387.352	-14.06
387.557	-11.61
387.763	-16.75
387.968	-27.39
388.174	-19.88
388.379	-32.98
388.585	-27.25
388.79	-31.86
388.996	-29.87
389.201	-32.35
389.406	-32.22
389.612	-48.65
389.817	-41.18
390.022	-38.09
390.228	-26.86
390.433	-27.38
390.638	-28.05
390.844	-23.63
391.049	-17.52
391.254	-22.73
391.459	-17.11
391.665	-27.16
391.87	-28.25
392.075	-20.4
392.28	-16.32
392.485	-16.11
392.691	-15.29
392.896	-14.06
393.101	-11.28
393.306	-1.5
393.511	-0.84
393.716	4.35
393.922	7.57
394.127	2.52
394.332	2.2
394.537	0.59
394.742	4.94
394.947	8.23
395.152	8.73
395.357	2.11
395.562	3.33
395.767	-3.44
395.972	3.38
396.177	-4.32
396.382	-1.48
396.587	7.97
396.792	7.57
396.997	14.76
397.202	23.11
397.407	20.45
397.611	13.58
397.816	11.04
398.021	8
398.226	12
398.431	8.82
398.636	10.19
398.841	13.69
399.045	16.26
399.25	19.37
399.455	23.45
399.66	27.08
399.864	21.96
400.069	17.92
400.274	17.25
400.479	20.7
400.683	13.77
400.888	10.2
401.093	-1.33
401.297	-10.32
401.502	-22.19
401.707	-25.17
401.911	-8.56
402.116	-3.04
402.321	8.04
402.525	4.63
402.73	0.62
402.934	-2.84
403.139	-9.38
403.344	-12.32
403.548	-15.55
403.753	-23.77
403.957	-38.43
404.162	-43.45
404.366	-35.23
404.571	-33.9
404.775	-24.89
404.98	-22.26
405.184	-17.28
405.388	-4.78
405.593	-3.83
405.797	-1.44
406.002	9.81
406.206	-1.62
406.41	-0.32
406.615	2.62
406.819	3.18
407.023	7.63
407.228	8.08
407.432	4.24
407.636	4.56
407.841	10.59
408.045	8.49
408.249	7.23
408.453	15.54
408.658	22.53
408.862	22.94
409.066	18.81
409.27	21.97
409.474	21.85
409.679	11.36
409.883	9.93
410.087	9.65
410.291	3.27
410.495	0.54
410.699	-0.87
410.903	-8.21
411.108	0.86
411.312	-4.18
411.516	-10.54
411.72	-5.52
411.924	-6.9
412.128	-24.64
412.332	-20.27
412.536	-5.67
412.74	-8.79
412.944	-16.22
413.148	-14.93
413.352	-13.09
413.556	-21.59
413.76	-23.08
413.964	-5.68
414.167	2.54
414.371	8.41
414.575	11.22
414.779	3.86
414.983	6.33
415.187	7.56
415.391	3.99
415.594	13.86
415.798	22.11
416.002	18.95
416.206	20.38
416.41	29.04
416.613	22.39
416.817	12.49
417.021	20.61
417.225	25.42
417.428	14.51
417.632	1.65
417.836	16.68
418.039	24.46
418.243	20.23
418.447	5.74
418.65	5.18
418.854	2.86
419.057	21.2
419.261	21.57
419.465	16.14
419.668	14.97
419.872	13.58
420.075	0.87
420.279	7.01
420.482	16.26
420.686	15.99
420.889	16.84
421.093	23.94
421.296	20.33
421.5	12.61
421.703	8.18
421.907	10.04
422.11	-2.2
422.314	-7.73
422.517	-15.09
422.72	-3.61
422.924	-9.67
423.127	-19.17
423.33	-33.25
423.534	-32.81
423.737	-32.27
423.94	-39.5
424.144	-31.16
424.347	-18.93
424.55	-31.4
424.754	-40.35
424.957	-51.93
425.16	-32.8
425.363	-30.67
425.567	-23.17
425.77	-16.41
425.973	-4.5
426.176	-11.39
426.379	-5.97
426.582	1.78
426.786	5.19
426.989	4.97
427.192	13.06
427.395	21.18
427.598	15.79
427.801	5.05
428.004	2.85
428.207	14.35
428.41	12.94
428.613	8.25
428.816	20.63
429.019	16.5
429.222	15.12
429.425	13.22
429.628	10.43
429.831	7.93
430.034	9.18
430.237	6.08
430.44	11.92
430.643	11.34
430.846	6.06
431.049	11.49
431.252	11.69
431.454	5.11
431.657	-1.8
431.86	1.71
432.063	16.45
432.266	17.9
432.469	13.7
432.671	10.74
432.874	22.67
433.077	10.14
433.28	16.97
433.482	24.9
433.685	19.98
433.888	14.81
434.09	11.58
434.293	3.37
434.496	3.97
434.698	1.5
434.901	13.32
435.104	8.44
435.306	10.82
435.509	6.56
435.712	11.12
435.914	13.75
436.117	16.76
436.319	13.84
436.522	10.22
436.724	11.62
436.927	10.6
437.129	9.75
437.332	10.91
437.534	2.61
437.737	-14.26
437.939	-6.78
438.142	-0.8
438.344	8.29
438.547	12.5
438.749	13.58
438.951	8.97
439.154	7.65
439.356	16.84
439.558	10.14
439.761	11
439.963	15.61
440.165	17.87
440.368	9.59
440.57	-14.49
440.772	-20.65
440.975	-30.92
441.177	-16.83
441.379	-22.68
441.581	-11.26
441.784	-12.92
441.986	5.74
442.188	3.19
442.39	-5.67
442.592	-14.27
442.795	-4.25
442.997	-8.23
443.199	-0.85
443.401	-3.9
443.603	-7.89
443.805	-17.6
444.007	-10.6
444.209	-6.24
444.411	3.39
444.613	4.1
444.815	15
445.017	18.42
445.219	23.67
445.421	18.06
445.623	14.1
445.825	5.93
446.027	-1.83
446.229	-9.22
446.431	-0.76
446.633	4.21
446.835	4.31
447.037	-0.39
447.239	-0.42
447.441	-7.15
447.643	-9.64
447.844	-9.07
448.046	-1.12
448.248	3.23
448.45	-4.53
448.652	-22.36
448.853	-7.31
449.055	-3.49
449.257	-3.49
449.459	-11.31
449.66	-0.49
449.862	-4.79
450.064	5.62
450.266	14.73
450.467	15.85
450.669	11.89
450.871	1.76
451.072	17.43
451.274	13.99
451.475	19.91
451.677	24.81
451.879	26.35
452.08	3.47
452.282	9.43
452.483	1.91
452.685	5.92
452.886	11.76
453.088	-9.97
453.289	-28.98
453.491	-36.55
453.692	-58.13
453.894	-44.19
454.095	-29.52
454.297	-41.27
454.498	-34.3
454.7	-37.97
454.901	-21.58
455.102	3.29
455.304	-4.99
455.505	-6.42
455.706	-15.6
455.908	-23.09
456.109	-25.81
456.31	-14.8
456.512	-27.47
456.713	-19.21
456.914	-25.71
457.116	-40.54
457.317	-27.18
457.518	-27.06
457.719	-19.62
457.921	-11.18
458.122	-25.31
458.323	-29.37
458.524	-17.17
458.725	-17.62
458.926	-18.57
459.128	-25.22
459.329	-29.19
459.53	-34.57
459.731	-34.99
459.932	-38.58
460.133	-29.53
460.334	-11.88
460.535	-5.12
460.736	0.79
460.937	-10.41
461.138	-6.66
461.339	0.4
461.54	0.9
461.741	4.76
461.942	4.57
462.143	14.05
462.344	19.66
462.545	25.56
462.746	18.4
462.947	11.08
463.148	14.46
463.348	13.57
463.549	7.63
463.75	12.76
463.951	20.92
464.152	29.27
464.353	21.61
464.553	22.79
464.754	22.97
464.955	25
465.156	24.44
465.356	22.54
465.557	17.82
465.758	14.41
465.959	15.35
466.159	11.18
466.36	1
466.561	2.21
466.761	-1.29
466.962	7.77
467.163	10.79
467.363	11.68
467.564	10.99
467.764	15.84
467.965	7.93
468.166	3.91
468.366	5.06
468.567	10.86
468.767	14.17
468.968	13.44
469.168	17.64
469.369	22.68
469.569	17.53
469.77	18.24
469.97	16.99
470.17	22.03
470.371	25.69
470.571	30.64
470.772	37.37
470.972	37.32
471.172	26.92
471.373	24.88
471.573	15.31
471.773	10.41
471.974	5.38
472.174	7.69
472.374	10.32
472.575	7.24
472.775	5.86
472.975	-8.02
473.175	-8.75
473.376	-17.68
473.576	-13.62
473.776	-11.53
473.976	-7.82
474.177	0.66
474.377	-8.24
474.577	-9.33
474.777	-11.59
474.977	-23.08
475.177	-19.54
475.377	-11.31
475.577	-6.27
475.777	-4.76
475.978	-2.84
476.178	-3.42
476.378	3.27
476.578	8.06
476.778	5.14
476.978	2.98
477.178	6.9
477.378	3.78
477.578	5.32
477.778	-1.57
477.977	3.22
478.177	1
478.377	-7.44
478.577	-1.91
478.777	2.92
478.977	4.69
479.177	7.65
479.377	4.3
479.577	-6.05
479.776	-2.86
479.976	-3.95
480.176	-0.86
480.376	0.18
480.576	-8.19
480.775	-16.95
480.975	-15.4
481.175	-13.13
481.374	-10.62
481.574	-6.99
481.774	-7.71
481.974	-2.83
482.173	-8.79
482.373	-12.1
482.572	-4.62
482.772	-5.88
482.972	-4.9
483.171	-0.45
483.371	6.13
483.57	4.71
483.77	10.34
483.97	7.77
484.169	8.71
484.369	2.63
484.568	4.63
484.768	7.89
484.967	8.84
485.167	10.66
485.366	11.73
485.566	3.16
485.765	5.14
485.964	1.23
486.164	2.03
486.363	2.26
486.563	4.28
486.762	3.54
486.961	2.51
487.161	1.98
487.36	-5.98
487.559	-15.73
487.759	-14.2
487.958	-20.06
488.157	-21.62
488.356	-16.08
488.556	-11.86
488.755	-12.25
488.954	-13.68
489.153	-12.7
489.353	-5.43
489.552	-10.34
489.751	-9.36
489.95	-12.56
490.149	-12.46
490.348	-13.62
490.548	-10.96
490.747	-13.15
490.946	-18.72
491.145	-17.59
491.344	-22.44
491.543	-19.2
491.742	-14.77
491.941	-18.22
492.14	-15.15
492.339	-17.53
492.538	-25.24
492.737	-22.65
492.936	-18.06
493.135	-19.08
493.334	-24.81
493.533	-42
493.732	-36.35
493.931	-26.69
494.13	-33.97
494.328	-28.39
494.527	-30.33
494.726	-35.27
494.925	-37.67
495.124	-35.13
495.323	-31.36
495.521	-28.95
495.72	-27.09
495.919	-26.87
496.118	-23.6
496.316	-23.13
496.515	-21.5
496.714	-19.88
496.913	-16.51
497.111	-22.14
497.31	-20.87
497.509	-18.44
497.707	-12.48
497.906	-5.01
498.105	-11.2
498.303	-4.41
498.502	-2.05
498.7	1.06
498.899	0.59
499.097	6.41
499.296	9.26
499.495	5.03
499.693	5.95
499.892	6.18
500.09	3.17
500.289	8.05
500.487	7.32
500.686	8.7
500.884	7.52
501.082	4.29
501.281	1.17
501.479	3.87
501.678	5.77
501.876	9.13
502.074	4.41
502.273	9.21
502.471	9.71
502.669	2.85
502.868	6.26
503.066	12.96
503.264	16.56
503.463	12.97
503.661	13.95
503.859	13.98
504.057	17.57
504.256	19.05
504.454	14.53
504.652	14.73
504.85	15.69
505.048	17.5
505.246	19.93
505.445	21.7
505.643	16.63
505.841	17.88
506.039	16.67
506.237	17.48
506.435	17.14
506.633	14.14
506.831	20.96
507.029	17.74
507.227	17.52
507.425	16.31
507.623	18.5
507.821	15.9
508.019	17.17
508.217	18.56
508.415	18.77
508.613	18
508.811	17.43
509.009	15.05
509.207	17.46
509.405	12.07
509.603	9.86
509.8	13.17
509.998	10.92
510.196	10.1
510.394	6.18
510.592	4.47
510.79	3.21
510.987	-2.55
511.185	-0.99
511.383	-4.62
511.581	-7.16
511.778	-6.08
511.976	-2.64
512.174	-7.19
512.371	-12.88
512.569	-14.12
512.767	-12.47
512.964	-17.04
513.162	-18.18
513.36	-25.19
513.557	-27.67
513.755	-26.61
513.952	-22.37
514.15	-23.6
514.348	-18.32
514.545	-16.26
514.743	-11.91
514.94	-9.14
515.138	-3.56
515.335	-3.89
515.533	-3.29
515.73	-1.01
515.927	-2.89
516.125	-4.32
516.322	1.09
516.52	-0.97
516.717	0.7
516.915	2.33
517.112	4.66
517.309	5.57
517.507	7.81
517.704	9.06
517.901	7.96
518.099	5.02
518.296	7.09
518.493	6.51
518.69	6.01
518.888	4.8
519.085	7.7
519.282	6.77
519.479	7.03
519.676	3.37
519.874	-1.51
520.071	-5.4
520.268	-2.64
520.465	-1.73
520.662	-0.83
520.859	-1.6
521.056	-4.64
521.254	-0.46
521.451	0.01
521.648	1.24
521.845	1.69
522.042	4.58
522.239	3.73
522.436	0.3
522.633	-6.78
522.83	-5.7
523.027	-11.78
523.224	-14.69
523.421	-13.31
523.618	-13.71
523.815	-7.3
524.011	-5.02
524.208	-0.37
524.405	-2.41
524.602	-5.75
524.799	-4.79
524.996	-7.81
525.193	-6.11
525.389	-7.11
525.586	-3.33
525.783	-6.37
525.98	-3.65
526.176	-2.2
526.373	-5.71
526.57	-0.99
526.767	0.11
526.963	-1.7
527.16	6.72
527.357	6.78
527.553	5.78
527.75	3.26
527.947	-0.76
528.143	-1.91
528.34	-2.59
528.537	-4.39
528.733	-1.74
528.93	-0.29
529.126	4.36
529.323	1.06
529.519	1.64
529.716	-1.65
529.912	-0.25
530.109	-2.53
530.305	-3.15
530.502	0.9
530.698	0.09
530.895	-1.97
531.091	1.66
531.288	-2.6
531.484	-0.31
531.68	-1.8
531.877	-0.38
532.073	0.54
532.269	2.09
532.466	2.76
532.662	3.15
532.858	-0.94
533.055	-1.22
533.251	-3.16
533.447	-2.26
533.643	-2.12
533.84	-2.72
534.036	-0.06
534.232	0.14
534.428	-2.45
534.624	-3.98
534.821	-1.74
535.017	1.48
535.213	0.25
535.409	1.88
535.605	1.65
535.801	1.27
535.997	1.41
536.193	0.42
536.389	0.56
536.586	-0.77
536.782	1.92
536.978	3.88
537.174	4.26
537.37	5.97
537.566	10.48
537.762	7.38
537.958	10.15
538.153	6.94
538.349	3.85
538.545	4.63
538.741	4.5
538.937	-0.62
539.133	-4.23
539.329	-6.38
539.525	-4.71
539.721	-8.21
539.916	-3.94
540.112	-6.99
540.308	-4.26
540.504	-4.91
540.699	-3.14
540.895	-5.04
541.091	-2.02
541.287	-1.55
541.482	-5.78
541.678	-7.43
541.874	-6.79
542.069	-8.1
542.265	-6.84
542.461	-3
542.656	-0.45
542.852	1.16
543.048	2.65
543.243	6.63
543.439	10.91
543.634	8.04
543.83	9.89
544.025	7.97
544.221	11.4
544.417	12.54
544.612	13.89
544.807	15.69
545.003	15.14
545.198	10.91
545.394	9.59
545.589	14.14
545.785	13.95
545.98	14.22
546.176	14.01
546.371	12.26
546.566	13.04
546.762	9.41
546.957	9.42
547.152	9.66
547.348	7.2
547.543	6.47
547.738	3.66
547.933	1.24
548.129	1.42
548.324	-0.1
548.519	-2.15
548.714	-4.24
548.91	-5.29
549.105	-6.3
549.3	-5.66
549.495	-3.03
549.69	-5.58
549.885	-9.68
550.08	-5.31
550.276	-3.98
550.471	-0.53
550.666	-0.48
550.861	2.06
551.056	0.89
551.251	0.96
551.446	5.35
551.641	2.04
551.836	7.4
552.031	8.24
552.226	9.25
552.421	7.63
552.616	4.93
552.811	8.37
553.006	3.5
553.201	1.74
553.395	4.12
553.59	3.68
553.785	3.74
553.98	6.22
554.175	0.09
554.37	-1.18
554.565	-3.95
554.759	-6.64
554.954	-7.39
555.149	-5.29
555.344	-5.95
555.538	-10.67
555.733	-9.57
555.928	-8.12
556.122	-7.37
556.317	-11.06
556.512	-12.4
556.706	-10.5
556.901	-10.58
557.096	-5.03
557.29	-0.98
557.485	-0.86
557.68	-5.25
557.874	-5.15
558.069	-2.53
558.263	1.22
558.458	0.05
558.652	3.08
558.847	4.29
559.041	7.48
559.236	4.26
559.43	4.68
559.625	7.05
559.819	7.57
560.014	3.25
560.208	2.79
560.402	4.81
560.597	7.14
560.791	8.12
560.986	6.35
561.18	4.45
561.374	3.09
561.569	0.18
561.763	1.81
561.957	2.58
562.151	-2.58
562.346	-2.33
562.54	2.42
562.734	0.2
562.928	-1.96
563.123	-3.46
563.317	-0.7
563.511	-0.11
563.705	-2.08
563.899	-2.57
564.093	-1.05
564.288	-0.83
564.482	-2.61
564.676	-1.55
564.87	-0.45
565.064	0.77
565.258	2.57
565.452	1.17
565.646	5.89
565.84	3.82
566.034	4.3
566.228	7.56
566.422	6.25
566.616	2.57
566.81	2.31
567.004	5.02
567.198	4.42
567.392	4.12
567.586	2.82
567.779	4.11
567.973	3.03
568.167	4.67
568.361	5.67
568.555	7.32
568.749	6
568.942	4.05
569.136	6.85
569.33	5.58
569.524	6.4
569.718	4.87
569.911	8.14
570.105	5.98
570.299	4.1
570.492	4.2
570.686	6.19
570.88	7.61
571.073	6.58
571.267	7.88
571.461	7.34
571.654	8.81
571.848	9.9
572.041	11.54
572.235	10.64
572.429	11.41
572.622	8.94
572.816	10.62
573.009	11.02
573.203	7.22
573.396	8.08
573.59	8.55
573.783	7.64
573.976	5.53
574.17	6.21
574.363	6.01
574.557	4.9
574.75	2.18
574.943	2.07
575.137	4.45
575.33	4.57
575.523	3.64
575.717	2.11
575.91	-1.02
576.103	-1.73
576.297	-1.1
576.49	-2.14
576.683	-0.44
576.876	-1.09
577.07	-3.64
577.263	-2.65
577.456	-4.25
577.649	-5.24
577.842	-3.6
578.036	-1.22
578.229	-1.05
578.422	-0.28
578.615	-0.16
578.808	0.69
579.001	1.87
579.194	0.86
579.387	0.4
579.58	0.51
579.773	0.76
579.966	2.65
580.159	2.35
580.352	1.71
580.545	0.21
580.738	-1.17
580.931	-2.73
581.124	-0.66
581.317	-1.55
581.51	-1.16
581.703	-0.94
581.896	-2.55
582.088	-4.59
582.281	-2.71
582.474	-2.44
582.667	-0.36
582.86	-1.31
583.053	-4.28
583.245	-2.82
583.438	-5.03
583.631	-4.93
583.824	-5.47
584.016	-5.26
584.209	-6.83
584.402	-5.05
584.594	-3.13
584.787	-0.41
584.98	1.35
585.172	1.4
585.365	1.45
585.558	2.62
585.75	4.1
585.943	6.18
586.135	6.17
586.328	4.89
586.52	7.35
586.713	7.4
586.906	7.36
587.098	7.49
587.291	7.45
587.483	6.96
587.675	7.4
587.868	7.39
588.06	6.48
588.253	7.9
588.445	7.24
588.638	4.61
588.83	3.45
589.022	1.4
589.215	-0.34
589.407	1.58
589.599	1.3
589.792	1.37
589.984	-0.6
590.176	0.18
590.368	1.25
590.561	-1.2
590.753	-2.27
590.945	-0.8
591.137	-0.36
591.33	-2.77
591.522	-0.26
591.714	-0.47
591.906	1.79
592.098	1.46
592.29	0.31
592.482	0.08
592.674	2.61
592.867	2.94
593.059	3
593.251	5.32
593.443	3.52
593.635	1.61
593.827	-0.38
594.019	-0.27
594.211	0.02
594.403	0.05
594.595	0.37
594.787	0.25
594.979	0.05
595.17	0.84
595.362	1.7
595.554	1.06
595.746	1.42
595.938	-0.1
596.13	1.2
596.322	1.97
596.513	-0.44
596.705	-0.45
596.897	-1.46
597.089	0.27
597.281	-1.45
597.472	-0.64
597.664	-0.29
597.856	0.61
598.048	-0.69
598.239	-2.07
598.431	-4.06
598.623	-4.69
598.814	-6.43
599.006	-5.56
599.197	-6.05
599.389	-5.6
599.581	-7.86
599.772	-7.91
599.964	-6.15
600.155	-7.43
600.347	-8.41
600.538	-6.69
600.73	-6.61
600.921	-6.22
601.113	-7.79
601.304	-5.73
601.496	-5.38
601.687	-4.74
601.879	-5.87
602.07	-4.84
602.262	-3.97
602.453	-3.11
602.644	-4.46
602.836	-2.71
603.027	-5.34
603.218	-4.82
603.41	-5.63
603.601	-2.77
603.792	-2.59
603.983	-3.87
604.175	-2.46
604.366	-0.46
604.557	1.33
604.748	0.6
604.94	1.66
605.131	1.46
605.322	0.86
605.513	2.39
605.704	3.98
605.895	5.76
606.086	5.88
606.278	5.8
606.469	7.39
606.66	9.07
606.851	7.08
607.042	7.88
607.233	7.41
607.424	7.58
607.615	6.5
607.806	6.05
607.997	6.44
608.188	7.18
608.379	5.4
608.57	2.29
608.761	1.46
608.952	1.13
609.142	1.23
609.333	-0.96
609.524	-3.61
609.715	-4.36
609.906	-4.97
610.097	-4.65
610.287	-4.94
610.478	-5.98
610.669	-3.91
610.86	-2.21
611.051	-1.5
611.241	0.55
611.432	0.3
611.623	1.49
611.813	1.2
612.004	2.52
612.195	1.83
612.385	3.07
612.576	5.47
612.767	6.55
612.957	5.4
613.148	6.92
613.338	8.83
613.529	8.33
613.72	8.23
613.91	6.51
614.101	6.26
614.291	7.51
614.482	7.27
614.672	4.71
614.863	4.11
615.053	2.55
615.243	1.43
615.434	0.27
615.624	-1
615.815	-1.79
616.005	-4.98
616.195	-6.51
616.386	-9.22
616.576	-8.4
616.766	-7.38
616.957	-6.54
617.147	-6.85
617.337	-8.05
617.528	-7.31
617.718	-7.22
617.908	-6.77
618.098	-7.08
618.289	-6.96
618.479	-6.28
618.669	-5
618.859	-4.04
619.049	-2.16
619.239	-3.18
619.43	-1.69
619.62	-1.56
619.81	0.84
620	1.98
620.19	2.13
620.38	3.26
620.57	1.17
620.76	-0.44
620.95	0.73
621.14	-0.28
621.33	0.81
621.52	0.71
621.71	-1.34
621.9	-1.67
622.09	-0.89
622.28	-0.86
622.47	-2.12
622.659	-4.14
622.849	-4.91
623.039	-4.17
623.229	-3.9
623.419	-3.22
623.609	-4.35
623.799	-5.81
623.988	-4.18
624.178	-3.11
624.368	-2.35
624.558	-1.46
624.747	-0.91
624.937	-2.3
625.127	-3.82
625.316	-3.63
625.506	-1.18
625.696	-0.07
625.885	0.31
626.075	-0.48
626.265	-1.07
626.454	-0.43
626.644	0.21
626.833	-0.74
627.023	-0.67
627.212	-0.71
627.402	0.12
627.591	1.21
627.781	0.85
627.97	-0.48
628.16	-0.06
628.349	-1.17
628.539	-2.16
628.728	-1.22
628.918	-0.99
629.107	1.17
629.296	-0.16
629.486	-2.09
629.675	-0.27
629.865	1.36
630.054	2.91
630.243	2.07
630.432	0.45
630.622	1.85
630.811	4.46
631	1.9
631.19	2.78
631.379	1.56
631.568	1.91
631.757	4.23
631.946	4.52
632.136	5.47
632.325	7.25
632.514	8.32
632.703	8.1
632.892	6.95
633.081	6.69
633.27	6.06
633.459	6.16
633.648	3.78
633.837	2.27
634.026	1.05
634.215	2.29
634.404	2.79
634.593	3.99
634.782	2.61
634.971	4.17
635.16	2.09
635.349	1.99
635.538	2.61
635.727	0.59
635.916	-0.37
636.105	-1.74
636.294	-1.39
636.482	-1.14
636.671	-2.48
636.86	0.2
637.049	0.8
637.238	2.15
637.426	2.34
637.615	0.73
637.804	1.72
637.993	2.18
638.181	2.13
638.37	3.71
638.559	1.71
638.747	2.39
638.936	2.8
639.125	6.01
639.313	4.45
639.502	4.38
639.691	4.74
639.879	4.14
640.068	4.6
640.256	2.77
640.445	1.65
640.633	3.01
640.822	0.98
641.01	0.93
641.199	0.46
641.387	0.48
641.576	3.37
641.764	4.51
641.953	4.73
642.141	4.72
642.329	4.16
642.518	3.46
642.706	3.07
642.894	2.39
643.083	-0.31
643.271	1.77
643.459	2.05
643.648	2.85
643.836	3.29
644.024	2.92
644.213	3.99
644.401	2.76
644.589	1.87
644.777	3.04
644.965	2.4
645.154	1.8
645.342	1.6
645.53	1.9
645.718	1.17
645.906	-0.61
646.094	-1.97
646.282	-2.41
646.47	-1.6
646.658	-2.1
646.846	-3.03
647.034	-0.3
647.223	-1.27
647.411	-0.77
647.599	-3.24
647.786	-2.31
647.974	-2.4
648.162	-3.77
648.35	-2.36
648.538	-1.85
648.726	-2.57
648.914	-1.79
649.102	-0.39
649.29	0.98
649.478	1.45
649.665	1.86
649.853	3.94
650.041	4.61
650.229	4.85
650.417	4.71
650.604	4.77
650.792	5.94
650.98	3.28
651.168	1.94
651.355	1.7
651.543	2.26
651.731	1.13
651.918	1.11
652.106	3.91
652.294	2.89
652.481	4.24
652.669	4.06
652.856	4.09
653.044	4.47
653.231	2.46
653.419	1.15
653.606	1.16
653.794	1.04
653.981	1.05
654.169	0.15
654.356	-0.75
654.544	-0.11
654.731	-1.1
654.919	-0.82
655.106	-0.45
655.294	-1.31
655.481	0.35
655.668	2.13
655.856	1.16
656.043	0.33
656.23	0.32
656.418	-0.05
656.605	0.23
656.792	-0.41
656.979	-1
657.167	0.68
657.354	1.23
657.541	0.34
657.728	0.03
657.916	-0.03
658.103	-0.68
658.29	1.42
658.477	0.55
658.664	1.22
658.851	1.31
659.038	3.07
659.225	3.14
659.412	3.49
659.6	2.46
659.787	3.92
659.974	2.1
660.161	5.34
660.348	4.27
660.535	7.48
660.722	7.18
660.909	5.36
661.095	5.8
661.282	5.58
661.469	5.88
661.656	4.42
661.843	5.86
662.03	6.99
662.217	6.74
662.404	7.87
662.59	7.79
662.777	7.2
662.964	6.79
663.151	7.32
663.338	7.75
663.524	6.6
663.711	4.91
663.898	5.58
664.085	4.46
664.271	3.31
664.458	0.64
664.645	0.37
664.831	3.08
665.018	2.18
665.204	2.27
665.391	1.62
665.578	1.25
665.764	-0.8
665.951	-1.89
666.137	-3.08
666.324	-3.03
666.51	-2.85
666.697	-1.25
666.883	-1.53
667.07	-2.31
667.256	-3.33
667.443	-2.27
667.629	-1.52
667.816	-2.83
668.002	-3.13
668.188	-3.26
668.375	-3.21
668.561	-1.84
668.747	-4.76
668.934	-6.19
669.12	-6.49
669.306	-6
669.493	-5.82
669.679	-4.2
669.865	-3.05
670.051	-2.87
670.238	-2.62
670.424	-3.49
670.61	-5.16
670.796	-3.67
670.982	-4.19
671.169	-4.78
671.355	-6.74
671.541	-6.93
671.727	-4.76
671.913	-5.42
672.099	-3.89
672.285	-3.88
672.471	-3.97
672.657	-1.86
672.843	0.37
673.029	0.7
673.215	0.21
673.401	2.73
673.587	1.31
673.773	1.48
673.959	1.43
674.145	0.97
674.331	2.16
674.517	3.51
674.703	3.05
674.888	5.57
675.074	4.49
675.26	6.71
675.446	6.98
675.632	5.4
675.817	5.21
676.003	5.48
676.189	4.61
676.375	2.62
676.56	1.11
676.746	-1.06
676.932	-2.57
677.117	-2.8
677.303	-4.35
677.489	-4.61
677.674	-5.23
677.86	-5.91
678.046	-4.42
678.231	-5
678.417	-5.36
678.602	-6.42
678.788	-7.71
678.973	-6.01
679.159	-5.21
679.344	-5.49
679.53	-4.27
679.715	-4.79
679.901	-4.97
680.086	-4.18
680.272	-3.22
680.457	-1.26
680.643	-0.17
680.828	1.26
681.013	1.56
681.199	1.95
681.384	3.1
681.569	3.7
681.755	5.16
681.94	5.07
682.125	4.5
682.31	5.45
682.496	4.63
682.681	5
682.866	4.57
683.051	2.78
683.237	3.98
683.422	3.82
683.607	3.08
683.792	3.72
683.977	3.47
684.162	2.5
684.347	2.24
684.532	2.34
684.717	2.56
684.903	3.42
685.088	3.55
685.273	3.28
685.458	1.02
685.643	1.08
685.828	-0.98
686.013	0.81
686.198	0.33
686.382	2.24
686.567	1.58
686.752	1.28
686.937	1.93
687.122	1.98
687.307	1.97
687.492	3.68
687.677	2.57
687.861	3.7
688.046	4.46
688.231	4.28
688.416	4.27
688.601	4.55
688.785	4.24
688.97	4.61
689.155	5.15
689.339	6.13
689.524	4.6
689.709	5.14
689.893	4.77
690.078	4.3
690.263	3.39
690.447	2.88
690.632	3.43
690.816	4.29
691.001	4.08
691.186	3.44
691.37	3.49
691.555	4.31
691.739	3.69
691.924	3.86
692.108	3.61
692.293	3.32
692.477	2.83
692.661	3.05
692.846	2.75
693.03	1.87
693.215	3.52
693.399	4.5
693.583	4.76
693.768	3.8
693.952	3.71
694.136	3.29
694.321	4.76
694.505	4.77
694.689	4.82
694.873	4.92
695.058	4.13
695.242	4.25
695.426	3.23
695.61	2.24
695.794	3.63
695.979	3.5
696.163	3.03
696.347	3.15
696.531	0.85
696.715	1.86
696.899	2.74
697.083	1.92
697.267	3.27
697.451	2.2
697.635	2.19
697.819	0.67
698.003	2.21
698.187	1.11
698.371	1.54
698.555	0.74
698.739	0.51
698.923	1.25
699.107	1.71
699.291	1.7
699.475	1.74
699.659	1.61
699.842	2.14
700.026	2.8
700.21	2.15
700.394	3.74
700.578	3.65
700.761	4.01
700.945	5.11
701.129	4.31
701.313	5.01
701.496	6.25
701.68	7.91
701.864	5.69
702.047	7.23
702.231	9.09
702.415	9.62
702.598	8.08
702.782	9.3
702.965	8.93
703.149	8.77
703.333	8.94
703.516	8.18
703.7	7.8
703.883	6.83
704.067	7.56
704.25	7.12
704.434	4.58
704.617	2.84
704.801	1.8
704.984	0.45
705.167	-0.34
705.351	-1.05
705.534	-1.9
705.718	-1.38
705.901	-3.9
706.084	-4.98
706.268	-5.1
706.451	-4.62
706.634	-6.44
706.817	-7.61
707.001	-7.61
707.184	-6.98
707.367	-6.77
707.55	-5.3
707.734	-5.17
707.917	-5.23
708.1	-4.07
708.283	-1.81
708.466	-1.71
708.649	-1.93
708.832	-1.67
709.015	-0.27
709.199	0.06
709.382	-0.85
709.565	-0.4
709.748	2.1
709.931	1.42
710.114	2.2
710.297	2.8
710.48	3.94
710.663	5.52
710.846	5.04
711.028	3.76
711.211	3.36
711.394	1.93
711.577	1.62
711.76	-0.88
711.943	-1.62
712.126	-2.02
712.309	0.57
712.491	2.72
712.674	1.57
712.857	2.2
713.04	1.77
713.222	3.36
713.405	3.63
713.588	2.22
713.771	2.34
713.953	1.01
714.136	2.72
714.319	3.42
714.501	1.61
714.684	2.71
714.866	4.17
715.049	4.51
715.232	5.4
715.414	5.35
715.597	7.29
715.779	6.62
715.962	5.97
716.144	4.01
716.327	3.6
716.509	3.84
716.692	2.05
716.874	2.41
717.057	1.96
717.239	2.56
717.421	3.13
717.604	0.64
717.786	0.51
717.968	-2.35
718.151	-3.75
718.333	-3.84
718.515	-3.15
718.698	-4.87
718.88	-6.09
719.062	-7.7
719.244	-6.82
719.427	-7.67
719.609	-7.53
719.791	-9.67
719.973	-9.14
720.155	-11.91
720.338	-10.99
720.52	-10.66
720.702	-9.2
720.884	-9.12
721.066	-9.35
721.248	-12.62
721.43	-9.71
721.612	-9.73
721.794	-7.24
721.976	-6.62
722.158	-6.47
722.34	-8.2
722.522	-7.09
722.704	-5.95
722.886	-6.4
723.068	-5.74
723.25	-4.48
723.432	-3.9
723.614	-1.01
723.796	-0.82
723.977	-0.59
724.159	-0.8
724.341	-0.72
724.523	-4.53
724.705	-4.71
724.886	-4.6
725.068	-2.2
725.25	-1.88
725.432	-0.99
725.613	-2.29
725.795	-2.33
725.977	-1.09
726.158	0.02
726.34	-0.12
726.522	-0.65
726.703	0.68
726.885	1.1
727.066	-0.3
727.248	2.02
727.43	1.27
727.611	1.04
727.793	2.65
727.974	2.75
728.156	2.47
728.337	3.56
728.519	3.88
728.7	4.61
728.882	4.1
729.063	3.23
729.244	1.58
729.426	2.91
729.607	3.33
729.788	2.79
729.97	3.15
730.151	4.03
730.332	5.18
730.514	5.65
730.695	5.59
730.876	7.14
731.058	5.73
731.239	5.79
731.42	5.92
731.601	5.47
731.782	5.45
731.964	5.97
732.145	6.2
732.326	4.67
732.507	4.73
732.688	4.85
732.869	7.32
733.05	8.04
733.231	6.7
733.412	6.3
733.593	6.74
733.774	7.02
733.955	7.38
734.136	6.28
734.317	5.1
734.498	5.13
734.679	4.06
734.86	0.56
735.041	1.18
735.222	-0.41
735.403	0.64
735.584	0.68
735.765	1.19
735.946	1.47
736.126	1.85
736.307	1.25
736.488	0.48
736.669	-5.76
736.849	-6.09
737.03	-4.49
737.211	-3.55
737.392	-3.61
737.572	-6.96
737.753	-9.61
737.934	-8.78
738.114	-7.9
738.295	-8.55
738.476	-8.08
738.656	-5.53
738.837	-5.21
739.017	-2.93
739.198	-4.3
739.378	-2.84
739.559	-2.4
739.74	-1.28
739.92	-0.38
740.1	-0.64
740.281	-2
740.461	0.66
740.642	1.99
740.822	-1.46
741.003	-1.57
741.183	-2.4
741.363	-0.05
741.544	1.4
741.724	0.79
741.904	-0.07
742.085	0.97
742.265	0.72
742.445	0.61
742.626	0.59
742.806	0.25
742.986	1.34
743.166	0.35
743.347	-2.56
743.527	-2.35
743.707	-3.02
743.887	-4.34
744.067	-4.24
744.247	-3.2
744.427	-3.31
744.608	-1.06
744.788	2.02
744.968	4.18
745.148	4.93
745.328	4.01
745.508	4.33
745.688	5.07
745.868	3.7
746.048	3.37
746.228	5.25
746.408	4.86
746.588	4.15
746.767	3.35
746.947	2.85
747.127	3.39
747.307	0.69
747.487	0.9
747.667	0.72
747.847	2.82
748.026	2.41
748.206	1.4
748.386	3.47
748.566	0.23
748.745	-1.32
748.925	-1.36
749.105	-0.03
749.285	0.49
749.464	0.4
749.644	-0.93
749.824	-0.41
750.003	-1.4
750.183	-2.43
750.362	-1.27
750.542	-2.41
750.722	-2.67
750.901	-1.89
751.081	-1.12
751.26	-1.9
751.44	-1.78
751.619	-2.33
751.799	-2.35
751.978	-2.38
752.158	-4.22
752.337	-5.75
752.516	-6.34
752.696	-7.17
752.875	-7.36
753.055	-8.34
753.234	-8.28
753.413	-6.44
753.593	-5.35
753.772	-6.36
753.951	-5.95
754.13	-5.87
754.31	-5.91
754.489	-5.17
754.668	-4.62
754.847	-3.04
755.027	-1.08
755.206	-0.23
755.385	0.9
755.564	1.88
755.743	2.39
755.922	1.91
756.101	3.32
756.28	4.48
756.46	4.7
756.639	3.68
756.818	4.33
756.997	4.62
757.176	3.83
757.355	1.99
757.534	2.93
757.713	3.47
757.892	3.56
758.07	4.36
758.249	4
758.428	5.29
758.607	3.62
758.786	3.09
758.965	2.18
759.144	3.04
759.323	0.57
759.501	-0.31
759.68	0.4
759.859	1.17
760.038	0.57
760.216	-0.23
760.395	0.6
760.574	-0.3
760.753	0.49
760.931	1.43
761.11	3.09
761.289	1.72
761.467	1.04
761.646	-0.14
761.824	-0.35
762.003	-0.84
762.182	-3.09
762.36	-1.7
762.539	-0.9
762.717	-1.07
762.896	-2.08
763.074	-0.48
763.253	0.59
763.431	1.24
763.61	-0.03
763.788	0.17
763.966	0.73
764.145	1.34
764.323	2.68
764.502	0.49
764.68	0.67
764.858	-1.33
765.037	0.41
765.215	1.67
765.393	2.4
765.571	2.18
765.75	2.6
765.928	2.35
766.106	1.2
766.284	0.86
766.463	2.11
766.641	2.24
766.819	2.9
766.997	2.24
767.175	2.01
767.353	2.39
767.531	2.83
767.71	2.55
767.888	2.2
768.066	1.43
768.244	2.66
768.422	2.75
768.6	7.14
768.778	6.15
768.956	4.48
769.134	4.54
769.312	5.76
769.489	5.74
769.667	6.62
769.845	7.78
770.023	7.28
770.201	7.4
770.379	6.43
770.557	5.98
770.735	7.28
770.912	5.66
771.09	5.64
771.268	5.6
771.446	5.89
771.623	5.84
771.801	6.36
771.979	5.82
772.157	4.69
772.334	1.52
772.512	2.56
772.69	2.84
772.867	2.78
773.045	2.94
773.222	1.94
773.4	3.24
773.577	2.78
773.755	3.13
773.933	2.64
774.11	3.47
774.288	2.88
774.465	2.13
774.643	3.21
774.82	4.8
774.997	3.49
775.175	3.7
775.352	4.87
775.53	5.18
775.707	6.36
775.884	7.41
776.062	8.52
776.239	6.61
776.416	8.1
776.594	6.36
776.771	4.88
776.948	6.48
777.125	4.41
777.303	1.97
777.48	2.1
777.657	2.02
777.834	1.64
778.012	0.11
778.189	0.71
778.366	1.56
778.543	-0.11
778.72	0.78
778.897	-0.6
779.074	-2.99
779.251	-2.46
779.428	-3.5
779.605	-5.75
779.782	-7.87
779.959	-6.33
780.136	-8.08
780.313	-5.24
780.49	-6.31
780.667	-6.82
780.844	-6.39
781.021	-2.14
781.198	-3.49
781.375	-1.27
781.552	-1.78
781.728	-0.6
781.905	-2.87
782.082	-2.98
782.259	-3.48
782.436	-3.74
782.612	-4.04
782.789	-2.84
782.966	-5.43
783.143	-5.08
783.319	-2.45
783.496	-0.94
783.673	-1.07
783.849	0.03
784.026	-1.1
784.203	0.78
784.379	-0.36
784.556	1.25
784.732	-1.35
784.909	-0.64
785.085	-4.28
785.262	-3.01
785.438	-1.63
785.615	0.15
785.791	0.95
785.968	1.76
786.144	1.19
786.321	4.07
786.497	3.25
786.673	4.05
786.85	3.53
787.026	2.67
787.203	0.79
787.379	1.11
787.555	-1.85
787.731	-2.05
787.908	-3.38
788.084	-1.88
788.26	-3.89
788.437	-1.86
788.613	-1.75
788.789	-0.47
788.965	-2.94
789.141	-4.15
789.317	-4.76
789.494	-9.14
789.67	-10.88
789.846	-12.05
790.022	-14.81
790.198	-14.14
790.374	-13.6
790.55	-14.75
790.726	-18.06
790.902	-16.82
791.078	-15.28
791.254	-13.86
791.43	-12.79
791.606	-12.93
791.782	-13.4
791.958	-15.1
792.134	-16.57
792.31	-17.12
792.486	-18.01
792.661	-17.86
792.837	-15.2
793.013	-16.37
793.189	-13.46
793.365	-12.64
793.54	-9.82
793.716	-9.97
793.892	-8.66
794.068	-9.02
794.243	-7.31
794.419	-7.02
794.595	-6.22
794.77	-7.4
794.946	-3.68
795.122	-6.3
795.297	-5.37
795.473	-5.34
795.648	-2.68
795.824	-4.2
796	-4.01
796.175	-2.35
796.351	-0.35
796.526	-1.33
796.702	0.95
796.877	0.51
797.052	1.64
797.228	-0.03
797.403	-0.47
797.579	-1.23
797.754	-3.36
797.929	-3.63
798.105	-0.32
798.28	-1.33
798.455	-1.33
798.631	-3.54
798.806	0.13
798.981	-1.08
799.157	-2.42
799.332	-3.49
799.507	-2.02
799.682	-1.85
799.858	0.29
800.033	-0.19
800.208	-0.01
800.383	-1.3
800.558	-0.28
800.733	-1.32
800.908	0.37
801.083	2.05
801.258	1.05
801.434	2.74
801.609	2.19
801.784	0.87
801.959	0.21
802.134	-2.25
802.309	-4.93
802.484	-6.91
802.658	-4.81
802.833	-4.54
803.008	-6.13
803.183	-6.98
803.358	-9.1
803.533	-10.98
803.708	-11.09
803.883	-13.45
804.057	-16.44
804.232	-16.1
804.407	-14.66
804.582	-15.61
804.756	-16.28
804.931	-16.46
805.106	-18.15
805.281	-14.62
805.455	-13.8
805.63	-11.84
805.805	-11.85
805.979	-8.99
806.154	-9.19
806.328	-9.36
806.503	-6.87
806.678	-4.84
806.852	-3.98
807.027	1.18
807.201	-1.57
807.376	-1.18
807.55	0.77
807.725	1.17
807.899	2.53
808.074	2.64
808.248	3.81
808.422	3.78
808.597	2.08
808.771	5.69
808.946	7.33
809.12	7.8
809.294	3.54
809.468	7.53
809.643	9.39
809.817	9.35
809.991	11.07
810.166	11.67
810.34	12.84
810.514	14
810.688	11.31
810.862	11.05
811.037	12.06
811.211	11.49
811.385	12.49
811.559	12.54
811.733	11.41
811.907	9.29
812.081	8.03
812.255	8.19
812.429	5.84
812.603	1.61
812.777	-0.83
812.951	3.24
813.125	1.28
813.299	-1.84
813.473	-2.88
813.647	-3.39
813.821	-4.52
813.995	-5.66
814.169	-6.49
814.343	-6.66
814.516	-3.01
814.69	-3.17
814.864	-4.32
815.038	-3.93
815.212	-1.82
815.385	-2.06
815.559	-1.58
815.733	0.08
815.907	2.75
816.08	5.5
816.254	7.02
816.428	8.96
816.601	8.05
816.775	8.46
816.948	7.86
817.122	10.8
817.296	7.4
817.469	6.94
817.643	8.26
817.816	5.22
817.99	4.88
818.163	4.52
818.337	2.52
818.51	1.94
818.684	3.54
818.857	-1.18
819.031	0.69
819.204	0.96
819.377	0.79
819.551	-3.03
819.724	-2.2
819.897	-3.51
820.071	-2.75
820.244	-4.43
820.417	-7.19
820.591	-7.43
820.764	-8.42
820.937	-5.04
821.11	-5.17
821.284	-4
821.457	1.98
821.63	2.33
821.803	-0.49
821.976	0.61
822.149	5.31
822.322	6.26
822.496	3.92
822.669	7.94
822.842	10.96
823.015	10.3
823.188	12.45
823.361	11.17
823.534	8.1
823.707	3.49
823.88	2.11
824.053	3.37
824.226	4.98
824.399	5.61
824.571	6.33
824.744	8.11
824.917	6.52
825.09	2.6
825.263	5.37
825.436	9.62
825.608	8.89
825.781	8.61
825.954	8.99
826.127	9.07
826.299	3.61
826.472	1.52
826.645	3.11
826.818	2.98
826.99	1.07
827.163	1.73
827.336	3.51
827.508	5.53
827.681	5.09
827.853	5.87
828.026	5.37
828.198	4.86
828.371	2.98
828.544	4.72
828.716	4.85
828.889	1.36
829.061	-0.76
829.233	-2.68
829.406	-8.13
829.578	-10.94
829.751	-7.82
829.923	-7.07
830.096	-9.6
830.268	-8.72
830.44	-8.65
830.613	-6.41
830.785	-2.9
830.957	-4.01
831.129	-2.43
831.302	-1.09
831.474	-2.57
831.646	-0.64
831.818	-0.22
831.991	1.83
832.163	-0.73
832.335	-0.28
832.507	0.46
832.679	-0.63
832.851	-0.78
833.023	1.77
833.195	3.22
833.368	2.93
833.54	7.02
833.712	5.32
833.884	5.09
834.056	5.32
834.228	6.05
834.4	12.73
834.571	12.99
834.743	9.26
834.915	7.63
835.087	9.55
835.259	7.81
835.431	6.46
835.603	3.2
835.775	2.54
835.946	3.33
836.118	5.03
836.29	6.37
836.462	5.94
836.634	5.11
836.805	2.69
836.977	3.3
837.149	-0.38
837.32	6.32
837.492	6.83
837.664	4.84
837.835	1.59
838.007	-10.69
838.179	-10.61
838.35	-5.19
838.522	-0.46
838.693	-5.47
838.865	-13.5
839.036	-13.35
839.208	-10.18
839.379	-5.87
839.551	-5.26
839.722	-5.07
839.894	-8.78
840.065	-4.35
840.237	-3.33
840.408	-3.4
840.579	-2.5
840.751	-3.32
840.922	-5.08
841.093	-6.61
841.265	-4.94
841.436	-1.2
841.607	0.75
841.778	2.19
841.95	1.74
842.121	1.28
842.292	3.25
842.463	10.36
842.635	12.56
842.806	13.12
842.977	8.05
843.148	4.87
843.319	0.42
843.49	0.15
843.661	-7.93
843.832	-4.53
844.003	-1.32
844.174	1.37
844.345	4.3
844.516	-1.76
844.687	-4.94
844.858	-0.43
845.029	-4.05
845.2	0.5
845.371	0.88
845.542	-3.21
845.713	-10.94
845.884	-8.67
846.055	-18.16
846.225	-19.8
846.396	-24
846.567	-21.52
846.738	-23.6
846.909	-19.82
847.079	-13.1
847.25	-3.16
847.421	-6.98
847.591	-15.17
847.762	-15.19
847.933	-23.55
848.103	-14.57
848.274	-14.24
848.445	-17.71
848.615	-16.45
848.786	-19.93
848.956	-16.14
849.127	-8.56
849.297	2.4
849.468	1.94
849.638	7.88
849.809	8.61
849.979	14.02
850.15	17.39
850.32	22.33
850.491	20.68
850.661	17.35
850.831	11.64
851.002	11.8
851.172	18.16
851.342	12.64
851.513	18.37
851.683	15.29
851.853	15.93
852.024	16.52
852.194	16.79
852.364	14.78
852.534	11.96
852.705	12.14
852.875	10.1
853.045	12.94
853.215	13.86
853.385	15.32
853.555	12.83
853.725	9.37
853.895	7.27
854.066	7.64
854.236	11.04
854.406	14.15
854.576	15.37
854.746	9.58
854.916	11.97
855.086	6.96
855.256	12.66
855.425	13.73
855.595	13.14
855.765	14.49
855.935	20.9
856.105	21.55
856.275	22.13
856.445	14.27
856.614	8.59
856.784	8.67
856.954	4.27
857.124	5.04
857.294	8.25
857.463	7.08
857.633	12.77
857.803	4.82
857.972	5.15
858.142	8.98
858.312	14.48
858.481	17.09
858.651	13.83
858.821	9.19
858.99	10.24
859.16	8.12
859.329	3.49
859.499	0.93
859.668	5.92
859.838	2.06
860.007	15.85
860.177	22.16
860.346	24.58
860.516	24.75
860.685	18.07
860.854	11.79
861.024	14.02
861.193	9.63
861.363	13.21
861.532	8.8
861.701	7.62
861.87	3.59
862.04	4.7
862.209	9.07
862.378	12.48
862.547	14.18
862.717	18.71
862.886	23.91
863.055	24.99
863.224	23.37
863.393	22.16
863.563	15.77
863.732	16.47
863.901	9.78
864.07	13.95
864.239	19.74
864.408	25.92
864.577	23.08
864.746	27.81
864.915	25.98
865.084	29.66
865.253	28.59
865.422	28.81
865.591	22.57
865.76	19
865.929	19.26
866.097	21.44
866.266	14.6
866.435	6.94
866.604	2.74
866.773	0.4
866.942	-0.93
867.11	-1.76
867.279	-2.46
867.448	12.64
867.617	4.97
867.785	4.74
867.954	-4.19
868.123	0.12
868.291	-16.39
868.46	-5.55
868.629	3.9
868.797	1.85
868.966	-2.97
869.134	8.71
869.303	20.89
869.472	17.11
869.64	5.43
869.809	1.03
869.977	7.2
870.146	2.33
870.314	1.93
870.482	3.47
870.651	0.79
870.819	-8.69
870.988	-18.88
871.156	-15.16
871.324	-25.98
871.493	-32.23
871.661	-18.02
871.829	-6.07
871.998	-16.13
872.166	-33.13
872.334	-40.02
872.502	-26.77
872.671	-34.3
872.839	-32.83
873.007	-31.69
873.175	-26.96
873.343	-19.43
873.512	-17.25
873.68	-9.74
873.848	-8.88
874.016	-7.7
874.184	-9.48
874.352	-15.21
874.52	-6.62
874.688	-14.2
874.856	-6.95
875.024	-0.67
875.192	-9.87
875.36	-25.46
875.528	-22.77
875.696	-12.37
875.864	0.58
876.032	2.35
876.199	-2.47
876.367	-4.95
876.535	-13.02
876.703	-9.11
876.871	-4.28
877.039	6.81
877.206	12.37
877.374	13.26
877.542	16.76
877.71	18.55
877.877	23.01
878.045	24.78
878.213	31.44
878.38	35.06
878.548	45.7
878.715	48.03
878.883	60.93
879.051	66.55
879.218	55.5
879.386	48.1
879.553	42.32
879.721	39.51
879.888	37.92
880.056	48.29
880.223	43.06
880.391	45.14
880.558	12.56
880.726	22.58
880.893	19.63
881.06	14.29
881.228	9.66
881.395	21.31
881.562	15.82
881.73	5.3
881.897	2.26
882.064	1.19
882.231	-21.32
882.399	-30.27
882.566	-14.58
882.733	-1.47
882.9	-28.94
883.068	19.29
883.235	35.23
883.402	25.03
883.569	24.85
883.736	32.06
883.903	32.33
884.07	43.55
884.237	35.36
884.404	37.95
884.571	48.23
884.738	47.75
884.905	46.33
885.072	59.42
885.239	58.97
885.406	58.92
