#Video File Name: 09_risk-taking_3.avi
#Project ID: 09_risk-taking_3
#Event codes:
#1 also bal [hideg sarok]
#2 also kozepso
#3 also jobb
#4 kozepso bal
#5 kozepso kozep
#6 kozepso jobb
#7 felso bal
#8 felso kozep
#9 felso jobb [meleg sarok]
#q rejtekhely in [Q out]
#a napozas in [A out]
#z teljes test ki
#s inaktiv [S out]
#Field separator: ;
#MWrap version: Wed Feb 14 09:50:29 CET 2018
#id;description;key;time;duration;object id
1;rejtekhely in [Q out];q;55.50;0.00;1
2;q-end;Q;311.50;256.00;1
3;teljes test ki;z;317.00;0.00;1
4;napozas in [A out];a;348.00;0.00;1
5;a-end;A;366.00;18.00;1
