Data from Transmission_09-50-51-541.txt Node
Date: Fri Aug 24 09:50:51 EEST 2018
User: tibor.sos
Spectrometer: USB4F01757
Scans to average: 10
Trigger mode: 4
Integration Time (sec): 1.000000E-2
Electric dark correction enabled: true
Boxcar width: 10
XAxis mode: Wavelengths
Number of Pixels in Spectrum: 3648
>>>>>Begin Spectral Data<<<<<
178.758	-75.94
178.974	-268.7
179.191	-231.16
179.407	-89.55
179.624	-71.54
179.84	-83.24
180.057	-106.44
180.273	-70.01
180.489	-58.87
180.706	-141.36
180.922	-82.55
181.138	-50.35
181.355	-12.89
181.571	-4.64
181.787	7.77
182.004	13.6
182.22	-30.99
182.436	-60.73
182.653	-1.42
182.869	14.29
183.085	32.08
183.301	34.28
183.518	49.47
183.734	36.26
183.95	37.09
184.166	48.01
184.383	60.99
184.599	47.68
184.815	32.19
185.031	24.11
185.247	46.26
185.463	34.26
185.68	25.39
185.896	35.26
186.112	50.63
186.328	68.87
186.544	103.35
186.76	137.9
186.976	140.67
187.192	129.36
187.408	118.77
187.624	160.62
187.84	116.63
188.056	107.47
188.272	91.1
188.488	100.83
188.704	80.7
188.92	60.63
189.136	53.87
189.352	61.85
189.568	61.38
189.784	56.27
190	75.79
190.216	93.04
190.432	80.11
190.648	83.13
190.864	26.17
191.08	63.57
191.296	22.07
191.511	2.78
191.727	36.85
191.943	73.24
192.159	15.09
192.375	13.74
192.591	-36.45
192.806	-93.24
193.022	-88.68
193.238	-214.29
193.454	-58
193.669	-70.83
193.885	-117.61
194.101	-161.13
194.317	-65.66
194.532	-1304.49
194.748	1261.34
194.964	-218.98
195.18	-124.09
195.395	-78.87
195.611	-47.55
195.827	-102.36
196.042	-418.07
196.258	-217.37
196.473	-129.96
196.689	-131.6
196.905	-153.65
197.12	-769.31
197.336	-299.29
197.551	309.41
197.767	15500
197.982	78.21
198.198	1083.56
198.414	1297.75
198.629	287.99
198.845	122.3
199.06	188.39
199.276	128.65
199.491	401.62
199.707	190.86
199.922	143.16
200.137	125.72
200.353	111.58
200.568	83.65
200.784	81.59
200.999	72.1
201.215	110.08
201.43	76.18
201.645	117.09
201.861	144.12
202.076	132.23
202.291	124.02
202.507	111.66
202.722	54.51
202.937	30.58
203.153	-11.11
203.368	51.88
203.583	71.58
203.798	93.35
204.014	57.6
204.229	55.08
204.444	46.28
204.659	-84.52
204.875	-55.14
205.09	-116.81
205.305	783.02
205.52	-54.47
205.735	14.97
205.951	-916
206.166	224.05
206.381	183.24
206.596	2081.82
206.811	880.12
207.026	444.65
207.241	159.07
207.457	-131.15
207.672	-50.41
207.887	199.07
208.102	250.73
208.317	306.56
208.532	-811.86
208.747	966.67
208.962	974.9
209.177	-1517.45
209.392	-892.52
209.607	-341.11
209.822	-412.95
210.037	-270.98
210.252	-324.31
210.467	-523.95
210.682	-177.04
210.897	-192.2
211.112	-243.69
211.326	-201.04
211.541	-280.45
211.756	-122.85
211.971	-326.8
212.186	-205.45
212.401	-232.94
212.616	-212.31
212.831	-177.41
213.045	-278.59
213.26	-207.02
213.475	-138.33
213.69	-187.73
213.905	-197.74
214.119	-854.75
214.334	8240.74
214.549	1087.04
214.764	-1314.51
214.978	-715.7
215.193	-972.73
215.408	6412.82
215.622	-1063.02
215.837	-5522.22
216.052	2778.16
216.266	688.86
216.481	724.53
216.696	555.97
216.91	-7130.3
217.125	-506.08
217.34	-962.18
217.554	-938.92
217.769	336.19
217.983	219.62
218.198	252.32
218.412	464.63
218.627	-188.2
218.842	-65.37
219.056	-81.14
219.271	-44.9
219.485	-102.82
219.7	-84.55
219.914	1.9
220.129	36.19
220.343	27.49
220.558	-15
220.772	-65.43
220.986	8.87
221.201	-58.99
221.415	183.37
221.63	197.91
221.844	98.82
222.058	104.72
222.273	118.53
222.487	128.19
222.702	229.16
222.916	235.94
223.13	114.19
223.344	85.64
223.559	57.71
223.773	77.12
223.987	65.89
224.202	89.6
224.416	95.88
224.63	53.46
224.844	49.11
225.059	64.47
225.273	-108.08
225.487	-80.8
225.701	75.76
225.915	-2.02
226.13	38.77
226.344	29.61
226.558	9
226.772	5.69
226.986	16.56
227.2	42.49
227.415	53.97
227.629	27.68
227.843	-6.46
228.057	6.52
228.271	14.09
228.485	-4.32
228.699	-12.98
228.913	-37.85
229.127	-53.95
229.341	-62.33
229.555	-106.52
229.769	-166.29
229.983	-241.11
230.197	-221.06
230.411	-162.99
230.625	-175.31
230.839	-146.5
231.053	-261.27
231.267	-745.5
231.481	-646.48
231.695	-480.78
231.909	-194.01
232.122	-59.12
232.336	-43.04
232.55	-53.12
232.764	-191.86
232.978	-157.36
233.192	-259.47
233.405	-402.74
233.619	-217.4
233.833	-119.26
234.047	-169.1
234.261	-282.97
234.474	-169.4
234.688	534.42
234.902	498.1
235.116	343.03
235.329	276.89
235.543	383.02
235.757	119.76
235.97	106.69
236.184	100.57
236.398	96.59
236.612	94.74
236.825	146.33
237.039	223.55
237.252	197.8
237.466	774.46
237.68	2028.81
237.893	-80100
238.107	-204.35
238.32	380
238.534	2.64
238.748	-56.11
238.961	12.68
239.175	-22.68
239.388	-65.81
239.602	-271.26
239.815	-151.99
240.029	-380.76
240.242	-352.54
240.456	-249.66
240.669	-287.1
240.882	-228.11
241.096	-566.32
241.309	-371.58
241.523	-524.07
241.736	-632.72
241.95	1754.75
242.163	-2157.14
242.376	-697.79
242.59	-3133.6
242.803	22753.33
243.016	1200.3
243.23	2457.98
243.443	21820
243.656	-2743.61
243.87	-435.93
244.083	-195.66
244.296	-144.34
244.509	-144.59
244.723	-124.91
244.936	-92.48
245.149	-152.7
245.362	-169.97
245.576	-44.28
245.789	-36.66
246.002	-26.22
246.215	-44.58
246.428	-11.72
246.641	-23.64
246.855	-22.49
247.068	11.73
247.281	-59.27
247.494	-2.72
247.707	-41.93
247.92	-53.89
248.133	-26.64
248.346	-44.65
248.559	-33.13
248.772	-89.47
248.985	-37.88
249.198	-14.29
249.411	-23.07
249.624	-4.72
249.837	-21.5
250.05	-33.44
250.263	-56.7
250.476	-69.05
250.689	-48.35
250.902	-54.02
251.115	-56.46
251.328	-49.02
251.541	-38.21
251.754	-25.48
251.967	-35.7
252.18	-30.15
252.393	-31.62
252.605	-30.27
252.818	-25.73
253.031	-34.23
253.244	-20.11
253.457	-33.89
253.67	-46.21
253.882	-47.63
254.095	-30.25
254.308	-24.89
254.521	-33.63
254.733	-19.27
254.946	-11.5
255.159	-12.69
255.372	-16.69
255.584	-16.29
255.797	-23.06
256.01	-47.46
256.222	-45.16
256.435	-41.83
256.648	-23.73
256.86	-24.59
257.073	-20.09
257.285	-17.54
257.498	-24.73
257.711	-20.6
257.923	-9.47
258.136	1.33
258.348	6.56
258.561	0.77
258.773	-12.36
258.986	-22.03
259.198	-36.23
259.411	-98.14
259.623	-58.35
259.836	-37.01
260.048	-27.16
260.261	-2.13
260.473	7.82
260.686	-1.19
260.898	-5.76
261.111	-26.51
261.323	-11.84
261.535	-10.06
261.748	-13.64
261.96	-0.61
262.173	5.31
262.385	6.69
262.597	0.74
262.81	-1.73
263.022	-12.18
263.234	1.77
263.447	9.55
263.659	15.81
263.871	28.45
264.083	29.15
264.296	22.48
264.508	20.14
264.72	9.27
264.932	14.55
265.145	4.78
265.357	-1.2
265.569	-6.77
265.781	-19.56
265.993	-37.94
266.205	-64.94
266.418	-77.18
266.63	-127.2
266.842	-110.05
267.054	-88.96
267.266	-80.21
267.478	-62.55
267.69	-55.07
267.902	-51.91
268.114	-65.43
268.326	-65.74
268.538	-69.04
268.75	-49.62
268.962	-51.05
269.174	-44.89
269.386	-21.43
269.598	1.92
269.81	5.73
270.022	5.87
270.234	12.84
270.446	18.36
270.658	19.88
270.87	21.75
271.082	27.72
271.294	28.55
271.506	24.2
271.718	18.45
271.929	21.42
272.141	18.53
272.353	18.87
272.565	19.46
272.777	20.17
272.989	19.9
273.2	25.72
273.412	28.65
273.624	30.53
273.836	22.5
274.047	22.25
274.259	27.52
274.471	28.14
274.683	20.94
274.894	21.48
275.106	24.67
275.318	22.62
275.529	18.48
275.741	4.7
275.953	9.64
276.164	22.36
276.376	17.61
276.588	19.85
276.799	12.58
277.011	9.86
277.222	3.57
277.434	-4.76
277.646	-21.14
277.857	-22.77
278.069	-24.3
278.28	-18.81
278.492	-25.83
278.703	-26.13
278.915	-16.07
279.126	-9.86
279.338	-8.43
279.549	-8.55
279.761	-1.96
279.972	-3.67
280.183	-0.9
280.395	-1.02
280.606	-13.08
280.818	-19.02
281.029	-15.44
281.24	-15.09
281.452	-13
281.663	-12.08
281.875	-9.36
282.086	-6.09
282.297	-11.99
282.508	-6.27
282.72	-3.95
282.931	-2.08
283.142	-6.97
283.354	-10.55
283.565	-19.86
283.776	-24.33
283.987	-39.61
284.199	-40.55
284.41	-18.4
284.621	-6.22
284.832	-7.25
285.043	1.32
285.254	-3.48
285.466	-15.54
285.677	-4.01
285.888	-15.33
286.099	-14.56
286.31	-10.37
286.521	-24.28
286.732	-26.72
286.943	-27.03
287.154	-26.74
287.366	-20.93
287.577	-15.07
287.788	-13.77
287.999	-7.85
288.21	-16.65
288.421	-8.28
288.632	-9.42
288.843	-13.95
289.054	-15.57
289.264	-21.12
289.475	-27.88
289.686	-17.5
289.897	-16.9
290.108	-12.86
290.319	-12.5
290.53	-12.33
290.741	-21.63
290.952	-9.49
291.163	-3.56
291.373	0.43
291.584	2.41
291.795	-2.28
292.006	-4.59
292.217	-3.65
292.427	-3.93
292.638	4.04
292.849	-2.74
293.06	0.32
293.27	0.08
293.481	2.23
293.692	7.79
293.903	8.93
294.113	7.29
294.324	13.56
294.535	2.29
294.745	6.27
294.956	12.76
295.167	13.74
295.377	7.8
295.588	4.73
295.798	-3.15
296.009	-11.8
296.22	-12.89
296.43	-13.3
296.641	-20.01
296.851	-22.63
297.062	-29.02
297.272	-27.25
297.483	-35.92
297.693	-38.15
297.904	-41.47
298.114	-34.22
298.325	-25.71
298.535	-31.12
298.746	-33.78
298.956	-26.31
299.167	-32.68
299.377	-39.92
299.587	-37.58
299.798	-36.99
300.008	-41.44
300.219	-33.32
300.429	-24.01
300.639	-19.4
300.85	-16.8
301.06	-18.73
301.27	-7.65
301.481	-4.32
301.691	-2.04
301.901	4.03
302.111	3.4
302.322	3.94
302.532	3.51
302.742	-3.58
302.952	-4.01
303.163	-12.54
303.373	-18.49
303.583	-9.95
303.793	-9.46
304.003	-6.57
304.214	-2.76
304.424	-3.21
304.634	-6.39
304.844	-5.64
305.054	-6.33
305.264	-11.24
305.474	-3.61
305.684	-14.73
305.894	-13.59
306.104	-12.92
306.314	-19.52
306.525	-18.6
306.735	-19.88
306.945	-32.39
307.155	-23.88
307.365	-21.49
307.575	-15.32
307.784	-12.62
307.994	-20.38
308.204	-23.8
308.414	-18.44
308.624	-21.87
308.834	-13.09
309.044	-18.22
309.254	-14.7
309.464	-14.59
309.674	-13.68
309.884	-18.57
310.093	-11.16
310.303	-11.86
310.513	-0.87
310.723	3.31
310.933	5.97
311.142	5.61
311.352	8
311.562	7.07
311.772	8.11
311.981	8.86
312.191	8.65
312.401	10.69
312.611	14.42
312.82	10.4
313.03	13.39
313.24	10.66
313.449	15.56
313.659	12.43
313.869	6.69
314.078	8.18
314.288	6.49
314.497	-1.07
314.707	-0.82
314.917	-15.42
315.126	-10.08
315.336	-10.58
315.545	-12.48
315.755	-7.89
315.964	-7.74
316.174	-3.07
316.383	-5.85
316.593	-4.16
316.802	1.29
317.012	2.28
317.221	2.17
317.431	-0.94
317.64	3.71
317.849	-2.72
318.059	-4
318.268	6.39
318.478	10.71
318.687	10.4
318.896	12.93
319.106	11.64
319.315	13.43
319.524	4.32
319.734	-0.25
319.943	2.24
320.152	-0.2
320.362	-4.04
320.571	-6.5
320.78	-8.96
320.989	-3.84
321.199	-6.99
321.408	-12.51
321.617	-16.98
321.826	-19.52
322.035	-28.57
322.245	-23.31
322.454	-20.43
322.663	-20.95
322.872	-24.56
323.081	-25.86
323.29	-26.47
323.5	-25.65
323.709	-26.1
323.918	-22.18
324.127	-24.29
324.336	-31.76
324.545	-31.17
324.754	-25.47
324.963	-31.7
325.172	-25.89
325.381	-29.14
325.59	-25.37
325.799	-25.37
326.008	-22.95
326.217	-18.54
326.426	-3.46
326.635	-6.44
326.844	-12.27
327.053	-14.38
327.262	-12.86
327.47	-14.08
327.679	-11.69
327.888	-4.55
328.097	1.52
328.306	3.63
328.515	6.72
328.724	15.15
328.932	12.13
329.141	10.4
329.35	13.25
329.559	16.82
329.768	23.07
329.976	18.85
330.185	22.54
330.394	20.35
330.602	20.02
330.811	4.79
331.02	5.19
331.229	6.59
331.437	10.65
331.646	6.06
331.855	9.32
332.063	6.49
332.272	0.73
332.48	-3.44
332.689	-3.83
332.898	-5.83
333.106	-11.26
333.315	-11.05
333.523	-9.63
333.732	-11.35
333.94	-8.46
334.149	-17.83
334.357	-22.28
334.566	-17.64
334.774	-14.28
334.983	-11.97
335.191	-7.15
335.4	-13.58
335.608	-16.52
335.817	-25.86
336.025	-24.96
336.234	-36.6
336.442	-15.7
336.65	-20.34
336.859	-12.96
337.067	-15.11
337.275	-8.8
337.484	-10.25
337.692	0.52
337.9	4.89
338.109	6.63
338.317	-12.23
338.525	-0.71
338.734	5.08
338.942	1.77
339.15	-10.22
339.358	-19.44
339.567	-12.97
339.775	-3.99
339.983	-16.59
340.191	-18.75
340.399	-16.54
340.608	-3.77
340.816	-8.39
341.024	-1.28
341.232	-6.15
341.44	-1.84
341.648	-2.8
341.856	-0.8
342.064	-8.71
342.272	-18.1
342.481	-16.37
342.689	-10.03
342.897	-12.86
343.105	-12.7
343.313	-5.92
343.521	0.38
343.729	-0.01
343.937	-7.02
344.145	-7.87
344.353	2.37
344.56	-1.1
344.768	-1.44
344.976	-6.17
345.184	-10.6
345.392	-12.31
345.6	-8.21
345.808	-12.25
346.016	-11.25
346.224	-6.55
346.431	-4.8
346.639	1.32
346.847	-2.81
347.055	-2.5
347.263	-14.51
347.471	-13.37
347.678	-23.03
347.886	-25.35
348.094	-21.45
348.302	-9.42
348.509	-9.08
348.717	-15.1
348.925	-15.39
349.132	-19.68
349.34	-20.87
349.548	-18.54
349.755	-20.27
349.963	-28.59
350.171	-31.14
350.378	-28.92
350.586	-35.85
350.793	-35.52
351.001	-36.08
351.209	-29.02
351.416	-18.91
351.624	-11.75
351.831	-21.07
352.039	-22.02
352.246	-29.01
352.454	-35.67
352.661	-42.85
352.869	-42.56
353.076	-39.06
353.284	-25.01
353.491	-11.71
353.699	-11.1
353.906	-9.7
354.113	-5.59
354.321	-4.37
354.528	5.92
354.736	1.8
354.943	1.53
355.15	6.9
355.358	1.58
355.565	-5.48
355.772	-9.42
355.98	-6.46
356.187	-1.24
356.394	-5.67
356.601	-5.84
356.809	3.86
357.016	10.09
357.223	5.49
357.43	0.4
357.638	0.09
357.845	-0.57
358.052	0.6
358.259	2.14
358.466	-6.6
358.673	-7.37
358.881	-9.01
359.088	-10.65
359.295	-9.83
359.502	-27.13
359.709	-26.9
359.916	-21.61
360.123	-21.77
360.33	-31.32
360.537	-28.63
360.744	-13.37
360.951	-16.02
361.158	-13.86
361.365	-13.6
361.572	0.18
361.779	9.06
361.986	8.87
362.193	8.59
362.4	16.43
362.607	8.27
362.814	9.53
363.021	13.28
363.228	8.8
363.435	9.93
363.641	9.87
363.848	17.45
364.055	20.8
364.262	26.86
364.469	22.27
364.676	24.75
364.882	22.07
365.089	11.69
365.296	13.26
365.503	9.31
365.709	3.45
365.916	-0.32
366.123	4.67
366.33	-3.13
366.536	-2.74
366.743	-14.92
366.95	-16.85
367.156	-11.57
367.363	-11.49
367.57	-19.04
367.776	-18.85
367.983	-13.68
368.19	-14.61
368.396	-13.95
368.603	-16.6
368.809	0.15
369.016	-5.69
369.222	-9
369.429	6.13
369.635	10.3
369.842	1.98
370.048	5.25
370.255	4.07
370.461	-0.57
370.668	0.23
370.874	0.97
371.081	4.88
371.287	10.6
371.494	4.23
371.7	3.42
371.906	-0.22
372.113	3.11
372.319	-0.87
372.526	1.42
372.732	2.76
372.938	-4.96
373.145	-15.2
373.351	-5.73
373.557	-7.93
373.763	-14.94
373.97	-15.6
374.176	-7.38
374.382	-4.21
374.588	-6.49
374.795	-6.32
375.001	-12.73
375.207	-20.27
375.413	-19.24
375.62	-16.06
375.826	-7.55
376.032	-11.42
376.238	-7.62
376.444	-12.6
376.65	-13.22
376.856	-27.73
377.062	-20.24
377.269	-8.5
377.475	-13.96
377.681	-28.25
377.887	-20.78
378.093	-39.49
378.299	-34.07
378.505	-36.88
378.711	-37.67
378.917	-38.5
379.123	-32.02
379.329	-16.09
379.535	-13.02
379.741	-13.12
379.947	-15.26
380.152	-19.81
380.358	-20.35
380.564	-22.47
380.77	-28.57
380.976	-28.47
381.182	-15.53
381.388	-18.74
381.594	-27.08
381.799	-20.06
382.005	-14.95
382.211	-10.09
382.417	-1.18
382.623	-9.77
382.828	-4.7
383.034	-9.08
383.24	-10.22
383.445	-14.39
383.651	-22.3
383.857	-30.35
384.063	-18.43
384.268	-30.29
384.474	-23.33
384.68	-22.98
384.885	-13.97
385.091	-11.71
385.296	-8.4
385.502	-8.17
385.708	-15.38
385.913	-10.83
386.119	-13.98
386.324	-19.03
386.53	-28.5
386.735	-38.78
386.941	-21.36
387.146	-26.87
387.352	-20.01
387.557	-9.54
387.763	-8.81
387.968	-10.82
388.174	-6.93
388.379	-21.91
388.585	-13.52
388.79	-16.57
388.996	-18.65
389.201	-14.21
389.406	-13.47
389.612	-14.28
389.817	-12.76
390.022	-4.28
390.228	2.55
390.433	3.5
390.638	-0.83
390.844	-6.36
391.049	-6.35
391.254	-11.62
391.459	-14.16
391.665	-13.94
391.87	-23.22
392.075	-12.86
392.28	-6.7
392.485	-2.41
392.691	-4.98
392.896	-12.2
393.101	-14
393.306	-4.22
393.511	-8.34
393.716	-3.52
393.922	-14.17
394.127	-17.95
394.332	-18.92
394.537	-26.19
394.742	-23.89
394.947	-24.97
395.152	-18.31
395.357	-16.85
395.562	-14.01
395.767	-16.93
395.972	-21.85
396.177	-18.14
396.382	-23.91
396.587	-23.28
396.792	-26.9
396.997	-17.59
397.202	-9.67
397.407	-13.29
397.611	-12.75
397.816	-9.03
398.021	-13.19
398.226	-9.33
398.431	-6.32
398.636	-7.34
398.841	-4.16
399.045	-3.45
399.25	-2.16
399.455	0.3
399.66	8.29
399.864	5.91
400.069	0.7
400.274	6.13
400.479	9.43
400.683	9.99
400.888	5.1
401.093	2.33
401.297	1.89
401.502	-2.12
401.707	-4.16
401.911	-1.22
402.116	-0.02
402.321	8.33
402.525	16.44
402.73	11.49
402.934	14.56
403.139	17.82
403.344	11.55
403.548	10.58
403.753	8.31
403.957	-6.15
404.162	-15.97
404.366	-3.67
404.571	-1.61
404.775	-8.72
404.98	-13.22
405.184	-5.79
405.388	6.62
405.593	-2.37
405.797	-6.27
406.002	4.62
406.206	-4.91
406.41	-3.48
406.615	-0.38
406.819	-1.62
407.023	-1.52
407.228	-4.79
407.432	-15.91
407.636	-22.42
407.841	-23.51
408.045	-20.29
408.249	-24.75
408.453	-12.4
408.658	-11.08
408.862	-11.83
409.066	-13.21
409.27	-12.96
409.474	-20.9
409.679	-39.91
409.883	-38.55
410.087	-47.91
410.291	-45.81
410.495	-53.07
410.699	-62.71
410.903	-73.97
411.108	-56.58
411.312	-59.25
411.516	-65.61
411.72	-49.57
411.924	-29.94
412.128	-26.05
412.332	-32.22
412.536	-20.53
412.74	-18.74
412.944	-15.02
413.148	-19.88
413.352	-19.01
413.556	-27.54
413.76	-26.14
413.964	-11.83
414.167	-0.08
414.371	7.76
414.575	-0.49
414.779	2.62
414.983	16.21
415.187	21.25
415.391	20.93
415.594	34.25
415.798	25.89
416.002	18.64
416.206	13.19
416.41	11.96
416.613	7.24
416.817	-4.66
417.021	-7.91
417.225	-7.7
417.428	-11.51
417.632	-18.92
417.836	-17.38
418.039	-2.48
418.243	2.36
418.447	-12.62
418.65	-14.25
418.854	-11.86
419.057	-7.4
419.261	-22.16
419.465	-32.46
419.668	-28.68
419.872	-46.14
420.075	-45.78
420.279	-29.26
420.482	-22.83
420.686	-20.27
420.889	-22.36
421.093	-7.07
421.296	-6.87
421.5	-19.99
421.703	-23.85
421.907	-14.62
422.11	-19.4
422.314	-36.2
422.517	-57.62
422.72	-44.17
422.924	-38.77
423.127	-43.97
423.33	-49.92
423.534	-45.08
423.737	-34.42
423.94	-36.55
424.144	-25.78
424.347	-17.17
424.55	-30.45
424.754	-44.95
424.957	-45.47
425.16	-29.84
425.363	-34.88
425.567	-35.44
425.77	-21.92
425.973	-17.7
426.176	-27.23
426.379	-13.8
426.582	-6.03
426.786	8.75
426.989	3.56
427.192	7.63
427.395	12.79
427.598	12.68
427.801	7.53
428.004	0.93
428.207	7.85
428.41	3.53
428.613	0.21
428.816	6.65
429.019	9.99
429.222	2.14
429.425	-0.63
429.628	3.87
429.831	8.93
430.034	9.38
430.237	12.01
430.44	16.58
430.643	9.65
430.846	12.1
431.049	6.51
431.252	10.35
431.454	5.69
431.657	0.99
431.86	1.92
432.063	3.32
432.266	11.2
432.469	3.77
432.671	6.27
432.874	7
433.077	2.16
433.28	11.97
433.482	13.16
433.685	7.32
433.888	4.57
434.09	-4.06
434.293	-13.27
434.496	-12.95
434.698	-20.31
434.901	-9.43
435.104	-18.75
435.306	-6.94
435.509	-14.06
435.712	-17.49
435.914	-26.24
436.117	-16.19
436.319	-10.54
436.522	-14.47
436.724	-17.91
436.927	-24.51
437.129	-20.48
437.332	-21.47
437.534	-29.72
437.737	-41.39
437.939	-21.7
438.142	-29.46
438.344	-24.94
438.547	-28.13
438.749	-17.47
438.951	-22.08
439.154	-23.2
439.356	-24.82
439.558	-42.35
439.761	-41.18
439.963	-29.97
440.165	-19.23
440.368	-27.63
440.57	-52.63
440.772	-59.97
440.975	-60.36
441.177	-38.75
441.379	-55.26
441.581	-46.92
441.784	-51.05
441.986	-34
442.188	-42.89
442.39	-40.57
442.592	-51.61
442.795	-38.95
442.997	-41.83
443.199	-35.1
443.401	-32.7
443.603	-25.56
443.805	-30.55
444.007	-17.93
444.209	-24.73
444.411	-15.56
444.613	-15.57
444.815	-0.41
445.017	-3.64
445.219	2.08
445.421	-1.82
445.623	2.45
445.825	-3.19
446.027	-8.55
446.229	-20.03
446.431	-11.96
446.633	-20.12
446.835	-14.53
447.037	-19.15
447.239	-27.64
447.441	-33.88
447.643	-33.6
447.844	-43.24
448.046	-30.18
448.248	-36.4
448.45	-30.13
448.652	-41.28
448.853	-27.91
449.055	-31.49
449.257	-27.27
449.459	-37.44
449.66	-39.16
449.862	-40.34
450.064	-16.22
450.266	-15.1
450.467	-3.36
450.669	-5.94
450.871	-16.37
451.072	-9.39
451.274	-13.86
451.475	-8.63
451.677	6.05
451.879	0.29
452.08	-10.92
452.282	-13.63
452.483	-26.8
452.685	-24.26
452.886	-8.45
453.088	-30.16
453.289	-48.38
453.491	-69.44
453.692	-80.2
453.894	-73.24
454.095	-58.1
454.297	-76.45
454.498	-63.71
454.7	-60.44
454.901	-42.73
455.102	-27.76
455.304	-18.93
455.505	-17.67
455.706	-24.52
455.908	-31.32
456.109	-34.2
456.31	-29.99
456.512	-39.64
456.713	-29.5
456.914	-30.62
457.116	-49.48
457.317	-34.35
457.518	-34.67
457.719	-24.93
457.921	-26.48
458.122	-40.02
458.323	-42.07
458.524	-37.16
458.725	-32.33
458.926	-37.65
459.128	-39.89
459.329	-32.62
459.53	-43.24
459.731	-44.66
459.932	-53.07
460.133	-59.08
460.334	-47.47
460.535	-43.33
460.736	-31.87
460.937	-46.06
461.138	-52.55
461.339	-43.93
461.54	-42.8
461.741	-41.46
461.942	-33.91
462.143	-26.83
462.344	-28.18
462.545	-29.99
462.746	-33.37
462.947	-46.2
463.148	-37.69
463.348	-39.07
463.549	-45.18
463.75	-48.21
463.951	-42.53
464.152	-39.76
464.353	-36.28
464.553	-21.82
464.754	-16.74
464.955	-14.64
465.156	-1.14
465.356	-0.74
465.557	-1.7
465.758	-10.49
465.959	-0.01
466.159	-5.75
466.36	-4.88
466.561	-0.41
466.761	-1.59
466.962	2.95
467.163	11.42
467.363	3.57
467.564	8.22
467.764	7.97
467.965	8.91
468.166	1.23
468.366	9.4
468.567	15.35
468.767	15.09
468.968	9.59
469.168	6.72
469.369	4.08
469.569	2.62
469.77	2.34
469.97	1.81
470.17	-1.6
470.371	5.25
470.571	1.87
470.772	11.82
470.972	13.9
471.172	17.87
471.373	9.8
471.573	12.63
471.773	6.58
471.974	11
472.174	12.03
472.374	20.33
472.575	17.59
472.775	15.13
472.975	6.1
473.175	10.35
473.376	7.9
473.576	7.81
473.776	14.4
473.976	11.26
474.177	18.44
474.377	15.06
474.577	11.03
474.777	8.91
474.977	3.78
475.177	7.19
475.377	1.33
475.577	8.5
475.777	7.38
475.978	9.09
476.178	6.67
476.378	7.71
476.578	11.12
476.778	7.54
476.978	12.61
477.178	9.87
477.378	12.13
477.578	7.63
477.778	1.46
477.977	-6.72
478.177	-5.36
478.377	-8.78
478.577	-9.72
478.777	-7.39
478.977	-3.49
479.177	-4.21
479.377	-6.58
479.577	-7.11
479.776	-8.03
479.976	-9.03
480.176	-12.59
480.376	-14.45
480.576	-17.86
480.775	-26.67
480.975	-21.11
481.175	-29.92
481.374	-22.73
481.574	-19.33
481.774	-16.99
481.974	-13.47
482.173	-10.62
482.373	-15.41
482.572	-12.25
482.772	-4.37
482.972	-4.68
483.171	-5.71
483.371	0.72
483.57	-0.96
483.77	1.6
483.97	-2.74
484.169	-1.66
484.369	-3.41
484.568	-4.95
484.768	-2.58
484.967	-2.08
485.167	-2.12
485.366	-1.69
485.566	-5.9
485.765	-7.88
485.964	-8.45
486.164	-8.28
486.363	-7.58
486.563	2.73
486.762	-0.3
486.961	-5.61
487.161	-3.8
487.36	-5.79
487.559	-7.59
487.759	-8.62
487.958	-16.18
488.157	-12.86
488.356	-12.28
488.556	-7.68
488.755	-3.47
488.954	-4.51
489.153	-1.58
489.353	-0.88
489.552	-2.95
489.751	-4.94
489.95	-0.56
490.149	0.92
490.348	3.28
490.548	5.83
490.747	-0.99
490.946	-0.7
491.145	-0.52
491.344	-5.6
491.543	-6.04
491.742	-10.32
491.941	-14.18
492.14	-12.68
492.339	-15.25
492.538	-12.02
492.737	-13.96
492.936	-8.97
493.135	-7.16
493.334	-12.42
493.533	-22.24
493.732	-15.63
493.931	-5.46
494.13	-16.46
494.328	-8.96
494.527	-12.02
494.726	-12.73
494.925	-17.27
495.124	-15.85
495.323	-14.9
495.521	-13.44
495.72	-8.56
495.919	-4.65
496.118	-0.86
496.316	1.05
496.515	3.16
496.714	-2.57
496.913	-1.14
497.111	-6.06
497.31	-6.69
497.509	-2.17
497.707	4.44
497.906	4.79
498.105	-5.04
498.303	-4.51
498.502	-6.51
498.7	-4.96
498.899	-8.47
499.097	-3.38
499.296	-6.49
499.495	-4.5
499.693	-6.37
499.892	-11.05
500.09	-16.41
500.289	-12.29
500.487	-12.49
500.686	-10.8
500.884	-8.61
501.082	-3.77
501.281	-7.27
501.479	-4.7
501.678	-10.5
501.876	-13.73
502.074	-12.24
502.273	-8.42
502.471	-5.13
502.669	-12.01
502.868	-14.77
503.066	-10.2
503.264	-5.04
503.463	-0.94
503.661	-7.38
503.859	-6.47
504.057	-1.09
504.256	-3.45
504.454	-4.95
504.652	-10.68
504.85	-9.97
505.048	-6.71
505.246	-9.9
505.445	-5.7
505.643	-7.62
505.841	-2.84
506.039	0.95
506.237	-5.3
506.435	-5.22
506.633	-3.49
506.831	4.99
507.029	5.06
507.227	5.65
507.425	4.35
507.623	1.74
507.821	2.7
508.019	6.29
508.217	3.5
508.415	9.84
508.613	8.37
508.811	13.58
509.009	13.43
509.207	11.97
509.405	9.69
509.603	8.47
509.8	7.91
509.998	7.31
510.196	6.86
510.394	8.02
510.592	13.52
510.79	10.46
510.987	3.24
511.185	4.2
511.383	0.69
511.581	-5.38
511.778	-1.86
511.976	4.03
512.174	-0.04
512.371	1.12
512.569	-2.96
512.767	-0.53
512.964	-1.91
513.162	-3.88
513.36	-5.99
513.557	-9.86
513.755	-6.83
513.952	-4.02
514.15	-7.95
514.348	-7.51
514.545	-8.45
514.743	-11.36
514.94	-11.06
515.138	-7.86
515.335	-5.91
515.533	-3.8
515.73	-2.03
515.927	-1.04
516.125	-4.4
516.322	-1.45
516.52	-0.73
516.717	1.86
516.915	1.61
517.112	1.43
517.309	1.06
517.507	1.65
517.704	6.94
517.901	1.76
518.099	0.15
518.296	4.17
518.493	1.99
518.69	3.23
518.888	2.08
519.085	1.93
519.282	2.35
519.479	1.14
519.676	-4.76
519.874	-8.26
520.071	-12.9
520.268	-12.36
520.465	-13.18
520.662	-15.37
520.859	-17.65
521.056	-17.15
521.254	-15.07
521.451	-11.41
521.648	-11.52
521.845	-15.48
522.042	-12.74
522.239	-13.62
522.436	-18.01
522.633	-23.93
522.83	-21.5
523.027	-24.71
523.224	-21.47
523.421	-21.34
523.618	-24.89
523.815	-16.28
524.011	-13.52
524.208	-6.19
524.405	-10.97
524.602	-11.2
524.799	-17.09
524.996	-15.11
525.193	-20.42
525.389	-19.86
525.586	-22.29
525.783	-24.23
525.98	-18.61
526.176	-16.63
526.373	-19
526.57	-17.01
526.767	-12.69
526.963	-15.15
527.16	-8.81
527.357	-7.88
527.553	-5.64
527.75	-1.54
527.947	-3.44
528.143	-2.33
528.34	-7.87
528.537	-0.05
528.733	-1.05
528.93	4.74
529.126	6.46
529.323	11.03
529.519	7.54
529.716	7.64
529.912	7.71
530.109	3.76
530.305	1.11
530.502	2.22
530.698	5.7
530.895	5.69
531.091	7.48
531.288	3.29
531.484	1.77
531.68	-1.33
531.877	-0.28
532.073	-1.15
532.269	0.23
532.466	0.36
532.662	-2.87
532.858	-2.16
533.055	-0.55
533.251	-3.06
533.447	-5.15
533.643	-1.91
533.84	-5.77
534.036	-4.72
534.232	-0.93
534.428	-1.93
534.624	-0.91
534.821	-1.27
535.017	2.6
535.213	2.92
535.409	4.67
535.605	4.57
535.801	5.75
535.997	3.84
536.193	3.34
536.389	1.19
536.586	2.39
536.782	4.93
536.978	3.35
537.174	5.11
537.37	5.85
537.566	6.39
537.762	1.63
537.958	4.39
538.153	0.24
538.349	-2.04
538.545	-1.66
538.741	-3.94
538.937	-8.85
539.133	-11
539.329	-11.51
539.525	-12.37
539.721	-11.95
539.916	-11.38
540.112	-14.84
540.308	-12.25
540.504	-10.41
540.699	-9.21
540.895	-14.15
541.091	-7.7
541.287	-10.29
541.482	-12.93
541.678	-14.28
541.874	-12.43
542.069	-12.71
542.265	-9.32
542.461	-8.22
542.656	-5.94
542.852	-4.87
543.048	-3.19
543.243	-2.59
543.439	-4.36
543.634	-4.76
543.83	-6.38
544.025	-5.68
544.221	-0.15
544.417	0.12
544.612	3.27
544.807	2.05
545.003	4.6
545.198	1.09
545.394	1.91
545.589	6.34
545.785	4.86
545.98	5.25
546.176	4.64
546.371	2.86
546.566	2.44
546.762	-0.46
546.957	-0.26
547.152	-0.71
547.348	-2.49
547.543	-1.36
547.738	-4.85
547.933	-6.57
548.129	-6.04
548.324	-7.76
548.519	-10.87
548.714	-15.1
548.91	-14.23
549.105	-15.48
549.3	-15.62
549.495	-15.69
549.69	-18.81
549.885	-17.86
550.08	-13.42
550.276	-12.81
550.471	-7.66
550.666	-8.47
550.861	-7.1
551.056	-10.35
551.251	-9.11
551.446	-4.08
551.641	-6.65
551.836	-2.14
552.031	1.18
552.226	0.11
552.421	-2.48
552.616	-3.49
552.811	0.16
553.006	-0.77
553.201	1.75
553.395	1.75
553.59	2.11
553.785	0.58
553.98	3.01
554.175	-0.19
554.37	1.17
554.565	-0.61
554.759	0.34
554.954	1.13
555.149	4.96
555.344	4.13
555.538	-0.44
555.733	0.79
555.928	0.58
556.122	1.53
556.317	-1.87
556.512	-1.7
556.706	2.08
556.901	2.01
557.096	2.95
557.29	2.29
557.485	1.09
557.68	-3.35
557.874	-1.9
558.069	-1.6
558.263	-1.13
558.458	-1.59
558.652	-2.01
558.847	-2.65
559.041	-0.67
559.236	-1.33
559.43	0.31
559.625	1.62
559.819	3.23
560.014	4.36
560.208	1.74
560.402	3.17
560.597	5.49
560.791	5.13
560.986	4.93
561.18	5.84
561.374	6.21
561.569	8.63
561.763	13.09
561.957	10.92
562.151	8.27
562.346	7.62
562.54	9.04
562.734	7.55
562.928	6.46
563.123	4.25
563.317	2.39
563.511	2.64
563.705	1.71
563.899	1.06
564.093	-1.07
564.288	1.3
564.482	2.89
564.676	2.73
564.87	1.52
565.064	2.86
565.258	2.85
565.452	0.23
565.646	0.78
565.84	-1.76
566.034	2.03
566.228	3.03
566.422	5.83
566.616	4.35
566.81	6.34
567.004	8.41
567.198	11.44
567.392	10.96
567.586	8.1
567.779	10
567.973	10.55
568.167	12.69
568.361	12.1
568.555	13.4
568.749	12.91
568.942	13.68
569.136	13.28
569.33	12.2
569.524	11.54
569.718	12.53
569.911	14.78
570.105	11.97
570.299	11.73
570.492	11.62
570.686	12.34
570.88	13.29
571.073	10.4
571.267	8.36
571.461	10.43
571.654	11.45
571.848	11.28
572.041	12.29
572.235	10.61
572.429	11.1
572.622	10.11
572.816	11.21
573.009	11.4
573.203	9.8
573.396	10.36
573.59	15.14
573.783	12.04
573.976	10.54
574.17	11.37
574.363	9.37
574.557	7.62
574.75	6.34
574.943	6.51
575.137	9.77
575.33	11
575.523	9.16
575.717	8.1
575.91	5.02
576.103	4.04
576.297	3.68
576.49	3.56
576.683	3.42
576.876	2.65
577.07	2.3
577.263	4.21
577.456	3.4
577.649	1.41
577.842	3
578.036	4.13
578.229	3.2
578.422	4.69
578.615	4.45
578.808	4.59
579.001	4.49
579.194	4.62
579.387	5.22
579.58	5.77
579.773	5.8
579.966	7.76
580.159	5.91
580.352	8.51
580.545	7.7
580.738	6.41
580.931	5.49
581.124	5.45
581.317	1.22
581.51	0.27
581.703	0.91
581.896	0.34
582.088	-0.65
582.281	2.59
582.474	3.11
582.667	3.94
582.86	3.37
583.053	1.93
583.245	1.3
583.438	-1.24
583.631	1.32
583.824	2.48
584.016	2.18
584.209	2.77
584.402	2.64
584.594	3.45
584.787	3.89
584.98	3.26
585.172	4.8
585.365	5.46
585.558	6.67
585.75	5.19
585.943	6
586.135	6.1
586.328	4.03
586.52	4.87
586.713	3.32
586.906	3.95
587.098	4.35
587.291	5.35
587.483	4.41
587.675	3.21
587.868	2.6
588.06	2.7
588.253	4.37
588.445	2.79
588.638	1.57
588.83	3.44
589.022	4.92
589.215	2.57
589.407	5.75
589.599	6.44
589.792	7.56
589.984	6.95
590.176	8.16
590.368	9.38
590.561	8.55
590.753	10.62
590.945	11.29
591.137	9.65
591.33	6.66
591.522	9.69
591.714	8.56
591.906	9.51
592.098	9.68
592.29	8.44
592.482	9.32
592.674	9.24
592.867	7.11
593.059	6.93
593.251	7.83
593.443	6.88
593.635	5.32
593.827	3.26
594.019	0.65
594.211	-1.39
594.403	-0.48
594.595	0.83
594.787	-0.24
594.979	-1.36
595.17	0.58
595.362	2.88
595.554	1.49
595.746	1
595.938	0.99
596.13	2.13
596.322	3.07
596.513	0.83
596.705	1.72
596.897	2.44
597.089	3
597.281	2.5
597.472	2.79
597.664	3.01
597.856	3.54
598.048	5.74
598.239	7.35
598.431	5.73
598.623	4.57
598.814	3.19
599.006	5.56
599.197	5.99
599.389	6.21
599.581	4.68
599.772	6.21
599.964	5.55
600.155	4.47
600.347	2.72
600.538	3.67
600.73	4.03
600.921	3.94
601.113	2.18
601.304	3.4
601.496	3.95
601.687	4.18
601.879	2.28
602.07	3.81
602.262	4.59
602.453	5.05
602.644	3.57
602.836	4.21
603.027	2.8
603.218	2.85
603.41	3.15
603.601	3.85
603.792	3.17
603.983	3.97
604.175	4.74
604.366	7.02
604.557	7.82
604.748	6.47
604.94	6.84
605.131	6.54
605.322	7.07
605.513	5.47
605.704	4.19
605.895	6.6
606.086	5.12
606.278	5.76
606.469	6.47
606.66	9.32
606.851	8.78
607.042	7.5
607.233	6.59
607.424	5.23
607.615	6.35
607.806	7.52
607.997	8.04
608.188	7.56
608.379	5.31
608.57	5.16
608.761	5.71
608.952	6.94
609.142	8.51
609.333	6.39
609.524	7.35
609.715	9.25
609.906	9.15
610.097	11.33
610.287	8.79
610.478	7.52
610.669	6.95
610.86	8.9
611.051	9.56
611.241	10.29
611.432	9.53
611.623	9.65
611.813	8.8
612.004	7.8
612.195	7.7
612.385	8.48
612.576	9.01
612.767	8.58
612.957	7.45
613.148	7.47
613.338	8.37
613.529	8.29
613.72	7.84
613.91	7.76
614.101	5.28
614.291	5.75
614.482	6.64
614.672	4.98
614.863	3.37
615.053	3.32
615.243	3.4
615.434	6.2
615.624	6.24
615.815	5.72
616.005	4.86
616.195	5.91
616.386	5.33
616.576	5.03
616.766	5.61
616.957	5.81
617.147	4.69
617.337	2.93
617.528	1.71
617.718	0.76
617.908	-0.02
618.098	0.08
618.289	1.29
618.479	0.3
618.669	1.44
618.859	2.42
619.049	2.27
619.239	2.62
619.43	0.21
619.62	-0.82
619.81	0.58
620	0.41
620.19	-2.37
620.38	-3.47
620.57	-3.05
620.76	-4.26
620.95	-3.99
621.14	-4.24
621.33	-3.46
621.52	-2.14
621.71	-2.52
621.9	-1.4
622.09	-1.23
622.28	-2.3
622.47	-2.38
622.659	-3.47
622.849	-3.74
623.039	-2.14
623.229	-3.81
623.419	-3.4
623.609	-2.99
623.799	-3.59
623.988	-3.07
624.178	-0.77
624.368	0.75
624.558	0.84
624.747	1.97
624.937	1.78
625.127	1.59
625.316	2.43
625.506	2.63
625.696	3.88
625.885	2.83
626.075	2.63
626.265	2.92
626.454	3.23
626.644	4.84
626.833	4.4
627.023	3
627.212	3.58
627.402	4.96
627.591	5.97
627.781	6.3
627.97	6.53
628.16	4.41
628.349	4.09
628.539	2.07
628.728	2.78
628.918	2.7
629.107	3.07
629.296	2.9
629.486	3.28
629.675	3.83
629.865	4.82
630.054	5.44
630.243	4.23
630.432	3.35
630.622	2.52
630.811	3
631	3.3
631.19	3.59
631.379	2.41
631.568	1.65
631.757	1.83
631.946	3.1
632.136	5.59
632.325	4.77
632.514	5.84
632.703	5.2
632.892	3.68
633.081	4.47
633.27	4.72
633.459	3.7
633.648	2.56
633.837	2.02
634.026	1.97
634.215	5.1
634.404	6.16
634.593	7.09
634.782	7.92
634.971	7.34
635.16	6.69
635.349	6.89
635.538	7.62
635.727	5.63
635.916	3.64
636.105	3.64
636.294	5.43
636.482	5.47
636.671	5.58
636.86	5.99
637.049	6.8
637.238	6.55
637.426	6.35
637.615	5.19
637.804	5.91
637.993	5.96
638.181	3.45
638.37	3.14
638.559	3.29
638.747	2.94
638.936	3.99
639.125	4.5
639.313	4.87
639.502	4.41
639.691	5.43
639.879	5.82
640.068	5.35
640.256	4.61
640.445	5.16
640.633	5.98
640.822	5.97
641.01	6.27
641.199	5.95
641.387	6.59
641.576	8.03
641.764	8.97
641.953	8.16
642.141	9.57
642.329	10.46
642.518	9.91
642.706	10.15
642.894	9.16
643.083	9.92
643.271	8.65
643.459	9.32
643.648	9.9
643.836	10.1
644.024	8.68
644.213	9.72
644.401	9.89
644.589	8.27
644.777	10.12
644.965	9.53
645.154	9.02
645.342	8.65
645.53	8.88
645.718	8.07
645.906	9.09
646.094	8.31
646.282	6.9
646.47	7.13
646.658	6.38
646.846	5.02
647.034	4.7
647.223	4.76
647.411	3.68
647.599	2.1
647.786	2
647.974	3.05
648.162	1.67
648.35	1.51
648.538	2.42
648.726	1.72
648.914	0.71
649.102	2.62
649.29	2.38
649.478	2.48
649.665	1.76
649.853	1.27
650.041	1.08
650.229	2.3
650.417	0.88
650.604	0.7
650.792	4.12
650.98	4.13
651.168	4
651.355	4.98
651.543	5.84
651.731	5.07
651.918	4.56
652.106	5.87
652.294	5.95
652.481	6.98
652.669	5.56
652.856	5.81
653.044	5.08
653.231	4.7
653.419	4.45
653.606	4.5
653.794	4.96
653.981	5.01
654.169	3.68
654.356	3.28
654.544	4.65
654.731	2.23
654.919	0.76
655.106	0.73
655.294	-0.05
655.481	0.33
655.668	1.82
655.856	1.71
656.043	1.29
656.23	0.59
656.418	0.33
656.605	1.35
656.792	2.05
656.979	2.21
657.167	2.46
657.354	1.77
657.541	1.68
657.728	1.19
657.916	0.66
658.103	0.43
658.29	1.17
658.477	0.64
658.664	1.88
658.851	3.11
659.038	3.02
659.225	2.19
659.412	1.64
659.6	1.61
659.787	2.35
659.974	1.02
660.161	2.15
660.348	0.67
660.535	3.33
660.722	1.05
660.909	-0.05
661.095	0.78
661.282	1.38
661.469	1.62
661.656	0.62
661.843	2.64
662.03	3.47
662.217	3.73
662.404	3.38
662.59	1.88
662.777	0.64
662.964	0.57
663.151	2.64
663.338	3.96
663.524	2.38
663.711	0.73
663.898	1.48
664.085	2.37
664.271	2.52
664.458	-0.09
664.645	-0.39
664.831	0.89
665.018	0.09
665.204	0.78
665.391	0.98
665.578	0.55
665.764	-0.96
665.951	-0.69
666.137	-1.14
666.324	-0.98
666.51	-0.61
666.697	0.81
666.883	1.4
667.07	-0.43
667.256	-2
667.443	-1.75
667.629	0.32
667.816	0.71
668.002	-2.21
668.188	-1.51
668.375	-1.18
668.561	-0.22
668.747	-2.14
668.934	-1.53
669.12	-2.29
669.306	-2.52
669.493	-1.6
669.679	-0.76
669.865	-1.51
670.051	-2.25
670.238	-2.8
670.424	-2.72
670.61	-4.18
670.796	-4.97
670.982	-3.8
671.169	-2.81
671.355	-2.87
671.541	-3.97
671.727	-4.96
671.913	-4.14
672.099	-4.64
672.285	-6.06
672.471	-5.36
672.657	-5.41
672.843	-4.71
673.029	-4.12
673.215	-4.78
673.401	-3.08
673.587	-4.78
673.773	-4.02
673.959	-2.48
674.145	-2.95
674.331	-1.8
674.517	-1.13
674.703	-0.44
674.888	0.14
675.074	-1.24
675.26	-0.34
675.446	-0.86
675.632	-1.33
675.817	-1.22
676.003	-0.99
676.189	0.77
676.375	0.98
676.56	2.07
676.746	0.88
676.932	-1.79
677.117	-1.07
677.303	-2.6
677.489	-2.31
677.674	-3.65
677.86	-3.75
678.046	-2.63
678.231	-3.19
678.417	-2.82
678.602	-2.72
678.788	-3.08
678.973	-1.3
679.159	-0.08
679.344	0.48
679.53	1.51
679.715	1.57
679.901	1.61
680.086	1.63
680.272	0.77
680.457	1.09
680.643	1.17
680.828	3.56
681.013	2.39
681.199	3.45
681.384	3.71
681.569	3.66
681.755	3.06
681.94	3.87
682.125	3.59
682.31	5.67
682.496	5.08
682.681	5.07
682.866	3.75
683.051	1.81
683.237	2.34
683.422	2.57
683.607	2.25
683.792	1.78
683.977	0.74
684.162	0.87
684.347	1.6
684.532	1.96
684.717	1.3
684.903	3.92
685.088	3.32
685.273	3.22
685.458	3.13
685.643	4.59
685.828	2.14
686.013	2.01
686.198	-1.15
686.382	-0.35
686.567	0.31
686.752	1.41
686.937	1.66
687.122	0.94
687.307	1.65
687.492	1.75
687.677	0.87
687.861	1.48
688.046	1.23
688.231	1.13
688.416	1.52
688.601	1.74
688.785	0.37
688.97	0.68
689.155	2.01
689.339	3.26
689.524	1.87
689.709	2.81
689.893	3.7
690.078	4.41
690.263	5.29
690.447	4.01
690.632	3.07
690.816	4.4
691.001	3.98
691.186	2.76
691.37	3.26
691.555	4.92
691.739	4.45
691.924	5.09
692.108	3.67
692.293	3.38
692.477	3.32
692.661	3.26
692.846	2.89
693.03	2.08
693.215	1.1
693.399	1.12
693.583	0.92
693.768	0.07
693.952	-0.54
694.136	-2.37
694.321	-1.55
694.505	-0.87
694.689	-1.05
694.873	0.09
695.058	-0.57
695.242	0.05
695.426	-1.06
695.61	-1.6
695.794	-0.7
695.979	-1.4
696.163	-2.04
696.347	-1.68
696.531	-2.54
696.715	-1.91
696.899	-2.45
697.083	-2.25
697.267	-0.76
697.451	-0.83
697.635	-0.49
697.819	0.42
698.003	0.57
698.187	-0.1
698.371	0.57
698.555	0.74
698.739	2.21
698.923	2.72
699.107	2.46
699.291	1.74
699.475	1.83
699.659	1.46
699.842	3.63
700.026	3.48
700.21	2.37
700.394	3.23
700.578	2.6
700.761	3.57
700.945	4.65
701.129	4
701.313	3.92
701.496	5.06
701.68	4.93
701.864	4.88
702.047	6
702.231	6.49
702.415	5.43
702.598	1.93
702.782	2.66
702.965	2.19
703.149	3.92
703.333	3.38
703.516	3.09
703.7	1.29
703.883	0.96
704.067	1.66
704.25	1.09
704.434	-0.38
704.617	-1.68
704.801	-2.46
704.984	-2.83
705.167	-1.6
705.351	-3.61
705.534	-3.95
705.718	-2.87
705.901	-4.26
706.084	-4.94
706.268	-5.47
706.451	-5.02
706.634	-5.34
706.817	-6.51
707.001	-6.82
707.184	-5.88
707.367	-6.01
707.55	-5.67
707.734	-4.93
707.917	-4.16
708.1	-4.38
708.283	-1.72
708.466	-0.61
708.649	-1.19
708.832	-1.08
709.015	-1.38
709.199	-0.49
709.382	-0.5
709.565	-1.62
709.748	-0.78
709.931	-0.68
710.114	0.67
710.297	1.97
710.48	1.6
710.663	3.36
710.846	2.97
711.028	3.3
711.211	2.47
711.394	2.92
711.577	3.32
711.76	1.77
711.943	2.92
712.126	2.53
712.309	4.36
712.491	5.1
712.674	4.01
712.857	4.36
713.04	4.34
713.222	5.2
713.405	6.03
713.588	5.56
713.771	5.18
713.953	4.5
714.136	4.7
714.319	5.48
714.501	4.57
714.684	3.53
714.866	4.07
715.049	4.72
715.232	5.37
715.414	4.72
715.597	4.93
715.779	3.13
715.962	2.75
716.144	1.22
716.327	2.26
716.509	3.26
716.692	1.36
716.874	1.66
717.057	0.44
717.239	-0.15
717.421	0.58
717.604	-0.76
717.786	-0.43
717.968	-0.35
718.151	-1.25
718.333	-1.7
718.515	-0.15
718.698	-0.77
718.88	-1.14
719.062	-1.77
719.244	-2.1
719.427	-3.13
719.609	-1.53
719.791	-1.97
719.973	-2.56
720.155	-4.21
720.338	-4.38
720.52	-4.21
720.702	-3.63
720.884	-2.76
721.066	-2.36
721.248	-5.77
721.43	-5.05
721.612	-5.59
721.794	-4.44
721.976	-3.42
722.158	-2.14
722.34	-2.86
722.522	-3.05
722.704	-2.67
722.886	-2.8
723.068	-0.93
723.25	1.81
723.432	1.07
723.614	1.64
723.796	1.83
723.977	1.66
724.159	1.22
724.341	2.31
724.523	0.71
724.705	-0.44
724.886	-0.09
725.068	3.87
725.25	5.34
725.432	5.49
725.613	4.04
725.795	3.86
725.977	3.85
726.158	3.69
726.34	3.8
726.522	4.13
726.703	4.17
726.885	3.07
727.066	2.08
727.248	2.88
727.43	2.86
727.611	2.52
727.793	2.77
727.974	2
728.156	1.08
728.337	0.43
728.519	1.15
728.7	1.18
728.882	-1.77
729.063	-3.28
729.244	-3.44
729.426	-2.17
729.607	-1.06
729.788	-2.31
729.97	-1.82
730.151	-2.39
730.332	-2.28
730.514	-0.64
730.695	1.03
730.876	1.69
731.058	1.31
731.239	1.51
731.42	1.34
731.601	1.31
731.782	2.17
731.964	2.46
732.145	4.24
732.326	2.3
732.507	2
732.688	3.5
732.869	4.67
733.05	5
733.231	4.12
733.412	1.41
733.593	2.86
733.774	2.89
733.955	3.32
734.136	3.63
734.317	1.13
734.498	0.46
734.679	-0.9
734.86	-2.4
735.041	-2.44
735.222	-2.82
735.403	-1.13
735.584	-0.76
735.765	-0
735.946	-1.31
736.126	-0.73
736.307	0.43
736.488	-0.82
736.669	-3.4
736.849	-4.46
737.03	-2.28
737.211	-0.05
737.392	-0.25
737.572	-2.99
737.753	-3.02
737.934	-2.66
738.114	-0.56
738.295	-1.5
738.476	-2.16
738.656	0.49
738.837	-0.53
739.017	0.37
739.198	-0.56
739.378	0.34
739.559	0.58
739.74	1.17
739.92	1.93
740.1	0.21
740.281	0.97
740.461	2.69
740.642	3.58
740.822	-0.51
741.003	0.09
741.183	-1.4
741.363	1.69
741.544	1.79
741.724	0.69
741.904	-0.75
742.085	-0.42
742.265	0.43
742.445	-0.86
742.626	-0.05
742.806	-0.73
742.986	-0.88
743.166	-1.19
743.347	-2.51
743.527	-1.57
743.707	-2.99
743.887	-3.66
744.067	-5.02
744.247	-6.03
744.427	-5.09
744.608	-3.73
744.788	-2.72
744.968	-2.05
745.148	-3.63
745.328	-4.31
745.508	-6.02
745.688	-6.5
745.868	-7.85
746.048	-7.76
746.228	-7.11
746.408	-7.03
746.588	-6.19
746.767	-5.66
746.947	-6.54
747.127	-6.22
747.307	-8.21
747.487	-6.26
747.667	-5.91
747.847	-4.45
748.026	-3.62
748.206	-4.26
748.386	-2.69
748.566	-4.68
748.745	-4.2
748.925	-2.26
749.105	-2.47
749.285	-1.62
749.464	-2.02
749.644	-0.8
749.824	-0.4
750.003	-1.98
750.183	-3.68
750.362	-3.43
750.542	-5.07
750.722	-5.24
750.901	-6.27
751.081	-5.62
751.26	-5.47
751.44	-4.72
751.619	-5.41
751.799	-7.2
751.978	-8.98
752.158	-10.03
752.337	-10.35
752.516	-11.23
752.696	-12.27
752.875	-10.54
753.055	-9.73
753.234	-8.65
753.413	-8.77
753.593	-7.34
753.772	-6.71
753.951	-5.87
754.13	-5.58
754.31	-4.81
754.489	-4.63
754.668	-3.29
754.847	-3.11
755.027	-2.81
755.206	-2.97
755.385	-2.23
755.564	0.96
755.743	0.59
755.922	0.16
756.101	0.59
756.28	1.59
756.46	1
756.639	-1.67
756.818	-0.85
756.997	-0.54
757.176	-0.02
757.355	-1.05
757.534	-1.54
757.713	-0.77
757.892	-2.24
758.07	-1.66
758.249	-0.92
758.428	-1.16
758.607	-0.77
758.786	-0.85
758.965	-1.47
759.144	-1.43
759.323	-2.92
759.501	-1.94
759.68	-0.53
759.859	-0.74
760.038	-0.54
760.216	-0.09
760.395	1.87
760.574	0.9
760.753	1.28
760.931	2.7
761.11	2.66
761.289	2.88
761.467	1.97
761.646	2.58
761.824	3.2
762.003	0.92
762.182	1.04
762.36	1.3
762.539	1.27
762.717	2.41
762.896	2.37
763.074	1.61
763.253	1.85
763.431	2.28
763.61	2.18
763.788	1.18
763.966	0.56
764.145	0.71
764.323	0.03
764.502	-1.4
764.68	-2.74
764.858	-4.19
765.037	-2.77
765.215	-2.39
765.393	-2.29
765.571	-2.52
765.75	0.21
765.928	0.08
766.106	0.26
766.284	0.61
766.463	-0.47
766.641	-0.21
766.819	1.02
766.997	1.52
767.175	-0.34
767.353	-0.02
767.531	1.11
767.71	2.57
767.888	1.67
768.066	2.68
768.244	4.96
768.422	5.22
768.6	8.17
768.778	6.62
768.956	6.21
769.134	6.79
769.312	6.4
769.489	4.12
769.667	5.59
769.845	5.72
770.023	4.54
770.201	5.39
770.379	5.67
770.557	5.49
770.735	5.9
770.912	5.81
771.09	4.62
771.268	5.39
771.446	3.49
771.623	4.14
771.801	5.46
771.979	3.55
772.157	1.47
772.334	-1.04
772.512	-0.56
772.69	-0.73
772.867	-1.61
773.045	-1.92
773.222	-0.42
773.4	-1.32
773.577	-2.83
773.755	-2.23
773.933	-2.76
774.11	-3.69
774.288	-4.43
774.465	-4.68
774.643	-5.48
774.82	-4.34
774.997	-5.34
775.175	-5.97
775.352	-3.69
775.53	-5.03
775.707	-5.88
775.884	-5.21
776.062	-4.32
776.239	-3.16
776.416	-0.99
776.594	-1.96
776.771	-1.44
776.948	-1.69
777.125	-2.99
777.303	-3.84
777.48	-4.11
777.657	-4.67
777.834	-2.88
778.012	-3.42
778.189	-3.68
778.366	-3.09
778.543	-5.36
778.72	-4.78
778.897	-3.67
779.074	-5.48
779.251	-4.56
779.428	-2.66
779.605	-3.23
779.782	-2.84
779.959	-3.87
780.136	-5.98
780.313	-4.38
780.49	-7.06
780.667	-7.46
780.844	-6.3
781.021	-4.19
781.198	-3.06
781.375	-0.15
781.552	-2.14
781.728	-2.8
781.905	-2.38
782.082	-0.72
782.259	-0.03
782.436	-0.17
782.612	-0.97
782.789	-3.49
782.966	-5.78
783.143	-5.11
783.319	-3.76
783.496	-3.25
783.673	-3.99
783.849	-3.18
784.026	-3.61
784.203	-1.34
784.379	-2.62
784.556	-2.27
784.732	-3.03
784.909	-1.66
785.085	-2.28
785.262	-1.55
785.438	1.12
785.615	-0.03
785.791	1.22
785.968	0.47
786.144	0.21
786.321	2.2
786.497	3.11
786.673	2.3
786.85	0.4
787.026	-1.12
787.203	-2.54
787.379	-1.8
787.555	-3.85
787.731	-4.1
787.908	-6.34
788.084	-3.33
788.26	-3.95
788.437	-1.95
788.613	-5.15
788.789	-7.42
788.965	-8.92
789.141	-9.38
789.317	-10.75
789.494	-14.79
789.67	-12.59
789.846	-13.35
790.022	-13.78
790.198	-12.91
790.374	-10.05
790.55	-10.43
790.726	-11.57
790.902	-10.54
791.078	-8.93
791.254	-7.48
791.43	-5.85
791.606	-4.65
791.782	-6.28
791.958	-8.85
792.134	-10.54
792.31	-10.93
792.486	-12.3
792.661	-9.39
792.837	-8.42
793.013	-7.25
793.189	-5.25
793.365	-5.4
793.54	-5.09
793.716	-5.82
793.892	-3.67
794.068	-5.55
794.243	-4.3
794.419	-2.89
794.595	-4.04
794.77	-5.11
794.946	-3.43
795.122	-4.89
795.297	-5.1
795.473	-4.2
795.648	-1.54
795.824	-2.77
796	-0.02
796.175	3.84
796.351	0.03
796.526	-0.76
796.702	0.82
796.877	0.13
797.052	1.35
797.228	-1.57
797.403	-2.84
797.579	-4.17
797.754	-4.1
797.929	-2.4
798.105	-0.58
798.28	-0.67
798.455	0.37
798.631	-0.82
798.806	0.22
798.981	1.73
799.157	0.41
799.332	-2.58
799.507	0.92
799.682	-1.38
799.858	-1.99
800.033	1.2
800.208	0.63
800.383	-0.11
800.558	0.87
800.733	-1.16
800.908	1.39
801.083	3.86
801.258	3.69
801.434	7.21
801.609	6.3
801.784	6
801.959	6.31
802.134	5.35
802.309	4.65
802.484	3.83
802.658	4.33
802.833	5.77
803.008	9.12
803.183	5.39
803.358	7.18
803.533	3.46
803.708	2.72
803.883	2.44
804.057	-1.13
804.232	-0.89
804.407	1.68
804.582	3.48
804.756	1.82
804.931	0.52
805.106	-1.84
805.281	-0.94
805.455	-2.87
805.63	-3.5
805.805	-3.48
805.979	-1.07
806.154	-0.4
806.328	-1.29
806.503	-2.29
806.678	-4.13
806.852	-3.16
807.027	-4.78
807.201	-4.48
807.376	-3.74
807.55	-5.48
807.725	-2.55
807.899	-1.42
808.074	-0.48
808.248	-1.03
808.422	-1.17
808.597	-0.03
808.771	-0.18
808.946	1.08
809.12	4.16
809.294	2.58
809.468	3.88
809.643	3.79
809.817	2.04
809.991	0.36
810.166	2.15
810.34	1.47
810.514	3.94
810.688	6.74
810.862	8.04
811.037	6.32
811.211	6.48
811.385	7.49
811.559	5.37
811.733	4.84
811.907	4.05
812.081	4.59
812.255	1.58
812.429	1.53
812.603	-0.73
812.777	-1.5
812.951	-1.49
813.125	-4.04
813.299	-9.14
813.473	-12.47
813.647	-9.96
813.821	-9.96
813.995	-8.41
814.169	-13.03
814.343	-13.62
814.516	-10.76
814.69	-6.56
814.864	-7.59
815.038	-7.74
815.212	-5.25
815.385	-6.8
815.559	-6.51
815.733	-5.25
815.907	-1.89
816.08	-0.89
816.254	-0.96
816.428	-1.98
816.601	1.9
816.775	2.95
816.948	5.79
817.122	9.51
817.296	10.81
817.469	9.72
817.643	12.96
817.816	14.13
817.99	11.06
818.163	8.05
818.337	3.63
818.51	7.71
818.684	11.37
818.857	7.96
819.031	4.71
819.204	5.11
819.377	4.56
819.551	3.03
819.724	3.41
819.897	3.18
820.071	2.14
820.244	-2.42
820.417	-5.8
820.591	-7.45
820.764	-3.47
820.937	-5.8
821.11	-7.68
821.284	-8.06
821.457	-5.55
821.63	-3.36
821.803	-2.4
821.976	3.2
822.149	2.38
822.322	-0.94
822.496	0.28
822.669	5.16
822.842	3.24
823.015	0.48
823.188	0.88
823.361	1.34
823.534	2.21
823.707	2.01
823.88	1.2
824.053	5.66
824.226	6.18
824.399	4.98
824.571	5.23
824.744	6.49
824.917	4.44
825.09	3.04
825.263	4.61
825.436	6.2
825.608	1.66
825.781	2.13
825.954	1.65
826.127	0.61
826.299	-2.09
826.472	0.56
826.645	4.64
826.818	7.83
826.99	4.99
827.163	3.41
827.336	4.09
827.508	6.16
827.681	5.14
827.853	5.26
828.026	4.27
828.198	5.73
828.371	7.81
828.544	6.82
828.716	5.88
828.889	1.3
829.061	-1.75
829.233	-1.13
829.406	-3.31
829.578	-3.81
829.751	-1.51
829.923	-0.77
830.096	-3.81
830.268	-6.69
830.44	-9.2
830.613	-6.18
830.785	-6.13
830.957	-8.75
831.129	-2.88
831.302	-2.12
831.474	-5.21
831.646	-2.91
831.818	-2.32
831.991	-1.74
832.163	1.16
832.335	3.01
832.507	3.97
832.679	1.91
832.851	0.17
833.023	2.55
833.195	2.65
833.368	-0.66
833.54	1.62
833.712	2.15
833.884	5.19
834.056	3.06
834.228	0.05
834.4	4.17
834.571	5.93
834.743	-0.14
834.915	-0.25
835.087	1.73
835.259	1.88
835.431	0.9
835.603	-5.05
835.775	-9.09
835.946	-11.18
836.118	-9.99
836.29	-10.78
836.462	-11.14
836.634	-12.18
836.805	-14.21
836.977	-13.26
837.149	-14.12
837.32	-14.42
837.492	-16.83
837.664	-17.83
837.835	-16.01
838.007	-19.87
838.179	-19.04
838.35	-14.78
838.522	-15.15
838.693	-14.77
838.865	-20.47
839.036	-22.98
839.208	-16.9
839.379	-14.55
839.551	-12.33
839.722	-9.79
839.894	-11.26
840.065	-7.09
840.237	-6.37
840.408	-5.58
840.579	-1.1
840.751	-5.54
840.922	-4.13
841.093	-6.2
841.265	-5.6
841.436	-2.48
841.607	-1.88
841.778	-1.86
841.95	-1.9
842.121	1.03
842.292	1.01
842.463	2.71
842.635	4.65
842.806	4.3
842.977	4.77
843.148	4.21
843.319	4.89
843.49	8.01
843.661	0.96
843.832	0.1
844.003	-0.16
844.174	-2.78
844.345	1.05
844.516	-5.35
844.687	-3.23
844.858	-0.3
845.029	0.15
845.2	-1.3
845.371	-0.01
845.542	-4.41
845.713	-12.29
845.884	-8.24
846.055	-11.43
846.225	-17.08
846.396	-20.92
846.567	-19.05
846.738	-25.16
846.909	-25.27
847.079	-21.55
847.25	-13.28
847.421	-17.14
847.591	-22.33
847.762	-24.01
847.933	-29.73
848.103	-21.12
848.274	-21.87
848.445	-22.53
848.615	-28.25
848.786	-31.79
848.956	-28.27
849.127	-25.59
849.297	-17.19
849.468	-15.35
849.638	-12.66
849.809	-9.99
849.979	-10.25
850.15	-10.11
850.32	-3.42
850.491	-5.32
850.661	-5.64
850.831	-7.66
851.002	-4.32
851.172	-1.28
851.342	-4.1
851.513	-1.43
851.683	-4.55
851.853	-4.69
852.024	-3.71
852.194	-4.47
852.364	-1.2
852.534	-2.55
852.705	3.65
852.875	3.03
853.045	0.94
853.215	2.15
853.385	5.26
853.555	8.46
853.725	3.4
853.895	-2.75
854.066	-2.79
854.236	-2.29
854.406	-1.05
854.576	0.68
854.746	-1.33
854.916	3.44
855.086	4.63
855.256	11.55
855.425	12.77
855.595	10.14
855.765	9.74
855.935	3.84
856.105	4
856.275	-9.62
856.445	-16
856.614	-15.54
856.784	-9.61
856.954	-13.43
857.124	-16.7
857.294	-14.99
857.463	-7.73
857.633	1.52
857.803	-5.25
857.972	-1.86
858.142	-1.98
858.312	3.26
858.481	0.78
858.651	-5.31
858.821	-10.92
858.99	-10.59
859.16	-14.44
859.329	-8.99
859.499	-4.6
859.668	-3.3
859.838	2.31
860.007	9.41
860.177	12.51
860.346	5.38
860.516	9.24
860.685	14.36
860.854	11.59
861.024	6.3
861.193	-8.18
861.363	-3.89
861.532	-7.71
861.701	-3.95
861.87	-0.21
862.04	3.53
862.209	12.97
862.378	10.3
862.547	11.43
862.717	14.36
862.886	10.17
863.055	12.01
863.224	9.23
863.393	3.07
863.563	-0.66
863.732	-2.5
863.901	-8.06
864.07	-8.02
864.239	-9.4
864.408	-7.13
864.577	-5.34
864.746	6.6
864.915	4.21
865.084	7.04
865.253	6.44
865.422	-1.14
865.591	-4.11
865.76	-8.57
865.929	-1.09
866.097	0.88
866.266	-1.08
866.435	-3.98
866.604	-6.55
866.773	-5.22
866.942	-4.85
867.11	-8.66
867.279	-5.7
867.448	4.97
867.617	1.4
867.785	1.07
867.954	-1.3
868.123	-1.56
868.291	-21.93
868.46	-16.56
868.629	-18.46
868.797	-24.05
868.966	-27.6
869.134	-15.95
869.303	-11.24
869.472	-13.51
869.64	-24.95
869.809	-21.13
869.977	-10.63
870.146	-14.14
870.314	-12.24
870.482	-2.39
870.651	-9.2
870.819	-19.96
870.988	-16.43
871.156	-13.13
871.324	-17.61
871.493	-14.49
871.661	-6.26
871.829	7.87
871.998	1.89
872.166	-2.18
872.334	-2.87
872.502	-9.63
872.671	-24.08
872.839	-18.41
873.007	-21.7
873.175	-13.56
873.343	-24.98
873.512	-31.51
873.68	-24.27
873.848	-28.47
874.016	-33.58
874.184	-31.49
874.352	-26.8
874.52	-27.46
874.688	-28.21
874.856	-17.89
875.024	-20.36
875.192	-26.93
875.36	-39.56
875.528	-38.46
875.696	-24.23
875.864	-18.15
876.032	-3.67
876.199	-2.6
876.367	-7.42
876.535	-9.24
876.703	-13.49
876.871	3.42
877.039	16.79
877.206	20.79
877.374	28.65
877.542	30.7
877.71	32.41
877.877	31.82
878.045	28.2
878.213	24
878.38	28.56
878.548	35.39
878.715	38.5
878.883	31.11
879.051	39.93
879.218	28.39
879.386	27.53
879.553	19.06
879.721	19.1
879.888	19.74
880.056	24.66
880.223	24.54
880.391	3.82
880.558	-8.7
880.726	-14.12
880.893	-41.63
881.06	-49.68
881.228	-62.28
881.395	-44.64
881.562	-30.55
881.73	-63.74
881.897	-83.97
882.064	-72.79
882.231	-87.54
882.399	-70.73
882.566	-77.48
882.733	-90.79
882.9	-180.43
883.068	-128.89
883.235	-94.66
883.402	-100.53
883.569	-61.43
883.736	-34.64
883.903	-22.35
884.07	-23.4
884.237	-34.4
884.404	-19.37
884.571	-6.44
884.738	5.41
884.905	1.86
885.072	2.99
885.239	31.23
885.406	30.48
