Data from Transmission_09-37-03-234.txt Node
Date: Fri Aug 24 09:37:03 EEST 2018
User: tibor.sos
Spectrometer: USB4F01757
Scans to average: 10
Trigger mode: 4
Integration Time (sec): 1.000000E-2
Electric dark correction enabled: true
Boxcar width: 10
XAxis mode: Wavelengths
Number of Pixels in Spectrum: 3648
>>>>>Begin Spectral Data<<<<<
178.758	-61.01
178.974	-197.71
179.191	-233.18
179.407	-40.8
179.624	-39.09
179.84	-40.16
180.057	-44.77
180.273	-23.84
180.489	1.99
180.706	-71.14
180.922	-77.25
181.138	-77.22
181.355	1.2
181.571	30.97
181.787	35.62
182.004	17.21
182.22	-8.32
182.436	-15.26
182.653	20.92
182.869	0.3
183.085	3.26
183.301	48.35
183.518	51.28
183.734	53.12
183.95	42.54
184.166	53.4
184.383	70.68
184.599	66.79
184.815	32.71
185.031	10.62
185.247	32.77
185.463	33.41
185.68	48.64
185.896	37.6
186.112	1.49
186.328	25.18
186.544	27.74
186.76	45.41
186.976	59.1
187.192	48.94
187.408	74.26
187.624	64.67
187.84	33.67
188.056	13.22
188.272	5.02
188.488	7.74
188.704	13.47
188.92	-15.63
189.136	-15.97
189.352	-16.67
189.568	-6.84
189.784	-2.7
190	44.16
190.216	42
190.432	32.82
190.648	23.65
190.864	-65.68
191.08	-0.38
191.296	15.29
191.511	-15.92
191.727	-11.17
191.943	-4.79
192.159	7.04
192.375	1.49
192.591	-13.02
192.806	-26.4
193.022	-54.2
193.238	-214.63
193.454	-168.37
193.669	-266.99
193.885	-161.28
194.101	-228.15
194.317	-175.99
194.532	-2214.61
194.748	1693.28
194.964	-387.25
195.18	-129.86
195.395	-107.92
195.611	-101.04
195.827	-265.42
196.042	-491.16
196.258	-204.19
196.473	-116.15
196.689	-105.39
196.905	-188
197.12	-1044.55
197.336	-324.2
197.551	93.73
197.767	24900
197.982	21.55
198.198	275.34
198.414	369.66
198.629	5.77
198.845	-39.1
199.06	41.77
199.276	26.41
199.491	-386.49
199.707	-72.96
199.922	-35.33
200.137	-35.61
200.353	-30.06
200.568	-10.38
200.784	-47.27
200.999	-85.54
201.215	-147.6
201.43	-141.23
201.645	-57.75
201.861	-78.81
202.076	-126.77
202.291	-175.45
202.507	-138.5
202.722	-112.93
202.937	-352.53
203.153	-275.38
203.368	-118.02
203.583	-66.29
203.798	-108.13
204.014	-78.73
204.229	-45.31
204.444	-27.8
204.659	-280.22
204.875	-334.89
205.09	1605.88
205.305	-3401.89
205.52	945.53
205.735	634.13
205.951	-5516
206.166	510.13
206.381	427.68
206.596	3714.55
206.811	1372.51
207.026	762.73
207.241	227.16
207.457	-432.09
207.672	-1209.09
207.887	1337.38
208.102	368.06
208.317	470.02
208.532	-1020.9
208.747	1107.65
208.962	720.85
209.177	-780.54
209.392	-450.78
209.607	-103.95
209.822	-91.72
210.037	-152.87
210.252	-182.88
210.467	-417.37
210.682	-97.71
210.897	-88.96
211.112	-165.48
211.326	-122.81
211.541	-188.34
211.756	-85.11
211.971	-225.4
212.186	-176.83
212.401	-224.16
212.616	-205.26
212.831	-126.72
213.045	-275.13
213.26	-199.19
213.475	-204.05
213.69	-239.43
213.905	-432.27
214.119	-1856.56
214.334	17403.7
214.549	1758.3
214.764	-2413.99
214.978	-1292.49
215.193	-1594.86
215.408	10069.23
215.622	-1490.94
215.837	-8157.78
216.052	3916.09
216.266	945.57
216.481	1025.87
216.696	659.08
216.91	-7972.73
217.125	-748.63
217.34	-1255.44
217.554	-1394.05
217.769	668.91
217.983	369.33
218.198	651.11
218.412	916.72
218.627	-412.25
218.842	-199.62
219.056	-186.06
219.271	-93.57
219.485	-163.47
219.7	-197.77
219.914	-78.62
220.129	-146.7
220.343	-98.47
220.558	-170.95
220.772	-234.69
220.986	-132.82
221.201	-218.76
221.415	483.6
221.63	279.94
221.844	228.63
222.058	222
222.273	219.96
222.487	288.69
222.702	426.5
222.916	433.24
223.13	281.93
223.344	277.74
223.559	212.39
223.773	221.81
223.987	278.1
224.202	302.56
224.416	472.7
224.63	298.83
224.844	292.68
225.059	262.9
225.273	2039.39
225.487	-1711.2
225.701	-172.34
225.915	-141.61
226.13	-89.55
226.344	-98.75
226.558	-123.88
226.772	-83.08
226.986	-33.17
227.2	-34.79
227.415	-23.34
227.629	-23.49
227.843	-46.46
228.057	-10.84
228.271	-4.04
228.485	-21.04
228.699	-38.35
228.913	-39.67
229.127	-65.2
229.341	-69.62
229.555	-93.02
229.769	-173.33
229.983	-301.2
230.197	-268.76
230.411	-414.52
230.625	-542.54
230.839	-343.08
231.053	-559.95
231.267	-1080.95
231.481	-1199.53
231.695	-662.76
231.909	-236.93
232.122	-120.74
232.336	-110.34
232.55	-169.55
232.764	-344.85
232.978	-402.05
233.192	-521.83
233.405	-742.55
233.619	-483.65
233.833	-300.45
234.047	-678.5
234.261	-1160.57
234.474	-640.74
234.688	1448.84
234.902	1136.19
235.116	652.38
235.329	498.46
235.543	950.67
235.757	531.39
235.97	364.76
236.184	349.29
236.398	260.66
236.612	262.95
236.825	352.78
237.039	530.41
237.252	506.7
237.466	1696.54
237.68	5679.66
237.893	-395500
238.107	-1378.26
238.32	2837.39
238.534	-629.98
238.748	-330.44
238.961	-269.56
239.175	-384.63
239.388	-414.87
239.602	-798.53
239.815	-340.77
240.029	-543.55
240.242	-380.12
240.456	-166.8
240.669	-190.28
240.882	-192.26
241.096	-290.92
241.309	-221.05
241.523	-267.43
241.736	-364.99
241.95	1440.78
242.163	-1987.22
242.376	-450.11
242.59	-2274.4
242.803	16446.67
243.016	914.5
243.23	2708.4
243.443	20020
243.656	-2348.12
243.87	-402.16
244.083	-245.79
244.296	-213.74
244.509	-177.5
244.723	-216.03
244.936	-226.93
245.149	-317.2
245.362	-344.72
245.576	-186.87
245.789	-223.03
246.002	-163.85
246.215	-196.03
246.428	-119.35
246.641	-119.2
246.855	-156.19
247.068	-184.44
247.281	-212.97
247.494	-92.21
247.707	-124.99
247.92	-131.71
248.133	-82.85
248.346	-107.58
248.559	-38.85
248.772	-76.06
248.985	-57.31
249.198	-33.63
249.411	-57.2
249.624	-56.23
249.837	-45.45
250.05	-51.25
250.263	-70.25
250.476	-82.78
250.689	-57.65
250.902	-54.36
251.115	-74.54
251.328	-68.67
251.541	-46.18
251.754	-42.74
251.967	-41.72
252.18	-40.42
252.393	-53.38
252.605	-52.33
252.818	-45.84
253.031	-64.17
253.244	-51.75
253.457	-60.59
253.67	-56.96
253.882	-58.1
254.095	-44.53
254.308	-44.04
254.521	-56.28
254.733	-37.18
254.946	-33.24
255.159	-35.66
255.372	-47.98
255.584	-39.96
255.797	-51.04
256.01	-72.88
256.222	-68.51
256.435	-83.16
256.648	-71.9
256.86	-70.84
257.073	-74.23
257.285	-75.54
257.498	-89.75
257.711	-94.88
257.923	-79.08
258.136	-76.52
258.348	-63.69
258.561	-68.57
258.773	-90.7
258.986	-112.89
259.198	-151.44
259.411	-227.31
259.623	-184.06
259.836	-167.67
260.048	-132.3
260.261	-77.14
260.473	-65.14
260.686	-65.5
260.898	-55.9
261.111	-63.36
261.323	-42.01
261.535	-44
261.748	-33.08
261.96	-19.47
262.173	-20.48
262.385	-22.11
262.597	-25.28
262.81	-34.6
263.022	-45.12
263.234	-17.51
263.447	-9.1
263.659	0.18
263.871	-2.27
264.083	-1.26
264.296	-0.04
264.508	-3.26
264.72	-12.35
264.932	-12.09
265.145	-25.4
265.357	-32.62
265.569	-46.25
265.781	-55.87
265.993	-66.29
266.205	-104.72
266.418	-123.87
266.63	-156.91
266.842	-125.37
267.054	-116.55
267.266	-70.66
267.478	-73.71
267.69	-92.18
267.902	-84.65
268.114	-106.51
268.326	-77.91
268.538	-74.44
268.75	-48.32
268.962	-63.1
269.174	-44.94
269.386	-27.29
269.598	-8.1
269.81	-4.95
270.022	2.8
270.234	-0.82
270.446	3.81
270.658	6.12
270.87	14.31
271.082	18.14
271.294	14.21
271.506	4.62
271.718	-1.46
271.929	-0.76
272.141	2.72
272.353	5.48
272.565	9.53
272.777	12.02
272.989	12.86
273.2	17.14
273.412	16.85
273.624	14.4
273.836	12.9
274.047	16.77
274.259	20.21
274.471	20.14
274.683	21.04
274.894	21.05
275.106	22.73
275.318	17.52
275.529	12.76
275.741	10.48
275.953	27.97
276.164	31.45
276.376	35.47
276.588	31.52
276.799	23.87
277.011	23.38
277.222	22.43
277.434	12.38
277.646	-10.94
277.857	-1.38
278.069	0.64
278.28	-6.75
278.492	-22.08
278.703	-21.2
278.915	-4.25
279.126	-7.28
279.338	-9.71
279.549	-7.55
279.761	-6.26
279.972	-6.24
280.183	-11.77
280.395	-20.13
280.606	-19.29
280.818	-21.94
281.029	-16.48
281.24	-17.52
281.452	-26
281.663	-27.93
281.875	-28.99
282.086	-20.87
282.297	-33.1
282.508	-36.74
282.72	-22.03
282.931	-19.02
283.142	-20.42
283.354	-35.81
283.565	-37.43
283.776	-46.79
283.987	-69.16
284.199	-57.43
284.41	-45.38
284.621	-28.4
284.832	-19.26
285.043	-25.49
285.254	-37.3
285.466	-45.16
285.677	-42.07
285.888	-40.64
286.099	-40.55
286.31	-26.41
286.521	-32.44
286.732	-30.45
286.943	-28.95
287.154	-29.98
287.366	-31.09
287.577	-33.19
287.788	-29.04
287.999	-28.51
288.21	-30.78
288.421	-19.26
288.632	-29.61
288.843	-24.63
289.054	-28.54
289.264	-34.86
289.475	-34.57
289.686	-23.87
289.897	-23.35
290.108	-15.04
290.319	-12.09
290.53	-7.11
290.741	-12.97
290.952	-12.35
291.163	-10.15
291.373	-5.6
291.584	-11.53
291.795	-10.06
292.006	-10.23
292.217	-2.32
292.427	-0.88
292.638	1.85
292.849	3.84
293.06	11.32
293.27	6.59
293.481	2.51
293.692	2.5
293.903	5.39
294.113	9.16
294.324	12.67
294.535	10.23
294.745	7.24
294.956	8.91
295.167	8.13
295.377	8.64
295.588	14.18
295.798	7.05
296.009	3.16
296.22	5.98
296.43	2.55
296.641	-13.04
296.851	-16.67
297.062	-16.35
297.272	-14.28
297.483	-13.04
297.693	-13.77
297.904	-13.91
298.114	-6.11
298.325	-2.92
298.535	-10.77
298.746	-15.54
298.956	-14.73
299.167	-14.34
299.377	-21.18
299.587	-24.08
299.798	-26.86
300.008	-34.87
300.219	-31.69
300.429	-29.48
300.639	-31.75
300.85	-26.71
301.06	-24.25
301.27	-17.06
301.481	-14.95
301.691	-23.55
301.901	-23.99
302.111	-28.45
302.322	-22.07
302.532	-35.84
302.742	-49.02
302.952	-51.2
303.163	-58.22
303.373	-74.87
303.583	-72.08
303.793	-62.79
304.003	-44.31
304.214	-37.37
304.424	-34.9
304.634	-36.62
304.844	-34.69
305.054	-25.89
305.264	-32.08
305.474	-28.42
305.684	-38.84
305.894	-37.8
306.104	-35.36
306.314	-46.72
306.525	-38.74
306.735	-48.54
306.945	-48.88
307.155	-35.31
307.365	-28.38
307.575	-25.48
307.784	-15.5
307.994	-13.09
308.204	-18.38
308.414	-25.65
308.624	-26.38
308.834	-18
309.044	-18.33
309.254	-10.97
309.464	-13.5
309.674	-12.54
309.884	-19.24
310.093	-11.14
310.303	-10.73
310.513	-1.89
310.723	6.99
310.933	5.36
311.142	11.27
311.352	19.77
311.562	18.97
311.772	21.05
311.981	22.73
312.191	18.13
312.401	17.46
312.611	20.75
312.82	19.88
313.03	23.02
313.24	16.8
313.449	21.27
313.659	12.48
313.869	7.6
314.078	12.68
314.288	16.51
314.497	16.65
314.707	16.41
314.917	6.28
315.126	7.94
315.336	9.05
315.545	2.21
315.755	2.07
315.964	-1.25
316.174	-3.45
316.383	-2.97
316.593	-0.62
316.802	-4.2
317.012	-7.38
317.221	-3.5
317.431	-8.61
317.64	-3.94
317.849	-17.54
318.059	-13.56
318.268	-6.68
318.478	-5.57
318.687	-6.65
318.896	-7.55
319.106	-10.79
319.315	-8.99
319.524	-19.55
319.734	-25.85
319.943	-23.56
320.152	-27.93
320.362	-31.82
320.571	-37.08
320.78	-39.82
320.989	-31.73
321.199	-27.61
321.408	-23.38
321.617	-29.82
321.826	-28.16
322.035	-34.56
322.245	-25.88
322.454	-22.76
322.663	-22.03
322.872	-26.44
323.081	-26.5
323.29	-29.08
323.5	-26.27
323.709	-24.75
323.918	-20.57
324.127	-23.23
324.336	-27.94
324.545	-28.83
324.754	-25.11
324.963	-20.84
325.172	-19.73
325.381	-25.7
325.59	-30.29
325.799	-37.79
326.008	-43.56
326.217	-46.59
326.426	-33.05
326.635	-31.29
326.844	-30.54
327.053	-33.89
327.262	-28.48
327.47	-29.34
327.679	-23.59
327.888	-24.98
328.097	-22.9
328.306	-18.64
328.515	-14.2
328.724	-11.16
328.932	-15.82
329.141	-12.74
329.35	-6.96
329.559	-8.08
329.768	-5.89
329.976	-3.92
330.185	-3.82
330.394	2.76
330.602	-0.89
330.811	-12.38
331.02	-18.13
331.229	-18.61
331.437	-14.33
331.646	-19.32
331.855	-17.45
332.063	-17.5
332.272	-18.23
332.48	-25.44
332.689	-30.3
332.898	-28.14
333.106	-25.82
333.315	-24.09
333.523	-27.89
333.732	-33.37
333.94	-32.38
334.149	-32.56
334.357	-34.86
334.566	-27.23
334.774	-29.93
334.983	-15.52
335.191	-18.03
335.4	-11.54
335.608	-13.37
335.817	-20.99
336.025	-12.8
336.234	-15.83
336.442	-16.4
336.65	-24.55
336.859	-16.12
337.067	-22.4
337.275	-21.72
337.484	-25.78
337.692	-15.15
337.9	-7.58
338.109	-7.29
338.317	-11.47
338.525	-11.21
338.734	-6.09
338.942	-14.4
339.15	-10.83
339.358	-25.06
339.567	-7.46
339.775	-6.46
339.983	-16.33
340.191	-19.62
340.399	-31.88
340.608	-11.67
340.816	-6.75
341.024	0.68
341.232	-7.3
341.44	-3.07
341.648	-4.14
341.856	0.13
342.064	-3.23
342.272	-10.14
342.481	-5.79
342.689	-3.21
342.897	-0.04
343.105	-2.7
343.313	2.52
343.521	-3.28
343.729	-8.47
343.937	-19.45
344.145	-21.06
344.353	-8.51
344.56	-7.25
344.768	-2.37
344.976	-15.49
345.184	-20.59
345.392	-22.39
345.6	-14.08
345.808	-16.3
346.016	-22.58
346.224	-22.72
346.431	-30.36
346.639	-19.87
346.847	-28.54
347.055	-28.99
347.263	-37.95
347.471	-43.8
347.678	-54.22
347.886	-59.18
348.094	-44.69
348.302	-22.22
348.509	-23.01
348.717	-32.47
348.925	-25.9
349.132	-30.57
349.34	-30.33
349.548	-28.35
349.755	-32.61
349.963	-45.78
350.171	-43.28
350.378	-40.02
350.586	-45
350.793	-37.24
351.001	-43.15
351.209	-35.77
351.416	-34.04
351.624	-32.57
351.831	-38.94
352.039	-36.04
352.246	-37.64
352.454	-46.38
352.661	-65.02
352.869	-57.71
353.076	-54.02
353.284	-57.98
353.491	-52.41
353.699	-43.77
353.906	-41.55
354.113	-29.73
354.321	-21.28
354.528	-22.19
354.736	-22.73
354.943	-22.37
355.15	-19.51
355.358	-22.23
355.565	-28.42
355.772	-26.71
355.98	-19.89
356.187	-12.29
356.394	-16.63
356.601	-11.75
356.809	-6.91
357.016	1.61
357.223	-5.94
357.43	-11.96
357.638	-11.56
357.845	-5.13
358.052	-11.59
358.259	-8.67
358.466	-11.24
358.673	-15.14
358.881	-14.61
359.088	-13.41
359.295	-8.17
359.502	-20.12
359.709	-18.63
359.916	-11.46
360.123	-9.32
360.33	-22.2
360.537	-21.17
360.744	-14.36
360.951	-17.91
361.158	-20.28
361.365	-26.29
361.572	-16.4
361.779	-9.45
361.986	-7.05
362.193	-15.71
362.4	-10.86
362.607	-23.56
362.814	-23.3
363.021	-19.84
363.228	-22.02
363.435	-15.99
363.641	-20.07
363.848	-24.12
364.055	-27.37
364.262	-25.92
364.469	-35.39
364.676	-22.6
364.882	-25.56
365.089	-29.42
365.296	-26.54
365.503	-28.91
365.709	-37.33
365.916	-47.12
366.123	-43.26
366.33	-49.09
366.536	-41.92
366.743	-55.14
366.95	-53.16
367.156	-54.45
367.363	-55.38
367.57	-58.68
367.776	-65.1
367.983	-59.08
368.19	-40.13
368.396	-40.12
368.603	-46.64
368.809	-35.39
369.016	-41.52
369.222	-40.4
369.429	-31.73
369.635	-22.62
369.842	-23.76
370.048	-11.77
370.255	-4.69
370.461	-8.91
370.668	-10.27
370.874	-15.21
371.081	-0.81
371.287	5.47
371.494	2.79
371.7	5.96
371.906	4.39
372.113	13.08
372.319	9.62
372.526	9.41
372.732	6.49
372.938	6.41
373.145	4.96
373.351	7.66
373.557	6.07
373.763	3.87
373.97	-3.64
374.176	5.59
374.382	3.81
374.588	-0.15
374.795	-2.21
375.001	-6.09
375.207	-9.67
375.413	-9.74
375.62	-10.91
375.826	-11.99
376.032	-15.19
376.238	-10.99
376.444	-18.78
376.65	-16.57
376.856	-34.97
377.062	-24.61
377.269	-17.83
377.475	-26.22
377.681	-32.07
377.887	-29.08
378.093	-45.12
378.299	-31.93
378.505	-36.98
378.711	-42.56
378.917	-35.64
379.123	-22.64
379.329	-8.35
379.535	-4.93
379.741	-12.28
379.947	-12.52
380.152	-12.28
380.358	-9.2
380.564	-15.38
380.77	-24.87
380.976	-30.4
381.182	-13.96
381.388	-16.91
381.594	-19.75
381.799	-17.56
382.005	-19.76
382.211	-12.02
382.417	-1.11
382.623	-11.37
382.828	-7.56
383.034	-7.39
383.24	-13.35
383.445	-24.72
383.651	-35.23
383.857	-50.99
384.063	-39.39
384.268	-56.06
384.474	-52.21
384.68	-66.29
384.885	-53.33
385.091	-40.75
385.296	-35.03
385.502	-39.86
385.708	-50.17
385.913	-57.35
386.119	-63.78
386.324	-51.61
386.53	-66.05
386.735	-65.88
386.941	-49.97
387.146	-57.45
387.352	-53.18
387.557	-39.66
387.763	-45.43
387.968	-46.38
388.174	-24.65
388.379	-40.18
388.585	-41.47
388.79	-44.52
388.996	-39.42
389.201	-46.56
389.406	-53.41
389.612	-59.17
389.817	-53.11
390.022	-43.44
390.228	-28.61
390.433	-32.45
390.638	-37.71
390.844	-34.84
391.049	-40.19
391.254	-41.69
391.459	-37.36
391.665	-41.46
391.87	-47.79
392.075	-31.76
392.28	-22.54
392.485	-36.74
392.691	-26.91
392.896	-29.29
393.101	-28.02
393.306	-24.23
393.511	-24.85
393.716	-20.51
393.922	-23.64
394.127	-32.04
394.332	-26.4
394.537	-32.7
394.742	-31.05
394.947	-38.71
395.152	-33.4
395.357	-33.47
395.562	-36.24
395.767	-53.53
395.972	-44.56
396.177	-46.75
396.382	-58.08
396.587	-57.1
396.792	-46.62
396.997	-45
397.202	-35.66
397.407	-42.22
397.611	-41.86
397.816	-38.38
398.021	-43.82
398.226	-40.34
398.431	-37.23
398.636	-44.05
398.841	-44.3
399.045	-38.16
399.25	-42.48
399.455	-52.97
399.66	-49.21
399.864	-48.49
400.069	-48.89
400.274	-47.35
400.479	-44.76
400.683	-37.63
400.888	-45.03
401.093	-62.77
401.297	-63.01
401.502	-75.58
401.707	-78.69
401.911	-68.93
402.116	-73.2
402.321	-47.89
402.525	-49.12
402.73	-44.84
402.934	-43.37
403.139	-43.29
403.344	-46.51
403.548	-41.91
403.753	-36.21
403.957	-43.71
404.162	-47.65
404.366	-28.9
404.571	-38.06
404.775	-46.58
404.98	-52.1
405.184	-41.77
405.388	-25.14
405.593	-24.98
405.797	-16.85
406.002	-10.38
406.206	-6.34
406.41	-2.63
406.615	-3.24
406.819	5.91
407.023	2.82
407.228	4.79
407.432	-4.65
407.636	-10.22
407.841	-3.89
408.045	-4.31
408.249	-16.31
408.453	-13.99
408.658	-17.6
408.862	-8.92
409.066	3.04
409.27	-2.11
409.474	-8.5
409.679	-13.58
409.883	-17.59
410.087	-29.93
410.291	-29.62
410.495	-48.4
410.699	-53.26
410.903	-70.7
411.108	-63.64
411.312	-72.71
411.516	-87.77
411.72	-70.72
411.924	-57.75
412.128	-56.26
412.332	-54.9
412.536	-46.94
412.74	-34.55
412.944	-31.17
413.148	-41.63
413.352	-58.19
413.556	-67.91
413.76	-72.26
413.964	-62.55
414.167	-47.17
414.371	-33.61
414.575	-31.2
414.779	-41.6
414.983	-24.45
415.187	-13.83
415.391	-39.43
415.594	-22.69
415.798	-24.92
416.002	-27.8
416.206	-25.96
416.41	-19.54
416.613	-22.41
416.817	-27.76
417.021	-36.8
417.225	-29.28
417.428	-27.46
417.632	-30.22
417.836	-24.93
418.039	-10.5
418.243	-11.02
418.447	-32.62
418.65	-30.44
418.854	-17.53
419.057	-1.26
419.261	-5.08
419.465	-13.6
419.668	0.3
419.872	-9.08
420.075	-8.27
420.279	2.91
420.482	3.7
420.686	-2.39
420.889	-4.1
421.093	6.88
421.296	6.48
421.5	-6.7
421.703	-18.18
421.907	-8.4
422.11	-10.3
422.314	-11.67
422.517	-22.3
422.72	-8.69
422.924	-5.05
423.127	-21.92
423.33	-33.54
423.534	-39.22
423.737	-36.45
423.94	-26.56
424.144	-14.65
424.347	-1.73
424.55	-14.28
424.754	-17.78
424.957	-22.88
425.16	-10.12
425.363	-9.02
425.567	-8.41
425.77	-6.96
425.973	-2.42
426.176	-5.05
426.379	8.45
426.582	7.13
426.786	14.54
426.989	4.89
427.192	3
427.395	12.54
427.598	13.51
427.801	6.94
428.004	3.73
428.207	6.82
428.41	3.03
428.613	-5.36
428.816	3.29
429.019	4.07
429.222	0.37
429.425	-0.5
429.628	-0.53
429.831	-2.39
430.034	-0.08
430.237	4.27
430.44	5.24
430.643	-2.44
430.846	-3.98
431.049	-7.1
431.252	-1.97
431.454	-3.53
431.657	-11.83
431.86	-9.81
432.063	-6.56
432.266	-1.1
432.469	-12.32
432.671	-15.42
432.874	1.3
433.077	-10.88
433.28	-10.7
433.482	-6.7
433.685	-17.19
433.888	-19.9
434.09	-20.94
434.293	-32.85
434.496	-34.21
434.698	-39.1
434.901	-28.57
435.104	-40.72
435.306	-31.31
435.509	-33.07
435.712	-36.82
435.914	-49.69
436.117	-40.24
436.319	-26.71
436.522	-29.21
436.724	-28.78
436.927	-32.48
437.129	-48.43
437.332	-46.1
437.534	-46.68
437.737	-53.07
437.939	-30.6
438.142	-44.01
438.344	-39.54
438.547	-43.65
438.749	-38.94
438.951	-49.74
439.154	-62.99
439.356	-47.57
439.558	-60.29
439.761	-58.89
439.963	-55.78
440.165	-39.85
440.368	-39.64
440.57	-78.38
440.772	-90.43
440.975	-89.69
441.177	-75.57
441.379	-70.47
441.581	-56.25
441.784	-62.1
441.986	-49.06
442.188	-59.07
442.39	-52.95
442.592	-56.63
442.795	-39.93
442.997	-43.94
443.199	-36.06
443.401	-30.2
443.603	-25.36
443.805	-36.83
444.007	-34.1
444.209	-38.83
444.411	-26.46
444.613	-33.46
444.815	-18.26
445.017	-18.24
445.219	-11.91
445.421	-17.43
445.623	-23.01
445.825	-27.56
446.027	-27.15
446.229	-36.17
446.431	-27.49
446.633	-33.89
446.835	-27.68
447.037	-31.02
447.239	-25.52
447.441	-24.5
447.643	-24.03
447.844	-42.03
448.046	-29.23
448.248	-24
448.45	-10.13
448.652	-22.11
448.853	-19.35
449.055	-28.09
449.257	-18.06
449.459	-28.18
449.66	-13.74
449.862	-20.85
450.064	-25.07
450.266	-18.1
450.467	-17.83
450.669	-20.79
450.871	-25.9
451.072	-16.28
451.274	-23.8
451.475	-23.23
451.677	-15.97
451.879	-35.25
452.08	-48.46
452.282	-32.1
452.483	-49.39
452.685	-54.23
452.886	-34.2
453.088	-41.28
453.289	-58.34
453.491	-85.73
453.692	-98.72
453.894	-88.82
454.095	-56.87
454.297	-51.57
454.498	-43.62
454.7	-44.77
454.901	-35.81
455.102	-24.4
455.304	-33.88
455.505	-29.88
455.706	-37.63
455.908	-43.99
456.109	-44.81
456.31	-27.24
456.512	-36.9
456.713	-33.27
456.914	-33.64
457.116	-61.16
457.317	-54.62
457.518	-46.17
457.719	-36.11
457.921	-34.57
458.122	-49.28
458.323	-52.64
458.524	-36.85
458.725	-40.21
458.926	-43.8
459.128	-49.84
459.329	-46.34
459.53	-47.69
459.731	-54.31
459.932	-63.21
460.133	-51.02
460.334	-28.99
460.535	-20.61
460.736	-12.5
460.937	-10.04
461.138	-11.53
461.339	3.1
461.54	2.76
461.741	2.45
461.942	-0.18
462.143	4.71
462.344	4.42
462.545	3.85
462.746	-2.3
462.947	-11.55
463.148	-12.56
463.348	-6.31
463.549	-15.73
463.75	-16.44
463.951	-8.93
464.152	-1.3
464.353	-9.18
464.553	-11.68
464.754	-8.48
464.955	-10.03
465.156	-5.54
465.356	-5.29
465.557	-5.34
465.758	0.22
465.959	3.93
466.159	6.81
466.36	6.01
466.561	9.15
466.761	4.63
466.962	4.25
467.163	15.36
467.363	23.84
467.564	24.81
467.764	30.3
467.965	24.3
468.166	14.53
468.366	18.59
468.567	18.56
468.767	18.84
468.968	12.24
469.168	16.77
469.369	20.09
469.569	20.69
469.77	14.04
469.97	4.83
470.17	4.67
470.371	5.59
470.571	-0.67
470.772	5.6
470.972	10.02
471.172	12.25
471.373	1.84
471.573	-3.56
471.773	-6.33
471.974	-2.07
472.174	0.16
472.374	16.83
472.575	19.36
472.775	20.9
472.975	13.5
473.175	13.05
473.376	3.84
473.576	2.48
473.776	2.91
473.976	2.38
474.177	5.57
474.377	-2.95
474.577	-8.99
474.777	-5.8
474.977	-13.25
475.177	-15.12
475.377	-16.46
475.577	-10.26
475.777	-8.21
475.978	-10.72
476.178	-17.34
476.378	-10.58
476.578	-16.84
476.778	-22.53
476.978	-24.01
477.178	-16.71
477.378	-17.59
477.578	-12.37
477.778	-15
477.977	-17.26
478.177	-16.83
478.377	-19.83
478.577	-15.63
478.777	-12.57
478.977	-15.91
479.177	-13.74
479.377	-14.27
479.577	-17.34
479.776	-13.98
479.976	-20.76
480.176	-16.51
480.376	-16.69
480.576	-22.82
480.775	-23.59
480.975	-21.61
481.175	-26.46
481.374	-22.38
481.574	-16.06
481.774	-20.36
481.974	-22.52
482.173	-21.73
482.373	-23.24
482.572	-18.23
482.772	-14.53
482.972	-12.14
483.171	-5.37
483.371	-1.11
483.57	-2.23
483.77	1.04
483.97	-4.9
484.169	-2.12
484.369	-6.77
484.568	-9.34
484.768	-5.93
484.967	-4.53
485.167	-4.67
485.366	-3.77
485.566	-8.14
485.765	-12.56
485.964	-13.12
486.164	-14.69
486.363	-16.59
486.563	-10.45
486.762	-14.35
486.961	-10.44
487.161	-11.43
487.36	-16.5
487.559	-22.74
487.759	-21.8
487.958	-29.46
488.157	-32.61
488.356	-31.46
488.556	-28.42
488.755	-23.77
488.954	-29.1
489.153	-31.57
489.353	-30.61
489.552	-32.37
489.751	-37.79
489.95	-33.12
490.149	-31.87
490.348	-25.11
490.548	-19.28
490.747	-28.66
490.946	-27.46
491.145	-34.24
491.344	-34.18
491.543	-33.82
491.742	-34.81
491.941	-35.25
492.14	-29.61
492.339	-30.24
492.538	-31.51
492.737	-31.97
492.936	-29.58
493.135	-26
493.334	-29.49
493.533	-34.82
493.732	-23.56
493.931	-14.3
494.13	-23.33
494.328	-20.34
494.527	-19.73
494.726	-26.32
494.925	-26.9
495.124	-24.1
495.323	-20.28
495.521	-19.38
495.72	-14.87
495.919	-14.19
496.118	-12.62
496.316	-13.21
496.515	-8.64
496.714	-10.16
496.913	-9.08
497.111	-14.05
497.31	-20.41
497.509	-18.29
497.707	-14.39
497.906	-12.09
498.105	-17.44
498.303	-15.62
498.502	-19.9
498.7	-19.34
498.899	-18.16
499.097	-15.19
499.296	-14.82
499.495	-18.36
499.693	-17.91
499.892	-24
500.09	-24.33
500.289	-18.22
500.487	-17.7
500.686	-16.32
500.884	-16.4
501.082	-15.53
501.281	-15.47
501.479	-1.18
501.678	0.55
501.876	0.35
502.074	-1.59
502.273	-1.94
502.471	1.67
502.669	3.03
502.868	2.15
503.066	3.76
503.264	4.46
503.463	4.1
503.661	2.13
503.859	2.01
504.057	6.08
504.256	5.85
504.454	2.27
504.652	-2.13
504.85	-6.08
505.048	-0.37
505.246	-3.21
505.445	-2.28
505.643	-9.09
505.841	-7.89
506.039	-8.05
506.237	-13.2
506.435	-11.49
506.633	-10.58
506.831	-8.39
507.029	-8.88
507.227	-3.39
507.425	-0.94
507.623	-1.97
507.821	-3.3
508.019	-4.27
508.217	-4.17
508.415	-3.38
508.613	-1.72
508.811	1.03
509.009	1.34
509.207	-1.77
509.405	-1.71
509.603	-0.79
509.8	-2.54
509.998	-6.15
510.196	-8.8
510.394	-9.88
510.592	-9.61
510.79	-12.49
510.987	-12.06
511.185	-12.07
511.383	-20.12
511.581	-21.72
511.778	-18.16
511.976	-15.06
512.174	-18.51
512.371	-19
512.569	-16.24
512.767	-18.42
512.964	-20.97
513.162	-20.91
513.36	-22.21
513.557	-24.72
513.755	-25.5
513.952	-22.31
514.15	-24.77
514.348	-22.07
514.545	-20.89
514.743	-18.56
514.94	-16.83
515.138	-20.39
515.335	-20.04
515.533	-17.36
515.73	-16.64
515.927	-20.76
516.125	-22.69
516.322	-18.25
516.52	-19.32
516.717	-21.88
516.915	-21.49
517.112	-22.37
517.309	-21.37
517.507	-18.06
517.704	-15.64
517.901	-14.68
518.099	-15.62
518.296	-9.92
518.493	-7.89
518.69	-5.69
518.888	-7.6
519.085	-5.54
519.282	-4.7
519.479	-6.29
519.676	-7.98
519.874	-14.85
520.071	-16.66
520.268	-14.98
520.465	-11.4
520.662	-9.04
520.859	-6.93
521.056	-8.39
521.254	-3.1
521.451	1.31
521.648	-2.62
521.845	-5.72
522.042	-2.94
522.239	-2.76
522.436	-5.81
522.633	-8.22
522.83	-12.27
523.027	-12.22
523.224	-14.79
523.421	-11.02
523.618	-8.4
523.815	-5.47
524.011	-1.76
524.208	5.15
524.405	8.29
524.602	5.16
524.799	-1.4
524.996	-4.58
525.193	-4.88
525.389	-9
525.586	-15.07
525.783	-16.56
525.98	-11.73
526.176	-15.52
526.373	-20.55
526.57	-23.16
526.767	-26.44
526.963	-25.18
527.16	-22.3
527.357	-22.47
527.553	-25.74
527.75	-31.35
527.947	-38.07
528.143	-35.17
528.34	-41.04
528.537	-42.5
528.733	-40.63
528.93	-39.14
529.126	-36.58
529.323	-35.68
529.519	-31.36
529.716	-30.14
529.912	-27.63
530.109	-27.1
530.305	-26.87
530.502	-20
530.698	-18.88
530.895	-22.31
531.091	-18.91
531.288	-21.12
531.484	-20.23
531.68	-18.8
531.877	-16.45
532.073	-12.35
532.269	-13.03
532.466	-12.72
532.662	-16.36
532.858	-17.75
533.055	-15.26
533.251	-12.27
533.447	-11.01
533.643	-10
533.84	-10.86
534.036	-11.07
534.232	-8.74
534.428	-9.26
534.624	-12.46
534.821	-9.59
535.017	-5.35
535.213	-5.47
535.409	-3.78
535.605	-3.92
535.801	-5.27
535.997	-4.42
536.193	-9.74
536.389	-7.88
536.586	-11.08
536.782	-6.15
536.978	-4.99
537.174	-3.92
537.37	-1.98
537.566	0.01
537.762	-2.28
537.958	-2.05
538.153	-0.55
538.349	-3.41
538.545	-2.75
538.741	-2.9
538.937	-3.97
539.133	-1.66
539.329	1.46
539.525	0.44
539.721	-0.29
539.916	1.71
540.112	-3.57
540.308	3.15
540.504	6.62
540.699	9.42
540.895	7.68
541.091	8.03
541.287	10.66
541.482	6.2
541.678	6.86
541.874	5.16
542.069	7.24
542.265	9.47
542.461	10.99
542.656	10.9
542.852	9.83
543.048	10.97
543.243	11.85
543.439	8.02
543.634	6.95
543.83	4.25
544.025	3.92
544.221	9.16
544.417	9.54
544.612	7.41
544.807	8.41
545.003	6.9
545.198	5.1
545.394	1.74
545.589	4.33
545.785	0.71
545.98	1.45
546.176	0.96
546.371	-3.14
546.566	-4.18
546.762	-7.1
546.957	-5.04
547.152	-5.23
547.348	-9.41
547.543	-9.69
547.738	-10.64
547.933	-11.66
548.129	-10.65
548.324	-13.52
548.519	-16.39
548.714	-17.45
548.91	-18.06
549.105	-17.67
549.3	-17.53
549.495	-14.94
549.69	-18.1
549.885	-19.1
550.08	-16.07
550.276	-18.54
550.471	-18.28
550.666	-18.16
550.861	-16.08
551.056	-15.2
551.251	-18.3
551.446	-12.81
551.641	-13.12
551.836	-11.56
552.031	-8.47
552.226	-9.94
552.421	-8.03
552.616	-6.7
552.811	-6.01
553.006	-8.44
553.201	-12.62
553.395	-12.83
553.59	-14.75
553.785	-13.75
553.98	-11
554.175	-13.77
554.37	-13.94
554.565	-11.18
554.759	-12.87
554.954	-11.44
555.149	-10.51
555.344	-9.83
555.538	-13.33
555.733	-9.79
555.928	-7.47
556.122	-6.46
556.317	-8
556.512	-7.64
556.706	-8.21
556.901	-6.45
557.096	-4.51
557.29	-0.45
557.485	1.73
557.68	0.72
557.874	0.09
558.069	-0.48
558.263	-1.59
558.458	2.18
558.652	1.9
558.847	3.83
559.041	6.67
559.236	4.34
559.43	4.11
559.625	6.67
559.819	3.17
560.014	0.78
560.208	0.96
560.402	2.16
560.597	1.61
560.791	1.47
560.986	0.46
561.18	0.45
561.374	0.79
561.569	-2.99
561.763	-1.84
561.957	-2.39
562.151	-5.02
562.346	-2.64
562.54	-2.5
562.734	-3.26
562.928	-4.53
563.123	-4.64
563.317	-3.83
563.511	-2.18
563.705	-6.69
563.899	-7.72
564.093	-6.2
564.288	-8.68
564.482	-8.53
564.676	-9.64
564.87	-9.16
565.064	-9.5
565.258	-8.52
565.452	-10.31
565.646	-8.2
565.84	-11.08
566.034	-11.6
566.228	-10.26
566.422	-9.31
566.616	-11.34
566.81	-11.38
567.004	-7.78
567.198	-7.74
567.392	-9.99
567.586	-13.35
567.779	-8.84
567.973	-6.4
568.167	-6.12
568.361	-4.66
568.555	-5.47
568.749	-4.87
568.942	-5.58
569.136	-4.7
569.33	-6.21
569.524	-2.89
569.718	-0.73
569.911	1.44
570.105	2.14
570.299	2.26
570.492	1.25
570.686	2.6
570.88	2.36
571.073	-0.3
571.267	-1.98
571.461	-1.22
571.654	0.21
571.848	0.59
572.041	1.16
572.235	0
572.429	-0.77
572.622	-0.21
572.816	-0.84
573.009	0.13
573.203	-1.55
573.396	0.35
573.59	-1.36
573.783	-3.25
573.976	-3.06
574.17	-3.05
574.363	-4.39
574.557	-6.73
574.75	-7.37
574.943	-3.9
575.137	-2.68
575.33	-1.12
575.523	-0.88
575.717	-2.28
575.91	-6.57
576.103	-6.74
576.297	-7.8
576.49	-7.39
576.683	-8.79
576.876	-8.2
577.07	-10.27
577.263	-7.9
577.456	-8.04
577.649	-8.47
577.842	-6.47
578.036	-6.1
578.229	-5.96
578.422	-4.63
578.615	-3.59
578.808	-4.25
579.001	-4.48
579.194	-4.23
579.387	-3.67
579.58	-4.52
579.773	-3.84
579.966	-0.91
580.159	-2.23
580.352	0.97
580.545	1.75
580.738	1.6
580.931	0.81
581.124	2.55
581.317	-0.1
581.51	-2.02
581.703	-1.12
581.896	-3.89
582.088	-2.66
582.281	-0.68
582.474	-0.16
582.667	1.56
582.86	1.54
583.053	-2.12
583.245	-2.34
583.438	-4.28
583.631	-2.06
583.824	0.49
584.016	1.71
584.209	1.44
584.402	-0.79
584.594	-1.57
584.787	1.7
584.98	2.79
585.172	2.35
585.365	1.99
585.558	1.96
585.75	1.47
585.943	2.17
586.135	0.26
586.328	-1.77
586.52	0.43
586.713	-0.45
586.906	-0.34
587.098	1.82
587.291	2.11
587.483	1.2
587.675	0.42
587.868	-3.38
588.06	-5.09
588.253	-3.57
588.445	-2.22
588.638	-2.17
588.83	-3.97
589.022	-4.76
589.215	-5.47
589.407	-3.79
589.599	-1.71
589.792	-0.15
589.984	0.15
590.176	1.13
590.368	3.89
590.561	1.67
590.753	1.57
590.945	0.5
591.137	0.18
591.33	-0.83
591.522	2.52
591.714	-0.18
591.906	4.47
592.098	5.34
592.29	5.09
592.482	3.49
592.674	1.97
592.867	1.76
593.059	1.24
593.251	1.97
593.443	2.28
593.635	0.49
593.827	-2.44
594.019	-3.76
594.211	-4.91
594.403	-6.45
594.595	-5.84
594.787	-5.54
594.979	-3.77
595.17	-4.15
595.362	-3.65
595.554	-5.75
595.746	-4.25
595.938	-6.47
596.13	-6.29
596.322	-5.4
596.513	-7.96
596.705	-7.22
596.897	-7.33
597.089	-5.72
597.281	-6.52
597.472	-5.84
597.664	-5.75
597.856	-3.33
598.048	-2.9
598.239	-2.61
598.431	-4.9
598.623	-5.4
598.814	-7.64
599.006	-7.69
599.197	-6.56
599.389	-5.99
599.581	-7.61
599.772	-7.13
599.964	-7.05
600.155	-9.5
600.347	-10.69
600.538	-7.66
600.73	-5.88
600.921	-5.91
601.113	-6.89
601.304	-4.93
601.496	-5.38
601.687	-3.21
601.879	-4.44
602.07	-3.79
602.262	-3.25
602.453	-2.44
602.644	-4.08
602.836	-2.62
603.027	-3.57
603.218	-5.9
603.41	-7.7
603.601	-5.73
603.792	-4.91
603.983	-4.15
604.175	-1.87
604.366	-2.11
604.557	-1.63
604.748	-4.09
604.94	-2.89
605.131	-2.46
605.322	-4.16
605.513	-3.07
605.704	-4.77
605.895	-5.04
606.086	-6.08
606.278	-6.06
606.469	-5.11
606.66	-4.03
606.851	-5.01
607.042	-5.65
607.233	-4.32
607.424	-3.89
607.615	-4.65
607.806	-4.22
607.997	-3.41
608.188	-3.33
608.379	-3.27
608.57	-4.61
608.761	-3.17
608.952	-4.2
609.142	-4.35
609.333	-3.4
609.524	-4.44
609.715	-3.52
609.906	-2.66
610.097	-1.78
610.287	-2.01
610.478	-2.63
610.669	-1.75
610.86	0.14
611.051	2.64
611.241	2.17
611.432	3.21
611.623	3.73
611.813	1.77
612.004	1.93
612.195	1.82
612.385	2.32
612.576	2.76
612.767	3.19
612.957	3.2
613.148	3.75
613.338	2.7
613.529	1.93
613.72	1.58
613.91	0.37
614.101	0.26
614.291	1.75
614.482	2.05
614.672	1.07
614.863	1.01
615.053	-1.91
615.243	-0.17
615.434	-0.05
615.624	-1.61
615.815	-0.68
616.005	-1.72
616.195	-1.52
616.386	-2.58
616.576	-1.82
616.766	-1.16
616.957	-0.96
617.147	-2.23
617.337	-3.96
617.528	-3.69
617.718	-4.46
617.908	-5.38
618.098	-4.95
618.289	-6.01
618.479	-5.93
618.669	-4.85
618.859	-5.1
619.049	-1.79
619.239	-1.57
619.43	-2.91
619.62	-3.34
619.81	-1.02
620	-1.82
620.19	-1.69
620.38	-2.08
620.57	-1.87
620.76	-3.36
620.95	-2.22
621.14	-1.49
621.33	0.88
621.52	0.64
621.71	0.47
621.9	2.9
622.09	2.2
622.28	1.15
622.47	-0.14
622.659	-1.26
622.849	-1.92
623.039	-2.82
623.229	-3.75
623.419	-2.58
623.609	-2.06
623.799	-4.39
623.988	-3.02
624.178	-3.29
624.368	-3.09
624.558	-3.21
624.747	-3.1
624.937	-4.26
625.127	-6.06
625.316	-6.88
625.506	-6.66
625.696	-6.1
625.885	-6.99
626.075	-5.99
626.265	-4.15
626.454	-3.46
626.644	-2.91
626.833	-3.4
627.023	-3.21
627.212	-3.89
627.402	-3.1
627.591	-1.43
627.781	-1.4
627.97	-2.41
628.16	-1.85
628.349	-1.62
628.539	-4.48
628.728	-2.97
628.918	-3.18
629.107	-1.07
629.296	-1.58
629.486	-1.6
629.675	-0.78
629.865	-1.57
630.054	-1.34
630.243	-3.72
630.432	-3.25
630.622	-3
630.811	-1.82
631	-2.48
631.19	-0.48
631.379	-1.75
631.568	-1.98
631.757	-0.6
631.946	-0.41
632.136	-0.3
632.325	-0.62
632.514	1.82
632.703	-0.24
632.892	-1.44
633.081	-2.63
633.27	-2.03
633.459	-3.59
633.648	-4.92
633.837	-4.98
634.026	-7.52
634.215	-4.69
634.404	-5.63
634.593	-3.55
634.782	-4.32
634.971	-5.19
635.16	-7.89
635.349	-6.91
635.538	-7.06
635.727	-9.33
635.916	-10.57
636.105	-10.87
636.294	-7.73
636.482	-7.55
636.671	-6.1
636.86	-4.59
637.049	-3.89
637.238	-3.69
637.426	-2.28
637.615	-2.32
637.804	-1.63
637.993	0.13
638.181	-1.51
638.37	0.12
638.559	-1.16
638.747	-0.77
638.936	-0.35
639.125	0.45
639.313	-0.78
639.502	-1.33
639.691	-0.71
639.879	-0.72
640.068	-2.34
640.256	-5.18
640.445	-5.82
640.633	-5.41
640.822	-6.7
641.01	-5.9
641.199	-5.25
641.387	-4.57
641.576	-3.84
641.764	-2.71
641.953	-4.07
642.141	-3.38
642.329	-4.22
642.518	-4.17
642.706	-3.88
642.894	-3.69
643.083	-3.36
643.271	-2.6
643.459	-0.86
643.648	-0.04
643.836	0.07
644.024	0.53
644.213	0.38
644.401	0.39
644.589	-0.66
644.777	1.43
644.965	1.96
645.154	1.22
645.342	0.11
645.53	0.91
645.718	0.12
645.906	0.87
646.094	1.1
646.282	1.69
646.47	0.61
646.658	0.3
646.846	-0.12
647.034	1.06
647.223	0.26
647.411	-0.77
647.599	-2.56
647.786	-2.88
647.974	-3.85
648.162	-3.61
648.35	-3.09
648.538	-2.57
648.726	-2.55
648.914	-3.66
649.102	-2.24
649.29	-1.49
649.478	-1.78
649.665	-0.77
649.853	-1.15
650.041	-3.19
650.229	-2.98
650.417	-3.11
650.604	-3.28
650.792	-1.48
650.98	-3.38
651.168	-3.62
651.355	-2.47
651.543	-2.33
651.731	-3.18
651.918	-2.63
652.106	-0.85
652.294	-1.18
652.481	-0.05
652.669	-1.47
652.856	-1.32
653.044	-1.5
653.231	-2.17
653.419	-2.52
653.606	-3.65
653.794	-2.73
653.981	-0.94
654.169	-2.38
654.356	-2.41
654.544	-2.82
654.731	-4.78
654.919	-5.09
655.106	-4.52
655.294	-5.29
655.481	-3.74
655.668	-2.2
655.856	-2.47
656.043	-3.48
656.23	-3.47
656.418	-4.4
656.605	-4.57
656.792	-4.73
656.979	-5.21
657.167	-4.68
657.354	-4.46
657.541	-5.05
657.728	-5.35
657.916	-5.98
658.103	-6.18
658.29	-4.25
658.477	-3.42
658.664	-3.23
658.851	-3.32
659.038	-3.09
659.225	-4.4
659.412	-4.2
659.6	-4.37
659.787	-3.19
659.974	-4.51
660.161	-3.12
660.348	-3.26
660.535	0.19
660.722	-0.87
660.909	-2.58
661.095	-2.9
661.282	-3.5
661.469	-2
661.656	-2.72
661.843	-2.61
662.03	-1.52
662.217	-3.17
662.404	-2.83
662.59	-2.39
662.777	-2.95
662.964	-2.81
663.151	-1.34
663.338	-0.69
663.524	-1.76
663.711	-2.95
663.898	-2.28
664.085	-2.27
664.271	-2.93
664.458	-6.39
664.645	-5.81
664.831	-3.28
665.018	-3.14
665.204	-2.84
665.391	-3.35
665.578	-2.94
665.764	-2.42
665.951	-3.21
666.137	-2.85
666.324	-3.47
666.51	-2.89
666.697	-1.65
666.883	-2.69
667.07	-2.6
667.256	-3.77
667.443	-3.5
667.629	-2.71
667.816	-2.75
668.002	-4.35
668.188	-4.26
668.375	-3.83
668.561	-4.43
668.747	-6.67
668.934	-6.04
669.12	-4.52
669.306	-4.35
669.493	-4.78
669.679	-5.3
669.865	-4.43
670.051	-5.77
670.238	-5.72
670.424	-5.53
670.61	-7.44
670.796	-6.36
670.982	-7.75
671.169	-6.87
671.355	-7.51
671.541	-6.86
671.727	-5.73
671.913	-6.09
672.099	-5.59
672.285	-6.15
672.471	-6.51
672.657	-6.48
672.843	-6.76
673.029	-7.96
673.215	-8.54
673.401	-6.23
673.587	-6.69
673.773	-6.44
673.959	-4.97
674.145	-5
674.331	-5.52
674.517	-3.41
674.703	-3.23
674.888	-2.9
675.074	-4.23
675.26	-2.29
675.446	-2.94
675.632	-4.34
675.817	-2.64
676.003	-1.6
676.189	-1.02
676.375	0.41
676.56	1.58
676.746	0.87
676.932	-0.53
677.117	-0.77
677.303	-2.97
677.489	-3.25
677.674	-4.21
677.86	-5.28
678.046	-4.59
678.231	-4.07
678.417	-4.86
678.602	-6.17
678.788	-5.35
678.973	-4.84
679.159	-3.44
679.344	-3.72
679.53	-2.95
679.715	-3.35
679.901	-4.77
680.086	-5.13
680.272	-5.95
680.457	-6.55
680.643	-5.95
680.828	-5.28
681.013	-5.17
681.199	-4.7
681.384	-4.6
681.569	-3.93
681.755	-3.27
681.94	-3.51
682.125	-4.47
682.31	-3.53
682.496	-3.48
682.681	-4.61
682.866	-4.92
683.051	-6.6
683.237	-5.56
683.422	-5.49
683.607	-6.64
683.792	-4.73
683.977	-4
684.162	-4.31
684.347	-4.04
684.532	-3.83
684.717	-4.37
684.903	-5.88
685.088	-5.36
685.273	-5.51
685.458	-6.31
685.643	-5.55
685.828	-6.67
686.013	-4.41
686.198	-5.26
686.382	-4.2
686.567	-3.18
686.752	-3.21
686.937	-3.63
687.122	-2.54
687.307	-2.13
687.492	-1.88
687.677	-5.64
687.861	-6.32
688.046	-5.32
688.231	-5.91
688.416	-4.89
688.601	-4.74
688.785	-2.99
688.97	-3.37
689.155	-1.04
689.339	-1.39
689.524	-1.77
689.709	-1.57
689.893	-2.99
690.078	-1.27
690.263	-1.13
690.447	-1.15
690.632	-1.51
690.816	-0.25
691.001	-1.48
691.186	-2.72
691.37	-2.72
691.555	0.01
691.739	0.47
691.924	-0.92
692.108	0.28
692.293	0.1
692.477	-0.02
692.661	0.29
692.846	-0.39
693.03	-1.59
693.215	-0.94
693.399	-1.75
693.583	-1.94
693.768	-1.9
693.952	-4.38
694.136	-6.15
694.321	-5.98
694.505	-5.57
694.689	-6.56
694.873	-6.44
695.058	-6.8
695.242	-4.93
695.426	-6.01
695.61	-6.72
695.794	-4.91
695.979	-6.01
696.163	-7.44
696.347	-6.85
696.531	-6.84
696.715	-5.59
696.899	-6.25
697.083	-6.07
697.267	-4.33
697.451	-3.48
697.635	-4.11
697.819	-3.59
698.003	-1.7
698.187	-1.93
698.371	-1.4
698.555	-0.99
698.739	-0.66
698.923	0.23
699.107	-0.48
699.291	-0.06
699.475	0.29
699.659	-0.9
699.842	-1.04
700.026	-1.72
700.21	-0.64
700.394	-0.41
700.578	-0.67
700.761	-0.11
700.945	0.7
701.129	-0.42
701.313	-1.81
701.496	-1.29
701.68	-0.76
701.864	-1.13
702.047	-0.69
702.231	1.33
702.415	1.59
702.598	-0.19
702.782	-0.34
702.965	-0.58
703.149	-1.68
703.333	-2.38
703.516	-0.52
703.7	-0.29
703.883	1.21
704.067	-0.58
704.25	-2.07
704.434	-2.88
704.617	-3.54
704.801	-4.83
704.984	-5.19
705.167	-4.46
705.351	-5.19
705.534	-4.89
705.718	-4.55
705.901	-6.35
706.084	-9.04
706.268	-9.89
706.451	-9.69
706.634	-10.23
706.817	-11.43
707.001	-10.63
707.184	-9
707.367	-11.57
707.55	-11.64
707.734	-11.69
707.917	-11.14
708.1	-10.81
708.283	-9.1
708.466	-8.06
708.649	-6.57
708.832	-8.16
709.015	-7.01
709.199	-6.94
709.382	-7.21
709.565	-6.34
709.748	-4.53
709.931	-5.02
710.114	-5.43
710.297	-4.62
710.48	-4.95
710.663	-4.39
710.846	-4.3
711.028	-4.65
711.211	-3.25
711.394	-2.51
711.577	-2.68
711.76	-5
711.943	-5.49
712.126	-5.49
712.309	-5.01
712.491	-5.14
712.674	-4.09
712.857	-3.83
713.04	-2.65
713.222	-1.45
713.405	-3.77
713.588	-2.75
713.771	-1.88
713.953	-1.34
714.136	-2.15
714.319	-0.14
714.501	-0.34
714.684	-0.68
714.866	0.06
715.049	-0.97
715.232	-1.26
715.414	-3.26
715.597	-0.97
715.779	-0.5
715.962	-0.25
716.144	-1.84
716.327	-1.34
716.509	-1.33
716.692	-3.23
716.874	-3.66
717.057	-5.44
717.239	-3.62
717.421	-4.5
717.604	-6.73
717.786	-5.4
717.968	-5.22
718.151	-7.01
718.333	-8.03
718.515	-8.15
718.698	-8.73
718.88	-8.99
719.062	-9.16
719.244	-7.17
719.427	-9.07
719.609	-8.02
719.791	-10.42
719.973	-9.94
720.155	-12.37
720.338	-11.61
720.52	-10.27
720.702	-10.39
720.884	-8.62
721.066	-8
721.248	-11.16
721.43	-9.11
721.612	-11.24
721.794	-9.88
721.976	-9.34
722.158	-8.61
722.34	-8.43
722.522	-8.89
722.704	-7.57
722.886	-8.1
723.068	-6.85
723.25	-4.09
723.432	-6.47
723.614	-5.36
723.796	-5.22
723.977	-4.57
724.159	-5.27
724.341	-5.78
724.523	-8
724.705	-9.89
724.886	-12.62
725.068	-8.82
725.25	-7.97
725.432	-7.47
725.613	-8.2
725.795	-6.72
725.977	-5.33
726.158	-5.74
726.34	-6.41
726.522	-5.44
726.703	-4.7
726.885	-5.1
727.066	-7.1
727.248	-3.16
727.43	-3.36
727.611	-2.78
727.793	-2.65
727.974	-2.03
728.156	-2.6
728.337	-2.26
728.519	-2.86
728.7	-2.02
728.882	-3.59
729.063	-4.89
729.244	-4.03
729.426	-3.8
729.607	-4.07
729.788	-6.08
729.97	-4
730.151	-3.4
730.332	-5.34
730.514	-5.18
730.695	-6.12
730.876	-5.05
731.058	-7.2
731.239	-6.06
731.42	-5.74
731.601	-5.98
731.782	-4.95
731.964	-4.48
732.145	-3.04
732.326	-3.67
732.507	-3.82
732.688	-3.06
732.869	-0.38
733.05	0.09
733.231	0.35
733.412	-1.44
733.593	0
733.774	-1.04
733.955	-1.57
734.136	-1.49
734.317	-2.2
734.498	-1.19
734.679	-1.93
734.86	-3.57
735.041	-4.43
735.222	-5.2
735.403	-4.21
735.584	-5.27
735.765	-4.48
735.946	-5.16
736.126	-4.47
736.307	-2.93
736.488	-3.57
736.669	-7.39
736.849	-10.12
737.03	-8.62
737.211	-6.18
737.392	-5.68
737.572	-8.59
737.753	-9.36
737.934	-6.51
738.114	-4.67
738.295	-5.54
738.476	-4.11
738.656	-1.23
738.837	-1.47
739.017	0.23
739.198	0.47
739.378	1.33
739.559	1.02
739.74	3.46
739.92	3.37
740.1	3.23
740.281	1.16
740.461	2.38
740.642	4.36
740.822	0.86
741.003	0.7
741.183	-0.68
741.363	2.02
741.544	3.83
741.724	2.15
741.904	0.24
742.085	-0.07
742.265	-0.01
742.445	-1.63
742.626	-0.5
742.806	-2.46
742.986	-3.08
743.166	-4.57
743.347	-5.97
743.527	-6.44
743.707	-6.47
743.887	-8.35
744.067	-8.32
744.247	-8.41
744.427	-8.82
744.608	-7.91
744.788	-7.01
744.968	-6.12
745.148	-6.4
745.328	-7.84
745.508	-7.98
745.688	-8.88
745.868	-8.2
746.048	-9.19
746.228	-8.54
746.408	-10.4
746.588	-11.45
746.767	-10.48
746.947	-8.5
747.127	-8.3
747.307	-11.2
747.487	-12.24
747.667	-12.19
747.847	-8.86
748.026	-8.22
748.206	-7.56
748.386	-4.96
748.566	-6.69
748.745	-6.16
748.925	-6.07
749.105	-5.1
749.285	-6.97
749.464	-6.59
749.644	-5.59
749.824	-5.74
750.003	-5.58
750.183	-6.78
750.362	-4.81
750.542	-6.1
750.722	-7.17
750.901	-7.17
751.081	-6.21
751.26	-3.61
751.44	-2.29
751.619	-3.34
751.799	-4.44
751.978	-7.95
752.158	-10.86
752.337	-9.74
752.516	-10.55
752.696	-11.06
752.875	-10.65
753.055	-8.91
753.234	-7.87
753.413	-8.54
753.593	-6.73
753.772	-6.54
753.951	-5.07
754.13	-4.46
754.31	-5.2
754.489	-4.84
754.668	-3.88
754.847	-3.46
755.027	-2.21
755.206	-2.09
755.385	-2.38
755.564	-0.9
755.743	1.5
755.922	2.46
756.101	0.92
756.28	1.07
756.46	1.46
756.639	-0.91
756.818	0.09
756.997	1.22
757.176	1.35
757.355	-0.06
757.534	-1.05
757.713	0.55
757.892	-0.27
758.07	0.55
758.249	0.26
758.428	-0.6
758.607	-0.21
758.786	-1.2
758.965	-1.72
759.144	-2.37
759.323	-3.35
759.501	-4.77
759.68	-3.62
759.859	-2.22
760.038	-1.74
760.216	-2.07
760.395	0.11
760.574	-1.94
760.753	-2.32
760.931	-2.47
761.11	-2.47
761.289	-2.56
761.467	-4.48
761.646	-4.28
761.824	-4.15
762.003	-5.99
762.182	-5.65
762.36	-5.78
762.539	-6.73
762.717	-7.28
762.896	-6.44
763.074	-6.13
763.253	-5.74
763.431	-4.65
763.61	-5.19
763.788	-6.73
763.966	-6.78
764.145	-6.79
764.323	-5.55
764.502	-7.65
764.68	-7.32
764.858	-8.1
765.037	-6.6
765.215	-5.21
765.393	-4.58
765.571	-3.37
765.75	-1.24
765.928	-1.61
766.106	-2.3
766.284	-2
766.463	-2.05
766.641	-2.66
766.819	-1.4
766.997	-0.97
767.175	-4.07
767.353	-4.38
767.531	-3.53
767.71	-2.07
767.888	-2.11
768.066	-3.49
768.244	-0.9
768.422	-1.83
768.6	1.87
768.778	0.11
768.956	-0.52
769.134	-0.7
769.312	-2.97
769.489	-4.69
769.667	-2.95
769.845	-2.22
770.023	-1.51
770.201	-0.32
770.379	-0.05
770.557	-1.68
770.735	-1.53
770.912	-1.8
771.09	-2.06
771.268	-0.83
771.446	-3.02
771.623	-3.29
771.801	-0.11
771.979	-2.21
772.157	-4.17
772.334	-8.25
772.512	-7.49
772.69	-8.78
772.867	-10.25
773.045	-9.85
773.222	-9.36
773.4	-9.46
773.577	-10.04
773.755	-9.48
773.933	-9.32
774.11	-7.94
774.288	-8.64
774.465	-7.95
774.643	-7.18
774.82	-5.27
774.997	-6.09
775.175	-5.3
775.352	-3.78
775.53	-5.4
775.707	-3.94
775.884	-0.73
776.062	0.84
776.239	2.09
776.416	3.77
776.594	3.39
776.771	5.03
776.948	5.82
777.125	5.2
777.303	3.92
777.48	2.45
777.657	0.36
777.834	-1.01
778.012	-0.62
778.189	0.17
778.366	0.21
778.543	-4.01
778.72	-5.06
778.897	-4.65
779.074	-6.87
779.251	-6.41
779.428	-6.85
779.605	-7.85
779.782	-7.4
779.959	-9.54
780.136	-9.97
780.313	-8.04
780.49	-9.33
780.667	-8.74
780.844	-8.71
781.021	-5.39
781.198	-6.28
781.375	-4.29
781.552	-5.28
781.728	-6.56
781.905	-8.69
782.082	-6.51
782.259	-4.7
782.436	-4.96
782.612	-6.59
782.789	-5.73
782.966	-7.41
783.143	-6.43
783.319	-6.62
783.496	-6.87
783.673	-8.12
783.849	-6.36
784.026	-7.36
784.203	-7.24
784.379	-9.55
784.556	-9.24
784.732	-11.26
784.909	-8.98
785.085	-9.57
785.262	-8.92
785.438	-5.44
785.615	-4.56
785.791	-6.25
785.968	-7.45
786.144	-4.75
786.321	-2.33
786.497	-4.18
786.673	-4.58
786.85	-7.24
787.026	-8.26
787.203	-9.16
787.379	-7.2
787.555	-8.85
787.731	-9.01
787.908	-10.3
788.084	-7.39
788.26	-9.95
788.437	-8.16
788.613	-10.54
788.789	-11.83
788.965	-12.7
789.141	-14.75
789.317	-16.15
789.494	-16.96
789.67	-14.31
789.846	-16.87
790.022	-18.26
790.198	-16.61
790.374	-14.96
790.55	-14.36
790.726	-14.58
790.902	-13.51
791.078	-13.8
791.254	-17.33
791.43	-16.63
791.606	-15.74
791.782	-18.42
791.958	-18.62
792.134	-19.59
792.31	-18.6
792.486	-19.15
792.661	-17.93
792.837	-15.94
793.013	-15.05
793.189	-15.48
793.365	-14.55
793.54	-13.78
793.716	-14.12
793.892	-13.63
794.068	-14.23
794.243	-11.78
794.419	-11.13
794.595	-10.96
794.77	-8.91
794.946	-4.7
795.122	-5.91
795.297	-6.5
795.473	-3.7
795.648	-0.51
795.824	-2.08
796	-2.44
796.175	0.7
796.351	0.38
796.526	-1.07
796.702	-0.44
796.877	-0.18
797.052	-1.71
797.228	-2.69
797.403	-3.76
797.579	-3.7
797.754	-2.94
797.929	-4.77
798.105	-4.82
798.28	-6.87
798.455	-7.09
798.631	-7.75
798.806	-7.45
798.981	-4.93
799.157	-6.15
799.332	-8.86
799.507	-7.39
799.682	-5.46
799.858	-7.55
800.033	-5.13
800.208	-3.4
800.383	-3.68
800.558	-2.54
800.733	-2.92
800.908	-3.4
801.083	-1.03
801.258	-2.33
801.434	-2.25
801.609	-0.95
801.784	0.08
801.959	1.2
802.134	0.62
802.309	0.19
802.484	-1.95
802.658	-0.05
802.833	-1.37
803.008	2.16
803.183	1.07
803.358	-0.15
803.533	0.89
803.708	-0.01
803.883	-1.67
804.057	-3.83
804.232	-1.72
804.407	0.22
804.582	2.41
804.756	1.69
804.931	4.12
805.106	2.62
805.281	2.71
805.455	0.93
805.63	-0.17
805.805	-3.71
805.979	-3.52
806.154	-2.12
806.328	-5.42
806.503	-5.16
806.678	-8.54
806.852	-8.13
807.027	-9.01
807.201	-11.7
807.376	-9.83
807.55	-9.57
807.725	-9.94
807.899	-9.74
808.074	-12.03
808.248	-12.54
808.422	-13.5
808.597	-16.29
808.771	-14.77
808.946	-13.16
809.12	-10.21
809.294	-9.35
809.468	-4.5
809.643	-3.37
809.817	-3.11
809.991	-4.93
810.166	-2.88
810.34	-1.7
810.514	-0.77
810.688	-0.26
810.862	-1.45
811.037	-3.55
811.211	-3.2
811.385	-0.22
811.559	-2.87
811.733	-2.22
811.907	-1.05
812.081	-1.77
812.255	-2.21
812.429	-4.38
812.603	-6.69
812.777	-4.76
812.951	-6.67
813.125	-8.07
813.299	-13.63
813.473	-13.71
813.647	-11.06
813.821	-9.76
813.995	-6.7
814.169	-8.61
814.343	-6.66
814.516	-1.38
814.69	-0.2
814.864	-2.15
815.038	-1.91
815.212	-1
815.385	-2.41
815.559	-3.43
815.733	-3.1
815.907	-3.31
816.08	-3.32
816.254	-2.76
816.428	-2.54
816.601	-1.12
816.775	-1.34
816.948	-0.4
817.122	1.5
817.296	2.35
817.469	-0.27
817.643	-3.53
817.816	-1.34
817.99	-2.5
818.163	-3.13
818.337	-7.2
818.51	-6.81
818.684	-6.39
818.857	-7.05
819.031	-4.88
819.204	-4.56
819.377	-0.23
819.551	0.24
819.724	2.69
819.897	2.12
820.071	-0.97
820.244	-4.95
820.417	-3.98
820.591	-4.91
820.764	-3.17
820.937	-0.91
821.11	-2.18
821.284	-0.84
821.457	0.95
821.63	-0.12
821.803	-1.98
821.976	3.29
822.149	4.82
822.322	5.61
822.496	6.35
822.669	7.79
822.842	7.87
823.015	5.72
823.188	5.51
823.361	3.41
823.534	-0.21
823.707	-3.57
823.88	0.24
824.053	-3.19
824.226	0.24
824.399	-1.56
824.571	-3.71
824.744	-2.44
824.917	-2.2
825.09	-5.02
825.263	-6.76
825.436	-1.82
825.608	-4.11
825.781	-2.69
825.954	-3.47
826.127	-5.09
826.299	-7.3
826.472	-11.07
826.645	-9.8
826.818	-6.68
826.99	-6.32
827.163	-4.37
827.336	-2.5
827.508	-3.3
827.681	-0.81
827.853	-1.28
828.026	-3.42
828.198	-2.4
828.371	-1.09
828.544	-2.14
828.716	-1.1
828.889	-2
829.061	-6.07
829.233	-8.39
829.406	-13.05
829.578	-17.34
829.751	-16.59
829.923	-20.33
830.096	-18.37
830.268	-21.95
830.44	-25.65
830.613	-25
830.785	-25.79
830.957	-26.77
831.129	-21.34
831.302	-20.89
831.474	-24.68
831.646	-18.86
831.818	-21.39
831.991	-21.64
832.163	-17.77
832.335	-19.55
832.507	-16.36
832.679	-14.05
832.851	-13.26
833.023	-12.36
833.195	-10.13
833.368	-10.19
833.54	-7.26
833.712	-7
833.884	-1.72
834.056	-2.33
834.228	0.74
834.4	6.51
834.571	6.97
834.743	1.32
834.915	0.22
835.087	0.81
835.259	-0.28
835.431	-0.21
835.603	-2.71
835.775	-8.85
835.946	-7.99
836.118	-7.93
836.29	-16.56
836.462	-19.91
836.634	-18.03
836.805	-19.15
836.977	-15.49
837.149	-12.38
837.32	-14.37
837.492	-12.11
837.664	-10.29
837.835	-13.54
838.007	-20.38
838.179	-20.81
838.35	-13.76
838.522	-9.89
838.693	-6.4
838.865	-14.78
839.036	-18.5
839.208	-14.75
839.379	-13.66
839.551	-15.57
839.722	-16.85
839.894	-15.7
840.065	-13.01
840.237	-14.44
840.408	-13.16
840.579	-12.04
840.751	-16.03
840.922	-15.91
841.093	-25.16
841.265	-28.76
841.436	-24.64
841.607	-20.48
841.778	-21.12
841.95	-26.78
842.121	-28.67
842.292	-29.41
842.463	-23.37
842.635	-17.93
842.806	-17.88
842.977	-17.39
843.148	-16.75
843.319	-12.5
843.49	-11.07
843.661	-18.69
843.832	-18.25
844.003	-16.95
844.174	-20.13
844.345	-11.57
844.516	-12.67
844.687	-9.23
844.858	-0.53
845.029	-4.06
845.2	-5.13
845.371	-5.06
845.542	-6.19
845.713	-9.51
845.884	-12.39
846.055	-18.37
846.225	-22.89
846.396	-31.89
846.567	-27.6
846.738	-32.36
846.909	-34.79
847.079	-32.18
847.25	-17.98
847.421	-16.49
847.591	-21.1
847.762	-27.04
847.933	-40.89
848.103	-35.94
848.274	-39.38
848.445	-37.67
848.615	-35.33
848.786	-41.3
848.956	-37.33
849.127	-31.29
849.297	-27.92
849.468	-23.66
849.638	-19.7
849.809	-13.2
849.979	-8.59
850.15	-9.41
850.32	-0.77
850.491	-2.6
850.661	2.49
850.831	-1.7
851.002	-4.8
851.172	-1.51
851.342	-1.98
851.513	2.55
851.683	2.26
851.853	3.55
852.024	-0.99
852.194	-3.73
852.364	-0.51
852.534	1.39
852.705	3.95
852.875	5.65
853.045	7.23
853.215	3.93
853.385	1.24
853.555	0.92
853.725	-2.33
853.895	-3.79
854.066	-2.49
854.236	-7.94
854.406	-14.43
854.576	-12.65
854.746	-19.48
854.916	-7.92
855.086	-4.48
855.256	1.44
855.425	2.14
855.595	7.84
855.765	7.25
855.935	0.21
856.105	-5.56
856.275	-7.11
856.445	-11.41
856.614	-17.64
856.784	-6.91
856.954	-2.82
857.124	-4.14
857.294	-3.36
857.463	-4.83
857.633	-2.41
857.803	-4.78
857.972	3.29
858.142	9.93
858.312	12.59
858.481	9.07
858.651	-2.08
858.821	-2.21
858.99	-2.83
859.16	-11.96
859.329	-10.82
859.499	-5.1
859.668	3.15
859.838	-2.03
860.007	5.05
860.177	10.02
860.346	3.69
860.516	-2.32
860.685	-4.41
860.854	-3.07
861.024	-9.02
861.193	-8.98
861.363	-9.21
861.532	-11.43
861.701	-16.43
861.87	-16.74
862.04	-20.38
862.209	-18.91
862.378	-23.48
862.547	-20.52
862.717	-14.7
862.886	-13.36
863.055	-17.46
863.224	-25.67
863.393	-24.96
863.563	-30.83
863.732	-32.88
863.901	-38.73
864.07	-34.23
864.239	-30.74
864.408	-28.49
864.577	-25.43
864.746	-21.57
864.915	-17.27
865.084	-18.89
865.253	-23.48
865.422	-18.86
865.591	-17.96
865.76	-13.51
865.929	-15.2
866.097	-16.96
866.266	-25.08
866.435	-31.26
866.604	-27.92
866.773	-18.22
866.942	-23.27
867.11	-23.6
867.279	-19.52
867.448	-1.87
867.617	2.38
867.785	-1.29
867.954	-14.03
868.123	-9.2
868.291	-23.26
868.46	-24.62
868.629	-6.68
868.797	-1.32
868.966	-15.68
869.134	-15.67
869.303	-9.34
869.472	-5.09
869.64	-8.85
869.809	-3.45
869.977	-4.27
870.146	-8.82
870.314	-13.19
870.482	-11.98
870.651	-14.2
870.819	-23.07
870.988	-23.9
871.156	-31.05
871.324	-34.9
871.493	-36.84
871.661	-24.88
871.829	-13.11
871.998	-13.08
872.166	-35
872.334	-34.66
872.502	-25.84
872.671	-28.09
872.839	-25.57
873.007	-22.91
873.175	-21.02
873.343	-21.79
873.512	-11.84
873.68	-14.82
873.848	-25.46
874.016	-17.99
874.184	-22.01
874.352	-14.32
874.52	-13.84
874.688	-10.86
874.856	-0.7
875.024	0.84
875.192	-14.9
875.36	-24.39
875.528	-21.98
875.696	-13.85
875.864	-13.92
876.032	-9.6
876.199	-13.65
876.367	-15.75
876.535	-22.71
876.703	-31.66
876.871	-16.28
877.039	-25.12
877.206	-13.41
877.374	-6.86
877.542	-6.06
877.71	-1.37
877.877	-7.61
878.045	-16.87
878.213	-23.75
878.38	-18.97
878.548	-9.91
878.715	-6.15
878.883	-7.94
879.051	-19.87
879.218	-21.18
879.386	-13.3
879.553	-21.66
879.721	-24.26
879.888	-27.71
880.056	-27.71
880.223	-24.23
880.391	-48.77
880.558	-48.17
880.726	-26.38
880.893	-26.3
881.06	-35.95
881.228	-48.62
881.395	-26.01
881.562	-5.43
881.73	-23.84
881.897	-53.88
882.064	-42.28
882.231	-48.25
882.399	-50.08
882.566	-43.26
882.733	-45.2
882.9	-125.04
883.068	-72.45
883.235	-65.08
883.402	-78.86
883.569	-51.62
883.736	-28.02
883.903	-21.99
884.07	-19.76
884.237	-46.44
884.404	-45.41
884.571	-47.75
884.738	-39.37
884.905	-52.05
885.072	-86.78
885.239	-51
885.406	-35.16
