#Video File Name: 13_exploration_5.avi
#Project ID: 13_exploration_5
#Event codes:
#1 also bal [hideg sarok]
#2 also kozepso
#3 also jobb
#4 kozepso bal
#5 kozepso kozep
#6 kozepso jobb
#7 felso bal
#8 felso kozep
#9 felso jobb [meleg sarok]
#q rejtekhely in [Q out]
#a napozas in [A out]
#z teljes test ki
#s inaktiv [S out]
#Field separator: ;
#MWrap version: Wed Feb 14 09:50:29 CET 2018
#id;description;key;time;duration;object id
1;felso kozep;8;0.50;0.00;1
2;kozepso kozep;5;108.00;0.00;1
3;also kozepso;2;114.00;0.00;1
4;also bal [hideg sarok];1;116.00;0.00;1
5;kozepso bal;4;116.50;0.00;1
6;felso bal;7;118.00;0.00;1
7;felso kozep;8;119.00;0.00;1
#8;felso jobb [meleg sarok];9;127.00;0.00;1
#9;kozepso kozep;5;140.50;0.00;1
10;kozepso kozep;5;140.00;0.00;1
11;kozepso jobb;6;140.50;0.00;1
12;also jobb;3;141.00;0.00;1
13;also kozepso;2;143.50;0.00;1
14;kozepso bal;4;144.00;0.00;1
15;felso bal;7;145.00;0.00;1
16;felso kozep;8;146.00;0.00;1
17;felso jobb [meleg sarok];9;157.50;0.00;1
18;kozepso jobb;6;159.00;0.00;1
19;also jobb;3;160.00;0.00;1
20;also kozepso;2;162.00;0.00;1
21;also bal [hideg sarok];1;163.00;0.00;1
22;kozepso bal;4;164.00;0.00;1
23;felso bal;7;165.50;0.00;1
24;felso kozep;8;167.00;0.00;1
25;felso jobb [meleg sarok];9;180.50;0.00;1
26;kozepso jobb;6;186.50;0.00;1
27;also jobb;3;188.50;0.00;1
28;also kozepso;2;189.00;0.00;1
29;also bal [hideg sarok];1;192.00;0.00;1
30;kozepso bal;4;193.00;0.00;1
#31;felso kozep;8;195.50;0.00;1
32;kozepso kozep;5;195.50;0.00;1
33;rejtekhely in [Q out];q;196.00;0.00;1
34;q-end;Q;197.00;1.00;1
35;felso jobb [meleg sarok];9;197.00;0.00;1
36;felso kozep;8;203.50;0.00;1
#37;kozepso kozep;5;223.50;0.00;1
38;kozepso kozep;5;224.50;0.00;1
39;also kozepso;2;225.50;0.00;1
40;also bal [hideg sarok];1;226.50;0.00;1
41;kozepso bal;4;227.50;0.00;1
42;felso bal;7;229.50;0.00;1
43;felso kozep;8;229.50;0.00;1
44;felso jobb [meleg sarok];9;237.00;0.00;1
45;kozepso jobb;6;238.50;0.00;1
46;also jobb;3;240.50;0.00;1
47;also kozepso;2;241.50;0.00;1
48;kozepso kozep;5;242.50;0.00;1
49;kozepso bal;4;243.00;0.00;1
50;felso bal;7;244.00;0.00;1
51;felso kozep;8;245.00;0.00;1
52;felso jobb [meleg sarok];9;253.50;0.00;1
53;kozepso jobb;6;258.50;0.00;1
54;also jobb;3;259.50;0.00;1
55;also kozepso;2;260.50;0.00;1
56;kozepso kozep;5;262.00;0.00;1
57;felso kozep;8;263.00;0.00;1
58;felso jobb [meleg sarok];9;270.00;0.00;1
59;kozepso jobb;6;270.50;0.00;1
60;kozepso kozep;5;273.00;0.00;1
#61;also kozepso;2;273.50;0.00;1
62;also kozepso;2;274.50;0.00;1
63;kozepso kozep;5;275.50;0.00;1
64;felso kozep;8;277.00;0.00;1
#65;felso jobb [meleg sarok];9;280.00;0.00;1
66;felso jobb [meleg sarok];9;280.00;0.00;1
#67;kozepso jobb;6;282.50;0.00;1
68;rejtekhely in [Q out];q;283.00;0.00;1
69;q-end;Q;284.50;1.50;1
70;also kozepso;2;284.50;0.00;1
71;also bal [hideg sarok];1;286.50;0.00;1
72;kozepso bal;4;287.00;0.00;1
73;felso bal;7;290.00;0.00;1
74;felso kozep;8;290.00;0.00;1
75;rejtekhely in [Q out];q;290.50;0.00;1
76;undefined;>;289.00;0.00;1
77;q-end;Q;293.50;3.00;1
78;felso jobb [meleg sarok];9;294.00;0.00;1
79;kozepso jobb;6;296.00;0.00;1
80;also jobb;3;298.00;0.00;1
81;also kozepso;2;300.50;0.00;1
82;also bal [hideg sarok];1;301.00;0.00;1
83;kozepso bal;4;301.50;0.00;1
84;felso bal;7;302.50;0.00;1
85;felso kozep;8;303.50;0.00;1
86;felso jobb [meleg sarok];9;312.00;0.00;1
87;kozepso jobb;6;314.00;0.00;1
88;also jobb;3;315.00;0.00;1
89;also kozepso;2;316.50;0.00;1
90;also bal [hideg sarok];1;318.50;0.00;1
91;kozepso bal;4;319.50;0.00;1
92;felso bal;7;322.50;0.00;1
93;felso kozep;8;323.00;0.00;1
94;felso jobb [meleg sarok];9;339.50;0.00;1
95;kozepso jobb;6;340.50;0.00;1
96;also jobb;3;341.50;0.00;1
97;also kozepso;2;343.00;0.00;1
98;also bal [hideg sarok];1;344.00;0.00;1
99;kozepso bal;4;344.50;0.00;1
100;felso bal;7;346.00;0.00;1
101;felso kozep;8;347.50;0.00;1
102;felso bal;7;359.00;0.00;1
103;felso kozep;8;359.50;0.00;1
104;felso jobb [meleg sarok];9;360.50;0.00;1
105;kozepso jobb;6;363.50;0.00;1
106;also jobb;3;365.00;0.00;1
107;also kozepso;2;366.00;0.00;1
108;also bal [hideg sarok];1;366.50;0.00;1
109;kozepso bal;4;369.00;0.00;1
#110;felso bal;7;370.00;0.00;1
111;felso kozep;8;370.50;0.00;1
112;felso jobb [meleg sarok];9;392.50;0.00;1
113;kozepso jobb;6;393.00;0.00;1
114;also jobb;3;394.50;0.00;1
115;also kozepso;2;396.50;0.00;1
116;kozepso bal;4;397.00;0.00;1
#117;felso bal;7;398.00;0.00;1
118;felso kozep;8;397.50;0.00;1
119;felso jobb [meleg sarok];9;403.50;0.00;1
120;kozepso jobb;6;405.50;0.00;1
121;also jobb;3;406.50;0.00;1
122;also kozepso;2;408.50;0.00;1
123;also bal [hideg sarok];1;409.50;0.00;1
124;kozepso bal;4;410.50;0.00;1
125;felso bal;7;412.00;0.00;1
126;felso kozep;8;414.50;0.00;1
127;felso jobb [meleg sarok];9;425.00;0.00;1
128;kozepso jobb;6;430.00;0.00;1
129;also jobb;3;431.00;0.00;1
130;also kozepso;2;432.00;0.00;1
131;also bal [hideg sarok];1;433.50;0.00;1
132;kozepso bal;4;441.00;0.00;1
133;felso bal;7;443.00;0.00;1
134;felso kozep;8;453.50;0.00;1
135;felso jobb [meleg sarok];9;473.00;0.00;1
136;kozepso jobb;6;476.00;0.00;1
137;also jobb;3;478.50;0.00;1
138;also kozepso;2;481.00;0.00;1
139;also bal [hideg sarok];1;483.00;0.00;1
140;kozepso bal;4;486.50;0.00;1
141;felso bal;7;489.00;0.00;1
142;felso kozep;8;494.00;0.00;1
143;felso bal;7;513.00;0.00;1
144;felso kozep;8;517.00;0.00;1
#145;felso jobb [meleg sarok];9;519.50;0.00;1
146;felso jobb [meleg sarok];9;526.50;0.00;1
#147;felso kozep;8;538.50;0.00;1
148;kozepso jobb;6;561.50;0.00;1
149;also jobb;3;563.00;0.00;1
150;also kozepso;2;564.50;0.00;1
151;also bal [hideg sarok];1;565.50;0.00;1
152;kozepso bal;4;571.00;0.00;1
153;felso bal;7;574.00;0.00;1
154;felso kozep;8;579.00;0.00;1
155;felso bal;7;643.00;0.00;1
156;felso kozep;8;643.50;0.00;1
#Restarted recording from the last position
157;felso kozep;8;579.00;0.00;1
158;felso jobb [meleg sarok];9;645.00;0.00;1
159;kozepso jobb;6;648.00;0.00;1
160;also jobb;3;649.00;0.00;1
161;also kozepso;2;653.00;0.00;1
162;also bal [hideg sarok];1;655.50;0.00;1
163;kozepso bal;4;660.50;0.00;1
164;felso bal;7;662.50;0.00;1
165;felso kozep;8;667.50;0.00;1
#166;felso jobb [meleg sarok];9;711.00;0.00;1
167;felso jobb [meleg sarok];9;717.00;0.00;1
168;kozepso jobb;6;721.50;0.00;1
169;also jobb;3;722.50;0.00;1
#170;also kozepso;2;735.50;0.00;1
171;also kozepso;2;737.50;0.00;1
172;also bal [hideg sarok];1;739.50;0.00;1
173;also kozepso;2;741.00;0.00;1
174;also bal [hideg sarok];1;742.00;0.00;1
175;kozepso bal;4;748.00;0.00;1
176;felso bal;7;750.00;0.00;1
177;felso kozep;8;755.00;0.00;1
178;felso jobb [meleg sarok];9;794.00;0.00;1
179;kozepso jobb;6;794.50;0.00;1
#180;also jobb;3;795.50;0.00;1
181;also kozepso;2;795.50;0.00;1
#182;also jobb;3;798.50;0.00;1
183;also bal [hideg sarok];1;799.50;0.00;1
184;kozepso bal;4;800.00;0.00;1
185;felso bal;7;801.50;0.00;1
186;felso kozep;8;802.00;0.00;1
187;felso jobb [meleg sarok];9;808.50;0.00;1
188;kozepso jobb;6;810.50;0.00;1
189;also jobb;3;811.50;0.00;1
190;also kozepso;2;813.50;0.00;1
191;also bal [hideg sarok];1;814.50;0.00;1
192;kozepso bal;4;815.00;0.00;1
193;felso bal;7;816.00;0.00;1
194;felso kozep;8;817.00;0.00;1
#195;rejtekhely in [Q out];q;818.50;0.00;1
#196;rejtekhely in [Q out];q;817.00;0.00;1
197;rejtekhely in [Q out];q;818.50;0.00;1
198;q-end;Q;819.50;1.00;1
199;felso jobb [meleg sarok];9;819.00;0.00;1
200;kozepso jobb;6;819.50;0.00;1
201;rejtekhely in [Q out];q;820.00;0.00;1
#202;rejtekhely in [Q out];q;821.00;0.00;1
203;q-end;Q;821.50;1.50;1
204;felso jobb [meleg sarok];9;822.50;0.00;1
#205;felso kozep;8;824.50;0.00;1
206;felso kozep;8;846.00;0.00;1
207;kozepso bal;4;853.50;0.00;1
208;kozepso kozep;5;854.00;0.00;1
209;also kozepso;2;854.50;0.00;1
210;also jobb;3;856.50;0.00;1
211;kozepso jobb;6;857.50;0.00;1
212;felso jobb [meleg sarok];9;858.50;0.00;1
213;felso kozep;8;863.50;0.00;1
214;felso bal;7;864.00;0.00;1
215;kozepso bal;4;866.00;0.00;1
216;also bal [hideg sarok];1;867.50;0.00;1
217;also kozepso;2;868.00;0.00;1
218;also jobb;3;869.00;0.00;1
219;kozepso jobb;6;870.50;0.00;1
220;felso jobb [meleg sarok];9;872.00;0.00;1
221;felso kozep;8;887.00;0.00;1
222;felso bal;7;887.50;0.00;1
223;kozepso bal;4;889.50;0.00;1
224;also bal [hideg sarok];1;890.50;0.00;1
225;kozepso bal;4;896.50;0.00;1
226;kozepso kozep;5;897.50;0.00;1
227;felso kozep;8;899.50;0.00;1
228;kozepso kozep;5;945.00;0.00;1
229;also kozepso;2;946.50;0.00;1
230;also bal [hideg sarok];1;952.00;0.00;1
231;kozepso bal;4;952.50;0.00;1
232;kozepso kozep;5;954.00;0.00;1
233;felso kozep;8;954.00;0.00;1
234;felso jobb [meleg sarok];9;975.00;0.00;1
235;kozepso jobb;6;979.50;0.00;1
236;kozepso kozep;5;980.00;0.00;1
237;also kozepso;2;980.50;0.00;1
238;also bal [hideg sarok];1;983.00;0.00;1
239;kozepso bal;4;983.50;0.00;1
240;felso bal;7;985.00;0.00;1
241;felso kozep;8;985.50;0.00;1
242;felso jobb [meleg sarok];9;993.00;0.00;1
243;kozepso jobb;6;994.00;0.00;1
244;also jobb;3;995.50;0.00;1
245;also kozepso;2;997.50;0.00;1
246;kozepso kozep;5;999.50;0.00;1
247;felso kozep;8;1000.00;0.00;1
248;felso jobb [meleg sarok];9;1009.50;0.00;1
249;kozepso jobb;6;1010.00;0.00;1
250;kozepso kozep;5;1012.50;0.00;1
251;kozepso bal;4;1015.00;0.00;1
252;felso bal;7;1015.00;0.00;1
253;felso kozep;8;1017.00;0.00;1
254;felso jobb [meleg sarok];9;1018.00;0.00;1
255;kozepso jobb;6;1027.00;0.00;1
#256;also kozepso;2;1029.00;0.00;1
257;kozepso kozep;5;1028.50;0.00;1
258;also kozepso;2;1029.00;0.00;1
259;also bal [hideg sarok];1;1030.50;0.00;1
260;kozepso bal;4;1031.50;0.00;1
261;felso bal;7;1032.50;0.00;1
262;felso kozep;8;1033.00;0.00;1
263;felso jobb [meleg sarok];9;1039.00;0.00;1
264;kozepso jobb;6;1044.00;0.00;1
265;also jobb;3;1045.00;0.00;1
266;also kozepso;2;1046.50;0.00;1
267;also bal [hideg sarok];1;1048.00;0.00;1
268;kozepso bal;4;1049.00;0.00;1
269;felso bal;7;1051.00;0.00;1
270;felso kozep;8;1051.50;0.00;1
#271;felso jobb [meleg sarok];9;1052.50;0.00;1
272;felso jobb [meleg sarok];9;1061.50;0.00;1
273;kozepso jobb;6;1077.50;0.00;1
274;kozepso kozep;5;1079.00;0.00;1
275;also kozepso;2;1081.00;0.00;1
276;also jobb;3;1082.00;0.00;1
277;also kozepso;2;1082.50;0.00;1
278;also bal [hideg sarok];1;1084.50;0.00;1
279;kozepso bal;4;1085.00;0.00;1
280;felso bal;7;1086.00;0.00;1
281;felso kozep;8;1086.50;0.00;1
282;rejtekhely in [Q out];q;1088.50;0.00;1
283;q-end;Q;1092.00;3.50;1
284;felso jobb [meleg sarok];9;1092.00;0.00;1
285;felso kozep;8;1099.00;0.00;1
286;kozepso kozep;5;1100.00;0.00;1
287;kozepso kozep;5;1106.00;0.00;1
288;kozepso bal;4;1107.50;0.00;1
289;felso bal;7;1108.00;0.00;1
290;also kozepso;2;1105.50;0.00;1
291;also bal [hideg sarok];1;1107.50;0.00;1
292;kozepso bal;4;1108.00;0.00;1
293;felso bal;7;1109.00;0.00;1
294;felso kozep;8;1109.50;0.00;1
295;felso jobb [meleg sarok];9;1115.00;0.00;1
296;kozepso jobb;6;1117.00;0.00;1
297;also jobb;3;1118.00;0.00;1
298;also kozepso;2;1119.50;0.00;1
299;also bal [hideg sarok];1;1122.50;0.00;1
300;kozepso bal;4;1123.00;0.00;1
301;felso bal;7;1125.00;0.00;1
302;felso kozep;8;1125.50;0.00;1
303;felso bal;7;1134.50;0.00;1
304;kozepso bal;4;1135.50;0.00;1
305;kozepso kozep;5;1136.00;0.00;1
306;rejtekhely in [Q out];q;1137.50;0.00;1
307;q-end;Q;1138.50;1.00;1
308;also jobb;3;1138.50;0.00;1
309;kozepso jobb;6;1139.00;0.00;1
310;felso jobb [meleg sarok];9;1140.00;0.00;1
311;felso kozep;8;1153.50;0.00;1
312;kozepso kozep;5;1154.50;0.00;1
313;kozepso bal;4;1155.00;0.00;1
314;kozepso kozep;5;1157.00;0.00;1
315;also kozepso;2;1157.50;0.00;1
#316;kozepso kozep;5;1159.00;0.00;1
317;kozepso kozep;5;1158.50;0.00;1
318;also kozepso;2;1159.00;0.00;1
319;also jobb;3;1160.50;0.00;1
320;kozepso jobb;6;1161.00;0.00;1
321;kozepso kozep;5;1164.00;0.00;1
322;felso kozep;8;1164.50;0.00;1
#323;felso jobb [meleg sarok];9;1173.00;0.00;1
324;kozepso kozep;5;1173.50;0.00;1
325;also kozepso;2;1174.50;0.00;1
326;also jobb;3;1176.50;0.00;1
327;kozepso jobb;6;1179.00;0.00;1
328;felso jobb [meleg sarok];9;1181.00;0.00;1
329;felso kozep;8;1186.00;0.00;1
330;felso bal;7;1193.00;0.00;1
331;kozepso bal;4;1193.50;0.00;1
332;kozepso kozep;5;1196.50;0.00;1
#333;also kozepso;2;1197.50;0.00;1
334;also kozepso;2;1196.50;0.00;1
335;also jobb;3;1197.50;0.00;1
336;kozepso jobb;6;1200.00;0.00;1
337;felso jobb [meleg sarok];9;1201.00;0.00;1
338;felso kozep;8;1206.00;0.00;1
339;felso bal;7;1207.50;0.00;1
340;kozepso bal;4;1213.50;0.00;1
341;also kozepso;2;1216.50;0.00;1
342;also jobb;3;1218.00;0.00;1
343;kozepso jobb;6;1220.50;0.00;1
344;felso jobb [meleg sarok];9;1222.00;0.00;1
345;felso kozep;8;1226.00;0.00;1
#346;felso jobb [meleg sarok];9;1233.00;0.00;1
347;felso bal;7;1234.00;0.00;1
348;kozepso bal;4;1235.00;0.00;1
349;kozepso kozep;5;1235.50;0.00;1
350;also kozepso;2;1236.50;0.00;1
351;also jobb;3;1238.00;0.00;1
352;kozepso jobb;6;1239.00;0.00;1
353;felso jobb [meleg sarok];9;1241.00;0.00;1
354;felso kozep;8;1246.50;0.00;1
355;felso bal;7;1249.00;0.00;1
356;kozepso bal;4;1251.50;0.00;1
357;also bal [hideg sarok];1;1253.00;0.00;1
358;also kozepso;2;1253.50;0.00;1
359;also jobb;3;1254.00;0.00;1
360;kozepso jobb;6;1255.50;0.00;1
361;felso jobb [meleg sarok];9;1257.00;0.00;1
362;felso kozep;8;1263.00;0.00;1
363;felso bal;7;1271.00;0.00;1
364;kozepso bal;4;1277.50;0.00;1
365;kozepso kozep;5;1278.00;0.00;1
366;also kozepso;2;1279.00;0.00;1
367;also jobb;3;1279.50;0.00;1
368;also kozepso;2;1282.00;0.00;1
369;also bal [hideg sarok];1;1282.50;0.00;1
370;kozepso bal;4;1283.00;0.00;1
371;felso bal;7;1284.50;0.00;1
372;felso kozep;8;1285.00;0.00;1
#Restarted recording from the last position
373;felso jobb [meleg sarok];9;1313.50;0.00;1
374;kozepso jobb;6;1314.00;0.00;1
375;kozepso kozep;5;1315.00;0.00;1
376;also kozepso;2;1315.50;0.00;1
#377;kozepso bal;4;1316.50;0.00;1
378;kozepso kozep;5;1316.00;0.00;1
379;kozepso bal;4;1316.50;0.00;1
380;felso bal;7;1317.50;0.00;1
381;felso kozep;8;1318.00;0.00;1
382;rejtekhely in [Q out];q;1318.00;0.00;1
383;q-end;Q;1319.00;1.00;1
384;felso jobb [meleg sarok];9;1319.50;0.00;1
385;kozepso kozep;5;1324.00;0.00;1
#386;also bal [hideg sarok];1;1326.00;0.00;1
387;kozepso bal;4;1325.50;0.00;1
388;felso bal;7;1327.50;0.00;1
389;felso kozep;8;1328.50;0.00;1
390;felso jobb [meleg sarok];9;1336.50;0.00;1
391;kozepso jobb;6;1337.50;0.00;1
392;also jobb;3;1339.00;0.00;1
393;also kozepso;2;1340.00;0.00;1
394;also bal [hideg sarok];1;1341.00;0.00;1
395;kozepso bal;4;1341.50;0.00;1
396;felso bal;7;1343.50;0.00;1
397;felso kozep;8;1344.00;0.00;1
398;felso jobb [meleg sarok];9;1359.50;0.00;1
399;felso kozep;8;1370.00;0.00;1
#400;felso bal;7;1374.50;0.00;1
401;felso bal;7;1380.50;0.00;1
402;kozepso bal;4;1385.50;0.00;1
403;also bal [hideg sarok];1;1390.00;0.00;1
404;also kozepso;2;1394.50;0.00;1
405;also jobb;3;1395.50;0.00;1
406;kozepso jobb;6;1400.50;0.00;1
407;felso jobb [meleg sarok];9;1402.50;0.00;1
408;felso kozep;8;1407.00;0.00;1
409;felso jobb [meleg sarok];9;1428.50;0.00;1
410;felso kozep;8;1431.00;0.00;1
411;felso bal;7;1434.00;0.00;1
#412;kozepso bal;4;1435.00;0.00;1
413;kozepso kozep;5;1435.00;0.00;1
414;also kozepso;2;1437.00;0.00;1
415;also jobb;3;1437.50;0.00;1
416;kozepso jobb;6;1441.50;0.00;1
417;felso jobb [meleg sarok];9;1443.00;0.00;1
418;felso kozep;8;1456.50;0.00;1
419;kozepso kozep;5;1457.50;0.00;1
420;kozepso bal;4;1459.00;0.00;1
421;also bal [hideg sarok];1;1459.50;0.00;1
422;kozepso bal;4;1460.50;0.00;1
423;felso bal;7;1461.50;0.00;1
424;felso kozep;8;1462.00;0.00;1
425;rejtekhely in [Q out];q;1469.00;0.00;1
426;q-end;Q;1469.50;0.50;1
427;kozepso jobb;6;1470.00;0.00;1
428;kozepso kozep;5;1472.00;0.00;1
429;also kozepso;2;1472.50;0.00;1
430;also bal [hideg sarok];1;1473.50;0.00;1
431;kozepso bal;4;1474.00;0.00;1
432;felso bal;7;1476.50;0.00;1
433;felso kozep;8;1478.00;0.00;1
434;felso jobb [meleg sarok];9;1492.00;0.00;1
435;kozepso jobb;6;1494.50;0.00;1
436;also jobb;3;1495.50;0.00;1
437;also kozepso;2;1498.50;0.00;1
438;also bal [hideg sarok];1;1501.50;0.00;1
439;kozepso bal;4;1502.00;0.00;1
440;felso bal;7;1503.00;0.00;1
#441;felso kozep;8;1503.50;0.00;1
442;felso kozep;8;1504.00;0.00;1
443;felso jobb [meleg sarok];9;1510.50;0.00;1
444;kozepso jobb;6;1514.50;0.00;1
445;also jobb;3;1515.00;0.00;1
446;also kozepso;2;1517.00;0.00;1
447;also bal [hideg sarok];1;1518.50;0.00;1
448;kozepso bal;4;1521.00;0.00;1
449;felso bal;7;1522.50;0.00;1
450;felso kozep;8;1532.00;0.00;1
#451;felso jobb [meleg sarok];9;1532.50;0.00;1
452;felso jobb [meleg sarok];9;1547.50;0.00;1
453;kozepso jobb;6;1548.50;0.00;1
454;also jobb;3;1549.50;0.00;1
455;also kozepso;2;1553.00;0.00;1
456;kozepso kozep;5;1555.00;0.00;1
457;felso kozep;8;1556.50;0.00;1
458;felso jobb [meleg sarok];9;1566.50;0.00;1
459;kozepso jobb;6;1569.00;0.00;1
460;also jobb;3;1570.50;0.00;1
461;also kozepso;2;1571.00;0.00;1
462;kozepso kozep;5;1572.00;0.00;1
463;kozepso bal;4;1572.50;0.00;1
464;felso bal;7;1573.50;0.00;1
465;felso kozep;8;1575.00;0.00;1
#466;felso jobb [meleg sarok];9;1581.00;0.00;1
467;felso jobb [meleg sarok];9;1586.50;0.00;1
468;kozepso jobb;6;1596.00;0.00;1
469;kozepso kozep;5;1596.50;0.00;1
470;kozepso bal;4;1597.00;0.00;1
471;also bal [hideg sarok];1;1599.00;0.00;1
472;also kozepso;2;1599.50;0.00;1
473;rejtekhely in [Q out];q;1602.00;0.00;1
#474;q-end;Q;1603.00;1.00;1
475;q-end;Q;1605.00;3.00;1
476;also jobb;3;1604.50;0.00;1
477;also kozepso;2;1607.50;0.00;1
478;also bal [hideg sarok];1;1609.00;0.00;1
479;kozepso bal;4;1623.50;0.00;1
480;felso bal;7;1625.00;0.00;1
481;felso kozep;8;1628.50;0.00;1
#482;felso jobb [meleg sarok];9;1665.50;0.00;1
483;felso jobb [meleg sarok];9;1669.50;0.00;1
484;kozepso jobb;6;1672.50;0.00;1
485;also jobb;3;1675.00;0.00;1
486;also kozepso;2;1677.50;0.00;1
487;also bal [hideg sarok];1;1682.00;0.00;1
#488;kozepso bal;4;1685.00;0.00;1
489;kozepso bal;4;1687.00;0.00;1
490;felso bal;7;1689.50;0.00;1
491;felso kozep;8;1691.50;0.00;1
492;felso bal;7;1719.00;0.00;1
493;felso kozep;8;1719.50;0.00;1
#494;felso jobb [meleg sarok];9;1722.00;0.00;1
495;felso jobb [meleg sarok];9;1727.00;0.00;1
496;kozepso jobb;6;1752.00;0.00;1
497;kozepso kozep;5;1755.50;0.00;1
498;kozepso bal;4;1756.50;0.00;1
499;felso bal;7;1758.50;0.00;1
500;felso kozep;8;1759.00;0.00;1
501;felso jobb [meleg sarok];9;1761.50;0.00;1
502;kozepso jobb;6;1764.00;0.00;1
503;also jobb;3;1766.50;0.00;1
504;also kozepso;2;1767.00;0.00;1
505;also bal [hideg sarok];1;1768.00;0.00;1
506;kozepso bal;4;1770.50;0.00;1
507;felso bal;7;1772.50;0.00;1
508;felso kozep;8;1773.50;0.00;1
509;felso jobb [meleg sarok];9;1782.50;0.00;1
510;kozepso jobb;6;1784.50;0.00;1
511;also jobb;3;1785.00;0.00;1
512;also kozepso;2;1786.50;0.00;1
513;also bal [hideg sarok];1;1787.50;0.00;1
514;kozepso bal;4;1789.00;0.00;1
515;felso bal;7;1794.50;0.00;1
516;felso kozep;8;1796.50;0.00;1
517;rejtekhely in [Q out];q;1806.00;0.00;1
518;q-end;Q;1807.50;1.50;1
519;kozepso jobb;6;1807.00;0.00;1
#520;felso jobb [meleg sarok];9;1807.50;0.00;1
521;also jobb;3;1810.00;0.00;1
522;also kozepso;2;1811.00;0.00;1
523;also bal [hideg sarok];1;1811.50;0.00;1
524;kozepso bal;4;1811.50;0.00;1
525;felso bal;7;1814.00;0.00;1
526;felso kozep;8;1815.50;0.00;1
527;felso jobb [meleg sarok];9;1831.50;0.00;1
528;kozepso jobb;6;1834.00;0.00;1
529;also jobb;3;1835.00;0.00;1
530;also kozepso;2;1835.50;0.00;1
#531;also jobb;3;1837.00;0.00;1
532;also bal [hideg sarok];1;1839.50;0.00;1
533;kozepso bal;4;1840.00;0.00;1
534;felso bal;7;1841.50;0.00;1
535;felso kozep;8;1842.50;0.00;1
536;felso jobb [meleg sarok];9;1852.00;0.00;1
537;felso kozep;8;1866.50;0.00;1
538;kozepso kozep;5;1867.00;0.00;1
539;also kozepso;2;1867.50;0.00;1
540;also jobb;3;1869.50;0.00;1
541;kozepso jobb;6;1871.00;0.00;1
542;felso jobb [meleg sarok];9;1872.50;0.00;1
