Data from Transmission_10-00-50-993.txt Node
Date: Fri Aug 24 10:00:50 EEST 2018
User: tibor.sos
Spectrometer: USB4F01757
Scans to average: 10
Trigger mode: 4
Integration Time (sec): 1.000000E-2
Electric dark correction enabled: true
Boxcar width: 10
XAxis mode: Wavelengths
Number of Pixels in Spectrum: 3648
>>>>>Begin Spectral Data<<<<<
178.758	20.6
178.974	-4.58
179.191	0.47
179.407	26.88
179.624	32.77
179.84	17.84
180.057	18.48
180.273	32.68
180.489	8.55
180.706	-109.26
180.922	-75.11
181.138	-53.26
181.355	-14.56
181.571	6.48
181.787	2.94
182.004	-4.15
182.22	-41.52
182.436	-5.76
182.653	0.68
182.869	-36.6
183.085	-49.38
183.301	-44.8
183.518	-0.24
183.734	2.65
183.95	19.49
184.166	37.19
184.383	54.55
184.599	57.32
184.815	37.36
185.031	48.22
185.247	89.16
185.463	101.88
185.68	101.17
185.896	105.65
186.112	115.6
186.328	117.18
186.544	134.67
186.76	156.33
186.976	140.48
187.192	154.43
187.408	213.94
187.624	252.99
187.84	195.27
188.056	158.06
188.272	146.89
188.488	131.45
188.704	91.55
188.92	91.38
189.136	80.86
189.352	105.02
189.568	128.64
189.784	135.42
190	130.03
190.216	146.06
190.432	146.83
190.648	165.5
190.864	364.99
191.08	314.14
191.296	133.14
191.511	131.76
191.727	182.76
191.943	190.27
192.159	130.13
192.375	126.47
192.591	150.53
192.806	230.17
193.022	185.68
193.238	497.42
193.454	416.65
193.669	609.98
193.885	566.97
194.101	669.71
194.317	425.76
194.532	2150.56
194.748	-1144.54
194.964	568.27
195.18	256.21
195.395	188.96
195.611	193.34
195.827	477.41
196.042	955.02
196.258	477.84
196.473	321.59
196.689	336.45
196.905	514.35
197.12	1863.37
197.336	461.92
197.551	-372.55
197.767	98600
197.982	261.99
198.198	2024.66
198.414	1301.12
198.629	359.82
198.845	182.7
199.06	268.63
199.276	234.69
199.491	818.38
199.707	250.67
199.922	166.51
200.137	125.06
200.353	103.25
200.568	88.93
200.784	111.97
200.999	123.45
201.215	190.62
201.43	237.9
201.645	222.91
201.861	255.59
202.076	243.31
202.291	283.74
202.507	285.81
202.722	164.57
202.937	457.41
203.153	409.91
203.368	294.41
203.583	179.91
203.798	145.6
204.014	103.21
204.229	113.63
204.444	143.45
204.659	231.83
204.875	342.06
205.09	-163.03
205.305	-124.53
205.52	95.93
205.735	-101.8
205.951	-552
206.166	113.92
206.381	66.67
206.596	578.18
206.811	298.25
207.026	154.24
207.241	98.46
207.457	-152.65
207.672	-170.25
207.887	200
208.102	98.12
208.317	-24.82
208.532	290.4
208.747	-234.97
208.962	-187.64
209.177	771.81
209.392	430.53
209.607	272.94
209.822	372.5
210.037	287.29
210.252	324.97
210.467	454.69
210.682	218.29
210.897	215.43
211.112	274.9
211.326	206.03
211.541	249.47
211.756	158.45
211.971	287.89
212.186	198.84
212.401	177.1
212.616	174.08
212.831	140.08
213.045	277.06
213.26	181.37
213.475	194.04
213.69	202.09
213.905	255.25
214.119	632.58
214.334	-2807.41
214.549	-472.06
214.764	635.23
214.978	448.46
215.193	639.53
215.408	-3769.23
215.622	526.04
215.837	3577.78
216.052	-1708.05
216.266	-337.72
216.481	-335.47
216.696	-132.57
216.91	5945.45
217.125	539.21
217.34	975.13
217.554	1118.92
217.769	-514.62
217.983	-171.33
218.198	-418.99
218.412	-643.73
218.627	507.35
218.842	370.14
219.056	242.93
219.271	248.85
219.485	411.57
219.7	402.67
219.914	321.88
220.129	577.18
220.343	326.18
220.558	244.41
220.772	300.84
220.986	236.7
221.201	362.48
221.415	-293.85
221.63	-157.5
221.844	-142.23
222.058	-87.82
222.273	-44.13
222.487	-53.12
222.702	-12.52
222.916	14.27
223.13	-24.94
223.344	3
223.559	-8.19
223.773	7.02
223.987	3.32
224.202	-2.86
224.416	52.22
224.63	32.53
224.844	-12.43
225.059	-33.17
225.273	-947.47
225.487	702.4
225.701	158.93
225.915	120.67
226.13	107.64
226.344	118.77
226.558	146.6
226.772	147.15
226.986	145.37
227.2	164.81
227.415	170.36
227.629	172.67
227.843	205.91
228.057	148.98
228.271	125.3
228.485	146.64
228.699	184.37
228.913	225.2
229.127	210.12
229.341	224.82
229.555	313.27
229.769	429.74
229.983	619.13
230.197	571.55
230.411	836.4
230.625	939.36
230.839	694.36
231.053	985.15
231.267	1656.08
231.481	1334.27
231.695	1025.23
231.909	621.02
232.122	338.08
232.336	340.97
232.55	489.43
232.764	723.69
232.978	725.14
233.192	790.65
233.405	989.06
233.619	687.21
233.833	306.61
234.047	509.4
234.261	849.84
234.474	465.11
234.688	-1109.77
234.902	-629.21
235.116	-267.72
235.329	-182.03
235.543	-486.79
235.757	-244.93
235.97	-195.8
236.184	-141.39
236.398	-36.52
236.612	-31.91
236.825	-79.9
237.039	-88.91
237.252	-48.8
237.466	-316.02
237.68	-1745.76
237.893	111800
238.107	438.74
238.32	-1246.96
238.534	366.91
238.748	268.67
238.961	313.75
239.175	330.9
239.388	296.41
239.602	472.14
239.815	225.41
240.029	279.49
240.242	222.06
240.456	155.73
240.669	150.46
240.882	177.67
241.096	320.77
241.309	169.56
241.523	275.75
241.736	325.4
241.95	-664.8
242.163	873.68
242.376	249.45
242.59	654.4
242.803	-4093.33
243.016	-102.11
243.23	-593.28
243.443	-1293.33
243.656	61.65
243.87	103.03
244.083	122.05
244.296	127.41
244.509	141.97
244.723	118.82
244.936	79.38
245.149	104.12
245.362	63.3
245.576	40.94
245.789	44.79
246.002	56.17
246.215	74.48
246.428	70.88
246.641	87.03
246.855	125.91
247.068	151.48
247.281	126.15
247.494	83.47
247.707	65.88
247.92	28.44
248.133	46.31
248.346	27.13
248.559	7.93
248.772	-26.92
248.985	-27.81
249.198	-4.63
249.411	-6.01
249.624	5.8
249.837	-0.4
250.05	-1.17
250.263	9.06
250.476	-3.69
250.689	18.34
250.902	18.21
251.115	8.83
251.328	14.03
251.541	13.64
251.754	18.4
251.967	12.94
252.18	12.65
252.393	24.82
252.605	20.56
252.818	22.69
253.031	27.79
253.244	38.72
253.457	40.65
253.67	39.93
253.882	43.65
254.095	38.09
254.308	55.96
254.521	55
254.733	49.19
254.946	53.27
255.159	46.09
255.372	37.5
255.584	36.46
255.797	39.25
256.01	36.79
256.222	33.31
256.435	44.57
256.648	59.75
256.86	59.02
257.073	59.36
257.285	63.39
257.498	62.92
257.711	42.44
257.923	23.98
258.136	35.42
258.348	29.63
258.561	37.96
258.773	-0.46
258.986	-15.7
259.198	-26.78
259.411	-75.06
259.623	-51.76
259.836	-25.78
260.048	-5.62
260.261	10
260.473	15.13
260.686	19.39
260.898	20.64
261.111	7.68
261.323	15.51
261.535	13.57
261.748	11.61
261.96	18.68
262.173	26.78
262.385	37.45
262.597	34.43
262.81	39.02
263.022	38.23
263.234	48.61
263.447	58.47
263.659	63.21
263.871	65.2
264.083	63.64
264.296	67.71
264.508	61.99
264.72	61.18
264.932	63.6
265.145	65.19
265.357	71.68
265.569	63.15
265.781	60.27
265.993	78.07
266.205	108.06
266.418	94.01
266.63	102.64
266.842	121.98
267.054	115.87
267.266	104.56
267.478	95.86
267.69	88.47
267.902	70.63
268.114	65.02
268.326	61.95
268.538	70.54
268.75	62.07
268.962	62.59
269.174	61.26
269.386	64.64
269.598	59.49
269.81	47.67
270.022	57.96
270.234	54.26
270.446	52.83
270.658	49.61
270.87	53.32
271.082	53.88
271.294	49.91
271.506	44.32
271.718	39.53
271.929	39.74
272.141	42.28
272.353	42.26
272.565	43.07
272.777	41.83
272.989	39.25
273.2	38.67
273.412	40.03
273.624	38.71
273.836	33.16
274.047	33.74
274.259	35.94
274.471	32.56
274.683	29.68
274.894	31.95
275.106	35.91
275.318	38.07
275.529	32.88
275.741	20.6
275.953	28.19
276.164	32.26
276.376	35.06
276.588	38.4
276.799	41.35
277.011	44.17
277.222	48.59
277.434	37.7
277.646	30.59
277.857	38.38
278.069	27.5
278.28	35.12
278.492	27.7
278.703	20.13
278.915	37.25
279.126	39.01
279.338	33.49
279.549	32.41
279.761	27.8
279.972	29.32
280.183	39.62
280.395	37.58
280.606	33.89
280.818	30.66
281.029	30.29
281.24	29.7
281.452	24.58
281.663	25.22
281.875	32.78
282.086	30.68
282.297	24.44
282.508	29.8
282.72	26.63
282.931	35.12
283.142	32.82
283.354	18.28
283.565	17.56
283.776	13.29
283.987	-1.62
284.199	1.43
284.41	10.94
284.621	10.92
284.832	18.88
285.043	21.53
285.254	15.05
285.466	-1.75
285.677	-1.44
285.888	-1.96
286.099	-10.55
286.31	-4.68
286.521	0.1
286.732	2.63
286.943	2.1
287.154	7.99
287.366	-1.04
287.577	8.73
287.788	10.76
287.999	10.79
288.21	8.54
288.421	16.02
288.632	12.3
288.843	11.12
289.054	11.17
289.264	2.15
289.475	2.17
289.686	4.88
289.897	10
290.108	11.98
290.319	10.82
290.53	10.34
290.741	4.56
290.952	0.16
291.163	5.19
291.373	5.46
291.584	8.05
291.795	6.24
292.006	4.75
292.217	9.91
292.427	17.34
292.638	22.64
292.849	18.71
293.06	22.46
293.27	29.24
293.481	24.95
293.692	28.39
293.903	29.94
294.113	35.85
294.324	41.57
294.535	40.45
294.745	38.54
294.956	47.13
295.167	45.7
295.377	50.05
295.588	44.25
295.798	46.78
296.009	38.96
296.22	43.83
296.43	36.33
296.641	30.21
296.851	21.78
297.062	18.99
297.272	22.03
297.483	21.31
297.693	15.5
297.904	22.33
298.114	22.72
298.325	22.38
298.535	23.76
298.746	13.58
298.956	14.4
299.167	17.66
299.377	15.59
299.587	18.33
299.798	23.04
300.008	23.02
300.219	18.54
300.429	17.84
300.639	19.62
300.85	27.44
301.06	25.96
301.27	32.23
301.481	29.14
301.691	29.47
301.901	29.11
302.111	29.18
302.322	29.24
302.532	29.59
302.742	30.94
302.952	23.51
303.163	27.03
303.373	20.78
303.583	29.67
303.793	27.43
304.003	29.31
304.214	28
304.424	24.22
304.634	21.14
304.844	22.5
305.054	25.35
305.264	23.9
305.474	31.43
305.684	25.13
305.894	34.16
306.104	33.04
306.314	33.35
306.525	24.15
306.735	23.15
306.945	25.04
307.155	22.72
307.365	26.1
307.575	31.27
307.784	28.99
307.994	19.37
308.204	19.67
308.414	24.16
308.624	20.77
308.834	28.09
309.044	32.05
309.254	36.62
309.464	33.23
309.674	32.51
309.884	22.09
310.093	25.52
310.303	17.43
310.513	22.51
310.723	19.34
310.933	23.15
311.142	21.62
311.352	18.54
311.562	18.59
311.772	15.32
311.981	12.62
312.191	13.76
312.401	15.74
312.611	16.09
312.82	5.92
313.03	7.2
313.24	2.07
313.449	4.01
313.659	-3.24
313.869	-5.95
314.078	-6.78
314.288	-1.54
314.497	-6.89
314.707	-5.32
314.917	-12.39
315.126	0.54
315.336	3.8
315.545	5.05
315.755	8.17
315.964	8.21
316.174	13.82
316.383	12.3
316.593	12.08
316.802	13.1
317.012	9.94
317.221	15.6
317.431	13.67
317.64	14.07
317.849	11.45
318.059	11.6
318.268	17.93
318.478	25.34
318.687	22.82
318.896	21.88
319.106	21.47
319.315	21.72
319.524	10.32
319.734	2.51
319.943	0.69
320.152	0.02
320.362	-3.69
320.571	-7.44
320.78	-9.89
320.989	-3.64
321.199	-3.35
321.408	3.24
321.617	6.24
321.826	10.39
322.035	6.47
322.245	6.85
322.454	11.74
322.663	4.93
322.872	-4.18
323.081	-0.68
323.29	0.67
323.5	-0.71
323.709	-0.84
323.918	3
324.127	1.92
324.336	-1.22
324.545	-5.53
324.754	1.44
324.963	4.22
325.172	11.25
325.381	7.5
325.59	5.59
325.799	1.22
326.008	-8.09
326.217	-15.43
326.426	-3.47
326.635	4.79
326.844	3.63
327.053	14.45
327.262	18.59
327.47	16.58
327.679	25.57
327.888	34.14
328.097	25.81
328.306	33.39
328.515	36.89
328.724	45.36
328.932	46.77
329.141	45.91
329.35	44.32
329.559	45.18
329.768	48.89
329.976	51.96
330.185	49.21
330.394	50.83
330.602	55.55
330.811	46.85
331.02	42.74
331.229	46.12
331.437	43.37
331.646	37.88
331.855	40.44
332.063	33.84
332.272	27.89
332.48	32.38
332.689	23.06
332.898	20.26
333.106	16.98
333.315	21.15
333.523	18.25
333.732	18.91
333.94	13.64
334.149	14.68
334.357	11.19
334.566	11.99
334.774	17.79
334.983	15.73
335.191	15.79
335.4	4.05
335.608	-5.42
335.817	-19.36
336.025	-10.58
336.234	-22.45
336.442	-10.22
336.65	-5.35
336.859	8.64
337.067	8.78
337.275	18.9
337.484	6.22
337.692	1.44
337.9	5.22
338.109	-2.96
338.317	-5.07
338.525	-9.89
338.734	1.42
338.942	1.13
339.15	-9.18
339.358	-17.03
339.567	-3.2
339.775	1.29
339.983	1.31
340.191	6.81
340.399	11.51
340.608	20.3
340.816	20.57
341.024	24.96
341.232	18.13
341.44	21.07
341.648	19.98
341.856	28.44
342.064	38
342.272	29.72
342.481	32.29
342.689	30.45
342.897	35.97
343.105	29.53
343.313	38.07
343.521	46.14
343.729	45.59
343.937	46.36
344.145	49.28
344.353	53.16
344.56	46.82
344.768	39.66
344.976	43.61
345.184	33.58
345.392	32.07
345.6	36.45
345.808	36
346.016	37.1
346.224	42.89
346.431	43.77
346.639	47.28
346.847	49.63
347.055	50.23
347.263	44.33
347.471	45.67
347.678	35.33
347.886	25.3
348.094	35.05
348.302	34.61
348.509	39.81
348.717	36.18
348.925	39.36
349.132	40.45
349.34	31.73
349.548	36.69
349.755	32.89
349.963	24.7
350.171	24.69
350.378	21.3
350.586	17.56
350.793	14.55
351.001	17.84
351.209	17.09
351.416	22.93
351.624	25.97
351.831	19.67
352.039	26.77
352.246	23.55
352.454	13.13
352.661	5.52
352.869	-0.32
353.076	-6.05
353.284	1.54
353.491	18
353.699	9.99
353.906	11.6
354.113	18.16
354.321	23.97
354.528	31.16
354.736	25.38
354.943	27.61
355.15	23.27
355.358	19.35
355.565	15.06
355.772	17.89
355.98	29.22
356.187	30.2
356.394	21.01
356.601	19.97
356.809	25.24
357.016	33.22
357.223	38.12
357.43	39.58
357.638	38.6
357.845	31.61
358.052	33.73
358.259	35.91
358.466	30.46
358.673	23.68
358.881	19.34
359.088	31.13
359.295	21.95
359.502	9.26
359.709	11.54
359.916	14.11
360.123	11.07
360.33	-6.72
360.537	-5.96
360.744	3.08
360.951	5.9
361.158	5.48
361.365	-3.24
361.572	1.02
361.779	5.35
361.986	8.66
362.193	6.81
362.4	9.26
362.607	-1.72
362.814	2.63
363.021	5.86
363.228	-0.55
363.435	-6.62
363.641	-8.27
363.848	3.99
364.055	-1.89
364.262	2.29
364.469	-5.81
364.676	0.69
364.882	0.18
365.089	-5.2
365.296	5.01
365.503	5.21
365.709	0.64
365.916	-8.78
366.123	-10.02
366.33	-12.99
366.536	-11.7
366.743	-13.11
366.95	-12.21
367.156	-12.57
367.363	-19.88
367.57	-19.11
367.776	-19.14
367.983	-16.7
368.19	-9.92
368.396	-6.81
368.603	-6.66
368.809	7.93
369.016	4.59
369.222	8.89
369.429	13.63
369.635	9.13
369.842	6.66
370.048	20.34
370.255	26.17
370.461	22.05
370.668	27.32
370.874	26.5
371.081	30.46
371.287	35.82
371.494	33.65
371.7	43.13
371.906	39.98
372.113	40.03
372.319	43.83
372.526	41.36
372.732	37.04
372.938	31.58
373.145	14.55
373.351	17.98
373.557	9.85
373.763	4.98
373.97	2.98
374.176	7.19
374.382	4.37
374.588	-7.51
374.795	-0.61
375.001	-12.07
375.207	-15.19
375.413	-15.01
375.62	-12.6
375.826	-17.21
376.032	-16.68
376.238	-9.19
376.444	-9.79
376.65	-11.19
376.856	-23.42
377.062	-10.42
377.269	-0.41
377.475	4.11
377.681	4.18
377.887	14.58
378.093	6.49
378.299	10.06
378.505	4.73
378.711	7.69
378.917	18.2
379.123	14.41
379.329	22.97
379.535	24.55
379.741	22.14
379.947	20.61
380.152	26.85
380.358	21.41
380.564	15.97
380.77	13.65
380.976	9.63
381.182	17.88
381.388	17.12
381.594	13.32
381.799	17.09
382.005	16.65
382.211	19.67
382.417	25.7
382.623	22.17
382.828	25.02
383.034	16.95
383.24	9.62
383.445	5.59
383.651	1.37
383.857	-4.59
384.063	0.41
384.268	-7.51
384.474	-4.16
384.68	-6.31
384.885	1.06
385.091	4.71
385.296	16.13
385.502	17.07
385.708	17.22
385.913	20.82
386.119	16.1
386.324	16.43
386.53	11.7
386.735	10.59
386.941	9.73
387.146	14.15
387.352	19.81
387.557	21.59
387.763	28.7
387.968	21.85
388.174	24.25
388.379	25.09
388.585	23.89
388.79	17.19
388.996	22.52
389.201	19.52
389.406	15.4
389.612	3.26
389.817	3.1
390.022	-5.23
390.228	7.08
390.433	8.96
390.638	12.24
390.844	12.77
391.049	18.25
391.254	21.46
391.459	17.76
391.665	18.92
391.87	24.82
392.075	27.93
392.28	32.82
392.485	34.16
392.691	24.98
392.896	26.36
393.101	28.98
393.306	27.6
393.511	30.49
393.716	33.95
393.922	36.43
394.127	37.58
394.332	46.96
394.537	36
394.742	35.25
394.947	34.22
395.152	39.23
395.357	38.58
395.562	35.15
395.767	36.01
395.972	33.38
396.177	26.27
396.382	21.44
396.587	23.24
396.792	23.81
396.997	33.39
397.202	36.45
397.407	31.92
397.611	36.41
397.816	34.92
398.021	33.35
398.226	32.59
398.431	31.55
398.636	29.95
398.841	34.46
399.045	37.12
399.25	34.33
399.455	27.81
399.66	24.87
399.864	27.73
400.069	27.07
400.274	29.75
400.479	35.16
400.683	36.76
400.888	34.3
401.093	30.37
401.297	26.64
401.502	21
401.707	23.28
401.911	25.03
402.116	26.96
402.321	37.81
402.525	39.61
402.73	38.41
402.934	26.83
403.139	22.89
403.344	24.29
403.548	15.86
403.753	18.95
403.957	17.73
404.162	5.52
404.366	15.05
404.571	11.03
404.775	4.39
404.98	1.63
405.184	10.04
405.388	15.42
405.593	15.19
405.797	17.77
406.002	28.55
406.206	31.56
406.41	36.38
406.615	44.6
406.819	43.38
407.023	44.39
407.228	46.77
407.432	47.49
407.636	40.74
407.841	54.38
408.045	55.63
408.249	49.16
408.453	54.02
408.658	49.56
408.862	48.07
409.066	57.23
409.27	62.03
409.474	58.17
409.679	57.37
409.883	58.02
410.087	58.83
410.291	55.77
410.495	41.26
410.699	38.5
410.903	22.12
411.108	21.51
411.312	22.32
411.516	26.56
411.72	23.71
411.924	28.85
412.128	19.94
412.332	17.57
412.536	25.44
412.74	28.01
412.944	26.83
413.148	28.2
413.352	23.74
413.556	25.81
413.76	29.54
413.964	35.1
414.167	39.38
414.371	44.79
414.575	42.2
414.779	42.04
414.983	43.84
415.187	44.37
415.391	44.74
415.594	40.16
415.798	36.68
416.002	38.72
416.206	45.85
416.41	49.38
416.613	50.57
416.817	44.83
417.021	42.17
417.225	50.47
417.428	41.14
417.632	25.06
417.836	16.43
418.039	18.24
418.243	23.91
418.447	7.49
418.65	3.5
418.854	9.89
419.057	14.45
419.261	8.33
419.465	3
419.668	14.68
419.872	9.59
420.075	5.35
420.279	15.03
420.482	11.44
420.686	12.41
420.889	12.93
421.093	21.94
421.296	23.36
421.5	16.28
421.703	22.39
421.907	35.04
422.11	36.29
422.314	31.12
422.517	24.7
422.72	32.12
422.924	28.44
423.127	17.73
423.33	18.51
423.534	21.92
423.737	17.37
423.94	7.65
424.144	15.75
424.347	27.06
424.55	11.98
424.754	4.82
424.957	-0.4
425.16	3.05
425.363	1.71
425.567	3.89
425.77	5.63
425.973	18.66
426.176	8.03
426.379	19.34
426.582	22.96
426.786	30.97
426.989	36.14
427.192	45.2
427.395	41.56
427.598	39.56
427.801	31.73
428.004	31.42
428.207	38.3
428.41	40.59
428.613	27.75
428.816	40.34
429.019	42.18
429.222	38.06
429.425	36.26
429.628	36.15
429.831	33.43
430.034	34.25
430.237	24.91
430.44	26.58
430.643	16.9
430.846	11.64
431.049	0.52
431.252	-2.01
431.454	-6.87
431.657	-15.03
431.86	-12.03
432.063	-6.65
432.266	-2.62
432.469	-11.66
432.671	-20.45
432.874	-4.26
433.077	-17.18
433.28	-10.74
433.482	-5.06
433.685	-15.45
433.888	-21.36
434.09	-30.77
434.293	-52.02
434.496	-45.85
434.698	-43.77
434.901	-39.61
435.104	-34.15
435.306	-25.16
435.509	-28.72
435.712	-23.75
435.914	-27.62
436.117	-29.55
436.319	-18.12
436.522	-11.99
436.724	-10.11
436.927	-3.8
437.129	-1.88
437.332	0.69
437.534	-4.87
437.737	-16.76
437.939	12.24
438.142	9.27
438.344	18.49
438.547	29.62
438.749	31.91
438.951	15.53
439.154	29.82
439.356	27.15
439.558	36.95
439.761	37.4
439.963	29.6
440.165	31.07
440.368	30.77
440.57	11.65
440.772	-5.98
440.975	-21.01
441.177	-7.89
441.379	-16.08
441.581	-0.78
441.784	-7.77
441.986	8.02
442.188	-5.23
442.39	-4.48
442.592	-13.1
442.795	-3.31
442.997	-4.13
443.199	6.3
443.401	4.65
443.603	4.34
443.805	-4.33
444.007	6.52
444.209	12.68
444.411	26.22
444.613	25.75
444.815	32.92
445.017	33.44
445.219	38.75
445.421	34.04
445.623	36.87
445.825	27.71
446.027	34.43
446.229	33.96
446.431	46.01
446.633	49.8
446.835	48.74
447.037	38.95
447.239	38.61
447.441	32.94
447.643	28.93
447.844	28.13
448.046	43.26
448.248	36.19
448.45	33.65
448.652	26.21
448.853	36
449.055	34.17
449.257	39.56
449.459	44.54
449.66	41.5
449.862	25.94
450.064	30.64
450.266	28.18
450.467	21.66
450.669	16.69
450.871	16.3
451.072	32.29
451.274	36.15
451.475	25.41
451.677	30.22
451.879	34.49
452.08	28.25
452.282	23.21
452.483	20.32
452.685	14.37
452.886	22.3
453.088	10.06
453.289	-0.15
453.491	-8.79
453.692	-27.96
453.894	-15.58
454.095	8.84
454.297	10.91
454.498	21.31
454.7	25.84
454.901	30.01
455.102	29.8
455.304	27.06
455.505	31.49
455.706	33.34
455.908	30.32
456.109	20.55
456.31	28.67
456.512	22.79
456.713	28.82
456.914	30.96
457.116	15.77
457.317	22.26
457.518	19.18
457.719	28.75
457.921	36.1
458.122	30.87
458.323	24.84
458.524	30.13
458.725	24.31
458.926	19.75
459.128	14.52
459.329	3.8
459.53	-6.99
459.731	-19.1
459.932	-17.23
460.133	-14.3
460.334	3.54
460.535	0.57
460.736	-0.79
460.937	-15.21
461.138	-17.6
461.339	-4.43
461.54	-8.48
461.741	-9.63
461.942	-14.49
462.143	-9.74
462.344	-8.7
462.545	-7.63
462.746	-17.13
462.947	-17.35
463.148	-14.68
463.348	-13.16
463.549	-6.53
463.75	-3.15
463.951	7.11
464.152	5.03
464.353	1.88
464.553	5.54
464.754	8.04
464.955	10.12
465.156	14.19
465.356	18.41
465.557	9.1
465.758	13.99
465.959	18.56
466.159	14.68
466.36	7.92
466.561	10.25
466.761	3.33
466.962	3.23
467.163	4.66
467.363	9.79
467.564	10.04
467.764	9.74
467.965	7.44
468.166	0.8
468.366	9.53
468.567	10.57
468.767	11.3
468.968	10.97
469.168	17.34
469.369	24.93
469.569	15.28
469.77	14.16
469.97	6.13
470.17	10
470.371	10.39
470.571	5.84
470.772	11.64
470.972	20.6
471.172	24.05
471.373	24.32
471.573	21.09
471.773	24.93
471.974	29.68
472.174	31.66
472.374	31.41
472.575	33.43
472.775	35.42
472.975	28.37
473.175	28.68
473.376	27.24
473.576	19.02
473.776	29.2
473.976	30.92
474.177	38.15
474.377	33.46
474.577	39.62
474.777	41.81
474.977	37.29
475.177	26.19
475.377	29.74
475.577	33.06
475.777	33.42
475.978	28.38
476.178	22.9
476.378	27.3
476.578	36.43
476.778	26.92
476.978	24.78
477.178	26.85
477.378	28.76
477.578	27.75
477.778	25.18
477.977	18.7
478.177	22.39
478.377	18.48
478.577	16.43
478.777	19.39
478.977	21.23
479.177	19.31
479.377	21.92
479.577	9.82
479.776	8.67
479.976	4.82
480.176	9.63
480.376	14.66
480.576	10.2
480.775	-1.94
480.975	5
481.175	7.54
481.374	6.18
481.574	5.96
481.774	3.49
481.974	9.84
482.173	8.05
482.373	4.06
482.572	6.05
482.772	11
482.972	4.83
483.171	6.11
483.371	12.55
483.57	13.27
483.77	19.8
483.97	17.11
484.169	18.46
484.369	14.01
484.568	10.38
484.768	10.3
484.967	15.26
485.167	12.35
485.366	12.21
485.566	11.93
485.765	11.72
485.964	11.59
486.164	10.13
486.363	13.96
486.563	14.5
486.762	10.61
486.961	11.08
487.161	12.21
487.36	8.13
487.559	-0.53
487.759	-4.94
487.958	-9.41
488.157	-13.21
488.356	-7.21
488.556	-4.08
488.755	-0.27
488.954	3.83
489.153	2.56
489.353	4.64
489.552	2.06
489.751	-3.57
489.95	-1.91
490.149	-5.47
490.348	-2.82
490.548	-4.96
490.747	-2.43
490.946	2.01
491.145	3.06
491.344	0.72
491.543	6.64
491.742	14.93
491.941	21.19
492.14	20.41
492.339	21.07
492.538	16.3
492.737	17.45
492.936	17.4
493.135	11.26
493.334	11.72
493.533	12.66
493.732	20.88
493.931	25.87
494.13	21.24
494.328	28.74
494.527	25.04
494.726	21.94
494.925	15.7
495.124	16.81
495.323	15.34
495.521	16.29
495.72	14.9
495.919	12.52
496.118	13.12
496.316	14.77
496.515	21.66
496.714	18.02
496.913	18.93
497.111	16.63
497.31	14.43
497.509	12.8
497.707	9.33
497.906	7.91
498.105	5.33
498.303	6.21
498.502	5.07
498.7	8.46
498.899	11.51
499.097	13.86
499.296	14.99
499.495	18.07
499.693	16.19
499.892	16.24
500.09	15.47
500.289	18.17
500.487	18.14
500.686	15.38
500.884	18.89
501.082	16.85
501.281	16.51
501.479	24.07
501.678	22.27
501.876	24.49
502.074	25.33
502.273	25.9
502.471	26.74
502.669	20.65
502.868	17.78
503.066	21.22
503.264	22.55
503.463	21.16
503.661	14.21
503.859	18.18
504.057	19.15
504.256	21.69
504.454	20.18
504.652	17.8
504.85	22.13
505.048	22.89
505.246	21.42
505.445	22.63
505.643	20.3
505.841	22.45
506.039	23.59
506.237	19.52
506.435	22.29
506.633	23.13
506.831	28.86
507.029	27.98
507.227	29.41
507.425	29.98
507.623	29.64
507.821	25.22
508.019	24.55
508.217	24
508.415	21.09
508.613	15.9
508.811	17.97
509.009	11.97
509.207	12.23
509.405	16.42
509.603	12.93
509.8	11.13
509.998	11.8
510.196	9.18
510.394	6.18
510.592	1.91
510.79	-1.45
510.987	-2.69
511.185	1.99
511.383	-3.34
511.581	-5.41
511.778	-2.84
511.976	6.44
512.174	0.79
512.371	0.34
512.569	2.4
512.767	6.56
512.964	4.95
513.162	6.69
513.36	4.21
513.557	2.25
513.755	7.12
513.952	9.84
514.15	4.08
514.348	8.04
514.545	10.12
514.743	14.62
514.94	19.28
515.138	16.95
515.335	15.54
515.533	15.2
515.73	16.52
515.927	15.47
516.125	14.1
516.322	20.04
516.52	21.71
516.717	22.39
516.915	20.25
517.112	20.93
517.309	19.28
517.507	22.9
517.704	20.25
517.901	16.65
518.099	14.05
518.296	16.01
518.493	16.14
518.69	18.12
518.888	16
519.085	12.31
519.282	12.66
519.479	12.4
519.676	11
519.874	8.14
520.071	5.7
520.268	5.24
520.465	2.38
520.662	2.19
520.859	1.62
521.056	2.18
521.254	5.82
521.451	6.75
521.648	5.1
521.845	5.77
522.042	9.74
522.239	12.68
522.436	13.35
522.633	9.1
522.83	10.32
523.027	6.86
523.224	14.6
523.421	15.09
523.618	13.14
523.815	19.41
524.011	20.75
524.208	25.74
524.405	26.5
524.602	30.6
524.799	25.18
524.996	24.65
525.193	20.91
525.389	18.24
525.586	19.29
525.783	16.61
525.98	17.23
526.176	15.48
526.373	11.84
526.57	14.23
526.767	12.66
526.963	11.82
527.16	19.4
527.357	14.65
527.553	16.86
527.75	21.95
527.947	15.31
528.143	17.02
528.34	15.77
528.537	15.77
528.733	17.86
528.93	16.86
529.126	18
529.323	21.67
529.519	19.97
529.716	16.67
529.912	15.53
530.109	14.99
530.305	13.73
530.502	14.95
530.698	14.6
530.895	13.17
531.091	14.73
531.288	8.41
531.484	7.6
531.68	7.89
531.877	9
532.073	10.83
532.269	10.23
532.466	8.41
532.662	8.75
532.858	5.48
533.055	6.55
533.251	5.72
533.447	4.83
533.643	8.34
533.84	8.53
534.036	12.33
534.232	15.56
534.428	13.41
534.624	14.15
534.821	13.76
535.017	17.29
535.213	13.87
535.409	16.38
535.605	16.71
535.801	14.7
535.997	12.38
536.193	12.17
536.389	11.53
536.586	11.64
536.782	11.15
536.978	9.65
537.174	10.73
537.37	11.66
537.566	12.39
537.762	10.67
537.958	15.06
538.153	11.68
538.349	7.47
538.545	10.02
538.741	6.06
538.937	2.53
539.133	4.87
539.329	7.33
539.525	6.16
539.721	8.47
539.916	12.34
540.112	10.35
540.308	10.36
540.504	11.97
540.699	8.53
540.895	10.23
541.091	13.42
541.287	12.98
541.482	10.3
541.678	11.9
541.874	13
542.069	12.02
542.265	13.34
542.461	15.62
542.656	15.91
542.852	19.61
543.048	22.45
543.243	20.68
543.439	20.42
543.634	22.91
543.83	20.92
544.025	19.22
544.221	21.79
544.417	22.24
544.612	21.58
544.807	25.19
545.003	23.86
545.198	21.59
545.394	22.95
545.589	25.37
545.785	26.42
545.98	25.52
546.176	23.75
546.371	23.92
546.566	22.21
546.762	19.69
546.957	20.8
547.152	19.09
547.348	16.66
547.543	17.71
547.738	14.78
547.933	11.86
548.129	13.09
548.324	12.21
548.519	8.79
548.714	7.57
548.91	7.98
549.105	7.37
549.3	8.62
549.495	10.14
549.69	7.2
549.885	3.71
550.08	4.85
550.276	4.29
550.471	6.7
550.666	4.89
550.861	6.22
551.056	4.36
551.251	5
551.446	9.29
551.641	8.38
551.836	10.84
552.031	12.41
552.226	11.63
552.421	11.58
552.616	13.38
552.811	15.95
553.006	12.3
553.201	12.12
553.395	12.81
553.59	9.34
553.785	11.21
553.98	11.06
554.175	9.83
554.37	9.16
554.565	6.24
554.759	8.03
554.954	8.32
555.149	8.23
555.344	9.44
555.538	4.83
555.733	4.34
555.928	7.58
556.122	9.78
556.317	7.01
556.512	5.88
556.706	8.1
556.901	8.22
557.096	10.83
557.29	9.83
557.485	8.22
557.68	8.2
557.874	7.92
558.069	10.89
558.263	10.38
558.458	10.94
558.652	10.46
558.847	9.41
559.041	12.92
559.236	10.05
559.43	9.62
559.625	16.9
559.819	15.98
560.014	11.16
560.208	9.32
560.402	9.36
560.597	10.27
560.791	7.72
560.986	7.32
561.18	7.2
561.374	6.22
561.569	2.89
561.763	5.01
561.957	3.3
562.151	1.22
562.346	2.44
562.54	4.75
562.734	3.48
562.928	2.33
563.123	0.79
563.317	3.61
563.511	4.8
563.705	-2.12
563.899	-1.35
564.093	0.07
564.288	0.13
564.482	2.83
564.676	5.24
564.87	7.05
565.064	6.41
565.258	7.1
565.452	9.45
565.646	13.36
565.84	11.9
566.034	13.93
566.228	14.49
566.422	13.25
566.616	12.6
566.81	13.24
567.004	14.94
567.198	16.58
567.392	16.9
567.586	13.67
567.779	16.04
567.973	14.47
568.167	15.52
568.361	15.22
568.555	15.5
568.749	15.48
568.942	13.12
569.136	13.17
569.33	11.81
569.524	12.04
569.718	13.02
569.911	13.4
570.105	14.23
570.299	12.7
570.492	12.64
570.686	14.28
570.88	16.46
571.073	16.05
571.267	14.43
571.461	12.56
571.654	13.39
571.848	13.95
572.041	16.29
572.235	14.42
572.429	15.34
572.622	13.8
572.816	12.7
573.009	13.5
573.203	13.51
573.396	14.89
573.59	13.93
573.783	13.84
573.976	13.14
574.17	11.45
574.363	12.42
574.557	11.17
574.75	9.48
574.943	10.88
575.137	11.66
575.33	11.99
575.523	13.05
575.717	12.2
575.91	10.71
576.103	9.03
576.297	9.28
576.49	8.26
576.683	8.76
576.876	8.97
577.07	7.99
577.263	8.27
577.456	7.05
577.649	6.52
577.842	6.16
578.036	7.24
578.229	8.45
578.422	8.04
578.615	8.06
578.808	7.72
579.001	7.31
579.194	7.78
579.387	9.59
579.58	9.79
579.773	9.53
579.966	11.35
580.159	11.51
580.352	13.43
580.545	14.08
580.738	13.07
580.931	11.05
581.124	12.08
581.317	10.6
581.51	10.14
581.703	11.44
581.896	10.29
582.088	10.73
582.281	9.51
582.474	11.69
582.667	13.46
582.86	12.95
583.053	11.06
583.245	10.93
583.438	7.58
583.631	7.92
583.824	8
584.016	6.77
584.209	5.23
584.402	4.32
584.594	4.6
584.787	6.14
584.98	6.1
585.172	7.82
585.365	7.96
585.558	8.59
585.75	8.73
585.943	9.34
586.135	7.49
586.328	7.99
586.52	7.66
586.713	6.61
586.906	7.26
587.098	8.54
587.291	9.63
587.483	9.13
587.675	8.99
587.868	8.78
588.06	8.59
588.253	11.22
588.445	10.27
588.638	9.57
588.83	7.87
589.022	9.02
589.215	5.84
589.407	7.09
589.599	7.45
589.792	7.49
589.984	9.4
590.176	11.79
590.368	11.98
590.561	11.66
590.753	13.04
590.945	11.96
591.137	10.59
591.33	8.2
591.522	10.98
591.714	9.25
591.906	11.39
592.098	13.2
592.29	12.82
592.482	14.56
592.674	14.99
592.867	15.42
593.059	14.55
593.251	17.05
593.443	16.68
593.635	16.99
593.827	16.65
594.019	14.77
594.211	12.35
594.403	12.97
594.595	12.55
594.787	10.82
594.979	12.56
595.17	13.06
595.362	12.74
595.554	11.74
595.746	13.49
595.938	12.93
596.13	12.76
596.322	11.96
596.513	9.33
596.705	10.13
596.897	9.15
597.089	10.56
597.281	8.88
597.472	9.62
597.664	8.24
597.856	7.94
598.048	7.58
598.239	8.04
598.431	7.52
598.623	6.18
598.814	4.93
599.006	5.77
599.197	8.94
599.389	9.53
599.581	7.11
599.772	6.79
599.964	6.66
600.155	4.74
600.347	4.76
600.538	5.88
600.73	4.78
600.921	6.49
601.113	6.12
601.304	8.36
601.496	6.42
601.687	7.46
601.879	7.21
602.07	8.92
602.262	10.18
602.453	9.15
602.644	8.96
602.836	9.84
603.027	8.52
603.218	4.75
603.41	4.67
603.601	6.13
603.792	5.78
603.983	6.49
604.175	7.86
604.366	8.5
604.557	8.2
604.748	7.74
604.94	6.82
605.131	6.24
605.322	4.98
605.513	5.83
605.704	7.4
605.895	8.18
606.086	6.64
606.278	5.41
606.469	6.83
606.66	8.67
606.851	7.81
607.042	5.9
607.233	5.95
607.424	6.98
607.615	7.7
607.806	7.19
607.997	7.17
608.188	8.66
608.379	7.88
608.57	7.35
608.761	7.74
608.952	7.29
609.142	7.67
609.333	7.07
609.524	6.65
609.715	5.57
609.906	5.1
610.097	7.76
610.287	7.7
610.478	6.36
610.669	6.67
610.86	7.25
611.051	8.9
611.241	9.99
611.432	8.58
611.623	9.51
611.813	9.94
612.004	9.98
612.195	9.48
612.385	8.9
612.576	10.06
612.767	10.8
612.957	11.48
613.148	10.57
613.338	10.12
613.529	9.16
613.72	7.64
613.91	8.64
614.101	7.21
614.291	7.66
614.482	9.36
614.672	7.87
614.863	8.28
615.053	7.96
615.243	6.99
615.434	7.26
615.624	6.77
615.815	6.38
616.005	4.68
616.195	2.39
616.386	0.76
616.576	-0.34
616.766	-0.95
616.957	-0.09
617.147	-0.77
617.337	-2.17
617.528	-1.29
617.718	-1.89
617.908	-4.16
618.098	-4.69
618.289	-3.66
618.479	-5.7
618.669	-4.76
618.859	-4.87
619.049	-3.9
619.239	-2.96
619.43	-3.4
619.62	-5.13
619.81	-3.7
620	-1.56
620.19	-1.16
620.38	0.76
620.57	1.57
620.76	1.28
620.95	1.1
621.14	2.36
621.33	5.36
621.52	5.31
621.71	4.27
621.9	5.69
622.09	6.45
622.28	6.66
622.47	7.41
622.659	7.02
622.849	7.02
623.039	6.89
623.229	4.87
623.419	6.68
623.609	7.68
623.799	5.73
623.988	4.92
624.178	6.76
624.368	5.64
624.558	6.09
624.747	6.95
624.937	7.43
625.127	5.4
625.316	4.3
625.506	6.09
625.696	9.51
625.885	9.26
626.075	8.78
626.265	8.09
626.454	7.15
626.644	7.87
626.833	8.55
627.023	8.58
627.212	8.9
627.402	9.83
627.591	9.5
627.781	10.71
627.97	11.15
628.16	9.51
628.349	11.81
628.539	11.87
628.728	12.38
628.918	13.05
629.107	14.4
629.296	12.8
629.486	11.76
629.675	11.29
629.865	11.72
630.054	12.56
630.243	12.07
630.432	12.22
630.622	11.8
630.811	12.99
631	11.84
631.19	14
631.379	13.03
631.568	14.15
631.757	14.45
631.946	13.46
632.136	14.7
632.325	13.29
632.514	12.65
632.703	12.29
632.892	9.98
633.081	9.45
633.27	11.48
633.459	11.11
633.648	9.23
633.837	8.04
634.026	6.65
634.215	7.78
634.404	8.5
634.593	10.15
634.782	8.32
634.971	9.41
635.16	7.54
635.349	6.83
635.538	7.22
635.727	6.59
635.916	6.97
636.105	7.09
636.294	8.01
636.482	8.61
636.671	7.26
636.86	8.47
637.049	9.55
637.238	9.43
637.426	9.54
637.615	10.23
637.804	10.38
637.993	10.47
638.181	9.14
638.37	9.67
638.559	9.39
638.747	10.14
638.936	10.06
639.125	11.83
639.313	11.13
639.502	10.85
639.691	11.25
639.879	9.07
640.068	7.88
640.256	6.03
640.445	6.58
640.633	8.83
640.822	8.13
641.01	7.66
641.199	6.97
641.387	7.26
641.576	8.62
641.764	11.02
641.953	9.94
642.141	10.52
642.329	11.46
642.518	8.87
642.706	9.05
642.894	8.12
643.083	6.5
643.271	6.77
643.459	7.36
643.648	7.53
643.836	8.37
644.024	9.37
644.213	10.33
644.401	9.56
644.589	7.41
644.777	7.99
644.965	9.85
645.154	9.42
645.342	9.22
645.53	9.64
645.718	7.88
645.906	7.91
646.094	7.8
646.282	6.79
646.47	8.84
646.658	8.18
646.846	7.69
647.034	9.04
647.223	9.07
647.411	8.08
647.599	6.63
647.786	8.08
647.974	7.48
648.162	6.73
648.35	6.03
648.538	6.93
648.726	6.74
648.914	6.44
649.102	7.36
649.29	7.88
649.478	6.55
649.665	7.29
649.853	8.69
650.041	8.85
650.229	8.54
650.417	7.61
650.604	8.2
650.792	8.75
650.98	7.92
651.168	8.22
651.355	9.21
651.543	9.52
651.731	7.19
651.918	6.36
652.106	7.39
652.294	8.08
652.481	7.56
652.669	7.38
652.856	7.35
653.044	6.9
653.231	6.59
653.419	7.05
653.606	6.28
653.794	6.96
653.981	7.61
654.169	6.58
654.356	5.45
654.544	5.81
654.731	4.76
654.919	2.9
655.106	2.84
655.294	1.38
655.481	2.88
655.668	5.26
655.856	4.98
656.043	5.1
656.23	5.08
656.418	5.95
656.605	6.17
656.792	5.4
656.979	5.52
657.167	5.54
657.354	5.92
657.541	5.47
657.728	3.37
657.916	2.52
658.103	2.63
658.29	5
658.477	5.34
658.664	6.9
658.851	8.5
659.038	7.26
659.225	7.15
659.412	6.92
659.6	6.13
659.787	8.08
659.974	7.06
660.161	8.56
660.348	7.41
660.535	9.28
660.722	7.55
660.909	7.26
661.095	7.53
661.282	7.96
661.469	9.18
661.656	10.05
661.843	9.22
662.03	9.43
662.217	8.78
662.404	7.5
662.59	7.54
662.777	6.75
662.964	7.64
663.151	8.18
663.338	8.42
663.524	7.88
663.711	5.93
663.898	6.38
664.085	4.83
664.271	5.58
664.458	4.57
664.645	5.39
664.831	6.49
665.018	5.95
665.204	4.61
665.391	4.29
665.578	3.05
665.764	3.21
665.951	3.27
666.137	2.48
666.324	3.8
666.51	2.96
666.697	2.57
666.883	3.39
667.07	3.03
667.256	2.55
667.443	2.42
667.629	3.49
667.816	4.1
668.002	4.28
668.188	3.45
668.375	2.93
668.561	3.41
668.747	2.16
668.934	3.43
669.12	3.79
669.306	3.63
669.493	5.96
669.679	7.54
669.865	8.97
670.051	9.24
670.238	8.84
670.424	8.07
670.61	8.23
670.796	8.83
670.982	8.64
671.169	7.75
671.355	8.42
671.541	8.24
671.727	7.45
671.913	6.77
672.099	8.38
672.285	7.06
672.471	6.81
672.657	8.16
672.843	8.34
673.029	8.75
673.215	7.97
673.401	8.55
673.587	6.49
673.773	6.24
673.959	6.39
674.145	6.54
674.331	8.72
674.517	10.19
674.703	9.08
674.888	9.79
675.074	8.88
675.26	9.15
675.446	7.45
675.632	7.37
675.817	8.15
676.003	6.64
676.189	7.58
676.375	7.33
676.56	7.12
676.746	5.49
676.932	2.91
677.117	3.57
677.303	2.01
677.489	3.69
677.674	1.33
677.86	1.32
678.046	1.7
678.231	1.32
678.417	0.74
678.602	-0.16
678.788	-0.82
678.973	0.95
679.159	2.49
679.344	2.94
679.53	3.8
679.715	3.4
679.901	2.94
680.086	2.54
680.272	3
680.457	3.28
680.643	3.68
680.828	4.99
681.013	5.06
681.199	5.67
681.384	6.41
681.569	7.62
681.755	7.68
681.94	6.29
682.125	5.14
682.31	6.48
682.496	6.6
682.681	7.22
682.866	7.24
683.051	6.13
683.237	7.04
683.422	6.53
683.607	5.54
683.792	6.86
683.977	7.08
684.162	6.03
684.347	5.82
684.532	5.38
684.717	5.16
684.903	4.23
685.088	4.56
685.273	3.09
685.458	3.16
685.643	2.95
685.828	2.07
686.013	4.51
686.198	3.53
686.382	5.35
686.567	5.65
686.752	3.66
686.937	3.62
687.122	3.72
687.307	2.88
687.492	2.93
687.677	1.51
687.861	1.95
688.046	0.97
688.231	-0.03
688.416	1.5
688.601	1.63
688.785	2.77
688.97	2.4
689.155	3.85
689.339	2.82
689.524	0.19
689.709	1.12
689.893	-0.33
690.078	-0.18
690.263	-1.25
690.447	-1.46
690.632	-1.05
690.816	0.61
691.001	0.02
691.186	-0.02
691.37	0.95
691.555	2.27
691.739	2.28
691.924	3.3
692.108	3.33
692.293	2.76
692.477	3.69
692.661	3.01
692.846	2.9
693.03	1.91
693.215	2.6
693.399	4.84
693.583	4.43
693.768	4.2
693.952	4.3
694.136	3.23
694.321	4.05
694.505	4.93
694.689	3.14
694.873	4.27
695.058	4.37
695.242	6.02
695.426	5.28
695.61	4.76
695.794	5.75
695.979	6.31
696.163	5.2
696.347	4.48
696.531	4.14
696.715	3.59
696.899	2.37
697.083	2.4
697.267	3.58
697.451	4.78
697.635	5.23
697.819	4.73
698.003	6.32
698.187	4.7
698.371	5.72
698.555	6.36
698.739	6.63
698.923	7.18
699.107	5.67
699.291	6.22
699.475	5.77
699.659	5.01
699.842	4.27
700.026	4.9
700.21	4.89
700.394	5.54
700.578	6.06
700.761	8.18
700.945	9.18
701.129	7.94
701.313	6.87
701.496	7.38
701.68	6.69
701.864	5.69
702.047	7.81
702.231	9.17
702.415	8.43
702.598	6.75
702.782	6.38
702.965	6.83
703.149	6.98
703.333	7.07
703.516	8.3
703.7	8.75
703.883	9.77
704.067	9.49
704.25	8.74
704.434	6.7
704.617	5.5
704.801	5.03
704.984	4.09
705.167	5.07
705.351	3.9
705.534	4.97
705.718	6.78
705.901	4.21
706.084	2.54
706.268	2.52
706.451	2.64
706.634	2.65
706.817	0.5
707.001	-1.01
707.184	-0.26
707.367	-0.7
707.55	0.19
707.734	-0.8
707.917	0.29
708.1	0.35
708.283	2.95
708.466	4.02
708.649	3.62
708.832	4.95
709.015	4.91
709.199	5.96
709.382	4.86
709.565	3.99
709.748	6.22
709.931	6.22
710.114	6.61
710.297	7.54
710.48	6.96
710.663	8.67
710.846	10.05
711.028	10.13
711.211	8.58
711.394	8.73
711.577	9
711.76	8.15
711.943	8.81
712.126	8.35
712.309	8.38
712.491	9.15
712.674	8.79
712.857	9.06
713.04	7.43
713.222	9.14
713.405	7.91
713.588	6.64
713.771	5.82
713.953	5.39
714.136	5.11
714.319	5.53
714.501	5
714.684	4.41
714.866	4.47
715.049	5.95
715.232	5.21
715.414	3.74
715.597	4.08
715.779	4.64
715.962	5.16
716.144	4.25
716.327	5.08
716.509	5.09
716.692	3.48
716.874	4.11
717.057	3.29
717.239	4.63
717.421	4.67
717.604	3.65
717.786	3.3
717.968	3.07
718.151	3.75
718.333	3.39
718.515	3.39
718.698	2.74
718.88	2.23
719.062	1.74
719.244	3.33
719.427	2.35
719.609	2.44
719.791	0.49
719.973	0.65
720.155	-0.91
720.338	-0.35
720.52	0.62
720.702	1.45
720.884	2.33
721.066	1.53
721.248	0.18
721.43	2.24
721.612	2.95
721.794	3.94
721.976	3.93
722.158	2.29
722.34	2.41
722.522	3.24
722.704	3.8
722.886	4.06
723.068	4.34
723.25	6.95
723.432	6.98
723.614	7.52
723.796	7.47
723.977	7.64
724.159	7.14
724.341	6.25
724.523	4.2
724.705	3.16
724.886	4.43
725.068	6.46
725.25	6.67
725.432	7.17
725.613	6.44
725.795	5.97
725.977	8.59
726.158	8.55
726.34	7.48
726.522	7.65
726.703	8.06
726.885	7.96
727.066	5.73
727.248	5.96
727.43	6.61
727.611	7.14
727.793	8.06
727.974	8.62
728.156	9.01
728.337	7.69
728.519	7.12
728.7	7.53
728.882	5.32
729.063	4.04
729.244	3.95
729.426	4.62
729.607	4.97
729.788	4.23
729.97	4.75
730.151	4.84
730.332	5.03
730.514	4.16
730.695	5.77
730.876	5.6
731.058	4.62
731.239	5.74
731.42	5
731.601	3.27
731.782	2.35
731.964	2.94
732.145	5.34
732.326	4.5
732.507	2.92
732.688	3.28
732.869	4.64
733.05	5.88
733.231	6.39
733.412	5.83
733.593	6.42
733.774	6.64
733.955	7.74
734.136	7.26
734.317	6.03
734.498	4.21
734.679	4.79
734.86	3.25
735.041	2.82
735.222	2.25
735.403	3.46
735.584	3.26
735.765	3.28
735.946	3.41
736.126	3.99
736.307	5.22
736.488	5.27
736.669	2.16
736.849	-0.28
737.03	-1.24
737.211	0.42
737.392	-0.49
737.572	-3.34
737.753	-6.12
737.934	-5.53
738.114	-3.05
738.295	-2.83
738.476	-2.5
738.656	-0.14
738.837	0.56
739.017	1.54
739.198	1.64
739.378	3.34
739.559	3.01
739.74	2.7
739.92	2.46
740.1	1.31
740.281	1.01
740.461	2.6
740.642	4.41
740.822	3.69
741.003	3.76
741.183	3.25
741.363	4.71
741.544	6.78
741.724	5.02
741.904	2.75
742.085	2.14
742.265	0.48
742.445	-0.72
742.626	-1.69
742.806	-1.37
742.986	-2.47
743.166	-2.53
743.347	-2.94
743.527	-1.21
743.707	-0.48
743.887	-0.86
744.067	-1.47
744.247	-0.34
744.427	-1.89
744.608	-1.56
744.788	-1.73
744.968	0.35
745.148	1.5
745.328	0.89
745.508	1.97
745.688	4.11
745.868	3.16
746.048	4.46
746.228	6.21
746.408	6.65
746.588	5.64
746.767	6.86
746.947	6.27
747.127	5.85
747.307	3.12
747.487	2.25
747.667	2.68
747.847	5.1
748.026	4.24
748.206	5.11
748.386	5.6
748.566	4.85
748.745	4.18
748.925	4.67
749.105	5.21
749.285	5.18
749.464	4.57
749.644	6.46
749.824	6.98
750.003	6.65
750.183	5.18
750.362	4.91
750.542	3.12
750.722	1.58
750.901	2.51
751.081	2.85
751.26	4.13
751.44	4.59
751.619	4.4
751.799	3.79
751.978	1.38
752.158	0.6
752.337	0.64
752.516	-0.21
752.696	-1.39
752.875	-1.22
753.055	-0.97
753.234	-0.05
753.413	0.34
753.593	1.43
753.772	0.36
753.951	1.45
754.13	2.77
754.31	2.98
754.489	4.02
754.668	4.37
754.847	4.55
755.027	4.06
755.206	4.19
755.385	3.56
755.564	4.1
755.743	6.63
755.922	6.39
756.101	6.17
756.28	6.78
756.46	6.41
756.639	5.09
756.818	5.35
756.997	6.56
757.176	5.88
757.355	4.86
757.534	4.36
757.713	3.87
757.892	2.45
758.07	4.02
758.249	4.03
758.428	2.97
758.607	3.29
758.786	5
758.965	4.46
759.144	5.4
759.323	4.56
759.501	3.73
759.68	4.33
759.859	4.96
760.038	5.2
760.216	5.9
760.395	7.11
760.574	7.72
760.753	6.86
760.931	6.95
761.11	7.66
761.289	7.66
761.467	7.62
761.646	7.97
761.824	8.02
762.003	7.14
762.182	6.61
762.36	7.88
762.539	7.05
762.717	7.23
762.896	6.45
763.074	6.88
763.253	6.28
763.431	7.32
763.61	7.16
763.788	5.58
763.966	5.23
764.145	4.39
764.323	4.33
764.502	1.73
764.68	1.91
764.858	0.21
765.037	2.04
765.215	2.11
765.393	3.03
765.571	3.28
765.75	5.13
765.928	4.69
766.106	3.1
766.284	3.08
766.463	3.08
766.641	3.2
766.819	4.29
766.997	4.32
767.175	3.86
767.353	3.85
767.531	6.79
767.71	8
767.888	8.13
768.066	6.9
768.244	7.7
768.422	8.58
768.6	10.69
768.778	9.86
768.956	10.11
769.134	9.94
769.312	8.44
769.489	6.37
769.667	8.22
769.845	8.53
770.023	7.85
770.201	7.78
770.379	7.26
770.557	7.39
770.735	8.46
770.912	7.79
771.09	7.06
771.268	6.49
771.446	5.6
771.623	5.98
771.801	7.76
771.979	8.43
772.157	5.97
772.334	4.53
772.512	3.98
772.69	2.74
772.867	1.67
773.045	2.65
773.222	2.09
773.4	2.77
773.577	3.17
773.755	2.77
773.933	1.54
774.11	0.98
774.288	0.35
774.465	-0.02
774.643	-0.76
774.82	1.32
774.997	-0.08
775.175	-1.04
775.352	0.49
775.53	-0.38
775.707	-0.11
775.884	0.56
776.062	1.85
776.239	2.11
776.416	4.65
776.594	5.13
776.771	4.26
776.948	5.65
777.125	4.85
777.303	3.78
777.48	5
777.657	6.19
777.834	7.56
778.012	7.63
778.189	6.86
778.366	6.6
778.543	2.83
778.72	3.6
778.897	4.89
779.074	4.02
779.251	3.77
779.428	2.85
779.605	2.48
779.782	2.3
779.959	2.29
780.136	1.44
780.313	1.77
780.49	0.91
780.667	1.15
780.844	0.26
781.021	0.36
781.198	0.88
781.375	3.24
781.552	1.82
781.728	1.68
781.905	1.81
782.082	4.36
782.259	5.88
782.436	4.23
782.612	2.84
782.789	1.74
782.966	1.11
783.143	2.67
783.319	4.29
783.496	3.98
783.673	3.64
783.849	3.53
784.026	3.56
784.203	5.69
784.379	4.2
784.556	6.37
784.732	7.46
784.909	6.96
785.085	4.66
785.262	6.83
785.438	8.18
785.615	8.6
785.791	7.91
785.968	7.34
786.144	10.19
786.321	13.17
786.497	11.11
786.673	10.09
786.85	9.94
787.026	9.28
787.203	7.61
787.379	7.58
787.555	6.37
787.731	4.98
787.908	2.29
788.084	5
788.26	4.13
788.437	3.73
788.613	2.92
788.789	1.08
788.965	0.76
789.141	-0.76
789.317	-0.25
789.494	-1.1
789.67	0.03
789.846	-0.88
790.022	-2.03
790.198	1.97
790.374	4.46
790.55	1.53
790.726	0.5
790.902	1.75
791.078	3.5
791.254	5.36
791.43	7.27
791.606	7.11
791.782	5.11
791.958	2.9
792.134	5.27
792.31	6.07
792.486	5.49
792.661	6.62
792.837	8.49
793.013	7.02
793.189	7.49
793.365	7.92
793.54	8
793.716	9.5
793.892	8.81
794.068	6.66
794.243	8.03
794.419	9.16
794.595	9.27
794.77	8.16
794.946	7.69
795.122	6.55
795.297	8.79
795.473	10.62
795.648	13.02
795.824	10.31
796	10.99
796.175	13.9
796.351	10.56
796.526	9.21
796.702	11.1
796.877	10.29
797.052	9.82
797.228	7.67
797.403	3.13
797.579	5.18
797.754	5.48
797.929	7.48
798.105	8.43
798.28	6.74
798.455	8.99
798.631	8.63
798.806	9.63
798.981	9.29
799.157	8.86
799.332	5.67
799.507	7.57
799.682	7.68
799.858	8.24
800.033	10.05
800.208	10.59
800.383	8.57
800.558	6.89
800.733	7.98
800.908	8.66
801.083	9.96
801.258	6.75
801.434	8.52
801.609	8.62
801.784	8.25
801.959	10.05
802.134	7.81
802.309	6.93
802.484	5.5
802.658	5.19
802.833	4.28
803.008	8.81
803.183	7.47
803.358	7.25
803.533	5.23
803.708	5.2
803.883	3.02
804.057	2.87
804.232	8.66
804.407	8.23
804.582	11.79
804.756	10.63
804.931	13.31
805.106	11.07
805.281	12.2
805.455	10.61
805.63	10.38
805.805	10.48
805.979	12.31
806.154	12.53
806.328	13.35
806.503	14.69
806.678	10.8
806.852	11.98
807.027	10.94
807.201	10.67
807.376	13.56
807.55	16.56
807.725	16.32
807.899	14.34
808.074	15.15
808.248	11.84
808.422	14.17
808.597	12.53
808.771	14.15
808.946	15.45
809.12	18.34
809.294	18.1
809.468	19.08
809.643	17.39
809.817	18.71
809.991	16.63
810.166	15.64
810.34	18.46
810.514	19.19
810.688	20.89
810.862	21.67
811.037	19.79
811.211	21.52
811.385	21.17
811.559	21.62
811.733	21.46
811.907	22.08
812.081	22.52
812.255	20.05
812.429	19.66
812.603	16.84
812.777	15.95
812.951	17.27
813.125	19.94
813.299	19.76
813.473	14.33
813.647	18.47
813.821	20.8
813.995	18.57
814.169	16.95
814.343	14.68
814.516	15.33
814.69	15.66
814.864	10.85
815.038	11.82
815.212	13.58
815.385	14.02
815.559	18.01
815.733	15.39
815.907	17.46
816.08	19.65
816.254	20.01
816.428	20.01
816.601	19.23
816.775	16.88
816.948	16.67
817.122	19.72
817.296	18.92
817.469	15.68
817.643	16.38
817.816	15.06
817.99	15.04
818.163	16.93
818.337	15.06
818.51	17.28
818.684	22.21
818.857	18.73
819.031	17.62
819.204	15.73
819.377	17.85
819.551	17.91
819.724	18.04
819.897	16.67
820.071	18.08
820.244	16.59
820.417	13.82
820.591	14.8
820.764	19.31
820.937	17.05
821.11	17.73
821.284	17.01
821.457	19.66
821.63	21.41
821.803	19.09
821.976	22.22
822.149	22.55
822.322	20.43
822.496	22.41
822.669	23.15
822.842	21.95
823.015	19.34
823.188	19.19
823.361	19.09
823.534	20.72
823.707	16.6
823.88	17.74
824.053	18.72
824.226	18.61
824.399	17.46
824.571	18.5
824.744	19.04
824.917	22.12
825.09	23.13
825.263	24.13
825.436	28.89
825.608	26.14
825.781	24.22
825.954	22.65
826.127	21.37
826.299	17.68
826.472	18.19
826.645	23.3
826.818	24.76
826.99	24.17
827.163	22.47
827.336	22.64
827.508	22.61
827.681	23.27
827.853	22.89
828.026	22.47
828.198	23.56
828.371	25.03
828.544	23.2
828.716	20.46
828.889	16.65
829.061	10.62
829.233	9.07
829.406	10.71
829.578	10.18
829.751	7.72
829.923	11.8
830.096	8.88
830.268	3.42
830.44	1.73
830.613	1.31
830.785	2.12
830.957	4.06
831.129	3.37
831.302	4.54
831.474	3.14
831.646	3.98
831.818	1.02
831.991	0.17
832.163	0.25
832.335	2.29
832.507	3.5
832.679	3.86
832.851	5.2
833.023	4.87
833.195	2.74
833.368	4.09
833.54	2.91
833.712	5.65
833.884	8.41
834.056	8.41
834.228	7.43
834.4	7.87
834.571	8.48
834.743	4.61
834.915	3.85
835.087	9.47
835.259	6.53
835.431	6.35
835.603	4.01
835.775	3.21
835.946	2.07
836.118	0.86
836.29	2.07
836.462	2.58
836.634	-0.04
836.805	2.97
836.977	8.91
837.149	6.93
837.32	5.54
837.492	9.58
837.664	9.53
837.835	8.26
838.007	5.49
838.179	4.47
838.35	16.01
838.522	21.15
838.693	14.09
838.865	13.88
839.036	11.68
839.208	13.08
839.379	16.89
839.551	20.06
839.722	21.9
839.894	19.78
840.065	19.9
840.237	22.59
840.408	23.72
840.579	21.37
840.751	19.71
840.922	20.8
841.093	17.03
841.265	18.74
841.436	23.93
841.607	27.76
841.778	25.65
841.95	19.92
842.121	20.76
842.292	26.81
842.463	30.27
842.635	34.04
842.806	35.85
842.977	31.97
843.148	29.48
843.319	33.15
843.49	34.16
843.661	35.48
843.832	38.29
844.003	34.09
844.174	36.99
844.345	40.3
844.516	34.49
844.687	35.57
844.858	40.94
845.029	36.37
845.2	34.38
845.371	35.25
845.542	29.78
845.713	19.09
845.884	19.99
846.055	12.04
846.225	12.19
846.396	6.25
846.567	11.51
846.738	6.86
846.909	0.79
847.079	2.53
847.25	7.04
847.421	-0.99
847.591	-6.52
847.762	-11.18
847.933	-14.97
848.103	-5.66
848.274	-8.37
848.445	-15.42
848.615	-15.29
848.786	-23.43
848.956	-20.82
849.127	-10.69
849.297	1.04
849.468	-4.12
849.638	4.49
849.809	2.64
849.979	7.85
850.15	6.46
850.32	9.43
850.491	11.78
850.661	11.87
850.831	9.64
851.002	16.29
851.172	21.28
851.342	23.02
851.513	27.33
851.683	23.77
851.853	24.56
852.024	23.82
852.194	23.98
852.364	27.59
852.534	27.37
852.705	29.47
852.875	24.45
853.045	25.75
853.215	24.41
853.385	27.04
853.555	30.17
853.725	26.61
853.895	23.97
854.066	23.51
854.236	21.78
854.406	19.11
854.576	17.96
854.746	19.32
854.916	22.14
855.086	19.77
855.256	23.68
855.425	26.66
855.595	29.21
855.765	26.54
855.935	21.58
856.105	21.88
856.275	20.34
856.445	21.47
856.614	17.87
856.784	23.87
856.954	21.93
857.124	18.91
857.294	24.27
857.463	26.94
857.633	30.08
857.803	29.68
857.972	31.23
858.142	36.26
858.312	35.25
858.481	34.25
858.651	33.48
858.821	38.04
858.99	38.68
859.16	36.3
859.329	41.82
859.499	48.94
859.668	58.18
859.838	59.35
860.007	58.94
860.177	59.81
860.346	57.64
860.516	53.41
860.685	52.76
860.854	47.17
861.024	42.97
861.193	43.25
861.363	40.04
861.532	41.74
861.701	34.37
861.87	35.92
862.04	32.53
862.209	34.46
862.378	31.46
862.547	26.49
862.717	21.82
862.886	18.48
863.055	11.48
863.224	6.6
863.393	3.52
863.563	-0.46
863.732	2.86
863.901	-3.28
864.07	6.71
864.239	8.34
864.408	11.85
864.577	17.68
864.746	18.74
864.915	23.79
865.084	26.87
865.253	29.48
865.422	27.16
865.591	26.67
865.76	22.05
865.929	16.9
866.097	18.48
866.266	20.79
866.435	19.4
866.604	24.91
866.773	24.43
866.942	27.79
867.11	32.83
867.279	32.53
867.448	53.97
867.617	51.18
867.785	49.34
867.954	38.29
868.123	32.21
868.291	24.05
868.46	27.44
868.629	22.67
868.797	19.18
868.966	26.07
869.134	23.69
869.303	29.37
869.472	26.23
869.64	23.16
869.809	26.61
869.977	25.68
870.146	22.49
870.314	20.89
870.482	17.28
870.651	15.25
870.819	14.98
870.988	0.21
871.156	-12.71
871.324	-18.98
871.493	-20.86
871.661	-7.62
871.829	-4.01
871.998	-7.88
872.166	-16.7
872.334	-10.87
872.502	-10.08
872.671	-15.53
872.839	-13.06
873.007	-3.65
873.175	10.48
873.343	13.94
873.512	19.32
873.68	21.18
873.848	27.45
874.016	29.09
874.184	26.5
874.352	20.03
874.52	24.08
874.688	30.64
874.856	27.56
875.024	32.62
875.192	28.62
875.36	21.49
875.528	24.3
875.696	26.17
875.864	23.58
876.032	21.17
876.199	24.48
876.367	15.08
876.535	10.43
876.703	3.5
876.871	11.71
877.039	7.79
877.206	13.47
877.374	4.17
877.542	14.48
877.71	14.98
877.877	22.32
878.045	23.64
878.213	28.29
878.38	42.87
878.548	49.31
878.715	54.88
878.883	62.15
879.051	72.07
879.218	67.03
879.386	60.89
879.553	61.63
879.721	61.55
879.888	71.43
880.056	80.09
880.223	82.8
880.391	92.83
880.558	95.95
880.726	100.58
880.893	102.01
881.06	76.72
881.228	80.84
881.395	72.35
881.562	74.35
881.73	78.71
881.897	78.03
882.064	69.83
882.231	47.29
882.399	45.24
882.566	26.71
882.733	33.44
882.9	23.31
883.068	39.03
883.235	54.69
883.402	56.88
883.569	52.56
883.736	59.79
883.903	49.51
884.07	52.86
884.237	38.95
884.404	45.94
884.571	60.86
884.738	66.43
884.905	68.65
885.072	60.85
885.239	61.79
885.406	56.72
