Data from Transmission_10-00-51-653.txt Node
Date: Fri Aug 24 10:00:51 EEST 2018
User: tibor.sos
Spectrometer: USB4F01757
Scans to average: 10
Trigger mode: 4
Integration Time (sec): 1.000000E-2
Electric dark correction enabled: true
Boxcar width: 10
XAxis mode: Wavelengths
Number of Pixels in Spectrum: 3648
>>>>>Begin Spectral Data<<<<<
178.758	-13.25
178.974	-69.47
179.191	-113.05
179.407	7.13
179.624	35.57
179.84	36.55
180.057	36.55
180.273	64.32
180.489	68.45
180.706	31.48
180.922	103.93
181.138	121.21
181.355	132.66
181.571	139
181.787	203.43
182.004	178.1
182.22	237.81
182.436	288.05
182.653	229.32
182.869	239.45
183.085	290.73
183.301	256.36
183.518	173.87
183.734	172.82
183.95	200.97
184.166	212.29
184.383	195.88
184.599	194.53
184.815	155.63
185.031	146.24
185.247	157.09
185.463	140.06
185.68	137.34
185.896	150.54
186.112	172.09
186.328	164.64
186.544	202.22
186.76	211.18
186.976	190.12
187.192	207.53
187.408	256.89
187.624	289.35
187.84	242.75
188.056	229.61
188.272	211.57
188.488	205.47
188.704	183.63
188.92	210.93
189.136	185.39
189.352	240.77
189.568	310.14
189.784	354.63
190	317.92
190.216	311.64
190.432	317.72
190.648	369.5
190.864	909.36
191.08	651.59
191.296	296.43
191.511	311.99
191.727	373.18
191.943	346.07
192.159	207.62
192.375	212.2
192.591	273.79
192.806	385.83
193.022	293.67
193.238	583.65
193.454	447.5
193.669	620.15
193.885	515.05
194.101	616.35
194.317	341.34
194.532	1414.61
194.748	-1071.43
194.964	594.62
195.18	231.74
195.395	168.43
195.611	156.82
195.827	410.02
196.042	942.57
196.258	525.15
196.473	374.6
196.689	424.24
196.905	567.29
197.12	1587.13
197.336	664.41
197.551	-481.18
197.767	120300
197.982	406.54
198.198	3423.29
198.414	2762.92
198.629	489.38
198.845	248.09
199.06	347.83
199.276	265.83
199.491	775.68
199.707	294.15
199.922	180.19
200.137	202.45
200.353	170.9
200.568	120.52
200.784	114.81
200.999	131.7
201.215	176.67
201.43	191.93
201.645	169.3
201.861	158.89
202.076	198.04
202.291	246.87
202.507	195.71
202.722	99.52
202.937	153.66
203.153	275.38
203.368	229.76
203.583	178.92
203.798	177.01
204.014	178.66
204.229	164.14
204.444	183.13
204.659	301.72
204.875	470.72
205.09	-557.14
205.305	1100
205.52	-350.41
205.735	-260.48
205.951	1484
206.166	-60.51
206.381	-85.69
206.596	-114.55
206.811	199.42
207.026	-71.96
207.241	-16.49
207.457	181.62
207.672	-53.72
207.887	318.69
208.102	193.95
208.317	169.79
208.532	-481.92
208.747	667.21
208.962	287.64
209.177	-462.42
209.392	-169.78
209.607	51.92
209.822	65.55
210.037	99.78
210.252	153.07
210.467	196.21
210.682	139.93
210.897	112.45
211.112	177.71
211.326	99.06
211.541	84.22
211.756	10.33
211.971	44.91
212.186	-11.69
212.401	-44.68
212.616	-81.86
212.831	-35.29
213.045	-47.81
213.26	-15.15
213.475	-28.46
213.69	-40.82
213.905	-119.65
214.119	-590.5
214.334	6729.63
214.549	929.96
214.764	-955.96
214.978	-523.21
215.193	-771.94
215.408	4679.49
215.622	-960.38
215.837	-3611.11
216.052	1513.79
216.266	132.91
216.481	270.13
216.696	53.85
216.91	1960.61
217.125	338.91
217.34	353.89
217.554	235.14
217.769	-77.73
217.983	3.41
218.198	-124.24
218.412	-91
218.627	125.39
218.842	138.9
219.056	101.4
219.271	107.16
219.485	111.57
219.7	118.72
219.914	109.39
220.129	250.09
220.343	147.97
220.558	98.79
220.772	59.42
220.986	85.12
221.201	46.23
221.415	-59.91
221.63	71.2
221.844	43.74
222.058	36.73
222.273	47.09
222.487	56.86
222.702	173.77
222.916	158.41
223.13	79.54
223.344	73.64
223.559	58.61
223.773	56.99
223.987	37.76
224.202	7.61
224.416	40.41
224.63	14.43
224.844	9.28
225.059	-11.29
225.273	-863.64
225.487	725.6
225.701	122.76
225.915	35.84
226.13	103.79
226.344	106.05
226.558	113.59
226.772	76.74
226.986	81.65
227.2	124.42
227.415	145.86
227.629	166.33
227.843	145.66
228.057	125.83
228.271	96.26
228.485	97.45
228.699	112.25
228.913	125.73
229.127	96.59
229.341	81.16
229.555	97.36
229.769	153.8
229.983	148.13
230.197	204.6
230.411	366.26
230.625	278.48
230.839	269.23
231.053	425.2
231.267	1061.9
231.481	979.81
231.695	583.48
231.909	305.84
232.122	176.76
232.336	203.26
232.55	231.21
232.764	221.88
232.978	253.07
233.192	243.88
233.405	230.7
233.619	261.43
233.833	166.97
234.047	235.51
234.261	166.25
234.474	124.56
234.688	-271.16
234.902	-226.98
235.116	-73.19
235.329	-3.98
235.543	-83.83
235.757	1.22
235.97	62.37
236.184	54.9
236.398	65.12
236.612	104.09
236.825	105.97
237.039	122.6
237.252	78.43
237.466	168.4
237.68	469.49
237.893	7500
238.107	252.57
238.32	-593.91
238.534	265.47
238.748	401.95
238.961	348.6
239.175	323.74
239.388	274.7
239.602	525.22
239.815	284.05
240.029	305.92
240.242	194.92
240.456	177.38
240.669	135.01
240.882	155.04
241.096	371.9
241.309	249.11
241.523	338.94
241.736	437.3
241.95	-824.02
242.163	877.44
242.376	306.18
242.59	549.6
242.803	-3406.67
243.016	-78.25
243.23	31.09
243.443	1686.67
243.656	-139.1
243.87	37.37
244.083	22.59
244.296	38.5
244.509	59.84
244.723	76.91
244.936	64.41
245.149	96.89
245.362	58.34
245.576	30.99
245.789	55.46
246.002	43.63
246.215	61.75
246.428	71.12
246.641	111.34
246.855	161.17
247.068	143.26
247.281	97.8
247.494	77.98
247.707	67.11
247.92	103.86
248.133	85.42
248.346	86.05
248.559	73.48
248.772	49.23
248.985	33.04
249.198	34.97
249.411	47.66
249.624	43.33
249.837	40.38
250.05	45.21
250.263	35.56
250.476	47.81
250.689	38.84
250.902	39
251.115	28.75
251.328	22.41
251.541	31.51
251.754	38.11
251.967	40.78
252.18	37.68
252.393	21.43
252.605	15.79
252.818	18.26
253.031	11.53
253.244	22.46
253.457	23
253.67	16.74
253.882	17.24
254.095	25.26
254.308	33.57
254.521	28.34
254.733	28.69
254.946	25.37
255.159	19.44
255.372	12.93
255.584	16.07
255.797	11.4
256.01	-0.53
256.222	-1.27
256.435	-14.45
256.648	-0.41
256.86	17.71
257.073	27.73
257.285	28.38
257.498	40.76
257.711	31.71
257.923	23.46
258.136	28.75
258.348	24.27
258.561	17.79
258.773	-4.65
258.986	-10.3
259.198	-30.68
259.411	-67.99
259.623	-30.81
259.836	-3.21
260.048	2.06
260.261	20.78
260.473	29.2
260.686	26.39
260.898	24.25
261.111	16.36
261.323	4.78
261.535	9.71
261.748	15.44
261.96	16.44
262.173	19.9
262.385	23.12
262.597	30.15
262.81	35.05
263.022	41.62
263.234	48.62
263.447	45.25
263.659	52.67
263.871	54.79
264.083	54.49
264.296	48.66
264.508	49.33
264.72	42.01
264.932	45.47
265.145	43.32
265.357	43.43
265.569	40.26
265.781	46.7
265.993	56.9
266.205	56.42
266.418	33.15
266.63	9.48
266.842	17.37
267.054	16.75
267.266	4.21
267.478	-5.08
267.69	0.62
267.902	8.46
268.114	5.5
268.326	18.18
268.538	-0.17
268.75	7.43
268.962	3.36
269.174	16.99
269.386	12.22
269.598	17.12
269.81	23.61
270.022	25.53
270.234	24.69
270.446	24.95
270.658	25.46
270.87	37.39
271.082	38.93
271.294	41.95
271.506	32.07
271.718	27.38
271.929	31.52
272.141	35.35
272.353	36
272.565	33.13
272.777	33.75
272.989	41.46
273.2	41.09
273.412	40.71
273.624	42.44
273.836	46.4
274.047	49.34
274.259	50.33
274.471	51.38
274.683	49.9
274.894	50.76
275.106	52.41
275.318	53.31
275.529	60.61
275.741	50.5
275.953	62
276.164	66.1
276.376	59.03
276.588	55.13
276.799	54.85
277.011	56.34
277.222	51.55
277.434	34.7
277.646	29.97
277.857	33.1
278.069	31.78
278.28	20.98
278.492	19.14
278.703	13.85
278.915	19.87
279.126	23.69
279.338	12.34
279.549	19.84
279.761	22.49
279.972	16.16
280.183	19.08
280.395	15.43
280.606	13.48
280.818	8.45
281.029	14.03
281.24	13.99
281.452	12.86
281.663	11.37
281.875	20.24
282.086	20.87
282.297	11.73
282.508	10.49
282.72	18.44
282.931	25.5
283.142	29.69
283.354	26.13
283.565	18.6
283.776	27.02
283.987	15.98
284.199	4.23
284.41	8.62
284.621	12.62
284.832	16.49
285.043	21.1
285.254	23.8
285.466	11
285.677	17.04
285.888	22.06
286.099	25.59
286.31	26.9
286.521	24.37
286.732	28.7
286.943	23.93
287.154	26.22
287.366	12.92
287.577	16.65
287.788	13.51
287.999	22.08
288.21	11.77
288.421	13.63
288.632	9.65
288.843	14.4
289.054	17.65
289.264	13.48
289.475	11.75
289.686	12.36
289.897	18.49
290.108	20.9
290.319	16.27
290.53	18.61
290.741	13.46
290.952	14.23
291.163	17.3
291.373	19.08
291.584	16
291.795	20.66
292.006	13.19
292.217	12.76
292.427	9.18
292.638	14.83
292.849	11.58
293.06	22.99
293.27	19.5
293.481	17.17
293.692	21.64
293.903	23.2
294.113	28.89
294.324	32.06
294.535	21.48
294.745	20.94
294.956	27.38
295.167	23.96
295.377	32.06
295.588	28.37
295.798	30.68
296.009	23.6
296.22	22.94
296.43	21.57
296.641	23.27
296.851	18.5
297.062	13.24
297.272	14.17
297.483	5.51
297.693	5
297.904	6.5
298.114	8.13
298.325	13.76
298.535	5.62
298.746	-1.76
298.956	7.27
299.167	3.99
299.377	-5.2
299.587	2
299.798	-5.09
300.008	-8.44
300.219	-6.94
300.429	6.75
300.639	4.36
300.85	13.06
301.06	12.4
301.27	25.41
301.481	27.83
301.691	26.91
301.901	35.53
302.111	33.93
302.322	30.41
302.532	29.18
302.742	22.58
302.952	24.53
303.163	23.87
303.373	21.04
303.583	27.88
303.793	29.78
304.003	28.78
304.214	32.14
304.424	32.22
304.634	23.41
304.844	19.11
305.054	26.4
305.264	25.51
305.474	24.06
305.684	17.81
305.894	20.45
306.104	21.7
306.314	13.44
306.525	18.41
306.735	12.84
306.945	6.22
307.155	12.56
307.365	14.26
307.575	15.97
307.784	13.04
307.994	7.63
308.204	5.02
308.414	1.37
308.624	-4.4
308.834	-4.99
309.044	1.95
309.254	5.05
309.464	5.38
309.674	3.94
309.884	3.75
310.093	3.22
310.303	1.02
310.513	9.86
310.723	14.24
310.933	11.98
311.142	17.24
311.352	21.29
311.562	20.87
311.772	26.73
311.981	25.43
312.191	26.9
312.401	30.56
312.611	35.33
312.82	32.21
313.03	35.14
313.24	35.79
313.449	40.31
313.659	35.3
313.869	30.96
314.078	33.49
314.288	33.06
314.497	31.3
314.707	32.01
314.917	27.81
315.126	29.45
315.336	32.69
315.545	27.3
315.755	29.44
315.964	24.67
316.174	20.31
316.383	22.77
316.593	17.66
316.802	14.04
317.012	8.6
317.221	14.69
317.431	11.36
317.64	12.96
317.849	-3.09
318.059	-4.63
318.268	1.33
318.478	1.31
318.687	5.16
318.896	7.79
319.106	9.08
319.315	10.61
319.524	-2.27
319.734	-11.45
319.943	-4.75
320.152	-3.69
320.362	-2.06
320.571	-5.46
320.78	-9.25
320.989	3.98
321.199	8.78
321.408	14.02
321.617	11.86
321.826	13.18
322.035	14.01
322.245	26.27
322.454	27.46
322.663	25.88
322.872	23.47
323.081	20.03
323.29	22.6
323.5	21.14
323.709	17.11
323.918	23.55
324.127	25.64
324.336	19.89
324.545	13.69
324.754	15.19
324.963	14.5
325.172	15.99
325.381	14.95
325.59	9.4
325.799	0.77
326.008	-7.48
326.217	-16.51
326.426	-9.66
326.635	-17.69
326.844	-15.58
327.053	-15.36
327.262	-9.24
327.47	-5.59
327.679	-3.8
327.888	-1.47
328.097	5.92
328.306	11.81
328.515	17.38
328.724	21.5
328.932	26.04
329.141	22.72
329.35	24.78
329.559	28.46
329.768	29.2
329.976	32.62
330.185	32.61
330.394	37.53
330.602	44.62
330.811	38.88
331.02	41.82
331.229	42.83
331.437	43.96
331.646	40.56
331.855	38.88
332.063	41.64
332.272	40.89
332.48	37.2
332.689	33.2
332.898	28.14
333.106	27.06
333.315	22
333.523	22.9
333.732	20.55
333.94	22.41
334.149	17.17
334.357	20.91
334.566	26.48
334.774	24.46
334.983	27.43
335.191	20.2
335.4	13.99
335.608	11.29
335.817	4.27
336.025	13.43
336.234	8.74
336.442	8.43
336.65	2.26
336.859	9.45
337.067	8.58
337.275	15.89
337.484	15.87
337.692	17.03
337.9	16.01
338.109	15.11
338.317	-1.46
338.525	-6.43
338.734	-4.97
338.942	-12.72
339.15	-20.1
339.358	-29.37
339.567	-12.82
339.775	-10.32
339.983	-2.19
340.191	-5.51
340.399	-17.31
340.608	4.93
340.816	4.32
341.024	9.09
341.232	2.15
341.44	8.9
341.648	6.55
341.856	12.65
342.064	16.98
342.272	13.05
342.481	20.46
342.689	29.79
342.897	33.03
343.105	24.31
343.313	31.23
343.521	35.16
343.729	33.9
343.937	25.97
344.145	27.57
344.353	21.24
344.56	21.78
344.768	20.26
344.976	15.54
345.184	16.48
345.392	19.06
345.6	18.25
345.808	13.15
346.016	17.6
346.224	17.49
346.431	10.69
346.639	19.32
346.847	20.01
347.055	13.13
347.263	10.49
347.471	17.35
347.678	13.76
347.886	6.83
348.094	18.41
348.302	30.7
348.509	32.51
348.717	34.36
348.925	36.62
349.132	39.7
349.34	36.1
349.548	32.44
349.755	30.24
349.963	38.78
350.171	40.17
350.378	33.05
350.586	31.64
350.793	34.5
351.001	34
351.209	27.45
351.416	35.32
351.624	34.43
351.831	31.54
352.039	31.02
352.246	38.79
352.454	25.92
352.661	24.17
352.869	23.54
353.076	19.33
353.284	27.34
353.491	39.17
353.699	39.83
353.906	45.32
354.113	42.28
354.321	35.51
354.528	31.18
354.736	33.45
354.943	31.14
355.15	34.01
355.358	27.63
355.565	28.92
355.772	28.6
355.98	33.35
356.187	31.16
356.394	21.8
356.601	24.63
356.809	31.87
357.016	34.49
357.223	30.86
357.43	30.59
357.638	29.49
357.845	21.53
358.052	16.7
358.259	9.81
358.466	19.29
358.673	20.4
358.881	23.48
359.088	20.27
359.295	17.2
359.502	7.41
359.709	17.4
359.916	19.04
360.123	13.02
360.33	2.57
360.537	7.41
360.744	21.1
360.951	14.75
361.158	9.59
361.365	10.86
361.572	18.37
361.779	31.24
361.986	26.24
362.193	21.06
362.4	26.48
362.607	19.39
362.814	12.67
363.021	10.81
363.228	16.22
363.435	24.47
363.641	28.67
363.848	37.44
364.055	33.8
364.262	31.18
364.469	28.24
364.676	34.38
364.882	29.51
365.089	20.5
365.296	22.91
365.503	20.54
365.709	14.54
365.916	13.91
366.123	10.5
366.33	11.68
366.536	17.57
366.743	10.83
366.95	15
367.156	8.6
367.363	10.73
367.57	3.52
367.776	-0.74
367.983	4.64
368.19	1.69
368.396	2.86
368.603	4.69
368.809	15.7
369.016	16.13
369.222	15.76
369.429	22.2
369.635	23.09
369.842	26.88
370.048	32.09
370.255	30.83
370.461	22.15
370.668	24.16
370.874	19.61
371.081	22.02
371.287	26.97
371.494	28.48
371.7	25.84
371.906	24.05
372.113	24.62
372.319	18.99
372.526	24.68
372.732	20.04
372.938	14.09
373.145	11.73
373.351	8.76
373.557	8.51
373.763	1.24
373.97	1.87
374.176	2.14
374.382	3.64
374.588	1.95
374.795	9.15
375.001	0.04
375.207	3.06
375.413	3.14
375.62	0.43
375.826	-1.25
376.032	7.89
376.238	8.4
376.444	6.37
376.65	9.33
376.856	4.5
377.062	7.87
377.269	20.13
377.475	11.83
377.681	8.7
377.887	8.18
378.093	4.58
378.299	1.77
378.505	8.61
378.711	8.25
378.917	5.52
379.123	8.68
379.329	17.02
379.535	23.23
379.741	23.62
379.947	27.87
380.152	28.67
380.358	25.16
380.564	24.01
380.77	19.46
380.976	14.59
381.182	12.63
381.388	10.38
381.594	0.69
381.799	11
382.005	10.98
382.211	16.2
382.417	24.54
382.623	24.63
382.828	26.25
383.034	21.9
383.24	23.73
383.445	19.75
383.651	18.63
383.857	5.56
384.063	14.02
384.268	-3.61
384.474	1.26
384.68	-2.68
384.885	3.2
385.091	8.64
385.296	14.44
385.502	17.38
385.708	22.46
385.913	19.36
386.119	11.39
386.324	23.09
386.53	14.87
386.735	2.12
386.941	6.95
387.146	9.36
387.352	19.31
387.557	21.94
387.763	20.58
387.968	13.48
388.174	23.38
388.379	18.72
388.585	26.05
388.79	23.75
388.996	26.98
389.201	31.97
389.406	25.74
389.612	18.08
389.817	20.87
390.022	21.38
390.228	29.15
390.433	29.25
390.638	24.4
390.844	35.58
391.049	34.19
391.254	36.66
391.459	35.73
391.665	29.21
391.87	23.82
392.075	31.1
392.28	33.42
392.485	29.57
392.691	25.18
392.896	19.96
393.101	17.74
393.306	25.32
393.511	25.55
393.716	31.69
393.922	35.9
394.127	31.87
394.332	39.75
394.537	36.24
394.742	36.56
394.947	30.9
395.152	20.16
395.357	24.54
395.562	16.63
395.767	2.44
395.972	10.21
396.177	15.82
396.382	12.83
396.587	12.39
396.792	15.96
396.997	22.54
397.202	29.91
397.407	29.82
397.611	24.12
397.816	19.8
398.021	16.32
398.226	13.08
398.431	16.8
398.636	8.4
398.841	6.38
399.045	12.89
399.25	13.92
399.455	16.27
399.66	14.78
399.864	15.9
400.069	15.64
400.274	18.26
400.479	11.22
400.683	8.22
400.888	11.9
401.093	4.37
401.297	3.74
401.502	1.3
401.707	-6.83
401.911	0.62
402.116	0.75
402.321	8.67
402.525	9.54
402.73	3.55
402.934	6.3
403.139	19.13
403.344	14.94
403.548	11.64
403.753	14.59
403.957	13.78
404.162	8.05
404.366	26.69
404.571	14.88
404.775	19.72
404.98	19.94
405.184	12.83
405.388	16.75
405.593	4.37
405.797	4.08
406.002	18.48
406.206	11.11
406.41	16.87
406.615	20.52
406.819	24.78
407.023	23.54
407.228	22.69
407.432	10.94
407.636	3.34
407.841	13.75
408.045	16.41
408.249	12.58
408.453	25.54
408.658	16.74
408.862	25.54
409.066	32.31
409.27	35.36
409.474	30.78
409.679	23.95
409.883	31.73
410.087	32.33
410.291	32.17
410.495	30.77
410.699	31.03
410.903	30.13
411.108	35.32
411.312	37.35
411.516	27.81
411.72	41.31
411.924	41.23
412.128	38.67
412.332	25.03
412.536	34.49
412.74	31.33
412.944	27.68
413.148	18.81
413.352	14.73
413.556	4.43
413.76	17.7
413.964	30.42
414.167	27.43
414.371	37.08
414.575	39.26
414.779	43.78
414.983	42.74
415.187	45.73
415.391	41.44
415.594	48.49
415.798	57.42
416.002	51.46
416.206	55.79
416.41	56.78
416.613	63.88
416.817	58.7
417.021	63.9
417.225	68.66
417.428	69.5
417.632	49.21
417.836	51.75
418.039	51.74
418.243	51.42
418.447	45.14
418.65	30.52
418.854	27.95
419.057	35.42
419.261	34.91
419.465	25.89
419.668	39.31
419.872	31.8
420.075	19.05
420.279	28.48
420.482	30.59
420.686	31.9
420.889	27.39
421.093	34.19
421.296	36.04
421.5	35.41
421.703	36.99
421.907	57.37
422.11	58.27
422.314	65.59
422.517	55.65
422.72	61.03
422.924	61.57
423.127	72.48
423.33	64.79
423.534	72.64
423.737	77.52
423.94	75.46
424.144	72.05
424.347	71.78
424.55	71.31
424.754	72.12
424.957	74.5
425.16	73.66
425.363	72.03
425.567	67.97
425.77	56.64
425.973	56.34
426.176	43.4
426.379	44.66
426.582	40.7
426.786	56.22
426.989	53.99
427.192	62.64
427.395	51.13
427.598	46.83
427.801	44.93
428.004	41.06
428.207	29.43
428.41	30.04
428.613	26.34
428.816	29.43
429.019	27.14
429.222	21.03
429.425	23.19
429.628	22.91
429.831	17.21
430.034	21.42
430.237	22.18
430.44	26.63
430.643	15.59
430.846	15.74
431.049	3.69
431.252	9.81
431.454	6.8
431.657	1.52
431.86	8.62
432.063	9.74
432.266	12.52
432.469	15.86
432.671	16.48
432.874	24.5
433.077	11.94
433.28	17.14
433.482	23.04
433.685	18.43
433.888	13.13
434.09	19.24
434.293	17.07
434.496	14.49
434.698	9.51
434.901	26.7
435.104	27.19
435.306	32.9
435.509	33.07
435.712	34.08
435.914	28.44
436.117	18.42
436.319	20.6
436.522	12.61
436.724	6.6
436.927	5.57
437.129	-1.59
437.332	7.06
437.534	7.31
437.737	1.44
437.939	6.88
438.142	10.46
438.344	5.04
438.547	8.63
438.749	15.12
438.951	10.51
439.154	14.7
439.356	7.34
439.558	2.73
439.761	11.11
439.963	12.86
440.165	17.69
440.368	31.99
440.57	14.76
440.772	20.38
440.975	17.58
441.177	23.77
441.379	30.59
441.581	21.69
441.784	9.64
441.986	17.36
442.188	15.14
442.39	8.07
442.592	0.6
442.795	7.99
442.997	3.92
443.199	3.4
443.401	9.66
443.603	13.63
443.805	10.13
444.007	8.03
444.209	10.39
444.411	21.57
444.613	13.18
444.815	23.27
445.017	25.01
445.219	32.15
445.421	25.11
445.623	24.97
445.825	30.62
446.027	35.13
446.229	30.75
446.431	35.31
446.633	46.1
446.835	50.45
447.037	43.34
447.239	42.03
447.441	52.61
447.643	38.17
447.844	24.81
448.046	46.5
448.248	37.45
448.45	42.07
448.652	29.06
448.853	38.62
449.055	41.97
449.257	41.69
449.459	24.55
449.66	38.22
449.862	33.75
450.064	33.57
450.266	32.24
450.467	37.2
450.669	34.8
450.871	28.16
451.072	36.55
451.274	45.85
451.475	53.63
451.677	54.52
451.879	58.73
452.08	60.32
452.282	36.15
452.483	53.84
452.685	50.93
452.886	55.03
453.088	32.95
453.289	19.29
453.491	0.31
453.692	1.58
453.894	-8.83
454.095	-1.31
454.297	-10.53
454.498	-3.19
454.7	-5.88
454.901	-4.15
455.102	2.29
455.304	2.94
455.505	4.14
455.706	-4.48
455.908	-16.78
456.109	-23.23
456.31	-20.52
456.512	-29.48
456.713	-22.92
456.914	-33.8
457.116	-45.1
457.317	-32.64
457.518	-32.98
457.719	-22.98
457.921	-14.31
458.122	-14.68
458.323	-15.89
458.524	-7.7
458.725	-6.76
458.926	-4.45
459.128	-1.13
459.329	-2.33
459.53	-7.26
459.731	-21.33
459.932	-25.69
460.133	-12.17
460.334	9.44
460.535	23.42
460.736	18.04
460.937	15.3
461.138	11.38
461.339	24.02
461.54	28.4
461.741	25.39
461.942	22.84
462.143	23.58
462.344	20.7
462.545	23.18
462.746	19.77
462.947	10.5
463.148	5.43
463.348	4.63
463.549	2.4
463.75	-5.89
463.951	10.13
464.152	12.53
464.353	14.22
464.553	21.46
464.754	21.44
464.955	30.87
465.156	23.09
465.356	30.87
465.557	22.57
465.758	22.34
465.959	25.9
466.159	25.58
466.36	26.04
466.561	23.97
466.761	14.41
466.962	17.89
467.163	21.37
467.363	21.22
467.564	21.91
467.764	28.24
467.965	30.76
468.166	19.99
468.366	28.26
468.567	25.66
468.767	21.03
468.968	13.83
469.168	10.62
469.369	20.17
469.569	13.89
469.77	20.4
469.97	18.87
470.17	22.55
470.371	20.28
470.571	19.31
470.772	27.29
470.972	37.49
471.172	33.69
471.373	26.83
471.573	25.85
471.773	23.55
471.974	22.31
472.174	27.1
472.374	30.06
472.575	29.34
472.775	27.43
472.975	18.74
473.175	23.72
473.376	26.1
473.576	21.69
473.776	26.54
473.976	26.81
474.177	33.14
474.377	31.41
474.577	33.17
474.777	28.06
474.977	26.52
475.177	26.76
475.377	31.47
475.577	44.25
475.777	47.14
475.978	47.54
476.178	43.86
476.378	41.19
476.578	50.12
476.778	42.83
476.978	43.76
477.178	46.21
477.378	46.3
477.578	42.07
477.778	41.29
477.977	37.88
478.177	31.32
478.377	25.8
478.577	29.54
478.777	33.41
478.977	38.05
479.177	33.1
479.377	28.98
479.577	23.98
479.776	15.04
479.976	9.92
480.176	9.48
480.376	12.41
480.576	16.58
480.775	7.27
480.975	11.21
481.175	6.12
481.374	3.97
481.574	6.56
481.774	4.38
481.974	7.08
482.173	10.17
482.373	12.43
482.572	11.8
482.772	12.59
482.972	10.61
483.171	12.54
483.371	19.92
483.57	20.72
483.77	25.76
483.97	26.36
484.169	26.09
484.369	21.03
484.568	18.46
484.768	15.96
484.967	18.54
485.167	19.6
485.366	20.25
485.566	22.48
485.765	21.52
485.964	22.53
486.164	18.27
486.363	15.76
486.563	18.09
486.762	23.86
486.961	22.05
487.161	20.67
487.36	16.14
487.559	13.81
487.759	13.41
487.958	10.24
488.157	9.03
488.356	14.45
488.556	20.86
488.755	19.91
488.954	18.84
489.153	20.69
489.353	16.82
489.552	16.35
489.751	12.21
489.95	13.08
490.149	14.59
490.348	14.01
490.548	18.8
490.747	13.57
490.946	7.68
491.145	5.99
491.344	8.44
491.543	4.99
491.742	3.48
491.941	2.42
492.14	0.22
492.339	-1.32
492.538	-3
492.737	-2.24
492.936	-0.68
493.135	4
493.334	-0.01
493.533	-3.4
493.732	8.79
493.931	14.73
494.13	10.3
494.328	18.14
494.527	20.87
494.726	17.19
494.925	15.64
495.124	13.07
495.323	14.11
495.521	15.26
495.72	20.12
495.919	18.46
496.118	21.97
496.316	22.69
496.515	22.85
496.714	20.62
496.913	21.23
497.111	18.18
497.31	12.51
497.509	10.91
497.707	17.52
497.906	12.82
498.105	7.03
498.303	9.06
498.502	4.05
498.7	7.09
498.899	2.65
499.097	3.73
499.296	6.65
499.495	5.54
499.693	3.69
499.892	0.82
500.09	-1.98
500.289	-1.19
500.487	-2.4
500.686	0.3
500.884	0.09
501.082	-1.27
501.281	-0.28
501.479	4.33
501.678	6.26
501.876	4.31
502.074	4.78
502.273	7.17
502.471	4.86
502.669	3.17
502.868	-1.46
503.066	1.09
503.264	7.65
503.463	7.76
503.661	3.12
503.859	1.47
504.057	2.69
504.256	5.78
504.454	2.8
504.652	4.23
504.85	7.8
505.048	9.34
505.246	8.31
505.445	11.76
505.643	12.28
505.841	15.32
506.039	18.57
506.237	17.67
506.435	17.27
506.633	17.08
506.831	19.37
507.029	21.39
507.227	23.7
507.425	22.12
507.623	22.21
507.821	24.08
508.019	27.59
508.217	27.7
508.415	30.75
508.613	31.52
508.811	31.58
509.009	29.94
509.207	29.63
509.405	28.25
509.603	26.48
509.8	22.14
509.998	20.21
510.196	19.52
510.394	18.32
510.592	18.57
510.79	18.16
510.987	15.65
511.185	16.54
511.383	13.28
511.581	13.13
511.778	16.64
511.976	18.77
512.174	14.84
512.371	13.51
512.569	10.17
512.767	10.88
512.964	6.3
513.162	8.46
513.36	7.98
513.557	8.21
513.755	8.77
513.952	13.25
514.15	13.13
514.348	11.29
514.545	7.58
514.743	10.45
514.94	14.29
515.138	14.24
515.335	13.49
515.533	15.92
515.73	14.34
515.927	11.3
516.125	11.24
516.322	12.03
516.52	15.07
516.717	13.83
516.915	11.34
517.112	14.62
517.309	11.1
517.507	10.87
517.704	9.42
517.901	9.42
518.099	7.67
518.296	7.63
518.493	9.74
518.69	12.19
518.888	12.01
519.085	10.98
519.282	11.79
519.479	13
519.676	11.32
519.874	8.47
520.071	7.18
520.268	6.72
520.465	6.31
520.662	8.37
520.859	7.4
521.056	7.55
521.254	11.45
521.451	11.85
521.648	12.17
521.845	11.2
522.042	14.88
522.239	17.72
522.436	16.44
522.633	10.67
522.83	9.42
523.027	7.02
523.224	7.61
523.421	8.03
523.618	4.53
523.815	7.43
524.011	10.49
524.208	13.7
524.405	15.3
524.602	18
524.799	9.75
524.996	11.53
525.193	9.47
525.389	5.15
525.586	1.36
525.783	0.41
525.98	4.49
526.176	2.46
526.373	-2.21
526.57	1.65
526.767	1.28
526.963	5.47
527.16	11.75
527.357	10.53
527.553	11.59
527.75	10.04
527.947	6.38
528.143	12.6
528.34	11.34
528.537	4.8
528.733	4.77
528.93	6.64
529.126	8.19
529.323	8.29
529.519	8.63
529.716	11.67
529.912	11.76
530.109	9.95
530.305	6.52
530.502	9.06
530.698	6.75
530.895	5.36
531.091	4.43
531.288	-0.94
531.484	-1.58
531.68	-1.6
531.877	0.99
532.073	1.14
532.269	-5.12
532.466	-10.04
532.662	-6.99
532.858	-8.42
533.055	-5.15
533.251	-6.86
533.447	-5.88
533.643	-2.68
533.84	-3.9
534.036	-4.47
534.232	-0.34
534.428	-0.88
534.624	-2.5
534.821	-1.85
535.017	2.36
535.213	0.84
535.409	3.59
535.605	1.28
535.801	-2.01
535.997	-2.1
536.193	-1.21
536.389	1.48
536.586	6.59
536.782	6.72
536.978	5.99
537.174	4.42
537.37	6.63
537.566	9.39
537.762	4.85
537.958	8.96
538.153	8.32
538.349	4.94
538.545	8.22
538.741	6.65
538.937	4.2
539.133	4.63
539.329	6.55
539.525	6.85
539.721	14.82
539.916	17.41
540.112	13.56
540.308	17.36
540.504	16.01
540.699	14.93
540.895	15.82
541.091	21.07
541.287	21.38
541.482	16.27
541.678	16.44
541.874	16.17
542.069	13.52
542.265	16.77
542.461	17.57
542.656	18.54
542.852	20.48
543.048	20.9
543.243	18.73
543.439	18.54
543.634	15.97
543.83	11.07
544.025	10.84
544.221	12.8
544.417	9.65
544.612	9.38
544.807	10.06
545.003	9.39
545.198	3.52
545.394	3.77
545.589	7.25
545.785	7.16
545.98	8.72
546.176	7.67
546.371	4.22
546.566	3.73
546.762	0.62
546.957	0.55
547.152	1.55
547.348	2.23
547.543	4.7
547.738	1.79
547.933	1.39
548.129	3.01
548.324	1.92
548.519	0.59
548.714	3.17
548.91	3.84
549.105	2.21
549.3	4.07
549.495	5.07
549.69	5.5
549.885	3.6
550.08	5.15
550.276	7.47
550.471	11.26
550.666	9.53
550.861	10.69
551.056	8.19
551.251	7.08
551.446	8.1
551.641	5.47
551.836	7.18
552.031	6.25
552.226	7.56
552.421	9.75
552.616	13.06
552.811	11.9
553.006	10.53
553.201	9.13
553.395	8.71
553.59	5.5
553.785	6.99
553.98	8.68
554.175	3.47
554.37	4.44
554.565	2.34
554.759	1.77
554.954	-0.24
555.149	3.22
555.344	2.53
555.538	2.02
555.733	1.19
555.928	5.03
556.122	7.07
556.317	3.2
556.512	1.14
556.706	0.36
556.901	1.47
557.096	2.23
557.29	5.16
557.485	6.94
557.68	7.88
557.874	7.52
558.069	8.15
558.263	10.68
558.458	8.81
558.652	8.71
558.847	10.57
559.041	13.22
559.236	8.76
559.43	9
559.625	8.66
559.819	9.93
560.014	8.46
560.208	7.72
560.402	9.11
560.597	11.1
560.791	11.26
560.986	9.32
561.18	9.71
561.374	9.05
561.569	8.86
561.763	10.14
561.957	4.47
562.151	2.45
562.346	5.64
562.54	8.31
562.734	8.35
562.928	6.17
563.123	5.69
563.317	6.97
563.511	8.6
563.705	6.01
563.899	5.54
564.093	5.78
564.288	5.58
564.482	3.42
564.676	5.3
564.87	6.1
565.064	7.05
565.258	6.28
565.452	5.87
565.646	5.08
565.84	1.79
566.034	6.1
566.228	7.47
566.422	6.84
566.616	5.32
566.81	4.71
567.004	6.65
567.198	7.27
567.392	6.78
567.586	4.21
567.779	6.47
567.973	5.72
568.167	5.57
568.361	5.8
568.555	8.05
568.749	5.91
568.942	2.66
569.136	4.63
569.33	3.16
569.524	4.36
569.718	7.05
569.911	8.79
570.105	8.77
570.299	8.3
570.492	8.69
570.686	9.67
570.88	10.89
571.073	9.57
571.267	10.57
571.461	10.85
571.654	11.98
571.848	12.07
572.041	12.32
572.235	11.33
572.429	13.38
572.622	12.03
572.816	13.97
573.009	15.26
573.203	12.81
573.396	15.95
573.59	14.66
573.783	11.9
573.976	11.53
574.17	12.24
574.363	12.13
574.557	9.51
574.75	8.41
574.943	9.51
575.137	12.51
575.33	12.08
575.523	13.05
575.717	12.92
575.91	11.43
576.103	11.56
576.297	11.72
576.49	9.65
576.683	10.81
576.876	9.7
577.07	8.36
577.263	10.08
577.456	9.05
577.649	7.55
577.842	7.11
578.036	6.28
578.229	5.52
578.422	7.49
578.615	8.36
578.808	7.26
579.001	7.76
579.194	6.54
579.387	7.86
579.58	8.02
579.773	7.06
579.966	8.43
580.159	7.18
580.352	8.25
580.545	8.48
580.738	7.32
580.931	5.81
581.124	6.86
581.317	4.04
581.51	2.79
581.703	4.5
581.896	5.3
582.088	7.16
582.281	8.46
582.474	7.17
582.667	8.1
582.86	9.19
583.053	8.21
583.245	8.33
583.438	5.62
583.631	6.99
583.824	7.85
584.016	7.13
584.209	7.2
584.402	5.87
584.594	6.48
584.787	7.22
584.98	6.25
585.172	8.86
585.365	9.65
585.558	10.21
585.75	10.74
585.943	10.97
586.135	10.82
586.328	10.98
586.52	11.55
586.713	10.19
586.906	10.2
587.098	10.85
587.291	12.31
587.483	11.71
587.675	10.46
587.868	10.88
588.06	10.33
588.253	13.4
588.445	12.16
588.638	11.27
588.83	11.5
589.022	13.01
589.215	10.73
589.407	11.67
589.599	11.91
589.792	12.96
589.984	13.21
590.176	12.85
590.368	13.06
590.561	11.81
590.753	13
590.945	13.03
591.137	11.78
591.33	9.24
591.522	13.17
591.714	11.73
591.906	14.36
592.098	14.99
592.29	13.02
592.482	15.57
592.674	16.95
592.867	16.07
593.059	15.67
593.251	16.27
593.443	15.71
593.635	15.03
593.827	13
594.019	11.84
594.211	11.42
594.403	11.11
594.595	11.76
594.787	10.04
594.979	10.25
595.17	9.7
595.362	10.52
595.554	7.55
595.746	8.81
595.938	5.11
596.13	4.09
596.322	5.16
596.513	1.95
596.705	1.48
596.897	0.87
597.089	1.57
597.281	0.63
597.472	0.74
597.664	-0.9
597.856	-0.04
598.048	0.66
598.239	0.78
598.431	-0.48
598.623	-2.6
598.814	-3.98
599.006	-3.58
599.197	-2.95
599.389	-3.07
599.581	-4.05
599.772	-3.31
599.964	-0.74
600.155	0.14
600.347	-0.42
600.538	2.39
600.73	2.65
600.921	3.03
601.113	1.85
601.304	3.6
601.496	5.29
601.687	6.13
601.879	4.73
602.07	5.06
602.262	5.48
602.453	5.52
602.644	5.67
602.836	7.45
603.027	6.66
603.218	5.99
603.41	5.62
603.601	6.58
603.792	6.46
603.983	4.73
604.175	5.89
604.366	5.61
604.557	5.43
604.748	4.12
604.94	5.75
605.131	6.58
605.322	6.11
605.513	6.39
605.704	8.23
605.895	10.41
606.086	9.57
606.278	9.54
606.469	11.43
606.66	13.41
606.851	13.34
607.042	12.65
607.233	12.61
607.424	13.25
607.615	12.93
607.806	11.66
607.997	11.79
608.188	11.79
608.379	9.96
608.57	8.83
608.761	10.02
608.952	9.41
609.142	10.37
609.333	9.02
609.524	7.83
609.715	7.71
609.906	6.86
610.097	8.46
610.287	8.05
610.478	5.7
610.669	5.83
610.86	4.81
611.051	5.38
611.241	5.7
611.432	4.87
611.623	5.38
611.813	5.03
612.004	6.71
612.195	7.5
612.385	7.27
612.576	8.39
612.767	8.21
612.957	7.67
613.148	7.83
613.338	7.66
613.529	7.57
613.72	6.97
613.91	6.82
614.101	4.51
614.291	4.75
614.482	5.07
614.672	3.59
614.863	4.78
615.053	4.73
615.243	5.26
615.434	5.91
615.624	5.6
615.815	7.34
616.005	4.7
616.195	2.77
616.386	3.16
616.576	3.67
616.766	3.96
616.957	4.03
617.147	2.21
617.337	1.53
617.528	0.43
617.718	1.45
617.908	1.11
618.098	1.85
618.289	3.36
618.479	4.33
618.669	6.06
618.859	6.29
619.049	6.65
619.239	7.24
619.43	6.17
619.62	6.09
619.81	7.31
620	8.73
620.19	8.91
620.38	9.02
620.57	8.46
620.76	7.19
620.95	8.19
621.14	8.71
621.33	8.61
621.52	9.85
621.71	8.25
621.9	7.55
622.09	8.36
622.28	8.08
622.47	5.72
622.659	4.32
622.849	3.94
623.039	5.17
623.229	3.27
623.419	3.68
623.609	4.11
623.799	0.54
623.988	-0.48
624.178	0.8
624.368	-0.36
624.558	-0.42
624.747	-0.99
624.937	-0.18
625.127	-0.9
625.316	-0.36
625.506	0.42
625.696	0.74
625.885	1.73
626.075	0.72
626.265	1.7
626.454	4.11
626.644	5.96
626.833	5.79
627.023	4.19
627.212	4.92
627.402	7.63
627.591	7.5
627.781	8.86
627.97	9.61
628.16	9.02
628.349	9.79
628.539	8.42
628.728	9.98
628.918	8.52
629.107	9.97
629.296	9.22
629.486	8.24
629.675	8.67
629.865	8.03
630.054	10.13
630.243	7.23
630.432	6.55
630.622	5.26
630.811	7.21
631	7.39
631.19	8.56
631.379	5.86
631.568	5.58
631.757	5.87
631.946	6.04
632.136	7.06
632.325	6.88
632.514	8.75
632.703	8.44
632.892	7
633.081	6.06
633.27	8.15
633.459	8.64
633.648	7.74
633.837	9.1
634.026	7.35
634.215	8.79
634.404	8.47
634.593	10.18
634.782	8.91
634.971	9.31
635.16	5.78
635.349	5.36
635.538	6.86
635.727	5.94
635.916	4.8
636.105	4.05
636.294	6.79
636.482	5.48
636.671	5.2
636.86	6.8
637.049	6.92
637.238	6.62
637.426	4.94
637.615	4.44
637.804	4
637.993	4.74
638.181	5.17
638.37	6.01
638.559	3.82
638.747	4.44
638.936	4.93
639.125	8.48
639.313	8.48
639.502	8.01
639.691	7.67
639.879	6.48
640.068	5.31
640.256	3.43
640.445	3.99
640.633	4.42
640.822	3.25
641.01	3.64
641.199	2.96
641.387	4.83
641.576	6.74
641.764	6.73
641.953	6.96
642.141	6.75
642.329	7.86
642.518	8.29
642.706	6.9
642.894	5.78
643.083	4.11
643.271	4.44
643.459	4.58
643.648	6.36
643.836	7.39
644.024	8.59
644.213	8.53
644.401	7.99
644.589	6.87
644.777	8.02
644.965	8.07
645.154	8.38
645.342	8.53
645.53	8.77
645.718	8.6
645.906	7.63
646.094	6.9
646.282	5.05
646.47	6.26
646.658	7.33
646.846	7.51
647.034	9.82
647.223	10.6
647.411	10.94
647.599	8.51
647.786	10.15
647.974	9.89
648.162	9.88
648.35	9.34
648.538	10.76
648.726	11.9
648.914	12.41
649.102	12.63
649.29	11.89
649.478	11.66
649.665	12.89
649.853	12.87
650.041	13.34
650.229	13.9
650.417	12.25
650.604	11.05
650.792	11.29
650.98	10.54
651.168	8.66
651.355	8.07
651.543	8.84
651.731	8.06
651.918	7.07
652.106	7.98
652.294	8.76
652.481	9.22
652.669	7.82
652.856	6.97
653.044	6.26
653.231	5.04
653.419	3.97
653.606	2.67
653.794	3.59
653.981	3.57
654.169	2.96
654.356	2.92
654.544	3.64
654.731	2.67
654.919	0.46
655.106	1.03
655.294	1.6
655.481	3.37
655.668	4.14
655.856	3.64
656.043	4.05
656.23	3.87
656.418	3.13
656.605	2.92
656.792	4.31
656.979	4.31
657.167	5.65
657.354	7.09
657.541	7.11
657.728	6.81
657.916	6.01
658.103	6.28
658.29	7.46
658.477	8.39
658.664	9.48
658.851	10.99
659.038	11.27
659.225	10.19
659.412	10.13
659.6	8.51
659.787	10.41
659.974	9.07
660.161	10.59
660.348	10.26
660.535	11.53
660.722	8.47
660.909	7.59
661.095	7.94
661.282	6.59
661.469	7.76
661.656	6.19
661.843	7.33
662.03	7.48
662.217	6.94
662.404	6.32
662.59	4.71
662.777	3.6
662.964	3.42
663.151	4.7
663.338	3.25
663.524	3.18
663.711	1.55
663.898	3.68
664.085	3.01
664.271	2.92
664.458	2.77
664.645	4.66
664.831	6.48
665.018	5.82
665.204	6.32
665.391	4.64
665.578	6.12
665.764	5.26
665.951	4.66
666.137	4.88
666.324	4.95
666.51	6.11
666.697	6.86
666.883	8.17
667.07	7.23
667.256	8.57
667.443	8.55
667.629	8.51
667.816	6.42
668.002	5.52
668.188	5.94
668.375	5.2
668.561	5.19
668.747	3.52
668.934	3.4
669.12	2.13
669.306	3.77
669.493	3.33
669.679	4.51
669.865	4.08
670.051	4.33
670.238	4.65
670.424	4.23
670.61	3.67
670.796	3.02
670.982	2.13
671.169	1.03
671.355	0.81
671.541	0.41
671.727	-0.21
671.913	0.46
672.099	0.52
672.285	-0.76
672.471	-0.68
672.657	0.91
672.843	2.35
673.029	2.2
673.215	1.66
673.401	3.18
673.587	2.87
673.773	3.81
673.959	2.88
674.145	2.15
674.331	3.29
674.517	4.44
674.703	5.2
674.888	6.15
675.074	6.01
675.26	7.16
675.446	7.97
675.632	8.08
675.817	7.9
676.003	7.83
676.189	7.38
676.375	6.77
676.56	6.05
676.746	4.62
676.932	3.76
677.117	2.85
677.303	1.53
677.489	1.39
677.674	-0.06
677.86	-0.75
678.046	-0.44
678.231	-2
678.417	-2.05
678.602	-3
678.788	-3.06
678.973	-2.76
679.159	-1.15
679.344	-0.31
679.53	0.28
679.715	0.86
679.901	-0.67
680.086	0.59
680.272	1.86
680.457	1.35
680.643	1.46
680.828	3.1
681.013	3.19
681.199	2.95
681.384	3.04
681.569	4.43
681.755	5.91
681.94	5.96
682.125	6.81
682.31	7.37
682.496	5.9
682.681	6.93
682.866	7.03
683.051	4.58
683.237	3.83
683.422	5.01
683.607	3.11
683.792	4.93
683.977	4.84
684.162	3.4
684.347	4.27
684.532	4.29
684.717	4.17
684.903	4.75
685.088	5.38
685.273	4.22
685.458	3.82
685.643	3.24
685.828	2.31
686.013	2.84
686.198	0.21
686.382	1.63
686.567	0.32
686.752	1.46
686.937	3.25
687.122	3.16
687.307	2.4
687.492	4.55
687.677	3.73
687.861	5.11
688.046	4.58
688.231	4.94
688.416	5.5
688.601	5.49
688.785	5.8
688.97	5.93
689.155	6.83
689.339	8.18
689.524	7.26
689.709	8.6
689.893	8.54
690.078	9.09
690.263	10.44
690.447	10.53
690.632	8.75
690.816	9.79
691.001	10.47
691.186	10.22
691.37	9.31
691.555	10.05
691.739	9.3
691.924	10.69
692.108	9.98
692.293	10.58
692.477	10.79
692.661	11.26
692.846	10.95
693.03	11.42
693.215	9.96
693.399	10.08
693.583	9.49
693.768	9.25
693.952	10.64
694.136	9.42
694.321	10.14
694.505	9.91
694.689	8.21
694.873	7.95
695.058	8.34
695.242	8.55
695.426	8.03
695.61	7.38
695.794	6.75
695.979	5.9
696.163	3.89
696.347	4.03
696.531	2.7
696.715	3.42
696.899	2.95
697.083	2.75
697.267	3.9
697.451	3.67
697.635	3.65
697.819	2.51
698.003	2.36
698.187	1.47
698.371	3.22
698.555	3.48
698.739	4.2
698.923	3
699.107	3.55
699.291	2.93
699.475	3.03
699.659	2.51
699.842	4.27
700.026	4.52
700.21	3.41
700.394	4.35
700.578	4.28
700.761	4.53
700.945	6.07
701.129	5.72
701.313	5.04
701.496	5.98
701.68	5.72
701.864	5.57
702.047	6.78
702.231	8.55
702.415	7.37
702.598	6.18
702.782	7.71
702.965	7.19
703.149	7.94
703.333	7.27
703.516	7.61
703.7	6.88
703.883	8.53
704.067	8.88
704.25	9.4
704.434	7.21
704.617	6.69
704.801	5.72
704.984	5.93
705.167	6.65
705.351	5.74
705.534	7.5
705.718	8.02
705.901	6.47
706.084	3.56
706.268	4.83
706.451	3.7
706.634	2.91
706.817	2.66
707.001	2.18
707.184	4.09
707.367	4.09
707.55	4.26
707.734	3.95
707.917	4.3
708.1	3.27
708.283	5.51
708.466	5.47
708.649	5.28
708.832	5.39
709.015	6.62
709.199	6.79
709.382	6.43
709.565	6.85
709.748	8.76
709.931	9.09
710.114	8.83
710.297	10.24
710.48	11.47
710.663	11.75
710.846	12.5
711.028	11.11
711.211	10.88
711.394	9.96
711.577	8.13
711.76	6.46
711.943	7.44
712.126	7.3
712.309	8.06
712.491	8.51
712.674	7.24
712.857	6.39
713.04	6.59
713.222	6.17
713.405	5.09
713.588	4.44
713.771	5.02
713.953	4.77
714.136	4.22
714.319	4.54
714.501	2.92
714.684	2.02
714.866	1.91
715.049	2.79
715.232	3.67
715.414	5.29
715.597	6.82
715.779	5.52
715.962	6.2
716.144	5.46
716.327	5.86
716.509	6.53
716.692	4.98
716.874	4.25
717.057	4.66
717.239	5.64
717.421	5.22
717.604	3.85
717.786	4.28
717.968	4.38
718.151	3.18
718.333	3.51
718.515	3.07
718.698	3.44
718.88	4.1
719.062	3.32
719.244	3.57
719.427	2.53
719.609	4.44
719.791	2.71
719.973	2.84
720.155	0.89
720.338	-0.1
720.52	1.59
720.702	3.27
720.884	2.64
721.066	1.92
721.248	-1.12
721.43	-0.14
721.612	-0.82
721.794	-0.25
721.976	-0.2
722.158	0.81
722.34	2.41
722.522	3.07
722.704	2.05
722.886	2.02
723.068	1.68
723.25	4.37
723.432	2.5
723.614	3.81
723.796	4.4
723.977	5.15
724.159	6.39
724.341	5.26
724.523	3.79
724.705	4.37
724.886	4.45
725.068	8.07
725.25	8.16
725.432	8.64
725.613	8.76
725.795	9.08
725.977	10.17
726.158	8.99
726.34	8.59
726.522	8.44
726.703	10.26
726.885	10.92
727.066	8.11
727.248	9.71
727.43	8.72
727.611	8
727.793	7.01
727.974	5.82
728.156	6.04
728.337	4.82
728.519	4.68
728.7	5.44
728.882	3.43
729.063	3.05
729.244	2.66
729.426	4.47
729.607	4.8
729.788	3.93
729.97	5.13
730.151	3.94
730.332	4.15
730.514	4.01
730.695	4.89
730.876	5.93
731.058	5.62
731.239	5.54
731.42	5.34
731.601	5.34
731.782	6.25
731.964	6.94
732.145	8.14
732.326	5.73
732.507	5.12
732.688	6.58
732.869	7.66
733.05	9.14
733.231	8.03
733.412	6.17
733.593	6.8
733.774	5.7
733.955	6.46
734.136	6.32
734.317	3.96
734.498	2.72
734.679	2.32
734.86	0.22
735.041	0.36
735.222	0.13
735.403	1.55
735.584	0.9
735.765	1.14
735.946	1.33
736.126	1.61
736.307	1.94
736.488	0.89
736.669	-1.26
736.849	-2.65
737.03	-2.35
737.211	-0.85
737.392	-1.83
737.572	-2.96
737.753	-3.56
737.934	-2.06
738.114	-1.12
738.295	-2.48
738.476	-1.64
738.656	0.54
738.837	1.02
739.017	1.44
739.198	1.49
739.378	3.78
739.559	2.8
739.74	2.53
739.92	2.85
740.1	2.35
740.281	0.88
740.461	1.27
740.642	1.82
740.822	-0.71
741.003	0.52
741.183	1.06
741.363	2.63
741.544	2.47
741.724	1.14
741.904	-0.23
742.085	1.02
742.265	-0.19
742.445	-0.96
742.626	-0.46
742.806	0.8
742.986	1.44
743.166	1.51
743.347	1.15
743.527	0.69
743.707	0.11
743.887	-0.46
744.067	-0.34
744.247	1
744.427	0.54
744.608	0.08
744.788	0.55
744.968	1.27
745.148	1.55
745.328	1.31
745.508	1.05
745.688	4
745.868	3.5
746.048	3.77
746.228	5.1
746.408	4.17
746.588	3.41
746.767	2.42
746.947	1.78
747.127	3.52
747.307	2.89
747.487	4.51
747.667	5.72
747.847	8.07
748.026	7.11
748.206	6.31
748.386	9.13
748.566	7.98
748.745	6.83
748.925	7.14
749.105	8.86
749.285	8.52
749.464	7.2
749.644	7.76
749.824	9.5
750.003	7.66
750.183	6.9
750.362	6.4
750.542	5.58
750.722	4.64
750.901	3.15
751.081	4.25
751.26	5.38
751.44	5.09
751.619	2.98
751.799	1.91
751.978	0.72
752.158	-0.6
752.337	-1.92
752.516	-1.99
752.696	-1.8
752.875	-2.4
753.055	-2.18
753.234	-1.51
753.413	-1.6
753.593	-1.28
753.772	-1.91
753.951	-1.2
754.13	-0.87
754.31	-0.46
754.489	-0.37
754.668	1.58
754.847	2.05
755.027	1.62
755.206	1.47
755.385	3.55
755.564	5.13
755.743	6.48
755.922	6.48
756.101	7.27
756.28	7.3
756.46	6.79
756.639	4.94
756.818	5.66
756.997	6.77
757.176	6.59
757.355	6.19
757.534	7.28
757.713	8.42
757.892	8.24
758.07	9.48
758.249	9.43
758.428	7.57
758.607	7.66
758.786	7.7
758.965	6.71
759.144	7.28
759.323	6.09
759.501	5.96
759.68	5.52
759.859	5.33
760.038	5.39
760.216	5.69
760.395	7.28
760.574	6.5
760.753	5.94
760.931	7.12
761.11	6.6
761.289	6.05
761.467	4.66
761.646	4.1
761.824	4.13
762.003	2.8
762.182	3.02
762.36	3.23
762.539	2.82
762.717	2.79
762.896	1.56
763.074	1.65
763.253	2.48
763.431	4.37
763.61	5.2
763.788	5.77
763.966	4.64
764.145	5.04
764.323	5.54
764.502	3.75
764.68	1.89
764.858	0.89
765.037	2.33
765.215	2.82
765.393	3.23
765.571	2.99
765.75	3.94
765.928	3.25
766.106	1.9
766.284	2.28
766.463	1.82
766.641	2.06
766.819	3.3
766.997	2.3
767.175	1.03
767.353	-0.12
767.531	-0.64
767.71	0.93
767.888	0.33
768.066	-1.64
768.244	-1.85
768.422	-1.54
768.6	1.55
768.778	0.28
768.956	-0.17
769.134	1.1
769.312	0.96
769.489	1.06
769.667	1.63
769.845	3.21
770.023	3.89
770.201	5.47
770.379	4.86
770.557	4.13
770.735	6.22
770.912	6.05
771.09	6.39
771.268	7.36
771.446	6.69
771.623	6.7
771.801	9.47
771.979	10.65
772.157	9.68
772.334	7.21
772.512	5.88
772.69	5.7
772.867	3.36
773.045	2.9
773.222	2.7
773.4	4
773.577	1.35
773.755	0.38
773.933	-0.12
774.11	0.61
774.288	0.1
774.465	-1.13
774.643	-2.14
774.82	-0.48
774.997	-1.83
775.175	-2.64
775.352	-1.72
775.53	-2.14
775.707	-2.05
775.884	-2.05
776.062	0.78
776.239	2.71
776.416	3.63
776.594	4.94
776.771	4.71
776.948	5.13
777.125	5.54
777.303	6.86
777.48	6.12
777.657	5.42
777.834	5.01
778.012	6.46
778.189	5.67
778.366	5.22
778.543	1.23
778.72	1.5
778.897	2.79
779.074	1.72
779.251	1.82
779.428	0.23
779.605	0.71
779.782	-1.16
779.959	-1.46
780.136	-1.84
780.313	-0.67
780.49	-0.25
780.667	1.12
780.844	-0.11
781.021	0.2
781.198	0.56
781.375	2.78
781.552	2.72
781.728	0.66
781.905	0.84
782.082	4.27
782.259	3.97
782.436	2.67
782.612	1.44
782.789	1.36
782.966	-1.79
783.143	0.48
783.319	2.11
783.496	2.8
783.673	2.2
783.849	2.38
784.026	1.59
784.203	2.09
784.379	0.22
784.556	0.13
784.732	-0.35
784.909	1.73
785.085	0.82
785.262	0.64
785.438	3.49
785.615	3.01
785.791	3.13
785.968	4.58
786.144	6.62
786.321	8.45
786.497	8.23
786.673	8.35
786.85	6.44
787.026	4.14
787.203	2.35
787.379	1.06
787.555	-0.98
787.731	-2.36
787.908	-4.12
788.084	-3.88
788.26	-3.53
788.437	-3.29
788.613	-4.99
788.789	-4.61
788.965	-5.34
789.141	-6.01
789.317	-5.72
789.494	-9.27
789.67	-8.93
789.846	-6.83
790.022	-9.1
790.198	-9.07
790.374	-6.05
790.55	-4.29
790.726	-3.22
790.902	-1.62
791.078	0.21
791.254	1.84
791.43	4.99
791.606	4
791.782	4.87
791.958	3.19
792.134	4.85
792.31	5.11
792.486	2.86
792.661	3.64
792.837	5.73
793.013	5.83
793.189	8.25
793.365	10.54
793.54	10.72
793.716	11.35
793.892	12.24
794.068	12.06
794.243	11.16
794.419	9.86
794.595	8.21
794.77	8.3
794.946	10.08
795.122	7.8
795.297	9.67
795.473	10.23
795.648	13.19
795.824	9.19
796	8.97
796.175	9.85
796.351	9.81
796.526	8.52
796.702	8.9
796.877	8.11
797.052	6.33
797.228	4.08
797.403	0.81
797.579	1.27
797.754	1.2
797.929	2.05
798.105	5.06
798.28	4.47
798.455	4.28
798.631	1.9
798.806	3.72
798.981	5.87
799.157	6.09
799.332	4.67
799.507	10.13
799.682	10.86
799.858	13.39
800.033	14.8
800.208	15.96
800.383	18.64
800.558	18.41
800.733	19.62
800.908	19.55
801.083	21.24
801.258	20.78
801.434	25.16
801.609	25.28
801.784	25.32
801.959	26.84
802.134	28.97
802.309	26.84
802.484	23.22
802.658	21.96
802.833	19.96
803.008	19.89
803.183	16.84
803.358	17.09
803.533	17.57
803.708	15.92
803.883	14.21
804.057	10.26
804.232	11.7
804.407	11.25
804.582	12.15
804.756	13.87
804.931	14.75
805.106	10.58
805.281	10.98
805.455	8.92
805.63	9.43
805.805	7.24
805.979	9.32
806.154	11.66
806.328	12.43
806.503	14.14
806.678	16.25
806.852	16.25
807.027	16.56
807.201	12.38
807.376	12.11
807.55	10.54
807.725	10.9
807.899	9.97
808.074	10.59
808.248	8.67
808.422	7.96
808.597	4.82
808.771	4.07
808.946	4.72
809.12	6.42
809.294	6.17
809.468	7.18
809.643	8.47
809.817	8.87
809.991	5.41
810.166	2.86
810.34	0.69
810.514	1.79
810.688	3.55
810.862	3.54
811.037	4.49
811.211	3.58
811.385	5.22
811.559	3.72
811.733	4.59
811.907	2.35
812.081	0.61
812.255	2.88
812.429	3.25
812.603	2.54
812.777	1.26
812.951	-1.54
813.125	-3.34
813.299	-4.59
813.473	-5.31
813.647	-2.12
813.821	-0.51
813.995	1.25
814.169	1.1
814.343	1.76
814.516	3.75
814.69	4.38
814.864	5.82
815.038	5.3
815.212	7.25
815.385	6.87
815.559	11.92
815.733	13.41
815.907	13.84
816.08	14.75
816.254	12.56
816.428	13.31
816.601	15.9
816.775	18.28
816.948	17.83
817.122	17.35
817.296	16.4
817.469	18.6
817.643	18.73
817.816	20.94
817.99	16.12
818.163	16.77
818.337	15
818.51	17.51
818.684	18.97
818.857	17.14
819.031	15.11
819.204	15.16
819.377	15.17
819.551	12.69
819.724	12.12
819.897	13.95
820.071	15.84
820.244	13.35
820.417	13.88
820.591	16.74
820.764	19.4
820.937	20.33
821.11	17.37
821.284	15.53
821.457	14.64
821.63	14.91
821.803	15.27
821.976	18.08
822.149	19.57
822.322	21.2
822.496	23.5
822.669	23.25
822.842	21.84
823.015	21.31
823.188	23.31
823.361	24.56
823.534	23.31
823.707	20.69
823.88	21.16
824.053	19.35
824.226	18.23
824.399	19.82
824.571	19.56
824.744	18.87
824.917	19.48
825.09	17.94
825.263	21.03
825.436	21.7
825.608	21.05
825.781	21.72
825.954	19.75
826.127	19.78
826.299	19.47
826.472	18.97
826.645	22.17
826.818	24.1
826.99	21.57
827.163	22.73
827.336	22.72
827.508	21.84
827.681	23.76
827.853	23.81
828.026	21.08
828.198	24.8
828.371	26.36
828.544	29.1
828.716	32.81
828.889	29.98
829.061	27.17
829.233	24.48
829.406	19.27
829.578	15.02
829.751	13.26
829.923	13.15
830.096	13.65
830.268	11.89
830.44	10.75
830.613	12.28
830.785	14.14
830.957	13.66
831.129	15.61
831.302	16.72
831.474	14.49
831.646	17.8
831.818	14.85
831.991	13.57
832.163	8.91
832.335	4.5
832.507	5.02
832.679	6.58
832.851	7.26
833.023	9.42
833.195	14.39
833.368	15.52
833.54	17.8
833.712	18.59
833.884	19.94
834.056	17.2
834.228	17.08
834.4	19.73
834.571	21.46
834.743	17.33
834.915	15.07
835.087	14.99
835.259	12.65
835.431	13.53
835.603	15.05
835.775	14.85
835.946	17.54
836.118	18.24
836.29	15.5
836.462	14.93
836.634	11.69
836.805	6.88
836.977	5.76
837.149	7.36
837.32	6.39
837.492	5.64
837.664	6.77
837.835	6.96
838.007	0.18
838.179	-1.39
838.35	8.35
838.522	11.5
838.693	13.71
838.865	8.59
839.036	4.21
839.208	5.65
839.379	6.36
839.551	7.66
839.722	10.21
839.894	11.72
840.065	14.7
840.237	16.36
840.408	19.63
840.579	22.36
840.751	20.28
840.922	19.6
841.093	17.11
841.265	17.16
841.436	18.47
841.607	21.38
841.778	19.97
841.95	19.27
842.121	18.04
842.292	17.7
842.463	23.63
842.635	27.42
842.806	28.7
842.977	33.93
843.148	29.68
843.319	26.01
843.49	28.57
843.661	24.29
843.832	24.24
844.003	22.44
844.174	22.78
844.345	21.46
844.516	20
844.687	20.73
844.858	25.01
845.029	21.86
845.2	17.67
845.371	18.81
845.542	13.26
845.713	6.98
845.884	6.15
846.055	0.15
846.225	-4.32
846.396	-9.92
846.567	-7.11
846.738	-7.23
846.909	-6.36
847.079	-5.18
847.25	4.63
847.421	3.57
847.591	-1.53
847.762	-1.46
847.933	-4.14
848.103	0.24
848.274	1.18
848.445	-3.96
848.615	-4.03
848.786	-0.81
848.956	5.3
849.127	10.42
849.297	22.37
849.468	25.24
849.638	30.27
849.809	32.04
849.979	34.68
850.15	33.62
850.32	37.52
850.491	34.33
850.661	36.5
850.831	29.62
851.002	31.4
851.172	33.97
851.342	30.92
851.513	30.66
851.683	26.25
851.853	24.95
852.024	26.92
852.194	29.6
852.364	29.01
852.534	28.6
852.705	28.38
852.875	21.99
853.045	22.21
853.215	21.1
853.385	16.64
853.555	17.57
853.725	11.36
853.895	15
854.066	22.62
854.236	20.83
854.406	21.83
854.576	21.48
854.746	19.01
854.916	25.37
855.086	27.79
855.256	41.25
855.425	37.76
855.595	38.42
855.765	38.17
855.935	39.93
856.105	37.61
856.275	36.69
856.445	36.33
856.614	34.67
856.784	37.08
856.954	42.11
857.124	39.89
857.294	48.77
857.463	40.97
857.633	40.42
857.803	36.5
857.972	34.56
858.142	34.17
858.312	39.64
858.481	30.81
858.651	26.81
858.821	25.06
858.99	30.34
859.16	28.9
859.329	31.89
859.499	39.44
859.668	45.25
859.838	44.44
860.007	45.49
860.177	49.72
860.346	47.84
860.516	42.57
860.685	39.84
860.854	31.53
861.024	28.46
861.193	24.57
861.363	29.08
861.532	31.23
861.701	33.94
861.87	31.87
862.04	33.38
862.209	35.52
862.378	36.58
862.547	40.08
862.717	41.94
862.886	40.89
863.055	35.46
863.224	35.46
863.393	33.26
863.563	35.86
863.732	35.63
863.901	23.03
864.07	28.82
864.239	29.88
864.408	33.62
864.577	36.32
864.746	48.71
864.915	43.84
865.084	49.72
865.253	46.85
865.422	44.79
865.591	43.02
865.76	42.13
865.929	35.31
866.097	31.47
866.266	24.49
866.435	18.96
866.604	20.38
866.773	17.47
866.942	18.73
867.11	12.96
867.279	5.32
867.448	25.67
867.617	29.95
867.785	25.03
867.954	25.69
868.123	26.93
868.291	2.32
868.46	5.91
868.629	1.15
868.797	-1.36
868.966	-12.62
869.134	7.55
869.303	15.89
869.472	16.15
869.64	14.96
869.809	22.23
869.977	28.07
870.146	22.94
870.314	24.57
870.482	27.86
870.651	25.58
870.819	24.61
870.988	17.55
871.156	3.31
871.324	2.5
871.493	-4.25
871.661	-1.76
871.829	3.96
871.998	2.64
872.166	-12.83
872.334	2.02
872.502	9.73
872.671	-4.54
872.839	-0.86
873.007	-5.75
873.175	-7.82
873.343	-12.68
873.512	-18.09
873.68	-13.92
873.848	-17.77
874.016	-19.65
874.184	-25.19
874.352	-27.64
874.52	-10.83
874.688	-4.62
874.856	15.11
875.024	20.26
875.192	22.22
875.36	17.92
875.528	17.38
875.696	28.64
875.864	24.4
876.032	24.56
876.199	22.91
876.367	27.57
876.535	25.93
876.703	25.62
876.871	36.02
877.039	50.5
877.206	55.11
877.374	51.35
877.542	57.76
877.71	62.94
877.877	70.75
878.045	71.48
878.213	75.77
878.38	68.58
878.548	69.68
878.715	55.65
878.883	60.03
879.051	68.41
879.218	58.24
879.386	61.67
879.553	60.2
879.721	63.65
879.888	54.42
880.056	75.79
880.223	79.36
880.391	78.95
880.558	49.7
880.726	54.01
880.893	56.95
881.06	38.53
881.228	40.75
881.395	39.91
881.562	36.67
881.73	15.67
881.897	10.16
882.064	2.96
882.231	20.56
882.399	24.96
882.566	10.35
882.733	12.25
882.9	-46.88
883.068	-10.27
883.235	-0.51
883.402	-2.34
883.569	1.64
883.736	28.33
883.903	27.78
884.07	41.66
884.237	24.66
884.404	24.34
884.571	39.14
884.738	40.08
884.905	44.01
885.072	37.67
885.239	52.33
885.406	45.06
