Data from Transmission_10-00-52-753.txt Node
Date: Fri Aug 24 10:00:52 EEST 2018
User: tibor.sos
Spectrometer: USB4F01757
Scans to average: 10
Trigger mode: 4
Integration Time (sec): 1.000000E-2
Electric dark correction enabled: true
Boxcar width: 10
XAxis mode: Wavelengths
Number of Pixels in Spectrum: 3648
>>>>>Begin Spectral Data<<<<<
178.758	1.58
178.974	-70.99
179.191	-142.74
179.407	-20.84
179.624	0.24
179.84	-33.14
180.057	-41.77
180.273	-4.65
180.489	34.94
180.706	-5.86
180.922	17.19
181.138	34.96
181.355	45.44
181.571	72.67
181.787	133.59
182.004	142.87
182.22	180.24
182.436	237.03
182.653	181.52
182.869	162.74
183.085	169.8
183.301	159.39
183.518	130.74
183.734	132.82
183.95	173.72
184.166	174.92
184.383	194.99
184.599	206.13
184.815	188.23
185.031	168.62
185.247	187.76
185.463	210.88
185.68	222.8
185.896	267.96
186.112	347.46
186.328	306.76
186.544	341.21
186.76	339.58
186.976	243.3
187.192	258.67
187.408	334.21
187.624	384.09
187.84	307.72
188.056	253.15
188.272	235.42
188.488	211.29
188.704	189.08
188.92	201.8
189.136	174.44
189.352	188.75
189.568	214.55
189.784	226.63
190	217.02
190.216	227.1
190.432	235.39
190.648	228.6
190.864	477.12
191.08	416.43
191.296	211.6
191.511	257.6
191.727	313.9
191.943	287.83
192.159	188.5
192.375	226.12
192.591	348.98
192.806	508.84
193.022	317.49
193.238	710.67
193.454	615.75
193.669	939.92
193.885	827.34
194.101	1104.83
194.317	646.26
194.532	3380.9
194.748	-2535.29
194.964	935.13
195.18	452.32
195.395	354.02
195.611	236.94
195.827	320.83
196.042	524.1
196.258	269.26
196.473	228.05
196.689	204.13
196.905	165.88
197.12	-10.89
197.336	-38.08
197.551	-163.53
197.767	74500
197.982	184.26
198.198	949.32
198.414	1344.94
198.629	306
198.845	193.84
199.06	300.35
199.276	163.6
199.491	229.73
199.707	123.87
199.922	115.52
200.137	158.88
200.353	158.37
200.568	127.13
200.784	148.17
200.999	150.26
201.215	284.76
201.43	294.11
201.645	243.47
201.861	286.2
202.076	283.46
202.291	306.59
202.507	292.3
202.722	198
202.937	337.15
203.153	311.97
203.368	255.99
203.583	126.97
203.798	126.9
204.014	165.95
204.229	176.91
204.444	215.36
204.659	382.15
204.875	655.76
205.09	-1725.21
205.305	3662.26
205.52	-1519.51
205.735	-1200.6
205.951	7716
206.166	-526.84
206.381	-376.84
206.596	-3303.64
206.811	-959.65
207.026	-726.57
207.241	-176.16
207.457	704.36
207.672	1875.21
207.887	-1462.62
208.102	-376.83
208.317	-447.07
208.532	938.42
208.747	-640.98
208.962	-452.9
209.177	916.11
209.392	384.11
209.607	185.95
209.822	271.96
210.037	227.33
210.252	260
210.467	472.85
210.682	202.02
210.897	202.37
211.112	233.5
211.326	178.04
211.541	256.42
211.756	142.93
211.971	218.76
212.186	158.68
212.401	158.59
212.616	126.78
212.831	134.27
213.045	292.05
213.26	212.34
213.475	215.54
213.69	256.31
213.905	387.38
214.119	1142.53
214.334	-7292.59
214.549	-740.49
214.764	850.26
214.978	566.89
215.193	648.62
215.408	-3674.36
215.622	620.75
215.837	4500
216.052	-1306.9
216.266	-207.85
216.481	-319.2
216.696	-117.35
216.91	4196.97
217.125	456.23
217.34	653.37
217.554	342.16
217.769	-128.31
217.983	-24.09
218.198	-218.38
218.412	-453.05
218.627	359.24
218.842	239.02
219.056	139.32
219.271	118.73
219.485	98.87
219.7	83.95
219.914	93.61
220.129	75.04
220.343	1.42
220.558	11.19
220.772	48.14
220.986	78.8
221.201	115.47
221.415	30.75
221.63	56.7
221.844	6.3
222.058	-43.15
222.273	-55.11
222.487	-46.5
222.702	-8.66
222.916	-11.44
223.13	19.94
223.344	4.34
223.559	15.65
223.773	20.28
223.987	-39.62
224.202	-59.16
224.416	-71.18
224.63	-140.2
224.844	-151.23
225.059	-209.32
225.273	-2493.94
225.487	1386.4
225.701	215.45
225.915	191.86
226.13	204.31
226.344	208.39
226.558	211.21
226.772	169.47
226.986	148.15
227.2	151.47
227.415	146.44
227.629	189.98
227.843	217.91
228.057	184.77
228.271	146.99
228.485	161.59
228.699	184.71
228.913	197.38
229.127	167.73
229.341	180.57
229.555	229.4
229.769	309.76
229.983	374.44
230.197	372.25
230.411	450.1
230.625	461.86
230.839	244.27
231.053	303.71
231.267	637.57
231.481	627.7
231.695	363.06
231.909	258.25
232.122	135.43
232.336	151.87
232.55	168.28
232.764	263.47
232.978	199.07
233.192	181.96
233.405	275.08
233.619	218.24
233.833	126.43
234.047	196.74
234.261	382.65
234.474	281.68
234.688	-523.26
234.902	-401.59
235.116	-187.83
235.329	-154.69
235.543	-443.4
235.757	-163.6
235.97	-119.68
236.184	-138.63
236.398	-27.54
236.612	-7.54
236.825	-1.69
237.039	-12.78
237.252	-13.09
237.466	-216.88
237.68	-1215.25
237.893	63300
238.107	194.86
238.32	-456.52
238.534	138.37
238.748	119.82
238.961	117.09
239.175	183.41
239.388	192.31
239.602	285.34
239.815	170.31
240.029	123.68
240.242	134.25
240.456	81.19
240.669	112.28
240.882	171.69
241.096	396.68
241.309	263.61
241.523	394.51
241.736	527.46
241.95	-1207.26
242.163	1675.94
242.376	581.24
242.59	1828
242.803	-14166.67
243.016	-477.64
243.23	-1298.32
243.443	-11473.33
243.656	1321.05
243.87	281.24
244.083	188.22
244.296	175.32
244.509	167.43
244.723	143.95
244.936	136.27
245.149	126.35
245.362	74.39
245.576	48.75
245.789	64.42
246.002	64.78
246.215	69.45
246.428	67.33
246.641	81.36
246.855	60.78
247.068	58.82
247.281	-7.55
247.494	41.4
247.707	38.96
247.92	53.89
248.133	31.59
248.346	49.26
248.559	66.57
248.772	22.31
248.985	30.37
249.198	52.19
249.411	40.66
249.624	52.42
249.837	58.56
250.05	59.69
250.263	49.12
250.476	41.98
250.689	49.91
250.902	48.61
251.115	41.32
251.328	48.36
251.541	56.28
251.754	71.79
251.967	78.23
252.18	79.67
252.393	73.51
252.605	73.04
252.818	59.84
253.031	48.22
253.244	56.55
253.457	58.46
253.67	49.72
253.882	61.81
254.095	56.5
254.308	56.51
254.521	50.92
254.733	52.7
254.946	49.17
255.159	43.13
255.372	46.84
255.584	54.01
255.797	48.59
256.01	37.45
256.222	28.56
256.435	19.53
256.648	24.51
256.86	20.85
257.073	28.66
257.285	38.69
257.498	49.96
257.711	43.34
257.923	37.82
258.136	43.45
258.348	39.79
258.561	43.78
258.773	26.95
258.986	15.55
259.198	24.41
259.411	47.55
259.623	48.49
259.836	44.15
260.048	28.51
260.261	57.21
260.473	60.86
260.686	71.78
260.898	60.05
261.111	39.19
261.323	36.28
261.535	25.72
261.748	25.08
261.96	22.59
262.173	25.89
262.385	30.36
262.597	26.89
262.81	28.55
263.022	25.59
263.234	31.25
263.447	37.43
263.659	33.48
263.871	31.57
264.083	31.45
264.296	28.42
264.508	33.62
264.72	18.98
264.932	18.67
265.145	-1.65
265.357	5.91
265.569	5.33
265.781	2.31
265.993	4.07
266.205	3.7
266.418	6.2
266.63	-6.89
266.842	-1.3
267.054	4.04
267.266	23.22
267.478	15.3
267.69	32.35
267.902	17.54
268.114	11.56
268.326	10.47
268.538	5.77
268.75	15.96
268.962	12.87
269.174	22.46
269.386	36.04
269.598	44.12
269.81	38.81
270.022	39.48
270.234	38.35
270.446	38.49
270.658	33.44
270.87	38.57
271.082	42.84
271.294	41.09
271.506	39.05
271.718	31.8
271.929	30.33
272.141	28.76
272.353	32.31
272.565	34.55
272.777	35.87
272.989	36.57
273.2	37.74
273.412	38.24
273.624	37.27
273.836	32.84
274.047	37.3
274.259	44.28
274.471	48.93
274.683	51.24
274.894	51.6
275.106	55.92
275.318	56.74
275.529	59.88
275.741	58.54
275.953	61.61
276.164	64.69
276.376	66.51
276.588	65.73
276.799	71.71
277.011	69.99
277.222	75.83
277.434	77.29
277.646	72.89
277.857	75.69
278.069	77.35
278.28	67.05
278.492	60.83
278.703	39.86
278.915	43.6
279.126	38.66
279.338	34
279.549	36.57
279.761	31.01
279.972	23.25
280.183	20.92
280.395	16.52
280.606	14.62
280.818	13.94
281.029	20.46
281.24	15
281.452	10.48
281.663	9.7
281.875	12.07
282.086	13.9
282.297	0.82
282.508	4.93
282.72	13.35
282.931	16.24
283.142	18.73
283.354	14.77
283.565	15.64
283.776	16.08
283.987	4.83
284.199	2.02
284.41	13.72
284.621	17.56
284.832	17.17
285.043	17.63
285.254	15.39
285.466	8.17
285.677	14.42
285.888	17.68
286.099	17.71
286.31	16.45
286.521	9.43
286.732	14.57
286.943	9.98
287.154	10.26
287.366	2.04
287.577	7.11
287.788	-0.52
287.999	3.62
288.21	-3.26
288.421	4.34
288.632	1.06
288.843	2.21
289.054	-0.04
289.264	2.03
289.475	-5.95
289.686	7.74
289.897	2.35
290.108	4.64
290.319	3.07
290.53	0.6
290.741	-3.94
290.952	1.06
291.163	7.33
291.373	11.06
291.584	17.8
291.795	23.72
292.006	18.38
292.217	26.44
292.427	26.95
292.638	33.06
292.849	33.88
293.06	38.32
293.27	37.87
293.481	46.06
293.692	52.86
293.903	51.62
294.113	46.5
294.324	52.42
294.535	46.37
294.745	47.31
294.956	54.81
295.167	56.7
295.377	54.29
295.588	52.88
295.798	48.13
296.009	35.75
296.22	40.71
296.43	38.14
296.641	36.98
296.851	36.13
297.062	29.9
297.272	23.52
297.483	23.25
297.693	16.76
297.904	9.67
298.114	7.77
298.325	20.47
298.535	11.63
298.746	5.84
298.956	15.16
299.167	15.22
299.377	8.79
299.587	8.46
299.798	13.56
300.008	6.67
300.219	11.49
300.429	15.98
300.639	14.34
300.85	27.59
301.06	27.73
301.27	31.32
301.481	31.94
301.691	34.54
301.901	35.55
302.111	38.42
302.322	41.56
302.532	41.1
302.742	31.14
302.952	36.64
303.163	37.31
303.373	37.58
303.583	36.44
303.793	44.75
304.003	45.27
304.214	45.33
304.424	41.02
304.634	38.72
304.844	41.65
305.054	41.76
305.264	32.32
305.474	30.71
305.684	21.62
305.894	20.8
306.104	15.65
306.314	7.72
306.525	8.78
306.735	4.26
306.945	1.08
307.155	10.19
307.365	14.77
307.575	21.8
307.784	18.15
307.994	17.28
308.204	13.84
308.414	12.06
308.624	5.18
308.834	13.84
309.044	15.7
309.254	14.56
309.464	14.67
309.674	13.22
309.884	7.24
310.093	10.37
310.303	13.34
310.513	25.52
310.723	29.33
310.933	26.68
311.142	25.5
311.352	26.1
311.562	26.49
311.772	22.23
311.981	20.48
312.191	16.66
312.401	20.4
312.611	16.15
312.82	14.04
313.03	16.63
313.24	13.01
313.449	14.77
313.659	10.89
313.869	5.5
314.078	7.5
314.288	9.41
314.497	6.88
314.707	5.96
314.917	-2.41
315.126	4.02
315.336	7.76
315.545	7.54
315.755	7.17
315.964	5.38
316.174	6.61
316.383	1.6
316.593	4.36
316.802	0.66
317.012	-2.12
317.221	0.89
317.431	1.13
317.64	4.31
317.849	0.38
318.059	-4.95
318.268	2.97
318.478	6.87
318.687	8.96
318.896	14.31
319.106	12.58
319.315	11.47
319.524	3.34
319.734	-0.54
319.943	0.92
320.152	8.8
320.362	4.44
320.571	8.91
320.78	11.98
320.989	21.62
321.199	26.98
321.408	35.22
321.617	32.79
321.826	27.86
322.035	23.77
322.245	21.31
322.454	25.02
322.663	21.2
322.872	19.57
323.081	17.99
323.29	12.72
323.5	16.89
323.709	15.37
323.918	15.93
324.127	14.95
324.336	15.44
324.545	5.66
324.754	14.32
324.963	9.99
325.172	12.41
325.381	4.17
325.59	-2.92
325.799	-8.06
326.008	-13.27
326.217	-11.1
326.426	-0.85
326.635	4.3
326.844	4.55
327.053	13.46
327.262	15.06
327.47	14.71
327.679	18.9
327.888	12.41
328.097	13.41
328.306	18.02
328.515	23.18
328.724	25.92
328.932	23.85
329.141	20.74
329.35	22.72
329.559	20.72
329.768	24.49
329.976	26.03
330.185	26.08
330.394	25.83
330.602	27.52
330.811	16.25
331.02	20.1
331.229	20.22
331.437	18.44
331.646	20.48
331.855	24.33
332.063	26
332.272	29.88
332.48	30.53
332.689	22.43
332.898	22.61
333.106	21.32
333.315	29.87
333.523	26.18
333.732	20.58
333.94	21.44
334.149	17.41
334.357	20.01
334.566	18.71
334.774	30.41
334.983	35.67
335.191	37.73
335.4	29.41
335.608	31.78
335.817	31.15
336.025	24.72
336.234	17.91
336.442	15.37
336.65	16.18
336.859	23.5
337.067	25.61
337.275	19.52
337.484	15.37
337.692	9.71
337.9	15.98
338.109	27.35
338.317	32.66
338.525	39.74
338.734	43.02
338.942	53.09
339.15	39.6
339.358	29.02
339.567	36.99
339.775	36.5
339.983	36.32
340.191	26.5
340.399	24.88
340.608	34.48
340.816	31.42
341.024	26.1
341.232	14.27
341.44	23.17
341.648	29.81
341.856	34.56
342.064	38.84
342.272	41.55
342.481	37.74
342.689	30.28
342.897	29.16
343.105	24.57
343.313	25.75
343.521	30.04
343.729	23.79
343.937	18.58
344.145	16.88
344.353	16.87
344.56	20.37
344.768	20.5
344.976	17.33
345.184	18.05
345.392	23.67
345.6	29.71
345.808	26.8
346.016	27.02
346.224	24.51
346.431	25.55
346.639	27.69
346.847	25.82
347.055	31.03
347.263	23.43
347.471	25.22
347.678	22.21
347.886	17.87
348.094	32.84
348.302	36.83
348.509	31.17
348.717	32.73
348.925	32.3
349.132	34.75
349.34	25.64
349.548	32.47
349.755	34.88
349.963	34.08
350.171	30.5
350.378	26.29
350.586	27.44
350.793	27.11
351.001	20.51
351.209	21.3
351.416	27.77
351.624	34.84
351.831	28.36
352.039	26.48
352.246	24.26
352.454	21.75
352.661	20.51
352.869	36.09
353.076	31.87
353.284	40.5
353.491	45.92
353.699	47.82
353.906	47.68
354.113	42.2
354.321	41.96
354.528	44.04
354.736	43.68
354.943	45.78
355.15	42.68
355.358	39.49
355.565	34.75
355.772	27.86
355.98	28.57
356.187	31.47
356.394	30.45
356.601	36.03
356.809	41.14
357.016	42.93
357.223	40.32
357.43	38.24
357.638	33.53
357.845	37.14
358.052	39.49
358.259	42.26
358.466	46.56
358.673	43.95
358.881	40.7
359.088	36.81
359.295	24.69
359.502	15.7
359.709	22.98
359.916	27.88
360.123	24.8
360.33	18.26
360.537	13.57
360.744	16.11
360.951	10.15
361.158	4.72
361.365	3.57
361.572	3.69
361.779	5.72
361.986	9.81
362.193	2.12
362.4	-1.57
362.607	-24.51
362.814	-19.8
363.021	-16.3
363.228	-17.85
363.435	-5.52
363.641	1.42
363.848	8.25
364.055	2.8
364.262	5.09
364.469	5.41
364.676	11.62
364.882	15.12
365.089	12.91
365.296	15.17
365.503	9.92
365.709	9.68
365.916	9.02
366.123	11.86
366.33	4.5
366.536	9.86
366.743	12.94
366.95	14.82
367.156	14.9
367.363	17.28
367.57	13.76
367.776	7.56
367.983	11.36
368.19	15.51
368.396	21.62
368.603	21.73
368.809	34.51
369.016	34.42
369.222	35.53
369.429	34.34
369.635	36.75
369.842	38.82
370.048	42.53
370.255	44.81
370.461	48.98
370.668	51.66
370.874	42.59
371.081	41.96
371.287	52.35
371.494	50.33
371.7	50.33
371.906	52.47
372.113	50.86
372.319	49.57
372.526	48.51
372.732	40.61
372.938	40.14
373.145	30.86
373.351	32.37
373.557	30.76
373.763	38.11
373.97	38.5
374.176	37.11
374.382	34.92
374.588	27.93
374.795	25.12
375.001	23.61
375.207	25.64
375.413	28.48
375.62	24.72
375.826	29.44
376.032	28.38
376.238	25.66
376.444	23.75
376.65	25.27
376.856	20.59
377.062	24.89
377.269	28.58
377.475	29.12
377.681	34.46
377.887	32.09
378.093	24.51
378.299	22.59
378.505	27.42
378.711	25.3
378.917	17.75
379.123	15.87
379.329	20.51
379.535	19.45
379.741	19.14
379.947	17.68
380.152	16.55
380.358	14.88
380.564	15.05
380.77	14.23
380.976	11.86
381.182	21.26
381.388	21.62
381.594	14.94
381.799	15.06
382.005	10.53
382.211	14.18
382.417	16.31
382.623	15.51
382.828	14.27
383.034	16.43
383.24	15.64
383.445	9.89
383.651	7.17
383.857	5.46
384.063	10.35
384.268	-0.27
384.474	3.64
384.68	8.81
384.885	21.35
385.091	20.56
385.296	25.28
385.502	22.61
385.708	20.16
385.913	27.61
386.119	30.27
386.324	23.62
386.53	22.54
386.735	20.04
386.941	21.96
387.146	31.6
387.352	24.12
387.557	39.43
387.763	46.49
387.968	36.4
388.174	33.68
388.379	22.63
388.585	30.73
388.79	22.59
388.996	22.79
389.201	9.32
389.406	3
389.612	-8.18
389.817	-7.85
390.022	-4.92
390.228	1.81
390.433	-0.29
390.638	6.29
390.844	3.56
391.049	6.01
391.254	-3.86
391.459	-9.07
391.665	-11.4
391.87	-19.19
392.075	-4.14
392.28	8.93
392.485	7.13
392.691	10.91
392.896	9.53
393.101	15.83
393.306	23.11
393.511	30.1
393.716	41.28
393.922	42.87
394.127	42.72
394.332	44.67
394.537	39.42
394.742	36.53
394.947	35.64
395.152	41.87
395.357	40.75
395.562	50.26
395.767	53.03
395.972	55.43
396.177	60.04
396.382	53.59
396.587	51.81
396.792	55.23
396.997	57.43
397.202	61.41
397.407	63.4
397.611	60.63
397.816	56.12
398.021	55.45
398.226	56.2
398.431	55.48
398.636	54.34
398.841	57.07
399.045	61.68
399.25	59.07
399.455	56.83
399.66	63.61
399.864	56.44
400.069	54.1
400.274	54.16
400.479	50.65
400.683	51.7
400.888	55.23
401.093	55.26
401.297	50.47
401.502	49.71
401.707	47.62
401.911	50.43
402.116	39.63
402.321	33.48
402.525	39
402.73	37.01
402.934	39.09
403.139	46.5
403.344	39.62
403.548	44.22
403.753	50.48
403.957	36.34
404.162	37.58
404.366	35.13
404.571	22.01
404.775	24.79
404.98	18.81
405.184	13.95
405.388	12.42
405.593	17.06
405.797	10.03
406.002	13.5
406.206	6.05
406.41	16.42
406.615	27.48
406.819	22.46
407.023	26.26
407.228	19.28
407.432	5.35
407.636	3.8
407.841	8.66
408.045	1.12
408.249	8.88
408.453	18.53
408.658	22.03
408.862	31.56
409.066	28.85
409.27	36.12
409.474	42.06
409.679	36.69
409.883	35.51
410.087	35.89
410.291	32.55
410.495	37.18
410.699	33.15
410.903	17.61
411.108	26.55
411.312	30.48
411.516	35.63
411.72	45.24
411.924	42.71
412.128	44.6
412.332	41.25
412.536	41.86
412.74	43.48
412.944	46.49
413.148	45.9
413.352	37.62
413.556	31.84
413.76	22.91
413.964	38.16
414.167	40.78
414.371	45.25
414.575	43.37
414.779	38.73
414.983	44.83
415.187	46.97
415.391	44.36
415.594	44.93
415.798	47.74
416.002	39.63
416.206	35.47
416.41	32.85
416.613	26.11
416.817	12.62
417.021	12.7
417.225	18.67
417.428	13.55
417.632	14.18
417.836	15.69
418.039	14.23
418.243	11.42
418.447	3.74
418.65	2.59
418.854	2.42
419.057	8.47
419.261	4.28
419.465	2.35
419.668	8.84
419.872	6.04
420.075	0.44
420.279	10.93
420.482	17.95
420.686	13.11
420.889	21.89
421.093	33.34
421.296	26.97
421.5	18.64
421.703	20.29
421.907	30.37
422.11	28.26
422.314	28.11
422.517	22.76
422.72	24.06
422.924	24.85
423.127	19.45
423.33	14.41
423.534	23.02
423.737	24.11
423.94	14.4
424.144	21.61
424.347	28.01
424.55	23.77
424.754	25.58
424.957	27.42
425.16	18.38
425.363	15.99
425.567	21.66
425.77	17.02
425.973	21.63
426.176	10.23
426.379	11.18
426.582	17.75
426.786	26.47
426.989	22.54
427.192	25.35
427.395	29.68
427.598	26.21
427.801	21.71
428.004	23.19
428.207	29.11
428.41	26
428.613	19.63
428.816	31.33
429.019	29.85
429.222	28.24
429.425	31.73
429.628	32.51
429.831	31.4
430.034	35.89
430.237	32.05
430.44	37.16
430.643	36.69
430.846	28.42
431.049	27.38
431.252	26.55
431.454	25.47
431.657	27.72
431.86	35.14
432.063	34.52
432.266	29.41
432.469	27.29
432.671	24.98
432.874	34.64
433.077	20.07
433.28	24.35
433.482	30.31
433.685	31.24
433.888	28
434.09	24.13
434.293	9.72
434.496	14.31
434.698	8.09
434.901	8.71
435.104	15.76
435.306	15.65
435.509	25.98
435.712	27.24
435.914	11.49
436.117	11.65
436.319	16.34
436.522	27.77
436.724	27.93
436.927	20.27
437.129	21.85
437.332	30.82
437.534	34.63
437.737	25.71
437.939	33.3
438.142	38.35
438.344	47.28
438.547	62.55
438.749	62
438.951	65.88
439.154	82.15
439.356	89.28
439.558	97.7
439.761	84.1
439.963	64.51
440.165	72.16
440.368	78.76
440.57	84.53
440.772	86.79
440.975	75.67
441.177	88.1
441.379	75.11
441.581	67.29
441.784	49.76
441.986	52.39
442.188	41.1
442.39	38.88
442.592	32.32
442.795	38.68
442.997	29.35
443.199	26.8
443.401	23.34
443.603	17.37
443.805	9.09
444.007	7.37
444.209	12.55
444.411	20.46
444.613	22.11
444.815	20.94
445.017	19.98
445.219	27.1
445.421	25.47
445.623	29.12
445.825	21.68
446.027	25.07
446.229	18.52
446.431	32.52
446.633	29.07
446.835	25.51
447.037	23.02
447.239	30.41
447.441	31.4
447.643	32.46
447.844	33.63
448.046	43.73
448.248	53.35
448.45	63.07
448.652	53.08
448.853	56.78
449.055	69.86
449.257	64.68
449.459	50.85
449.66	54.17
449.862	55.83
450.064	62.32
450.266	56.85
450.467	60.75
450.669	52.13
450.871	55.38
451.072	69.47
451.274	72.64
451.475	59.72
451.677	60.8
451.879	59.3
452.08	54.82
452.282	53.33
452.483	55.85
452.685	48.77
452.886	49.5
453.088	31.22
453.289	22.92
453.491	8.09
453.692	5.56
453.894	5.36
454.095	4.63
454.297	5.45
454.498	10.15
454.7	9.07
454.901	24.03
455.102	31.59
455.304	28.83
455.505	28.46
455.706	29.24
455.908	22.46
456.109	25.16
456.31	28.6
456.512	20.61
456.713	21.66
456.914	14.35
457.116	3.33
457.317	10.34
457.518	12
457.719	21.93
457.921	21.51
458.122	15.37
458.323	10.31
458.524	15.09
458.725	15.26
458.926	11.87
459.128	10.52
459.329	6.83
459.53	2.41
459.731	-2.54
459.932	-9.43
460.133	-0.79
460.334	12.1
460.535	18.15
460.736	19.73
460.937	12.25
461.138	13.65
461.339	25.01
461.54	16.97
461.741	13.04
461.942	14.86
462.143	25.41
462.344	19.72
462.545	30.95
462.746	32.77
462.947	30.24
463.148	37.17
463.348	36.37
463.549	33.37
463.75	28.99
463.951	29.52
464.152	32.86
464.353	33.47
464.553	29.13
464.754	22.26
464.955	22.49
465.156	24.86
465.356	29.87
465.557	30.2
465.758	37.74
465.959	42.93
466.159	41.96
466.36	36.37
466.561	43.75
466.761	37.34
466.962	32.47
467.163	39.73
467.363	35.02
467.564	37.66
467.764	39.13
467.965	42.4
468.166	41.48
468.366	42.83
468.567	39.75
468.767	36.77
468.968	41.05
469.168	46.39
469.369	52.33
469.569	46.03
469.77	38.07
469.97	32.91
470.17	33.12
470.371	31.57
470.571	31.65
470.772	26.67
470.972	32.96
471.172	36.83
471.373	33.21
471.573	34.7
471.773	30.01
471.974	30.66
472.174	30.26
472.374	34.44
472.575	36.11
472.775	34.46
472.975	31.79
473.175	28.67
473.376	19.96
473.576	24.14
473.776	29.55
473.976	31.66
474.177	35.87
474.377	27.49
474.577	28.78
474.777	32.25
474.977	32.41
475.177	23.15
475.377	21.37
475.577	23.15
475.777	25.02
475.978	21.86
476.178	21.27
476.378	21.04
476.578	20.92
476.778	14.66
476.978	14.65
477.178	19.81
477.378	20.97
477.578	22.11
477.778	14.95
477.977	14.91
478.177	14.81
478.377	14.01
478.577	11.84
478.777	14.62
478.977	9.44
479.177	11.16
479.377	10.13
479.577	3.21
479.776	4.55
479.976	-0.03
480.176	6.44
480.376	7.79
480.576	8.35
480.775	4.77
480.975	7.81
481.175	5.35
481.374	5.1
481.574	7.69
481.774	10.97
481.974	14.38
482.173	11.02
482.373	4.41
482.572	7.43
482.772	12.6
482.972	15.75
483.171	18.29
483.371	21.75
483.57	20.77
483.77	27.31
483.97	24.3
484.169	25.29
484.369	20.64
484.568	20.36
484.768	20.81
484.967	22.48
485.167	20.97
485.366	26.93
485.566	24.82
485.765	25.5
485.964	21.17
486.164	17.85
486.363	14.99
486.563	20.72
486.762	19.82
486.961	19.47
487.161	17.13
487.36	19.3
487.559	14.59
487.759	15.8
487.958	15.25
488.157	16.64
488.356	22.79
488.556	24.77
488.755	20.18
488.954	15.19
489.153	14.88
489.353	20.91
489.552	13.59
489.751	10.45
489.95	8.54
490.149	6.85
490.348	10.33
490.548	12.97
490.747	12.94
490.946	15.31
491.145	17.78
491.344	13.04
491.543	12.38
491.742	16.75
491.941	18.99
492.14	14.76
492.339	15.02
492.538	6.27
492.737	7.44
492.936	19.54
493.135	23.08
493.334	22.07
493.533	17.9
493.732	19.24
493.931	26.29
494.13	24.06
494.328	27.85
494.527	25.24
494.726	24.28
494.925	21.29
495.124	19.63
495.323	19.36
495.521	19.98
495.72	21.49
495.919	22.35
496.118	22.46
496.316	25.63
496.515	27.85
496.714	28.24
496.913	30.17
497.111	26.03
497.31	23.7
497.509	22.69
497.707	23.04
497.906	24.87
498.105	22.62
498.303	22.23
498.502	24.83
498.7	29.02
498.899	27.04
499.097	29.6
499.296	25.08
499.495	22.48
499.693	26.85
499.892	25.57
500.09	19.87
500.289	23.97
500.487	20.03
500.686	14.71
500.884	13.64
501.082	10.49
501.281	8.96
501.479	15.57
501.678	15.4
501.876	14.64
502.074	16.21
502.273	14.27
502.471	21.26
502.669	16.67
502.868	14.54
503.066	17.2
503.264	17.8
503.463	20.5
503.661	18.71
503.859	11.48
504.057	12.89
504.256	17.24
504.454	11.91
504.652	11
504.85	12.83
505.048	17.24
505.246	14.94
505.445	16.29
505.643	11.26
505.841	11.98
506.039	15.61
506.237	13.7
506.435	15.84
506.633	9.64
506.831	14.06
507.029	15.51
507.227	17.43
507.425	18.39
507.623	19.13
507.821	19.66
508.019	25.6
508.217	28.19
508.415	26.8
508.613	26.87
508.811	25.53
509.009	25.49
509.207	25.74
509.405	30.82
509.603	26.72
509.8	27.02
509.998	23.96
510.196	24.69
510.394	21.17
510.592	16.94
510.79	16.68
510.987	12.85
511.185	12.98
511.383	8.35
511.581	3.96
511.778	4.8
511.976	9.74
512.174	4.74
512.371	-0.94
512.569	2.48
512.767	4.81
512.964	3.2
513.162	3.09
513.36	0.96
513.557	-3.98
513.755	0.13
513.952	3.17
514.15	4.56
514.348	2.73
514.545	7.96
514.743	13.21
514.94	14.1
515.138	14.6
515.335	13.01
515.533	17.57
515.73	21.22
515.927	18.63
516.125	16.39
516.322	17.57
516.52	17.83
516.717	22.58
516.915	22.56
517.112	25.74
517.309	25.81
517.507	28.19
517.704	27.21
517.901	22.69
518.099	20.45
518.296	22.08
518.493	22.25
518.69	22.48
518.888	23.85
519.085	23.6
519.282	27.3
519.479	27.19
519.676	22.26
519.874	20.04
520.071	17.37
520.268	18.38
520.465	19.14
520.662	20.09
520.859	12.58
521.056	9.56
521.254	12.23
521.451	15.15
521.648	12.67
521.845	13.58
522.042	17.16
522.239	20.56
522.436	20.08
522.633	15.42
522.83	12.29
523.027	6.88
523.224	8.18
523.421	4.36
523.618	0.13
523.815	6.31
524.011	7.12
524.208	14.84
524.405	14
524.602	14.64
524.799	12.11
524.996	11.31
525.193	13.99
525.389	13.28
525.586	11.04
525.783	9.45
525.98	11.68
526.176	9.44
526.373	5.57
526.57	6.63
526.767	8
526.963	10.71
527.16	17.67
527.357	20.39
527.553	22.55
527.75	24.34
527.947	19.55
528.143	19.36
528.34	13.85
528.537	16.27
528.733	16.73
528.93	17.78
529.126	21.44
529.323	23.32
529.519	21.52
529.716	18.96
529.912	16.24
530.109	13.82
530.305	13.72
530.502	15.44
530.698	15.61
530.895	14.87
531.091	13.47
531.288	9.31
531.484	8.64
531.68	7.93
531.877	11.59
532.073	12.45
532.269	14.52
532.466	14.65
532.662	11.42
532.858	9.53
533.055	10.56
533.251	10.47
533.447	7.37
533.643	12.88
533.84	10.62
534.036	14.04
534.232	13.72
534.428	13.45
534.624	10.41
534.821	8.83
535.017	11.78
535.213	10.51
535.409	13.01
535.605	10.09
535.801	7.34
535.997	7.54
536.193	6.58
536.389	4.31
536.586	4.62
536.782	6.26
536.978	6.1
537.174	6.54
537.37	5.72
537.566	8.12
537.762	-0.7
537.958	2.8
538.153	-1.22
538.349	-2.11
538.545	0.16
538.741	-0.28
538.937	0.5
539.133	1.09
539.329	1.54
539.525	-0.73
539.721	1.08
539.916	5.72
540.112	-0.37
540.308	4.1
540.504	3.96
540.699	6.48
540.895	7.79
541.091	11.92
541.287	10.24
541.482	8.61
541.678	7.45
541.874	8.05
542.069	7.97
542.265	11.29
542.461	12.09
542.656	13.01
542.852	13.83
543.048	14.87
543.243	15.06
543.439	18.4
543.634	14.9
543.83	14.74
544.025	12.42
544.221	15.69
544.417	17
544.612	18.62
544.807	17.21
545.003	12.97
545.198	9.32
545.394	11.46
545.589	12.77
545.785	12.69
545.98	12.56
546.176	11.88
546.371	8.63
546.566	7.29
546.762	3.95
546.957	4.03
547.152	2.72
547.348	0.62
547.543	0.01
547.738	-0.16
547.933	-1.83
548.129	-1.2
548.324	-1.36
548.519	-6.59
548.714	-9.07
548.91	-8.81
549.105	-7.2
549.3	-4.67
549.495	-4.88
549.69	-6.24
549.885	-6.26
550.08	-2.24
550.276	0.87
550.471	4.91
550.666	4.2
550.861	6.42
551.056	7.42
551.251	6.7
551.446	10.57
551.641	6.75
551.836	10.79
552.031	13.48
552.226	15.62
552.421	16.76
552.616	17.75
552.811	20.53
553.006	20.39
553.201	19.99
553.395	16.43
553.59	14.95
553.785	14.05
553.98	13.04
554.175	9.56
554.37	6.87
554.565	5.43
554.759	6.57
554.954	4.41
555.149	6.4
555.344	7.45
555.538	4.57
555.733	6.51
555.928	8.21
556.122	7.14
556.317	6.36
556.512	4.73
556.706	4.58
556.901	5.35
557.096	3.99
557.29	6.54
557.485	6
557.68	5.2
557.874	5.78
558.069	5.7
558.263	8.53
558.458	7.79
558.652	9.35
558.847	9.59
559.041	13.85
559.236	9.56
559.43	7.6
559.625	8.13
559.819	7.14
560.014	4.68
560.208	4.89
560.402	4.01
560.597	4.19
560.791	4.25
560.986	4.24
561.18	6.12
561.374	2.93
561.569	6.32
561.763	8.67
561.957	7.2
562.151	6.24
562.346	7.52
562.54	9.97
562.734	9.35
562.928	9.48
563.123	9.01
563.317	10.94
563.511	14.92
563.705	14.39
563.899	15.84
564.093	14.67
564.288	17.54
564.482	16.03
564.676	18.9
564.87	20.32
565.064	20.88
565.258	20.75
565.452	23.05
565.646	22.19
565.84	20.2
566.034	21.08
566.228	23.84
566.422	21.73
566.616	19.81
566.81	18.95
567.004	18.14
567.198	17.87
567.392	18.65
567.586	12.68
567.779	13.44
567.973	12.84
568.167	15.55
568.361	11.57
568.555	13.57
568.749	11.84
568.942	10.59
569.136	10.01
569.33	9.18
569.524	9.42
569.718	10.58
569.911	11.57
570.105	13.65
570.299	11.31
570.492	10.85
570.686	12.35
570.88	14.4
571.073	14.04
571.267	13.45
571.461	12.79
571.654	16.02
571.848	16.9
572.041	18.19
572.235	17.03
572.429	19.36
572.622	16.8
572.816	17.3
573.009	17.06
573.203	16.57
573.396	19.41
573.59	19.19
573.783	15.46
573.976	13.36
574.17	11.53
574.363	13.76
574.557	12.68
574.75	10.23
574.943	10.89
575.137	11.3
575.33	13.07
575.523	12.84
575.717	12.17
575.91	9.93
576.103	8.33
576.297	8.05
576.49	7.96
576.683	9.13
576.876	8.03
577.07	7.76
577.263	8.46
577.456	6.03
577.649	5.14
577.842	7.77
578.036	9.84
578.229	9.63
578.422	7.9
578.615	7.44
578.808	8.33
579.001	8.73
579.194	10.27
579.387	10.83
579.58	9.78
579.773	9.83
579.966	9.98
580.159	9.27
580.352	9.72
580.545	9.66
580.738	9.21
580.931	8.36
581.124	8.81
581.317	5.81
581.51	3.47
581.703	5.97
581.896	5.46
582.088	5.4
582.281	7.34
582.474	8.91
582.667	11.85
582.86	13.26
583.053	9.94
583.245	9.26
583.438	6.13
583.631	8.86
583.824	8.11
584.016	9.84
584.209	8.73
584.402	9.09
584.594	8.71
584.787	10.27
584.98	10.79
585.172	12.15
585.365	12.56
585.558	13.81
585.75	11.48
585.943	11.97
586.135	11.17
586.328	9.44
586.52	10.2
586.713	8.94
586.906	7.38
587.098	8.66
587.291	10.83
587.483	9.88
587.675	9.47
587.868	10.31
588.06	10
588.253	13.68
588.445	12.84
588.638	12.18
588.83	10.45
589.022	9.57
589.215	8.05
589.407	10.42
589.599	10.2
589.792	11.65
589.984	12.02
590.176	11.12
590.368	12.52
590.561	13.01
590.753	13.03
590.945	13.11
591.137	11.98
591.33	7.3
591.522	9.32
591.714	8.25
591.906	10.49
592.098	9.09
592.29	7.92
592.482	7.98
592.674	8.99
592.867	10.34
593.059	11.63
593.251	12.62
593.443	11.89
593.635	12.32
593.827	10
594.019	7.68
594.211	8.26
594.403	8.3
594.595	6.25
594.787	6.64
594.979	7.35
595.17	7.03
595.362	9.41
595.554	10.97
595.746	10.77
595.938	9.21
596.13	10.23
596.322	10.2
596.513	9.54
596.705	8.58
596.897	7.42
597.089	8.73
597.281	8.6
597.472	9.35
597.664	7.76
597.856	10.49
598.048	11.76
598.239	9.93
598.431	9.13
598.623	7.9
598.814	7.07
599.006	8.45
599.197	10.6
599.389	10.52
599.581	6.65
599.772	6.58
599.964	4.94
600.155	3.86
600.347	2.58
600.538	3.25
600.73	4.24
600.921	5.18
601.113	3.41
601.304	3.57
601.496	3.14
601.687	4.67
601.879	1.92
602.07	2.76
602.262	5
602.453	5.24
602.644	5.5
602.836	5.06
603.027	3.39
603.218	1.36
603.41	-0.74
603.601	2.6
603.792	3.43
603.983	4.73
604.175	5.86
604.366	5.5
604.557	6.89
604.748	6.2
604.94	4.79
605.131	4.36
605.322	4.42
605.513	4.06
605.704	5.7
605.895	7.43
606.086	6.15
606.278	5.18
606.469	6.45
606.66	8.13
606.851	7.84
607.042	7.56
607.233	8.02
607.424	9.82
607.615	8
607.806	6.86
607.997	6.37
608.188	6.3
608.379	7.13
608.57	5.35
608.761	5.14
608.952	5.6
609.142	5.58
609.333	4.64
609.524	4.73
609.715	4.54
609.906	3.79
610.097	5.44
610.287	5.79
610.478	4.78
610.669	5.27
610.86	7.24
611.051	7.7
611.241	9.36
611.432	9.36
611.623	11.03
611.813	11.7
612.004	11.34
612.195	12.5
612.385	13.07
612.576	14.34
612.767	15.02
612.957	15.36
613.148	15.28
613.338	15.95
613.529	15.96
613.72	14.86
613.91	14.9
614.101	15.13
614.291	16.31
614.482	16.41
614.672	15.03
614.863	13.7
615.053	13.06
615.243	14.05
615.434	14.64
615.624	13.08
615.815	12.93
616.005	12.41
616.195	10
616.386	9.08
616.576	8.11
616.766	8.38
616.957	8.38
617.147	7.47
617.337	5.08
617.528	4.43
617.718	4.77
617.908	4.38
618.098	4.32
618.289	4.34
618.479	4.49
618.669	5.18
618.859	5.98
619.049	6.9
619.239	5.02
619.43	2.49
619.62	0.88
619.81	2.84
620	3.9
620.19	4.14
620.38	3.81
620.57	3.99
620.76	3.01
620.95	3.86
621.14	4.82
621.33	7.23
621.52	7.87
621.71	6.36
621.9	6.84
622.09	5.34
622.28	4.41
622.47	2.9
622.659	1.46
622.849	1.27
623.039	0.66
623.229	-0.37
623.419	1.42
623.609	2.84
623.799	1.74
623.988	1.29
624.178	2.88
624.368	3.82
624.558	4.63
624.747	5.05
624.937	3.98
625.127	2.69
625.316	2.16
625.506	3.09
625.696	4.05
625.885	3.98
626.075	4.64
626.265	4.97
626.454	5.86
626.644	6.73
626.833	6.87
627.023	6.68
627.212	6.17
627.402	6.69
627.591	8.02
627.781	7.69
627.97	7.7
628.16	7.44
628.349	6.31
628.539	4.94
628.728	5.81
628.918	6.02
629.107	7.64
629.296	7.09
629.486	7.14
629.675	7.17
629.865	7.57
630.054	7.9
630.243	6.67
630.432	5.96
630.622	6.34
630.811	6.86
631	6.68
631.19	8.75
631.379	7.38
631.568	6.7
631.757	6.93
631.946	7.23
632.136	8.54
632.325	8.99
632.514	10.25
632.703	8.28
632.892	6.98
633.081	7.13
633.27	7.83
633.459	7.31
633.648	7.77
633.837	6.4
634.026	5.18
634.215	7.54
634.404	8.74
634.593	9.26
634.782	8.64
634.971	8.5
635.16	7.12
635.349	8.06
635.538	8.54
635.727	7.14
635.916	5.4
636.105	3.98
636.294	5.34
636.482	4.81
636.671	6.38
636.86	9.22
637.049	9.29
637.238	8.49
637.426	8.43
637.615	7.8
637.804	8.9
637.993	9.61
638.181	9.19
638.37	10.01
638.559	9.32
638.747	8.7
638.936	9.14
639.125	10.06
639.313	8.3
639.502	7.22
639.691	7.65
639.879	8.72
640.068	8.28
640.256	6.29
640.445	6.77
640.633	7.06
640.822	5.44
641.01	6.22
641.199	6.89
641.387	5.91
641.576	6.49
641.764	7.29
641.953	7.69
642.141	6.98
642.329	6.24
642.518	6.01
642.706	6.54
642.894	7.06
643.083	6.31
643.271	6.73
643.459	7.87
643.648	9.37
643.836	9.08
644.024	8.38
644.213	8.85
644.401	7.39
644.589	4.81
644.777	6.41
644.965	6.57
645.154	5.8
645.342	6.72
645.53	6.79
645.718	6.3
645.906	6.66
646.094	6.37
646.282	5.85
646.47	7.29
646.658	7.2
646.846	6.18
647.034	7.37
647.223	8.16
647.411	7.96
647.599	5.63
647.786	6.14
647.974	6.61
648.162	7.07
648.35	7.68
648.538	8.51
648.726	7.85
648.914	7.1
649.102	8.05
649.29	8.19
649.478	7.7
649.665	7.56
649.853	6.82
650.041	7.66
650.229	8.62
650.417	6.04
650.604	5.46
650.792	6.75
650.98	5.46
651.168	4.26
651.355	4.21
651.543	4.9
651.731	4.35
651.918	4.81
652.106	5.71
652.294	5.51
652.481	7.57
652.669	7.4
652.856	6.82
653.044	7.66
653.231	6.67
653.419	7.67
653.606	7.55
653.794	8.51
653.981	8.98
654.169	7.78
654.356	8.19
654.544	8.58
654.731	8.32
654.919	8.86
655.106	10.12
655.294	11.13
655.481	12.01
655.668	12.97
655.856	11.9
656.043	11.56
656.23	12.07
656.418	11.19
656.605	11.09
656.792	12.6
656.979	11.86
657.167	13.08
657.354	12.78
657.541	13.6
657.728	13.15
657.916	11.46
658.103	11.35
658.29	12.65
658.477	13.32
658.664	13.91
658.851	12.66
659.038	12.78
659.225	11
659.412	11.53
659.6	10.39
659.787	11.35
659.974	9.54
660.161	9.99
660.348	8.56
660.535	10.45
660.722	8.36
660.909	6.65
661.095	5.46
661.282	6.65
661.469	5.91
661.656	4.56
661.843	5.87
662.03	5.84
662.217	6.39
662.404	5.83
662.59	4.37
662.777	3.58
662.964	3.44
663.151	4.22
663.338	3.11
663.524	2.88
663.711	1.67
663.898	3.78
664.085	3.3
664.271	4.82
664.458	2.86
664.645	3.37
664.831	5.15
665.018	4.81
665.204	3.31
665.391	3.68
665.578	4.13
665.764	2.23
665.951	2.56
666.137	1.04
666.324	1.45
666.51	1.85
666.697	3.45
666.883	3.19
667.07	3.72
667.256	4.38
667.443	3.78
667.629	4.27
667.816	2.28
668.002	1.98
668.188	2.15
668.375	2.28
668.561	1.11
668.747	-0.86
668.934	-0.68
669.12	0.37
669.306	-1.24
669.493	-0.55
669.679	1.25
669.865	1.41
670.051	1.68
670.238	2.05
670.424	0.9
670.61	0.22
670.796	0.47
670.982	-0.73
671.169	-0.95
671.355	-1.39
671.541	-1.88
671.727	0.35
671.913	0.34
672.099	-0.76
672.285	-1.75
672.471	1.06
672.657	2.91
672.843	4.35
673.029	1.73
673.215	4.14
673.401	5.73
673.587	3.48
673.773	4.55
673.959	3.97
674.145	3.99
674.331	5.44
674.517	5.5
674.703	5.63
674.888	7.41
675.074	7.43
675.26	9.99
675.446	11.62
675.632	9.44
675.817	9.94
676.003	11.22
676.189	12.14
676.375	10.5
676.56	9.96
676.746	7.59
676.932	7.45
677.117	5.84
677.303	4
677.489	4.14
677.674	2.41
677.86	2.52
678.046	2.28
678.231	1.85
678.417	2.49
678.602	2.26
678.788	1.5
678.973	1.46
679.159	1.86
679.344	1.47
679.53	2.76
679.715	2
679.901	1.84
680.086	1.3
680.272	2.56
680.457	3.01
680.643	4.14
680.828	5.96
681.013	6.18
681.199	5.99
681.384	7.62
681.569	8.24
681.755	9.46
681.94	9.45
682.125	8.71
682.31	9.24
682.496	8.58
682.681	8.53
682.866	8.13
683.051	6.33
683.237	6.25
683.422	6.47
683.607	6.29
683.792	5.92
683.977	6.12
684.162	4.38
684.347	3.93
684.532	3.07
684.717	2.11
684.903	1.96
685.088	2.51
685.273	2.38
685.458	2.29
685.643	2.38
685.828	1.1
686.013	4.24
686.198	3.19
686.382	4.74
686.567	3.77
686.752	3.18
686.937	3.71
687.122	3.81
687.307	3.44
687.492	4.47
687.677	3.23
687.861	3.97
688.046	3.22
688.231	3.85
688.416	6.54
688.601	6.78
688.785	7.86
688.97	8.4
689.155	10.24
689.339	8.38
689.524	6.45
689.709	6.99
689.893	5.33
690.078	6.58
690.263	6.78
690.447	6.51
690.632	7.01
690.816	6.48
691.001	7.23
691.186	7.45
691.37	6.95
691.555	8.47
691.739	9.43
691.924	11.06
692.108	10.59
692.293	10.01
692.477	10.41
692.661	8.58
692.846	7.76
693.03	6.22
693.215	7
693.399	8.06
693.583	8.17
693.768	8.05
693.952	6.73
694.136	3.77
694.321	5.69
694.505	6.2
694.689	6.96
694.873	6.47
695.058	6.08
695.242	6.46
695.426	6.36
695.61	4.44
695.794	4.11
695.979	2.99
696.163	2.08
696.347	1.73
696.531	2.18
696.715	3.64
696.899	3.03
697.083	2.39
697.267	3.14
697.451	2.4
697.635	1.68
697.819	2.14
698.003	4.29
698.187	3.54
698.371	3.59
698.555	3.68
698.739	3.27
698.923	3.99
699.107	3.41
699.291	2.87
699.475	3.72
699.659	3.6
699.842	4.73
700.026	4.8
700.21	5.14
700.394	6.11
700.578	5.34
700.761	6.95
700.945	9.23
701.129	9.3
701.313	8.93
701.496	10.23
701.68	10.15
701.864	8.67
702.047	9.86
702.231	11.1
702.415	10.69
702.598	10.13
702.782	9.25
702.965	9.9
703.149	10.1
703.333	9.1
703.516	8.48
703.7	8.6
703.883	8.65
704.067	8.85
704.25	8.65
704.434	7.02
704.617	5.88
704.801	4.18
704.984	3.7
705.167	4.73
705.351	3.9
705.534	4.11
705.718	5.21
705.901	3.69
706.084	2.47
706.268	2.66
706.451	2.74
706.634	3.25
706.817	2.22
707.001	1.75
707.184	0.97
707.367	1.74
707.55	1.57
707.734	2.3
707.917	2.37
708.1	2.01
708.283	3.62
708.466	3.81
708.649	4.16
708.832	4.67
709.015	5.91
709.199	7.5
709.382	7.02
709.565	7.5
709.748	8.93
709.931	9.26
710.114	8.86
710.297	9.62
710.48	9.46
710.663	10.39
710.846	10.69
711.028	12
711.211	10.45
711.394	10.05
711.577	9.88
711.76	7.74
711.943	8.38
712.126	7.9
712.309	8.9
712.491	9.33
712.674	7.34
712.857	7.32
713.04	6.43
713.222	8.17
713.405	7.84
713.588	6.79
713.771	6.64
713.953	7.1
714.136	6.36
714.319	6.69
714.501	4.86
714.684	5.01
714.866	5.54
715.049	7.3
715.232	7.06
715.414	6.42
715.597	7.89
715.779	7.25
715.962	8.95
716.144	7.59
716.327	7.42
716.509	8.61
716.692	8.04
716.874	6.46
717.057	4.43
717.239	4.3
717.421	3.38
717.604	1.51
717.786	2.27
717.968	1.98
718.151	1.79
718.333	2.37
718.515	1.26
718.698	0.33
718.88	0.06
719.062	0.38
719.244	0.24
719.427	-0.17
719.609	-0.23
719.791	-2.52
719.973	-2.41
720.155	-3.98
720.338	-4.68
720.52	-4.53
720.702	-2.62
720.884	-1.33
721.066	-0.67
721.248	-2.52
721.43	-0.55
721.612	-1.94
721.794	-1.02
721.976	-0.03
722.158	0.73
722.34	1.92
722.522	2.93
722.704	3.86
722.886	2.75
723.068	2.8
723.25	3.46
723.432	3.81
723.614	4.97
723.796	4.72
723.977	6.13
724.159	6.82
724.341	6.19
724.523	3.97
724.705	2.79
724.886	1.36
725.068	3.66
725.25	4.57
725.432	4.61
725.613	4.34
725.795	5.02
725.977	6.04
726.158	5.5
726.34	5.1
726.522	5.08
726.703	6.01
726.885	7.47
727.066	6.21
727.248	7.88
727.43	7.35
727.611	7.59
727.793	7.15
727.974	6.51
728.156	7.46
728.337	8.02
728.519	8.55
728.7	10.45
728.882	10.08
729.063	9.53
729.244	10.24
729.426	11.34
729.607	11.09
729.788	10.19
729.97	11.98
730.151	12.02
730.332	12.37
730.514	12.11
730.695	11.24
730.876	12.94
731.058	10.95
731.239	11.65
731.42	12.32
731.601	11.76
731.782	12.57
731.964	12.46
732.145	12.92
732.326	10.78
732.507	9.53
732.688	9.97
732.869	11.04
733.05	11.4
733.231	11.11
733.412	9.7
733.593	10.09
733.774	9.26
733.955	8.28
734.136	7.49
734.317	7.31
734.498	7.45
734.679	5.89
734.86	5.08
735.041	5.37
735.222	5.04
735.403	5.13
735.584	4.49
735.765	4.89
735.946	4.86
736.126	5.88
736.307	7.5
736.488	7.77
736.669	4.52
736.849	3.72
737.03	5
737.211	6.15
737.392	6.5
737.572	3.94
737.753	4.8
737.934	4.2
738.114	5.88
738.295	5.29
738.476	5.65
738.656	9
738.837	8.44
739.017	8.17
739.198	9.87
739.378	12.06
739.559	10.2
739.74	10.77
739.92	11.27
740.1	10.61
740.281	9.11
740.461	10.6
740.642	11.57
740.822	8.68
741.003	8.41
741.183	8.14
741.363	10.6
741.544	9.89
741.724	9.88
741.904	8.88
742.085	9.25
742.265	8.3
742.445	6.35
742.626	6.96
742.806	7.66
742.986	8.22
743.166	5.57
743.347	5.88
743.527	6.14
743.707	5.59
743.887	3.29
744.067	2.49
744.247	1.46
744.427	0.16
744.608	-0.01
744.788	1.86
744.968	2.73
745.148	2.63
745.328	2.68
745.508	2.28
745.688	2.35
745.868	1.27
746.048	1.27
746.228	1.96
746.408	-0.41
746.588	-1.22
746.767	-1.82
746.947	-0.65
747.127	-0.93
747.307	-2.07
747.487	-0.57
747.667	0.92
747.847	3.08
748.026	5.33
748.206	6.35
748.386	7.33
748.566	4.97
748.745	4.22
748.925	4.29
749.105	5.23
749.285	5.52
749.464	5.37
749.644	6.86
749.824	9.73
750.003	9.19
750.183	10.57
750.362	10.69
750.542	7.86
750.722	7.01
750.901	7.76
751.081	7.78
751.26	8.56
751.44	8.63
751.619	8.06
751.799	5.5
751.978	4.19
752.158	4.3
752.337	4.64
752.516	4.52
752.696	3.9
752.875	4.88
753.055	5.78
753.234	6.92
753.413	6.52
753.593	5.79
753.772	5.71
753.951	5.86
754.13	6.02
754.31	7.65
754.489	6.67
754.668	7.55
754.847	7.61
755.027	7.81
755.206	9.36
755.385	9.41
755.564	9.97
755.743	11.19
755.922	11.56
756.101	11.82
756.28	12.41
756.46	12.79
756.639	10.75
756.818	10.85
756.997	10.6
757.176	10.64
757.355	9.86
757.534	9.79
757.713	10.43
757.892	10.42
758.07	10.72
758.249	11.22
758.428	10.75
758.607	10.11
758.786	9.9
758.965	7.93
759.144	8.93
759.323	8.09
759.501	6.87
759.68	6.19
759.859	6.71
760.038	6.49
760.216	5.37
760.395	6.51
760.574	6.01
760.753	6.14
760.931	6.95
761.11	7.21
761.289	6.86
761.467	5.93
761.646	5.48
761.824	5.93
762.003	5.31
762.182	3.53
762.36	4.23
762.539	2.99
762.717	4.07
762.896	3.99
763.074	5.55
763.253	5.32
763.431	7.93
763.61	6.71
763.788	5.69
763.966	6.73
764.145	6.87
764.323	6.92
764.502	5.77
764.68	4.91
764.858	4.54
765.037	5.25
765.215	4.92
765.393	5.55
765.571	5.9
765.75	7.05
765.928	7.68
766.106	6.65
766.284	7.07
766.463	6.25
766.641	6.99
766.819	6.49
766.997	7.85
767.175	4.99
767.353	5.36
767.531	5.72
767.71	5.96
767.888	5.73
768.066	5.7
768.244	6.86
768.422	7.35
768.6	9.58
768.778	7.87
768.956	7.72
769.134	9.09
769.312	8.16
769.489	7.28
769.667	9.01
769.845	10.17
770.023	10.78
770.201	11.2
770.379	9.47
770.557	9.65
770.735	9.31
770.912	8.62
771.09	8.64
771.268	10.27
771.446	9.43
771.623	10.22
771.801	10.6
771.979	9.9
772.157	8.73
772.334	6.53
772.512	8.49
772.69	8.71
772.867	7.33
773.045	8.1
773.222	7.71
773.4	7.33
773.577	8
773.755	8.36
773.933	8.49
774.11	8.86
774.288	8.66
774.465	9.02
774.643	10.47
774.82	11.32
774.997	9.68
775.175	8.63
775.352	9.25
775.53	9.36
775.707	9.35
775.884	9.57
776.062	9.82
776.239	9.92
776.416	11.73
776.594	12.33
776.771	11.98
776.948	13.96
777.125	15.16
777.303	14.39
777.48	12.47
777.657	10.78
777.834	10.67
778.012	10.63
778.189	11.28
778.366	11.76
778.543	9.3
778.72	10.35
778.897	12.52
779.074	11.26
779.251	11.61
779.428	10.58
779.605	10.02
779.782	10.35
779.959	10.52
780.136	8.2
780.313	8.1
780.49	7.2
780.667	6.95
780.844	5.04
781.021	5.96
781.198	6.08
781.375	7.92
781.552	7.92
781.728	7.08
781.905	6.88
782.082	6.06
782.259	6.02
782.436	5.33
782.612	3.59
782.789	2.86
782.966	0.72
783.143	1.29
783.319	1.22
783.496	1.64
783.673	-0.36
783.849	2.1
784.026	2.28
784.203	2.51
784.379	0.67
784.556	0.28
784.732	-1.97
784.909	0.65
785.085	0.23
785.262	0.12
785.438	1.78
785.615	0.43
785.791	0.53
785.968	3.25
786.144	3.55
786.321	7.25
786.497	6.3
786.673	6.61
786.85	7.04
787.026	6.24
787.203	4.85
787.379	6.29
787.555	2.6
787.731	3.94
787.908	3.57
788.084	7.38
788.26	7.17
788.437	9.94
788.613	7.67
788.789	6.03
788.965	6.19
789.141	6.17
789.317	5.39
789.494	3.15
789.67	2.57
789.846	2.34
790.022	-2.26
790.198	0.16
790.374	0.21
790.55	-1.39
790.726	-0.28
790.902	-0.67
791.078	-1.17
791.254	0.11
791.43	-1.37
791.606	-1.55
791.782	-4.54
791.958	-3.26
792.134	-4.08
792.31	-4.04
792.486	-3.46
792.661	-3.8
792.837	-2.1
793.013	0.04
793.189	3.77
793.365	3.16
793.54	5.68
793.716	8.84
793.892	7.38
794.068	7.29
794.243	8.49
794.419	8.69
794.595	9.62
794.77	8.55
794.946	8.66
795.122	7.09
795.297	8.73
795.473	9.5
795.648	10.47
795.824	10.57
796	10.96
796.175	12.09
796.351	11.95
796.526	10.92
796.702	9.64
796.877	7.75
797.052	7.38
797.228	5.29
797.403	0.8
797.579	0.38
797.754	2.14
797.929	2.97
798.105	3.74
798.28	3
798.455	5.94
798.631	4.67
798.806	6.65
798.981	6.55
799.157	6.03
799.332	5.41
799.507	6.51
799.682	7.04
799.858	6.47
800.033	6.71
800.208	5.98
800.383	7.95
800.558	10.63
800.733	10.57
800.908	8.33
801.083	11.5
801.258	10.79
801.434	9.7
801.609	9.45
801.784	10.72
801.959	13.1
802.134	11.81
802.309	13.34
802.484	10.19
802.658	9.19
802.833	8.42
803.008	8.83
803.183	5.27
803.358	4.51
803.533	6.45
803.708	7.49
803.883	7.48
804.057	3.41
804.232	3.28
804.407	6.1
804.582	8.7
804.756	9.29
804.931	12.38
805.106	11.46
805.281	14.46
805.455	10.58
805.63	10.05
805.805	8.87
805.979	12.33
806.154	14.99
806.328	15.82
806.503	19.2
806.678	18.09
806.852	19.7
807.027	20.14
807.201	18.03
807.376	17.47
807.55	18.04
807.725	20.7
807.899	20.42
808.074	20.41
808.248	19.9
808.422	18.16
808.597	16.55
808.771	18.95
808.946	18.44
809.12	22.83
809.294	22.33
809.468	23.56
809.643	21.49
809.817	20.41
809.991	20.55
810.166	17.73
810.34	18.22
810.514	20.29
810.688	21.9
810.862	21.9
811.037	22.21
811.211	23.47
811.385	20.52
811.559	18.41
811.733	17.74
811.907	16.14
812.081	16.76
812.255	16.66
812.429	13.8
812.603	10.39
812.777	9.51
812.951	8.47
813.125	5.55
813.299	3.78
813.473	2.22
813.647	6.23
813.821	5.46
813.995	6.03
814.169	5.4
814.343	4.34
814.516	5.4
814.69	5.92
814.864	4.18
815.038	7.83
815.212	12.98
815.385	13.59
815.559	16.64
815.733	16.51
815.907	16.97
816.08	20.45
816.254	20.92
816.428	20.89
816.601	22.72
816.775	23.98
816.948	23.77
817.122	25.23
817.296	21.41
817.469	24.99
817.643	23.71
817.816	22.03
817.99	20.55
818.163	19.68
818.337	17.22
818.51	17.37
818.684	17.32
818.857	11.61
819.031	8.39
819.204	6.75
819.377	6.29
819.551	2.79
819.724	2.67
819.897	4.83
820.071	4.28
820.244	0.14
820.417	-0.05
820.591	0.49
820.764	3.37
820.937	4.78
821.11	-2.28
821.284	2.55
821.457	6.52
821.63	7.72
821.803	7.98
821.976	11.47
822.149	10.21
822.322	8.51
822.496	8.72
822.669	10.55
822.842	12.08
823.015	11.57
823.188	13.41
823.361	11.92
823.534	8.54
823.707	8.33
823.88	10.88
824.053	11.86
824.226	12.63
824.399	11.63
824.571	11.71
824.744	18.67
824.917	17.36
825.09	14.91
825.263	15.93
825.436	21.44
825.608	18.54
825.781	17.95
825.954	21.27
826.127	20.87
826.299	20.65
826.472	18.61
826.645	22.15
826.818	23.01
826.99	24.21
827.163	22.76
827.336	23.16
827.508	19.95
827.681	21.81
827.853	21.9
828.026	21.69
828.198	21.73
828.371	18.85
828.544	15.93
828.716	15.9
828.889	15.82
829.061	10.32
829.233	10.25
829.406	10.55
829.578	7.96
829.751	9.88
829.923	8.01
830.096	7.27
830.268	6.79
830.44	6.66
830.613	4.15
830.785	6.65
830.957	8.08
831.129	11.15
831.302	12.23
831.474	9.25
831.646	11.3
831.818	11.54
831.991	10.97
832.163	13.1
832.335	14.97
832.507	13.26
832.679	10.24
832.851	10.02
833.023	12.66
833.195	14.15
833.368	12.59
833.54	17.48
833.712	18.83
833.884	20.45
834.056	20.62
834.228	19.68
834.4	21.94
834.571	22.31
834.743	22.05
834.915	18.24
835.087	20.85
835.259	18.97
835.431	14.95
835.603	17.64
835.775	17.53
835.946	17.55
836.118	18.45
836.29	21.08
836.462	22.78
836.634	23.23
836.805	18.45
836.977	18.1
837.149	14.9
837.32	14.17
837.492	11.56
837.664	10.83
837.835	14.83
838.007	7.03
838.179	6.64
838.35	11.19
838.522	18.07
838.693	19.18
838.865	18.76
839.036	21.33
839.208	19.89
839.379	20.09
839.551	18.96
839.722	19.7
839.894	17.21
840.065	12.81
840.237	12.42
840.408	14.67
840.579	15.32
840.751	14.48
840.922	14.69
841.093	12.14
841.265	14.57
841.436	15.82
841.607	19.96
841.778	20.27
841.95	16.32
842.121	14.8
842.292	13.32
842.463	13.39
842.635	17.36
842.806	20.69
842.977	18.26
843.148	14.35
843.319	8.89
843.49	14.55
843.661	14.94
843.832	13.69
844.003	16.12
844.174	18.19
844.345	21.96
844.516	16.34
844.687	19.49
844.858	20.47
845.029	21.56
845.2	17.17
845.371	12.18
845.542	8.39
845.713	1.14
845.884	3.53
846.055	1.8
846.225	0.39
846.396	-2.11
846.567	-1.06
846.738	0.52
846.909	3.41
847.079	-1.64
847.25	4.84
847.421	2.17
847.591	-1.98
847.762	-4.93
847.933	-10.18
848.103	-4.99
848.274	-7.45
848.445	-11.15
848.615	-14.97
848.786	-7.97
848.956	-6.11
849.127	0.38
849.297	9.97
849.468	13.26
849.638	15.05
849.809	13.8
849.979	11.9
850.15	16.23
850.32	23.65
850.491	27.69
850.661	31.44
850.831	32.7
851.002	33.34
851.172	35.48
851.342	37.58
851.513	38.28
851.683	35.52
851.853	34.46
852.024	34.88
852.194	34.31
852.364	32.45
852.534	38.16
852.705	42.42
852.875	38.99
853.045	34.23
853.215	34.28
853.385	36.45
853.555	36.43
853.725	31.36
853.895	22.12
854.066	23.23
854.236	22.41
854.406	16.8
854.576	18.32
854.746	14.61
854.916	20.59
855.086	18.05
855.256	25.54
855.425	32.07
855.595	35.8
855.765	33.15
855.935	30.5
856.105	20.64
856.275	17.74
856.445	10.79
856.614	11.48
856.784	13.12
856.954	15.12
857.124	19.12
857.294	24.5
857.463	26.31
857.633	28.21
857.803	25.36
857.972	27.57
858.142	27.43
858.312	31.57
858.481	24.89
858.651	22.41
858.821	19.09
858.99	11.97
859.16	1.34
859.329	5.28
859.499	8.19
859.668	15.95
859.838	15.79
860.007	24.73
860.177	27.87
860.346	30.43
860.516	24.73
860.685	19.96
860.854	22.24
861.024	23.91
861.193	18.22
861.363	19.33
861.532	18.48
861.701	17.64
861.87	16.63
862.04	20.18
862.209	23.22
862.378	25.61
862.547	29.42
862.717	32.46
862.886	32.25
863.055	37.96
863.224	34.98
863.393	31.18
863.563	29.99
863.732	31.9
863.901	24.81
864.07	30.37
864.239	32.49
864.408	32.01
864.577	29.01
864.746	35.59
864.915	37.61
865.084	42.2
865.253	42.55
865.422	44.55
865.591	41.5
865.76	40.47
865.929	42.4
866.097	42.65
866.266	44.91
866.435	47.6
866.604	39.31
866.773	35.79
866.942	31.47
867.11	34.81
867.279	30.64
867.448	36.22
867.617	26.94
867.785	25.94
867.954	6.65
868.123	14.76
868.291	3.32
868.46	10.21
868.629	7.65
868.797	3.64
868.966	0.48
869.134	8.22
869.303	12.85
869.472	10.35
869.64	6.38
869.809	5.15
869.977	5.65
870.146	8.04
870.314	11.39
870.482	14.76
870.651	9.39
870.819	11.24
870.988	11.42
871.156	18.03
871.324	11.7
871.493	17.67
871.661	18.27
871.829	28.86
871.998	25.66
872.166	26.48
872.334	34.7
872.502	29.64
872.671	27.12
872.839	30.97
873.007	40.55
873.175	37.39
873.343	37.86
873.512	38.37
873.68	40.05
873.848	38.87
874.016	41.18
874.184	45.5
874.352	47.28
874.52	51.29
874.688	42.74
874.856	41.82
875.024	43.25
875.192	42.83
875.36	30.59
875.528	21.07
875.696	23.04
875.864	26.26
876.032	26.63
876.199	24.62
876.367	22.78
876.535	11.12
876.703	18.58
876.871	21.2
877.039	30.22
877.206	25.47
877.374	21.73
877.542	30.2
877.71	25.67
877.877	21.3
878.045	25.71
878.213	34.56
878.38	46.15
878.548	56.1
878.715	57.27
878.883	65.96
879.051	77.48
879.218	68.79
879.386	62.99
879.553	60.16
879.721	64.93
879.888	62.19
880.056	77.61
880.223	77.38
880.391	82.61
880.558	66.85
880.726	85.69
880.893	87.42
881.06	79.83
881.228	88.8
881.395	78.51
881.562	73.41
881.73	75.1
881.897	80.62
882.064	63.56
882.231	67.73
882.399	62.85
882.566	63.22
882.733	73.47
882.9	93.28
883.068	96.77
883.235	78.19
883.402	112.56
883.569	97.22
883.736	100.63
883.903	98.57
884.07	102.4
884.237	98.08
884.404	108.65
884.571	122.77
884.738	117.12
884.905	128.88
885.072	131.52
885.239	127.24
885.406	110.7
