Data from Transmission_09-53-36-302.txt Node
Date: Fri Aug 24 09:53:36 EEST 2018
User: tibor.sos
Spectrometer: USB4F01757
Scans to average: 10
Trigger mode: 4
Integration Time (sec): 1.000000E-2
Electric dark correction enabled: true
Boxcar width: 10
XAxis mode: Wavelengths
Number of Pixels in Spectrum: 3648
>>>>>Begin Spectral Data<<<<<
178.758	56.6
178.974	30.53
179.191	69.31
179.407	32.45
179.624	16.63
179.84	-11.89
180.057	2.55
180.273	7.5
180.489	35.53
180.706	-35.8
180.922	-23.27
181.138	-11
181.355	26.59
181.571	41.5
181.787	71.66
182.004	80.11
182.22	79.84
182.436	106.3
182.653	110.77
182.869	80.49
183.085	92.98
183.301	86.25
183.518	76.94
183.734	71.98
183.95	79.63
184.166	98.49
184.383	113.9
184.599	109.14
184.815	92.09
185.031	70.6
185.247	105.07
185.463	115.49
185.68	125.07
185.896	131.53
186.112	157.8
186.328	125.84
186.544	155.33
186.76	161.68
186.976	136.28
187.192	118.09
187.408	137.05
187.624	165.03
187.84	119.76
188.056	109.44
188.272	106.94
188.488	106
188.704	101.66
188.92	119.87
189.136	104.79
189.352	122.54
189.568	154.49
189.784	163.05
190	165.62
190.216	154.08
190.432	143.64
190.648	146.1
190.864	358.41
191.08	281.78
191.296	124.21
191.511	126.77
191.727	188.57
191.943	193.67
192.159	124.21
192.375	152.05
192.591	180.51
192.806	240.31
193.022	185.85
193.238	324.27
193.454	276.06
193.669	307.1
193.885	395.6
194.101	438.61
194.317	207.95
194.532	777.53
194.748	-705.88
194.964	500.85
195.18	197.24
195.395	110.92
195.611	114.88
195.827	274.26
196.042	453.01
196.258	245.91
196.473	173.27
196.689	178.82
196.905	202.35
197.12	1089.11
197.336	501.07
197.551	-506.67
197.767	177200
197.982	437.77
198.198	3112.33
198.414	1932.58
198.629	400
198.845	348.09
199.06	375.74
199.276	265.97
199.491	888.65
199.707	256.76
199.922	193.87
200.137	172.79
200.353	143.06
200.568	131.94
200.784	152.8
200.999	184.08
201.215	283.7
201.43	293.98
201.645	205.07
201.861	166.76
202.076	125.83
202.291	149.2
202.507	112.21
202.722	82.68
202.937	275.42
203.153	383.59
203.368	239
203.583	169.99
203.798	151.07
204.014	116.2
204.229	167.69
204.444	203.58
204.659	315.7
204.875	636.76
205.09	-1505.88
205.305	3200
205.52	-1281.3
205.735	-1171.26
205.951	6832
206.166	-478.99
206.381	-401.51
206.596	-4516.36
206.811	-1314.62
207.026	-1049.45
207.241	-288.02
207.457	858.57
207.672	1844.63
207.887	-2037.38
208.102	-390.81
208.317	-473.07
208.532	1249.72
208.747	-874.32
208.962	-665.64
209.177	1699.33
209.392	690.34
209.607	311.27
209.822	410.68
210.037	355.91
210.252	344.05
210.467	486.23
210.682	213.9
210.897	183.35
211.112	221.66
211.326	165.5
211.541	196
211.756	126.02
211.971	158.2
212.186	115.61
212.401	89.81
212.616	76.6
212.831	97.3
213.045	188.79
213.26	156.69
213.475	156.14
213.69	134.38
213.905	165.21
214.119	141.18
214.334	281.48
214.549	82.59
214.764	58.03
214.978	136.52
215.193	267.19
215.408	-2646.15
215.622	526.79
215.837	2648.89
216.052	-887.36
216.266	-152.91
216.481	-149.33
216.696	-59.57
216.91	4400
217.125	553.19
217.34	916.06
217.554	828.11
217.769	-260.79
217.983	-64.39
218.198	-289.29
218.412	-528.62
218.627	548.78
218.842	223.34
219.056	125.98
219.271	142.88
219.485	252.75
219.7	198.51
219.914	135.86
220.129	196.08
220.343	110.41
220.558	83.95
220.772	97.96
220.986	107.65
221.201	167.12
221.415	-73.8
221.63	25.42
221.844	16.79
222.058	-26.06
222.273	-35.53
222.487	-41.8
222.702	-30.89
222.916	-45.22
223.13	-12.85
223.344	-82.72
223.559	-62.14
223.773	-24.4
223.987	-49.64
224.202	-41.6
224.416	-55.04
224.63	-82.74
224.844	-131.4
225.059	-157.02
225.273	-2581.82
225.487	2124.8
225.701	313.04
225.915	216.01
226.13	197.82
226.344	212.66
226.558	192.04
226.772	175.95
226.986	171.69
227.2	179.26
227.415	174.23
227.629	198.7
227.843	210.46
228.057	151.14
228.271	131.48
228.485	138.49
228.699	183.5
228.913	206.51
229.127	173.67
229.341	175.29
229.555	234.6
229.769	285.13
229.983	336.62
230.197	304.6
230.411	426.99
230.625	420.54
230.839	248.21
231.053	333.16
231.267	514.29
231.481	99.53
231.695	129.73
231.909	122.04
232.122	95.38
232.336	109.47
232.55	175.8
232.764	316.82
232.978	327.75
233.192	330.51
233.405	373.25
233.619	368.97
233.833	191.27
234.047	317.85
234.261	258.68
234.474	158.28
234.688	-349.77
234.902	-148.57
235.116	-122.05
235.329	-46.73
235.543	-119.68
235.757	37.89
235.97	-13.75
236.184	-25.88
236.398	31.94
236.612	36
236.825	68.77
237.039	128.83
237.252	136.96
237.466	490.04
237.68	922.03
237.893	-38400
238.107	-82.21
238.32	560
238.534	-79.62
238.748	64.42
238.961	89.72
239.175	41.4
239.388	-2.05
239.602	-173.61
239.815	1.77
240.029	-18.6
240.242	87.66
240.456	79.53
240.669	91.71
240.882	115.18
241.096	121.47
241.309	110.82
241.523	207.43
241.736	218.76
241.95	-317.32
242.163	475.19
242.376	115.67
242.59	230.4
242.803	-5386.67
243.016	-160.73
243.23	-625.21
243.443	-5813.33
243.656	544.36
243.87	150.07
244.083	138.53
244.296	90.81
244.509	85.96
244.723	93.49
244.936	77.37
245.149	43.18
245.362	27.05
245.576	29.35
245.789	51.74
246.002	52.34
246.215	64.42
246.428	67.87
246.641	62.66
246.855	54.16
247.068	34.8
247.281	-11.43
247.494	11.22
247.707	-4.74
247.92	-42.83
248.133	-21.82
248.346	-33.61
248.559	-7.51
248.772	-13.71
248.985	9.97
249.198	-1
249.411	-9.17
249.624	-1.64
249.837	-2.19
250.05	10.23
250.263	-4.11
250.476	-6.83
250.689	-7.38
250.902	-8.21
251.115	-23.92
251.328	-9.85
251.541	2.34
251.754	10.12
251.967	3.1
252.18	9.01
252.393	8.45
252.605	-0.14
252.818	0.83
253.031	-14.27
253.244	-12.12
253.457	-24.1
253.67	-21.34
253.882	-20.26
254.095	-13.75
254.308	-10.33
254.521	-21.07
254.733	-12.32
254.946	-10.28
255.159	-7.99
255.372	-3.6
255.584	6.46
255.797	4.61
256.01	-14.09
256.222	-19.08
256.435	-18.37
256.648	-12.59
256.86	-10.01
257.073	6.98
257.285	16.72
257.498	13.25
257.711	13.75
257.923	11.52
258.136	21.9
258.348	14.97
258.561	13.76
258.773	-11.61
258.986	-27.74
259.198	-38.53
259.411	-70.62
259.623	-45.39
259.836	-49.98
260.048	-48.56
260.261	-27.48
260.473	-19.93
260.686	-9.3
260.898	-8.91
261.111	-10
261.323	-1.96
261.535	-8.06
261.748	-0.34
261.96	11.29
262.173	10.59
262.385	14.79
262.597	11.51
262.81	16.23
263.022	16.39
263.234	32.53
263.447	39.36
263.659	41.57
263.871	42.15
264.083	44.69
264.296	46.54
264.508	47.73
264.72	48.57
264.932	50.02
265.145	39.49
265.357	37.69
265.569	29.05
265.781	24.72
265.993	26.44
266.205	30.83
266.418	17.36
266.63	6.24
266.842	0.5
267.054	5.6
267.266	17.25
267.478	2.59
267.69	-4.73
267.902	-17.77
268.114	-30.53
268.326	-44.57
268.538	-63.53
268.75	-53.88
268.962	-65.19
269.174	-64.47
269.386	-33.39
269.598	-13.11
269.81	-4.97
270.022	-2.09
270.234	5.15
270.446	10.38
270.658	1.99
270.87	7.65
271.082	11.43
271.294	18.54
271.506	13.35
271.718	9.45
271.929	19.5
272.141	23.44
272.353	28.93
272.565	29.75
272.777	34.86
272.989	37.95
273.2	40.04
273.412	38.41
273.624	40.33
273.836	30.68
274.047	33.06
274.259	37.88
274.471	37.54
274.683	34.51
274.894	34.91
275.106	40.38
275.318	37.44
275.529	47.73
275.741	40.52
275.953	49.34
276.164	51.85
276.376	47.92
276.588	51.15
276.799	50.62
277.011	49.07
277.222	51.78
277.434	41.04
277.646	35.51
277.857	50.34
278.069	40.1
278.28	49.61
278.492	38.63
278.703	24.3
278.915	26.83
279.126	27.06
279.338	24.98
279.549	27.11
279.761	32.15
279.972	17.34
280.183	15.15
280.395	11.41
280.606	11.2
280.818	6.06
281.029	3.42
281.24	1.96
281.452	1.78
281.663	-2.22
281.875	-1.85
282.086	1.74
282.297	-1.72
282.508	8.21
282.72	12.65
282.931	13.01
283.142	14.85
283.354	8.89
283.565	8.12
283.776	12.12
283.987	1.39
284.199	-4.69
284.41	19.62
284.621	27.2
284.832	29.34
285.043	28.43
285.254	30.18
285.466	21.97
285.677	28.43
285.888	24
286.099	20.62
286.31	28.66
286.521	14.34
286.732	-0.06
286.943	2.82
287.154	1.6
287.366	11.62
287.577	15.12
287.788	13.64
287.999	16.91
288.21	8.35
288.421	11.87
288.632	10.81
288.843	7.45
289.054	4.67
289.264	-0.76
289.475	-5.21
289.686	2.51
289.897	8.13
290.108	11.17
290.319	14.78
290.53	22.59
290.741	20.84
290.952	27.24
291.163	34.61
291.373	34.29
291.584	32.34
291.795	30.55
292.006	29.7
292.217	35.29
292.427	34.59
292.638	34.66
292.849	31.96
293.06	34.41
293.27	33.49
293.481	37.81
293.692	41.52
293.903	38.91
294.113	37.63
294.324	36.66
294.535	31.97
294.745	34.96
294.956	32.15
295.167	28.97
295.377	33.15
295.588	31.85
295.798	20.82
296.009	14.45
296.22	10.68
296.43	8.82
296.641	-0.37
296.851	-6.42
297.062	-7.54
297.272	-3
297.483	-12.13
297.693	-7.87
297.904	-9.92
298.114	-9.06
298.325	-1.63
298.535	-10.09
298.746	-9.91
298.956	-6.55
299.167	-10.93
299.377	-12.75
299.587	-15.94
299.798	-22.33
300.008	-26.35
300.219	-16.52
300.429	-11.05
300.639	-9.38
300.85	-4.3
301.06	-0.1
301.27	13.28
301.481	11.56
301.691	9.44
301.901	16.27
302.111	7.09
302.322	10.2
302.532	7.19
302.742	-0.75
302.952	4.26
303.163	1.84
303.373	-3.31
303.583	-7.95
303.793	-7.39
304.003	1.23
304.214	5.96
304.424	2.72
304.634	-3.35
304.844	3.23
305.054	7.49
305.264	2.26
305.474	7.15
305.684	-7.92
305.894	-0.88
306.104	-1.79
306.314	-2.74
306.525	-1.95
306.735	-3.7
306.945	-11.47
307.155	-8.59
307.365	-4.84
307.575	-3.36
307.784	2.09
307.994	5.28
308.204	5.54
308.414	6.81
308.624	3.33
308.834	10.8
309.044	18.16
309.254	18.84
309.464	17.84
309.674	20.85
309.884	15.23
310.093	20.6
310.303	20.29
310.513	27.48
310.723	27.56
310.933	28.38
311.142	26.22
311.352	29.89
311.562	32.95
311.772	29.89
311.981	27.29
312.191	25.91
312.401	30.73
312.611	33.13
312.82	33.5
313.03	35.08
313.24	31.73
313.449	33.24
313.659	26.4
313.869	22.5
314.078	18.15
314.288	20.85
314.497	21.79
314.707	22.06
314.917	15.5
315.126	18.74
315.336	17.11
315.545	13.36
315.755	18.49
315.964	17.1
316.174	21.47
316.383	25.33
316.593	22.18
316.802	16.56
317.012	11.69
317.221	10.35
317.431	5.92
317.64	5.57
317.849	-3.41
318.059	0.81
318.268	11.51
318.478	18.94
318.687	16.25
318.896	16.13
319.106	12.75
319.315	9.36
319.524	-0.31
319.734	-3.29
319.943	-0.95
320.152	-3.15
320.362	-6.97
320.571	-11.79
320.78	-15.17
320.989	-5.8
321.199	-2.37
321.408	3.09
321.617	-0.08
321.826	-0.4
322.035	-4.01
322.245	-0.86
322.454	-4.03
322.663	-6.2
322.872	-15.92
323.081	-18.8
323.29	-20.19
323.5	-12.61
323.709	-6.35
323.918	-3.63
324.127	-2.75
324.336	-7.65
324.545	-2.45
324.754	2.68
324.963	3.91
325.172	6.22
325.381	-2.72
325.59	-4.9
325.799	-12.39
326.008	-14.27
326.217	-6.54
326.426	6.08
326.635	8.21
326.844	10.69
327.053	11.95
327.262	20.32
327.47	21.33
327.679	17.36
327.888	12.95
328.097	8.61
328.306	11.12
328.515	14.5
328.724	23.27
328.932	7.82
329.141	8.64
329.35	12.17
329.559	9.91
329.768	18.21
329.976	18.5
330.185	14.39
330.394	16.14
330.602	14.78
330.811	6.59
331.02	5.88
331.229	8.06
331.437	10.37
331.646	10.48
331.855	14.61
332.063	11.79
332.272	10.47
332.48	8.69
332.689	11.93
332.898	9.96
333.106	1.88
333.315	9.26
333.523	7.43
333.732	1.53
333.94	3.11
334.149	-2.58
334.357	-3.43
334.566	3.04
334.774	2.59
334.983	4.92
335.191	9.43
335.4	14.63
335.608	8.97
335.817	-3.91
336.025	-1.57
336.234	-9.03
336.442	4.43
336.65	11.83
336.859	20.34
337.067	11
337.275	13.68
337.484	18.88
337.692	21.85
337.9	29.64
338.109	39.1
338.317	38.3
338.525	38.88
338.734	36.67
338.942	30.94
339.15	26.53
339.358	5.92
339.567	12.23
339.775	6.27
339.983	5.48
340.191	2.63
340.399	-2.75
340.608	8.59
340.816	12.77
341.024	9.87
341.232	5.89
341.44	10.63
341.648	17
341.856	16.88
342.064	22.91
342.272	13.13
342.481	9.64
342.689	11.37
342.897	7.8
343.105	10.75
343.313	23.18
343.521	25.14
343.729	29.59
343.937	25.67
344.145	30.17
344.353	33.18
344.56	34.71
344.768	32.77
344.976	27.37
345.184	19.17
345.392	23.03
345.6	25
345.808	25.96
346.016	18.85
346.224	22.11
346.431	20.76
346.639	26.44
346.847	28.35
347.055	26.3
347.263	29.05
347.471	19.24
347.678	4.41
347.886	-2.12
348.094	5.87
348.302	6.67
348.509	-5.59
348.717	-10.65
348.925	-9.13
349.132	-9.96
349.34	-2.42
349.548	3.87
349.755	-2.49
349.963	-11.48
350.171	-13.2
350.378	-13.51
350.586	-17.4
350.793	-17.75
351.001	-19.6
351.209	-17.36
351.416	-9.98
351.624	-6.53
351.831	-9.79
352.039	-11.23
352.246	-8.48
352.454	-9.03
352.661	-6.78
352.869	-2.11
353.076	2.42
353.284	2.69
353.491	13.23
353.699	8.83
353.906	4.09
354.113	3.79
354.321	3.82
354.528	1.93
354.736	8.39
354.943	9.04
355.15	8.74
355.358	4.9
355.565	-2.14
355.772	-1.24
355.98	4.35
356.187	11.58
356.394	11.21
356.601	12.38
356.809	10.13
357.016	10.73
357.223	13.17
357.43	13.05
357.638	8.34
357.845	3.78
358.052	-1.67
358.259	1.59
358.466	1.85
358.673	10.4
358.881	12.06
359.088	2.27
359.295	6.06
359.502	-4.2
359.709	-5.03
359.916	-2.25
360.123	-4.03
360.33	-23.92
360.537	-23.46
360.744	-20.35
360.951	-23.85
361.158	-28.02
361.365	-24.25
361.572	-18.58
361.779	-12
361.986	-6.03
362.193	-6.17
362.4	5.57
362.607	0.61
362.814	4.83
363.021	1.46
363.228	-1.45
363.435	-1.18
363.641	-7.08
363.848	-5.15
364.055	5.17
364.262	8.27
364.469	5.91
364.676	21.02
364.882	19.32
365.089	22.66
365.296	22.45
365.503	23.6
365.709	12.98
365.916	11.19
366.123	8.71
366.33	3.37
366.536	8.94
366.743	-0.42
366.95	1.07
367.156	-1.2
367.363	2.53
367.57	4
367.776	9.72
367.983	13.33
368.19	16.2
368.396	11.64
368.603	8.08
368.809	13.8
369.016	12.25
369.222	9.45
369.429	14.41
369.635	15.31
369.842	10.56
370.048	18.05
370.255	19.17
370.461	15.98
370.668	17.3
370.874	14.05
371.081	19.42
371.287	24.21
371.494	23.06
371.7	24.81
371.906	22.17
372.113	23.87
372.319	26.39
372.526	24.25
372.732	20.72
372.938	19.68
373.145	19.76
373.351	17.01
373.557	20.45
373.763	17.95
373.97	18.71
374.176	22.31
374.382	23.8
374.588	18.52
374.795	16.68
375.001	11.77
375.207	1.96
375.413	7
375.62	6.95
375.826	11
376.032	1.45
376.238	3.86
376.444	-3.61
376.65	-5.97
376.856	-19.26
377.062	-12.9
377.269	0.16
377.475	-15.16
377.681	-16.44
377.887	-16.2
378.093	-32.42
378.299	-29.96
378.505	-30.18
378.711	-25.15
378.917	-21.57
379.123	-11.89
379.329	4.47
379.535	5.49
379.741	0.96
379.947	0.86
380.152	0.05
380.358	2.21
380.564	-5.25
380.77	-4.54
380.976	-3.05
381.182	11.21
381.388	15.73
381.594	5.61
381.799	15.86
382.005	15.97
382.211	19.23
382.417	26.37
382.623	29.76
382.828	36.91
383.034	29.57
383.24	29.55
383.445	24.49
383.651	10.79
383.857	11.49
384.063	13.66
384.268	5.28
384.474	10.45
384.68	8.79
384.885	15.59
385.091	19.15
385.296	19.5
385.502	14.92
385.708	9.38
385.913	11.87
386.119	-5.63
386.324	-7.13
386.53	-12.27
386.735	-15.91
386.941	-13.09
387.146	-16.18
387.352	-14.33
387.557	-1.92
387.763	-5.35
387.968	-1.85
388.174	12.43
388.379	16.15
388.585	12.85
388.79	-2.33
388.996	-1.75
389.201	4.17
389.406	-5.12
389.612	-12.27
389.817	-9.75
390.022	-8.07
390.228	2.87
390.433	8.07
390.638	4.24
390.844	10.28
391.049	11.38
391.254	8.61
391.459	8.21
391.665	11.06
391.87	1.59
392.075	15.17
392.28	17.67
392.485	12.13
392.691	-0.24
392.896	-0.65
393.101	6
393.306	11.74
393.511	4.73
393.716	9.83
393.922	8.73
394.127	10.76
394.332	21.24
394.537	13.29
394.742	18.37
394.947	14.69
395.152	15.22
395.357	19.84
395.562	18.07
395.767	8.01
395.972	9.61
396.177	11.78
396.382	1.04
396.587	10.46
396.792	12.15
396.997	24.15
397.202	31.24
397.407	30.13
397.611	30.38
397.816	35.81
398.021	36.15
398.226	40.44
398.431	37.19
398.636	31.99
398.841	38.22
399.045	40.67
399.25	41.47
399.455	41.28
399.66	42.42
399.864	46.24
400.069	44.83
400.274	49.68
400.479	45.32
400.683	45.52
400.888	40.8
401.093	36.4
401.297	30.86
401.502	25.37
401.707	33.84
401.911	46.3
402.116	51.76
402.321	56.46
402.525	56.4
402.73	61.39
402.934	54.23
403.139	56.75
403.344	45.66
403.548	45.26
403.753	40.61
403.957	31.4
404.162	18.08
404.366	24
404.571	16.41
404.775	29.03
404.98	30.15
405.184	28.17
405.388	31.72
405.593	28.33
405.797	26.54
406.002	21.84
406.206	7.69
406.41	10.65
406.615	1.02
406.819	4.07
407.023	6.52
407.228	7.08
407.432	-3.54
407.636	-7.88
407.841	-3.33
408.045	-6.25
408.249	-11.86
408.453	6.01
408.658	7.52
408.862	8.34
409.066	4.71
409.27	4.68
409.474	3.39
409.679	5.7
409.883	7.64
410.087	7.21
410.291	9.26
410.495	-1.74
410.699	-10.66
410.903	-9.51
411.108	-2.12
411.312	-14.34
411.516	-14.24
411.72	3.18
411.924	15.96
412.128	22.37
412.332	17.08
412.536	27.55
412.74	17.86
412.944	19.95
413.148	21.2
413.352	20.3
413.556	18.13
413.76	11.86
413.964	12.1
414.167	16.36
414.371	20.04
414.575	16.94
414.779	18.73
414.983	20.16
415.187	24.91
415.391	16.77
415.594	22.42
415.798	18.39
416.002	12.06
416.206	6.64
416.41	2.59
416.613	10.06
416.817	2.43
417.021	4.93
417.225	6.96
417.428	-3.06
417.632	-2.98
417.836	0.4
418.039	12.9
418.243	9.38
418.447	-1.82
418.65	-4.42
418.854	-2.48
419.057	3.12
419.261	6.47
419.465	0.86
419.668	4.69
419.872	8.95
420.075	-4.39
420.279	1.78
420.482	5.46
420.686	3.91
420.889	-3.71
421.093	4.81
421.296	3.1
421.5	0.73
421.703	-1.41
421.907	-0.32
422.11	-4.04
422.314	-16.09
422.517	-21.15
422.72	-12.73
422.924	-14.2
423.127	-17.84
423.33	-16.25
423.534	-14.83
423.737	-10.05
423.94	-7.36
424.144	-12.58
424.347	-0
424.55	-9.6
424.754	-8.39
424.957	-6.52
425.16	5.58
425.363	4.81
425.567	15
425.77	7.46
425.973	18.56
426.176	11
426.379	10.28
426.582	14.83
426.786	22.4
426.989	17.4
427.192	23.59
427.395	23.84
427.598	15.06
427.801	6.41
428.004	5.81
428.207	11.5
428.41	14.06
428.613	10.63
428.816	16.18
429.019	10.16
429.222	4.57
429.425	-5.08
429.628	0.69
429.831	-6.87
430.034	-0.05
430.237	-6.91
430.44	-1.71
430.643	-4.86
430.846	-7.78
431.049	-9.78
431.252	-3.97
431.454	-5.97
431.657	-10.74
431.86	-4.37
432.063	0.78
432.266	1.53
432.469	-10.82
432.671	-12.34
432.874	-0.27
433.077	-10.22
433.28	-5.49
433.482	-2.52
433.685	-5.23
433.888	-14.02
434.09	-19.25
434.293	-40.76
434.496	-38.23
434.698	-42.65
434.901	-35.63
435.104	-37.96
435.306	-27.77
435.509	-31.69
435.712	-29.89
435.914	-40.65
436.117	-28.28
436.319	-13.36
436.522	-16.84
436.724	-10.58
436.927	-17.63
437.129	-20.8
437.332	-9.2
437.534	-17.53
437.737	-31.72
437.939	-14.17
438.142	-20.88
438.344	-15.03
438.547	-7.35
438.749	3.98
438.951	6.49
439.154	19.37
439.356	19.76
439.558	9.82
439.761	3.71
439.963	2.85
440.165	6.53
440.368	-1.27
440.57	-35.33
440.772	-44.5
440.975	-53.62
441.177	-33.92
441.379	-33.56
441.581	-34.34
441.784	-28.13
441.986	-10.02
442.188	-11.94
442.39	-6.64
442.592	-8.2
442.795	5.39
442.997	-0.11
443.199	-1.04
443.401	-9.14
443.603	-0.65
443.805	-1.89
444.007	-1.38
444.209	-5.79
444.411	4.95
444.613	8.03
444.815	19.43
445.017	22.57
445.219	25.74
445.421	24.09
445.623	21.42
445.825	18.77
446.027	17.82
446.229	11.44
446.431	14.05
446.633	13.43
446.835	13.26
447.037	-0.86
447.239	1.7
447.441	0.8
447.643	13.61
447.844	-5.43
448.046	-2.15
448.248	5.13
448.45	9.65
448.652	1.74
448.853	8.25
449.055	6.81
449.257	3.28
449.459	-6.05
449.66	-13.31
449.862	-20.78
450.064	-11.25
450.266	-14.15
450.467	-13.64
450.669	-17.45
450.871	-21.31
451.072	-17.92
451.274	-6.76
451.475	-8.15
451.677	-0.66
451.879	-13.88
452.08	-15.59
452.282	-5.08
452.483	-10.96
452.685	-10.01
452.886	-3.29
453.088	-26.68
453.289	-37.72
453.491	-41.53
453.692	-40.69
453.894	-11.24
454.095	-4.18
454.297	1.96
454.498	18.09
454.7	31.54
454.901	36.93
455.102	22.03
455.304	24.48
455.505	10.67
455.706	8.87
455.908	10.61
456.109	2.95
456.31	6.39
456.512	5.28
456.713	11.58
456.914	15.3
457.116	6.21
457.317	19.15
457.518	13.68
457.719	15.18
457.921	14.35
458.122	1.39
458.323	0.06
458.524	1.83
458.725	-1.17
458.926	-13.17
459.128	-22.97
459.329	-18.98
459.53	-25.99
459.731	-35.73
459.932	-45.96
460.133	-49.42
460.334	-34.33
460.535	-25.79
460.736	-32.83
460.937	-49.14
461.138	-56.23
461.339	-42.51
461.54	-38.81
461.741	-28.77
461.942	-21.94
462.143	-18.71
462.344	-16.11
462.545	-10.68
462.746	-13.12
462.947	-16.94
463.148	-5.52
463.348	2.02
463.549	-0.21
463.75	-0.9
463.951	9.94
464.152	7.69
464.353	10.15
464.553	8.99
464.754	12.74
464.955	14.68
465.156	21.88
465.356	23.68
465.557	18.3
465.758	15.89
465.959	14
466.159	10.09
466.36	12.41
466.561	11.42
466.761	5.79
466.962	3.9
467.163	8.2
467.363	2.36
467.564	5.01
467.764	15.66
467.965	11.02
468.166	7.15
468.366	23.04
468.567	19.27
468.767	24.47
468.968	22.26
469.168	29.06
469.369	27.53
469.569	22.88
469.77	21.15
469.97	18.78
470.17	20.26
470.371	17.11
470.571	9.29
470.772	11.83
470.972	15.12
471.172	19.85
471.373	17.84
471.573	20.53
471.773	16.52
471.974	14.53
472.174	20.79
472.374	22.37
472.575	16.7
472.775	18.78
472.975	8.27
473.175	6.57
473.376	3.73
473.576	6.1
473.776	11.24
473.976	11.55
474.177	17.55
474.377	14.7
474.577	16.52
474.777	16.75
474.977	18.23
475.177	20.97
475.377	22.61
475.577	26.75
475.777	28
475.978	26.66
476.178	24.35
476.378	25.04
476.578	33.82
476.778	30.89
476.978	32.9
477.178	35.47
477.378	36.93
477.578	35.59
477.778	34.63
477.977	32.56
478.177	31.52
478.377	22.15
478.577	21.85
478.777	25.36
478.977	28.9
479.177	20.85
479.377	18.05
479.577	12.26
479.776	10.55
479.976	9.02
480.176	12.02
480.376	11.46
480.576	7.04
480.775	2.97
480.975	1.99
481.175	-3.57
481.374	-2.3
481.574	-0.75
481.774	-1.04
481.974	6.81
482.173	5.29
482.373	2.2
482.572	9.54
482.772	10.62
482.972	14.25
483.171	15.99
483.371	28.1
483.57	28.96
483.77	31.75
483.97	26.92
484.169	23.33
484.369	19.74
484.568	21.03
484.768	25.21
484.967	22.65
485.167	24.82
485.366	23.94
485.566	23.99
485.765	22.58
485.964	18.22
486.164	10.01
486.363	11.98
486.563	13.55
486.762	12.1
486.961	13.56
487.161	10.34
487.36	5.08
487.559	-5.95
487.759	-9.77
487.958	-14.12
488.157	-12.7
488.356	-8.54
488.556	-9.03
488.755	-12.16
488.954	-21.9
489.153	-18.12
489.353	-13.31
489.552	-8.36
489.751	-13.87
489.95	-11.56
490.149	-11.86
490.348	-10.06
490.548	-10.75
490.747	-10.56
490.946	-10.48
491.145	-13.87
491.344	-18.62
491.543	-18.9
491.742	-15.35
491.941	-16.32
492.14	-14.98
492.339	-14.78
492.538	-16.9
492.737	-12.31
492.936	-10.02
493.135	-5.12
493.334	-11.78
493.533	-22.44
493.732	-14.11
493.931	-4.53
494.13	-8.75
494.328	0.99
494.527	2.02
494.726	1.14
494.925	-3.81
495.124	-0.03
495.323	0.13
495.521	1.08
495.72	3.43
495.919	0.37
496.118	3.18
496.316	4.89
496.515	6.67
496.714	7.26
496.913	8.96
497.111	4.98
497.31	2.06
497.509	2.66
497.707	3.29
497.906	0.32
498.105	-8.62
498.303	-9.64
498.502	-13.07
498.7	-7.74
498.899	-7.92
499.097	-7.52
499.296	-10.04
499.495	-6.64
499.693	-3.77
499.892	-1.36
500.09	-0.24
500.289	2.78
500.487	2.14
500.686	4.84
500.884	1.85
501.082	-3.11
501.281	-1.32
501.479	3.09
501.678	5.12
501.876	10.13
502.074	8.4
502.273	12.63
502.471	12.84
502.669	10.4
502.868	4.13
503.066	6.41
503.264	10
503.463	9.18
503.661	2.68
503.859	1.21
504.057	2.38
504.256	2.02
504.454	1.02
504.652	3.33
504.85	4.73
505.048	13.4
505.246	12.05
505.445	13.07
505.643	11.2
505.841	13.41
506.039	10.6
506.237	9.8
506.435	10.48
506.633	12.73
506.831	16.66
507.029	20.25
507.227	18.49
507.425	23.51
507.623	24.75
507.821	24.66
508.019	29.93
508.217	28.47
508.415	31.27
508.613	31.21
508.811	27.88
509.009	24.24
509.207	20.61
509.405	24.34
509.603	22.79
509.8	22.29
509.998	15.63
510.196	13.85
510.394	8.08
510.592	5.41
510.79	3.93
510.987	-1.28
511.185	-1
511.383	-6.43
511.581	-10.6
511.778	-10.05
511.976	-7.37
512.174	-18.4
512.371	-23.74
512.569	-22.57
512.767	-23.13
512.964	-26.53
513.162	-28.06
513.36	-34.58
513.557	-39.84
513.755	-39.24
513.952	-35.73
514.15	-35.5
514.348	-32.42
514.545	-28.34
514.743	-24.56
514.94	-21.9
515.138	-21.65
515.335	-20.22
515.533	-17.91
515.73	-17.76
515.927	-20.06
516.125	-22.88
516.322	-15.77
516.52	-8.88
516.717	-7.02
516.915	-6.22
517.112	-5.88
517.309	-4.94
517.507	3.25
517.704	1.92
517.901	0.58
518.099	-2.3
518.296	1.62
518.493	3.67
518.69	6
518.888	6.09
519.085	5.42
519.282	9.82
519.479	6.12
519.676	6.88
519.874	2.13
520.071	-0.64
520.268	2
520.465	1.25
520.662	1.18
520.859	-1.11
521.056	-3.11
521.254	2.89
521.451	4.22
521.648	-0
521.845	-3.58
522.042	-1.5
522.239	0.98
522.436	-2.04
522.633	-8.9
522.83	-8.73
523.027	-11.23
523.224	-7.74
523.421	-7.77
523.618	-6.38
523.815	-1.87
524.011	3.5
524.208	9.14
524.405	8.42
524.602	8.55
524.799	1.38
524.996	0.15
525.193	1.27
525.389	-4.12
525.586	-4.59
525.783	-7.34
525.98	-1.32
526.176	-5.15
526.373	-8.25
526.57	-4.84
526.767	-5.07
526.963	-4.12
527.16	-1.37
527.357	-10.11
527.553	-10.91
527.75	-14.24
527.947	-21.83
528.143	-21.18
528.34	-25.41
528.537	-26.21
528.733	-26.72
528.93	-22.76
529.126	-19.24
529.323	-16.41
529.519	-11.04
529.716	-15.52
529.912	-13.31
530.109	-10.74
530.305	-9.14
530.502	-5.81
530.698	-9.39
530.895	-13.97
531.091	-13.98
531.288	-14.73
531.484	-12.43
531.68	-13.94
531.877	-11.22
532.073	-5.66
532.269	-4.99
532.466	-4.33
532.662	-3.38
532.858	-3.15
533.055	-1.03
533.251	0.44
533.447	-1.7
533.643	-1.18
533.84	0.51
534.036	-0.18
534.232	-0.29
534.428	-0.25
534.624	1.68
534.821	5.27
535.017	12.87
535.213	12.04
535.409	13.88
535.605	18.07
535.801	19.77
535.997	18.74
536.193	13.62
536.389	11.49
536.586	12.72
536.782	13.19
536.978	11.04
537.174	12.48
537.37	11.13
537.566	13.64
537.762	8.65
537.958	11.99
538.153	13.2
538.349	9.89
538.545	14.62
538.741	11.04
538.937	8.79
539.133	6.39
539.329	7.46
539.525	3.74
539.721	1.53
539.916	1.14
540.112	-0.13
540.308	4.59
540.504	6.74
540.699	7.05
540.895	7.65
541.091	11.66
541.287	9.47
541.482	9.01
541.678	10.87
541.874	10.87
542.069	7.14
542.265	11.64
542.461	16.98
542.656	12.27
542.852	11.79
543.048	13.6
543.243	12.56
543.439	14.06
543.634	14.67
543.83	14.49
544.025	14.56
544.221	17.57
544.417	16.75
544.612	17.86
544.807	18.83
545.003	17.73
545.198	14.86
545.394	17.98
545.589	21.69
545.785	18.67
545.98	20.25
546.176	20.33
546.371	16.99
546.566	13.9
546.762	12.12
546.957	11.92
547.152	9.35
547.348	8.94
547.543	8.91
547.738	6.91
547.933	4.35
548.129	5.14
548.324	1.97
548.519	1.1
548.714	-1.32
548.91	-2.32
549.105	-0.29
549.3	0.99
549.495	-0.38
549.69	-4.87
549.885	-4.72
550.08	-3.92
550.276	-1.55
550.471	0.09
550.666	1.13
550.861	3.53
551.056	4.7
551.251	5.14
551.446	6.42
551.641	5.45
551.836	8.06
552.031	10.98
552.226	10.15
552.421	10.9
552.616	10.13
552.811	12.1
553.006	11.26
553.201	7.15
553.395	7.65
553.59	4.78
553.785	5.57
553.98	5.9
554.175	4.81
554.37	3.92
554.565	4.44
554.759	4.81
554.954	2.5
555.149	4.5
555.344	7.74
555.538	7.88
555.733	7.45
555.928	11.42
556.122	11.87
556.317	9.46
556.512	8.5
556.706	9.41
556.901	11.1
557.096	9.91
557.29	12.07
557.485	11.74
557.68	10.1
557.874	12.83
558.069	11.39
558.263	9.54
558.458	8.99
558.652	9.13
558.847	7.55
559.041	10.95
559.236	7.88
559.43	4.92
559.625	6.27
559.819	6.16
560.014	3.42
560.208	2.34
560.402	4.52
560.597	5.9
560.791	6.17
560.986	4.59
561.18	4.67
561.374	5.08
561.569	5.24
561.763	8.15
561.957	4.34
562.151	3.84
562.346	6.68
562.54	7.01
562.734	5.11
562.928	4.17
563.123	6.9
563.317	7.55
563.511	7.67
563.705	4.6
563.899	3.48
564.093	1.4
564.288	-0.92
564.482	-2.44
564.676	-0.12
564.87	-0.1
565.064	-1.14
565.258	-2.02
565.452	-1.84
565.646	-1.28
565.84	-5.96
566.034	-7.22
566.228	-6.53
566.422	-8.12
566.616	-5.92
566.81	-6.87
567.004	-4.36
567.198	-7.82
567.392	-7.36
567.586	-11.26
567.779	-9.03
567.973	-8.36
568.167	-5.22
568.361	-2.73
568.555	0.09
568.749	-1.9
568.942	-2.06
569.136	-1.39
569.33	-0.72
569.524	-1.83
569.718	-0.27
569.911	3.93
570.105	5.96
570.299	6.27
570.492	7.91
570.686	8.67
570.88	10.45
571.073	9.94
571.267	10.08
571.461	8.77
571.654	11.79
571.848	12.43
572.041	13.78
572.235	12.75
572.429	12.3
572.622	10.24
572.816	10.74
573.009	9.73
573.203	8.98
573.396	12.02
573.59	13.92
573.783	11.89
573.976	11.09
574.17	10.29
574.363	9.06
574.557	4.95
574.75	2.71
574.943	1.94
575.137	3.04
575.33	4.54
575.523	4.95
575.717	4.42
575.91	3.48
576.103	3.2
576.297	2.49
576.49	2.09
576.683	2.09
576.876	2.33
577.07	1.78
577.263	2.75
577.456	-0.1
577.649	-2.47
577.842	-0.97
578.036	-0.19
578.229	0.34
578.422	0.72
578.615	3.54
578.808	2.08
579.001	2.74
579.194	3.47
579.387	2.63
579.58	2.6
579.773	2.6
579.966	2.89
580.159	1.58
580.352	2.35
580.545	3.54
580.738	3.14
580.931	1
581.124	2.19
581.317	-0.8
581.51	-0.98
581.703	1.2
581.896	1.16
582.088	0.98
582.281	1.75
582.474	1.99
582.667	3.19
582.86	4.14
583.053	4.08
583.245	3.43
583.438	1.22
583.631	2.93
583.824	2.04
584.016	2.39
584.209	1.39
584.402	2.63
584.594	2.37
584.787	4.41
584.98	4.16
585.172	5.88
585.365	6.5
585.558	6.27
585.75	4.67
585.943	4.98
586.135	3.23
586.328	3.05
586.52	4.46
586.713	3.82
586.906	5.73
587.098	6.27
587.291	6.65
587.483	7.56
587.675	6.46
587.868	5.96
588.06	4.35
588.253	6.22
588.445	3.82
588.638	0.97
588.83	0.1
589.022	0.82
589.215	-1.6
589.407	0.47
589.599	2.04
589.792	2.71
589.984	0.43
590.176	1.72
590.368	1.81
590.561	0.57
590.753	0.84
590.945	-1.25
591.137	-3
591.33	-5.33
591.522	-2.8
591.714	-3.95
591.906	-1.18
592.098	0.39
592.29	0.53
592.482	3.44
592.674	5
592.867	6.78
593.059	6.18
593.251	7.7
593.443	9.33
593.635	6.84
593.827	4.15
594.019	4.68
594.211	5.17
594.403	6.21
594.595	7.44
594.787	7.41
594.979	8.48
595.17	9.01
595.362	11.21
595.554	8.58
595.746	7.84
595.938	7.8
596.13	7.87
596.322	7.21
596.513	4.26
596.705	5
596.897	2.51
597.089	4.19
597.281	2.87
597.472	1.43
597.664	2.03
597.856	3.59
598.048	3.28
598.239	2.6
598.431	-0.12
598.623	-2.04
598.814	-4.01
599.006	-2.91
599.197	-2.71
599.389	-4.11
599.581	-5.78
599.772	-3.39
599.964	-4.55
600.155	-5.49
600.347	-5.55
600.538	-4.04
600.73	-2.26
600.921	-2.58
601.113	-3.34
601.304	-2.25
601.496	-1.63
601.687	-0.2
601.879	0.68
602.07	1.43
602.262	1.25
602.453	1.73
602.644	2.38
602.836	2.85
603.027	1.3
603.218	0.79
603.41	-0.49
603.601	2.78
603.792	2.22
603.983	2.99
604.175	3.53
604.366	2.15
604.557	2.65
604.748	0.92
604.94	2.35
605.131	1.38
605.322	-0.19
605.513	-0.61
605.704	-1.27
605.895	0.21
606.086	-0.42
606.278	0.73
606.469	2.09
606.66	2.61
606.851	1.47
607.042	0.83
607.233	1.64
607.424	3.08
607.615	2.48
607.806	1.95
607.997	3.54
608.188	5.31
608.379	5.25
608.57	5.18
608.761	5.65
608.952	5.97
609.142	6.18
609.333	7.86
609.524	7.29
609.715	7.55
609.906	5.97
610.097	7.58
610.287	6.76
610.478	5.93
610.669	5.77
610.86	6.52
611.051	6.98
611.241	7.9
611.432	8
611.623	8.62
611.813	9.15
612.004	7.26
612.195	5.94
612.385	7.37
612.576	7.41
612.767	7.91
612.957	6.21
613.148	6.87
613.338	4.95
613.529	4.79
613.72	3.98
613.91	4.27
614.101	3.08
614.291	4.93
614.482	5.62
614.672	4.82
614.863	5.42
615.053	5.29
615.243	3.64
615.434	3.62
615.624	1.74
615.815	2.75
616.005	1.65
616.195	0.11
616.386	-1.92
616.576	-1.24
616.766	-1.16
616.957	-0.72
617.147	-0.82
617.337	0.47
617.528	0.83
617.718	1.47
617.908	0.58
618.098	2.16
618.289	2.43
618.479	0.32
618.669	1.11
618.859	0.71
619.049	2.5
619.239	4.21
619.43	3.31
619.62	2.8
619.81	2.25
620	3.91
620.19	4.78
620.38	5.02
620.57	3.84
620.76	2.05
620.95	3.54
621.14	3.78
621.33	4.4
621.52	4.02
621.71	2.29
621.9	2.92
622.09	1.34
622.28	-0.52
622.47	-0.09
622.659	-1.15
622.849	-0.28
623.039	-0.62
623.229	-1.97
623.419	0.12
623.609	1.59
623.799	0.23
623.988	-1.48
624.178	-1.59
624.368	-0.96
624.558	-0.29
624.747	1.25
624.937	1.8
625.127	-0.06
625.316	-2.51
625.506	-1.98
625.696	-0.79
625.885	-2.02
626.075	-1.56
626.265	-0.63
626.454	-0.62
626.644	-0.11
626.833	-1.73
627.023	-3.53
627.212	-4.64
627.402	-5.17
627.591	-5.16
627.781	-5.26
627.97	-4.34
628.16	-4.61
628.349	-4.45
628.539	-5.71
628.728	-5.27
628.918	-6.61
629.107	-4.67
629.296	-5.29
629.486	-5.78
629.675	-4.83
629.865	-2.91
630.054	-2.66
630.243	-4.84
630.432	-3.31
630.622	-2.01
630.811	0.25
631	1.39
631.19	2.26
631.379	1.86
631.568	2.32
631.757	3.89
631.946	4.88
632.136	5.91
632.325	6.19
632.514	8.37
632.703	7.02
632.892	5.57
633.081	5.58
633.27	8.18
633.459	8.64
633.648	8.82
633.837	7.85
634.026	7.44
634.215	9.65
634.404	9.37
634.593	9.14
634.782	9.02
634.971	8.17
635.16	6.03
635.349	6.72
635.538	5.31
635.727	3.74
635.916	1.5
636.105	2.69
636.294	2.6
636.482	1.04
636.671	1.82
636.86	3.06
637.049	2.76
637.238	1.14
637.426	1.54
637.615	-0.37
637.804	0.53
637.993	0.9
638.181	0.31
638.37	0.79
638.559	-0.1
638.747	-1.96
638.936	-0.82
639.125	1.4
639.313	1.01
639.502	2.17
639.691	2.47
639.879	2.14
640.068	0.8
640.256	0.12
640.445	0.78
640.633	1.47
640.822	0.7
641.01	2.21
641.199	3.09
641.387	2.98
641.576	4.83
641.764	5.05
641.953	4.47
642.141	3.79
642.329	3.83
642.518	3.22
642.706	3.23
642.894	2.3
643.083	3.37
643.271	2.11
643.459	2.47
643.648	4.08
643.836	4.99
644.024	5.83
644.213	7.86
644.401	7.9
644.589	6.99
644.777	8.11
644.965	7.88
645.154	7.07
645.342	7.24
645.53	6.21
645.718	6.89
645.906	6.35
646.094	7.44
646.282	5.94
646.47	7.35
646.658	7.46
646.846	6.54
647.034	6.11
647.223	6.09
647.411	4.4
647.599	2.22
647.786	2.76
647.974	0.95
648.162	-1.66
648.35	-3.12
648.538	-3.5
648.726	-3.58
648.914	-4.55
649.102	-3.22
649.29	-2.31
649.478	-1.54
649.665	-1.96
649.853	0.06
650.041	-0.3
650.229	0.09
650.417	-0.55
650.604	0.37
650.792	1.99
650.98	1.41
651.168	0.01
651.355	1.32
651.543	1.69
651.731	1.47
651.918	1.46
652.106	3.13
652.294	3.62
652.481	3.78
652.669	3.49
652.856	3.63
653.044	3.46
653.231	0.62
653.419	0.43
653.606	0.58
653.794	0.68
653.981	-0.08
654.169	-0.21
654.356	-0.86
654.544	-0.31
654.731	-0.43
654.919	-1.29
655.106	0.3
655.294	0.43
655.481	1.54
655.668	2.72
655.856	1.88
656.043	1.87
656.23	1.64
656.418	1.5
656.605	2.07
656.792	2.34
656.979	3.34
657.167	4.82
657.354	5.73
657.541	5.69
657.728	5.17
657.916	4.93
658.103	4.98
658.29	7.06
658.477	7.82
658.664	7.74
658.851	7.93
659.038	7.82
659.225	7.07
659.412	7.84
659.6	6.36
659.787	7.98
659.974	6.38
660.161	8.07
660.348	8.11
660.535	8.57
660.722	6.98
660.909	5.12
661.095	5.03
661.282	4.47
661.469	2.89
661.656	1.78
661.843	2.31
662.03	2.35
662.217	1.64
662.404	0.64
662.59	1.31
662.777	0.84
662.964	0.56
663.151	1.71
663.338	1
663.524	0.99
663.711	0.66
663.898	1.97
664.085	0.63
664.271	-0.07
664.458	-0.55
664.645	-0.2
664.831	0.76
665.018	0.27
665.204	-0.08
665.391	0.74
665.578	1.1
665.764	0.57
665.951	0.46
666.137	-1.35
666.324	-0.89
666.51	-2.03
666.697	-1.48
666.883	-0.63
667.07	-1.29
667.256	-1.1
667.443	-2.04
667.629	-1.36
667.816	-1.49
668.002	-1.63
668.188	0.41
668.375	-1.15
668.561	-0.81
668.747	-2.59
668.934	-1.74
669.12	-1.19
669.306	-2.03
669.493	-2.73
669.679	-1.08
669.865	-1.54
670.051	-0.99
670.238	-2.97
670.424	-2.46
670.61	-3.17
670.796	-2.39
670.982	-2.72
671.169	-3.4
671.355	-2.75
671.541	-3.58
671.727	-4.31
671.913	-3.64
672.099	-4.53
672.285	-4.35
672.471	-3.45
672.657	-2.99
672.843	-1.89
673.029	-2.35
673.215	-0.95
673.401	1.67
673.587	-1.11
673.773	-0.31
673.959	0.46
674.145	1.84
674.331	2.33
674.517	4.09
674.703	2.52
674.888	2.72
675.074	2.28
675.26	3.37
675.446	2.99
675.632	2.65
675.817	1.74
676.003	2.32
676.189	3.35
676.375	1.91
676.56	2.07
676.746	0.92
676.932	-0.07
677.117	-1.78
677.303	-2.78
677.489	-0.73
677.674	-2.54
677.86	-2.64
678.046	-2.64
678.231	-3.65
678.417	-4.89
678.602	-3.65
678.788	-3.16
678.973	-1.13
679.159	0.95
679.344	1.07
679.53	2.11
679.715	2
679.901	-0.76
680.086	-0.89
680.272	0.24
680.457	0.91
680.643	0.73
680.828	2.08
681.013	2.67
681.199	1.5
681.384	2.52
681.569	3.47
681.755	2.75
681.94	2.65
682.125	2.35
682.31	4.85
682.496	4.91
682.681	6.37
682.866	5.73
683.051	3.28
683.237	3.79
683.422	4.18
683.607	4.16
683.792	7.28
683.977	6.65
684.162	4.92
684.347	4.84
684.532	4.55
684.717	4.9
684.903	5.52
685.088	5.82
685.273	4
685.458	3.99
685.643	4.91
685.828	4.07
686.013	6.97
686.198	5.75
686.382	6.5
686.567	5.27
686.752	4
686.937	4.45
687.122	5.27
687.307	4.48
687.492	5.96
687.677	4.92
687.861	5.35
688.046	5.7
688.231	5.59
688.416	7.38
688.601	4.96
688.785	5
688.97	5.33
689.155	6.36
689.339	6.94
689.524	5.99
689.709	6.58
689.893	5.18
690.078	5.88
690.263	4.08
690.447	2.96
690.632	3.34
690.816	4.23
691.001	4.09
691.186	3.35
691.37	1.98
691.555	2.88
691.739	2.9
691.924	3.33
692.108	3.05
692.293	2.22
692.477	2.8
692.661	2.04
692.846	2.7
693.03	2.27
693.215	1.76
693.399	3.08
693.583	3.19
693.768	3.91
693.952	2.77
694.136	3.65
694.321	5.33
694.505	4.95
694.689	4.31
694.873	4.45
695.058	4.2
695.242	5.5
695.426	4.61
695.61	2.82
695.794	4.65
695.979	4.75
696.163	4
696.347	4.97
696.531	5.32
696.715	4.31
696.899	4.5
697.083	3.27
697.267	3.8
697.451	2.97
697.635	2.04
697.819	1.64
698.003	1.5
698.187	-0.09
698.371	1.45
698.555	1.8
698.739	1.39
698.923	2.14
699.107	2.27
699.291	2.74
699.475	4.26
699.659	3.56
699.842	3.09
700.026	2.31
700.21	1.87
700.394	1.4
700.578	2.52
700.761	3.04
700.945	5.5
701.129	5.07
701.313	6.21
701.496	5.93
701.68	6.58
701.864	6.03
702.047	6.87
702.231	8.03
702.415	7.69
702.598	7.47
702.782	7.34
702.965	6.62
703.149	6.71
703.333	5.24
703.516	4.81
703.7	4.85
703.883	5.52
704.067	5.82
704.25	5.94
704.434	5.24
704.617	4.08
704.801	3.24
704.984	1.69
705.167	0.33
705.351	-0.28
705.534	-0.41
705.718	0.65
705.901	-0.13
706.084	-1.86
706.268	-2.22
706.451	-3.45
706.634	-2.53
706.817	-3.39
707.001	-5.16
707.184	-3.52
707.367	-3.53
707.55	-1.81
707.734	-0.95
707.917	-1.23
708.1	-0.6
708.283	0.42
708.466	1.15
708.649	1.81
708.832	2.33
709.015	2.79
709.199	3.97
709.382	4.44
709.565	4.43
709.748	5.8
709.931	4.99
710.114	5.28
710.297	6.29
710.48	5.73
710.663	6.49
710.846	7.99
711.028	8.47
711.211	8.12
711.394	7.1
711.577	5.75
711.76	4.59
711.943	5.34
712.126	3.74
712.309	3.99
712.491	4.5
712.674	3.84
712.857	5.33
713.04	4.75
713.222	5.04
713.405	4.43
713.588	3.68
713.771	4.69
713.953	4.48
714.136	4.15
714.319	5.12
714.501	5.01
714.684	4.69
714.866	4.59
715.049	4.36
715.232	5.08
715.414	4.92
715.597	6.77
715.779	5.43
715.962	5.86
716.144	4.78
716.327	3.99
716.509	4.42
716.692	1.62
716.874	0.86
717.057	1.24
717.239	0.99
717.421	1.09
717.604	-1.91
717.786	-1.35
717.968	-1.31
718.151	-2.14
718.333	-4.4
718.515	-4.06
718.698	-4.32
718.88	-3.68
719.062	-4.88
719.244	-2.97
719.427	-4.89
719.609	-3.92
719.791	-3.93
719.973	-3.35
720.155	-5.18
720.338	-4.3
720.52	-2.17
720.702	-0.3
720.884	-0.04
721.066	0.24
721.248	-2.1
721.43	0.4
721.612	-0.67
721.794	1.72
721.976	1.77
722.158	5.34
722.34	3.58
722.522	3.1
722.704	3.03
722.886	3.81
723.068	2.24
723.25	4.59
723.432	3.53
723.614	3.77
723.796	4.28
723.977	4.56
724.159	4.59
724.341	4.45
724.523	2.07
724.705	-0.72
724.886	-0.68
725.068	1.28
725.25	2.37
725.432	3.9
725.613	2.04
725.795	3.58
725.977	2.36
726.158	2.81
726.34	2.38
726.522	2.08
726.703	2.08
726.885	2.77
727.066	0.78
727.248	2.62
727.43	3.06
727.611	1.79
727.793	1.99
727.974	1.54
728.156	1.15
728.337	1.02
728.519	1.59
728.7	3.66
728.882	2.73
729.063	1.86
729.244	0.67
729.426	0.9
729.607	0.36
729.788	-0.17
729.97	1.61
730.151	1.91
730.332	3.86
730.514	4.58
730.695	6.3
730.876	7.69
731.058	6.99
731.239	6.6
731.42	8.1
731.601	7.97
731.782	6.81
731.964	6.46
732.145	7.45
732.326	6.29
732.507	3.9
732.688	5
732.869	6.34
733.05	7.51
733.231	8.13
733.412	5.93
733.593	7.82
733.774	6.86
733.955	7.2
734.136	6.54
734.317	5.84
734.498	5.02
734.679	4.68
734.86	3.23
735.041	4.16
735.222	3.89
735.403	4.82
735.584	5.92
735.765	6.93
735.946	7.73
736.126	7.88
736.307	10.25
736.488	8.81
736.669	5.52
736.849	3.33
737.03	4.06
737.211	6.97
737.392	5.75
737.572	4.06
737.753	4.53
737.934	4.62
738.114	5.79
738.295	4.38
738.476	4.14
738.656	6.18
738.837	5.07
739.017	4.42
739.198	4.19
739.378	4.87
739.559	4.36
739.74	3.82
739.92	4.48
740.1	2.55
740.281	1.7
740.461	3.63
740.642	5.53
740.822	2.99
741.003	1.48
741.183	0.94
741.363	3.43
741.544	2.54
741.724	0.9
741.904	-1.48
742.085	-1.66
742.265	-1.17
742.445	-2.54
742.626	-1.88
742.806	-1.25
742.986	-1.66
743.166	-1.76
743.347	-2.83
743.527	-1.82
743.707	-1.5
743.887	-2.14
744.067	-1.4
744.247	-2.27
744.427	-1.9
744.608	-1.27
744.788	0.57
744.968	2.71
745.148	2.32
745.328	2.04
745.508	1.63
745.688	2.67
745.868	0.86
746.048	0.38
746.228	1.15
746.408	0.55
746.588	0.39
746.767	1.91
746.947	1.06
747.127	2.29
747.307	1.38
747.487	1.02
747.667	1.7
747.847	3.93
748.026	4.44
748.206	3.8
748.386	5.32
748.566	2.34
748.745	2.18
748.925	2.63
749.105	4.41
749.285	5.78
749.464	6.63
749.644	8.6
749.824	8.36
750.003	8.22
750.183	8.16
750.362	8.56
750.542	7.66
750.722	8.37
750.901	7.22
751.081	6.94
751.26	8.76
751.44	8.12
751.619	6.54
751.799	5.88
751.978	4.3
752.158	3.84
752.337	5.79
752.516	4.08
752.696	3.72
752.875	3.55
753.055	2.78
753.234	2.42
753.413	3.44
753.593	5.92
753.772	5.58
753.951	5.81
754.13	5.17
754.31	3.03
754.489	2.26
754.668	4.62
754.847	4.45
755.027	4.07
755.206	5.17
755.385	6.37
755.564	7.44
755.743	8.37
755.922	7.24
756.101	6.93
756.28	7.37
756.46	7.7
756.639	5.96
756.818	6.87
756.997	7.3
757.176	6.37
757.355	4.86
757.534	4.14
757.713	4.33
757.892	4.35
758.07	6.35
758.249	6.47
758.428	5.16
758.607	5.36
758.786	5.8
758.965	4.66
759.144	4.71
759.323	3.99
759.501	3.84
759.68	4.76
759.859	5.17
760.038	5.08
760.216	4.11
760.395	5.59
760.574	5.01
760.753	6.04
760.931	6.66
761.11	7.21
761.289	6.81
761.467	6.31
761.646	6.65
761.824	7.15
762.003	6.11
762.182	5.59
762.36	5.54
762.539	5.01
762.717	5.41
762.896	5.34
763.074	6.42
763.253	6.05
763.431	6.63
763.61	6.68
763.788	6.54
763.966	7.03
764.145	7.46
764.323	7.37
764.502	4.87
764.68	5.43
764.858	4.13
765.037	6.25
765.215	6.72
765.393	6.39
765.571	6.44
765.75	7.76
765.928	6.68
766.106	6.16
766.284	4.93
766.463	4.49
766.641	4.75
766.819	4.41
766.997	5.06
767.175	4.71
767.353	3.54
767.531	3.95
767.71	4.8
767.888	3.88
768.066	3.4
768.244	4.65
768.422	2.73
768.6	4.42
768.778	3.21
768.956	2.39
769.134	2.83
769.312	3.63
769.489	2.51
769.667	5.21
769.845	7.18
770.023	8.96
770.201	11.36
770.379	10.9
770.557	10.46
770.735	10.86
770.912	10.75
771.09	11.73
771.268	11.52
771.446	10.87
771.623	11.6
771.801	12.8
771.979	12.21
772.157	12.58
772.334	10.71
772.512	12.19
772.69	11.68
772.867	11.1
773.045	10.26
773.222	9.84
773.4	8.9
773.577	7.64
773.755	7.51
773.933	5.6
774.11	6.57
774.288	6.22
774.465	5.35
774.643	4.18
774.82	6.14
774.997	7.06
775.175	5.35
775.352	7.15
775.53	5.9
775.707	6.53
775.884	7.53
776.062	8.42
776.239	7.03
776.416	8.14
776.594	7.35
776.771	6.04
776.948	8.41
777.125	7.62
777.303	6.49
777.48	4.31
777.657	3.32
777.834	2.46
778.012	3.31
778.189	4.52
778.366	4.68
778.543	0.22
778.72	-0.88
778.897	1.32
779.074	-1.28
779.251	0.37
779.428	0.45
779.605	-1.77
779.782	-0.92
779.959	-2.05
780.136	-3.13
780.313	-1.46
780.49	-2.32
780.667	-3.01
780.844	-2.91
781.021	-3.17
781.198	-1.06
781.375	-0.45
781.552	-2.43
781.728	-3.29
781.905	-3.66
782.082	-2.47
782.259	-0.53
782.436	-0.9
782.612	-2.87
782.789	-2.79
782.966	-3.3
783.143	-3.74
783.319	-0.49
783.496	-0.37
783.673	0.84
783.849	2.71
784.026	1.33
784.203	2.94
784.379	1.22
784.556	2.94
784.732	3.61
784.909	2.64
785.085	3
785.262	6.07
785.438	8.73
785.615	8.85
785.791	9.26
785.968	6.7
786.144	6.88
786.321	9.77
786.497	8.01
786.673	5.59
786.85	4.99
787.026	4.53
787.203	3.01
787.379	2.12
787.555	0.09
787.731	1.78
787.908	1.27
788.084	4.19
788.26	3.27
788.437	5.82
788.613	5.14
788.789	3.21
788.965	-0.42
789.141	-2.62
789.317	-6.15
789.494	-7.51
789.67	-4.28
789.846	-3.54
790.022	-6.18
790.198	-5.19
790.374	-4.02
790.55	-5.04
790.726	-6.86
790.902	-6.65
791.078	-6.36
791.254	-5.22
791.43	-5.38
791.606	-4.97
791.782	-6.77
791.958	-7.71
792.134	-7.39
792.31	-7.59
792.486	-7.61
792.661	-5.29
792.837	-4.88
793.013	-2.28
793.189	-0.55
793.365	-1.02
793.54	-0.38
793.716	0.49
793.892	1.69
794.068	1.49
794.243	3.48
794.419	2.58
794.595	1.87
794.77	3.32
794.946	4.22
795.122	1.97
795.297	0.76
795.473	-0.16
795.648	0.84
795.824	-0.7
796	2.71
796.175	4.83
796.351	3.24
796.526	2.64
796.702	2.83
796.877	2.59
797.052	3.09
797.228	-0.19
797.403	-1.32
797.579	-1.77
797.754	-0.19
797.929	-0.29
798.105	2.13
798.28	2.7
798.455	3.01
798.631	0.04
798.806	2.76
798.981	4.54
799.157	5.1
799.332	4.39
799.507	4.55
799.682	2.65
799.858	2.34
800.033	3.25
800.208	2.19
800.383	3.69
800.558	4.26
800.733	3.11
800.908	7.34
801.083	8.95
801.258	7.62
801.434	8.22
801.609	8
801.784	6.48
801.959	8.43
802.134	7.86
802.309	7.61
802.484	5.77
802.658	7.3
802.833	6.46
803.008	7.97
803.183	6.9
803.358	6.88
803.533	6.49
803.708	5.89
803.883	8.38
804.057	4.01
804.232	5.49
804.407	7.11
804.582	6.73
804.756	6.05
804.931	8.9
805.106	4.93
805.281	6.41
805.455	5.75
805.63	4.13
805.805	3.3
805.979	5.82
806.154	6.24
806.328	4.1
806.503	5.09
806.678	2.93
806.852	2.32
807.027	0.16
807.201	-2.06
807.376	-1.23
807.55	-1.94
807.725	0.6
807.899	-0.3
808.074	-1.34
808.248	-0.14
808.422	-1.02
808.597	0.21
808.771	5.64
808.946	4.62
809.12	6.2
809.294	5.93
809.468	7.42
809.643	7.33
809.817	7.84
809.991	9.02
810.166	10.14
810.34	8.82
810.514	10.72
810.688	11.75
810.862	13.34
811.037	15.35
811.211	16.01
811.385	16.63
811.559	16.93
811.733	16.81
811.907	14.47
812.081	12.03
812.255	7.81
812.429	3.92
812.603	4.28
812.777	8.05
812.951	7.95
813.125	8.05
813.299	7.51
813.473	2.26
813.647	4.72
813.821	4
813.995	7.19
814.169	4.82
814.343	7.22
814.516	8.42
814.69	8.96
814.864	7.29
815.038	8.82
815.212	8.63
815.385	9.17
815.559	9.7
815.733	11.24
815.907	12.85
816.08	13.31
816.254	12.05
816.428	8.42
816.601	10.86
816.775	10.34
816.948	9.19
817.122	15.41
817.296	14.2
817.469	13.87
817.643	13.62
817.816	14.57
817.99	11.36
818.163	10.33
818.337	7.77
818.51	9.02
818.684	7.34
818.857	5.07
819.031	5.7
819.204	3.57
819.377	5.33
819.551	4.8
819.724	6.31
819.897	7.01
820.071	6.65
820.244	5.93
820.417	6.55
820.591	10.66
820.764	9.37
820.937	8.62
821.11	9.07
821.284	10.78
821.457	12.49
821.63	15.31
821.803	16.3
821.976	19.48
822.149	21.14
822.322	21.02
822.496	20.73
822.669	18.88
822.842	23.24
823.015	21.93
823.188	23.99
823.361	24.29
823.534	24.36
823.707	25.42
823.88	22.19
824.053	21.88
824.226	18.96
824.399	22.03
824.571	22.04
824.744	21.11
824.917	20.73
825.09	15.32
825.263	13.43
825.436	15.81
825.608	12.53
825.781	12.09
825.954	12.1
826.127	13.32
826.299	15.05
826.472	11.74
826.645	12.59
826.818	9.63
826.99	8.95
827.163	10.71
827.336	10.49
827.508	9.66
827.681	9.36
827.853	10.89
828.026	9.49
828.198	11.89
828.371	11.82
828.544	11.37
828.716	16.78
828.889	15.04
829.061	10.16
829.233	9.99
829.406	6.05
829.578	5.5
829.751	1.86
829.923	0.5
830.096	-0.91
830.268	0.08
830.44	2.11
830.613	-0.1
830.785	0.03
830.957	-1.51
831.129	0.46
831.302	1.58
831.474	0.67
831.646	-0.43
831.818	-3.19
831.991	-0.4
832.163	-0.85
832.335	-0.94
832.507	0.76
832.679	0.9
832.851	-1.21
833.023	1.68
833.195	1.5
833.368	6.81
833.54	9.85
833.712	9.8
833.884	12.47
834.056	12.97
834.228	14.51
834.4	15.97
834.571	19.13
834.743	18.51
834.915	16.13
835.087	16.37
835.259	21.53
835.431	19.88
835.603	16.17
835.775	11.66
835.946	11.86
836.118	12.95
836.29	14.2
836.462	16.88
836.634	16.85
836.805	16.85
836.977	12.9
837.149	11.18
837.32	12.7
837.492	12.81
837.664	9.49
837.835	7.76
838.007	0.06
838.179	-3.44
838.35	-0.12
838.522	2
838.693	-0.24
838.865	-12.78
839.036	-16.82
839.208	-11.11
839.379	-7.36
839.551	-4.97
839.722	-3.8
839.894	-4.85
840.065	-3.85
840.237	-5.91
840.408	-5.94
840.579	0.68
840.751	-5.13
840.922	-5.98
841.093	-10.23
841.265	-9.99
841.436	-4.72
841.607	-1.32
841.778	0.75
841.95	-1.86
842.121	-1.35
842.292	0.35
842.463	6.91
842.635	13.84
842.806	13.25
842.977	15.91
843.148	12.16
843.319	12.04
843.49	12.71
843.661	7.95
843.832	6.82
844.003	10.51
844.174	5.58
844.345	13.47
844.516	15.85
844.687	21.7
844.858	23.07
845.029	21.39
845.2	19.16
845.371	13.82
845.542	16.08
845.713	7.15
845.884	1.07
846.055	-3.7
846.225	-7.86
846.396	-14.2
846.567	-13.46
846.738	-14.74
846.909	-10.71
847.079	-6.97
847.25	-1.17
847.421	-4.21
847.591	-9.66
847.762	-13.89
847.933	-17.78
848.103	-12.78
848.274	-19.08
848.445	-20.36
848.615	-21.61
848.786	-17.51
848.956	-13.53
849.127	-9.19
849.297	3.96
849.468	12.95
849.638	11.05
849.809	12.4
849.979	16.08
850.15	19.16
850.32	22.94
850.491	22.7
850.661	23.12
850.831	28.75
851.002	35
851.172	38.2
851.342	38.43
851.513	38.17
851.683	38.35
851.853	37.99
852.024	39.31
852.194	35.09
852.364	32.95
852.534	34.72
852.705	30.52
852.875	29
853.045	27.5
853.215	30.02
853.385	32.02
853.555	34.17
853.725	31.39
853.895	29.83
854.066	29.2
854.236	31.95
854.406	30.1
854.576	26.3
854.746	20.43
854.916	23.98
855.086	22.53
855.256	19.13
855.425	21.01
855.595	20.13
855.765	18.25
855.935	17.95
856.105	19.03
856.275	22.71
856.445	13.8
856.614	13.5
856.784	16.57
856.954	12.23
857.124	9.16
857.294	9.89
857.463	12.42
857.633	14.42
857.803	1.08
857.972	-0.74
858.142	-1.1
858.312	4.12
858.481	5.9
858.651	4.96
858.821	3.87
858.99	3.6
859.16	-0.2
859.329	8.93
859.499	8.75
859.668	13.09
859.838	11.23
860.007	21.96
860.177	19.89
860.346	17.95
860.516	21.56
860.685	20.7
860.854	17.92
861.024	10.98
861.193	4.32
861.363	15.36
861.532	10.81
861.701	15.01
861.87	12.73
862.04	9.36
862.209	12.41
862.378	10.95
862.547	9.63
862.717	8.31
862.886	9.57
863.055	4.25
863.224	0.92
863.393	0.67
863.563	-1.47
863.732	3.62
863.901	0.88
864.07	2.04
864.239	1.48
864.408	3.74
864.577	7.99
864.746	14.6
864.915	8.72
865.084	13.16
865.253	7.79
865.422	9.31
865.591	7.49
865.76	7.05
865.929	6.92
866.097	8.64
866.266	3.58
866.435	0.06
866.604	4.38
866.773	7.46
866.942	7.58
867.11	6.05
867.279	1.46
867.448	7.01
867.617	6.76
867.785	17.81
867.954	8.46
868.123	3.69
868.291	-2.58
868.46	7.6
868.629	5.36
868.797	5.83
868.966	8.13
869.134	12.3
869.303	15.3
869.472	15.74
869.64	15.23
869.809	32.11
869.977	32.82
870.146	38.26
870.314	30.54
870.482	29.81
870.651	24.34
870.819	27.96
870.988	21.47
871.156	17.83
871.324	8.83
871.493	0.07
871.661	8.72
871.829	9.75
871.998	4.64
872.166	-0.69
872.334	8.71
872.502	8.81
872.671	8.57
872.839	8.27
873.007	4.08
873.175	-1.47
873.343	-9.22
873.512	-12.28
873.68	-16.36
873.848	-20.65
874.016	-22.73
874.184	-26.82
874.352	-38.31
874.52	-22.66
874.688	-21.76
874.856	-15.2
875.024	-3.19
875.192	-3.56
875.36	-4.6
875.528	-1.02
875.696	18.18
875.864	21.24
876.032	21.27
876.199	15.64
876.367	14.16
876.535	10.11
876.703	23.74
876.871	38.2
877.039	50.68
877.206	51.21
877.374	53.89
877.542	61.66
877.71	67.55
877.877	86.49
878.045	90.14
878.213	83.83
878.38	97.27
878.548	104.87
878.715	100.06
878.883	97.38
879.051	105.06
879.218	85.22
879.386	81.67
879.553	77.08
879.721	79.78
879.888	84.2
880.056	95.15
880.223	96.51
880.391	110.03
880.558	95.63
880.726	92.98
880.893	101.14
881.06	87.08
881.228	85.17
881.395	64.93
881.562	63.28
881.73	75.97
881.897	59.89
882.064	35.2
882.231	23.61
882.399	32.48
882.566	28.03
882.733	34.07
882.9	10.41
883.068	49.17
883.235	60.57
883.402	71.3
883.569	63.91
883.736	72.56
883.903	59.03
884.07	61.06
884.237	61.37
884.404	62.13
884.571	78.18
884.738	84.75
884.905	95.45
885.072	96.86
885.239	85.71
885.406	91.11
