Data from Transmission_09-53-17-934.txt Node
Date: Fri Aug 24 09:53:17 EEST 2018
User: tibor.sos
Spectrometer: USB4F01757
Scans to average: 10
Trigger mode: 4
Integration Time (sec): 1.000000E-2
Electric dark correction enabled: true
Boxcar width: 10
XAxis mode: Wavelengths
Number of Pixels in Spectrum: 3648
>>>>>Begin Spectral Data<<<<<
178.758	18.23
178.974	2.29
179.191	-92.15
179.407	-17.38
179.624	-9.43
179.84	-28.75
180.057	0.28
180.273	41.68
180.489	33.93
180.706	-7.72
180.922	6.33
181.138	8.33
181.355	64.99
181.571	78.1
181.787	129.46
182.004	144.81
182.22	164.29
182.436	265.74
182.653	215.98
182.869	191.49
183.085	240.26
183.301	243.64
183.518	173.04
183.734	184.73
183.95	224.76
184.166	234.9
184.383	236.36
184.599	208.34
184.815	165.84
185.031	169.64
185.247	192.22
185.463	211.07
185.68	233.86
185.896	255.86
186.112	346.08
186.328	300.14
186.544	333.48
186.76	327.66
186.976	265.47
187.192	268.69
187.408	355.71
187.624	399.15
187.84	298.32
188.056	234.07
188.272	212.1
188.488	244.39
188.704	236.2
188.92	269.89
189.136	256.32
189.352	294.26
189.568	324.68
189.784	350.98
190	330.12
190.216	331.16
190.432	361.36
190.648	413.82
190.864	1057.54
191.08	741.15
191.296	365.62
191.511	393.86
191.727	466.31
191.943	406.33
192.159	241.73
192.375	279.95
192.591	420.15
192.806	666.06
193.022	378.85
193.238	689.5
193.454	561.59
193.669	737.43
193.885	747.52
194.101	1135.12
194.317	587.92
194.532	2883.15
194.748	-2112.61
194.964	783.57
195.18	321.46
195.395	241.3
195.611	259.52
195.827	462.48
196.042	842.57
196.258	497.8
196.473	413.8
196.689	454.94
196.905	706.35
197.12	2603.96
197.336	807.83
197.551	-976.47
197.767	272600
197.982	693.95
198.198	4189.04
198.414	3669.66
198.629	675.75
198.845	487.52
199.06	561.87
199.276	386.6
199.491	1490.81
199.707	373.93
199.922	261.27
200.137	263.94
200.353	284.69
200.568	214.61
200.784	237.37
200.999	223.37
201.215	373.51
201.43	320.36
201.645	256.71
201.861	308.45
202.076	237.17
202.291	265.89
202.507	229.92
202.722	158.18
202.937	194
203.153	230.09
203.368	194.53
203.583	158.76
203.798	168.37
204.014	126.62
204.229	136.96
204.444	116.31
204.659	147.53
204.875	175.08
205.09	-250.42
205.305	-79.25
205.52	73.17
205.735	5.99
205.951	8
206.166	-3.54
206.381	15.44
206.596	-636.36
206.811	-616.37
207.026	-567.53
207.241	-161.57
207.457	785.67
207.672	1856.2
207.887	-1800
208.102	-306.89
208.317	-409.84
208.532	1051.98
208.747	-1056.83
208.962	-776.06
209.177	1689.93
209.392	747.04
209.607	374.68
209.822	465.42
210.037	379.53
210.252	472.94
210.467	715.77
210.682	335.44
210.897	284.84
211.112	359.49
211.326	212.44
211.541	254.18
211.756	145.76
211.971	245.02
212.186	172.69
212.401	155.69
212.616	154.21
212.831	121.87
213.045	254.64
213.26	159.2
213.475	169.62
213.69	206.96
213.905	335.46
214.119	1027.15
214.334	-7059.26
214.549	-1001.62
214.764	1151.3
214.978	777.47
215.193	1041.11
215.408	-7328.21
215.622	1258.11
215.837	7933.33
216.052	-4052.87
216.266	-823.8
216.481	-817.6
216.696	-526.02
216.91	12163.64
217.125	1327.05
217.34	2320.21
217.554	2120
217.769	-823.67
217.983	-312.81
218.198	-631.52
218.412	-1059.16
218.627	689.98
218.842	451.44
219.056	329.99
219.271	320.84
219.485	526.66
219.7	542.35
219.914	406.59
220.129	587.88
220.343	344.14
220.558	274.93
220.772	308.04
220.986	308.46
221.201	484.72
221.415	-530.75
221.63	-157.1
221.844	-174.81
222.058	-202.64
222.273	-234.77
222.487	-242.57
222.702	-246.34
222.916	-214.54
223.13	-83.79
223.344	-111.29
223.559	-76.61
223.773	-57.45
223.987	-77.37
224.202	-62.25
224.416	-91.22
224.63	-109.59
224.844	-105.02
225.059	-125.81
225.273	-2632.32
225.487	1601.6
225.701	233.67
225.915	182.19
226.13	165.54
226.344	169.65
226.558	186.77
226.772	143.59
226.986	146.87
227.2	186.35
227.415	194.24
227.629	258.05
227.843	270.65
228.057	177.45
228.271	161.97
228.485	186.5
228.699	218.14
228.913	231.18
229.127	223.34
229.341	239.63
229.555	325.68
229.769	442
229.983	576.68
230.197	549.23
230.411	650.72
230.625	777.02
230.839	481.03
231.053	768.7
231.267	1605.29
231.481	1375.59
231.695	849.85
231.909	440
232.122	243.3
232.336	245.82
232.55	425.73
232.764	517.54
232.978	494.23
233.192	498.44
233.405	686.32
233.619	449.9
233.833	272.56
234.047	438.77
234.261	528.08
234.474	341.13
234.688	-503.26
234.902	-293.97
235.116	-68.08
235.329	-59.82
235.543	-154.72
235.757	-72.8
235.97	-39.54
236.184	-5.9
236.398	56.49
236.612	72.36
236.825	77.64
237.039	152.69
237.252	133.82
237.466	392.21
237.68	606.78
237.893	-59400
238.107	-150.99
238.32	360
238.534	-15.83
238.748	121.42
238.961	162.62
239.175	210.35
239.388	226.67
239.602	473.31
239.815	198.23
240.029	178.01
240.242	139.62
240.456	67.58
240.669	89.87
240.882	120.47
241.096	274
241.309	239
241.523	389.03
241.736	465.45
241.95	-919.55
242.163	1439.1
242.376	459.6
242.59	1396.8
242.803	-11453.33
243.016	-473.11
243.23	-1403.36
243.443	-10013.33
243.656	1300.75
243.87	304.47
244.083	169.18
244.296	186.03
244.509	214.78
244.723	215.68
244.936	248.89
245.149	291.13
245.362	310.37
245.576	173.42
245.789	200
246.002	166.36
246.215	199.76
246.428	199.81
246.641	207.64
246.855	289.65
247.068	287.47
247.281	218.46
247.494	149.27
247.707	161.28
247.92	197.19
248.133	152.13
248.346	183.53
248.559	176.12
248.772	178.74
248.985	128.06
249.198	117.3
249.411	110.68
249.624	121.01
249.837	101.53
250.05	103.85
250.263	91.55
250.476	72.7
250.689	71.34
250.902	55.11
251.115	43.68
251.328	40.02
251.541	44.53
251.754	51.3
251.967	46.46
252.18	41.7
252.393	33.34
252.605	32.15
252.818	28.31
253.031	19.19
253.244	18.7
253.457	15.62
253.67	6.17
253.882	16.39
254.095	10.79
254.308	21.89
254.521	14.6
254.733	22.63
254.946	36.67
255.159	33.06
255.372	34.43
255.584	39.17
255.797	43.43
256.01	43.41
256.222	39.12
256.435	35.82
256.648	40.08
256.86	48.28
257.073	64.66
257.285	75.78
257.498	88.36
257.711	73.46
257.923	64.57
258.136	68.54
258.348	58.97
258.561	70.82
258.773	58.41
258.986	71.68
259.198	56.55
259.411	13.11
259.623	14.7
259.836	29.43
260.048	46.08
260.261	44.14
260.473	45.18
260.686	61.56
260.898	64.69
261.111	58.08
261.323	48.3
261.535	34.48
261.748	33.54
261.96	38.47
262.173	47.91
262.385	53.5
262.597	50.31
262.81	43.46
263.022	42.85
263.234	45.04
263.447	45.41
263.659	54.25
263.871	62.32
264.083	62.48
264.296	55.91
264.508	53.06
264.72	56.76
264.932	61.92
265.145	50.09
265.357	55.47
265.569	64.44
265.781	64.17
265.993	80.14
266.205	83.84
266.418	48.93
266.63	42.88
266.842	41.61
267.054	41.98
267.266	58.75
267.478	76.27
267.69	72.18
267.902	74.29
268.114	88.66
268.326	64.5
268.538	60.93
268.75	53.26
268.962	50.23
269.174	38.6
269.386	35.88
269.598	49.66
269.81	44.89
270.022	38.04
270.234	39.86
270.446	32.83
270.658	31.51
270.87	40.13
271.082	44.23
271.294	42.23
271.506	39.58
271.718	34.23
271.929	27.15
272.141	33.67
272.353	35.34
272.565	34.6
272.777	38.73
272.989	41.74
273.2	49.32
273.412	48.75
273.624	44.84
273.836	41.17
274.047	40.38
274.259	42.13
274.471	44.38
274.683	39.29
274.894	48.38
275.106	52.61
275.318	53.16
275.529	52.59
275.741	48.97
275.953	59.33
276.164	66.14
276.376	65.14
276.588	61.25
276.799	65.02
277.011	67.09
277.222	70.16
277.434	62.93
277.646	61.55
277.857	72.12
278.069	78.3
278.28	73.84
278.492	62.16
278.703	53.67
278.915	61.72
279.126	64.93
279.338	56.83
279.549	52.93
279.761	43.93
279.972	41.73
280.183	41.8
280.395	37.58
280.606	38.63
280.818	42.02
281.029	40.92
281.24	37.63
281.452	35.94
281.663	33.21
281.875	40.65
282.086	35.35
282.297	29.08
282.508	30.47
282.72	30.11
282.931	38.78
283.142	31.46
283.354	16.63
283.565	25.06
283.776	36.02
283.987	26.4
284.199	37.1
284.41	42.48
284.621	51.68
284.832	51.55
285.043	45.64
285.254	43.93
285.466	40.48
285.677	33.93
285.888	31.73
286.099	33.16
286.31	30.61
286.521	22.24
286.732	22.84
286.943	16.58
287.154	27.25
287.366	23.86
287.577	34.59
287.788	36.62
287.999	30.75
288.21	18.92
288.421	31.4
288.632	27.5
288.843	25.32
289.054	27.04
289.264	22.28
289.475	21.64
289.686	26.77
289.897	27.09
290.108	31.66
290.319	30.16
290.53	30.92
290.741	28.57
290.952	35.55
291.163	37.66
291.373	42.88
291.584	41.4
291.795	41.22
292.006	37.56
292.217	39.18
292.427	42.41
292.638	45.75
292.849	39.5
293.06	49.41
293.27	48.02
293.481	50.07
293.692	52.68
293.903	51.92
294.113	50.25
294.324	53.06
294.535	56.65
294.745	52.88
294.956	52.8
295.167	49.97
295.377	48.97
295.588	50.1
295.798	47.64
296.009	37.9
296.22	42.73
296.43	40.64
296.641	40.34
296.851	36.9
297.062	34.3
297.272	36.38
297.483	29.55
297.693	29.71
297.904	26.81
298.114	30.62
298.325	32.72
298.535	32.22
298.746	33.84
298.956	29.27
299.167	29.86
299.377	29.26
299.587	31.46
299.798	34.1
300.008	26.49
300.219	30.84
300.429	46.35
300.639	42.75
300.85	45.34
301.06	40.05
301.27	42.24
301.481	42.51
301.691	33.81
301.901	37.88
302.111	37.74
302.322	38.69
302.532	33.5
302.742	31.9
302.952	32.93
303.163	24.3
303.373	27.22
303.583	28.86
303.793	30.82
304.003	29.95
304.214	30.71
304.424	33.34
304.634	26.3
304.844	20.19
305.054	23.1
305.264	25.01
305.474	30.67
305.684	28.38
305.894	33.09
306.104	39.4
306.314	36.3
306.525	36.4
306.735	30.87
306.945	32.96
307.155	38.42
307.365	38.14
307.575	41.55
307.784	33.44
307.994	33.35
308.204	27.21
308.414	26.21
308.624	24.01
308.834	26.84
309.044	37.69
309.254	37.3
309.464	33.63
309.674	26.61
309.884	21.87
310.093	24.36
310.303	19.77
310.513	27.09
310.723	31.27
310.933	30.74
311.142	33.58
311.352	32.24
311.562	31.95
311.772	31.42
311.981	30.48
312.191	34.72
312.401	36.98
312.611	39.33
312.82	39.02
313.03	40.32
313.24	38.39
313.449	36.68
313.659	33.73
313.869	34.9
314.078	37.74
314.288	38.18
314.497	36.48
314.707	39.41
314.917	34.25
315.126	34.06
315.336	33.52
315.545	28.14
315.755	31.96
315.964	24.17
316.174	27.37
316.383	27.53
316.593	27.42
316.802	25.78
317.012	28.58
317.221	31.97
317.431	25.93
317.64	31.95
317.849	22.67
318.059	25.59
318.268	24.74
318.478	28.01
318.687	29.26
318.896	31.9
319.106	26.27
319.315	26.08
319.524	17.25
319.734	15.03
319.943	18.65
320.152	18.6
320.362	22.82
320.571	18.98
320.78	14.35
320.989	18.67
321.199	20.53
321.408	19.91
321.617	14.21
321.826	17.18
322.035	7.07
322.245	14.42
322.454	17
322.663	14.28
322.872	8.53
323.081	7.15
323.29	2.96
323.5	6.73
323.709	8.56
323.918	18.43
324.127	15.99
324.336	9.22
324.545	-0.12
324.754	-1.53
324.963	2.65
325.172	6.15
325.381	5.29
325.59	7.52
325.799	3.46
326.008	4.8
326.217	3.27
326.426	12.54
326.635	13
326.844	16.12
327.053	22.09
327.262	31.43
327.47	31.82
327.679	39.91
327.888	34.24
328.097	33.37
328.306	28.9
328.515	35.85
328.724	43.88
328.932	50.46
329.141	50.02
329.35	46.67
329.559	52.85
329.768	52.64
329.976	47
330.185	46.36
330.394	43.74
330.602	46.62
330.811	43.01
331.02	43.12
331.229	40.04
331.437	37.64
331.646	30.52
331.855	34.66
332.063	32.46
332.272	46.83
332.48	52.58
332.689	52.6
332.898	53.61
333.106	53.73
333.315	57.76
333.523	53.63
333.732	48.65
333.94	53.16
334.149	50.84
334.357	50.25
334.566	50.07
334.774	58.68
334.983	61.06
335.191	61.13
335.4	60.51
335.608	61.23
335.817	59.61
336.025	71.62
336.234	69.47
336.442	68.09
336.65	62.56
336.859	47.79
337.067	47.42
337.275	50.21
337.484	43.51
337.692	44.61
337.9	57.18
338.109	70.13
338.317	62.92
338.525	65.65
338.734	74.77
338.942	86.07
339.15	81.09
339.358	83.3
339.567	71.03
339.775	62.91
339.983	53.89
340.191	53.6
340.399	49.38
340.608	51.84
340.816	52.52
341.024	51.92
341.232	44.91
341.44	48.28
341.648	44.14
341.856	48.64
342.064	47.26
342.272	39.58
342.481	38.88
342.689	37.82
342.897	41.72
343.105	40.86
343.313	40.39
343.521	47.01
343.729	40.33
343.937	39.04
344.145	38.79
344.353	50.73
344.56	53.39
344.768	54.88
344.976	49.87
345.184	46.32
345.392	43.43
345.6	56.07
345.808	51.44
346.016	57.12
346.224	62.9
346.431	61.59
346.639	61.19
346.847	60.91
347.055	62.9
347.263	57.47
347.471	54.57
347.678	55.49
347.886	44.98
348.094	56.27
348.302	64.82
348.509	68.18
348.717	60.08
348.925	66.56
349.132	63.81
349.34	68.73
349.548	67.61
349.755	66.18
349.963	66.77
350.171	68.69
350.378	57.3
350.586	51.6
350.793	48.93
351.001	52.49
351.209	49.25
351.416	51.08
351.624	49.06
351.831	41.81
352.039	43.19
352.246	46.53
352.454	37.15
352.661	40.33
352.869	42.36
353.076	39.77
353.284	45.3
353.491	51.94
353.699	47.2
353.906	44.3
354.113	45.61
354.321	44.21
354.528	49.51
354.736	52.77
354.943	55.31
355.15	49.97
355.358	46.99
355.565	47.04
355.772	43.96
355.98	54.98
356.187	59.76
356.394	57.05
356.601	56.38
356.809	59.24
357.016	56.13
357.223	57.05
357.43	49.2
357.638	44.65
357.845	44.17
358.052	41.05
358.259	47.27
358.466	51.05
358.673	50.06
358.881	40.15
359.088	37.06
359.295	33.23
359.502	32.63
359.709	31.99
359.916	33.4
360.123	33.37
360.33	22.19
360.537	26.5
360.744	27.7
360.951	30.87
361.158	33.36
361.365	37.51
361.572	37.58
361.779	57.22
361.986	58.19
362.193	57.99
362.4	57.64
362.607	44.57
362.814	41.53
363.021	40.4
363.228	36.1
363.435	42.87
363.641	40.5
363.848	43.08
364.055	41.27
364.262	42.82
364.469	42
364.676	44.33
364.882	37.89
365.089	36.37
365.296	33.35
365.503	33.67
365.709	24.52
365.916	23.21
366.123	18.36
366.33	17.53
366.536	21.65
366.743	21.03
366.95	29.79
367.156	27.67
367.363	26.96
367.57	33.55
367.776	30.43
367.983	38.88
368.19	41.37
368.396	43.81
368.603	43.73
368.809	48.27
369.016	48.96
369.222	49.43
369.429	47.32
369.635	44.34
369.842	42.18
370.048	49.02
370.255	49.33
370.461	48.67
370.668	49.83
370.874	52.15
371.081	52.67
371.287	55.22
371.494	52.69
371.7	54.12
371.906	51.05
372.113	57.49
372.319	54.71
372.526	54.92
372.732	54.73
372.938	51.01
373.145	48.93
373.351	43.4
373.557	47.13
373.763	49.86
373.97	50.67
374.176	53.45
374.382	51.57
374.588	49.6
374.795	44.51
375.001	34.5
375.207	25.99
375.413	31.6
375.62	26.06
375.826	31.46
376.032	31.35
376.238	32.13
376.444	21.71
376.65	20.2
376.856	11.11
377.062	15.92
377.269	29.09
377.475	28.24
377.681	34.2
377.887	27.28
378.093	17.74
378.299	31.58
378.505	24.8
378.711	34.27
378.917	32.35
379.123	31.09
379.329	37.46
379.535	38.89
379.741	33.67
379.947	36.26
380.152	35.48
380.358	31.24
380.564	29.65
380.77	31.37
380.976	33.2
381.182	38.92
381.388	40.2
381.594	30.91
381.799	34.26
382.005	31.96
382.211	40.47
382.417	43.86
382.623	38.54
382.828	40.06
383.034	34.78
383.24	31.44
383.445	30.56
383.651	31.13
383.857	21.53
384.063	24.03
384.268	6.63
384.474	8.85
384.68	13.7
384.885	14.19
385.091	23.98
385.296	27.55
385.502	23.95
385.708	20.62
385.913	18.01
386.119	1.46
386.324	0.7
386.53	-11.87
386.735	-16.16
386.941	-2.17
387.146	-0.56
387.352	-1.08
387.557	17.69
387.763	31.04
387.968	23.27
388.174	31.42
388.379	34.42
388.585	48.81
388.79	43.14
388.996	38.24
389.201	47.1
389.406	30.61
389.612	29.48
389.817	34.43
390.022	34.49
390.228	41.45
390.433	47.59
390.638	44.5
390.844	44.82
391.049	44.22
391.254	37.17
391.459	35.55
391.665	36.72
391.87	31.1
392.075	23.45
392.28	28.63
392.485	24.89
392.691	24.74
392.896	16.38
393.101	21.73
393.306	25.75
393.511	25.81
393.716	31.41
393.922	26.01
394.127	20.57
394.332	25.94
394.537	32.23
394.742	35.89
394.947	38.86
395.152	38.81
395.357	37.77
395.562	39.53
395.767	44.49
395.972	49.24
396.177	44.5
396.382	54.88
396.587	60.45
396.792	57.72
396.997	60.67
397.202	68.96
397.407	65.43
397.611	60.26
397.816	54.55
398.021	56.23
398.226	50.86
398.431	50.56
398.636	47.28
398.841	44.85
399.045	48.35
399.25	46.32
399.455	48.76
399.66	54.92
399.864	56.3
400.069	50.3
400.274	49.34
400.479	57.42
400.683	56.11
400.888	49.59
401.093	51.94
401.297	43.46
401.502	37.04
401.707	36.9
401.911	45.34
402.116	50.03
402.321	47.46
402.525	63.63
402.73	56.03
402.934	58.36
403.139	59.1
403.344	56.64
403.548	53.25
403.753	50.06
403.957	44.9
404.162	35.94
404.366	47.7
404.571	41.63
404.775	32.75
404.98	20.17
405.184	31.06
405.388	38.91
405.593	39.5
405.797	32.29
406.002	48.54
406.206	51.33
406.41	56.55
406.615	63.45
406.819	57.81
407.023	68.59
407.228	64.16
407.432	56.99
407.636	51.54
407.841	61.42
408.045	73.29
408.249	66.89
408.453	68.03
408.658	62.22
408.862	64.99
409.066	63.39
409.27	70.66
409.474	66.02
409.679	51.26
409.883	49.67
410.087	61.15
410.291	39.71
410.495	31.16
410.699	13.44
410.903	8.48
411.108	8.04
411.312	-7.13
411.516	-8.85
411.72	-4.37
411.924	1.48
412.128	-3.06
412.332	-15.69
412.536	-7.67
412.74	-6.49
412.944	-4.99
413.148	-10.56
413.352	-17.1
413.556	-27.56
413.76	-17.45
413.964	-3.19
414.167	7.88
414.371	11.58
414.575	8.5
414.779	6.36
414.983	18.69
415.187	15.88
415.391	15.58
415.594	25.77
415.798	30.01
416.002	39.12
416.206	49.64
416.41	51.64
416.613	60.34
416.817	56.62
417.021	61.07
417.225	69.2
417.428	66.33
417.632	59.56
417.836	70.54
418.039	64.23
418.243	63.88
418.447	55.73
418.65	60.4
418.854	77.51
419.057	74.67
419.261	72.09
419.465	76.06
419.668	80.46
419.872	77.37
420.075	79.88
420.279	72.63
420.482	61.12
420.686	52.14
420.889	46.21
421.093	59.88
421.296	53.68
421.5	38.88
421.703	42.18
421.907	58.95
422.11	50.03
422.314	54.82
422.517	51.79
422.72	56.62
422.924	48.06
423.127	45.36
423.33	35.47
423.534	45.39
423.737	37.82
423.94	34.65
424.144	34.65
424.347	38.67
424.55	33.03
424.754	30.07
424.957	39.68
425.16	42.64
425.363	28.04
425.567	34.53
425.77	49.99
425.973	49.08
426.176	31.96
426.379	38.47
426.582	43.64
426.786	49.49
426.989	48.97
427.192	63.99
427.395	61.45
427.598	63.28
427.801	56.56
428.004	58.94
428.207	56.04
428.41	61.63
428.613	56.51
428.816	62.4
429.019	69.65
429.222	62.49
429.425	65.88
429.628	65.01
429.831	65.19
430.034	64.27
430.237	68.45
430.44	77.2
430.643	73
430.846	67.81
431.049	62.47
431.252	54.91
431.454	47.28
431.657	43.31
431.86	43.79
432.063	48.19
432.266	42.43
432.469	44.99
432.671	39.64
432.874	47.93
433.077	33.32
433.28	34.29
433.482	37.88
433.685	32.12
433.888	35.27
434.09	30.77
434.293	23.49
434.496	19.69
434.698	0.19
434.901	13.47
435.104	13.64
435.306	16.28
435.509	22.53
435.712	22.84
435.914	24.57
436.117	26.18
436.319	26.64
436.522	24.86
436.724	25.3
436.927	27.28
437.129	21.93
437.332	27.4
437.534	26.64
437.737	25.9
437.939	32.78
438.142	31.58
438.344	46.29
438.547	54.27
438.749	55.25
438.951	54.46
439.154	59.34
439.356	53.07
439.558	60.36
439.761	57.19
439.963	50.94
440.165	42.71
440.368	41.53
440.57	29.96
440.772	39.59
440.975	28.18
441.177	31.26
441.379	27.18
441.581	28.88
441.784	18.64
441.986	19.88
442.188	14.08
442.39	10.37
442.592	-5.76
442.795	-6.92
442.997	-16.05
443.199	-9.05
443.401	-11.64
443.603	-5.98
443.805	-14.36
444.007	-9.05
444.209	-4.29
444.411	7.43
444.613	10.8
444.815	21.6
445.017	23.03
445.219	25.86
445.421	26.02
445.623	27.27
445.825	24.93
446.027	26.45
446.229	29.71
446.431	39.06
446.633	41.99
446.835	44.83
447.037	42.47
447.239	57.97
447.441	54.82
447.643	57.67
447.844	53.29
448.046	78.12
448.248	71.88
448.45	75.57
448.652	63.16
448.853	69.36
449.055	69.08
449.257	65.29
449.459	66.88
449.66	70.36
449.862	66.25
450.064	66.04
450.266	65.66
450.467	58.88
450.669	66.72
450.871	73.56
451.072	78.14
451.274	96.38
451.475	74.75
451.677	76.24
451.879	83.64
452.08	92.98
452.282	71.09
452.483	84.21
452.685	70.74
452.886	74.14
453.088	71.39
453.289	62.71
453.491	64.65
453.692	55.98
453.894	47.21
454.095	57.38
454.297	60.43
454.498	57.71
454.7	59.85
454.901	50.45
455.102	42.23
455.304	46.38
455.505	37.03
455.706	40.04
455.908	46.14
456.109	38.83
456.31	38.93
456.512	34.51
456.713	33.89
456.914	37.45
457.116	34.89
457.317	42.3
457.518	48.23
457.719	48.77
457.921	56.28
458.122	52.99
458.323	45.31
458.524	44.06
458.725	50.11
458.926	48.71
459.128	51.53
459.329	45.53
459.53	44.78
459.731	49.41
459.932	48.52
460.133	46.06
460.334	60.52
460.535	57.23
460.736	62.54
460.937	54.75
461.138	50.18
461.339	56.77
461.54	53.06
461.741	50.28
461.942	43.52
462.143	46.91
462.344	45.12
462.545	48.21
462.746	52.58
462.947	51.89
463.148	52.86
463.348	49.25
463.549	52.1
463.75	47.33
463.951	53.76
464.152	52.85
464.353	54.11
464.553	56.18
464.754	54.83
464.955	45.59
465.156	50.65
465.356	53.28
465.557	47.95
465.758	45.36
465.959	48.03
466.159	53.66
466.36	52.79
466.561	53.89
466.761	56.09
466.962	51.38
467.163	50.55
467.363	55.85
467.564	57.06
467.764	62.68
467.965	61.19
468.166	57.72
468.366	68.19
468.567	63.02
468.767	65.32
468.968	66.54
469.168	72.72
469.369	74.44
469.569	66.51
469.77	66.35
469.97	68.61
470.17	66.7
470.371	66.81
470.571	61.99
470.772	66.58
470.972	69.82
471.172	74.52
471.373	70.83
471.573	66.01
471.773	69.11
471.974	65.15
472.174	65.84
472.374	62.23
472.575	54.43
472.775	54.87
472.975	40.92
473.175	37.64
473.376	31.12
473.576	36.58
473.776	41.66
473.976	42.9
474.177	43.44
474.377	43.37
474.577	42.16
474.777	43.07
474.977	38.38
475.177	31.18
475.377	34.38
475.577	34.79
475.777	31.84
475.978	26.12
476.178	29.9
476.378	34.82
476.578	37.78
476.778	35.84
476.978	34.91
477.178	40.75
477.378	46.95
477.578	50
477.778	48.15
477.977	46.95
478.177	48.41
478.377	43.13
478.577	43.21
478.777	46.74
478.977	48.89
479.177	44.35
479.377	44.37
479.577	41.53
479.776	45.06
479.976	45.28
480.176	47.14
480.376	39.71
480.576	39.35
480.775	31.96
480.975	35.07
481.175	33.42
481.374	31.61
481.574	30.26
481.774	32.31
481.974	30.43
482.173	29.9
482.373	25.23
482.572	32.43
482.772	32.16
482.972	31.19
483.171	27.59
483.371	37.05
483.57	35.64
483.77	32.97
483.97	30.88
484.169	34.03
484.369	30.24
484.568	35.92
484.768	34.25
484.967	37.17
485.167	33.77
485.366	35.04
485.566	38.7
485.765	37.15
485.964	32.04
486.164	35.39
486.363	33.55
486.563	35.99
486.762	34.65
486.961	35.02
487.161	34.3
487.36	36.03
487.559	32.67
487.759	35.79
487.958	35.82
488.157	32.86
488.356	30.61
488.556	32.37
488.755	31.59
488.954	32.41
489.153	37.75
489.353	36.92
489.552	32.47
489.751	29.19
489.95	33.62
490.149	35.45
490.348	30.48
490.548	35.91
490.747	29.26
490.946	28.25
491.145	27.92
491.344	25.64
491.543	27.82
491.742	24.06
491.941	23.07
492.14	21.62
492.339	19.53
492.538	22.68
492.737	26.8
492.936	27.3
493.135	25.91
493.334	20.74
493.533	21.63
493.732	31.85
493.931	31.61
494.13	26.93
494.328	28.1
494.527	29.81
494.726	25.18
494.925	26.45
495.124	26.85
495.323	27.8
495.521	26.3
495.72	25.73
495.919	25.34
496.118	25.71
496.316	25.58
496.515	25.41
496.714	22.79
496.913	21.35
497.111	19.42
497.31	15.51
497.509	15.88
497.707	19.89
497.906	16.16
498.105	14.19
498.303	13.41
498.502	10.61
498.7	10.18
498.899	9.32
499.097	15.12
499.296	10.16
499.495	9.2
499.693	10.89
499.892	9.81
500.09	11.66
500.289	15.6
500.487	17.66
500.686	19.84
500.884	17.35
501.082	16.96
501.281	17.42
501.479	21.36
501.678	24.08
501.876	21.02
502.074	21.3
502.273	19.04
502.471	24.79
502.669	21.85
502.868	19.4
503.066	23
503.264	25.09
503.463	27.37
503.661	24.43
503.859	25.56
504.057	28.99
504.256	32.87
504.454	31.83
504.652	31.68
504.85	31.5
505.048	33.29
505.246	32.59
505.445	30.35
505.643	31.94
505.841	32
506.039	30.81
506.237	28.89
506.435	30.52
506.633	24.58
506.831	28.65
507.029	28.91
507.227	29.88
507.425	26.82
507.623	28.18
507.821	26.6
508.019	30.13
508.217	26.97
508.415	25.03
508.613	27.46
508.811	28.29
509.009	30.61
509.207	33.11
509.405	31.99
509.603	34.18
509.8	32.46
509.998	32.68
510.196	34.86
510.394	34
510.592	33.27
510.79	38.02
510.987	37.91
511.185	41.41
511.383	40
511.581	41.18
511.778	40.42
511.976	43.86
512.174	40.84
512.371	41.25
512.569	37.2
512.767	35.99
512.964	32.24
513.162	28.02
513.36	24.99
513.557	25.62
513.755	28.23
513.952	30.94
514.15	30.5
514.348	32.53
514.545	35.4
514.743	42.01
514.94	38.81
515.138	36.06
515.335	34.03
515.533	34.11
515.73	30.15
515.927	28.04
516.125	26.63
516.322	31.47
516.52	31.73
516.717	35.69
516.915	33.33
517.112	33.78
517.309	36.11
517.507	38.25
517.704	36.95
517.901	32.53
518.099	30.55
518.296	30.93
518.493	32.29
518.69	33.78
518.888	29.7
519.085	29.71
519.282	31.42
519.479	31.37
519.676	30.88
519.874	34.54
520.071	33.14
520.268	33.74
520.465	33.52
520.662	37.64
520.859	37.75
521.056	38.19
521.254	42.69
521.451	45.05
521.648	41.4
521.845	42.87
522.042	44.14
522.239	44.5
522.436	42.32
522.633	38.74
522.83	38.17
523.027	37.63
523.224	38.68
523.421	38.85
523.618	35.63
523.815	37.54
524.011	35.81
524.208	39.69
524.405	40.95
524.602	36.9
524.799	29.69
524.996	25.85
525.193	25.47
525.389	21.59
525.586	18.35
525.783	20.84
525.98	21.94
526.176	23.38
526.373	22.01
526.57	23.45
526.767	22.71
526.963	21.19
527.16	21.72
527.357	18.85
527.553	21.95
527.75	28.61
527.947	23.44
528.143	24.05
528.34	23.45
528.537	17.84
528.733	23.22
528.93	24.93
529.126	27.75
529.323	26.68
529.519	27.08
529.716	23.72
529.912	23.84
530.109	22.23
530.305	21.06
530.502	22.64
530.698	22.43
530.895	20.11
531.091	20.86
531.288	21.54
531.484	21.52
531.68	17.28
531.877	16.07
532.073	16.77
532.269	18.75
532.466	21.01
532.662	24.11
532.858	20.4
533.055	20
533.251	20.68
533.447	22.35
533.643	26.69
533.84	26.99
534.036	27.72
534.232	28.45
534.428	27.51
534.624	30.81
534.821	30.14
535.017	36.44
535.213	35.21
535.409	34.27
535.605	39.1
535.801	39.58
535.997	39.92
536.193	39.72
536.389	36.86
536.586	33.49
536.782	33.61
536.978	32.78
537.174	32.8
537.37	31.58
537.566	31.05
537.762	24.95
537.958	28.45
538.153	25.98
538.349	24.96
538.545	26.75
538.741	20.33
538.937	19.39
539.133	16.23
539.329	18.16
539.525	17.7
539.721	13.83
539.916	17.4
540.112	12.8
540.308	15.77
540.504	16.71
540.699	20.5
540.895	22.41
541.091	25.94
541.287	29.03
541.482	26.73
541.678	27.9
541.874	29.67
542.069	28.63
542.265	31.48
542.461	33.71
542.656	35.25
542.852	36.31
543.048	35.78
543.243	35.19
543.439	33.97
543.634	32.54
543.83	31.89
544.025	29.39
544.221	33.1
544.417	32.55
544.612	32.67
544.807	32.19
545.003	29.17
545.198	25.43
545.394	24.11
545.589	26.88
545.785	26.2
545.98	25.41
546.176	26.16
546.371	24.76
546.566	23.97
546.762	23.12
546.957	23.85
547.152	24.1
547.348	22.7
547.543	23.99
547.738	23.15
547.933	24.55
548.129	25.47
548.324	23.7
548.519	22.8
548.714	22.95
548.91	21.75
549.105	23.2
549.3	25.56
549.495	26.37
549.69	24.01
549.885	23.38
550.08	28.08
550.276	30.31
550.471	30.84
550.666	31.37
550.861	27.98
551.056	24.75
551.251	28.52
551.446	29.37
551.641	25.85
551.836	27.74
552.031	25.63
552.226	26.11
552.421	25.66
552.616	25.86
552.811	26.47
553.006	24.94
553.201	22.29
553.395	22.32
553.59	21.9
553.785	23.25
553.98	23.24
554.175	18.82
554.37	17.25
554.565	17.32
554.759	15.53
554.954	16.55
555.149	20.14
555.344	18.72
555.538	19.16
555.733	21.66
555.928	26.6
556.122	27.45
556.317	26.5
556.512	25.66
556.706	25.08
556.901	22.13
557.096	21.8
557.29	24.21
557.485	24.67
557.68	21.3
557.874	20.93
558.069	20.93
558.263	22.08
558.458	20.63
558.652	20.55
558.847	22.12
559.041	23.36
559.236	21.03
559.43	20.1
559.625	18.5
559.819	18.19
560.014	13.1
560.208	14.87
560.402	15.65
560.597	18.17
560.791	17.58
560.986	18.75
561.18	20.43
561.374	19.05
561.569	17.65
561.763	20.82
561.957	21.1
562.151	20.75
562.346	23.23
562.54	26.37
562.734	25
562.928	23.9
563.123	24.35
563.317	24.54
563.511	25.66
563.705	24.68
563.899	23.06
564.093	23
564.288	21.26
564.482	21.69
564.676	19.81
564.87	21.78
565.064	23.07
565.258	22.69
565.452	23.3
565.646	25.24
565.84	22.16
566.034	22.77
566.228	25.9
566.422	24.79
566.616	20.02
566.81	20.46
567.004	19.65
567.198	20.69
567.392	19.79
567.586	17.09
567.779	19.53
567.973	20.95
568.167	23.97
568.361	23.42
568.555	23.71
568.749	23.84
568.942	22.66
569.136	23.99
569.33	24.2
569.524	24.17
569.718	23.8
569.911	26.01
570.105	25.27
570.299	23.52
570.492	22.61
570.686	24.66
570.88	24.69
571.073	24.53
571.267	22.65
571.461	24.13
571.654	27.14
571.848	27.36
572.041	27.95
572.235	26
572.429	28.29
572.622	26.44
572.816	26.87
573.009	26.4
573.203	23.74
573.396	24.53
573.59	24.3
573.783	23.54
573.976	20.55
574.17	20.49
574.363	17.8
574.557	17.29
574.75	17.07
574.943	17.27
575.137	18.62
575.33	18.77
575.523	16.83
575.717	14.26
575.91	12.99
576.103	13.05
576.297	13.48
576.49	11.31
576.683	11.15
576.876	11.12
577.07	10.05
577.263	13.66
577.456	12.63
577.649	11.99
577.842	13.4
578.036	15.93
578.229	15.38
578.422	18.01
578.615	18.44
578.808	17.75
579.001	18.2
579.194	18.58
579.387	20.02
579.58	20.08
579.773	19.77
579.966	20.04
580.159	18.4
580.352	18.45
580.545	18.78
580.738	18.99
580.931	17.59
581.124	19.88
581.317	16.08
581.51	15.43
581.703	16.63
581.896	15.15
582.088	14.83
582.281	17.31
582.474	17.33
582.667	17.08
582.86	18.23
583.053	17.6
583.245	17.68
583.438	16.24
583.631	18.8
583.824	19.47
584.016	19.52
584.209	18.11
584.402	19.18
584.594	21.31
584.787	23
584.98	22.86
585.172	23.94
585.365	24.39
585.558	25.48
585.75	25.57
585.943	25.18
586.135	24.58
586.328	23.62
586.52	23.12
586.713	22.48
586.906	22
587.098	22.82
587.291	22.91
587.483	20.9
587.675	19.6
587.868	18.73
588.06	18.45
588.253	21.32
588.445	19.56
588.638	16.7
588.83	15.83
589.022	16.55
589.215	14.37
589.407	16.71
589.599	17.18
589.792	16.35
589.984	17.37
590.176	17.62
590.368	17.92
590.561	18
590.753	20.3
590.945	18.42
591.137	17.79
591.33	15.6
591.522	19.4
591.714	20.78
591.906	24.63
592.098	26.22
592.29	24.63
592.482	26.73
592.674	27.86
592.867	28.15
593.059	26.41
593.251	27.07
593.443	24.75
593.635	21.85
593.827	21.1
594.019	18.91
594.211	18.68
594.403	18.13
594.595	20.04
594.787	18.14
594.979	19.11
595.17	17.8
595.362	18.15
595.554	17.11
595.746	15.17
595.938	13.16
596.13	10.89
596.322	12.09
596.513	9.44
596.705	8.51
596.897	7.46
597.089	9.61
597.281	8.51
597.472	9.66
597.664	10.75
597.856	12.63
598.048	12.84
598.239	12.57
598.431	12.16
598.623	9.8
598.814	9.54
599.006	10.16
599.197	12.01
599.389	12.34
599.581	10.18
599.772	12.67
599.964	11.44
600.155	12.2
600.347	11.02
600.538	12.11
600.73	13.44
600.921	14.64
601.113	12.66
601.304	13.35
601.496	13.76
601.687	14.21
601.879	13.61
602.07	16.55
602.262	17.75
602.453	16.41
602.644	17
602.836	17.21
603.027	18.52
603.218	18.02
603.41	18.17
603.601	19.48
603.792	19.25
603.983	21.06
604.175	22.18
604.366	22.64
604.557	24.83
604.748	23.93
604.94	22.7
605.131	23.26
605.322	22.92
605.513	22.78
605.704	23.41
605.895	22.59
606.086	19.43
606.278	19.59
606.469	21.47
606.66	21.4
606.851	20.5
607.042	18.89
607.233	18.31
607.424	18.65
607.615	19.02
607.806	18.11
607.997	17.15
608.188	16.46
608.379	15.14
608.57	14.1
608.761	15.39
608.952	15.12
609.142	15.65
609.333	16.55
609.524	15.53
609.715	15.54
609.906	15.06
610.097	16.79
610.287	15.8
610.478	15.66
610.669	18.36
610.86	19.33
611.051	19.64
611.241	19.82
611.432	21.21
611.623	20.65
611.813	20.47
612.004	20.08
612.195	20.11
612.385	21.92
612.576	21.66
612.767	21.44
612.957	22.07
613.148	22.83
613.338	20.63
613.529	20.53
613.72	19.48
613.91	19.69
614.101	18.38
614.291	18.94
614.482	18.54
614.672	15.14
614.863	14.77
615.053	14.16
615.243	13.92
615.434	13.35
615.624	13.33
615.815	13.84
616.005	11.98
616.195	11.66
616.386	9.88
616.576	9.18
616.766	8.89
616.957	8.49
617.147	7.03
617.337	7.19
617.528	7.47
617.718	6.9
617.908	7.68
618.098	9.45
618.289	9.73
618.479	8.99
618.669	10.07
618.859	11.09
619.049	11.47
619.239	11.88
619.43	10.89
619.62	11.91
619.81	12.42
620	14.14
620.19	13.82
620.38	13.47
620.57	13.02
620.76	13.28
620.95	13.96
621.14	14.84
621.33	15.51
621.52	16.01
621.71	15.35
621.9	13.96
622.09	13.56
622.28	13.52
622.47	12.47
622.659	11.39
622.849	9.85
623.039	11.68
623.229	9.53
623.419	9.05
623.609	7.63
623.799	6.05
623.988	6.01
624.178	6.37
624.368	5.82
624.558	7.35
624.747	6.88
624.937	6.4
625.127	4.62
625.316	4.97
625.506	5.82
625.696	6.83
625.885	6.72
626.075	6.5
626.265	6.01
626.454	7.46
626.644	9.65
626.833	8.47
627.023	6.67
627.212	7.69
627.402	9.03
627.591	10.03
627.781	10.4
627.97	9.87
628.16	9.7
628.349	9.95
628.539	7.38
628.728	8.45
628.918	9.92
629.107	11.12
629.296	9.79
629.486	7.23
629.675	7.97
629.865	8.28
630.054	9.69
630.243	7.44
630.432	7.74
630.622	6.12
630.811	8.55
631	8.86
631.19	10.57
631.379	9.83
631.568	9.88
631.757	10.63
631.946	10.32
632.136	12.12
632.325	12.72
632.514	15.9
632.703	14.84
632.892	13.96
633.081	13.47
633.27	14.74
633.459	16.53
633.648	16.3
633.837	16.44
634.026	14.8
634.215	17.5
634.404	16.25
634.593	18.58
634.782	20.14
634.971	19.62
635.16	17.17
635.349	16.17
635.538	15.7
635.727	13.32
635.916	13.86
636.105	13.29
636.294	15.26
636.482	14.85
636.671	13.99
636.86	14.79
637.049	15.72
637.238	15.21
637.426	16.11
637.615	14.95
637.804	15.49
637.993	15.06
638.181	15.05
638.37	16.24
638.559	14.98
638.747	13.12
638.936	14.2
639.125	15.94
639.313	16.8
639.502	16.83
639.691	16.99
639.879	17.2
640.068	17.3
640.256	15.71
640.445	15.05
640.633	16.5
640.822	15.12
641.01	15.9
641.199	16.26
641.387	16.18
641.576	18.12
641.764	19.15
641.953	20.01
642.141	19.14
642.329	20.49
642.518	19.38
642.706	19.2
642.894	19.14
643.083	19.2
643.271	18.97
643.459	19.29
643.648	20.28
643.836	18.97
644.024	18.19
644.213	18.47
644.401	17.81
644.589	16.47
644.777	17.2
644.965	16.98
645.154	16.16
645.342	16
645.53	14.69
645.718	14.01
645.906	14.64
646.094	15.18
646.282	12.91
646.47	14.77
646.658	14.38
646.846	13.03
647.034	13.79
647.223	14.61
647.411	13.41
647.599	13.07
647.786	14.93
647.974	15.19
648.162	14.74
648.35	14.04
648.538	14.84
648.726	14.02
648.914	14.66
649.102	16.41
649.29	15.78
649.478	16.39
649.665	16.48
649.853	16.14
650.041	15.75
650.229	16.87
650.417	16.38
650.604	17.37
650.792	19.39
650.98	19.11
651.168	16.57
651.355	16.72
651.543	16.69
651.731	15.63
651.918	14.74
652.106	15.35
652.294	16.12
652.481	16.45
652.669	16.27
652.856	14.76
653.044	13.93
653.231	12.89
653.419	10.54
653.606	10.32
653.794	10.21
653.981	11.43
654.169	10.63
654.356	9.98
654.544	10.03
654.731	9.15
654.919	7.84
655.106	8.76
655.294	9.04
655.481	10.72
655.668	12.11
655.856	11.66
656.043	11.72
656.23	12.08
656.418	11.57
656.605	12.18
656.792	12.96
656.979	11.84
657.167	13.43
657.354	16.44
657.541	16.55
657.728	16.28
657.916	15.18
658.103	14.56
658.29	15.19
658.477	15.48
658.664	14.84
658.851	15.61
659.038	17.2
659.225	17.69
659.412	17.95
659.6	15.88
659.787	16.56
659.974	16.88
660.161	16.93
660.348	16.76
660.535	17.76
660.722	16.94
660.909	17.72
661.095	17.58
661.282	16.79
661.469	16.86
661.656	17.13
661.843	18.07
662.03	18.18
662.217	18.34
662.404	18.11
662.59	18.48
662.777	16.8
662.964	17.6
663.151	16.74
663.338	17.43
663.524	18.83
663.711	16.91
663.898	15.97
664.085	16.02
664.271	14.91
664.458	13.98
664.645	13.27
664.831	14.71
665.018	13.62
665.204	13.76
665.391	13.49
665.578	11.84
665.764	10.42
665.951	11.4
666.137	10.95
666.324	10.93
666.51	8.92
666.697	10.45
666.883	8.08
667.07	8.08
667.256	6.01
667.443	5.34
667.629	7.18
667.816	7.1
668.002	5.81
668.188	7.38
668.375	6.2
668.561	6.54
668.747	4.03
668.934	4.56
669.12	4.51
669.306	4.15
669.493	5.63
669.679	5.76
669.865	6.19
670.051	4.94
670.238	4.76
670.424	5.96
670.61	5.51
670.796	6.23
670.982	5.56
671.169	5.74
671.355	6.03
671.541	5.86
671.727	6.33
671.913	7.6
672.099	7.4
672.285	7.32
672.471	8.25
672.657	9.4
672.843	10.12
673.029	9.8
673.215	10.73
673.401	13.14
673.587	11.76
673.773	11
673.959	11.23
674.145	10.97
674.331	11.32
674.517	11.91
674.703	11.63
674.888	14.07
675.074	12.5
675.26	13.56
675.446	13.91
675.632	12.84
675.817	12.77
676.003	12.1
676.189	12.13
676.375	10.88
676.56	9.97
676.746	8.18
676.932	6.48
677.117	5.87
677.303	2.69
677.489	3.87
677.674	2.87
677.86	2.77
678.046	3.55
678.231	3.39
678.417	4
678.602	4.44
678.788	2.93
678.973	4.42
679.159	4.06
679.344	3.56
679.53	4.07
679.715	3.48
679.901	4.18
680.086	4.11
680.272	3.82
680.457	4.68
680.643	5.07
680.828	6.49
681.013	6.38
681.199	7.3
681.384	8.37
681.569	8.57
681.755	8.84
681.94	8.21
682.125	8.28
682.31	8.01
682.496	8.21
682.681	8.74
682.866	7.94
683.051	7.94
683.237	7.5
683.422	7.12
683.607	6.67
683.792	6.82
683.977	7.13
684.162	6.93
684.347	7.65
684.532	7.78
684.717	7.48
684.903	7.35
685.088	7.14
685.273	6.65
685.458	6.57
685.643	6.63
685.828	5.96
686.013	7.62
686.198	6.6
686.382	7.34
686.567	7.47
686.752	8.23
686.937	6.83
687.122	8.44
687.307	10.42
687.492	11.22
687.677	9.19
687.861	9.93
688.046	10.29
688.231	10.77
688.416	11.03
688.601	11.1
688.785	10.96
688.97	10.8
689.155	11.51
689.339	11.24
689.524	10.9
689.709	10.65
689.893	9.15
690.078	10.5
690.263	9.41
690.447	8.59
690.632	8.27
690.816	10.77
691.001	10.38
691.186	9.23
691.37	8.94
691.555	9.58
691.739	9.36
691.924	10.35
692.108	9.52
692.293	9.4
692.477	9.58
692.661	10.09
692.846	9.48
693.03	8.89
693.215	8.98
693.399	8.83
693.583	8.57
693.768	8.52
693.952	7.55
694.136	7.61
694.321	8.77
694.505	9.75
694.689	7.84
694.873	8.43
695.058	8.53
695.242	8.81
695.426	9.62
695.61	8.85
695.794	8.54
695.979	7.86
696.163	7.24
696.347	6.9
696.531	6.01
696.715	7.19
696.899	7.07
697.083	6.83
697.267	8.12
697.451	8.48
697.635	8.79
697.819	8.46
698.003	9.14
698.187	9.05
698.371	9.45
698.555	9.61
698.739	10.7
698.923	10.81
699.107	10.99
699.291	11.2
699.475	11.56
699.659	12.24
699.842	12.42
700.026	13.41
700.21	13.27
700.394	13.22
700.578	13.35
700.761	12.77
700.945	14.8
701.129	14.71
701.313	15.49
701.496	15.96
701.68	16.24
701.864	15.44
702.047	15.96
702.231	18.29
702.415	18.07
702.598	15.76
702.782	16.19
702.965	16.42
703.149	16.66
703.333	16.27
703.516	15.8
703.7	15.59
703.883	14.98
704.067	15.86
704.25	15.48
704.434	14.24
704.617	15.24
704.801	14.26
704.984	13.58
705.167	13.36
705.351	13.37
705.534	13.77
705.718	15.52
705.901	14.36
706.084	11.21
706.268	12.18
706.451	12.8
706.634	11.67
706.817	10.84
707.001	9.88
707.184	10.88
707.367	9.42
707.55	10.62
707.734	11.39
707.917	10.17
708.1	11.46
708.283	11.98
708.466	10.23
708.649	8.8
708.832	8.69
709.015	9.81
709.199	9.79
709.382	9.7
709.565	8.21
709.748	9.13
709.931	8.29
710.114	7.31
710.297	8.06
710.48	8.18
710.663	9.17
710.846	9.61
711.028	9.01
711.211	9.23
711.394	8.03
711.577	8.17
711.76	6.87
711.943	6.82
712.126	7.4
712.309	10.8
712.491	12.69
712.674	11.49
712.857	11.31
713.04	10.46
713.222	10.42
713.405	9.35
713.588	8.3
713.771	9.23
713.953	9.14
714.136	7.88
714.319	9.16
714.501	7.2
714.684	7.13
714.866	7.22
715.049	7.45
715.232	7.88
715.414	6.71
715.597	8.73
715.779	9.46
715.962	10.5
716.144	7.15
716.327	7.94
716.509	9.28
716.692	6.32
716.874	6.45
717.057	7.76
717.239	9.12
717.421	9.44
717.604	8.13
717.786	8.53
717.968	7.66
718.151	6.86
718.333	7.49
718.515	7.48
718.698	7.72
718.88	9.45
719.062	8.22
719.244	9.1
719.427	7.93
719.609	7.44
719.791	4.97
719.973	6.61
720.155	4.69
720.338	5.72
720.52	8.62
720.702	9.44
720.884	8.87
721.066	9.22
721.248	6.22
721.43	7.71
721.612	8.03
721.794	10.78
721.976	11.74
722.158	12.87
722.34	13.07
722.522	13.38
722.704	12.71
722.886	13.66
723.068	13.74
723.25	16.28
723.432	15.55
723.614	16.25
723.796	15.37
723.977	15.97
724.159	15.73
724.341	13.99
724.523	12.39
724.705	10.75
724.886	9.84
725.068	13.42
725.25	13.62
725.432	13.01
725.613	11.83
725.795	11.11
725.977	10.54
726.158	10.47
726.34	9.6
726.522	10.68
726.703	11.45
726.885	11.46
727.066	9.09
727.248	10.22
727.43	10.76
727.611	12.77
727.793	12.64
727.974	12.51
728.156	11.87
728.337	11.84
728.519	12.29
728.7	11.85
728.882	11.03
729.063	9.9
729.244	9.76
729.426	10.35
729.607	10.35
729.788	10.18
729.97	10.64
730.151	10.3
730.332	8.32
730.514	8.8
730.695	8.71
730.876	9.85
731.058	8.55
731.239	7.97
731.42	7.3
731.601	5.75
731.782	5.36
731.964	6.29
732.145	7.07
732.326	5.69
732.507	6.03
732.688	7.66
732.869	9.17
733.05	8.85
733.231	8.84
733.412	6.97
733.593	7.83
733.774	7.92
733.955	8.45
734.136	8.58
734.317	6.4
734.498	6.03
734.679	5.49
734.86	5.29
735.041	6.46
735.222	5.66
735.403	7.19
735.584	7.66
735.765	8.36
735.946	8.06
736.126	8.08
736.307	8.22
736.488	4.88
736.669	2.45
736.849	3.3
737.03	3.59
737.211	5.18
737.392	4.62
737.572	1.92
737.753	2.52
737.934	3.91
738.114	7.01
738.295	6.77
738.476	7.86
738.656	8.63
738.837	6.97
739.017	7.49
739.198	8.22
739.378	8.72
739.559	8.28
739.74	8.48
739.92	8.98
740.1	8.57
740.281	8.92
740.461	10.04
740.642	10.36
740.822	7.65
741.003	7.25
741.183	5.68
741.363	8.9
741.544	8.3
741.724	6.97
741.904	4.63
742.085	4.97
742.265	3.44
742.445	3.42
742.626	4.48
742.806	5.09
742.986	3.72
743.166	3.69
743.347	2.2
743.527	2.59
743.707	2.56
743.887	2.96
744.067	4.12
744.247	3.48
744.427	4
744.608	4.92
744.788	6.88
744.968	9.58
745.148	7.49
745.328	6.71
745.508	6.56
745.688	6.41
745.868	6.03
746.048	6.06
746.228	6.91
746.408	7.52
746.588	6.07
746.767	8.69
746.947	7.9
747.127	10.28
747.307	9.87
747.487	10.67
747.667	11.24
747.847	12.53
748.026	13.62
748.206	12.27
748.386	13.55
748.566	13.08
748.745	13.14
748.925	14.52
749.105	15.76
749.285	14.88
749.464	14.18
749.644	14.17
749.824	15.4
750.003	13.05
750.183	11.02
750.362	12.07
750.542	9.74
750.722	9.27
750.901	7.84
751.081	8.01
751.26	7.94
751.44	7.91
751.619	7.54
751.799	5.65
751.978	4.44
752.158	4.05
752.337	2.17
752.516	0.62
752.696	0.46
752.875	1.21
753.055	2.31
753.234	4.02
753.413	4.63
753.593	4.23
753.772	5.03
753.951	6.96
754.13	7.08
754.31	6.67
754.489	5.58
754.668	6.55
754.847	6.58
755.027	7.43
755.206	6.65
755.385	5.01
755.564	7.16
755.743	8.47
755.922	7.78
756.101	9.02
756.28	9.96
756.46	9.84
756.639	8.25
756.818	8.4
756.997	8.18
757.176	7.82
757.355	7.5
757.534	6.76
757.713	6.27
757.892	5.73
758.07	6.28
758.249	7.52
758.428	6.82
758.607	5.7
758.786	6.54
758.965	6.5
759.144	7.26
759.323	5.9
759.501	6.11
759.68	6.96
759.859	8.38
760.038	7.68
760.216	6.15
760.395	6.37
760.574	6.81
760.753	8.17
760.931	8.77
761.11	9.11
761.289	9.46
761.467	9.82
761.646	9.11
761.824	8.31
762.003	7.39
762.182	6.59
762.36	8.37
762.539	7.63
762.717	7.87
762.896	7.71
763.074	8.25
763.253	8.44
763.431	9.09
763.61	8.34
763.788	9.43
763.966	10.97
764.145	11.67
764.323	11.61
764.502	9.49
764.68	9.13
764.858	8.35
765.037	9.92
765.215	9.75
765.393	9.99
765.571	11.75
765.75	13.03
765.928	12.42
766.106	11.3
766.284	10.59
766.463	10.66
766.641	10.77
766.819	11.63
766.997	11.31
767.175	11.54
767.353	11.5
767.531	10.91
767.71	9.6
767.888	9.33
768.066	8.06
768.244	8.64
768.422	9.58
768.6	11.42
768.778	9.74
768.956	9.38
769.134	9.1
769.312	8.75
769.489	7.3
769.667	9.68
769.845	11.38
770.023	12.02
770.201	11.87
770.379	11.32
770.557	10.33
770.735	10.64
770.912	9.68
771.09	7.06
771.268	7.18
771.446	7.22
771.623	8.14
771.801	9.57
771.979	10.08
772.157	8.71
772.334	7.29
772.512	7.87
772.69	7.59
772.867	7.82
773.045	7.26
773.222	7.13
773.4	7.06
773.577	6.47
773.755	5.75
773.933	7.05
774.11	8.24
774.288	8.37
774.465	8.55
774.643	9.46
774.82	11.34
774.997	10.81
775.175	10.16
775.352	10.54
775.53	11.85
775.707	12.54
775.884	13.49
776.062	13.18
776.239	14.85
776.416	16.44
776.594	16.83
776.771	16.56
776.948	17.12
777.125	17.5
777.303	17.34
777.48	17.96
777.657	16.76
777.834	17.36
778.012	17.86
778.189	18.14
778.366	15.45
778.543	13.6
778.72	14.21
778.897	18.65
779.074	18.51
779.251	17.36
779.428	15.7
779.605	14.4
779.782	15.32
779.959	14.44
780.136	10.94
780.313	12.57
780.49	12.23
780.667	14.72
780.844	13.88
781.021	13.75
781.198	13.42
781.375	13.05
781.552	12.86
781.728	11.49
781.905	11.44
782.082	12.53
782.259	13.6
782.436	12.39
782.612	9.51
782.789	7.52
782.966	5.92
783.143	6.97
783.319	8.47
783.496	9.06
783.673	7.85
783.849	10.37
784.026	8.95
784.203	9.35
784.379	6.76
784.556	8.73
784.732	8.2
784.909	8.17
785.085	9.03
785.262	7.98
785.438	11.75
785.615	11.78
785.791	12.79
785.968	13.68
786.144	15.03
786.321	18.2
786.497	19.64
786.673	19.98
786.85	18.51
787.026	17.4
787.203	16.01
787.379	15.05
787.555	14.92
787.731	14.13
787.908	13.98
788.084	14.34
788.26	10.74
788.437	12.8
788.613	11.5
788.789	11.55
788.965	13.15
789.141	9.06
789.317	6.34
789.494	5.07
789.67	6.28
789.846	8.56
790.022	7.23
790.198	7.06
790.374	7.1
790.55	7.79
790.726	8.2
790.902	11.7
791.078	15.14
791.254	12.79
791.43	14.81
791.606	13.01
791.782	14.34
791.958	13.57
792.134	12.77
792.31	13.45
792.486	12.53
792.661	10.62
792.837	13.11
793.013	15.27
793.189	14.39
793.365	12.38
793.54	10.6
793.716	8.41
793.892	9.32
794.068	9.22
794.243	11.04
794.419	10.36
794.595	6.9
794.77	7.2
794.946	9.92
795.122	8.66
795.297	10.53
795.473	11.54
795.648	15.73
795.824	13.44
796	14.33
796.175	14.63
796.351	15.75
796.526	15.15
796.702	15.47
796.877	16.71
797.052	17.03
797.228	16.22
797.403	15.82
797.579	17.4
797.754	18.69
797.929	19.74
798.105	22.36
798.28	23.1
798.455	24.1
798.631	22.8
798.806	24.08
798.981	24.22
799.157	23.93
799.332	22.89
799.507	25.03
799.682	26.5
799.858	28.75
800.033	29.73
800.208	29.47
800.383	31.45
800.558	33.09
800.733	33.09
800.908	32.84
801.083	34.27
801.258	32.49
801.434	34.68
801.609	31.84
801.784	31.27
801.959	30.83
802.134	27.25
802.309	27.54
802.484	25.8
802.658	24.01
802.833	21.49
803.008	21.34
803.183	19.82
803.358	19.74
803.533	20.05
803.708	18.81
803.883	17.2
804.057	12.27
804.232	12.72
804.407	14.29
804.582	15.21
804.756	13.07
804.931	12.73
805.106	8.68
805.281	10.43
805.455	7.96
805.63	9.3
805.805	11.85
805.979	13.42
806.154	14.38
806.328	17.16
806.503	19.34
806.678	19.08
806.852	20.8
807.027	19.07
807.201	13.36
807.376	12.66
807.55	15.06
807.725	15.32
807.899	15.91
808.074	18.75
808.248	19.07
808.422	20.07
808.597	18.88
808.771	21.03
808.946	21.15
809.12	23.93
809.294	24.05
809.468	22.77
809.643	24.28
809.817	27.01
809.991	26.72
810.166	25.13
810.34	21.58
810.514	19.96
810.688	22.09
810.862	25.62
811.037	26.35
811.211	25.78
811.385	28.37
811.559	27.61
811.733	26.89
811.907	24.33
812.081	22.24
812.255	20.88
812.429	19.19
812.603	18.43
812.777	18.24
812.951	15.22
813.125	13.66
813.299	11.17
813.473	5.49
813.647	6.21
813.821	5.92
813.995	12.23
814.169	11.1
814.343	11.4
814.516	12.52
814.69	13.88
814.864	12.25
815.038	12.34
815.212	12.72
815.385	12.2
815.559	13.85
815.733	15.26
815.907	18.86
816.08	20.75
816.254	20.54
816.428	17.38
816.601	19.65
816.775	23.09
816.948	21.48
817.122	25.85
817.296	28.03
817.469	29.61
817.643	28.43
817.816	29.84
817.99	25.42
818.163	24.5
818.337	22.93
818.51	24.07
818.684	26.74
818.857	26.11
819.031	21.31
819.204	21.37
819.377	21.27
819.551	19.96
819.724	21.33
819.897	23.66
820.071	25.53
820.244	24.77
820.417	22.72
820.591	24.37
820.764	23.99
820.937	23.26
821.11	21.12
821.284	22.9
821.457	26.88
821.63	27.32
821.803	26.84
821.976	27.35
822.149	28.64
822.322	27.11
822.496	26.85
822.669	31.27
822.842	29.75
823.015	31.06
823.188	30.07
823.361	28.29
823.534	24.56
823.707	23.44
823.88	24.1
824.053	23.24
824.226	23.71
824.399	20.19
824.571	19.8
824.744	20.2
824.917	17.17
825.09	11.08
825.263	14.46
825.436	17.8
825.608	18.13
825.781	17.61
825.954	16.11
826.127	14.17
826.299	12.24
826.472	15.64
826.645	19.09
826.818	21.51
826.99	23.21
827.163	25.99
827.336	28.24
827.508	29.27
827.681	32.27
827.853	30.44
828.026	34.92
828.198	35.03
828.371	35.82
828.544	34.58
828.716	37.6
828.889	32.31
829.061	28.65
829.233	28.09
829.406	27.18
829.578	24.94
829.751	25.69
829.923	26.56
830.096	23.48
830.268	19.48
830.44	18.03
830.613	14.74
830.785	13.17
830.957	9.57
831.129	11.36
831.302	8.16
831.474	7.16
831.646	7.41
831.818	6.24
831.991	4.93
832.163	7.52
832.335	6.67
832.507	11.04
832.679	9.94
832.851	9.53
833.023	9.13
833.195	10.95
833.368	10.92
833.54	10.56
833.712	9.51
833.884	11.39
834.056	11.71
834.228	14.25
834.4	17.44
834.571	19.68
834.743	16.04
834.915	15.71
835.087	18.74
835.259	16.75
835.431	15.84
835.603	16.37
835.775	15.49
835.946	15.5
836.118	14.11
836.29	15.13
836.462	11.83
836.634	14.23
836.805	12.79
836.977	11.87
837.149	13.25
837.32	17.37
837.492	20.18
837.664	21.44
837.835	19.78
838.007	15.61
838.179	18.16
838.35	23.71
838.522	28.84
838.693	30.02
838.865	28.54
839.036	27.99
839.208	30.35
839.379	28.34
839.551	27.52
839.722	30.56
839.894	29.88
840.065	32.27
840.237	32.94
840.408	34.47
840.579	36
840.751	32.06
840.922	31.41
841.093	27.44
841.265	25.64
841.436	28.86
841.607	31.24
841.778	27.23
841.95	25.85
842.121	26.16
842.292	26.58
842.463	27.79
842.635	32.04
842.806	33.44
842.977	34.91
843.148	36.58
843.319	32.24
843.49	34.03
843.661	33.39
843.832	33.7
844.003	34.97
844.174	37.2
844.345	42.46
844.516	38.79
844.687	39.49
844.858	43.22
845.029	39.56
845.2	35.53
845.371	37.17
845.542	33.2
845.713	26.63
845.884	25.01
846.055	25.37
846.225	24.45
846.396	18.11
846.567	19.71
846.738	20.16
846.909	25.77
847.079	26.03
847.25	27.62
847.421	24.08
847.591	20.27
847.762	20.09
847.933	14.61
848.103	23.53
848.274	23.16
848.445	23.14
848.615	20.47
848.786	28.12
848.956	33.83
849.127	37.55
849.297	44.33
849.468	46.13
849.638	44.35
849.809	39.27
849.979	39.35
850.15	45.46
850.32	45.03
850.491	44.07
850.661	52.67
850.831	48.7
851.002	50.94
851.172	49.27
851.342	47.54
851.513	49.72
851.683	40.39
851.853	42.06
852.024	40.42
852.194	44.37
852.364	40.58
852.534	36.02
852.705	35.9
852.875	31.19
853.045	28.4
853.215	29
853.385	31.58
853.555	35.14
853.725	28.79
853.895	26.36
854.066	25.58
854.236	19.55
854.406	21.23
854.576	17.5
854.746	19.18
854.916	20.32
855.086	12.49
855.256	20.24
855.425	21.62
855.595	23.02
855.765	18.04
855.935	12.02
856.105	17.07
856.275	16.36
856.445	16.26
856.614	14
856.784	19.14
856.954	19.92
857.124	15.11
857.294	19.47
857.463	22.23
857.633	24.82
857.803	24.5
857.972	25.32
858.142	28.13
858.312	39.36
858.481	42.64
858.651	45.36
858.821	44.22
858.99	41.97
859.16	35.51
859.329	42.41
859.499	50.33
859.668	52.53
859.838	50.82
860.007	53.81
860.177	55.52
860.346	52.3
860.516	54
860.685	56.48
860.854	50.92
861.024	49.28
861.193	51.06
861.363	49.89
861.532	52.51
861.701	53.4
861.87	46.8
862.04	48.42
862.209	52.73
862.378	56.46
862.547	58.58
862.717	60.2
862.886	56.53
863.055	59.61
863.224	56.84
863.393	56.4
863.563	53.29
863.732	54.86
863.901	54.19
864.07	51.93
864.239	52.88
864.408	52.19
864.577	50.2
864.746	44.43
864.915	41.31
865.084	42.08
865.253	39.14
865.422	39.56
865.591	39.18
865.76	35.16
865.929	32.36
866.097	33.83
866.266	28.05
866.435	30.05
866.604	24.47
866.773	27.76
866.942	27.79
867.11	36.95
867.279	35.3
867.448	39
867.617	47.52
867.785	48.54
867.954	46.52
868.123	55.33
868.291	53.29
868.46	62.85
868.629	60.63
868.797	64.17
868.966	67.15
869.134	50.11
869.303	50.76
869.472	45.01
869.64	41.22
869.809	51.26
869.977	48.97
870.146	50.3
870.314	49.21
870.482	51.59
870.651	40.28
870.819	42.17
870.988	38.89
871.156	26.83
871.324	21.5
871.493	21.5
871.661	24.79
871.829	37.03
871.998	36.04
872.166	33.91
872.334	29.43
872.502	38.69
872.671	50.42
872.839	54.82
873.007	52.19
873.175	53.01
873.343	56.69
873.512	58.81
873.68	58.32
873.848	59.68
874.016	51.61
874.184	57.82
874.352	49.96
874.52	53.66
874.688	58.39
874.856	60.1
875.024	61.57
875.192	62.92
875.36	56.19
875.528	47.18
875.696	48.47
875.864	55.78
876.032	48.76
876.199	45.66
876.367	42.99
876.535	52.05
876.703	44.33
876.871	36.48
877.039	30.32
877.206	34.83
877.374	28.78
877.542	35.47
877.71	40.41
877.877	49.99
878.045	53.69
878.213	58.11
878.38	57.96
878.548	69.1
878.715	64.59
878.883	67.58
879.051	79.96
879.218	72.21
879.386	57.18
879.553	61.78
879.721	69.34
879.888	70.42
880.056	82.72
880.223	89.22
880.391	102.14
880.558	105.9
880.726	96.26
880.893	106.44
881.06	96.33
881.228	91.37
881.395	84.26
881.562	62.52
881.73	57.9
881.897	57.92
882.064	38.25
882.231	34.96
882.399	51.52
882.566	36.85
882.733	48.52
882.9	75.12
883.068	85.51
883.235	66.93
883.402	69.44
883.569	59.24
883.736	75.74
883.903	74.3
884.07	76.38
884.237	79.56
884.404	79.48
884.571	95.03
884.738	93.88
884.905	95.55
885.072	127.11
885.239	119.77
885.406	120.02
