Data from Transmission_09-18-57-674.txt Node
Date: Fri Aug 24 09:18:57 EEST 2018
User: tibor.sos
Spectrometer: USB4F01757
Scans to average: 10
Trigger mode: 4
Integration Time (sec): 1.000000E-2
Electric dark correction enabled: true
Boxcar width: 10
XAxis mode: Wavelengths
Number of Pixels in Spectrum: 3648
>>>>>Begin Spectral Data<<<<<
178.758	47.38
178.974	89.31
179.191	139.01
179.407	109.64
179.624	19.9
179.84	12.96
180.057	2.14
180.273	28.34
180.489	44.63
180.706	-23.3
180.922	-9.67
181.138	-9.82
181.355	37.54
181.571	46.63
181.787	47.24
182.004	70.66
182.22	44.43
182.436	-8.64
182.653	3.18
182.869	-0.79
183.085	43.08
183.301	58.3
183.518	38.27
183.734	36.86
183.95	30.44
184.166	97.17
184.383	107.13
184.599	105.09
184.815	88.64
185.031	64.63
185.247	86.78
185.463	96.54
185.68	128.43
185.896	135.78
186.112	167.3
186.328	149.79
186.544	143.81
186.76	151.76
186.976	149.07
187.192	161.79
187.408	208.42
187.624	214.82
187.84	155.7
188.056	147.97
188.272	134.67
188.488	143.26
188.704	107.71
188.92	94.01
189.136	89.05
189.352	112.36
189.568	151.6
189.784	176.76
190	169.37
190.216	154.74
190.432	151.62
190.648	173.94
190.864	366.55
191.08	289.81
191.296	142
191.511	150.68
191.727	221.9
191.943	224.74
192.159	127.27
192.375	161.27
192.591	228.58
192.806	352.02
193.022	224.06
193.238	448.02
193.454	389.12
193.669	602.5
193.885	522.39
194.101	747.18
194.317	413.2
194.532	2196.63
194.748	-1713.45
194.964	762.32
195.18	353.7
195.395	316.33
195.611	314.57
195.827	623.77
196.042	1058.23
196.258	521.16
196.473	349.34
196.689	541.29
196.905	636
197.12	2086.14
197.336	781.14
197.551	-805.88
197.767	268300
197.982	747.46
198.198	4310.96
198.414	3333.71
198.629	619.63
198.845	414.48
199.06	487.87
199.276	327.86
199.491	1000.54
199.707	241.53
199.922	172.29
200.137	146.54
200.353	109.67
200.568	102.67
200.784	93.49
200.999	82.32
201.215	21.92
201.43	16.77
201.645	31.08
201.861	37.61
202.076	47.66
202.291	78.96
202.507	72.94
202.722	37.59
202.937	83.11
203.153	86.67
203.368	66.93
203.583	63.12
203.798	83.89
204.014	102.71
204.229	136.72
204.444	140.9
204.659	339.57
204.875	626.48
205.09	-1340.34
205.305	3416.98
205.52	-1605.69
205.735	-1695.21
205.951	11260
206.166	-643.8
206.381	-445.76
206.596	-3634.55
206.811	-542.11
207.026	-327.31
207.241	-100
207.457	408.41
207.672	1142.98
207.887	-1636.45
208.102	-239.46
208.317	-230.21
208.532	444.63
208.747	-167.76
208.962	-58.3
209.177	-169.8
209.392	-184.74
209.607	3.6
209.822	7.88
210.037	15.19
210.252	-72.81
210.467	-156.69
210.682	-20.49
210.897	-42.51
211.112	-62.8
211.326	-3.11
211.541	9.31
211.756	6.64
211.971	-24.12
212.186	17.94
212.401	-29.22
212.616	-5.83
212.831	8.09
213.045	21.1
213.26	28.01
213.475	68.63
213.69	84.86
213.905	168.26
214.119	243.89
214.334	329.63
214.549	-150.2
214.764	581.87
214.978	459.73
215.193	521.34
215.408	-4325.64
215.622	704.53
215.837	3500
216.052	-1750.57
216.266	-311.65
216.481	-278.13
216.696	-191.65
216.91	7196.97
217.125	595.44
217.34	954.92
217.554	1032.97
217.769	-411.83
217.983	-143.24
218.198	-435.35
218.412	-709.65
218.627	713.36
218.842	459.6
219.056	296.79
219.271	261.07
219.485	397.6
219.7	371.32
219.914	275.22
220.129	480.39
220.343	314.02
220.558	245.53
220.772	343.7
220.986	348.11
221.201	488.78
221.415	-457.18
221.63	-182.22
221.844	-138.62
222.058	-145.33
222.273	-153.1
222.487	-118.02
222.702	-143.14
222.916	-146.3
223.13	-37.57
223.344	-46.01
223.559	-36.29
223.773	-28.42
223.987	-73.72
224.202	-100.3
224.416	-46.7
224.63	-75.65
224.844	-104.43
225.059	-118.06
225.273	-1849.49
225.487	1234.4
225.701	203.79
225.915	116.84
226.13	136.42
226.344	158.98
226.558	167.73
226.772	124.25
226.986	143.75
227.2	138.6
227.415	136.64
227.629	158.75
227.843	156.74
228.057	106.96
228.271	83.63
228.485	82.3
228.699	82.54
228.913	115.06
229.127	80.49
229.341	78.99
229.555	114.43
229.769	175.14
229.983	145.14
230.197	190.66
230.411	316.36
230.625	326.41
230.839	235.04
231.053	273.47
231.267	788.89
231.481	373.24
231.695	259.16
231.909	109.64
232.122	82.59
232.336	103.66
232.55	223.06
232.764	222.6
232.978	250.09
233.192	294.65
233.405	410.64
233.619	305.87
233.833	197.42
234.047	167.18
234.261	123.34
234.474	132.36
234.688	-111.16
234.902	25.71
235.116	53.09
235.329	58.66
235.543	41.24
235.757	83.49
235.97	64.66
236.184	68.98
236.398	60.66
236.612	96.84
236.825	112.75
237.039	204.12
237.252	176.02
237.466	528.57
237.68	1500
237.893	-110500
238.107	-201.19
238.32	922.61
238.534	-76.02
238.748	-0.88
238.961	2
239.175	-79.3
239.388	-148.55
239.602	-457.77
239.815	-261.89
240.029	-354.55
240.242	-256.75
240.456	-102.74
240.669	-108.19
240.882	-105.88
241.096	-189.35
241.309	-152.79
241.523	-211.15
241.736	-157.67
241.95	789.39
242.163	-966.17
242.376	-281.02
242.59	-1447.2
242.803	11046.67
243.016	648.04
243.23	1836.13
243.443	11713.33
243.656	-1275.94
243.87	-152.53
244.083	-22.76
244.296	8.73
244.509	11.48
244.723	18.4
244.936	5.84
245.149	-8.51
245.362	-8.39
245.576	15.47
245.789	0.69
246.002	7.43
246.215	-17.11
246.428	23.48
246.641	40.6
246.855	67.47
247.068	67.28
247.281	37.44
247.494	43.99
247.707	44.2
247.92	29.43
248.133	17.01
248.346	7.41
248.559	4.39
248.772	-21.71
248.985	-16.22
249.198	1.64
249.411	-21.34
249.624	-18.08
249.837	-11.69
250.05	-18.27
250.263	-1.57
250.476	-16.25
250.689	0.29
250.902	-24.66
251.115	-41.6
251.328	-33.46
251.541	-21.35
251.754	-17.98
251.967	-13.57
252.18	-5.28
252.393	-5.49
252.605	-1.52
252.818	-4.19
253.031	-7.05
253.244	-1.24
253.457	-9.78
253.67	-15.31
253.882	-7.44
254.095	4.52
254.308	5.88
254.521	3.13
254.733	9.55
254.946	12.91
255.159	5.27
255.372	9.4
255.584	17.55
255.797	16.65
256.01	8.3
256.222	17.4
256.435	12.4
256.648	16.38
256.86	18.45
257.073	18.19
257.285	25.64
257.498	33.09
257.711	38.43
257.923	39.84
258.136	47.84
258.348	44.02
258.561	38.98
258.773	25.66
258.986	28.44
259.198	16.45
259.411	5.94
259.623	26.82
259.836	34.87
260.048	41.18
260.261	41.36
260.473	33.95
260.686	35.9
260.898	36.85
261.111	20.79
261.323	26.55
261.535	25.83
261.748	21.64
261.96	20.78
262.173	17.99
262.385	20.8
262.597	20.35
262.81	23.44
263.022	25.43
263.234	29.75
263.447	35.63
263.659	36.62
263.871	42.84
264.083	36.2
264.296	30.68
264.508	31.15
264.72	27.96
264.932	33.26
265.145	23.22
265.357	15.71
265.569	13.03
265.781	9.83
265.993	1.17
266.205	-2.15
266.418	-3.68
266.63	-19.79
266.842	-12.1
267.054	-16.19
267.266	-23.51
267.478	-22.22
267.69	-14.22
267.902	-35.18
268.114	-51.22
268.326	-63.32
268.538	-60.36
268.75	-36.85
268.962	-56.86
269.174	-45.22
269.386	-32.14
269.598	-4.49
269.81	0.63
270.022	2.58
270.234	4.31
270.446	16.59
270.658	16.87
270.87	17.9
271.082	21.38
271.294	20.53
271.506	18.64
271.718	21.26
271.929	19.41
272.141	21.08
272.353	25.71
272.565	28.59
272.777	30.86
272.989	35.16
273.2	37.14
273.412	36.87
273.624	36.96
273.836	36.96
274.047	36.26
274.259	43.53
274.471	41.96
274.683	38.15
274.894	35.26
275.106	39.5
275.318	43.16
275.529	43.23
275.741	44.69
275.953	49.85
276.164	57.99
276.376	55.94
276.588	55.46
276.799	60.61
277.011	65.14
277.222	71.44
277.434	63.52
277.646	54.77
277.857	56.24
278.069	62.26
278.28	54.16
278.492	37.15
278.703	16.72
278.915	23.82
279.126	26.57
279.338	15.23
279.549	13.72
279.761	9.74
279.972	7.62
280.183	3.26
280.395	0.95
280.606	-12.12
280.818	-9.73
281.029	-8.98
281.24	-10.1
281.452	-17.13
281.663	-19.92
281.875	-16.9
282.086	-10.48
282.297	-13.36
282.508	-17.33
282.72	-8.67
282.931	-2.94
283.142	5.15
283.354	6.97
283.565	7.28
283.776	12.4
283.987	7.65
284.199	0.59
284.41	16.41
284.621	21.89
284.832	22.66
285.043	29.24
285.254	26.04
285.466	20.01
285.677	21.32
285.888	20.63
286.099	26.69
286.31	24.48
286.521	16.63
286.732	20.25
286.943	18.1
287.154	12.7
287.366	17.03
287.577	11.9
287.788	5.92
287.999	6.75
288.21	4.55
288.421	11.38
288.632	7.09
288.843	6.15
289.054	8.15
289.264	2.82
289.475	1.49
289.686	11.03
289.897	14.69
290.108	18.78
290.319	15.06
290.53	14.91
290.741	13.16
290.952	15.65
291.163	16.81
291.373	19.16
291.584	22.89
291.795	17.96
292.006	20.72
292.217	27.21
292.427	30.33
292.638	35.91
292.849	28.69
293.06	39.19
293.27	34.29
293.481	31.55
293.692	33.07
293.903	31.1
294.113	34.91
294.324	37.33
294.535	34.26
294.745	31.78
294.956	30.71
295.167	29.12
295.377	30.55
295.588	26.26
295.798	22.17
296.009	15.84
296.22	15.32
296.43	9.05
296.641	1.63
296.851	-2.87
297.062	-6.95
297.272	-3.64
297.483	-9.22
297.693	-2.6
297.904	-4.66
298.114	3.55
298.325	4.96
298.535	-12.03
298.746	-12.5
298.956	-8.79
299.167	-7.48
299.377	-7.04
299.587	-5.29
299.798	-1.39
300.008	-2.46
300.219	0.43
300.429	7.27
300.639	12.31
300.85	16.35
301.06	13.46
301.27	14.55
301.481	15.23
301.691	14.91
301.901	20.21
302.111	12.75
302.322	15.82
302.532	10.32
302.742	7.45
302.952	12.5
303.163	5.94
303.373	1.76
303.583	11.27
303.793	14.1
304.003	17.74
304.214	12.1
304.424	13.04
304.634	13.47
304.844	15.35
305.054	19.09
305.264	18.23
305.474	18.38
305.684	16.6
305.894	16.08
306.104	18.45
306.314	12.51
306.525	14.87
306.735	9.92
306.945	7.85
307.155	8.47
307.365	13.73
307.575	22.74
307.784	18.53
307.994	13.09
308.204	7.2
308.414	2.51
308.624	5.15
308.834	6.23
309.044	3.96
309.254	1.8
309.464	-0.32
309.674	1.15
309.884	1.07
310.093	3.62
310.303	2.75
310.513	6.14
310.723	8.53
310.933	11.11
311.142	12.62
311.352	13.07
311.562	16.17
311.772	14.88
311.981	14.38
312.191	16.97
312.401	16.08
312.611	17.91
312.82	17.31
313.03	21.41
313.24	21.85
313.449	22.5
313.659	19.81
313.869	15.42
314.078	17.33
314.288	15.04
314.497	9.31
314.707	9.26
314.917	7.2
315.126	15.03
315.336	14.97
315.545	16.22
315.755	19.74
315.964	16.52
316.174	18.76
316.383	12
316.593	11.65
316.802	13.44
317.012	11.76
317.221	19.88
317.431	16.81
317.64	20.18
317.849	17.25
318.059	20.81
318.268	24.92
318.478	26.42
318.687	29.68
318.896	35.66
319.106	35.62
319.315	33.97
319.524	23.57
319.734	19.35
319.943	21.03
320.152	17.38
320.362	17.39
320.571	18.07
320.78	21.67
320.989	24.03
321.199	24.11
321.408	29.61
321.617	25.38
321.826	24.46
322.035	21.14
322.245	25.25
322.454	24.14
322.663	23.93
322.872	22.28
323.081	19.82
323.29	18.53
323.5	18.62
323.709	21.92
323.918	25.18
324.127	23.84
324.336	18.21
324.545	17.63
324.754	17.4
324.963	14.21
325.172	18.38
325.381	17.67
325.59	16.22
325.799	13.01
326.008	2.68
326.217	-2.39
326.426	1.31
326.635	3.32
326.844	2.43
327.053	6.77
327.262	12.72
327.47	11.87
327.679	11.25
327.888	11.28
328.097	9.46
328.306	11.71
328.515	14.63
328.724	19.6
328.932	15.08
329.141	19.23
329.35	23.83
329.559	18.13
329.768	20.49
329.976	19.83
330.185	17.19
330.394	21.26
330.602	26.04
330.811	20.07
331.02	15.43
331.229	13.33
331.437	19.34
331.646	13.9
331.855	17.08
332.063	17.03
332.272	17.02
332.48	14.86
332.689	12.54
332.898	15.09
333.106	16.02
333.315	14.63
333.523	7.83
333.732	0.2
333.94	2.94
334.149	0.99
334.357	5.22
334.566	9.6
334.774	11.43
334.983	5.85
335.191	1.97
335.4	3.44
335.608	5.7
335.817	-15.58
336.025	-5.68
336.234	-15.34
336.442	-5.6
336.65	-2.8
336.859	8.52
337.067	9.5
337.275	10.42
337.484	8.16
337.692	18.36
337.9	29.83
338.109	43.18
338.317	42.91
338.525	38.63
338.734	42.33
338.942	41.13
339.15	40.3
339.358	47.27
339.567	46.66
339.775	45.17
339.983	38.98
340.191	34.14
340.399	31.42
340.608	36
340.816	38.52
341.024	33.3
341.232	29.86
341.44	30.34
341.648	29.94
341.856	31.95
342.064	29.15
342.272	14.69
342.481	5.85
342.689	0.77
342.897	6.04
343.105	0.81
343.313	8.09
343.521	6.96
343.729	-1.54
343.937	-3.67
344.145	-6.8
344.353	-0.59
344.56	-0.84
344.768	-7.36
344.976	-21.53
345.184	-36.18
345.392	-41.38
345.6	-36.65
345.808	-37.08
346.016	-48.5
346.224	-49.52
346.431	-40.77
346.639	-26.16
346.847	-25.31
347.055	-26.04
347.263	-36.34
347.471	-42.52
347.678	-54.79
347.886	-52.94
348.094	-35.64
348.302	-25.31
348.509	-26.02
348.717	-23.92
348.925	-16.92
349.132	-13.42
349.34	-8.85
349.548	2.54
349.755	4.05
349.963	-6.2
350.171	-7.07
350.378	5
350.586	1.08
350.793	4.78
351.001	1.84
351.209	-4.89
351.416	2.83
351.624	7.77
351.831	4.39
352.039	3.54
352.246	-2.78
352.454	-10.82
352.661	-18.31
352.869	-18.37
353.076	-24.55
353.284	-22.98
353.491	-11.33
353.699	-15.18
353.906	-20.77
354.113	-11.62
354.321	-9.2
354.528	-6.11
354.736	-14.02
354.943	-10.17
355.15	-11.01
355.358	-11.36
355.565	-5.81
355.772	-1.73
355.98	4.22
356.187	12.51
356.394	4.6
356.601	2.28
356.809	13.16
357.016	14.2
357.223	16.85
357.43	15.9
357.638	21.62
357.845	18.65
358.052	18.7
358.259	25.48
358.466	27.98
358.673	28.32
358.881	23.48
359.088	20.68
359.295	20.79
359.502	9.67
359.709	9.28
359.916	3.77
360.123	-1.01
360.33	-15.16
360.537	-18.07
360.744	-11.02
360.951	-5.33
361.158	-10.57
361.365	-5.71
361.572	-3.96
361.779	-2.22
361.986	-9.81
362.193	-16.96
362.4	-11.34
362.607	-23.13
362.814	-19.35
363.021	-19.47
363.228	-20.43
363.435	-10.02
363.641	-13.32
363.848	-16.54
364.055	-20.17
364.262	-12.98
364.469	-10.41
364.676	-3.92
364.882	-9.23
365.089	-9.12
365.296	-4.67
365.503	-7.83
365.709	-13.09
365.916	-16.06
366.123	-11.86
366.33	-13.44
366.536	-10.88
366.743	-8.51
366.95	-8.03
367.156	-8.52
367.363	-10.02
367.57	-11.85
367.776	-16.89
367.983	-10.96
368.19	-3.46
368.396	0.14
368.603	-1.56
368.809	-1.07
369.016	-2.19
369.222	-0.07
369.429	3.95
369.635	3.2
369.842	3.71
370.048	8.46
370.255	12.04
370.461	6.63
370.668	7.95
370.874	4.64
371.081	4.97
371.287	11.92
371.494	7.82
371.7	10.85
371.906	8.78
372.113	10.58
372.319	8.79
372.526	11.93
372.732	9.99
372.938	7.45
373.145	9.85
373.351	11.6
373.557	12.52
373.763	5.83
373.97	1.76
374.176	6.43
374.382	7.2
374.588	1.74
374.795	9.41
375.001	4.32
375.207	2.34
375.413	1.54
375.62	6.88
375.826	15.05
376.032	12.72
376.238	15.83
376.444	6.97
376.65	-1.12
376.856	-15.48
377.062	-10.4
377.269	-4.72
377.475	-16
377.681	-24.75
377.887	-21.04
378.093	-21.05
378.299	-16.58
378.505	-20.15
378.711	-23.25
378.917	-19.32
379.123	-18.95
379.329	-12.79
379.535	-10.5
379.741	-11.55
379.947	-17.02
380.152	-15.52
380.358	-11.62
380.564	-11.17
380.77	-18.72
380.976	-18.7
381.182	-8.14
381.388	-11.28
381.594	-12.32
381.799	-8.75
382.005	-9.12
382.211	-7.16
382.417	1.72
382.623	-3.27
382.828	-0.6
383.034	1.15
383.24	-3.12
383.445	-3.8
383.651	-1.36
383.857	5.7
384.063	5.69
384.268	-2.29
384.474	-0.59
384.68	-9.69
384.885	-5.83
385.091	15.66
385.296	15.78
385.502	17.26
385.708	14.02
385.913	8.62
386.119	9.06
386.324	16.12
386.53	16.8
386.735	8.57
386.941	17.92
387.146	24.33
387.352	21.92
387.557	36.42
387.763	34.73
387.968	28.97
388.174	27.12
388.379	26.47
388.585	28.98
388.79	21.5
388.996	24.43
389.201	23.07
389.406	6.02
389.612	16.16
389.817	13.84
390.022	19.05
390.228	25.09
390.433	24.38
390.638	20.91
390.844	27.24
391.049	29.26
391.254	26.9
391.459	19.68
391.665	16.54
391.87	5.82
392.075	10.73
392.28	14.79
392.485	9.25
392.691	13.45
392.896	7.24
393.101	13.12
393.306	21.67
393.511	23.92
393.716	29.43
393.922	18.32
394.127	13.64
394.332	19.39
394.537	19.07
394.742	17.16
394.947	20.75
395.152	13.02
395.357	14.6
395.562	12.61
395.767	6.08
395.972	7.64
396.177	5.07
396.382	6.12
396.587	2.04
396.792	5.11
396.997	11.29
397.202	22.23
397.407	13.75
397.611	6.72
397.816	4.16
398.021	-1.73
398.226	0.31
398.431	-1.53
398.636	-8.84
398.841	-6.61
399.045	4.01
399.25	2.47
399.455	4.87
399.66	2.15
399.864	4.21
400.069	2.07
400.274	-0.28
400.479	10.32
400.683	11.1
400.888	11.03
401.093	5.42
401.297	-2.42
401.502	-10.8
401.707	-2.69
401.911	12.12
402.116	15.21
402.321	24.89
402.525	36.52
402.73	33.11
402.934	35.54
403.139	43.22
403.344	29.58
403.548	30.56
403.753	23.28
403.957	16.45
404.162	10.92
404.366	17.53
404.571	20.37
404.775	3.66
404.98	-5.78
405.184	1.44
405.388	12.74
405.593	12.63
405.797	10.4
406.002	11.99
406.206	2.91
406.41	7.93
406.615	6.91
406.819	7.03
407.023	13.79
407.228	14.26
407.432	6.11
407.636	4.95
407.841	5.1
408.045	9.26
408.249	11.98
408.453	20.43
408.658	25.42
408.862	29.19
409.066	33.29
409.27	33.84
409.474	29.79
409.679	21.55
409.883	22.96
410.087	14.83
410.291	16.2
410.495	11.73
410.699	6.72
410.903	5.36
411.108	-0.1
411.312	-11.24
411.516	-28.7
411.72	-23.69
411.924	-19.41
412.128	-20.56
412.332	-21.16
412.536	-24.83
412.74	-20.24
412.944	-19.76
413.148	-21.51
413.352	-18.93
413.556	-21.97
413.76	-14.96
413.964	-7.06
414.167	-1.77
414.371	5.55
414.575	3.18
414.779	-4.37
414.983	-3.95
415.187	0.96
415.391	-2.39
415.594	17.54
415.798	19.73
416.002	16.99
416.206	13.07
416.41	19.67
416.613	11.77
416.817	16.93
417.021	6.97
417.225	6.3
417.428	-11.25
417.632	-18.36
417.836	-8.82
418.039	-5.62
418.243	-5.57
418.447	-21.65
418.65	-13.76
418.854	-12.77
419.057	5.73
419.261	2.19
419.465	0.91
419.668	11.79
419.872	4.42
420.075	-2.01
420.279	8.52
420.482	13.02
420.686	5.06
420.889	13.96
421.093	19.02
421.296	20.09
421.5	10.92
421.703	9.73
421.907	16.75
422.11	3.61
422.314	-0.41
422.517	-4.2
422.72	13.53
422.924	2.62
423.127	-4.65
423.33	-15.83
423.534	-17.3
423.737	-9.81
423.94	-17.83
424.144	-11.63
424.347	4.11
424.55	-10.4
424.754	-8.88
424.957	-19.67
425.16	-20.29
425.363	-24.52
425.567	-14.87
425.77	-5.48
425.973	9.2
426.176	7.7
426.379	17.04
426.582	23.68
426.786	28.88
426.989	15.72
427.192	27.46
427.395	36.46
427.598	31.4
427.801	32.62
428.004	24.42
428.207	32.81
428.41	27.22
428.613	22.94
428.816	32.34
429.019	33.77
429.222	38.64
429.425	41.51
429.628	42.55
429.831	33.49
430.034	31.52
430.237	28.33
430.44	23.25
430.643	22.19
430.846	22.47
431.049	15.89
431.252	20.81
431.454	17.58
431.657	11.06
431.86	18.89
432.063	23.5
432.266	26.64
432.469	22.09
432.671	25.85
432.874	29.32
433.077	23.28
433.28	22.53
433.482	24.61
433.685	25.77
433.888	23.77
434.09	29.02
434.293	21.77
434.496	16.71
434.698	16.2
434.901	22.46
435.104	6.68
435.306	16.6
435.509	21.15
435.712	27.91
435.914	14.81
436.117	12.58
436.319	18.71
436.522	13.59
436.724	6.79
436.927	5.63
437.129	3.34
437.332	6.4
437.534	14.19
437.737	5.41
437.939	10.21
438.142	15.24
438.344	19.06
438.547	36.39
438.749	47.86
438.951	51.35
439.154	54.2
439.356	51.65
439.558	45.88
439.761	49.26
439.963	40.45
440.165	50.76
440.368	59.18
440.57	41.16
440.772	45.54
440.975	35.01
441.177	42.84
441.379	44.37
441.581	32.76
441.784	18.88
441.986	25.03
442.188	17.06
442.39	15.34
442.592	9.79
442.795	10.37
442.997	2.35
443.199	-2.49
443.401	-2.86
443.603	7.79
443.805	3.99
444.007	1.48
444.209	-0.72
444.411	2.89
444.613	-2.54
444.815	9.8
445.017	13.43
445.219	25.82
445.421	20.17
445.623	16.93
445.825	16.2
446.027	16.94
446.229	7.52
446.431	10.99
446.633	-0.32
446.835	-2.16
447.037	1.13
447.239	-3.8
447.441	1.98
447.643	-4.25
447.844	-22.26
448.046	-10.35
448.248	-5.31
448.45	-2.18
448.652	-10.82
448.853	5
449.055	-10.72
449.257	-11.79
449.459	-26.46
449.66	-30.4
449.862	-30.48
450.064	-15.91
450.266	-15.8
450.467	-12.72
450.669	-12.03
450.871	0.52
451.072	13.85
451.274	0.08
451.475	12.43
451.677	16.38
451.879	8.53
452.08	19.95
452.282	25.38
452.483	19
452.685	22.93
452.886	23.58
453.088	0.24
453.289	7.23
453.491	-4.28
453.692	-24.28
453.894	3.68
454.095	22.05
454.297	18.44
454.498	8.97
454.7	23.71
454.901	26.37
455.102	17.83
455.304	15.11
455.505	15.05
455.706	11.21
455.908	8.03
456.109	13.32
456.31	6.26
456.512	-10.52
456.713	-1.09
456.914	-9.35
457.116	-22.53
457.317	-17.66
457.518	-20.08
457.719	-11.59
457.921	-5.16
458.122	-15.44
458.323	-18.25
458.524	-8.21
458.725	-0.78
458.926	-13.31
459.128	-16.92
459.329	-19.13
459.53	-22.68
459.731	-25.75
459.932	-27.48
460.133	-28.22
460.334	-24.1
460.535	-7.3
460.736	-0.69
460.937	-14.95
461.138	-12.42
461.339	7.82
461.54	12.17
461.741	18.09
461.942	23.3
462.143	34.96
462.344	29.29
462.545	35.71
462.746	28.54
462.947	24.01
463.148	41.62
463.348	36.07
463.549	34.58
463.75	31.51
463.951	38.16
464.152	33.55
464.353	36.82
464.553	42.81
464.754	35.09
464.955	34.9
465.156	36.93
465.356	37.78
465.557	33.08
465.758	36.15
465.959	33.44
466.159	21.12
466.36	21.22
466.561	25.75
466.761	13.55
466.962	16.61
467.163	19.58
467.363	8.53
467.564	8.77
467.764	13.32
467.965	6.67
468.166	-2.92
468.366	6.08
468.567	5.72
468.767	8.29
468.968	6.53
469.168	5.15
469.369	5.37
469.569	0.52
469.77	-3.89
469.97	-15.1
470.17	-8.61
470.371	-3.2
470.571	-12.16
470.772	-3.92
470.972	-0.45
471.172	2.05
471.373	-2.71
471.573	4.2
471.773	1.29
471.974	3.76
472.174	9.59
472.374	19.76
472.575	16.41
472.775	15.76
472.975	-1.09
473.175	-0.76
473.376	-3.1
473.576	0.22
473.776	5.56
473.976	5.7
474.177	17.35
474.377	13.84
474.577	12.55
474.777	9.75
474.977	-0.42
475.177	6.55
475.377	3.5
475.577	12.65
475.777	9.46
475.978	10.52
476.178	4.34
476.378	9.98
476.578	7.76
476.778	6.18
476.978	7.51
477.178	12.24
477.378	10.65
477.578	10.26
477.778	8.06
477.977	9.06
478.177	6.96
478.377	-1.43
478.577	-5.67
478.777	-1.16
478.977	0.49
479.177	2.96
479.377	-1.72
479.577	-3.25
479.776	-2.34
479.976	-1.21
480.176	3.09
480.376	6.6
480.576	-0.26
480.775	-1.45
480.975	-3.78
481.175	-5.56
481.374	-3.54
481.574	2.52
481.774	6.53
481.974	5.73
482.173	2.65
482.373	1.99
482.572	10.59
482.772	12.07
482.972	7.93
483.171	11.5
483.371	17.37
483.57	13.72
483.77	15.7
483.97	8.05
484.169	6.77
484.369	1.99
484.568	5.51
484.768	6.98
484.967	6.63
485.167	10.4
485.366	9.07
485.566	6.93
485.765	8.09
485.964	5.56
486.164	4.91
486.363	0.58
486.563	4.28
486.762	-1.59
486.961	4.84
487.161	6.57
487.36	2.85
487.559	-3.35
487.759	-1.94
487.958	-3.62
488.157	-5.95
488.356	-7.05
488.556	-7.68
488.755	-15.45
488.954	-15.42
489.153	-17.15
489.353	-16.48
489.552	-19.2
489.751	-23.58
489.95	-25.48
490.149	-26.94
490.348	-26.32
490.548	-20.39
490.747	-22.19
490.946	-16.15
491.145	-19.3
491.344	-21.92
491.543	-20.69
491.742	-19.17
491.941	-17.11
492.14	-17.71
492.339	-13.25
492.538	-11.51
492.737	-6.62
492.936	-0.71
493.135	-0.68
493.334	-3.45
493.533	-10.05
493.732	-1.44
493.931	4.91
494.13	2
494.328	11.46
494.527	12.69
494.726	13.85
494.925	9.43
495.124	6.97
495.323	2.39
495.521	1.43
495.72	1.5
495.919	0.88
496.118	1.28
496.316	1.05
496.515	2.09
496.714	-0.23
496.913	0.09
497.111	-0.65
497.31	-2.3
497.509	0.09
497.707	-0.23
497.906	0.43
498.105	-3.17
498.303	-1.8
498.502	-8.19
498.7	-4.82
498.899	-4.96
499.097	-3.82
499.296	-4.18
499.495	2.15
499.693	7.56
499.892	9.14
500.09	6.16
500.289	10.39
500.487	13.1
500.686	8.43
500.884	8.97
501.082	9.25
501.281	9.01
501.479	10.18
501.678	8.32
501.876	8.51
502.074	6.11
502.273	8.43
502.471	11.45
502.669	12.56
502.868	7.82
503.066	7.47
503.264	10.28
503.463	9.47
503.661	3.22
503.859	1.3
504.057	6.46
504.256	8.59
504.454	2
504.652	-1.2
504.85	3.93
505.048	8.44
505.246	5.43
505.445	4.07
505.643	2.15
505.841	5.45
506.039	3.23
506.237	2.03
506.435	4.87
506.633	1.97
506.831	3.69
507.029	4.16
507.227	2.11
507.425	1.58
507.623	0.42
507.821	0.31
508.019	4.07
508.217	0.41
508.415	2.35
508.613	4.11
508.811	5.98
509.009	1.15
509.207	2.15
509.405	5.08
509.603	5.86
509.8	4.97
509.998	5.04
510.196	10.88
510.394	10.02
510.592	5.66
510.79	1.45
510.987	-0.26
511.185	2.86
511.383	1.93
511.581	3.92
511.778	7.41
511.976	13.6
512.174	7.57
512.371	3.23
512.569	2.19
512.767	1.46
512.964	-1.66
513.162	1.48
513.36	-3.46
513.557	-6.72
513.755	-4.8
513.952	-0.07
514.15	-2.48
514.348	-3.13
514.545	-2.76
514.743	0.08
514.94	5.9
515.138	5.42
515.335	4.78
515.533	5.88
515.73	1.79
515.927	-1.04
516.125	-3.92
516.322	-0.7
516.52	5.61
516.717	3.37
516.915	2.31
517.112	3.55
517.309	1.03
517.507	3.99
517.704	2.99
517.901	-2.54
518.099	-4.61
518.296	-3.67
518.493	-2.33
518.69	-1.61
518.888	-3.03
519.085	-2.98
519.282	-3.29
519.479	-4.48
519.676	-6.47
519.874	-7.83
520.071	-9.87
520.268	-8.87
520.465	-9.05
520.662	-13.5
520.859	-13.11
521.056	-11.43
521.254	-7.33
521.451	-5.82
521.648	-7.02
521.845	-8.13
522.042	-0.23
522.239	1.03
522.436	1.4
522.633	-4.87
522.83	-3.81
523.027	-5.14
523.224	-9.04
523.421	-6.56
523.618	-6.48
523.815	-1.79
524.011	0.3
524.208	5.14
524.405	4.29
524.602	6.66
524.799	4.21
524.996	-1.12
525.193	-3.84
525.389	-5.63
525.586	-4.29
525.783	-8.12
525.98	-1.89
526.176	-4.51
526.373	-9.31
526.57	-7.02
526.767	-1.74
526.963	-3.22
527.16	1.55
527.357	4
527.553	3.37
527.75	3.6
527.947	0.62
528.143	6.17
528.34	5.1
528.537	3.34
528.733	0.53
528.93	3.84
529.126	12.33
529.323	14.94
529.519	12.96
529.716	12.2
529.912	15
530.109	9.87
530.305	9.62
530.502	13.16
530.698	10.51
530.895	4.87
531.091	5.71
531.288	4.23
531.484	6.43
531.68	7.01
531.877	7.41
532.073	8.84
532.269	5.6
532.466	3.26
532.662	3.56
532.858	2.66
533.055	1.84
533.251	-1.26
533.447	-3.45
533.643	-1.91
533.84	-3.6
534.036	-3.25
534.232	-0.71
534.428	-3.47
534.624	-5.11
534.821	-3.49
535.017	1.03
535.213	0.86
535.409	-0.14
535.605	-2.83
535.801	-7.31
535.997	-8.64
536.193	-11.68
536.389	-9.11
536.586	-8.77
536.782	-5.68
536.978	-3.16
537.174	0.17
537.37	3.67
537.566	5.86
537.762	5.5
537.958	7.79
538.153	6.54
538.349	6.66
538.545	9.2
538.741	10.27
538.937	7.24
539.133	8.02
539.329	7.81
539.525	8.13
539.721	9.93
539.916	15.16
540.112	12.78
540.308	15.59
540.504	15.09
540.699	15.85
540.895	15.11
541.091	16.53
541.287	16.94
541.482	16.12
541.678	15.79
541.874	13.19
542.069	13.1
542.265	16.77
542.461	17.74
542.656	17.86
542.852	17.84
543.048	17.73
543.243	13.92
543.439	14.05
543.634	15.24
543.83	12.29
544.025	11.06
544.221	12.55
544.417	14.83
544.612	16.09
544.807	16.64
545.003	13.88
545.198	8.92
545.394	5.86
545.589	7.95
545.785	6.06
545.98	8.13
546.176	7.69
546.371	4.07
546.566	0.15
546.762	-2.14
546.957	-2.64
547.152	-1.74
547.348	-1.73
547.543	-1.2
547.738	-4.46
547.933	-4.28
548.129	-3.81
548.324	-4.56
548.519	-9.66
548.714	-15.28
548.91	-13.1
549.105	-13.63
549.3	-13.14
549.495	-10.17
549.69	-12.41
549.885	-9.76
550.08	-8.08
550.276	-6.89
550.471	-1.91
550.666	-0.26
550.861	1.69
551.056	0.51
551.251	0.24
551.446	4.87
551.641	3.2
551.836	3.69
552.031	5.69
552.226	5.79
552.421	7.01
552.616	7.62
552.811	14.58
553.006	11.78
553.201	10.16
553.395	12.81
553.59	11.14
553.785	9.16
553.98	8.68
554.175	4.82
554.37	3.41
554.565	0.62
554.759	1.07
554.954	-0.54
555.149	2.1
555.344	1.33
555.538	-1.7
555.733	0.75
555.928	3.65
556.122	2.07
556.317	0.24
556.512	1.54
556.706	1.17
556.901	-3.75
557.096	-1.52
557.29	2.12
557.485	1.88
557.68	0.89
557.874	4.41
558.069	3.08
558.263	4.65
558.458	4.34
558.652	4.71
558.847	4.07
559.041	6.7
559.236	3.79
559.43	4.39
559.625	7.54
559.819	4.4
560.014	1.86
560.208	2.97
560.402	1.72
560.597	1.27
560.791	3.03
560.986	4.32
561.18	2.23
561.374	2.1
561.569	-0.22
561.763	1.61
561.957	-2.12
562.151	-3.12
562.346	-2.48
562.54	1.42
562.734	1.29
562.928	0.71
563.123	0.58
563.317	0.09
563.511	1.52
563.705	-0.91
563.899	0.14
564.093	2.2
564.288	3.12
564.482	3.96
564.676	4.61
564.87	3.08
565.064	1.08
565.258	4.19
565.452	3.45
565.646	6.21
565.84	0.84
566.034	2.77
566.228	2.89
566.422	2.18
566.616	-0.66
566.81	-1.27
567.004	-0.63
567.198	-0.91
567.392	0.57
567.586	-0.06
567.779	1.51
567.973	1.6
568.167	2.07
568.361	0.39
568.555	0.88
568.749	-0.41
568.942	-0.21
569.136	1.95
569.33	-0.63
569.524	1.03
569.718	2.42
569.911	5.62
570.105	9.47
570.299	10.49
570.492	11.86
570.686	13.52
570.88	14.57
571.073	13.57
571.267	12.12
571.461	12.97
571.654	13.05
571.848	13.16
572.041	14.42
572.235	15.26
572.429	18.3
572.622	16.4
572.816	17.59
573.009	18.6
573.203	18.12
573.396	19.33
573.59	19.81
573.783	17.94
573.976	17.93
574.17	14.97
574.363	12.56
574.557	10.71
574.75	8.54
574.943	9.64
575.137	12.58
575.33	13.83
575.523	12.8
575.717	11.07
575.91	10.61
576.103	9.95
576.297	7.54
576.49	6.29
576.683	6.48
576.876	4.63
577.07	2.12
577.263	2.64
577.456	2.16
577.649	0.32
577.842	2.45
578.036	3.24
578.229	2.35
578.422	4.61
578.615	4.12
578.808	3.32
579.001	2.48
579.194	2.33
579.387	2.92
579.58	3.37
579.773	4.12
579.966	4.24
580.159	3.94
580.352	6.23
580.545	6.95
580.738	7.52
580.931	8.58
581.124	10.19
581.317	8.47
581.51	7.51
581.703	8.06
581.896	7.78
582.088	8.8
582.281	9.87
582.474	8.96
582.667	8.39
582.86	9.41
583.053	8.87
583.245	9.33
583.438	8.1
583.631	8.98
583.824	8.8
584.016	7.27
584.209	5.79
584.402	5.19
584.594	3.9
584.787	6.3
584.98	6.11
585.172	7.97
585.365	7.14
585.558	7.95
585.75	7.84
585.943	7.67
586.135	6.56
586.328	6.02
586.52	7.37
586.713	8.84
586.906	8.85
587.098	8.91
587.291	9.83
587.483	9.14
587.675	8.62
587.868	7.95
588.06	8.83
588.253	10.39
588.445	9.56
588.638	8.76
588.83	5.84
589.022	5.53
589.215	5.47
589.407	8.31
589.599	7.28
589.792	7.34
589.984	7.61
590.176	7.41
590.368	7.92
590.561	7.29
590.753	7.71
590.945	8.21
591.137	8.17
591.33	3.66
591.522	5.1
591.714	3.42
591.906	7.64
592.098	7.75
592.29	7.92
592.482	8.04
592.674	7.47
592.867	9.5
593.059	7.7
593.251	6.63
593.443	6.31
593.635	7.05
593.827	6.9
594.019	6.32
594.211	5.5
594.403	5.57
594.595	7.29
594.787	5.91
594.979	5.96
595.17	4.54
595.362	7.76
595.554	7.49
595.746	7.79
595.938	6.01
596.13	7.16
596.322	6.49
596.513	5.2
596.705	5.76
596.897	4.49
597.089	6.44
597.281	6.7
597.472	4.96
597.664	5.09
597.856	5.26
598.048	5.07
598.239	5.32
598.431	4.26
598.623	1.88
598.814	1.52
599.006	3.57
599.197	5.51
599.389	3.3
599.581	1.82
599.772	3.69
599.964	2.58
600.155	-0.16
600.347	0.74
600.538	2.63
600.73	3.16
600.921	3.11
601.113	3.17
601.304	3.1
601.496	6.54
601.687	6.88
601.879	6
602.07	6.09
602.262	6.49
602.453	5.56
602.644	5.19
602.836	4.76
603.027	2.73
603.218	1.69
603.41	1.08
603.601	3.4
603.792	2.29
603.983	3.71
604.175	5.42
604.366	5.46
604.557	5.41
604.748	4.48
604.94	6.62
605.131	4.22
605.322	4.14
605.513	3.76
605.704	2.72
605.895	3.21
606.086	3.77
606.278	4.32
606.469	6.09
606.66	7.26
606.851	7.88
607.042	8.04
607.233	9.35
607.424	11.3
607.615	10.19
607.806	9.56
607.997	8.4
608.188	8.86
608.379	7.52
608.57	6.75
608.761	7.65
608.952	6.64
609.142	9.32
609.333	8.72
609.524	8.02
609.715	8.84
609.906	7.66
610.097	6.57
610.287	4.71
610.478	2.46
610.669	3.25
610.86	3.71
611.051	2.89
611.241	2.93
611.432	1.04
611.623	1.52
611.813	2.2
612.004	1.22
612.195	0.53
612.385	1.47
612.576	0.95
612.767	0.03
612.957	-0.5
613.148	-0.56
613.338	-0
613.529	-0.75
613.72	-1.19
613.91	0.51
614.101	-0.24
614.291	1.72
614.482	3.54
614.672	2.7
614.863	3.24
615.053	3.55
615.243	3.75
615.434	5.33
615.624	4.97
615.815	5.29
616.005	5.87
616.195	5.17
616.386	4.33
616.576	5.22
616.766	6.56
616.957	7.01
617.147	5.66
617.337	3.15
617.528	2.96
617.718	2.39
617.908	0.8
618.098	0.72
618.289	0.82
618.479	0.49
618.669	0.33
618.859	0.65
619.049	0.89
619.239	0.52
619.43	-0.82
619.62	-1.15
619.81	-0.22
620	0.78
620.19	1.48
620.38	1
620.57	1.37
620.76	-0.59
620.95	0.23
621.14	2.44
621.33	5.01
621.52	4.61
621.71	4.06
621.9	5.27
622.09	6.82
622.28	6.3
622.47	4.91
622.659	3.68
622.849	3.19
623.039	4.19
623.229	4.29
623.419	5.5
623.609	4.9
623.799	3.56
623.988	3.04
624.178	4.35
624.368	3.55
624.558	3.75
624.747	4.75
624.937	3.9
625.127	1.46
625.316	-0.14
625.506	1.75
625.696	3.74
625.885	3.17
626.075	2.3
626.265	2.39
626.454	4.45
626.644	4.88
626.833	5.3
627.023	4.43
627.212	3.27
627.402	3.76
627.591	5.26
627.781	6.44
627.97	6.83
628.16	5.76
628.349	6.51
628.539	4.66
628.728	5.93
628.918	7.58
629.107	9.43
629.296	8.7
629.486	7.16
629.675	6.37
629.865	6.24
630.054	6.33
630.243	6.66
630.432	5.46
630.622	7.17
630.811	6.64
631	5.06
631.19	6.02
631.379	5.36
631.568	4.36
631.757	3.29
631.946	3.4
632.136	3.92
632.325	4.29
632.514	4.67
632.703	4.66
632.892	2.21
633.081	0.74
633.27	3.73
633.459	5.44
633.648	5.74
633.837	5.9
634.026	4.18
634.215	5.43
634.404	6.03
634.593	6.77
634.782	7.35
634.971	8.02
635.16	7.34
635.349	8.07
635.538	8.77
635.727	7.66
635.916	6.84
636.105	7.27
636.294	7.52
636.482	9.25
636.671	8.08
636.86	9.26
637.049	10.19
637.238	9.4
637.426	7.11
637.615	6.1
637.804	6.49
637.993	7.81
638.181	6.68
638.37	6.39
638.559	6.2
638.747	6.12
638.936	8.1
639.125	8.2
639.313	5.96
639.502	5.93
639.691	7.69
639.879	5.9
640.068	5.23
640.256	3.11
640.445	2.26
640.633	2.6
640.822	0.76
641.01	0.26
641.199	0.98
641.387	1.62
641.576	2.33
641.764	3.35
641.953	2.89
642.141	2.04
642.329	3.06
642.518	1.02
642.706	1.35
642.894	0.04
643.083	0.41
643.271	2.43
643.459	3.42
643.648	2.28
643.836	3.95
644.024	3.82
644.213	5.61
644.401	5.63
644.589	4.96
644.777	6.75
644.965	8.45
645.154	5.67
645.342	5.44
645.53	6.85
645.718	6.93
645.906	8.14
646.094	8.61
646.282	6.63
646.47	7.87
646.658	7.16
646.846	6.47
647.034	6.28
647.223	5.24
647.411	3.68
647.599	3.38
647.786	4.34
647.974	3.09
648.162	3.51
648.35	2.61
648.538	2.08
648.726	2.23
648.914	-0.43
649.102	1.91
649.29	3.55
649.478	2.99
649.665	2.95
649.853	2.27
650.041	0.75
650.229	3.42
650.417	3.12
650.604	2.91
650.792	3.93
650.98	3.98
651.168	3.63
651.355	4.24
651.543	4.24
651.731	3.86
651.918	3.2
652.106	3.85
652.294	4.33
652.481	6.07
652.669	5.25
652.856	7.16
653.044	7.92
653.231	6.42
653.419	6.16
653.606	5.34
653.794	6.31
653.981	8.21
654.169	7.63
654.356	7.14
654.544	7.45
654.731	6.63
654.919	5.87
655.106	5.95
655.294	5.88
655.481	6.39
655.668	6.66
655.856	7.28
656.043	6.18
656.23	7.03
656.418	6.55
656.605	7.31
656.792	7.19
656.979	7.17
657.167	7.58
657.354	7.4
657.541	7.37
657.728	5.2
657.916	3.59
658.103	2.06
658.29	2.46
658.477	3.07
658.664	3.99
658.851	3.88
659.038	3.89
659.225	2.42
659.412	3.62
659.6	3.01
659.787	5.56
659.974	4.91
660.161	5.04
660.348	5.17
660.535	6.98
660.722	4.74
660.909	3.81
661.095	4.66
661.282	4.94
661.469	6.51
661.656	7.14
661.843	8.13
662.03	8.17
662.217	7.78
662.404	7.35
662.59	5.98
662.777	6.69
662.964	7.76
663.151	9.47
663.338	8.48
663.524	8.19
663.711	6.08
663.898	7.35
664.085	6.98
664.271	6.9
664.458	5.09
664.645	6.36
664.831	6.43
665.018	4.92
665.204	3.94
665.391	1.51
665.578	2.13
665.764	2.42
665.951	2.5
666.137	2.97
666.324	2.34
666.51	3.65
666.697	3.21
666.883	3.12
667.07	2.22
667.256	1.83
667.443	1.02
667.629	2.04
667.816	0.92
668.002	-0.17
668.188	-1.47
668.375	-1.2
668.561	-1.99
668.747	-3.28
668.934	-2.44
669.12	-1.21
669.306	-0.19
669.493	-1.79
669.679	-1.9
669.865	-2.66
670.051	-3.81
670.238	-2.89
670.424	-4.13
670.61	-4.85
670.796	-4.97
670.982	-5.44
671.169	-4.83
671.355	-5.63
671.541	-6.73
671.727	-5.36
671.913	-4.86
672.099	-3.72
672.285	-6.02
672.471	-5.2
672.657	-4.28
672.843	-3.91
673.029	-4.45
673.215	-2.94
673.401	0.08
673.587	-0.48
673.773	1.22
673.959	1.32
674.145	0.89
674.331	1.49
674.517	1.58
674.703	2.35
674.888	3.16
675.074	1.22
675.26	3.02
675.446	2.97
675.632	1.61
675.817	1.34
676.003	2
676.189	3.53
676.375	3.43
676.56	2.79
676.746	2.59
676.932	0.89
677.117	0.4
677.303	-2.3
677.489	-2.88
677.674	-4.3
677.86	-4.76
678.046	-3.57
678.231	-3.61
678.417	-3.08
678.602	-4.21
678.788	-4.35
678.973	-2.3
679.159	-0.51
679.344	0.06
679.53	1.31
679.715	1.41
679.901	0.84
680.086	1.26
680.272	0.96
680.457	1.18
680.643	1.41
680.828	4.4
681.013	3.53
681.199	6.34
681.384	6.95
681.569	7.47
681.755	8.35
681.94	7.14
682.125	7.58
682.31	8.2
682.496	7.01
682.681	8.7
682.866	7.48
683.051	5.47
683.237	5.94
683.422	5.7
683.607	4.35
683.792	5.45
683.977	5.69
684.162	5.03
684.347	6.94
684.532	6.34
684.717	4.78
684.903	4.87
685.088	3.79
685.273	4.14
685.458	4.21
685.643	5.67
685.828	6.01
686.013	7.52
686.198	6.34
686.382	8.64
686.567	7.56
686.752	7.68
686.937	8.59
687.122	7.95
687.307	7.99
687.492	9.14
687.677	6.66
687.861	5.98
688.046	5.63
688.231	3.1
688.416	2.89
688.601	3.07
688.785	2.7
688.97	0.87
689.155	0.73
689.339	1.29
689.524	0.27
689.709	-0.44
689.893	-1.21
690.078	0.46
690.263	-0.21
690.447	-1.03
690.632	-1.73
690.816	-1.42
691.001	-0.95
691.186	-1.92
691.37	-2.81
691.555	-1.24
691.739	-0.31
691.924	0.87
692.108	1.32
692.293	1.85
692.477	1.89
692.661	1.94
692.846	3.17
693.03	4.1
693.215	2.9
693.399	2.29
693.583	2.36
693.768	1.4
693.952	1.09
694.136	0.11
694.321	1.37
694.505	3.4
694.689	3.34
694.873	3.33
695.058	2.46
695.242	3.79
695.426	3.18
695.61	2.02
695.794	2.08
695.979	2.01
696.163	1.6
696.347	1.95
696.531	1.28
696.715	2.2
696.899	1.31
697.083	0.35
697.267	0.81
697.451	0.97
697.635	1.81
697.819	0.39
698.003	1.76
698.187	0.71
698.371	0.73
698.555	1.2
698.739	0.3
698.923	1.78
699.107	1.83
699.291	1.96
699.475	1.84
699.659	1.92
699.842	2.89
700.026	3.24
700.21	2.05
700.394	3.59
700.578	3.52
700.761	3.78
700.945	6.8
701.129	6.31
701.313	6.12
701.496	5.81
701.68	6.62
701.864	5.59
702.047	5.87
702.231	7.79
702.415	7.77
702.598	7.32
702.782	8.14
702.965	6.65
703.149	6.45
703.333	6.39
703.516	5.83
703.7	5.44
703.883	5.67
704.067	5.16
704.25	3.85
704.434	1.84
704.617	0.49
704.801	-0.66
704.984	-0.21
705.167	-0.79
705.351	-2.78
705.534	-2
705.718	-0.29
705.901	-1.11
706.084	-4.95
706.268	-5.39
706.451	-4.95
706.634	-6.23
706.817	-6.58
707.001	-6.61
707.184	-7.23
707.367	-7.45
707.55	-7.85
707.734	-8.03
707.917	-6.02
708.1	-5.25
708.283	-3.27
708.466	-1.87
708.649	-2.39
708.832	-2.2
709.015	-1.62
709.199	1.19
709.382	0.49
709.565	-1.02
709.748	1.64
709.931	2.58
710.114	1.46
710.297	2.01
710.48	2.72
710.663	4.23
710.846	3.68
711.028	4.64
711.211	4.08
711.394	4.49
711.577	5.3
711.76	2.59
711.943	2.51
712.126	2.57
712.309	5.44
712.491	7.21
712.674	6.65
712.857	7.81
713.04	6.49
713.222	7.02
713.405	6.05
713.588	5.04
713.771	4.5
713.953	4.67
714.136	3.6
714.319	4.06
714.501	3.88
714.684	4.34
714.866	5.37
715.049	6.91
715.232	6.57
715.414	5.03
715.597	7.71
715.779	7.99
715.962	8.3
716.144	5.28
716.327	5.34
716.509	4.97
716.692	3.67
716.874	3.77
717.057	4.11
717.239	5.86
717.421	5.24
717.604	4.75
717.786	6.31
717.968	7.07
718.151	5.37
718.333	5.07
718.515	5.69
718.698	4.66
718.88	3.1
719.062	2.26
719.244	3.25
719.427	1.73
719.609	1.58
719.791	0.09
719.973	0.21
720.155	-1.92
720.338	-1.25
720.52	0.33
720.702	0.16
720.884	0.21
721.066	-0.31
721.248	-2.09
721.43	-1.23
721.612	-3.56
721.794	-3.01
721.976	-2.43
722.158	-1.42
722.34	-2.38
722.522	-2.27
722.704	-1.03
722.886	-0.9
723.068	-0.32
723.25	2.13
723.432	1.38
723.614	2.06
723.796	2.34
723.977	3.27
724.159	2.59
724.341	0.77
724.523	0.79
724.705	-0.93
724.886	-1.34
725.068	1.08
725.25	2.13
725.432	2.3
725.613	0.88
725.795	1.52
725.977	0.89
726.158	0.63
726.34	-0.45
726.522	-0.44
726.703	0.31
726.885	0.28
727.066	-1.94
727.248	-0.04
727.43	-0.1
727.611	-0.06
727.793	-0.41
727.974	-1.08
728.156	-1.07
728.337	-3.4
728.519	-3.14
728.7	-1.73
728.882	-3.14
729.063	-4.41
729.244	-4.53
729.426	-2.83
729.607	-1.76
729.788	-0.98
729.97	1.16
730.151	1.87
730.332	2.69
730.514	3.66
730.695	3.01
730.876	3.73
731.058	2.72
731.239	1.9
731.42	1.58
731.601	1.52
731.782	1.92
731.964	3.42
732.145	4.53
732.326	3.59
732.507	3.31
732.688	3.85
732.869	6.16
733.05	7.49
733.231	6.91
733.412	4.47
733.593	4.26
733.774	3.56
733.955	4.22
734.136	3.36
734.317	1.06
734.498	2.17
734.679	1.49
734.86	0.94
735.041	2.07
735.222	1.46
735.403	1.7
735.584	1.68
735.765	1.43
735.946	2.08
736.126	2.61
736.307	1.9
736.488	1.79
736.669	-1.46
736.849	-2.5
737.03	-1.51
737.211	-0.7
737.392	0.23
737.572	-3.79
737.753	-6.39
737.934	-6.27
738.114	-3.07
738.295	-4.83
738.476	-5.45
738.656	-5.45
738.837	-6.24
739.017	-3.79
739.198	-2.83
739.378	-1.14
739.559	-1.28
739.74	-0.96
739.92	-1.85
740.1	-2.31
740.281	-3.13
740.461	-1.84
740.642	-0.92
740.822	-2.78
741.003	-2.06
741.183	-4.66
741.363	-0.91
741.544	0.54
741.724	1.64
741.904	-1.39
742.085	-1.16
742.265	-0.59
742.445	-0.79
742.626	-0.35
742.806	-1.7
742.986	-3.56
743.166	-4.97
743.347	-7.45
743.527	-6.88
743.707	-5.79
743.887	-6.18
744.067	-6.32
744.247	-6.58
744.427	-6.57
744.608	-6.71
744.788	-4.92
744.968	-1.38
745.148	-0.29
745.328	-0.06
745.508	-2.28
745.688	0.56
745.868	-0.36
746.048	-0.29
746.228	-0.23
746.408	0.99
746.588	0.04
746.767	1.75
746.947	2.75
747.127	3.63
747.307	1.31
747.487	1.42
747.667	3.14
747.847	4.25
748.026	2.19
748.206	1.95
748.386	5.21
748.566	3.46
748.745	2.56
748.925	2.6
749.105	3.5
749.285	4.3
749.464	3.19
749.644	2.96
749.824	4
750.003	4.08
750.183	2.02
750.362	2.24
750.542	1.14
750.722	1.9
750.901	0.98
751.081	2.88
751.26	3.04
751.44	2.44
751.619	1.62
751.799	4.16
751.978	2.36
752.158	0.51
752.337	-0.44
752.516	-1.02
752.696	-2.63
752.875	-2.75
753.055	-2.37
753.234	-0.31
753.413	1.91
753.593	2
753.772	2.94
753.951	3.54
754.13	2.98
754.31	2.15
754.489	1.64
754.668	3.12
754.847	3.57
755.027	4.07
755.206	3.77
755.385	4.19
755.564	4.77
755.743	6.29
755.922	5.93
756.101	7.32
756.28	6.98
756.46	6.39
756.639	3.63
756.818	3.53
756.997	2.71
757.176	1.46
757.355	0.96
757.534	0.62
757.713	0.67
757.892	1.12
758.07	1.76
758.249	1.43
758.428	1.45
758.607	0.46
758.786	0.15
758.965	-0.42
759.144	0.2
759.323	-1.94
759.501	-3.24
759.68	-3.08
759.859	-2.67
760.038	-2.29
760.216	-1.95
760.395	-0.56
760.574	-0.76
760.753	-0.6
760.931	0.17
761.11	0.48
761.289	-0.27
761.467	-0.54
761.646	-1.21
761.824	1.16
762.003	-0.29
762.182	-0.78
762.36	-0.69
762.539	-0.43
762.717	-0.02
762.896	-0.3
763.074	0.36
763.253	1.65
763.431	2.63
763.61	1.93
763.788	1.13
763.966	0.87
764.145	1.89
764.323	2.48
764.502	0.75
764.68	0.7
764.858	-1.24
765.037	1.02
765.215	1.93
765.393	3.41
765.571	1.56
765.75	2.97
765.928	2
766.106	1.9
766.284	1.88
766.463	1.72
766.641	2.25
766.819	3.18
766.997	3.52
767.175	2.75
767.353	2.98
767.531	3.57
767.71	4.24
767.888	3.62
768.066	2.62
768.244	3.93
768.422	3.74
768.6	7.02
768.778	5.44
768.956	4.76
769.134	5.07
769.312	5.59
769.489	4.09
769.667	7.16
769.845	8.6
770.023	8.74
770.201	9.74
770.379	7.92
770.557	7.83
770.735	8.38
770.912	8.04
771.09	8.13
771.268	8.08
771.446	7.62
771.623	7.85
771.801	8.85
771.979	8.43
772.157	7.75
772.334	5.56
772.512	5.18
772.69	5.33
772.867	4.58
773.045	3.22
773.222	3.11
773.4	2.6
773.577	2.54
773.755	2.48
773.933	2.57
774.11	4
774.288	3.03
774.465	2.04
774.643	0.4
774.82	2.2
774.997	2.09
775.175	2.01
775.352	4.89
775.53	4.32
775.707	4.59
775.884	5.09
776.062	6.43
776.239	6.94
776.416	8.1
776.594	8.41
776.771	8.52
776.948	9.26
777.125	7.94
777.303	5.63
777.48	6.11
777.657	5.13
777.834	6.51
778.012	7.16
778.189	7.01
778.366	8.54
778.543	3.62
778.72	2.91
778.897	5.46
779.074	2.59
779.251	3.17
779.428	3.27
779.605	2.15
779.782	0.86
779.959	0.26
780.136	-1.72
780.313	-0.94
780.49	-2.22
780.667	-1.45
780.844	-1.45
781.021	0.73
781.198	-0.3
781.375	0.66
781.552	-1.27
781.728	-0.87
781.905	-0.38
782.082	0.95
782.259	2.57
782.436	3.41
782.612	0.86
782.789	1.36
782.966	-0.36
783.143	-1.79
783.319	-1.24
783.496	-0.15
783.673	0.24
783.849	1.4
784.026	-0.18
784.203	2.03
784.379	0.6
784.556	1.04
784.732	-0.96
784.909	-0.5
785.085	-0.99
785.262	-0.3
785.438	0.3
785.615	-0.71
785.791	-1
785.968	-2.22
786.144	-2.34
786.321	0.33
786.497	-1.22
786.673	-0.76
786.85	-0.55
787.026	-0.3
787.203	-1.67
787.379	-3.47
787.555	-5.24
787.731	-4.48
787.908	-5
788.084	-3.29
788.26	-2.75
788.437	0.32
788.613	0.5
788.789	0.61
788.965	-1.36
789.141	-1.93
789.317	-3.18
789.494	-3.53
789.67	-1.77
789.846	-1.65
790.022	-7.58
790.198	-5.09
790.374	-3.5
790.55	-3.6
790.726	-4.33
790.902	-1.94
791.078	1.85
791.254	2.13
791.43	2.14
791.606	2.7
791.782	2.93
791.958	-0.15
792.134	0.51
792.31	-0.56
792.486	-2.07
792.661	-2.05
792.837	-0.14
793.013	0.78
793.189	0.15
793.365	0.54
793.54	0.88
793.716	3.79
793.892	2.96
794.068	0.33
794.243	1.53
794.419	1.92
794.595	-0.89
794.77	-3.17
794.946	-0.65
795.122	-1.68
795.297	-1.63
795.473	0.31
795.648	3.53
795.824	-0.15
796	2.04
796.175	3.55
796.351	4.58
796.526	3.76
796.702	5.54
796.877	5.46
797.052	6.94
797.228	4.97
797.403	3.64
797.579	2.03
797.754	3.24
797.929	3.64
798.105	5.74
798.28	5.69
798.455	8.08
798.631	4.66
798.806	6.12
798.981	4.31
799.157	1.96
799.332	1.77
799.507	6.7
799.682	5.72
799.858	6.27
800.033	5.76
800.208	4.76
800.383	5.52
800.558	7.73
800.733	7.38
800.908	9.24
801.083	11.66
801.258	11.72
801.434	13.92
801.609	12.81
801.784	11.92
801.959	14.34
802.134	12.87
802.309	13.3
802.484	14.7
802.658	17.93
802.833	14.87
803.008	14.24
803.183	11.15
803.358	11.08
803.533	13.45
803.708	14.19
803.883	14.68
804.057	8.95
804.232	8.22
804.407	6.42
804.582	6.22
804.756	3.49
804.931	3.89
805.106	3.24
805.281	5.72
805.455	7.71
805.63	5.95
805.805	4.82
805.979	7.62
806.154	5.79
806.328	2.72
806.503	5.1
806.678	5.34
806.852	5.97
807.027	5.57
807.201	1.68
807.376	3.73
807.55	3.74
807.725	7.32
807.899	8.72
808.074	10.75
808.248	11.77
808.422	11.71
808.597	11.86
808.771	11.04
808.946	13.89
809.12	12.3
809.294	12.7
809.468	13.82
809.643	13.27
809.817	12.7
809.991	11.89
810.166	11.31
810.34	10.17
810.514	9.81
810.688	9.65
810.862	10.72
811.037	10.01
811.211	9.04
811.385	8.5
811.559	5.23
811.733	6.05
811.907	3.43
812.081	5.23
812.255	4.17
812.429	2.89
812.603	-2.99
812.777	-3.23
812.951	-4.11
813.125	-5.12
813.299	-4.49
813.473	-6.06
813.647	-0.33
813.821	1.36
813.995	2.53
814.169	2.09
814.343	5.7
814.516	5.19
814.69	5.95
814.864	4.67
815.038	6.43
815.212	8.43
815.385	7.81
815.559	11.3
815.733	10.43
815.907	11.92
816.08	12.85
816.254	13.21
816.428	12.62
816.601	15.14
816.775	15.87
816.948	11.92
817.122	13.87
817.296	12.72
817.469	10.6
817.643	12.35
817.816	10.96
817.99	8.43
818.163	8.76
818.337	5.7
818.51	7.59
818.684	6.69
818.857	5.97
819.031	3.95
819.204	0.41
819.377	1.49
819.551	1.4
819.724	5.34
819.897	4.07
820.071	3.45
820.244	-0.71
820.417	-2.16
820.591	2.41
820.764	5.17
820.937	3.74
821.11	4.44
821.284	1.95
821.457	7.43
821.63	9.04
821.803	8.2
821.976	10.59
822.149	10.32
822.322	12.41
822.496	11.6
822.669	10.61
822.842	13.08
823.015	12.15
823.188	11.69
823.361	8.71
823.534	8.88
823.707	9.61
823.88	12.44
824.053	12.78
824.226	10.09
824.399	7.79
824.571	7.9
824.744	12.86
824.917	14.56
825.09	10.29
825.263	9.92
825.436	11.72
825.608	10.71
825.781	11.82
825.954	11.63
826.127	10.75
826.299	12.07
826.472	14.09
826.645	15.32
826.818	16.34
826.99	16.5
827.163	19.36
827.336	18.65
827.508	14.79
827.681	13.64
827.853	14.38
828.026	15.2
828.198	15.66
828.371	15.18
828.544	15.32
828.716	14.79
828.889	12.57
829.061	9.21
829.233	9.35
829.406	7.67
829.578	6.44
829.751	9.92
829.923	10.1
830.096	6.21
830.268	4.59
830.44	2.56
830.613	3.12
830.785	-0.89
830.957	-1.46
831.129	3.33
831.302	5.93
831.474	5.96
831.646	7.22
831.818	3.86
831.991	2.27
832.163	1.42
832.335	3.61
832.507	3.97
832.679	4.44
832.851	3.54
833.023	3.56
833.195	5.23
833.368	2.31
833.54	5.34
833.712	4.77
833.884	7.94
834.056	6.99
834.228	5.32
834.4	13.25
834.571	16.76
834.743	16.34
834.915	16.2
835.087	15.15
835.259	18.15
835.431	20.83
835.603	20.18
835.775	17.51
835.946	19.23
836.118	17.91
836.29	20.98
836.462	19.05
836.634	19.99
836.805	15.57
836.977	13.28
837.149	11.14
837.32	13.75
837.492	13.44
837.664	12.4
837.835	11.78
838.007	2.1
838.179	-1.7
838.35	1.18
838.522	2.67
838.693	5.33
838.865	-4.32
839.036	-6.69
839.208	-4.01
839.379	-2.11
839.551	-5.71
839.722	-2.14
839.894	-6.1
840.065	-4.1
840.237	-3.67
840.408	-0.64
840.579	3.06
840.751	1.41
840.922	0.29
841.093	-4.27
841.265	-1.85
841.436	1.62
841.607	3.56
841.778	4.53
841.95	1.07
842.121	0.42
842.292	-0.09
842.463	3.98
842.635	8.78
842.806	11.82
842.977	8.19
843.148	10.54
843.319	9.95
843.49	8.96
843.661	7.16
843.832	8.17
844.003	10.54
844.174	8.47
844.345	10.12
844.516	5.24
844.687	7.31
844.858	11.09
845.029	9.69
845.2	9.98
845.371	9.57
845.542	7.81
845.713	5.97
845.884	5.58
846.055	0.71
846.225	0.5
846.396	-6.33
846.567	-2.51
846.738	-1.62
846.909	-2.27
847.079	4.93
847.25	14.29
847.421	12.88
847.591	3.07
847.762	3.56
847.933	2.41
848.103	10.12
848.274	8.73
848.445	11.89
848.615	5.31
848.786	8.72
848.956	13.33
849.127	16.79
849.297	23.25
849.468	26.78
849.638	30.55
849.809	25.1
849.979	23.82
850.15	26.67
850.32	25.32
850.491	25.79
850.661	22.4
850.831	18.47
851.002	17.62
851.172	23.27
851.342	23.88
851.513	23.88
851.683	22.9
851.853	23.37
852.024	18.59
852.194	23.3
852.364	22.6
852.534	16.95
852.705	15.8
852.875	10.5
853.045	4.11
853.215	-1.99
853.385	2.03
853.555	3.73
853.725	0.9
853.895	-0.36
854.066	-2.67
854.236	-3.96
854.406	-7.64
854.576	1.75
854.746	-2.93
854.916	-3.28
855.086	-6.07
855.256	-1.73
855.425	2.46
855.595	5.22
855.765	2.42
855.935	-0.94
856.105	2.4
856.275	9.6
856.445	8.08
856.614	12.95
856.784	17.01
856.954	14.55
857.124	10.1
857.294	11.16
857.463	11.66
857.633	15.02
857.803	15.55
857.972	13.38
858.142	9.36
858.312	15.56
858.481	18.39
858.651	13.96
858.821	10.03
858.99	10.61
859.16	13.44
859.329	13.06
859.499	15.34
859.668	16.65
859.838	10.65
860.007	14.15
860.177	13.51
860.346	20.22
860.516	19.13
860.685	19.38
860.854	20.95
861.024	21.25
861.193	24.05
861.363	24.78
861.532	28.11
861.701	26.54
861.87	19.59
862.04	17.71
862.209	24.2
862.378	22.37
862.547	23.24
862.717	19.41
862.886	20.38
863.055	18.43
863.224	19.47
863.393	15.93
863.563	15.17
863.732	17
863.901	9.84
864.07	10.17
864.239	10.69
864.408	12.64
864.577	16.42
864.746	16.16
864.915	15.16
865.084	14.26
865.253	12.49
865.422	16.65
865.591	12.98
865.76	10.41
865.929	5.19
866.097	4.58
866.266	6.23
866.435	6.33
866.604	6.03
866.773	11.25
866.942	11.45
867.11	13.35
867.279	14.33
867.448	16.5
867.617	15.74
867.785	18.88
867.954	10.92
868.123	3.13
868.291	-4.85
868.46	0.31
868.629	-2.12
868.797	-7.66
868.966	-6.96
869.134	0.77
869.303	10.08
869.472	16.21
869.64	15.98
869.809	15.17
869.977	16.3
870.146	19.33
870.314	18.1
870.482	23.04
870.651	16.21
870.819	18.78
870.988	20.6
871.156	27.41
871.324	19.54
871.493	15.73
871.661	24.34
871.829	28.63
871.998	26.99
872.166	24.98
872.334	28.48
872.502	26.06
872.671	22.87
872.839	22.96
873.007	31.47
873.175	37.06
873.343	36.36
873.512	33.83
873.68	33.21
873.848	25.68
874.016	26.44
874.184	25.8
874.352	12.71
874.52	13.49
874.688	5.17
874.856	13.61
875.024	21.54
875.192	13.23
875.36	9.57
875.528	4.88
875.696	13.25
875.864	19.8
876.032	16.41
876.199	12.43
876.367	10.2
876.535	-2.53
876.703	-19.36
876.871	-15.28
877.039	-10.06
877.206	-14.16
877.374	-9.65
877.542	-17.89
877.71	-7.96
877.877	-7.34
878.045	-5.42
878.213	1.47
878.38	6.85
878.548	4.39
878.715	9.99
878.883	4.34
879.051	11.28
879.218	1.08
879.386	5.88
879.553	9.29
879.721	12.78
879.888	12.79
880.056	23.72
880.223	34.11
880.391	19.71
880.558	16.03
880.726	34.59
880.893	35.62
881.06	33.93
881.228	25.02
881.395	35.01
881.562	34.85
881.73	27.42
881.897	21.24
882.064	35.29
882.231	20.96
882.399	25.89
882.566	20.24
882.733	30.12
882.9	9.05
883.068	33.51
883.235	31.97
883.402	46.31
883.569	40.34
883.736	48.76
883.903	60.4
884.07	60.58
884.237	61.56
884.404	58.71
884.571	79.93
884.738	80.54
884.905	81.49
885.072	78.42
885.239	80.56
885.406	79.05
