Data from Transmission_09-54-50-434.txt Node
Date: Fri Aug 24 09:54:50 EEST 2018
User: tibor.sos
Spectrometer: USB4F01757
Scans to average: 10
Trigger mode: 4
Integration Time (sec): 1.000000E-2
Electric dark correction enabled: true
Boxcar width: 10
XAxis mode: Wavelengths
Number of Pixels in Spectrum: 3648
>>>>>Begin Spectral Data<<<<<
178.758	33.95
178.974	26.72
179.191	48.87
179.407	83.84
179.624	81.61
179.84	41.42
180.057	45.66
180.273	60.72
180.489	63.38
180.706	21.45
180.922	31.74
181.138	13.12
181.355	23.78
181.571	15.51
181.787	25.4
182.004	9.31
182.22	-30.59
182.436	-6.51
182.653	39.47
182.869	22.31
183.085	35.26
183.301	52.36
183.518	51.04
183.734	46.69
183.95	36.91
184.166	37.05
184.383	74.77
184.599	82.39
184.815	61.9
185.031	57.43
185.247	71.89
185.463	55.94
185.68	50.34
185.896	50.4
186.112	75.73
186.328	71.35
186.544	130.83
186.76	140
186.976	115.64
187.192	113.72
187.408	130.35
187.624	119.48
187.84	85.37
188.056	71.96
188.272	84.12
188.488	84.52
188.704	78.15
188.92	75.01
189.136	52.36
189.352	61.67
189.568	52.86
189.784	60.51
190	96.29
190.216	117.89
190.432	115.15
190.648	104.44
190.864	191.85
191.08	112.99
191.296	85.37
191.511	79.59
191.727	83.29
191.943	130.33
192.159	83.6
192.375	80.61
192.591	121.79
192.806	172.56
193.022	92.17
193.238	191.22
193.454	196.54
193.669	227.83
193.885	233.21
194.101	475.87
194.317	252.94
194.532	1414.61
194.748	-731.93
194.964	387.25
195.18	145.92
195.395	87.27
195.611	44.02
195.827	97.25
196.042	128.11
196.258	182.63
196.473	74.45
196.689	61.58
196.905	172
197.12	-20.79
197.336	-164.06
197.551	230.98
197.767	-42900
197.982	-133.9
198.198	-116.44
198.414	-19.1
198.629	-26.1
198.845	-13.48
199.06	35.18
199.276	50.85
199.491	131.35
199.707	102.19
199.922	98.77
200.137	123.35
200.353	98.26
200.568	68.81
200.784	79.93
200.999	97.22
201.215	142.44
201.43	168.37
201.645	143
201.861	154.23
202.076	180.31
202.291	185.65
202.507	184.71
202.722	141.34
202.937	299.25
203.153	248.72
203.368	222.46
203.583	129.48
203.798	128.53
204.014	91.01
204.229	118.44
204.444	125.07
204.659	31.61
204.875	47.04
205.09	-184.03
205.305	-500
205.52	95.12
205.735	129.94
205.951	-4004
206.166	364.81
206.381	324.11
206.596	3434.55
206.811	1221.64
207.026	599.63
207.241	268.68
207.457	-552.34
207.672	-1333.06
207.887	1144.86
208.102	339.25
208.317	364.64
208.532	-685.31
208.747	905.46
208.962	716.99
209.177	-918.79
209.392	-401.56
209.607	-100.46
209.822	-66.36
210.037	-60.85
210.252	-6.93
210.467	26.15
210.682	85.05
210.897	65.12
211.112	67.13
211.326	73.42
211.541	10.25
211.756	35.72
211.971	11.9
212.186	-13.14
212.401	-64.91
212.616	-97.7
212.831	-69.56
213.045	-138.74
213.26	-57.13
213.475	-25.62
213.69	0.96
213.905	-62.28
214.119	-559.73
214.334	6077.78
214.549	651.42
214.764	-943.52
214.978	-390.78
215.193	-433.6
215.408	1151.28
215.622	-124.15
215.837	-828.89
216.052	603.45
216.266	217.97
216.481	248.8
216.696	136.33
216.91	-1324.24
217.125	56.84
217.34	136.27
217.554	124.86
217.769	35.5
217.983	73.91
218.198	156.97
218.412	122.51
218.627	48.78
218.842	-10.66
219.056	-78.74
219.271	-35.35
219.485	-113.54
219.7	-149.93
219.914	-127.17
220.129	-209.09
220.343	-127.16
220.558	-125.33
220.772	-152.34
220.986	-111.82
221.201	-297.29
221.415	519.59
221.63	274.18
221.844	235.85
222.058	278.47
222.273	304.2
222.487	331.06
222.702	448.6
222.916	465.28
223.13	233.98
223.344	237.81
223.559	133.54
223.773	140.98
223.987	185.6
224.202	189.37
224.416	258.4
224.63	192.91
224.844	185.62
225.059	185.38
225.273	1322.22
225.487	-989.6
225.701	-61.15
225.915	-15.1
226.13	0.63
226.344	1.77
226.558	-6.67
226.772	11.03
226.986	43.96
227.2	43.19
227.415	27.62
227.629	7.73
227.843	43.51
228.057	26.51
228.271	28.35
228.485	34.21
228.699	7.86
228.913	27.07
229.127	22.87
229.341	32.39
229.555	19.78
229.769	28.94
229.983	-24.07
230.197	-21.9
230.411	5.52
230.625	23.23
230.839	-37.78
231.053	-85.15
231.267	-165.61
231.481	-278.4
231.695	-39.94
231.909	138.25
232.122	81.38
232.336	75.02
232.55	95.16
232.764	84.45
232.978	120.48
233.192	232.29
233.405	194.22
233.619	53.46
233.833	2.58
234.047	80.42
234.261	-123.97
234.474	-57.89
234.688	260.93
234.902	316.51
235.116	209.7
235.329	154.17
235.543	170.62
235.757	113.8
235.97	74.59
236.184	59.47
236.398	81.8
236.612	91.7
236.825	140.19
237.039	199.89
237.252	191.1
237.466	807.36
237.68	2516.95
237.893	-153300
238.107	-409.88
238.32	877.39
238.534	-261.15
238.748	-136.11
238.961	-78.1
239.175	-82.34
239.388	-125.3
239.602	-362.76
239.815	-216.4
240.029	-391.75
240.242	-266.04
240.456	-181.88
240.669	-245.34
240.882	-238.3
241.096	-436.47
241.309	-380.14
241.523	-596.99
241.736	-857.89
241.95	2136.87
242.163	-2966.17
242.376	-874.39
242.59	-3565.6
242.803	26940
243.016	1251.06
243.23	3251.26
243.443	25740
243.656	-2773.68
243.87	-439.97
244.083	-209.48
244.296	-129.46
244.509	-81.46
244.723	-108.12
244.936	-115.04
245.149	-166.97
245.362	-151.58
245.576	-77.88
245.789	-25.8
246.002	21.79
246.215	46.12
246.428	51.68
246.641	46.21
246.855	39.46
247.068	31.52
247.281	-38.17
247.494	6.66
247.707	-6.37
247.92	-24.17
248.133	-11.42
248.346	-45.3
248.559	-28.53
248.772	-70.79
248.985	-43.95
249.198	-17.86
249.411	-26.42
249.624	-21.59
249.837	-38.82
250.05	-35.04
250.263	-57.73
250.476	-77.09
250.689	-51.78
250.902	-53.63
251.115	-53.28
251.328	-31.88
251.541	-17.24
251.754	-2.36
251.967	-11.26
252.18	-10.47
252.393	1.62
252.605	-12.75
252.818	-11.9
253.031	-23.47
253.244	-12.48
253.457	-31.33
253.67	-33.78
253.882	-22.37
254.095	-3.65
254.308	2.09
254.521	-6.88
254.733	3.09
254.946	6.42
255.159	-4.82
255.372	-1.06
255.584	-2.66
255.797	-9.52
256.01	-7.74
256.222	-15.7
256.435	-19.88
256.648	-6.16
256.86	-9.78
257.073	9.35
257.285	5.2
257.498	18.16
257.711	12.17
257.923	16.99
258.136	10.02
258.348	-8.83
258.561	-26.35
258.773	-35.88
258.986	-46.1
259.198	-81.47
259.411	-154.93
259.623	-84.19
259.836	-87.78
260.048	-64.18
260.261	-35.46
260.473	-46.5
260.686	-46.63
260.898	-39.97
261.111	-54.34
261.323	-50.32
261.535	-48.3
261.748	-38.97
261.96	-35.36
262.173	-30.93
262.385	-32.61
262.597	-28.79
262.81	-16.12
263.022	-21.1
263.234	-4.14
263.447	-0.87
263.659	7.25
263.871	12.7
264.083	6.88
264.296	3.57
264.508	-1
264.72	-12.88
264.932	-11.61
265.145	-24.79
265.357	-41.73
265.569	-52.51
265.781	-52.18
265.993	-77.6
266.205	-88.17
266.418	-96.22
266.63	-122.35
266.842	-98.33
267.054	-104.48
267.266	-93.5
267.478	-89.05
267.69	-103.55
267.902	-103.79
268.114	-111.67
268.326	-85.86
268.538	-73.97
268.75	-53.69
268.962	-75.28
269.174	-65.06
269.386	-37.95
269.598	-11.42
269.81	0.11
270.022	4.09
270.234	1.81
270.446	8.59
270.658	0.47
270.87	6.58
271.082	13.34
271.294	11.97
271.506	7.73
271.718	2.06
271.929	6.25
272.141	11.43
272.353	12.72
272.565	13.95
272.777	13.96
272.989	7.68
273.2	12.4
273.412	16.47
273.624	16.98
273.836	14.95
274.047	13.02
274.259	12.94
274.471	17.76
274.683	13.55
274.894	14.3
275.106	17.52
275.318	12.19
275.529	10.97
275.741	2.24
275.953	12.5
276.164	18.28
276.376	16.92
276.588	16.7
276.799	14.98
277.011	9.23
277.222	6.87
277.434	3.72
277.646	-11.78
277.857	-0.72
278.069	2.7
278.28	-6.41
278.492	-7.9
278.703	0.82
278.915	-0.02
279.126	4.07
279.338	-4.35
279.549	5.01
279.761	11.48
279.972	-3.47
280.183	-5.51
280.395	-7.74
280.606	-9.99
280.818	-19.13
281.029	-26.81
281.24	-31.84
281.452	-36.24
281.663	-40.93
281.875	-37.22
282.086	-27.84
282.297	-37.83
282.508	-32.47
282.72	-27.02
282.931	-28.62
283.142	-38.04
283.354	-40.92
283.565	-45.23
283.776	-40.24
283.987	-69.2
284.199	-72.4
284.41	-41.06
284.621	-25.99
284.832	-16.88
285.043	-10.07
285.254	-9.11
285.466	-8.33
285.677	4.49
285.888	-6.43
286.099	-6.85
286.31	-1.13
286.521	-12.31
286.732	-9.83
286.943	-13.49
287.154	-14.52
287.366	-20.51
287.577	-18.22
287.788	-28.84
287.999	-24.81
288.21	-33.17
288.421	-19.33
288.632	-23.42
288.843	-24.29
289.054	-27.28
289.264	-35.7
289.475	-43.23
289.686	-31.36
289.897	-26.06
290.108	-21.86
290.319	-8.23
290.53	-3.3
290.741	-14.16
290.952	-10.45
291.163	-5.4
291.373	-3.15
291.584	-2.66
291.795	-0.45
292.006	0.33
292.217	8.05
292.427	11.94
292.638	16.76
292.849	9.23
293.06	14.02
293.27	8.92
293.481	14.72
293.692	18.07
293.903	14.21
294.113	17.57
294.324	21.72
294.535	12.77
294.745	4.38
294.956	10.52
295.167	9.94
295.377	11.84
295.588	8.94
295.798	6.93
296.009	6.39
296.22	11.56
296.43	9.53
296.641	8.26
296.851	-1.74
297.062	-10.44
297.272	-1.77
297.483	-5.7
297.693	-1.97
297.904	-10.1
298.114	-10.03
298.325	2.79
298.535	-6.79
298.746	-9.1
298.956	-3.51
299.167	-2.31
299.377	-9.95
299.587	-1.97
299.798	-5.2
300.008	-16.92
300.219	-17.75
300.429	-18.23
300.639	-19.29
300.85	-14.09
301.06	-14.1
301.27	-8.22
301.481	-5.36
301.691	-20.66
301.901	-16.1
302.111	-20.64
302.322	-16.73
302.532	-16.25
302.742	-34.87
302.952	-35.63
303.163	-46.44
303.373	-57.22
303.583	-51.47
303.793	-42.75
304.003	-37.14
304.214	-35.51
304.424	-28.4
304.634	-34.52
304.844	-36.67
305.054	-32.84
305.264	-35.78
305.474	-39.41
305.684	-47.85
305.894	-37.45
306.104	-28.69
306.314	-35.98
306.525	-36.97
306.735	-36.1
306.945	-42.45
307.155	-25.42
307.365	-19.7
307.575	-13.69
307.784	-10.04
307.994	-20.33
308.204	-25.57
308.414	-21.87
308.624	-17.48
308.834	-13.42
309.044	-10.51
309.254	-3.81
309.464	-11.32
309.674	-10.73
309.884	-7.24
310.093	0.71
310.303	-6.1
310.513	-0.75
310.723	1.55
310.933	0.27
311.142	1.06
311.352	0.51
311.562	-0.84
311.772	-2.22
311.981	-1.63
312.191	-2.55
312.401	4.17
312.611	8.74
312.82	3.68
313.03	4.81
313.24	3.15
313.449	7.1
313.659	3.63
313.869	5.33
314.078	5.91
314.288	3.78
314.497	-7.08
314.707	-1.51
314.917	-5.21
315.126	0.42
315.336	5.73
315.545	2.53
315.755	6.4
315.964	3.3
316.174	6.71
316.383	8.42
316.593	14.22
316.802	12.06
317.012	8.29
317.221	11.79
317.431	5.91
317.64	10.51
317.849	1.8
318.059	-0.14
318.268	2.14
318.478	6.13
318.687	9.16
318.896	11.48
319.106	8.66
319.315	6.08
319.524	-5.1
319.734	-11.65
319.943	-13.31
320.152	-15.82
320.362	-25.15
320.571	-26.75
320.78	-37.36
320.989	-37.26
321.199	-31.96
321.408	-32.68
321.617	-41.62
321.826	-39.42
322.035	-43.84
322.245	-41.16
322.454	-35.99
322.663	-37.45
322.872	-48.01
323.081	-55.14
323.29	-53.36
323.5	-53.34
323.709	-51.76
323.918	-42.27
324.127	-43.57
324.336	-43.75
324.545	-50.65
324.754	-42.78
324.963	-43.16
325.172	-36.17
325.381	-41.88
325.59	-46.6
325.799	-49.17
326.008	-51.05
326.217	-52.41
326.426	-44.27
326.635	-37.99
326.844	-39.29
327.053	-27.31
327.262	-21.37
327.47	-25.49
327.679	-28.73
327.888	-30.81
328.097	-25.75
328.306	-28.74
328.515	-23.94
328.724	-22.08
328.932	-18.05
329.141	-15.29
329.35	-13.36
329.559	-10.9
329.768	-9
329.976	-11.68
330.185	-12.4
330.394	-4.27
330.602	-2.92
330.811	-11.1
331.02	-14.48
331.229	-14.54
331.437	-11.51
331.646	-12.47
331.855	-1.25
332.063	0.33
332.272	0.17
332.48	-5.43
332.689	-5.95
332.898	-9.87
333.106	-11.26
333.315	-9.79
333.523	-15.85
333.732	-17.89
333.94	-19.69
334.149	-23.05
334.357	-21.93
334.566	-24.85
334.774	-24.66
334.983	-26.78
335.191	-32.39
335.4	-35.56
335.608	-39.45
335.817	-61.13
336.025	-57.05
336.234	-81.67
336.442	-61.26
336.65	-62.95
336.859	-35.57
337.067	-41.55
337.275	-31.11
337.484	-32.66
337.692	-39.45
337.9	-29.11
338.109	-23.33
338.317	-26.59
338.525	-19.95
338.734	-18.06
338.942	-19.74
339.15	-32.1
339.358	-36.95
339.567	-22.24
339.775	-15.13
339.983	-25.6
340.191	-25.82
340.399	-20.9
340.608	-1.86
340.816	-7.67
341.024	0.15
341.232	-15.7
341.44	-11.5
341.648	-20.84
341.856	-18.75
342.064	-14.51
342.272	-23.47
342.481	-26.46
342.689	-23.22
342.897	-21.26
343.105	-21.18
343.313	-13.62
343.521	-9.27
343.729	-15.1
343.937	-18.54
344.145	-19.56
344.353	-8.62
344.56	-12.28
344.768	-16.18
344.976	-30.87
345.184	-38.03
345.392	-40.03
345.6	-34.14
345.808	-30.47
346.016	-32.22
346.224	-20.88
346.431	-18.27
346.639	-8.5
346.847	-13.82
347.055	-19.42
347.263	-26.48
347.471	-31.05
347.678	-30.09
347.886	-41.79
348.094	-28.68
348.302	-18.83
348.509	-23.48
348.717	-25.04
348.925	-17.41
349.132	-25.17
349.34	-22.76
349.548	-16.5
349.755	-20.57
349.963	-32.69
350.171	-31.21
350.378	-25.56
350.586	-44.07
350.793	-36.58
351.001	-42.35
351.209	-41.21
351.416	-26.99
351.624	-21.62
351.831	-25.58
352.039	-34.21
352.246	-39.54
352.454	-46.99
352.661	-59.23
352.869	-60.13
353.076	-66.63
353.284	-64.7
353.491	-55.89
353.699	-54.96
353.906	-53.59
354.113	-36.17
354.321	-29.8
354.528	-29.76
354.736	-39.88
354.943	-32.6
355.15	-38.65
355.358	-44.12
355.565	-44.26
355.772	-45.25
355.98	-39.3
356.187	-31.13
356.394	-33.69
356.601	-36.76
356.809	-26.88
357.016	-23.64
357.223	-22.13
357.43	-25.19
357.638	-22.43
357.845	-14.49
358.052	-18.28
358.259	-11.82
358.466	-26.1
358.673	-23.85
358.881	-27.26
359.088	-17.22
359.295	-19.3
359.502	-23.83
359.709	-17.14
359.916	-16.58
360.123	-25.47
360.33	-46.41
360.537	-46.36
360.744	-20.81
360.951	-18.25
361.158	-19.77
361.365	-29.39
361.572	-21.88
361.779	-9.09
361.986	-12.85
362.193	-23.34
362.4	-20.44
362.607	-34.51
362.814	-30.1
363.021	-29.34
363.228	-32.67
363.435	-34.56
363.641	-35.3
363.848	-37.16
364.055	-38.21
364.262	-25.32
364.469	-24.44
364.676	-8.93
364.882	-14.91
365.089	-27.15
365.296	-21.48
365.503	-23.43
365.709	-20.86
365.916	-26.49
366.123	-26.44
366.33	-23.85
366.536	-16.48
366.743	-21.49
366.95	-28.39
367.156	-26.67
367.363	-25.38
367.57	-27.91
367.776	-28.52
367.983	-32.11
368.19	-28.41
368.396	-37.27
368.603	-40.78
368.809	-30.37
369.016	-29.13
369.222	-29.86
369.429	-25.27
369.635	-15.06
369.842	-13.27
370.048	-6.8
370.255	-1.96
370.461	-10.09
370.668	-13.61
370.874	-24.58
371.081	-9.43
371.287	0.63
371.494	-5.06
371.7	-4.92
371.906	-8.05
372.113	-4.54
372.319	-1.14
372.526	3.93
372.732	8.79
372.938	-4.08
373.145	-7.42
373.351	-9.51
373.557	-6.77
373.763	-12.85
373.97	-21.73
374.176	-15.11
374.382	-12.8
374.588	-17.1
374.795	-16.17
375.001	-23.05
375.207	-23.18
375.413	-27.68
375.62	-31.39
375.826	-24.32
376.032	-23.73
376.238	-16.5
376.444	-25.73
376.65	-24.61
376.856	-46.67
377.062	-37.78
377.269	-21.08
377.475	-37.08
377.681	-52.69
377.887	-52.79
378.093	-56.4
378.299	-42.58
378.505	-50.97
378.711	-59.82
378.917	-56.04
379.123	-47.46
379.329	-35.47
379.535	-33
379.741	-37.31
379.947	-30.91
380.152	-30.2
380.358	-36.17
380.564	-41.1
380.77	-44.48
380.976	-45.38
381.182	-33.8
381.388	-38.22
381.594	-41.67
381.799	-34.6
382.005	-25.47
382.211	-23.05
382.417	-10.9
382.623	-24.89
382.828	-17.49
383.034	-22.58
383.24	-28.27
383.445	-29.71
383.651	-40.49
383.857	-51.84
384.063	-47.94
384.268	-75.15
384.474	-73.78
384.68	-68.32
384.885	-53.22
385.091	-48.68
385.296	-46
385.502	-41.4
385.708	-52.78
385.913	-61.17
386.119	-68.02
386.324	-75.74
386.53	-82.12
386.735	-105.37
386.941	-73.22
387.146	-78.83
387.352	-58.66
387.557	-49.81
387.763	-57.27
387.968	-59.99
388.174	-36.34
388.379	-36.69
388.585	-26.23
388.79	-34.62
388.996	-29.42
389.201	-39.55
389.406	-40.61
389.612	-48.63
389.817	-44.23
390.022	-33.74
390.228	-21.53
390.433	-20.16
390.638	-16.23
390.844	-16.41
391.049	-19.42
391.254	-20.87
391.459	-20.41
391.665	-27.86
391.87	-31.97
392.075	-19.39
392.28	-10.95
392.485	-26.19
392.691	-32.74
392.896	-43.47
393.101	-36.9
393.306	-34.47
393.511	-33.96
393.716	-24.11
393.922	-17.43
394.127	-20.44
394.332	-14.19
394.537	-25.57
394.742	-24
394.947	-29.61
395.152	-26.44
395.357	-22.08
395.562	-25.42
395.767	-34.8
395.972	-25.88
396.177	-19.22
396.382	-20.32
396.587	-17.74
396.792	-6.27
396.997	-1.36
397.202	5.83
397.407	3.22
397.611	4.6
397.816	5.43
398.021	-0.78
398.226	-4.48
398.431	-5.39
398.636	-9.09
398.841	3.42
399.045	7.89
399.25	1.35
399.455	2.56
399.66	1.64
399.864	1.84
400.069	-3.77
400.274	-3.69
400.479	-1.5
400.683	-6.13
400.888	-3.71
401.093	-13.55
401.297	-11.66
401.502	-9.68
401.707	-12.87
401.911	-7.26
402.116	-7.79
402.321	5.53
402.525	-0.69
402.73	4.5
402.934	1.99
403.139	-4.42
403.344	-12.3
403.548	-11.22
403.753	-11.05
403.957	-23.57
404.162	-35.91
404.366	-24.36
404.571	-32.6
404.775	-47.29
404.98	-44.37
405.184	-47.82
405.388	-36.48
405.593	-46.53
405.797	-41
406.002	-29.71
406.206	-41.33
406.41	-33.3
406.615	-39.71
406.819	-27.79
407.023	-29.07
407.228	-31.79
407.432	-40.35
407.636	-50.85
407.841	-44.12
408.045	-48.19
408.249	-44.48
408.453	-33.56
408.658	-29.74
408.862	-18.73
409.066	-9.84
409.27	-18.37
409.474	-25.43
409.679	-40.33
409.883	-43.79
410.087	-64.81
410.291	-70.61
410.495	-63
410.699	-70.03
410.903	-76.49
411.108	-56.91
411.312	-69.04
411.516	-69.17
411.72	-59.73
411.924	-46.62
412.128	-46.59
412.332	-40.72
412.536	-29.86
412.74	-17.73
412.944	-20.11
413.148	-31.37
413.352	-42.48
413.556	-40.19
413.76	-32.07
413.964	-12.05
414.167	-6.17
414.371	5.73
414.575	6.68
414.779	-2.79
414.983	4.85
415.187	6.91
415.391	-7.5
415.594	7.95
415.798	7.24
416.002	5.32
416.206	22.23
416.41	21.42
416.613	20.68
416.817	12.88
417.021	5.37
417.225	6.62
417.428	3.47
417.632	-0.66
417.836	1.76
418.039	3.44
418.243	7.05
418.447	10.12
418.65	8.34
418.854	19.51
419.057	25.69
419.261	25.01
419.465	23.17
419.668	31.41
419.872	23.15
420.075	15.07
420.279	15.87
420.482	6.01
420.686	10.14
420.889	10.11
421.093	11.66
421.296	6.51
421.5	6.46
421.703	2.44
421.907	14.01
422.11	10.02
422.314	2.57
422.517	-15.9
422.72	-4.56
422.924	-9.87
423.127	-24.69
423.33	-38.02
423.534	-30.72
423.737	-21.85
423.94	-19.08
424.144	-11.86
424.347	1.14
424.55	1.48
424.754	-4.65
424.957	-10.06
425.16	-3.69
425.363	1.22
425.567	2.05
425.77	-0.09
425.973	2.29
426.176	-9.87
426.379	0.58
426.582	9.62
426.786	18.18
426.989	7.51
427.192	25.26
427.395	35.42
427.598	36.18
427.801	24.61
428.004	16.99
428.207	15.06
428.41	19.83
428.613	17.96
428.816	23.35
429.019	21.46
429.222	21.13
429.425	20.83
429.628	16.43
429.831	18.57
430.034	19.53
430.237	16.41
430.44	18.65
430.643	15.73
430.846	14.54
431.049	14.86
431.252	19.27
431.454	8.65
431.657	1.09
431.86	3.66
432.063	9.11
432.266	13.05
432.469	12.78
432.671	-0.35
432.874	14.01
433.077	0.27
433.28	5.74
433.482	3.05
433.685	-1.09
433.888	2.71
434.09	2
434.293	-9.14
434.496	-3.45
434.698	-9.55
434.901	-1.89
435.104	-6
435.306	-12.64
435.509	-20.12
435.712	-19.38
435.914	-32.09
436.117	-26.3
436.319	-24.67
436.522	-23.32
436.724	-31.77
436.927	-31.57
437.129	-43.88
437.332	-38.92
437.534	-42.19
437.737	-51.65
437.939	-39.66
438.142	-47.07
438.344	-40.28
438.547	-37.12
438.749	-23.44
438.951	-20.63
439.154	-33.52
439.356	-38.65
439.558	-38.03
439.761	-42.06
439.963	-30.53
440.165	-21.39
440.368	-13.9
440.57	-31.74
440.772	-41.03
440.975	-44.61
441.177	-30.06
441.379	-33.75
441.581	-27.23
441.784	-36.09
441.986	-22.65
442.188	-25.2
442.39	-29.98
442.592	-36.26
442.795	-29.9
442.997	-39.58
443.199	-32.41
443.401	-31.3
443.603	-25.72
443.805	-33.38
444.007	-25.17
444.209	-30.35
444.411	-12.26
444.613	-19.31
444.815	-13.08
445.017	-10.51
445.219	0.73
445.421	-1.72
445.623	-5.04
445.825	-8.37
446.027	-11.15
446.229	-14.41
446.431	-3.35
446.633	-7.6
446.835	-13.94
447.037	-9.34
447.239	-0.95
447.441	-2.74
447.643	6.56
447.844	2.57
448.046	13.78
448.248	8.45
448.45	10.54
448.652	-10.36
448.853	-9.71
449.055	-2.59
449.257	-0.69
449.459	-1.79
449.66	0.87
449.862	1.59
450.064	6.27
450.266	15.45
450.467	6
450.669	-9.47
450.871	-2.55
451.072	12.32
451.274	2.26
451.475	-7.07
451.677	-0.51
451.879	-23.19
452.08	-36.34
452.282	-24.82
452.483	-35.07
452.685	-31.6
452.886	-29.1
453.088	-38.58
453.289	-49.5
453.491	-66.08
453.692	-107.01
453.894	-81.93
454.095	-71.39
454.297	-86.03
454.498	-71.07
454.7	-72.57
454.901	-56.11
455.102	-41.48
455.304	-36.39
455.505	-25.03
455.706	-24.52
455.908	-32.26
456.109	-33.49
456.31	-24.26
456.512	-38.36
456.713	-29.57
456.914	-33.41
457.116	-40.38
457.317	-33.66
457.518	-38.84
457.719	-33.87
457.921	-27.97
458.122	-45.84
458.323	-44.24
458.524	-36.82
458.725	-40.71
458.926	-40.27
459.128	-50.2
459.329	-53.05
459.53	-53.45
459.731	-68.77
459.932	-72.13
460.133	-68.73
460.334	-49.14
460.535	-30.89
460.736	-27.37
460.937	-30.35
461.138	-38.53
461.339	-18.12
461.54	-14.73
461.741	-12.4
461.942	-5.53
462.143	0.76
462.344	2.56
462.545	-4.67
462.746	1.11
462.947	-2.78
463.148	-1.64
463.348	5.3
463.549	8.89
463.75	6.21
463.951	10.8
464.152	8
464.353	-1.23
464.553	2.12
464.754	-6.7
464.955	-8.37
465.156	-6.65
465.356	-0.84
465.557	-8.73
465.758	-10.43
465.959	-3.53
466.159	-9.78
466.36	-7.7
466.561	-8.3
466.761	-6.72
466.962	-8.6
467.163	1.92
467.363	3.48
467.564	4.3
467.764	-0.51
467.965	-7.43
468.166	-13.13
468.366	-4.24
468.567	2.73
468.767	5.02
468.968	2.67
469.168	12.09
469.369	16.87
469.569	12.02
469.77	2.24
469.97	-4.03
470.17	-2.26
470.371	-1.82
470.571	-8.62
470.772	5.03
470.972	4.88
471.172	5.68
471.373	-0.62
471.573	-2.95
471.773	-7.95
471.974	-7.06
472.174	-7.57
472.374	0.61
472.575	-3.17
472.775	1.29
472.975	-8.61
473.175	-4.09
473.376	-12.15
473.576	-12.49
473.776	-7.08
473.976	-0.85
474.177	3.65
474.377	-7.57
474.577	-4.46
474.777	-9.69
474.977	-19.59
475.177	-21.92
475.377	-21.96
475.577	-22.24
475.777	-19.45
475.978	-18.8
476.178	-17.16
476.378	-11.78
476.578	-12.18
476.778	-16.14
476.978	-23.14
477.178	-22.29
477.378	-23.96
477.578	-22.92
477.778	-25.28
477.977	-26.85
478.177	-29.95
478.377	-34.62
478.577	-26.83
478.777	-24.98
478.977	-17.94
479.177	-18.54
479.377	-21.14
479.577	-24.08
479.776	-22.45
479.976	-29.09
480.176	-24.01
480.376	-20.78
480.576	-22.8
480.775	-26.58
480.975	-24.31
481.175	-21.35
481.374	-16.48
481.574	-13.15
481.774	-17.95
481.974	-17.04
482.173	-19.4
482.373	-20.3
482.572	-13.49
482.772	-16.67
482.972	-17.18
483.171	-16.03
483.371	-11.77
483.57	-10
483.77	-4.92
483.97	-7.48
484.169	-3.89
484.369	-7.5
484.568	-8.12
484.768	-4.93
484.967	-2.69
485.167	-0.73
485.366	-3.6
485.566	-7.86
485.765	-8.97
485.964	-9.73
486.164	-10.81
486.363	-7.79
486.563	-2.33
486.762	-4.78
486.961	2.14
487.161	2.33
487.36	0.03
487.559	-0.08
487.759	-0.88
487.958	-7.65
488.157	-7.11
488.356	-4.32
488.556	-3.54
488.755	-6.67
488.954	-10.62
489.153	-8.7
489.353	-8.74
489.552	-6.76
489.751	-8.76
489.95	-9.68
490.149	-8.55
490.348	-9.02
490.548	-10.31
490.747	-11.67
490.946	-10.87
491.145	-18.29
491.344	-21.41
491.543	-19.54
491.742	-20.2
491.941	-19.69
492.14	-17.64
492.339	-19.79
492.538	-18.08
492.737	-14.51
492.936	-13.08
493.135	-12.32
493.334	-20.57
493.533	-26.74
493.732	-22.54
493.931	-10.17
494.13	-11.88
494.328	-3.06
494.527	-4.81
494.726	-4.49
494.925	-10.99
495.124	-11.62
495.323	-11.43
495.521	-9.19
495.72	-7.32
495.919	-5.23
496.118	-6.78
496.316	-3.35
496.515	0.24
496.714	-8.69
496.913	-5.74
497.111	-7.04
497.31	-12.73
497.509	-9.78
497.707	-7.45
497.906	-5.69
498.105	-16.4
498.303	-16.41
498.502	-20.64
498.7	-19.02
498.899	-19.72
499.097	-17.66
499.296	-18.88
499.495	-15.59
499.693	-12.81
499.892	-14.99
500.09	-20.85
500.289	-8.77
500.487	-12.29
500.686	-13.71
500.884	-11.07
501.082	-15.96
501.281	-17.11
501.479	-12.93
501.678	-8.18
501.876	-8.34
502.074	-6.55
502.273	-3.57
502.471	-5.77
502.669	-9.36
502.868	-9.25
503.066	-9.82
503.264	-9.31
503.463	-8.58
503.661	-14.79
503.859	-16.4
504.057	-10.47
504.256	-9.76
504.454	-15.26
504.652	-15.3
504.85	-14.38
505.048	-7.14
505.246	-4.62
505.445	-4.84
505.643	-2.7
505.841	-1.39
506.039	-3.33
506.237	-11.45
506.435	-8.09
506.633	-5.34
506.831	-0.51
507.029	2.03
507.227	6.78
507.425	10.92
507.623	8.55
507.821	6.84
508.019	8.88
508.217	6.83
508.415	8.26
508.613	8.93
508.811	10.2
509.009	9.11
509.207	6.14
509.405	6.06
509.603	10.79
509.8	9.36
509.998	7.96
510.196	9.77
510.394	12.13
510.592	13.35
510.79	13.8
510.987	7.31
511.185	7.57
511.383	3.29
511.581	1.12
511.778	4.23
511.976	11.29
512.174	7.74
512.371	2.81
512.569	1.88
512.767	-0.17
512.964	-2.98
513.162	-2.64
513.36	-5.96
513.557	-10.56
513.755	-16.17
513.952	-12.42
514.15	-16.75
514.348	-16.3
514.545	-16.52
514.743	-20.1
514.94	-19.71
515.138	-17.32
515.335	-19.73
515.533	-16.22
515.73	-16.27
515.927	-19.19
516.125	-22.67
516.322	-18.07
516.52	-12.36
516.717	-10.38
516.915	-10.88
517.112	-11.19
517.309	-13.27
517.507	-10.12
517.704	-10.92
517.901	-9.94
518.099	-13.04
518.296	-10.54
518.493	-5.03
518.69	-4.1
518.888	-1.44
519.085	0.9
519.282	3.95
519.479	1.54
519.676	-1.64
519.874	-3.63
520.071	-4.72
520.268	-2.79
520.465	-5.93
520.662	-8.33
520.859	-6.78
521.056	-4.34
521.254	-0.64
521.451	3.79
521.648	1.14
521.845	1.86
522.042	7.23
522.239	7.49
522.436	5.15
522.633	-0.07
522.83	3.03
523.027	-2.9
523.224	-4.83
523.421	-1.73
523.618	-1.91
523.815	1.01
524.011	2.4
524.208	10.42
524.405	9.14
524.602	12.68
524.799	7.7
524.996	5.18
525.193	3.43
525.389	3.31
525.586	2.03
525.783	1.71
525.98	4.89
526.176	3.4
526.373	0.6
526.57	4.83
526.767	1.79
526.963	-0.95
527.16	3.68
527.357	6.85
527.553	5.18
527.75	8.11
527.947	3.83
528.143	6.56
528.34	-0.6
528.537	0.61
528.733	-5.15
528.93	-1.98
529.126	0.99
529.323	0.71
529.519	-1.25
529.716	-7.22
529.912	-10.52
530.109	-13.53
530.305	-16.11
530.502	-12.27
530.698	-13.62
530.895	-17.34
531.091	-15.74
531.288	-17.25
531.484	-19.27
531.68	-20.52
531.877	-18.03
532.073	-17.02
532.269	-19.99
532.466	-18.67
532.662	-19.09
532.858	-18.82
533.055	-18.92
533.251	-19.7
533.447	-18.65
533.643	-16.16
533.84	-15.92
534.036	-13.52
534.232	-10.76
534.428	-14.33
534.624	-15.69
534.821	-16.45
535.017	-11.48
535.213	-12.11
535.409	-12.43
535.605	-13.71
535.801	-14.26
535.997	-16.03
536.193	-18.9
536.389	-17.4
536.586	-18.15
536.782	-13.87
536.978	-13.88
537.174	-14.5
537.37	-15.45
537.566	-15.2
537.762	-18.86
537.958	-15.56
538.153	-13.53
538.349	-15.59
538.545	-11.3
538.741	-10.81
538.937	-11.31
539.133	-9.64
539.329	-11.37
539.525	-9.1
539.721	-7.26
539.916	-3.31
540.112	-7.01
540.308	-2.46
540.504	-2.56
540.699	-1.64
540.895	-5.9
541.091	-1.43
541.287	1.46
541.482	1.57
541.678	1.76
541.874	0.64
542.069	0.23
542.265	-1.82
542.461	0.73
542.656	1.32
542.852	-0.33
543.048	2.34
543.243	3.85
543.439	3.85
543.634	1.21
543.83	0.95
544.025	-0.61
544.221	2.92
544.417	6.05
544.612	7.4
544.807	8.03
545.003	7.31
545.198	1.6
545.394	0.33
545.589	3.56
545.785	2.41
545.98	2.22
546.176	3.5
546.371	4.21
546.566	1.29
546.762	-2.77
546.957	-0.44
547.152	-2.48
547.348	-5.33
547.543	-5.12
547.738	-3.63
547.933	-4.67
548.129	-3.52
548.324	-4.26
548.519	-8.19
548.714	-8.56
548.91	-9.73
549.105	-10.42
549.3	-8.67
549.495	-5.35
549.69	-11.49
549.885	-8.99
550.08	-3.68
550.276	-4.09
550.471	-1.63
550.666	-3.01
550.861	3.06
551.056	1.6
551.251	1.94
551.446	1.66
551.641	1.4
551.836	-0.49
552.031	1.65
552.226	0.37
552.421	2.07
552.616	2.43
552.811	3.42
553.006	2.38
553.201	0.85
553.395	1.23
553.59	0.02
553.785	1.71
553.98	2.44
554.175	-2.19
554.37	-2.39
554.565	-1.07
554.759	0.78
554.954	-0.28
555.149	2.68
555.344	1.58
555.538	0.98
555.733	2.49
555.928	7.16
556.122	5.44
556.317	2.21
556.512	0.14
556.706	0.57
556.901	0.94
557.096	2.46
557.29	4.5
557.485	5.41
557.68	1.8
557.874	1.89
558.069	-0.3
558.263	1.76
558.458	0.48
558.652	-3.8
558.847	-5.28
559.041	-3.26
559.236	-6.29
559.43	-4.68
559.625	-1.34
559.819	-3.01
560.014	-7.16
560.208	-5.8
560.402	-4.21
560.597	-3.33
560.791	-4
560.986	-5.15
561.18	-5.2
561.374	-4.32
561.569	-5.71
561.763	-3.22
561.957	-2.33
562.151	-3.61
562.346	-5.01
562.54	-2.98
562.734	-2.52
562.928	-1.9
563.123	-3.11
563.317	-2.83
563.511	-2.07
563.705	-6.66
563.899	-5.91
564.093	-4.95
564.288	-6.04
564.482	-4.45
564.676	-3.23
564.87	-3.31
565.064	-3.94
565.258	-5.2
565.452	-7.66
565.646	-3.85
565.84	-6.89
566.034	-7.38
566.228	-6.09
566.422	-6.56
566.616	-5.49
566.81	-5.88
567.004	-2.53
567.198	-4.44
567.392	-3.98
567.586	-6.62
567.779	-3.74
567.973	-4.5
568.167	-4.99
568.361	-5.21
568.555	-5.2
568.749	-6.68
568.942	-8.2
569.136	-6.68
569.33	-7.14
569.524	-5.85
569.718	-4.38
569.911	-2.57
570.105	-2.7
570.299	-2.54
570.492	-1.39
570.686	-1.8
570.88	-0.52
571.073	-2.41
571.267	-1.41
571.461	-1.25
571.654	-0.8
571.848	-1.07
572.041	0.09
572.235	0.4
572.429	2.34
572.622	-0.19
572.816	1.18
573.009	2.7
573.203	1.22
573.396	4.37
573.59	4.87
573.783	2.55
573.976	2.56
574.17	3.71
574.363	1.69
574.557	0.95
574.75	0.04
574.943	1.16
575.137	1.96
575.33	3.14
575.523	2.14
575.717	3.38
575.91	1.8
576.103	2.66
576.297	1.9
576.49	1.03
576.683	1.19
576.876	0.98
577.07	-0.17
577.263	1.19
577.456	0.07
577.649	-0.62
577.842	-1.28
578.036	0.88
578.229	-1
578.422	1.41
578.615	2.57
578.808	1.81
579.001	3.21
579.194	2.51
579.387	2.09
579.58	2.77
579.773	1.83
579.966	4.17
580.159	2.93
580.352	5.22
580.545	4.5
580.738	4.95
580.931	3.17
581.124	3.96
581.317	0.86
581.51	-1.51
581.703	-0.06
581.896	-0.38
582.088	-1.08
582.281	1.12
582.474	-0.22
582.667	0.84
582.86	1.38
583.053	-0.76
583.245	0.62
583.438	-0.51
583.631	-0.37
583.824	0.58
584.016	0.61
584.209	-2.09
584.402	-3.3
584.594	-1.74
584.787	-0.25
584.98	0.86
585.172	2.55
585.365	2.85
585.558	4.53
585.75	3.41
585.943	4.97
586.135	4.55
586.328	2.82
586.52	5.29
586.713	3.72
586.906	4.81
587.098	4.45
587.291	5.08
587.483	3.34
587.675	4.13
587.868	2.42
588.06	0.62
588.253	4.88
588.445	4.68
588.638	2.65
588.83	2.25
589.022	2
589.215	0.29
589.407	1.56
589.599	1.9
589.792	3.72
589.984	3.2
590.176	2.56
590.368	4.1
590.561	1.35
590.753	3.74
590.945	3.27
591.137	2.4
591.33	-0.06
591.522	1.94
591.714	0.03
591.906	3.38
592.098	3.78
592.29	1.96
592.482	1.68
592.674	2.23
592.867	2.26
593.059	2.95
593.251	2.76
593.443	2.85
593.635	0.84
593.827	-0.61
594.019	-0.91
594.211	-1.34
594.403	-1.72
594.595	-0.59
594.787	-1.75
594.979	-1.95
595.17	-0.45
595.362	2.12
595.554	2.8
595.746	3.23
595.938	1.4
596.13	1.89
596.322	1.32
596.513	-1.33
596.705	-1.37
596.897	-1.22
597.089	-1.83
597.281	-1.29
597.472	-0.7
597.664	0.39
597.856	0.48
598.048	-0.1
598.239	0.21
598.431	0.66
598.623	-1.95
598.814	-4.56
599.006	-5.04
599.197	-5.54
599.389	-6.58
599.581	-7.6
599.772	-8.43
599.964	-7.97
600.155	-8.63
600.347	-7.7
600.538	-4.33
600.73	-2.87
600.921	-3.56
601.113	-3.87
601.304	-3.94
601.496	-2.34
601.687	-3.31
601.879	-4.41
602.07	-2.04
602.262	-2.6
602.453	-3.94
602.644	-2.77
602.836	-3.98
603.027	-3.46
603.218	-3.96
603.41	-4.64
603.601	-3.61
603.792	-2.63
603.983	-2.32
604.175	-2.42
604.366	-3.53
604.557	-3.91
604.748	-5.18
604.94	-2.4
605.131	-1.62
605.322	-1.38
605.513	-2.89
605.704	-0.99
605.895	0.13
606.086	-1.91
606.278	-1.34
606.469	-0.05
606.66	0.6
606.851	1.62
607.042	1.52
607.233	1.49
607.424	1.68
607.615	-0.33
607.806	-0.09
607.997	-1.07
608.188	-0.2
608.379	-0.7
608.57	-1.7
608.761	-1.58
608.952	-3.21
609.142	-2.57
609.333	-3.32
609.524	-3.76
609.715	-4.03
609.906	-6.45
610.097	-6.1
610.287	-6.37
610.478	-6.7
610.669	-5.61
610.86	-3.93
611.051	-4.48
611.241	-4.37
611.432	-3.86
611.623	-0.82
611.813	-1.67
612.004	-1.51
612.195	0.3
612.385	1.61
612.576	2.76
612.767	2.34
612.957	0.89
613.148	0.32
613.338	0.71
613.529	0.99
613.72	0.8
613.91	3.48
614.101	4.04
614.291	5.03
614.482	4.6
614.672	2.52
614.863	1.61
615.053	0.19
615.243	1.68
615.434	1.05
615.624	-1.78
615.815	-0.95
616.005	-1.16
616.195	-4.07
616.386	-5.33
616.576	-6.18
616.766	-6.16
616.957	-5.09
617.147	-4.57
617.337	-5.89
617.528	-7.04
617.718	-7.58
617.908	-9.24
618.098	-9.09
618.289	-8.06
618.479	-8.21
618.669	-6.14
618.859	-4.04
619.049	-2.35
619.239	-2.95
619.43	-3.23
619.62	-2.76
619.81	-1.4
620	-1.26
620.19	-0.72
620.38	-2.2
620.57	-1.54
620.76	-1.18
620.95	-0.56
621.14	-1.53
621.33	0.56
621.52	2.2
621.71	2.44
621.9	2.4
622.09	1.31
622.28	-1.14
622.47	-2.47
622.659	-3.58
622.849	-5.41
623.039	-4.88
623.229	-5.11
623.419	-5.12
623.609	-4.8
623.799	-6.17
623.988	-6.39
624.178	-4.37
624.368	-2.46
624.558	-1.97
624.747	-1.38
624.937	-1.43
625.127	-3.7
625.316	-5.31
625.506	-5.67
625.696	-5.39
625.885	-6.58
626.075	-6.1
626.265	-5.03
626.454	-3.13
626.644	-2.31
626.833	-2.5
627.023	-2.56
627.212	-3.33
627.402	-1.93
627.591	-2.19
627.781	-2.78
627.97	-2.47
628.16	-4.16
628.349	-5.17
628.539	-7.54
628.728	-7.07
628.918	-7.18
629.107	-3.84
629.296	-3.58
629.486	-3.8
629.675	-2.4
629.865	-0.84
630.054	-0.19
630.243	-1.84
630.432	-2.12
630.622	-2.35
630.811	-0.76
631	-0.9
631.19	-0.06
631.379	-1.58
631.568	-1.18
631.757	-0.74
631.946	-0.67
632.136	0.32
632.325	1.19
632.514	3.37
632.703	3.08
632.892	1.06
633.081	-0.34
633.27	0.29
633.459	0.19
633.648	-2.95
633.837	-2.17
634.026	-3.1
634.215	-0.66
634.404	-0.73
634.593	0.34
634.782	0.02
634.971	0.1
635.16	-2.23
635.349	-1.46
635.538	-0
635.727	-0.91
635.916	-0.5
636.105	-0.18
636.294	0.58
636.482	0.49
636.671	0.34
636.86	3.11
637.049	4.2
637.238	5.1
637.426	5.26
637.615	5.74
637.804	4.73
637.993	5.66
638.181	4.75
638.37	5.84
638.559	5.92
638.747	5.1
638.936	5.05
639.125	7.85
639.313	6.8
639.502	6.29
639.691	6.93
639.879	5.35
640.068	4.33
640.256	2.48
640.445	2.02
640.633	1.79
640.822	-0.79
641.01	0.43
641.199	-0.56
641.387	0.69
641.576	2.58
641.764	4.11
641.953	3.59
642.141	3.8
642.329	3.32
642.518	1.44
642.706	0.72
642.894	0.16
643.083	-0.03
643.271	-0.33
643.459	-0.17
643.648	1.03
643.836	2.02
644.024	1.85
644.213	3.56
644.401	2.83
644.589	1.25
644.777	2.33
644.965	1.69
645.154	0.89
645.342	0.29
645.53	-0.22
645.718	-0.96
645.906	-1.85
646.094	-2.15
646.282	-3.97
646.47	-1.79
646.658	-1.15
646.846	-1.85
647.034	-0.27
647.223	1.88
647.411	1.67
647.599	-0.44
647.786	0.29
647.974	0.46
648.162	0.17
648.35	0.97
648.538	2.36
648.726	2.84
648.914	1.85
649.102	2.95
649.29	3.05
649.478	4.31
649.665	4.5
649.853	5.79
650.041	5.88
650.229	6.59
650.417	5.32
650.604	5.04
650.792	6.25
650.98	3.85
651.168	2.85
651.355	2.72
651.543	2.76
651.731	2.29
651.918	1.56
652.106	2.82
652.294	1.52
652.481	2.57
652.669	2.81
652.856	2.23
653.044	1.4
653.231	0.53
653.419	-1.42
653.606	-0.68
653.794	-0.19
653.981	0.85
654.169	1
654.356	0.24
654.544	2.01
654.731	1.68
654.919	0.5
655.106	0.35
655.294	0.52
655.481	2.05
655.668	2.86
655.856	2.21
656.043	1.8
656.23	3.07
656.418	2.46
656.605	1.27
656.792	1.81
656.979	3.11
657.167	3.74
657.354	4.55
657.541	4.16
657.728	3.32
657.916	2.17
658.103	0.79
658.29	2.47
658.477	1.92
658.664	1.96
658.851	2.93
659.038	2.9
659.225	1.4
659.412	0.42
659.6	-1.68
659.787	-0.77
659.974	-1.98
660.161	-1.53
660.348	-1.92
660.535	1.41
660.722	-0.63
660.909	-3.32
661.095	-2.61
661.282	-3.27
661.469	-4.25
661.656	-4.52
661.843	-3
662.03	-2.48
662.217	-1.79
662.404	-1.85
662.59	-3.27
662.777	-3.05
662.964	-2.19
663.151	-1.3
663.338	-0.26
663.524	0.24
663.711	0.03
663.898	-0.66
664.085	-0.75
664.271	-1.03
664.458	-2.63
664.645	-0.27
664.831	2.6
665.018	0.65
665.204	0.99
665.391	2.46
665.578	2.04
665.764	0.87
665.951	0.4
666.137	-1.87
666.324	-2.24
666.51	-1.62
666.697	-2.12
666.883	-2.87
667.07	-2.98
667.256	-3.28
667.443	-3.22
667.629	-3.24
667.816	-2.84
668.002	-4.13
668.188	-2.52
668.375	-3.81
668.561	-5.19
668.747	-8.29
668.934	-7.17
669.12	-7.19
669.306	-7.94
669.493	-8.37
669.679	-7.19
669.865	-5.61
670.051	-5.13
670.238	-4.51
670.424	-4.63
670.61	-4.29
670.796	-4.01
670.982	-4.59
671.169	-5.34
671.355	-7.14
671.541	-6.85
671.727	-5.91
671.913	-4.91
672.099	-6.18
672.285	-6.77
672.471	-5.51
672.657	-4.13
672.843	-3.67
673.029	-4.11
673.215	-3.46
673.401	-0.77
673.587	-1.98
673.773	-1.91
673.959	-2.35
674.145	-2.92
674.331	-1.79
674.517	-1.49
674.703	-1.72
674.888	-0.71
675.074	-1.46
675.26	0.59
675.446	0.87
675.632	-0.39
675.817	-0.6
676.003	0.03
676.189	0.35
676.375	0.45
676.56	-0.59
676.746	-1.09
676.932	-3.51
677.117	-5.05
677.303	-6.71
677.489	-6.06
677.674	-7.88
677.86	-8.33
678.046	-9.01
678.231	-9.17
678.417	-8.53
678.602	-8.29
678.788	-7.59
678.973	-6.8
679.159	-5.9
679.344	-5.34
679.53	-3.97
679.715	-2.9
679.901	-3.79
680.086	-3.54
680.272	-3.89
680.457	-2.4
680.643	-2.13
680.828	-0.45
681.013	-0.93
681.199	-0.66
681.384	0.61
681.569	1.87
681.755	3.14
681.94	4.24
682.125	3.53
682.31	4.07
682.496	3.19
682.681	2.43
682.866	2.53
683.051	2.07
683.237	1.58
683.422	0.44
683.607	-1.55
683.792	-0.66
683.977	-0.29
684.162	-1.23
684.347	-2.1
684.532	-1.97
684.717	-1.23
684.903	1.43
685.088	1.44
685.273	-0.47
685.458	-1.31
685.643	-1.39
685.828	-3.44
686.013	-1.85
686.198	-3.88
686.382	-3
686.567	-2.41
686.752	-2.56
686.937	-2.22
687.122	-2.15
687.307	-1.68
687.492	-0.62
687.677	-1.44
687.861	-0.83
688.046	-1.54
688.231	-0.58
688.416	-0.44
688.601	-0.82
688.785	-1.87
688.97	-0.76
689.155	0.72
689.339	0.84
689.524	0.06
689.709	1.01
689.893	-0.19
690.078	1.03
690.263	0.94
690.447	-0.03
690.632	-0.01
690.816	0.79
691.001	1.61
691.186	0.71
691.37	1.3
691.555	2.34
691.739	2.15
691.924	2.85
692.108	2.7
692.293	1.68
692.477	2.73
692.661	3.43
692.846	3.42
693.03	3.14
693.215	3.25
693.399	4.12
693.583	5.36
693.768	5.43
693.952	4.85
694.136	4.18
694.321	5.71
694.505	6.45
694.689	6.04
694.873	5.82
695.058	6.91
695.242	6.67
695.426	5.4
695.61	4.66
695.794	5.72
695.979	4.48
696.163	4.73
696.347	3.45
696.531	0.94
696.715	-0.69
696.899	-1.89
697.083	-1.73
697.267	-1.28
697.451	-3.06
697.635	-3.43
697.819	-3.86
698.003	-3.23
698.187	-4.2
698.371	-3.68
698.555	-3.73
698.739	-3.12
698.923	-3.34
699.107	-2.4
699.291	-1.6
699.475	-1.58
699.659	-1.92
699.842	-1.16
700.026	-0.34
700.21	-0.89
700.394	0.15
700.578	0.52
700.761	1.29
700.945	2.93
701.129	1.36
701.313	1.29
701.496	2.81
701.68	3.43
701.864	3.18
702.047	3.03
702.231	4.15
702.415	3.22
702.598	1.28
702.782	1.94
702.965	0.8
703.149	0.97
703.333	1.29
703.516	1.07
703.7	0.23
703.883	0.4
704.067	1.14
704.25	1.98
704.434	1.35
704.617	1.06
704.801	-0.77
704.984	-0.07
705.167	-0.03
705.351	-1.55
705.534	-0.99
705.718	-0.88
705.901	-0.79
706.084	-2.43
706.268	-2.04
706.451	-1.52
706.634	-0.59
706.817	-2.29
707.001	-3.61
707.184	-2.75
707.367	-2.74
707.55	-2.3
707.734	-2.67
707.917	-2.71
708.1	-3.86
708.283	-2.25
708.466	-3
708.649	-2.01
708.832	-2.05
709.015	-0.05
709.199	1.52
709.382	0.44
709.565	0.08
709.748	1.37
709.931	1.94
710.114	2.3
710.297	2.13
710.48	1.02
710.663	3.07
710.846	3.58
711.028	2.99
711.211	2.04
711.394	2.37
711.577	1.9
711.76	1.5
711.943	2.66
712.126	2.32
712.309	3.71
712.491	3.68
712.674	2.7
712.857	2.49
713.04	1.09
713.222	2.33
713.405	3.34
713.588	2.14
713.771	1.52
713.953	1.15
714.136	1.47
714.319	1.07
714.501	-0.21
714.684	-0.89
714.866	-0.11
715.049	1.35
715.232	2.28
715.414	2.13
715.597	2.39
715.779	1.46
715.962	2.13
716.144	0.94
716.327	0.96
716.509	1.37
716.692	-1.14
716.874	-1.24
717.057	-2.39
717.239	-2.83
717.421	-2.38
717.604	-5.09
717.786	-3.84
717.968	-2.66
718.151	-3.18
718.333	-3.68
718.515	-2.46
718.698	-3.74
718.88	-3.99
719.062	-5.49
719.244	-5.94
719.427	-6.16
719.609	-4.29
719.791	-6.56
719.973	-6.62
720.155	-8.05
720.338	-7.45
720.52	-4.66
720.702	-3.11
720.884	-2.15
721.066	-2.33
721.248	-5.35
721.43	-1.44
721.612	-1.55
721.794	-1.54
721.976	-0.22
722.158	1.3
722.34	1.68
722.522	2.59
722.704	0.89
722.886	1.54
723.068	1.72
723.25	2.51
723.432	2.51
723.614	4.27
723.796	4.44
723.977	4.28
724.159	4.31
724.341	2.21
724.523	-0.62
724.705	-0.52
724.886	-0.74
725.068	2.57
725.25	2.56
725.432	1.02
725.613	-1.66
725.795	-1.42
725.977	-2.14
726.158	-2.27
726.34	-3.3
726.522	-1.88
726.703	-2.14
726.885	-1.63
727.066	-2.94
727.248	-3.23
727.43	-2.87
727.611	-0.96
727.793	-0.92
727.974	-1.04
728.156	0.43
728.337	1.11
728.519	-0.7
728.7	0.5
728.882	-0.92
729.063	-1.61
729.244	-1.49
729.426	0.59
729.607	0.28
729.788	0.79
729.97	1.65
730.151	2.35
730.332	3.95
730.514	5.53
730.695	5.62
730.876	7.58
731.058	5.11
731.239	3.83
731.42	1.89
731.601	2.04
731.782	1.61
731.964	1.17
732.145	1.99
732.326	1.81
732.507	0.15
732.688	1.89
732.869	2.6
733.05	3.99
733.231	4.72
733.412	2.37
733.593	3.1
733.774	1.81
733.955	1.34
734.136	-0.46
734.317	-2.45
734.498	-1.41
734.679	-2.06
734.86	-2.18
735.041	-1.6
735.222	-0.59
735.403	-0.08
735.584	0.77
735.765	1.67
735.946	2.56
736.126	2.44
736.307	5.23
736.488	4.06
736.669	1.03
736.849	-0.22
737.03	-0.95
737.211	2.81
737.392	2.85
737.572	-0.25
737.753	-0.59
737.934	-0.66
738.114	0.89
738.295	-0.31
738.476	0.27
738.656	2.82
738.837	3.84
739.017	4.03
739.198	4.22
739.378	5.08
739.559	4.12
739.74	3.49
739.92	3.98
740.1	2.82
740.281	0.71
740.461	1.58
740.642	2.4
740.822	1.31
741.003	2.19
741.183	-0.08
741.363	3.09
741.544	3.11
741.724	2.78
741.904	0.75
742.085	0.02
742.265	-1.04
742.445	-1.98
742.626	-1.68
742.806	-2.49
742.986	-2.59
743.166	-3.72
743.347	-4.49
743.527	-3.86
743.707	-4.78
743.887	-6.26
744.067	-5.48
744.247	-4.17
744.427	-4.81
744.608	-5.61
744.788	-7.46
744.968	-6.2
745.148	-4.5
745.328	-4.11
745.508	-3.77
745.688	-2.48
745.868	-2.51
746.048	-3.86
746.228	-3.76
746.408	-5.8
746.588	-6.12
746.767	-5.75
746.947	-5.59
747.127	-4.71
747.307	-6.76
747.487	-5.06
747.667	-4.31
747.847	-2.43
748.026	-3.74
748.206	-2.94
748.386	-0.87
748.566	-1.17
748.745	-0.12
748.925	-0.98
749.105	0.04
749.285	0.72
749.464	1.73
749.644	1.13
749.824	2.5
750.003	2.5
750.183	1.67
750.362	2.49
750.542	0.85
750.722	-0.53
750.901	-1.02
751.081	0.2
751.26	-0.43
751.44	-1.19
751.619	-1.87
751.799	-2.21
751.978	-4
752.158	-4.79
752.337	-3.98
752.516	-4.58
752.696	-5.71
752.875	-5.87
753.055	-6.56
753.234	-6.52
753.413	-4.71
753.593	-3.33
753.772	-4.35
753.951	-2.86
754.13	-2.91
754.31	-3.99
754.489	-3.55
754.668	-2.07
754.847	-1.08
755.027	0.24
755.206	1.84
755.385	1.88
755.564	4.33
755.743	4.54
755.922	4.51
756.101	3.34
756.28	3.24
756.46	3.58
756.639	1.33
756.818	1.92
756.997	2.13
757.176	0.65
757.355	-0.83
757.534	0.07
757.713	0.27
757.892	-0.86
758.07	1.43
758.249	1.76
758.428	0.92
758.607	-0.14
758.786	-0.13
758.965	-1.52
759.144	-0.84
759.323	-2.58
759.501	-3.21
759.68	-3.51
759.859	-2.39
760.038	-1.6
760.216	-2.44
760.395	-1.3
760.574	-2.16
760.753	-1.66
760.931	0.11
761.11	1.18
761.289	0.19
761.467	0.21
761.646	0.25
761.824	0.85
762.003	-0.2
762.182	-0.83
762.36	-0.17
762.539	0.55
762.717	2.11
762.896	1.41
763.074	1.15
763.253	2.34
763.431	3.16
763.61	3.01
763.788	2.02
763.966	2.83
764.145	4.15
764.323	4.57
764.502	2.28
764.68	1.25
764.858	-0.78
765.037	0.84
765.215	0.79
765.393	2.62
765.571	2.4
765.75	3.97
765.928	3.55
766.106	1.87
766.284	0.21
766.463	-0.82
766.641	-1.39
766.819	1.12
766.997	0.63
767.175	0.13
767.353	-0.35
767.531	0.54
767.71	0.73
767.888	-0.87
768.066	-1.4
768.244	-0.28
768.422	0.46
768.6	3.37
768.778	2.47
768.956	1.32
769.134	0.25
769.312	0.48
769.489	-2.05
769.667	-0.78
769.845	1.35
770.023	2.55
770.201	3.06
770.379	3.81
770.557	1.94
770.735	2.29
770.912	1.65
771.09	1.38
771.268	1.54
771.446	1.43
771.623	3.25
771.801	3.78
771.979	3.55
772.157	1.73
772.334	0.39
772.512	0.55
772.69	1.42
772.867	0.78
773.045	-0.81
773.222	1.29
773.4	1.58
773.577	-0.11
773.755	-0.29
773.933	-0.96
774.11	-0.54
774.288	-1.65
774.465	-1.2
774.643	-1.2
774.82	1.38
774.997	-0.56
775.175	-1.79
775.352	0.32
775.53	0.89
775.707	0.73
775.884	1.51
776.062	2.2
776.239	1.34
776.416	1.58
776.594	1.81
776.771	2.6
776.948	3.1
777.125	2.87
777.303	2.25
777.48	0.35
777.657	-0.03
777.834	-0.98
778.012	-0.59
778.189	0.58
778.366	0.42
778.543	-3.33
778.72	-3.16
778.897	-2.35
779.074	-4.83
779.251	-4.41
779.428	-3.54
779.605	-4.61
779.782	-6.42
779.959	-6.1
780.136	-6.7
780.313	-6.16
780.49	-7.4
780.667	-6.79
780.844	-7.54
781.021	-6.49
781.198	-5.19
781.375	-4.86
781.552	-4.18
781.728	-4.32
781.905	-4.92
782.082	-2.49
782.259	-2.12
782.436	-1.38
782.612	-2.19
782.789	-3.38
782.966	-6.31
783.143	-6.35
783.319	-2.55
783.496	-0.75
783.673	-0.54
783.849	0.22
784.026	-0
784.203	1.15
784.379	-1.35
784.556	0.08
784.732	-0.75
784.909	1.2
785.085	0.07
785.262	-1.25
785.438	0.74
785.615	0.08
785.791	-1.9
785.968	-2.54
786.144	-1.05
786.321	1.95
786.497	1.36
786.673	0.59
786.85	-0.57
787.026	-4.85
787.203	-5.87
787.379	-6.53
787.555	-10.37
787.731	-9.66
787.908	-12.17
788.084	-9.95
788.26	-12.16
788.437	-9.9
788.613	-13.11
788.789	-11.36
788.965	-11.99
789.141	-13.05
789.317	-14.34
789.494	-13.46
789.67	-10.79
789.846	-11.09
790.022	-13.01
790.198	-13.57
790.374	-11.79
790.55	-12.5
790.726	-12.13
790.902	-11.91
791.078	-9.8
791.254	-9.03
791.43	-10.02
791.606	-7.94
791.782	-10.13
791.958	-10.91
792.134	-11.82
792.31	-11.27
792.486	-13.03
792.661	-11.71
792.837	-10.09
793.013	-9.22
793.189	-10.52
793.365	-12.09
793.54	-11.55
793.716	-13.05
793.892	-10.43
794.068	-10.98
794.243	-9.87
794.419	-8.37
794.595	-8.93
794.77	-9.51
794.946	-6.54
795.122	-7.82
795.297	-9.61
795.473	-7.99
795.648	-3.33
795.824	-4.38
796	-3.69
796.175	-1.55
796.351	-2.67
796.526	-3.92
796.702	-4.28
796.877	-4.15
797.052	-3.12
797.228	-6.71
797.403	-6.31
797.579	-5.73
797.754	-3.56
797.929	-2.07
798.105	-2.68
798.28	-5.02
798.455	-4.1
798.631	-5.64
798.806	-3.89
798.981	-2.24
799.157	-1.95
799.332	-5.82
799.507	-3.42
799.682	-2.43
799.858	-3.99
800.033	-2.58
800.208	-1.07
800.383	-1.66
800.558	-0.9
800.733	-1.05
800.908	2.56
801.083	4.24
801.258	1.71
801.434	2.49
801.609	1.01
801.784	2.12
801.959	5.96
802.134	4.22
802.309	4.27
802.484	4.75
802.658	6.68
802.833	3.39
803.008	5.12
803.183	5.43
803.358	4.27
803.533	6.25
803.708	4.7
803.883	4.04
804.057	1.08
804.232	2.73
804.407	2.03
804.582	1.98
804.756	0.24
804.931	0.22
805.106	-1.43
805.281	-0.65
805.455	-2.12
805.63	-1.46
805.805	-2.39
805.979	-0.18
806.154	0.11
806.328	0.35
806.503	4.59
806.678	3.15
806.852	-0.04
807.027	-2.28
807.201	-5.73
807.376	-3.47
807.55	-5.3
807.725	-1.53
807.899	-1.89
808.074	0.28
808.248	1.59
808.422	1.37
808.597	3.16
808.771	4.37
808.946	6.09
809.12	8.07
809.294	3.73
809.468	6.05
809.643	5.15
809.817	3.78
809.991	-0.89
810.166	-1.05
810.34	-1.71
810.514	-0.07
810.688	1.76
810.862	2.67
811.037	3.2
811.211	4.54
811.385	2.96
811.559	0.68
811.733	-2.04
811.907	-5.05
812.081	-8.26
812.255	-12.03
812.429	-15.29
812.603	-16.81
812.777	-18.26
812.951	-16.82
813.125	-18.03
813.299	-21.13
813.473	-21.34
813.647	-14.73
813.821	-12.62
813.995	-11.27
814.169	-12.68
814.343	-10.25
814.516	-8.7
814.69	-8.58
814.864	-12.27
815.038	-9.39
815.212	-5.95
815.385	-1.8
815.559	-1.83
815.733	1.54
815.907	4.66
816.08	6.8
816.254	6.22
816.428	5.86
816.601	6.45
816.775	6.16
816.948	6.48
817.122	7.91
817.296	5.15
817.469	3.39
817.643	5.55
817.816	6.55
817.99	3.28
818.163	6.3
818.337	5.7
818.51	8.34
818.684	8.15
818.857	8.22
819.031	1.62
819.204	2.33
819.377	2.24
819.551	0.98
819.724	1.35
819.897	3.79
820.071	5.01
820.244	3.49
820.417	2.47
820.591	1.4
820.764	4.3
820.937	5.47
821.11	1.49
821.284	-0.01
821.457	4.25
821.63	4.63
821.803	0.72
821.976	2.9
822.149	4.52
822.322	5.9
822.496	4.1
822.669	5.4
822.842	7.93
823.015	5.95
823.188	6.73
823.361	6.93
823.534	1.86
823.707	2.83
823.88	2.57
824.053	1.58
824.226	3.45
824.399	0.78
824.571	2.09
824.744	6.59
824.917	8.34
825.09	6.04
825.263	9.1
825.436	9.75
825.608	5.73
825.781	6.43
825.954	8.59
826.127	8.42
826.299	8.64
826.472	3.54
826.645	8.25
826.818	9.55
826.99	6.29
827.163	7.62
827.336	5.59
827.508	4.82
827.681	6.97
827.853	9.49
828.026	7.46
828.198	5.66
828.371	6.42
828.544	4.2
828.716	3.06
828.889	0.79
829.061	-1.2
829.233	1.11
829.406	-0.58
829.578	-6.26
829.751	-5.72
829.923	-7.35
830.096	-9.62
830.268	-12.8
830.44	-13.77
830.613	-9.86
830.785	-11.11
830.957	-10.94
831.129	-6.49
831.302	-7.6
831.474	-11.46
831.646	-9.83
831.818	-9.56
831.991	-14.44
832.163	-13.63
832.335	-14.84
832.507	-13.81
832.679	-13.11
832.851	-13.92
833.023	-13.85
833.195	-13.35
833.368	-15.35
833.54	-13.14
833.712	-13.65
833.884	-10.81
834.056	-12.38
834.228	-14.3
834.4	-10.33
834.571	-9.68
834.743	-14.66
834.915	-14.49
835.087	-16.35
835.259	-13.35
835.431	-14.74
835.603	-15.15
835.775	-16.85
835.946	-17.07
836.118	-18.48
836.29	-20.19
836.462	-23.28
836.634	-25.21
836.805	-24.96
836.977	-23.18
837.149	-21.52
837.32	-14.07
837.492	-11.65
837.664	-11.52
837.835	-14.8
838.007	-21.29
838.179	-22.6
838.35	-14.1
838.522	-8.23
838.693	-5.7
838.865	-12.92
839.036	-17.24
839.208	-10.44
839.379	-7.53
839.551	-4.44
839.722	-2.96
839.894	-3.05
840.065	-0.71
840.237	-0.78
840.408	-0.35
840.579	3.65
840.751	2.82
840.922	1.97
841.093	-2.34
841.265	-3.15
841.436	0.61
841.607	2.34
841.778	2.36
841.95	-0.32
842.121	-5.55
842.292	-6.94
842.463	-2.03
842.635	4.29
842.806	2.52
842.977	-3.77
843.148	-7.21
843.319	-7.55
843.49	-8.47
843.661	-13.26
843.832	-8.69
844.003	-6.15
844.174	-9.39
844.345	-8.49
844.516	-14.12
844.687	-16.65
844.858	-13.1
845.029	-13.42
845.2	-9.52
845.371	-9.59
845.542	-13.54
845.713	-17.41
845.884	-17.88
846.055	-20.34
846.225	-21.44
846.396	-27.37
846.567	-15.15
846.738	-20.87
846.909	-17.87
847.079	-12.93
847.25	-9.7
847.421	-16.21
847.591	-24.59
847.762	-24.17
847.933	-28.7
848.103	-25.07
848.274	-27.35
848.445	-23.35
848.615	-26.43
848.786	-25.61
848.956	-24.06
849.127	-19.58
849.297	-9
849.468	1.19
849.638	0.47
849.809	-1.13
849.979	-4.04
850.15	-7.21
850.32	1.28
850.491	-2.34
850.661	0.97
850.831	6
851.002	9.53
851.172	10.16
851.342	4.65
851.513	5.39
851.683	4.57
851.853	7.49
852.024	5.33
852.194	8.69
852.364	4.44
852.534	7.55
852.705	8.46
852.875	5.4
853.045	2.1
853.215	1.74
853.385	4.37
853.555	11.74
853.725	11.8
853.895	9.48
854.066	9.92
854.236	4.06
854.406	-5.02
854.576	-4.96
854.746	-7.54
854.916	-2.34
855.086	-4.95
855.256	-4.34
855.425	-3.06
855.595	4.04
855.765	-3.61
855.935	-2.94
856.105	-6.01
856.275	-3.75
856.445	-4.93
856.614	-6.54
856.784	4.49
856.954	1.22
857.124	-4.46
857.294	-7.9
857.463	-9.14
857.633	-6.25
857.803	-5.3
857.972	1.14
858.142	5.38
858.312	13.06
858.481	13.86
858.651	9.46
858.821	9.2
858.99	6.83
859.16	0.23
859.329	6.13
859.499	10.94
859.668	12.88
859.838	13.35
860.007	18.01
860.177	17.75
860.346	9.8
860.516	8.6
860.685	9.52
860.854	10.11
861.024	1.98
861.193	-2.76
861.363	-2.01
861.532	-4.21
861.701	-8.57
861.87	-13.66
862.04	-11.96
862.209	-8.01
862.378	-0.96
862.547	-0.76
862.717	1.1
862.886	3.83
863.055	-4.34
863.224	-2.26
863.393	-6.63
863.563	-11.98
863.732	-8.34
863.901	-13.77
864.07	-11.85
864.239	-13.76
864.408	-11.36
864.577	-3.53
864.746	5.84
864.915	5.55
865.084	9.71
865.253	12.18
865.422	12.43
865.591	8.31
865.76	8.68
865.929	4.8
866.097	5.32
866.266	-2.79
866.435	-6.02
866.604	2.59
866.773	0.79
866.942	-1.93
867.11	-4.47
867.279	-12.56
867.448	-5.14
867.617	-5.7
867.785	-7.98
867.954	-16.39
868.123	-15.15
868.291	-32.97
868.46	-22.99
868.629	-24.49
868.797	-31.06
868.966	-41.84
869.134	-38.81
869.303	-23.61
869.472	-27.73
869.64	-29.12
869.809	-22.86
869.977	-21.25
870.146	-24.72
870.314	-28.59
870.482	-26.2
870.651	-23.47
870.819	-24.58
870.988	-22.89
871.156	-21.73
871.324	-18.36
871.493	-24.59
871.661	-15.79
871.829	-2.2
871.998	-12.29
872.166	-32.73
872.334	-29.49
872.502	-18.37
872.671	-24.47
872.839	-21.16
873.007	-8.89
873.175	-11.27
873.343	-14.36
873.512	-19.59
873.68	-15.29
873.848	-18.14
874.016	-21.06
874.184	-29.84
874.352	-25.54
874.52	-21.7
874.688	-24.12
874.856	-17.04
875.024	-13.98
875.192	-24.98
875.36	-51.02
875.528	-45.99
875.696	-24.1
875.864	-19.63
876.032	-19.54
876.199	-22.19
876.367	-29.38
876.535	-43.97
876.703	-32.83
876.871	-18.32
877.039	-2.71
877.206	1.39
877.374	7.01
877.542	14.35
877.71	20.17
877.877	21.64
878.045	25.32
878.213	27.4
878.38	35
878.548	37.79
878.715	39.4
878.883	49.63
879.051	59.3
879.218	45.18
879.386	35.63
879.553	29.9
879.721	28.43
879.888	27.24
880.056	31.69
880.223	26.98
880.391	15.99
880.558	5.58
880.726	9.96
880.893	-7.02
881.06	-12.58
881.228	-27.22
881.395	-30.51
881.562	-27.62
881.73	-53.78
881.897	-76.68
882.064	-61.56
882.231	-61.04
882.399	-65.52
882.566	-75.6
882.733	-76.82
882.9	-116.04
883.068	-75.41
883.235	-45.55
883.402	-38.26
883.569	-22.59
883.736	1.75
883.903	5.39
884.07	3.24
884.237	-11.85
884.404	1.44
884.571	2.64
884.738	18.15
884.905	31.1
885.072	33.33
885.239	43.69
885.406	43.5
