Data from Transmission_09-13-13-741.txt Node
Date: Fri Aug 24 09:13:13 EEST 2018
User: tibor.sos
Spectrometer: USB4F01757
Scans to average: 10
Trigger mode: 4
Integration Time (sec): 1.000000E-2
Electric dark correction enabled: true
Boxcar width: 10
XAxis mode: Wavelengths
Number of Pixels in Spectrum: 3648
>>>>>Begin Spectral Data<<<<<
178.758	21.07
178.974	27.48
179.191	-32.63
179.407	34.62
179.624	34.85
179.84	12.57
180.057	1.67
180.273	7.2
180.489	-48.17
180.706	-159.72
180.922	-120.1
181.138	-127.57
181.355	-75.64
181.571	-71.42
181.787	-84.53
182.004	-85.2
182.22	-180.14
182.436	-234.36
182.653	-150.03
182.869	-130.33
183.085	-208.83
183.301	-167.08
183.518	-82.46
183.734	-82.12
183.95	-119.91
184.166	-119.87
184.383	-82.18
184.599	-91.78
184.815	-100.26
185.031	-61.42
185.247	-44.68
185.463	-49.67
185.68	-37.42
185.896	-61.09
186.112	-54.51
186.328	-35.41
186.544	-48.89
186.76	-17.01
186.976	10.84
187.192	8.81
187.408	3.22
187.624	26.62
187.84	7.09
188.056	-2.25
188.272	13.96
188.488	17.37
188.704	37.19
188.92	49.42
189.136	50.28
189.352	62.96
189.568	63.66
189.784	74.33
190	85.48
190.216	78.98
190.432	88.61
190.648	61.64
190.864	58.23
191.08	109.55
191.296	59.49
191.511	70.24
191.727	83.38
191.943	100.57
192.159	79.77
192.375	81.86
192.591	139.23
192.806	225.75
193.022	158.53
193.238	214.8
193.454	81.95
193.669	85.22
193.885	49.91
194.101	7.51
194.317	51.51
194.532	-422.47
194.748	336.13
194.964	47.59
195.18	34.13
195.395	53.78
195.611	55.36
195.827	96.66
196.042	186.35
196.258	173.25
196.473	82.82
196.689	58.89
196.905	56.47
197.12	-712.87
197.336	-324.56
197.551	476.86
197.767	-144800
197.982	-245.04
198.198	-991.78
198.414	-817.98
198.629	-200.46
198.845	-129.12
199.06	-117.85
199.276	-124.57
199.491	-940.54
199.707	-175.88
199.922	-96.94
200.137	-123.42
200.353	-146.23
200.568	-96
200.784	-135.36
200.999	-125.64
201.215	-219.46
201.43	-241.74
201.645	-177.28
201.861	-203.69
202.076	-181.07
202.291	-173.43
202.507	-226.62
202.722	-180.69
202.937	-386.49
203.153	-300.17
203.368	-210.26
203.583	-88.83
203.798	-127.12
204.014	-106.5
204.229	-108.12
204.444	-110.46
204.659	-406.88
204.875	-636.76
205.09	2161.34
205.305	-5977.36
205.52	2552.85
205.735	1600
205.951	-10848
206.166	665.32
206.381	458
206.596	3781.82
206.811	1607.02
207.026	618.45
207.241	221.12
207.457	-346.42
207.672	-1242.98
207.887	1091.59
208.102	383.3
208.317	331.62
208.532	-1023.73
208.747	1200
208.962	955.98
209.177	-1503.36
209.392	-685.36
209.607	-193.26
209.822	-120.69
210.037	-121.03
210.252	-187.71
210.467	-221.96
210.682	-20.4
210.897	-22.09
211.112	-116.18
211.326	-54.29
211.541	-118.26
211.756	-51.24
211.971	-188.21
212.186	-97.6
212.401	-163.57
212.616	-140.82
212.831	-121.27
213.045	-165.55
213.26	-79.53
213.475	-57.06
213.69	-73.8
213.905	-126.96
214.119	-497.74
214.334	6281.48
214.549	636.44
214.764	-717.1
214.978	-460.07
215.193	-762.06
215.408	6492.31
215.622	-828.68
215.837	-4524.44
216.052	2781.61
216.266	623.8
216.481	638.93
216.696	484.45
216.91	-6606.06
217.125	-635.87
217.34	-961.66
217.554	-970.81
217.769	454.76
217.983	289.07
218.198	439.6
218.412	627.65
218.627	-389.31
218.842	-194.23
219.056	-225.48
219.271	-182.19
219.485	-392.1
219.7	-416.64
219.914	-184.22
220.129	-364.35
220.343	-237.9
220.558	-187.34
220.772	-271.79
220.986	-185.52
221.201	-309.48
221.415	490.21
221.63	248.26
221.844	218.3
222.058	254.96
222.273	302.2
222.487	314.86
222.702	448.47
222.916	465.68
223.13	269.16
223.344	260.77
223.559	178.58
223.773	173.87
223.987	181.55
224.202	203.47
224.416	280.82
224.63	196.83
224.844	160.68
225.059	173.11
225.273	1248.48
225.487	-1081.6
225.701	-105.09
225.915	-60.96
226.13	-29.18
226.344	-12.55
226.558	10.04
226.772	19.99
226.986	39.52
227.2	48.84
227.415	56.48
227.629	52.87
227.843	27.32
228.057	65.41
228.271	45.37
228.485	36.89
228.699	47.85
228.913	23.92
229.127	27.26
229.341	17.42
229.555	-3.1
229.769	-10.9
229.983	-66.97
230.197	-26.22
230.411	11.45
230.625	-67.48
230.839	-5.47
231.053	-150.66
231.267	-213.76
231.481	-199.06
231.695	-172.97
231.909	-64.82
232.122	16.35
232.336	52.19
232.55	-16.82
232.764	2.17
232.978	15.64
233.192	-75.72
233.405	-72.95
233.619	-26
233.833	-61.37
234.047	-163.53
234.261	-442.9
234.474	-261.99
234.688	695.81
234.902	575.24
235.116	360.49
235.329	358.41
235.543	644.74
235.757	354.53
235.97	238.4
236.184	208.56
236.398	169.35
236.612	212.74
236.825	302.18
237.039	427.03
237.252	407.96
237.466	1615.58
237.68	5749.15
237.893	-296400
238.107	-1165.22
238.32	2386.09
238.534	-597.6
238.748	-311.5
238.961	-212.55
239.175	-297.11
239.388	-407.52
239.602	-722.58
239.815	-299.56
240.029	-519.24
240.242	-344.85
240.456	-291.87
240.669	-273.9
240.882	-232.71
241.096	-353.93
241.309	-222.12
241.523	-252.74
241.736	-464.99
241.95	1280.45
242.163	-1413.53
242.376	-545.7
242.59	-2057.6
242.803	15786.67
243.016	727.49
243.23	1973.11
243.443	14453.33
243.656	-1416.54
243.87	-234.34
244.083	-105.93
244.296	-108.73
244.509	-110.14
244.723	-150.03
244.936	-115.51
245.149	-204.57
245.362	-171.33
245.576	-120.15
245.789	-149.4
246.002	-101.13
246.215	-99.7
246.428	-50.36
246.641	-84.22
246.855	-125.45
247.068	-192.18
247.281	-223.88
247.494	-87.9
247.707	-139.26
247.92	-155.88
248.133	-113.89
248.346	-130.92
248.559	-75.05
248.772	-85.64
248.985	-36.69
249.198	-7.8
249.411	-6.07
249.624	-8.2
249.837	-24.36
250.05	-16.64
250.263	-6.81
250.476	-23.45
250.689	-20.58
250.902	-20.38
251.115	-14.95
251.328	-3.72
251.541	13.32
251.754	20.3
251.967	7.42
252.18	14.71
252.393	12.92
252.605	15.81
252.818	14.94
253.031	-0.43
253.244	2.25
253.457	-15.66
253.67	-14.06
253.882	-6.59
254.095	2.23
254.308	9.34
254.521	7.77
254.733	7.06
254.946	8.21
255.159	11.47
255.372	2.75
255.584	-6.65
255.797	-17.37
256.01	-41.67
256.222	-39.74
256.435	-38.84
256.648	-31.1
256.86	-38.15
257.073	-48.71
257.285	-50.34
257.498	-62.76
257.711	-63.89
257.923	-44.45
258.136	-55.19
258.348	-62.01
258.561	-67.61
258.773	-85.49
258.986	-125.88
259.198	-168.26
259.411	-259.37
259.623	-214.87
259.836	-183.9
260.048	-128.44
260.261	-74.36
260.473	-52.57
260.686	-60.45
260.898	-59.1
261.111	-61.02
261.323	-44.26
261.535	-35.89
261.748	-25.27
261.96	-23.64
262.173	-18.24
262.385	-16.74
262.597	-7.02
262.81	-1.2
263.022	-9.52
263.234	0.98
263.447	10.37
263.659	11.63
263.871	16.18
264.083	17.28
264.296	16.1
264.508	4.05
264.72	-1.23
264.932	-2.97
265.145	-12.87
265.357	-27.37
265.569	-35.65
265.781	-42.47
265.993	-61.51
266.205	-90.11
266.418	-78.68
266.63	-120.05
266.842	-97.95
267.054	-100.92
267.266	-99.12
267.478	-91.32
267.69	-79.08
267.902	-84.81
268.114	-102.36
268.326	-91.56
268.538	-103.04
268.75	-82.91
268.962	-97.79
269.174	-92.98
269.386	-57.7
269.598	-32.26
269.81	-15.56
270.022	-21.38
270.234	-12.52
270.446	-5.21
270.658	-7.03
270.87	-4.72
271.082	-1.74
271.294	-2.05
271.506	-4.3
271.718	-11.39
271.929	-8.72
272.141	-11.56
272.353	-5.62
272.565	0.22
272.777	-0.68
272.989	1.57
273.2	3.22
273.412	5.91
273.624	3.21
273.836	-1.27
274.047	-0.47
274.259	0.45
274.471	7.39
274.683	0.21
274.894	-0.77
275.106	-1.37
275.318	-7.68
275.529	-8.42
275.741	-16.75
275.953	-13.51
276.164	-3.45
276.376	-3.89
276.588	-4.84
276.799	-10.44
277.011	-20.9
277.222	-17.14
277.434	-29.04
277.646	-39.19
277.857	-33.82
278.069	-26.53
278.28	-25.64
278.492	-34.54
278.703	-36.27
278.915	-17.59
279.126	-22.37
279.338	-20.51
279.549	-12.89
279.761	-4.37
279.972	-5.59
280.183	-4.31
280.395	-7.72
280.606	-17.28
280.818	-28.34
281.029	-28.45
281.24	-28.6
281.452	-30.21
281.663	-34.09
281.875	-31.77
282.086	-25.5
282.297	-35.01
282.508	-34.35
282.72	-36.35
282.931	-34.57
283.142	-31.61
283.354	-52.63
283.565	-47.47
283.776	-57.49
283.987	-81.11
284.199	-78.02
284.41	-64.16
284.621	-52.02
284.832	-39.04
285.043	-28.75
285.254	-28.3
285.466	-32.84
285.677	-28.43
285.888	-28.98
286.099	-27.11
286.31	-17.43
286.521	-35.27
286.732	-31.9
286.943	-29.96
287.154	-26.85
287.366	-24.61
287.577	-28.08
287.788	-29.24
287.999	-31.56
288.21	-42.52
288.421	-31.33
288.632	-32.08
288.843	-29.63
289.054	-30.2
289.264	-37.05
289.475	-36.67
289.686	-27.98
289.897	-18.99
290.108	-15.45
290.319	-16.04
290.53	-13.1
290.741	-17.76
290.952	-11.49
291.163	-7.89
291.373	-6.63
291.584	-2.69
291.795	-1.06
292.006	-0.2
292.217	2.94
292.427	5.83
292.638	17.8
292.849	12.94
293.06	17.98
293.27	13.26
293.481	6.54
293.692	6.71
293.903	6.47
294.113	5.92
294.324	0.58
294.535	-3.1
294.745	-3.5
294.956	-0.16
295.167	-2.69
295.377	0.75
295.588	1.79
295.798	-3.19
296.009	-10.81
296.22	-14.84
296.43	-22.2
296.641	-28.38
296.851	-33.15
297.062	-44.92
297.272	-34.74
297.483	-49.34
297.693	-44.32
297.904	-41.46
298.114	-32.77
298.325	-27.68
298.535	-33.68
298.746	-32.11
298.956	-27.93
299.167	-25.42
299.377	-28.66
299.587	-25.8
299.798	-25.08
300.008	-30.33
300.219	-20.01
300.429	-11.74
300.639	-12.59
300.85	-8.61
301.06	-8.49
301.27	-1.76
301.481	-0.27
301.691	-7.9
301.901	2.68
302.111	0.55
302.322	-1.37
302.532	-5.09
302.742	-20.95
302.952	-20.71
303.163	-27.84
303.373	-37.56
303.583	-30.17
303.793	-25.01
304.003	-16.52
304.214	-13.62
304.424	-14.99
304.634	-23.43
304.844	-24.75
305.054	-17.06
305.264	-14.16
305.474	-13.73
305.684	-21.03
305.894	-15.63
306.104	-14.32
306.314	-20.44
306.525	-24.97
306.735	-28.8
306.945	-40.02
307.155	-24.74
307.365	-20.07
307.575	-17.04
307.784	-14.21
307.994	-21.25
308.204	-27.74
308.414	-32.33
308.624	-37.64
308.834	-24.95
309.044	-22.45
309.254	-16.22
309.464	-16.61
309.674	-15.08
309.884	-17.35
310.093	-14.66
310.303	-12.1
310.513	-2.76
310.723	-0.76
310.933	1.68
311.142	3.85
311.352	4.9
311.562	5.56
311.772	-0.17
311.981	0.17
312.191	-2.98
312.401	-1.6
312.611	1.71
312.82	-2.48
313.03	-3.49
313.24	-12.16
313.449	-9.96
313.659	-16.04
313.869	-24.53
314.078	-25.9
314.288	-23.26
314.497	-27.31
314.707	-26.88
314.917	-34.63
315.126	-29.77
315.336	-24.22
315.545	-25.33
315.755	-16.51
315.964	-17.6
316.174	-10.26
316.383	-7.67
316.593	-2.57
316.802	1.78
317.012	-3.71
317.221	0.69
317.431	0.46
317.64	6.91
317.849	4.73
318.059	3.56
318.268	10.42
318.478	17.02
318.687	17.56
318.896	20.77
319.106	14.56
319.315	13.05
319.524	3.22
319.734	0.32
319.943	-0.67
320.152	-4.38
320.362	-5.12
320.571	-4.21
320.78	-8.49
320.989	-7.33
321.199	-7.51
321.408	-3.22
321.617	-5.77
321.826	-6.32
322.035	-15.26
322.245	-15.89
322.454	-16.57
322.663	-22.33
322.872	-34.1
323.081	-40.37
323.29	-48.63
323.5	-45
323.709	-41.63
323.918	-37.73
324.127	-41.36
324.336	-46.26
324.545	-52.12
324.754	-55.76
324.963	-60.9
325.172	-55.49
325.381	-58.12
325.59	-63.87
325.799	-73.01
326.008	-79.41
326.217	-91.19
326.426	-77.6
326.635	-73.02
326.844	-59.43
327.053	-44.07
327.262	-39.15
327.47	-34.44
327.679	-24.11
327.888	-30.49
328.097	-30.24
328.306	-28.48
328.515	-28.72
328.724	-17.06
328.932	-15.53
329.141	-13.66
329.35	-16.15
329.559	-16.59
329.768	-11.75
329.976	-9.16
330.185	-9.09
330.394	-1.17
330.602	6.41
330.811	-6.76
331.02	-13.75
331.229	-21.09
331.437	-22.57
331.646	-19.46
331.855	-22.58
332.063	-32.83
332.272	-31.5
332.48	-40.13
332.689	-36.1
332.898	-44.09
333.106	-49.72
333.315	-45.34
333.523	-40.58
333.732	-39.24
333.94	-37.78
334.149	-39.43
334.357	-46.85
334.566	-39.04
334.774	-48.78
334.983	-47
335.191	-37.34
335.4	-33.1
335.608	-33.2
335.817	-43.93
336.025	-48.69
336.234	-49.94
336.442	-37.1
336.65	-33.71
336.859	-23.75
337.067	-28.42
337.275	-15.69
337.484	-22.6
337.692	-24.86
337.9	-28.12
338.109	-27.55
338.317	-35.51
338.525	-36.05
338.734	-30.27
338.942	-44.18
339.15	-45.13
339.358	-57.65
339.567	-43.16
339.775	-45.47
339.983	-57.45
340.191	-65
340.399	-62.34
340.608	-38.28
340.816	-34.44
341.024	-31.49
341.232	-40.54
341.44	-39.62
341.648	-37.28
341.856	-34.04
342.064	-38.31
342.272	-46.73
342.481	-44.72
342.689	-37.38
342.897	-32.55
343.105	-37.11
343.313	-19.11
343.521	-16.66
343.729	-12.5
343.937	-23.97
344.145	-31.14
344.353	-26.23
344.56	-23.57
344.768	-25.89
344.976	-42.72
345.184	-44.5
345.392	-45.23
345.6	-37.99
345.808	-37.48
346.016	-37.35
346.224	-36.27
346.431	-26.84
346.639	-13.12
346.847	-14.38
347.055	-14.47
347.263	-16.66
347.471	-7.46
347.678	-21.86
347.886	-31.54
348.094	-33.85
348.302	-25.42
348.509	-20.42
348.717	-19.7
348.925	-17.95
349.132	-16.15
349.34	-14.2
349.548	-19.89
349.755	-18.74
349.963	-18.92
350.171	-23.69
350.378	-21.51
350.586	-23.89
350.793	-25.67
351.001	-24.34
351.209	-26.51
351.416	-17.44
351.624	-24.85
351.831	-34.92
352.039	-36.62
352.246	-37.24
352.454	-44.18
352.661	-46.05
352.869	-38.74
353.076	-39.18
353.284	-29.92
353.491	-21.67
353.699	-22.24
353.906	-21.57
354.113	-19.19
354.321	-27.08
354.528	-24.88
354.736	-31.99
354.943	-31.2
355.15	-33.97
355.358	-49.88
355.565	-53.65
355.772	-69.53
355.98	-60.35
356.187	-58.57
356.394	-59.39
356.601	-56.24
356.809	-39.84
357.016	-37.07
357.223	-45.52
357.43	-56.49
357.638	-63.34
357.845	-60.03
358.052	-70.4
358.259	-62.91
358.466	-73.65
358.673	-72.09
358.881	-71.18
359.088	-65.57
359.295	-55.57
359.502	-71.65
359.709	-58.09
359.916	-54.78
360.123	-45.99
360.33	-63.94
360.537	-52.73
360.744	-46.3
360.951	-50.42
361.158	-59.94
361.365	-61.3
361.572	-42.41
361.779	-19.58
361.986	-25.09
362.193	-31.52
362.4	-17.96
362.607	-31.73
362.814	-27.31
363.021	-22.37
363.228	-24.47
363.435	-18.48
363.641	-19.53
363.848	-11.37
364.055	-8.02
364.262	-4.26
364.469	-11.24
364.676	0.72
364.882	-4.53
365.089	-11.55
365.296	-5.84
365.503	-11.28
365.709	-18.72
365.916	-26.43
366.123	-31.58
366.33	-25.62
366.536	-25.36
366.743	-32.37
366.95	-32.01
367.156	-36.42
367.363	-41.05
367.57	-43.85
367.776	-43.65
367.983	-45.26
368.19	-43.64
368.396	-45.51
368.603	-44.35
368.809	-24.78
369.016	-31.51
369.222	-37.35
369.429	-27.84
369.635	-25.42
369.842	-23.99
370.048	-7.89
370.255	-5.27
370.461	-6.13
370.668	-1.94
370.874	-2.2
371.081	0.96
371.287	9.89
371.494	10.61
371.7	16.56
371.906	14.09
372.113	12.89
372.319	7.3
372.526	10.33
372.732	10.67
372.938	6.01
373.145	-5.52
373.351	1.12
373.557	1.07
373.763	-5.06
373.97	0.54
374.176	2.81
374.382	-3.31
374.588	-4.56
374.795	-7.1
375.001	-18.04
375.207	-23.78
375.413	-21.7
375.62	-21.18
375.826	-19.95
376.032	-21.72
376.238	-13.77
376.444	-23.43
376.65	-17.85
376.856	-24.77
377.062	-22.55
377.269	-15.49
377.475	-20.19
377.681	-34.73
377.887	-32.53
378.093	-29.22
378.299	-32.14
378.505	-30.69
378.711	-29.8
378.917	-27.42
379.123	-17.28
379.329	-6.18
379.535	-1.88
379.741	-9.56
379.947	-9.81
380.152	-9.85
380.358	-10.5
380.564	-11.46
380.77	-13.95
380.976	-14.14
381.182	-5.42
381.388	-2.83
381.594	-4.14
381.799	-0.86
382.005	4.79
382.211	12.86
382.417	16.9
382.623	12.44
382.828	20.21
383.034	17.63
383.24	11.34
383.445	-0.89
383.651	-6.26
383.857	-7.07
384.063	4.13
384.268	-15.03
384.474	-7.67
384.68	-13.66
384.885	-12.72
385.091	-5.37
385.296	-5.65
385.502	-11.84
385.708	-17.44
385.913	-24.64
386.119	-29.42
386.324	-33.85
386.53	-45.83
386.735	-72.64
386.941	-56.96
387.146	-65.3
387.352	-49.1
387.557	-29.03
387.763	-36.8
387.968	-41.85
388.174	-32.02
388.379	-44.07
388.585	-34.49
388.79	-45.82
388.996	-43.59
389.201	-50.59
389.406	-48.92
389.612	-51.83
389.817	-40.38
390.022	-38.93
390.228	-26.36
390.433	-29.51
390.638	-33.6
390.844	-33.14
391.049	-23.22
391.254	-23.8
391.459	-27.74
391.665	-43.75
391.87	-53.32
392.075	-34.77
392.28	-32.27
392.485	-43.99
392.691	-43.98
392.896	-42.15
393.101	-43.91
393.306	-37.35
393.511	-35.52
393.716	-34.95
393.922	-34.61
394.127	-44.09
394.332	-41.21
394.537	-45.21
394.742	-47.1
394.947	-51
395.152	-42.49
395.357	-45.05
395.562	-41.59
395.767	-50.8
395.972	-40.72
396.177	-42.7
396.382	-38.59
396.587	-30.64
396.792	-24.3
396.997	-13.64
397.202	-8.06
397.407	-6.27
397.611	-2.5
397.816	-1.13
398.021	-1.58
398.226	-4.57
398.431	-6.4
398.636	-5.31
398.841	-5.01
399.045	7.46
399.25	6.14
399.455	2.52
399.66	3.35
399.864	0.41
400.069	-0.61
400.274	1
400.479	6.31
400.683	0.15
400.888	-0.38
401.093	-9.7
401.297	-16.14
401.502	-26.56
401.707	-31.81
401.911	-30.96
402.116	-29.84
402.321	-19.91
402.525	-17.42
402.73	-19.81
402.934	-23.77
403.139	-33.97
403.344	-50.31
403.548	-40.49
403.753	-39.95
403.957	-50.81
404.162	-68.72
404.366	-46.47
404.571	-40.07
404.775	-42.59
404.98	-37.25
405.184	-35.79
405.388	-22.9
405.593	-32.65
405.797	-27.95
406.002	-15.65
406.206	-18.81
406.41	-14.94
406.615	-13.91
406.819	-6.81
407.023	0.75
407.228	-1.02
407.432	1.07
407.636	-0.06
407.841	-2.82
408.045	4.67
408.249	-0.67
408.453	11.3
408.658	7.34
408.862	6.84
409.066	9.65
409.27	4.13
409.474	-0.27
409.679	-6.87
409.883	-2.4
410.087	-7.9
410.291	-9.34
410.495	-14.9
410.699	-21.23
410.903	-22.53
411.108	-11.1
411.312	-29.61
411.516	-31.95
411.72	-29.59
411.924	-22.66
412.128	-22.13
412.332	-24.68
412.536	-18.96
412.74	-20.44
412.944	-22.95
413.148	-27.57
413.352	-33.97
413.556	-37.86
413.76	-36.93
413.964	-31.98
414.167	-28.33
414.371	-16.99
414.575	-22.09
414.779	-28.23
414.983	-21.66
415.187	-26.06
415.391	-56.51
415.594	-38.71
415.798	-38.92
416.002	-40.53
416.206	-33.81
416.41	-32.51
416.613	-40.83
416.817	-37.72
417.021	-32.26
417.225	-37.06
417.428	-49.61
417.632	-60.65
417.836	-56.94
418.039	-46.61
418.243	-38.67
418.447	-54.19
418.65	-63.17
418.854	-55.37
419.057	-38.77
419.261	-46.95
419.465	-46.29
419.668	-26.6
419.872	-37.01
420.075	-42.86
420.279	-34.51
420.482	-33.45
420.686	-26.97
420.889	-25.05
421.093	-17.85
421.296	-26.36
421.5	-21.93
421.703	-21.75
421.907	-5.8
422.11	-10.11
422.314	-24.01
422.517	-37.53
422.72	-17.12
422.924	-17.7
423.127	-30.44
423.33	-47.33
423.534	-41.68
423.737	-38.38
423.94	-49.91
424.144	-28.14
424.347	-20.13
424.55	-27.24
424.754	-34.35
424.957	-51.44
425.16	-42.24
425.363	-47.18
425.567	-43.85
425.77	-40.7
425.973	-34.41
426.176	-44.06
426.379	-23.7
426.582	-12.37
426.786	-5.27
426.989	-15.49
427.192	-4.67
427.395	4.83
427.598	5.27
427.801	-2.98
428.004	-10.41
428.207	0.4
428.41	-5.99
428.613	-12.77
428.816	-1.61
429.019	-4
429.222	-3.7
429.425	-3.8
429.628	-5.01
429.831	-1.88
430.034	-3.92
430.237	-2.32
430.44	-4.73
430.643	-12.78
430.846	-22.63
431.049	-22.28
431.252	-19.24
431.454	-22.46
431.657	-29.24
431.86	-24.76
432.063	-18.45
432.266	-12.21
432.469	-22.68
432.671	-26.09
432.874	-14.45
433.077	-27.15
433.28	-19.96
433.482	-18.21
433.685	-22.87
433.888	-23.07
434.09	-34.27
434.293	-44.96
434.496	-43.88
434.698	-44.19
434.901	-43.6
435.104	-33.18
435.306	-31.82
435.509	-38.68
435.712	-32.98
435.914	-50.43
436.117	-49.06
436.319	-44.95
436.522	-43.5
436.724	-36.79
436.927	-41.31
437.129	-38.87
437.332	-45.39
437.534	-43.53
437.737	-58.61
437.939	-51.47
438.142	-55.69
438.344	-51.39
438.547	-53.45
438.749	-48.44
438.951	-50.52
439.154	-56.67
439.356	-65.35
439.558	-64.36
439.761	-60.59
439.963	-59.75
440.165	-37.84
440.368	-33.99
440.57	-68.17
440.772	-82.1
440.975	-87.59
441.177	-68.17
441.379	-79.25
441.581	-58.58
441.784	-60.26
441.986	-34.81
442.188	-39.6
442.39	-37.42
442.592	-39.45
442.795	-30.38
442.997	-33.5
443.199	-28.05
443.401	-21.18
443.603	-17.19
443.805	-28
444.007	-15.45
444.209	-13.66
444.411	-3.59
444.613	-6.6
444.815	6.71
445.017	9.62
445.219	13.64
445.421	6.21
445.623	8.04
445.825	4.12
446.027	-1.92
446.229	-18.09
446.431	-15.2
446.633	-25.56
446.835	-22.1
447.037	-28.02
447.239	-25.54
447.441	-27.15
447.643	-37.66
447.844	-45.48
448.046	-40.49
448.248	-49.91
448.45	-55.23
448.652	-78.12
448.853	-62.41
449.055	-54.19
449.257	-55.5
449.459	-59.39
449.66	-55.22
449.862	-61.37
450.064	-42.56
450.266	-51.93
450.467	-44.26
450.669	-45.55
450.871	-60.51
451.072	-57.82
451.274	-71.89
451.475	-72.14
451.677	-62.33
451.879	-84.84
452.08	-90.68
452.282	-71.04
452.483	-80.95
452.685	-84.83
452.886	-57.24
453.088	-77.91
453.289	-103.45
453.491	-123.15
453.692	-152.91
453.894	-111.44
454.095	-79.72
454.297	-94.89
454.498	-61.64
454.7	-56.51
454.901	-45.54
455.102	-27.89
455.304	-27.3
455.505	-18.62
455.706	-16.21
455.908	-21.77
456.109	-24.56
456.31	-17.49
456.512	-19.71
456.713	-21.01
456.914	-13.55
457.116	-25.33
457.317	-17.64
457.518	-22.15
457.719	-15.37
457.921	-16.86
458.122	-27.62
458.323	-32.5
458.524	-26.14
458.725	-33.48
458.926	-33.02
459.128	-29.83
459.329	-29.16
459.53	-36.42
459.731	-56.42
459.932	-62.99
460.133	-56.23
460.334	-44.27
460.535	-28.67
460.736	-25.03
460.937	-16.64
461.138	-20.57
461.339	-20.6
461.54	-18.68
461.741	-6.37
461.942	-3.55
462.143	1.22
462.344	-6.02
462.545	-8.76
462.746	-21.21
462.947	-15.82
463.148	-12.29
463.348	-14.74
463.549	-17.88
463.75	-17.49
463.951	-1.6
464.152	0
464.353	-4.66
464.553	12.59
464.754	3.19
464.955	-0.41
465.156	-2.68
465.356	-5.25
465.557	-7.85
465.758	-10.47
465.959	-10.69
466.159	-15.66
466.36	-20.15
466.561	-14.2
466.761	-18.38
466.962	-9.96
467.163	-10.33
467.363	-12.03
467.564	-10.27
467.764	-8.13
467.965	-9.66
468.166	-11.82
468.366	-7.39
468.567	-5.35
468.767	-11.33
468.968	-16.58
469.168	-10.13
469.369	-13.91
469.569	-14.34
469.77	-13.19
469.97	-21.93
470.17	-25.59
470.371	-23.96
470.571	-22.17
470.772	-13.73
470.972	-8.47
471.172	-4.94
471.373	-8.59
471.573	-7.45
471.773	-14.58
471.974	-8.78
472.174	-7.01
472.374	-2.47
472.575	-8.59
472.775	-7.01
472.975	-12.6
473.175	-10.22
473.376	-11.84
473.576	-12.43
473.776	-6.03
473.976	-6.22
474.177	1.22
474.377	-3.85
474.577	-6.1
474.777	-4.88
474.977	-13.18
475.177	-16.58
475.377	-15.17
475.577	-5.96
475.777	-7.02
475.978	-4.85
476.178	-10.75
476.378	-10.9
476.578	-7.42
476.778	-5.88
476.978	-6.42
477.178	-4.4
477.378	-5.46
477.578	-9.97
477.778	-7.43
477.977	-12.54
478.177	-15.52
478.377	-21.38
478.577	-20.42
478.777	-11.51
478.977	-11.63
479.177	-11.11
479.377	-13.97
479.577	-19.65
479.776	-23.43
479.976	-27.47
480.176	-26.86
480.376	-28.32
480.576	-21.15
480.775	-31.19
480.975	-29.46
481.175	-28.06
481.374	-25.96
481.574	-20.07
481.774	-14.43
481.974	-15.21
482.173	-13.86
482.373	-15.84
482.572	-11
482.772	-8.38
482.972	-11.19
483.171	-9.9
483.371	-3.94
483.57	-2.79
483.77	0.74
483.97	-2.53
484.169	-2.63
484.369	-4.78
484.568	0.77
484.768	-4.35
484.967	-2.04
485.167	-2.93
485.366	-8.26
485.566	-13.68
485.765	-12.86
485.964	-22.17
486.164	-21.56
486.363	-23.45
486.563	-21.17
486.762	-23.8
486.961	-20.8
487.161	-24.43
487.36	-33.44
487.559	-37.48
487.759	-40.73
487.958	-42.92
488.157	-45.1
488.356	-40.89
488.556	-34.96
488.755	-36.05
488.954	-33.61
489.153	-34.16
489.353	-32.36
489.552	-30.1
489.751	-33.3
489.95	-38.79
490.149	-33.38
490.348	-34.43
490.548	-28.73
490.747	-32.26
490.946	-33.16
491.145	-34.91
491.344	-38.38
491.543	-32.37
491.742	-30.46
491.941	-30.17
492.14	-32.31
492.339	-28.02
492.538	-34.31
492.737	-41.98
492.936	-44.93
493.135	-51.07
493.334	-55.04
493.533	-60.65
493.732	-53.66
493.931	-41.05
494.13	-43.96
494.328	-42.04
494.527	-38.98
494.726	-46.16
494.925	-41.98
495.124	-37.6
495.323	-32.98
495.521	-30.07
495.72	-27.63
495.919	-31.44
496.118	-31.3
496.316	-32.67
496.515	-33.26
496.714	-34.46
496.913	-30.61
497.111	-32.24
497.31	-32.84
497.509	-31.14
497.707	-29.99
497.906	-26.92
498.105	-38.34
498.303	-34.27
498.502	-31.87
498.7	-29.52
498.899	-30.7
499.097	-31.36
499.296	-31.49
499.495	-35.51
499.693	-31.6
499.892	-36.12
500.09	-39.63
500.289	-26.33
500.487	-24.42
500.686	-21.04
500.884	-19.56
501.082	-20.59
501.281	-22.57
501.479	-20
501.678	-14.91
501.876	-13.44
502.074	-14.02
502.273	-8.85
502.471	-9.95
502.669	-13.89
502.868	-17.01
503.066	-11.94
503.264	-9.46
503.463	-9.86
503.661	-12.6
503.859	-16.33
504.057	-9.38
504.256	-3.11
504.454	-10.21
504.652	-11.61
504.85	-9.11
505.048	-3.05
505.246	-6.04
505.445	-2.4
505.643	-4.06
505.841	-5.87
506.039	-3.86
506.237	-5.29
506.435	-5.39
506.633	-2.93
506.831	3.4
507.029	2.35
507.227	5.72
507.425	5.39
507.623	4.77
507.821	4.86
508.019	5.5
508.217	4.34
508.415	3.3
508.613	2.51
508.811	2.33
509.009	-1.07
509.207	-6.21
509.405	-2.99
509.603	-2.35
509.8	-1.53
509.998	-3.15
510.196	-5.4
510.394	-7.16
510.592	-7.56
510.79	-8.06
510.987	-12.41
511.185	-9.92
511.383	-14.86
511.581	-16.78
511.778	-14.57
511.976	-12.76
512.174	-14.79
512.371	-22.49
512.569	-21.08
512.767	-19.15
512.964	-24.21
513.162	-23.35
513.36	-23.71
513.557	-25.78
513.755	-28.49
513.952	-23.11
514.15	-23.98
514.348	-21.65
514.545	-23.29
514.743	-19.49
514.94	-17.98
515.138	-20.36
515.335	-18.37
515.533	-18
515.73	-18.03
515.927	-25.82
516.125	-26.28
516.322	-21.59
516.52	-17.01
516.717	-14.61
516.915	-13.74
517.112	-10.99
517.309	-13.77
517.507	-10.88
517.704	-12.27
517.901	-14.24
518.099	-15.39
518.296	-14.13
518.493	-12.22
518.69	-9.33
518.888	-9.54
519.085	-12.12
519.282	-9.64
519.479	-13.98
519.676	-19.18
519.874	-25.78
520.071	-22.73
520.268	-19.48
520.465	-20.69
520.662	-17.6
520.859	-20.28
521.056	-19.2
521.254	-13.34
521.451	-9.47
521.648	-8.43
521.845	-7.84
522.042	-4.37
522.239	-3.75
522.436	-7.32
522.633	-13.21
522.83	-13.71
523.027	-17.8
523.224	-14.89
523.421	-11.36
523.618	-10.31
523.815	-2.68
524.011	2.94
524.208	4.82
524.405	3.29
524.602	3.94
524.799	-3.72
524.996	-9.53
525.193	-11.2
525.389	-16.72
525.586	-18.85
525.783	-24.96
525.98	-21.06
526.176	-22.24
526.373	-29.38
526.57	-22.33
526.767	-22.21
526.963	-23.09
527.16	-17.06
527.357	-17.2
527.553	-20.19
527.75	-22.62
527.947	-27.22
528.143	-24.5
528.34	-24.24
528.537	-27.92
528.733	-22.23
528.93	-15.07
529.126	-9.69
529.323	-9.51
529.519	-7.3
529.716	-8.4
529.912	-6.31
530.109	-6.81
530.305	-7.45
530.502	-3.25
530.698	-6.05
530.895	-8.92
531.091	-5.58
531.288	-10.8
531.484	-9.31
531.68	-8.46
531.877	-5.35
532.073	-3.28
532.269	-3.8
532.466	-7.42
532.662	-4.13
532.858	-11.73
533.055	-13.73
533.251	-12.91
533.447	-11.73
533.643	-9.91
533.84	-11.69
534.036	-13.4
534.232	-12.96
534.428	-13.36
534.624	-14.3
534.821	-15.15
535.017	-8.58
535.213	-12.06
535.409	-11.23
535.605	-15.67
535.801	-19.84
535.997	-19.08
536.193	-20.38
536.389	-19.28
536.586	-14.92
536.782	-12.17
536.978	-8.81
537.174	-5.72
537.37	-8.21
537.566	-8.77
537.762	-11.59
537.958	-5.67
538.153	-4.84
538.349	-5.9
538.545	-5.65
538.741	-7.82
538.937	-6.16
539.133	-8.72
539.329	-6.67
539.525	-6.5
539.721	-6.59
539.916	-2.76
540.112	-8.1
540.308	-7.65
540.504	-9.14
540.699	-11.86
540.895	-16.11
541.091	-12.7
541.287	-12
541.482	-11.25
541.678	-14.27
541.874	-15.79
542.069	-18.31
542.265	-15.37
542.461	-15.24
542.656	-12.02
542.852	-11.11
543.048	-10.56
543.243	-9.35
543.439	-9.09
543.634	-10.49
543.83	-6.46
544.025	-8.5
544.221	-5.9
544.417	-2.99
544.612	-1.14
544.807	0.9
545.003	-0.4
545.198	-6.41
545.394	-7.51
545.589	-5.22
545.785	-3.24
545.98	-2.08
546.176	-2.17
546.371	-4.1
546.566	-4.76
546.762	-8.87
546.957	-5.02
547.152	-5.7
547.348	-8.84
547.543	-7.68
547.738	-8.29
547.933	-14.35
548.129	-10.32
548.324	-8.99
548.519	-13.27
548.714	-13.69
548.91	-12.23
549.105	-10.92
549.3	-7.22
549.495	-5.41
549.69	-7.76
549.885	-10.78
550.08	-7.02
550.276	-5.42
550.471	0.8
550.666	2.65
550.861	4.86
551.056	0.42
551.251	0.71
551.446	2.09
551.641	0.05
551.836	0.83
552.031	4.42
552.226	2.99
552.421	2.21
552.616	3.77
552.811	6.69
553.006	4.58
553.201	2.44
553.395	3.5
553.59	2.14
553.785	0.67
553.98	5.67
554.175	0.58
554.37	-1.09
554.565	-3.76
554.759	-5.05
554.954	-5.71
555.149	-3.09
555.344	-3.45
555.538	-2.32
555.733	-0.7
555.928	2.65
556.122	1.99
556.317	-0.68
556.512	-1.67
556.706	-1.51
556.901	-5.22
557.096	-4.09
557.29	-1.98
557.485	-3.07
557.68	-6.17
557.874	-4.05
558.069	-5
558.263	-2.2
558.458	-0.27
558.652	-2.11
558.847	-1.37
559.041	1.18
559.236	-3.11
559.43	-0.57
559.625	-0.99
559.819	-2.93
560.014	-4.26
560.208	-2.52
560.402	-0.73
560.597	0.94
560.791	-1.13
560.986	-0.56
561.18	-0.4
561.374	0.46
561.569	-1.15
561.763	-0.95
561.957	0.15
562.151	-3.25
562.346	-1.97
562.54	-0.32
562.734	-0.19
562.928	-2.24
563.123	-1.72
563.317	0.81
563.511	1.99
563.705	-0.1
563.899	0.18
564.093	-0.4
564.288	-0.73
564.482	-1.09
564.676	-3.49
564.87	-1.28
565.064	-1.68
565.258	-1.86
565.452	-5.24
565.646	-1.99
565.84	-2.11
566.034	-3.77
566.228	-1.49
566.422	-2.35
566.616	-5.41
566.81	-6.24
567.004	-2.68
567.198	-3.97
567.392	-4.66
567.586	-9.64
567.779	-6.08
567.973	-6.95
568.167	-5.38
568.361	-5.67
568.555	-5.85
568.749	-3.79
568.942	-6.57
569.136	-3.82
569.33	-5.61
569.524	-2.05
569.718	-3.58
569.911	-1.98
570.105	-0.09
570.299	1.01
570.492	0.53
570.686	3.57
570.88	4.67
571.073	2.57
571.267	3.13
571.461	4.28
571.654	5.6
571.848	4.48
572.041	6.8
572.235	6.07
572.429	7.58
572.622	6.47
572.816	6.71
573.009	9.13
573.203	8.14
573.396	9.74
573.59	9.43
573.783	9.27
573.976	7.29
574.17	6.85
574.363	4.11
574.557	3.2
574.75	0.56
574.943	1.88
575.137	6.07
575.33	7.5
575.523	6.47
575.717	5.03
575.91	4.67
576.103	4.29
576.297	4.42
576.49	3.38
576.683	3.38
576.876	3
577.07	1.73
577.263	2.72
577.456	2.97
577.649	1.85
577.842	4.22
578.036	6.65
578.229	5.52
578.422	6.6
578.615	7.39
578.808	6.19
579.001	6.3
579.194	4.75
579.387	4.23
579.58	4.45
579.773	6.45
579.966	6.04
580.159	4.58
580.352	5
580.545	5.22
580.738	5.89
580.931	4.52
581.124	4.48
581.317	1.53
581.51	-1.4
581.703	-0.53
581.896	-2.69
582.088	-3.11
582.281	-1.53
582.474	-0.24
582.667	0.11
582.86	-0.41
583.053	-2.3
583.245	-1.66
583.438	-4.43
583.631	-2.29
583.824	-2.44
584.016	-1.73
584.209	-1.96
584.402	-2.23
584.594	-0.55
584.787	0.9
584.98	2.28
585.172	4.47
585.365	2.99
585.558	5.82
585.75	6.35
585.943	6.54
586.135	6.09
586.328	5.59
586.52	6.79
586.713	6.42
586.906	6.48
587.098	6.17
587.291	6.34
587.483	6.61
587.675	6.34
587.868	4.25
588.06	3.6
588.253	4.59
588.445	4.51
588.638	1.82
588.83	0.48
589.022	0.45
589.215	-0.77
589.407	2.09
589.599	0.84
589.792	-0.57
589.984	0.39
590.176	0.54
590.368	0.89
590.561	-0.28
590.753	2.12
590.945	3.56
591.137	4.65
591.33	3.14
591.522	5.12
591.714	4.87
591.906	9.32
592.098	9.58
592.29	9.04
592.482	8.88
592.674	8.6
592.867	9.04
593.059	7.39
593.251	7.29
593.443	8.15
593.635	8.1
593.827	7.1
594.019	6.65
594.211	7.25
594.403	7.81
594.595	6.97
594.787	5.42
594.979	4.64
595.17	4.5
595.362	3.72
595.554	2.08
595.746	1.17
595.938	-0.51
596.13	0.48
596.322	1.2
596.513	-0.79
596.705	1.36
596.897	0.6
597.089	1.48
597.281	1.61
597.472	3.18
597.664	2.53
597.856	3.06
598.048	2.74
598.239	0.95
598.431	-0.81
598.623	-0.92
598.814	-3.35
599.006	-1.42
599.197	-0.96
599.389	-0.56
599.581	-1.68
599.772	-0.17
599.964	1.81
600.155	0.81
600.347	0.75
600.538	2.72
600.73	2.03
600.921	2.37
601.113	1.48
601.304	2.13
601.496	-0.65
601.687	-1.09
601.879	-1.51
602.07	0.83
602.262	2.03
602.453	2.2
602.644	0.95
602.836	2.81
603.027	1.52
603.218	0.29
603.41	0.57
603.601	2.14
603.792	0.87
603.983	0.17
604.175	-0.74
604.366	-2.1
604.557	-1.07
604.748	-2.85
604.94	-1.84
605.131	-1.24
605.322	-2.22
605.513	-1.04
605.704	0.02
605.895	1.36
606.086	-0.48
606.278	-0.27
606.469	2.05
606.66	3.95
606.851	2.54
607.042	2.04
607.233	3.05
607.424	3.89
607.615	4.4
607.806	4.28
607.997	3.74
608.188	6.43
608.379	7.66
608.57	6.03
608.761	8.06
608.952	7.69
609.142	8.97
609.333	7.76
609.524	7.63
609.715	7.42
609.906	7.11
610.097	7.98
610.287	5.63
610.478	4.4
610.669	4.42
610.86	4.98
611.051	6.4
611.241	5.72
611.432	4.64
611.623	4.45
611.813	3.76
612.004	2.22
612.195	1.33
612.385	1.08
612.576	0.95
612.767	0.01
612.957	-0.81
613.148	-0.28
613.338	1.05
613.529	1.41
613.72	2.94
613.91	4.1
614.101	3.86
614.291	6.82
614.482	7.66
614.672	5.7
614.863	4.92
615.053	4
615.243	5.92
615.434	7.58
615.624	7.51
615.815	8.16
616.005	8.44
616.195	7.22
616.386	5.85
616.576	7.37
616.766	8.13
616.957	8.4
617.147	6.32
617.337	5.4
617.528	3.14
617.718	1.91
617.908	0.47
618.098	-0.05
618.289	0.82
618.479	0.1
618.669	1.99
618.859	2.92
619.049	4.54
619.239	4.18
619.43	2.6
619.62	2.23
619.81	3.58
620	4
620.19	3.94
620.38	4.17
620.57	4.31
620.76	3.06
620.95	4.08
621.14	5.15
621.33	6.8
621.52	8.05
621.71	6.77
621.9	6.89
622.09	6.72
622.28	5.41
622.47	5.1
622.659	3.16
622.849	3.97
623.039	3.92
623.229	2.45
623.419	2.77
623.609	1.71
623.799	-0.47
623.988	-1.58
624.178	0.19
624.368	0.45
624.558	0.72
624.747	0.98
624.937	0.54
625.127	-0.69
625.316	-1.75
625.506	-1.08
625.696	0.55
625.885	-0.07
626.075	-1.42
626.265	-1.13
626.454	-2.26
626.644	-0.56
626.833	-0.86
627.023	-2.23
627.212	-3.99
627.402	-2.55
627.591	-0.69
627.781	0.2
627.97	1.07
628.16	0.76
628.349	0.63
628.539	-1.48
628.728	0.67
628.918	2.39
629.107	3.23
629.296	2.89
629.486	2.28
629.675	2.57
629.865	3.5
630.054	6
630.243	4.43
630.432	6.06
630.622	5.78
630.811	6.74
631	7.72
631.19	9.85
631.379	9.06
631.568	8.78
631.757	10.28
631.946	10.18
632.136	10.29
632.325	10.98
632.514	12.78
632.703	10.75
632.892	7.88
633.081	8.02
633.27	8
633.459	6.86
633.648	6.1
633.837	5.91
634.026	5.61
634.215	7.46
634.404	5.6
634.593	7.39
634.782	6.41
634.971	5.5
635.16	3.47
635.349	2.34
635.538	2.03
635.727	0.38
635.916	-1.09
636.105	-0.82
636.294	-0.6
636.482	-0.35
636.671	-0.22
636.86	1.01
637.049	1.4
637.238	1.41
637.426	2.41
637.615	0.78
637.804	-0.2
637.993	-1.2
638.181	-1.74
638.37	0.57
638.559	0.17
638.747	-0.1
638.936	0.78
639.125	4.01
639.313	5.49
639.502	5.7
639.691	5.6
639.879	6.34
640.068	5.59
640.256	4.87
640.445	3.38
640.633	3.66
640.822	2.82
641.01	4.39
641.199	4.49
641.387	5.64
641.576	9.08
641.764	8.9
641.953	9.01
642.141	8.11
642.329	8.11
642.518	7.07
642.706	7.18
642.894	6.41
643.083	5.49
643.271	3.33
643.459	2.51
643.648	2.03
643.836	2.71
644.024	1.76
644.213	2.3
644.401	2.87
644.589	2.67
644.777	3.42
644.965	3.12
645.154	3.41
645.342	2.48
645.53	1.34
645.718	2.75
645.906	3.19
646.094	3.06
646.282	1.67
646.47	2.83
646.658	2.44
646.846	1.4
647.034	2.56
647.223	3.62
647.411	4.56
647.599	4.74
647.786	5.17
647.974	5.92
648.162	6.45
648.35	5.84
648.538	5.49
648.726	6.58
648.914	5.18
649.102	6.3
649.29	7.17
649.478	7.52
649.665	7.15
649.853	7.56
650.041	8.82
650.229	9.82
650.417	8.01
650.604	9.41
650.792	11.61
650.98	10.64
651.168	9.3
651.355	8.99
651.543	8.71
651.731	8.04
651.918	8.34
652.106	9.02
652.294	9.71
652.481	10.58
652.669	9.66
652.856	10.56
653.044	10.12
653.231	8.28
653.419	6.49
653.606	7.83
653.794	8.81
653.981	8.31
654.169	7.56
654.356	7.25
654.544	7.82
654.731	6.48
654.919	5.25
655.106	5.71
655.294	5.93
655.481	8.41
655.668	10.15
655.856	8.48
656.043	7.39
656.23	7.02
656.418	6.76
656.605	6.91
656.792	6.05
656.979	5.97
657.167	7.49
657.354	7.89
657.541	8.05
657.728	7.68
657.916	7.42
658.103	6.6
658.29	7.78
658.477	7.82
658.664	8.62
658.851	9.49
659.038	10.05
659.225	9.53
659.412	8.24
659.6	6.72
659.787	8.79
659.974	8.42
660.161	8.4
660.348	7.71
660.535	9.27
660.722	9.87
660.909	9.26
661.095	9.51
661.282	10.24
661.469	9.66
661.656	7.71
661.843	9.11
662.03	10.26
662.217	10.7
662.404	9.7
662.59	8.99
662.777	7.8
662.964	6.59
663.151	7.17
663.338	7.46
663.524	6.8
663.711	5.69
663.898	6.27
664.085	6.43
664.271	7.06
664.458	5.88
664.645	4.98
664.831	5.32
665.018	3.46
665.204	3.12
665.391	1.25
665.578	0.6
665.764	-1.38
665.951	-2.55
666.137	-2.96
666.324	-2.64
666.51	-2.62
666.697	-1.08
666.883	-0.25
667.07	-0.49
667.256	-1.59
667.443	-1.79
667.629	-1.35
667.816	-2.34
668.002	-2.79
668.188	-3.14
668.375	-4.02
668.561	-4.46
668.747	-5.87
668.934	-5.65
669.12	-5.84
669.306	-5.31
669.493	-4.36
669.679	-2.83
669.865	-2.49
670.051	-3.5
670.238	-3.67
670.424	-5.28
670.61	-6.86
670.796	-6.56
670.982	-7.35
671.169	-7.02
671.355	-7.52
671.541	-7.46
671.727	-5.92
671.913	-5.37
672.099	-4.6
672.285	-6.82
672.471	-4.84
672.657	-4.66
672.843	-3.23
673.029	-2.86
673.215	-1.89
673.401	0.29
673.587	-1.42
673.773	-0.95
673.959	-1.29
674.145	-1.07
674.331	-0.42
674.517	-0.4
674.703	-0.66
674.888	0.23
675.074	-0.09
675.26	0.6
675.446	-1.01
675.632	-2.17
675.817	-3.68
676.003	-4.14
676.189	-2.31
676.375	-4.53
676.56	-3.38
676.746	-3.6
676.932	-5.21
677.117	-5.43
677.303	-8.92
677.489	-8.72
677.674	-9.61
677.86	-10.03
678.046	-9.88
678.231	-8.33
678.417	-8.09
678.602	-7.94
678.788	-8.17
678.973	-7.01
679.159	-5.03
679.344	-2.99
679.53	-2.86
679.715	-2.58
679.901	-3.82
680.086	-3.78
680.272	-2.46
680.457	-3.1
680.643	-3.51
680.828	-2.76
681.013	-3.01
681.199	-2.83
681.384	-1.61
681.569	-1.23
681.755	-0.69
681.94	-0.54
682.125	-3.27
682.31	-0.99
682.496	-0.96
682.681	-1.39
682.866	-2.46
683.051	-4.51
683.237	-5.18
683.422	-4.68
683.607	-4.74
683.792	-3.38
683.977	-3.6
684.162	-5.6
684.347	-4.56
684.532	-5.03
684.717	-4.92
684.903	-4.09
685.088	-2.69
685.273	-3.1
685.458	-3.48
685.643	-1.72
685.828	-3.48
686.013	-0.8
686.198	-3.82
686.382	-3.63
686.567	-2.87
686.752	-3.06
686.937	-3.22
687.122	-2.37
687.307	-1.37
687.492	-0.79
687.677	-1.23
687.861	-0.85
688.046	-0.43
688.231	-1.87
688.416	-1.21
688.601	-1.23
688.785	-1.82
688.97	-2.41
689.155	-1.33
689.339	-1.51
689.524	-2.51
689.709	-1.43
689.893	-1.34
690.078	0.33
690.263	1.09
690.447	0.32
690.632	0.28
690.816	2.5
691.001	1.88
691.186	0.55
691.37	0.26
691.555	1.16
691.739	2.11
691.924	3.29
692.108	4.54
692.293	4.96
692.477	5.23
692.661	5.32
692.846	5.39
693.03	4.37
693.215	5.47
693.399	5.87
693.583	4.76
693.768	4.59
693.952	3.36
694.136	1.97
694.321	2.49
694.505	3.09
694.689	1.82
694.873	2.31
695.058	2.78
695.242	4.83
695.426	3.45
695.61	2.3
695.794	2.34
695.979	2.17
696.163	1.11
696.347	0.54
696.531	-0.15
696.715	1.23
696.899	0.47
697.083	-0.12
697.267	0.88
697.451	1.12
697.635	1.25
697.819	1.5
698.003	1.82
698.187	1.07
698.371	1.77
698.555	2.46
698.739	1.68
698.923	1.4
699.107	1.31
699.291	2.44
699.475	2.4
699.659	2.43
699.842	2.01
700.026	2.38
700.21	2.87
700.394	4.23
700.578	3.78
700.761	5.41
700.945	7.09
701.129	5.3
701.313	5.53
701.496	5.3
701.68	5.46
701.864	4.83
702.047	5.15
702.231	5.02
702.415	4.56
702.598	4.08
702.782	5.39
702.965	3.91
703.149	2.93
703.333	2.4
703.516	2.16
703.7	2.8
703.883	2.78
704.067	2.53
704.25	0.68
704.434	-1.63
704.617	-4.15
704.801	-5.95
704.984	-7.08
705.167	-7.83
705.351	-9.13
705.534	-9.41
705.718	-7.83
705.901	-8.29
706.084	-9.09
706.268	-10.47
706.451	-11.61
706.634	-13.65
706.817	-13.76
707.001	-14.77
707.184	-13.75
707.367	-14.13
707.55	-14.5
707.734	-14.36
707.917	-13.56
708.1	-12.69
708.283	-9.77
708.466	-7.62
708.649	-7.3
708.832	-5.89
709.015	-4.33
709.199	-3.77
709.382	-3.44
709.565	-3.32
709.748	-1.52
709.931	-1.48
710.114	-1.42
710.297	0.65
710.48	1.63
710.663	1.22
710.846	2.38
711.028	2.3
711.211	1.32
711.394	1.55
711.577	0.82
711.76	-1
711.943	-2.26
712.126	-2.7
712.309	-1.29
712.491	-0.74
712.674	-2.11
712.857	-1.59
713.04	-1.52
713.222	-2.15
713.405	-3.47
713.588	-3.47
713.771	-3.18
713.953	-2.51
714.136	-3.15
714.319	-3.09
714.501	-4.14
714.684	-4.29
714.866	-4.54
715.049	-3.05
715.232	-3.78
715.414	-4
715.597	-2.44
715.779	-0.77
715.962	-1.8
716.144	-4.48
716.327	-4.53
716.509	-3.62
716.692	-5.82
716.874	-6.01
717.057	-5.82
717.239	-5.24
717.421	-6.08
717.604	-7.79
717.786	-7.05
717.968	-7.24
718.151	-8.05
718.333	-8.07
718.515	-7.78
718.698	-7.28
718.88	-8.3
719.062	-8.27
719.244	-7.85
719.427	-8.84
719.609	-9.14
719.791	-9.54
719.973	-7.36
720.155	-9.85
720.338	-10.46
720.52	-9.77
720.702	-9.28
720.884	-8
721.066	-7.52
721.248	-11.25
721.43	-9.07
721.612	-10.56
721.794	-7.48
721.976	-6.23
722.158	-4.64
722.34	-4.1
722.522	-4.07
722.704	-3.37
722.886	-3.62
723.068	-3.55
723.25	-1.49
723.432	-0.76
723.614	0.33
723.796	-0.98
723.977	0.51
724.159	0.14
724.341	-0.58
724.523	-1.38
724.705	-3.21
724.886	-3.16
725.068	1.28
725.25	1.63
725.432	1.45
725.613	-1.68
725.795	-1.73
725.977	-1.6
726.158	-1.95
726.34	-1.7
726.522	-1.29
726.703	-0.29
726.885	1.1
727.066	-1.32
727.248	-1.08
727.43	-0.84
727.611	-1.24
727.793	-2.25
727.974	-0.74
728.156	-1
728.337	-1.67
728.519	-1.59
728.7	-1.35
728.882	-2.72
729.063	-4.39
729.244	-4.05
729.426	-2.37
729.607	-2.81
729.788	-3.82
729.97	-4.11
730.151	-5.6
730.332	-5.21
730.514	-5.47
730.695	-5.19
730.876	-4.26
731.058	-4.83
731.239	-5.05
731.42	-4.3
731.601	-4.62
731.782	-5.55
731.964	-3.8
732.145	-3.63
732.326	-4.53
732.507	-4.92
732.688	-4.87
732.869	-2.31
733.05	-0.83
733.231	-0.77
733.412	-2.98
733.593	-3.19
733.774	-3.73
733.955	-3.01
734.136	-3.17
734.317	-3.48
734.498	-4
734.679	-3.86
734.86	-5.93
735.041	-5.41
735.222	-6.75
735.403	-5.12
735.584	-6.07
735.765	-6.08
735.946	-5.32
736.126	-4.61
736.307	-4.26
736.488	-5.21
736.669	-8.85
736.849	-10.99
737.03	-11.57
737.211	-9.37
737.392	-9.11
737.572	-10.79
737.753	-11.02
737.934	-10.97
738.114	-9.91
738.295	-11.69
738.476	-11.44
738.656	-9.04
738.837	-9.81
739.017	-7.7
739.198	-8.07
739.378	-4.73
739.559	-5.5
739.74	-5.92
739.92	-5.85
740.1	-7.76
740.281	-8.64
740.461	-5.75
740.642	-4.48
740.822	-6.28
741.003	-5.06
741.183	-5.84
741.363	-4.01
741.544	-3.53
741.724	-4.89
741.904	-6.86
742.085	-5.74
742.265	-6.39
742.445	-7.05
742.626	-6.09
742.806	-6.53
742.986	-7.08
743.166	-9.85
743.347	-10.54
743.527	-8.1
743.707	-9.57
743.887	-8.7
744.067	-8.79
744.247	-9.86
744.427	-9.39
744.608	-9.28
744.788	-9.02
744.968	-6.1
745.148	-6.55
745.328	-8.05
745.508	-7.73
745.688	-5.72
745.868	-5.87
746.048	-5.64
746.228	-5.79
746.408	-6.95
746.588	-7.57
746.767	-5.58
746.947	-3.3
747.127	-2.85
747.307	-5.4
747.487	-3.01
747.667	-3.88
747.847	-0.99
748.026	-0.53
748.206	-0.16
748.386	0.61
748.566	-1.3
748.745	-2.22
748.925	-0.8
749.105	1.38
749.285	0.85
749.464	0.01
749.644	-0.06
749.824	0.6
750.003	0.61
750.183	-0.18
750.362	0.09
750.542	-1.75
750.722	-3.91
750.901	-4.86
751.081	-4.03
751.26	-4.03
751.44	-2.69
751.619	-3.55
751.799	-4.92
751.978	-7.07
752.158	-6.9
752.337	-5.54
752.516	-5.05
752.696	-5.33
752.875	-5.47
753.055	-3.76
753.234	-3.88
753.413	-2.13
753.593	-1.84
753.772	-2.47
753.951	-1.75
754.13	-1.49
754.31	-1.81
754.489	-1.41
754.668	0.15
754.847	0.58
755.027	0.73
755.206	2.22
755.385	1.37
755.564	3.07
755.743	3.47
755.922	2.8
756.101	2.5
756.28	2.59
756.46	2.71
756.639	1.31
756.818	0.98
756.997	2.22
757.176	-0.27
757.355	-1.06
757.534	-0.8
757.713	0.14
757.892	-0.9
758.07	0.22
758.249	1.47
758.428	1.33
758.607	0.51
758.786	1.6
758.965	-0.59
759.144	0.44
759.323	-1.48
759.501	-1.44
759.68	-1.04
759.859	-0.57
760.038	-1.09
760.216	-1.88
760.395	-1.65
760.574	-1.67
760.753	-0.85
760.931	0.05
761.11	1.54
761.289	1.15
761.467	0.29
761.646	1.14
761.824	1.71
762.003	0
762.182	0.54
762.36	0.28
762.539	-0.05
762.717	0.21
762.896	-0.24
763.074	0.14
763.253	0.18
763.431	1.16
763.61	0.17
763.788	-0.18
763.966	0.69
764.145	1.99
764.323	1.4
764.502	-1.14
764.68	-1.61
764.858	-3.66
765.037	-2.34
765.215	-1.43
765.393	-1.39
765.571	-1.65
765.75	-0.9
765.928	-2.16
766.106	-1.88
766.284	-0.68
766.463	0.09
766.641	-0.3
766.819	1.56
766.997	1.89
767.175	2.21
767.353	3.25
767.531	3.97
767.71	3.54
767.888	2.3
768.066	1.15
768.244	1.94
768.422	3.19
768.6	6.46
768.778	5
768.956	3.97
769.134	4.75
769.312	4.76
769.489	3.15
769.667	5.63
769.845	6.5
770.023	5.37
770.201	5.09
770.379	4.9
770.557	3.83
770.735	4.07
770.912	2.76
771.09	1.55
771.268	2.51
771.446	1.45
771.623	2.44
771.801	4.58
771.979	5.45
772.157	4.86
772.334	0.76
772.512	1.74
772.69	2.42
772.867	0.54
773.045	0.13
773.222	0.42
773.4	-0.86
773.577	-0.98
773.755	-1.59
773.933	-1.47
774.11	-1.91
774.288	-3.14
774.465	-3.98
774.643	-4.44
774.82	-2.97
774.997	-4.88
775.175	-4.47
775.352	-2.45
775.53	-2.92
775.707	-5.14
775.884	-5.16
776.062	-2.21
776.239	-2.06
776.416	-1.34
776.594	-2.74
776.771	-3.75
776.948	-1.88
777.125	-3.91
777.303	-6.31
777.48	-7.02
777.657	-9.12
777.834	-6.6
778.012	-6.48
778.189	-5.93
778.366	-3.21
778.543	-5.09
778.72	-4.5
778.897	-3.41
779.074	-6.84
779.251	-5.08
779.428	-4.13
779.605	-5.5
779.782	-5.97
779.959	-7.03
780.136	-8.84
780.313	-6.52
780.49	-6.4
780.667	-5.72
780.844	-5.01
781.021	-3.7
781.198	-3.32
781.375	-0.87
781.552	-2.8
781.728	-2.59
781.905	-2.15
782.082	-3.75
782.259	-4.61
782.436	-4.47
782.612	-5.06
782.789	-5.02
782.966	-7.77
783.143	-7.29
783.319	-7.26
783.496	-8.06
783.673	-7.38
783.849	-5.35
784.026	-4.7
784.203	-2.82
784.379	-6.19
784.556	-6.46
784.732	-7.73
784.909	-8.18
785.085	-8.19
785.262	-5.63
785.438	-4.35
785.615	-3.38
785.791	-2.91
785.968	-1.99
786.144	-4.22
786.321	-3.88
786.497	-3.2
786.673	-4.64
786.85	-4.86
787.026	-3.89
787.203	-3.76
787.379	-4.09
787.555	-8.56
787.731	-10.01
787.908	-14.15
788.084	-10.74
788.26	-10.19
788.437	-6.37
788.613	-7.28
788.789	-8.36
788.965	-11.47
789.141	-10.95
789.317	-13.63
789.494	-14.33
789.67	-12.11
789.846	-11.08
790.022	-13.62
790.198	-14.06
790.374	-13.05
790.55	-14.83
790.726	-15.4
790.902	-16.02
791.078	-14.05
791.254	-11.3
791.43	-9.58
791.606	-8.17
791.782	-10.86
791.958	-12.67
792.134	-13.82
792.31	-12.4
792.486	-13.43
792.661	-12.18
792.837	-9.76
793.013	-9.59
793.189	-9.62
793.365	-9.89
793.54	-6.89
793.716	-5.38
793.892	-5.98
794.068	-5.41
794.243	-4.76
794.419	-5.52
794.595	-5.32
794.77	-6.95
794.946	-6.04
795.122	-8.38
795.297	-8.23
795.473	-5.84
795.648	-4.59
795.824	-7.74
796	-6.01
796.175	-2.84
796.351	-3.73
796.526	-6.46
796.702	-4.62
796.877	-3.65
797.052	-4.46
797.228	-8.08
797.403	-8.77
797.579	-7.07
797.754	-5.62
797.929	-2.52
798.105	-0.1
798.28	-1.37
798.455	-2.39
798.631	-3.92
798.806	-0.51
798.981	-0.12
799.157	-0.2
799.332	-0.73
799.507	2.08
799.682	0.25
799.858	0.3
800.033	-0.16
800.208	-0.36
800.383	-2.56
800.558	-2.86
800.733	-3.41
800.908	-1.95
801.083	0.29
801.258	-2.69
801.434	-2.09
801.609	-3.43
801.784	-6.05
801.959	-5.63
802.134	-4.4
802.309	-4.75
802.484	-5.96
802.658	-5.36
802.833	-8.38
803.008	-8.37
803.183	-10.09
803.358	-9.23
803.533	-9.74
803.708	-8.01
803.883	-10.82
804.057	-10.6
804.232	-7.92
804.407	-6.04
804.582	-7.17
804.756	-8.65
804.931	-6.6
805.106	-7.58
805.281	-8.18
805.455	-7.69
805.63	-6.98
805.805	-7.44
805.979	-5.95
806.154	-6.41
806.328	-8.46
806.503	-8.67
806.678	-8.29
806.852	-7.07
807.027	-8.21
807.201	-13.45
807.376	-13.75
807.55	-11.51
807.725	-11.33
807.899	-13.06
808.074	-12.03
808.248	-10.57
808.422	-10.86
808.597	-12.39
808.771	-12.79
808.946	-8.11
809.12	-4.76
809.294	-5.36
809.468	-4.94
809.643	-4.74
809.817	-5.47
809.991	-6.46
810.166	-3.16
810.34	-5.73
810.514	-4.34
810.688	-5.04
810.862	-2.52
811.037	-3.02
811.211	-4.56
811.385	-2.84
811.559	-2.3
811.733	-3.88
811.907	-1.88
812.081	-5.47
812.255	-6.24
812.429	-7.41
812.603	-13.14
812.777	-13.83
812.951	-17.14
813.125	-17.69
813.299	-21.57
813.473	-24.22
813.647	-15.24
813.821	-16.86
813.995	-12.91
814.169	-15.83
814.343	-12.44
814.516	-10.54
814.69	-7.98
814.864	-6.85
815.038	-7.56
815.212	-6.66
815.385	-8.83
815.559	-11.52
815.733	-9.2
815.907	-9.27
816.08	-9.05
816.254	-5.67
816.428	-7.51
816.601	-5.4
816.775	-4.47
816.948	-2.99
817.122	0.02
817.296	-6.32
817.469	-3.58
817.643	-2.58
817.816	-2.04
817.99	-5.11
818.163	-4.67
818.337	-10.35
818.51	-10.37
818.684	-10.72
818.857	-15.02
819.031	-13.92
819.204	-10.57
819.377	-7.04
819.551	-6.26
819.724	-4.96
819.897	-7.93
820.071	-8.52
820.244	-12.3
820.417	-11.38
820.591	-9.39
820.764	-8.3
820.937	-3.46
821.11	-7.6
821.284	-7.48
821.457	-2.59
821.63	-2.22
821.803	-3.22
821.976	2.34
822.149	3.59
822.322	2.93
822.496	3.4
822.669	3.52
822.842	-0.24
823.015	-3.14
823.188	-2.2
823.361	-1.58
823.534	-3.01
823.707	-3.45
823.88	0.45
824.053	-3.27
824.226	-5.31
824.399	-7.65
824.571	-9.21
824.744	-3.03
824.917	-2.28
825.09	-7.71
825.263	-8.62
825.436	-8.03
825.608	-11.2
825.781	-12.02
825.954	-10.73
826.127	-12.96
826.299	-12.82
826.472	-11.2
826.645	-10.14
826.818	-9.18
826.99	-11.85
827.163	-7.37
827.336	-5.53
827.508	-6.33
827.681	-1.71
827.853	-3.25
828.026	-4.2
828.198	-3.8
828.371	-6.08
828.544	-7.86
828.716	-5.22
828.889	-6.23
829.061	-10.39
829.233	-9.94
829.406	-8.86
829.578	-10.55
829.751	-6.39
829.923	-7.24
830.096	-7.18
830.268	-6.27
830.44	-6
830.613	-4.65
830.785	-6.3
830.957	-6.38
831.129	-4.81
831.302	-5.94
831.474	-5.79
831.646	-2.35
831.818	-2.32
831.991	-4.65
832.163	-2.64
832.335	-3.51
832.507	-4.16
832.679	1.42
832.851	1.46
833.023	3.43
833.195	4.71
833.368	-1.81
833.54	-1.52
833.712	-5.26
833.884	-3.05
834.056	-6.11
834.228	-7.99
834.4	-6.07
834.571	-9.24
834.743	-8.07
834.915	-9.32
835.087	-7.69
835.259	-8.29
835.431	-13.19
835.603	-13.89
835.775	-18.19
835.946	-19
836.118	-16.03
836.29	-21.1
836.462	-22.42
836.634	-27.66
836.805	-30.71
836.977	-22.54
837.149	-20.72
837.32	-20.12
837.492	-22.06
837.664	-20.46
837.835	-18.52
838.007	-24.84
838.179	-19.68
838.35	-17.45
838.522	-17.29
838.693	-18.01
838.865	-25.38
839.036	-24.59
839.208	-17.98
839.379	-12.78
839.551	-9.91
839.722	-5.68
839.894	-6.12
840.065	-5.75
840.237	-1.52
840.408	-1.13
840.579	1.14
840.751	-0.86
840.922	-2.35
841.093	-4.27
841.265	-3.96
841.436	-2.09
841.607	-0.84
841.778	-1.5
841.95	-4.8
842.121	-2.47
842.292	-3.38
842.463	3.96
842.635	7.8
842.806	6.66
842.977	3.38
843.148	-0.45
843.319	-3.69
843.49	1.83
843.661	-1.98
843.832	-3.14
844.003	-2.57
844.174	-5.75
844.345	-0.94
844.516	1.82
844.687	3.4
844.858	8.16
845.029	9.58
845.2	8.66
845.371	2.82
845.542	5.22
845.713	-2.76
845.884	0.11
846.055	-3.54
846.225	-8.58
846.396	-20.17
846.567	-17.52
846.738	-17.03
846.909	-13.09
847.079	-19.58
847.25	-14.11
847.421	-17.09
847.591	-24.66
847.762	-32.59
847.933	-43.24
848.103	-41.8
848.274	-45.84
848.445	-52.11
848.615	-58.49
848.786	-57.83
848.956	-50.54
849.127	-52.12
849.297	-42.11
849.468	-32.99
849.638	-29.89
849.809	-23.69
849.979	-16.61
850.15	-20.04
850.32	-21.76
850.491	-25.84
850.661	-18
850.831	-14.98
851.002	-12.57
851.172	-13.22
851.342	-7.46
851.513	-3.12
851.683	3.09
851.853	1.23
852.024	3.28
852.194	5.71
852.364	4.16
852.534	3.93
852.705	5.69
852.875	0.9
853.045	-9.68
853.215	-15.1
853.385	-13.99
853.555	-11.07
853.725	-12.17
853.895	-10.31
854.066	-9.97
854.236	-13.3
854.406	-23.73
854.576	-28.01
854.746	-23.91
854.916	-25.06
855.086	-27.22
855.256	-32.76
855.425	-28.81
855.595	-28.18
855.765	-33.42
855.935	-33.9
856.105	-30.92
856.275	-27.04
856.445	-22.59
856.614	-17.27
856.784	-13.93
856.954	-19.21
857.124	-24.81
857.294	-26.15
857.463	-27.57
857.633	-26.71
857.803	-33.13
857.972	-22.25
858.142	-16.91
858.312	-11.37
858.481	-3.24
858.651	-10.22
858.821	-13.34
858.99	-13.55
859.16	-21.79
859.329	-11.56
859.499	-18.03
859.668	-14.49
859.838	-20.09
860.007	-16
860.177	-14.64
860.346	-12.18
860.516	-10.3
860.685	-6.56
860.854	-2.83
861.024	-5.57
861.193	-7.12
861.363	0.75
861.532	-4.33
861.701	-9.51
861.87	-11.36
862.04	-17.11
862.209	-12.5
862.378	-3.14
862.547	-2.35
862.717	4.33
862.886	-2.2
863.055	2
863.224	-5.16
863.393	-7.21
863.563	-5.42
863.732	-6.11
863.901	-10.11
864.07	-5.88
864.239	-8.11
864.408	-8.21
864.577	-7.99
864.746	-1.57
864.915	-11.89
865.084	-6.89
865.253	-2.14
865.422	-2.31
865.591	-9.34
865.76	-15.79
865.929	-29.04
866.097	-31.39
866.266	-42.55
866.435	-41.98
866.604	-41.96
866.773	-34.17
866.942	-44.59
867.11	-60.2
867.279	-60.83
867.448	-56.23
867.617	-62.17
867.785	-69.36
867.954	-78.42
868.123	-70.49
868.291	-99.09
868.46	-83.44
868.629	-86.4
868.797	-84.7
868.966	-101.26
869.134	-76.01
869.303	-55.94
869.472	-42.55
869.64	-42.41
869.809	-42.5
869.977	-39.53
870.146	-42.62
870.314	-50.48
870.482	-42.74
870.651	-46.53
870.819	-53.74
870.988	-58.26
871.156	-59.75
871.324	-58.55
871.493	-66.09
871.661	-50.66
871.829	-36.33
871.998	-35.94
872.166	-41.43
872.334	-48.85
872.502	-37.57
872.671	-43.84
872.839	-33.02
873.007	-31.73
873.175	-27.74
873.343	-18.15
873.512	-25
873.68	-24.62
873.848	-28.52
874.016	-16.32
874.184	-15.09
874.352	-10.21
874.52	5.34
874.688	11.47
874.856	9.46
875.024	11.41
875.192	-1.81
875.36	-7.25
875.528	-11.84
875.696	-9.82
875.864	-6.76
876.032	-1.54
876.199	-4.02
876.367	-7.72
876.535	-13.43
876.703	-13.99
876.871	-11.03
877.039	-0.41
877.206	11.31
877.374	17.96
877.542	14.9
877.71	23.61
877.877	24.36
878.045	13.06
878.213	10.52
878.38	16.79
878.548	13.46
878.715	20.99
878.883	10.02
879.051	3.42
879.218	1.44
879.386	12.87
879.553	1.3
879.721	-4.39
879.888	-8.2
880.056	-3.48
880.223	-12.23
880.391	-26.95
880.558	-37.11
880.726	-30.96
880.893	-56.39
881.06	-66.12
881.228	-100.1
881.395	-98.34
881.562	-70.15
881.73	-109.54
881.897	-124.15
882.064	-72.64
882.231	-83.04
882.399	-66.29
882.566	-58.3
882.733	-58.64
882.9	-126.61
883.068	-82.19
883.235	-59.63
883.402	-73.77
883.569	-62.79
883.736	-28.98
883.903	-22.03
884.07	-19.9
884.237	-34.72
884.404	-9.64
884.571	-0.32
884.738	15.14
884.905	38.29
885.072	37.9
885.239	50.17
885.406	41.15
