Data from Transmission_09-14-30-953.txt Node
Date: Fri Aug 24 09:14:30 EEST 2018
User: tibor.sos
Spectrometer: USB4F01757
Scans to average: 10
Trigger mode: 4
Integration Time (sec): 1.000000E-2
Electric dark correction enabled: true
Boxcar width: 10
XAxis mode: Wavelengths
Number of Pixels in Spectrum: 3648
>>>>>Begin Spectral Data<<<<<
178.758	26.93
178.974	12.21
179.191	-87.57
179.407	-3.6
179.624	-22.62
179.84	-8.09
180.057	-6.52
180.273	-18.74
180.489	12.3
180.706	-27.47
180.922	-4.53
181.138	-14.53
181.355	18.97
181.571	31.87
181.787	74.39
182.004	92.9
182.22	86.16
182.436	89.54
182.653	84.16
182.869	62.67
183.085	90.3
183.301	86.44
183.518	72.17
183.734	88.43
183.95	107.48
184.166	128.05
184.383	118.02
184.599	106.76
184.815	107.06
185.031	80.3
185.247	91.35
185.463	106.54
185.68	121.47
185.896	141.01
186.112	184.04
186.328	153.02
186.544	149.22
186.76	155.75
186.976	130.45
187.192	134.01
187.408	201.98
187.624	225.95
187.84	174.6
188.056	141.86
188.272	117.59
188.488	104
188.704	91.59
188.92	96.22
189.136	88
189.352	105.25
189.568	130.31
189.784	145
190	138.86
190.216	140.81
190.432	115.56
190.648	98.86
190.864	218.2
191.08	163.44
191.296	65.85
191.511	66.45
191.727	90.68
191.943	78.43
192.159	34.3
192.375	23.26
192.591	20.23
192.806	35.76
193.022	39.88
193.238	97.59
193.454	87.45
193.669	142.61
193.885	48.26
194.101	-35.66
194.317	13.2
194.532	-513.48
194.748	481.51
194.964	67.71
195.18	24.47
195.395	-50.54
195.611	10.72
195.827	4.52
196.042	-51.81
196.258	153.09
196.473	68.58
196.689	134.11
196.905	252.94
197.12	1428.71
197.336	606.05
197.551	-821.57
197.767	191500
197.982	532.45
198.198	3768.49
198.414	3459.55
198.629	824.71
198.845	518.3
199.06	564.82
199.276	466.62
199.491	1618.92
199.707	400.37
199.922	280.94
200.137	286.32
200.353	311.1
200.568	231.13
200.784	215.02
200.999	221.99
201.215	349.71
201.43	352.75
201.645	224.13
201.861	205.54
202.076	135.29
202.291	178.85
202.507	181.19
202.722	108.78
202.937	180.68
203.153	165.3
203.368	167.73
203.583	118.64
203.798	80.64
204.014	83.3
204.229	107.09
204.444	133.36
204.659	239.78
204.875	347.35
205.09	-325.21
205.305	-24.53
205.52	-18.7
205.735	-284.43
205.951	-372
206.166	51.9
206.381	-38.98
206.596	-1001.82
206.811	-238.01
207.026	-221.03
207.241	-38.32
207.457	311.21
207.672	666.94
207.887	-279.44
208.102	113.78
208.317	8.67
208.532	67.23
208.747	206.01
208.962	350.97
209.177	-473.15
209.392	-176.01
209.607	8.25
209.822	68.22
210.037	50.28
210.252	2.48
210.467	47.7
210.682	83.64
210.897	86.85
211.112	59.49
211.326	53.82
211.541	13.55
211.756	-6.75
211.971	-48.12
212.186	-2.69
212.401	-1.56
212.616	17.21
212.831	13.84
213.045	19.06
213.26	27.72
213.475	81.12
213.69	53.87
213.905	57.24
214.119	97.29
214.334	1277.78
214.549	57.09
214.764	115.54
214.978	149.83
215.193	156.13
215.408	-417.95
215.622	143.02
215.837	344.44
216.052	-256.32
216.266	-96.96
216.481	-137.33
216.696	-89.53
216.91	4978.79
217.125	631.91
217.34	859.59
217.554	1028.65
217.769	-396.06
217.983	-100.94
218.198	-293.94
218.412	-552.73
218.627	587.75
218.842	356.71
219.056	278.34
219.271	264.74
219.485	376.73
219.7	335.07
219.914	227.67
220.129	376.29
220.343	227.71
220.558	142.15
220.772	172.27
220.986	132.82
221.201	26.11
221.415	168.79
221.63	122.44
221.844	77.67
222.058	100.19
222.273	102.87
222.487	111.7
222.702	190.28
222.916	218.71
223.13	134.2
223.344	131.1
223.559	113.12
223.773	125.11
223.987	134.11
224.202	133.91
224.416	188.19
224.63	101.83
224.844	65.79
225.059	15.01
225.273	-754.55
225.487	514.4
225.701	191.95
225.915	143.28
226.13	162.61
226.344	177.24
226.558	158.42
226.772	155.52
226.986	139.93
227.2	154.7
227.415	147.84
227.629	144.59
227.843	164.62
228.057	128.07
228.271	105.77
228.485	117.54
228.699	117.66
228.913	145.38
229.127	128.81
229.341	145.84
229.555	201.01
229.769	257.32
229.983	356.2
230.197	291.07
230.411	447.24
230.625	393.89
230.839	232.99
231.053	436.87
231.267	615.34
231.481	546.01
231.695	476.58
231.909	290.07
232.122	167.68
232.336	158.71
232.55	262.29
232.764	377.4
232.978	378.96
233.192	406.9
233.405	326.75
233.619	201.05
233.833	76.48
234.047	126.49
234.261	123.34
234.474	90.25
234.688	-40.47
234.902	138.73
235.116	126.46
235.329	74.07
235.543	98.38
235.757	-10.15
235.97	-16.33
236.184	5.04
236.398	51.73
236.612	59.91
236.825	84.99
237.039	208.34
237.252	206.18
237.466	829.87
237.68	2733.9
237.893	-138900
238.107	-454.15
238.32	1364.35
238.534	-394.48
238.748	-238.76
238.961	-133.64
239.175	-204.11
239.388	-251.79
239.602	-477.71
239.815	-229.99
240.029	-486.47
240.242	-343.25
240.456	-220.27
240.669	-227.33
240.882	-183.06
241.096	-294.07
241.309	-124.73
241.523	-96.46
241.736	-54.23
241.95	174.86
242.163	173.68
242.376	57.17
242.59	-90.4
242.803	-4100
243.016	-75.83
243.23	-748.74
243.443	-2793.33
243.656	588.72
243.87	163.2
244.083	94.51
244.296	86.79
244.509	111.42
244.723	84.74
244.936	52.59
245.149	61.02
245.362	39.59
245.576	38.65
245.789	38.8
246.002	42.84
246.215	42.57
246.428	66.84
246.641	90.45
246.855	130.66
247.068	146.13
247.281	80.81
247.494	93.72
247.707	71.65
247.92	104.8
248.133	92.21
248.346	108.02
248.559	112.54
248.772	101.09
248.985	89.09
249.198	86.01
249.411	98.58
249.624	93.14
249.837	99.25
250.05	97.35
250.263	92.48
250.476	105.7
250.689	89.14
250.902	69.43
251.115	50.71
251.328	54.77
251.541	46.4
251.754	52.19
251.967	41.43
252.18	36.24
252.393	30.59
252.605	22.44
252.818	27.98
253.031	17.63
253.244	27.63
253.457	19.51
253.67	15.18
253.882	21.16
254.095	31.89
254.308	38.84
254.521	39.75
254.733	42.56
254.946	39.27
255.159	38.3
255.372	37.52
255.584	41.13
255.797	40.4
256.01	58.2
256.222	52.83
256.435	52.64
256.648	57.43
256.86	63.35
257.073	77.59
257.285	77.48
257.498	84.18
257.711	81.75
257.923	73.68
258.136	74.71
258.348	58.82
258.561	46.99
258.773	26.38
258.986	21.11
259.198	10.76
259.411	-18.02
259.623	-17.89
259.836	-2.58
260.048	2.21
260.261	9.56
260.473	-11.18
260.686	-1.82
260.898	9.71
261.111	3.58
261.323	13.49
261.535	10.85
261.748	5.3
261.96	21.37
262.173	19.03
262.385	19.48
262.597	14.59
262.81	18.69
263.022	25.56
263.234	34.97
263.447	35.8
263.659	37.59
263.871	39.47
264.083	40.23
264.296	35.62
264.508	36.09
264.72	29.19
264.932	38.8
265.145	28.02
265.357	25.76
265.569	24.56
265.781	19.94
265.993	21.61
266.205	30.66
266.418	7.11
266.63	2.04
266.842	24.24
267.054	50.5
267.266	55.81
267.478	37.7
267.69	39.24
267.902	22.44
268.114	5.5
268.326	17.29
268.538	14.25
268.75	27.65
268.962	30.63
269.174	44.72
269.386	43.16
269.598	47.14
269.81	39.68
270.022	33.75
270.234	27.02
270.446	27.78
270.658	21.33
270.87	27.19
271.082	28.7
271.294	23.95
271.506	18.73
271.718	15.22
271.929	18.32
272.141	16.14
272.353	26.17
272.565	30.5
272.777	27.87
272.989	28.94
273.2	28.72
273.412	29.14
273.624	25.34
273.836	21.09
274.047	21.58
274.259	27.36
274.471	37.37
274.683	38.11
274.894	36.94
275.106	42.53
275.318	39.25
275.529	39.2
275.741	36.16
275.953	45.21
276.164	56.18
276.376	60.42
276.588	63.17
276.799	59.85
277.011	62.74
277.222	69.82
277.434	64.6
277.646	66.21
277.857	64.04
278.069	66.61
278.28	63.9
278.492	65.35
278.703	48.01
278.915	46.31
279.126	49.07
279.338	51.65
279.549	45.32
279.761	40.78
279.972	37.01
280.183	39.27
280.395	30.42
280.606	22.92
280.818	19.37
281.029	23.64
281.24	20.26
281.452	17.84
281.663	14.65
281.875	19.59
282.086	21.69
282.297	20.84
282.508	18.64
282.72	16.28
282.931	15.41
283.142	13.41
283.354	5.25
283.565	6.53
283.776	-3.05
283.987	-20.09
284.199	-9.48
284.41	6.99
284.621	10.25
284.832	23.93
285.043	23.2
285.254	16.3
285.466	5.41
285.677	5.67
285.888	3.9
286.099	5.92
286.31	5.75
286.521	-1.55
286.732	-5.15
286.943	0.86
287.154	13.38
287.366	10.23
287.577	20.35
287.788	17.06
287.999	14.64
288.21	14.76
288.421	24.11
288.632	16.86
288.843	15.15
289.054	18.01
289.264	5.86
289.475	6.88
289.686	16.81
289.897	12.55
290.108	20.56
290.319	18.26
290.53	17.6
290.741	12.24
290.952	15.28
291.163	16.38
291.373	15.41
291.584	9.7
291.795	9.29
292.006	8.11
292.217	13.88
292.427	11.14
292.638	12.58
292.849	12.06
293.06	21.54
293.27	20.74
293.481	19.12
293.692	28.9
293.903	28.77
294.113	28.42
294.324	36.26
294.535	30.57
294.745	33.44
294.956	41.74
295.167	42.87
295.377	38.9
295.588	42.42
295.798	42.74
296.009	38.44
296.22	41.19
296.43	31.69
296.641	29.43
296.851	33.46
297.062	35.31
297.272	36.7
297.483	37.9
297.693	34.9
297.904	34.13
298.114	32.56
298.325	35.8
298.535	29.61
298.746	29.33
298.956	31.29
299.167	35
299.377	28.84
299.587	35.55
299.798	45.32
300.008	41.81
300.219	42.22
300.429	50.53
300.639	50.61
300.85	58.27
301.06	49.01
301.27	47.99
301.481	45.79
301.691	44.4
301.901	40.94
302.111	41.99
302.322	45.53
302.532	41.79
302.742	35.27
302.952	36.03
303.163	27.6
303.373	23.19
303.583	12.97
303.793	17.16
304.003	13.2
304.214	4.67
304.424	5.3
304.634	-5.21
304.844	-7.12
305.054	-4.95
305.264	-8.98
305.474	-1.21
305.684	-4.77
305.894	0.13
306.104	-1.47
306.314	-6.33
306.525	-6.82
306.735	-10.77
306.945	-15.47
307.155	-11
307.365	-5.09
307.575	3.64
307.784	4.22
307.994	1.15
308.204	-1.27
308.414	0.37
308.624	8.19
308.834	12.42
309.044	22.35
309.254	27.87
309.464	29.09
309.674	32.27
309.884	31.31
310.093	31.5
310.303	31.1
310.513	36.08
310.723	35.71
310.933	34.63
311.142	32.76
311.352	34.2
311.562	41.21
311.772	32.88
311.981	31.55
312.191	30.95
312.401	37.18
312.611	36.91
312.82	35.71
313.03	36.64
313.24	35.37
313.449	34.94
313.659	32.59
313.869	27.72
314.078	26.15
314.288	24.63
314.497	21
314.707	17.92
314.917	8.46
315.126	12.41
315.336	13.89
315.545	11.91
315.755	18.16
315.964	12.41
316.174	19.79
316.383	14.82
316.593	18.1
316.802	11.73
317.012	7.42
317.221	12.51
317.431	11.82
317.64	10.97
317.849	6.81
318.059	2.92
318.268	9.84
318.478	16.22
318.687	18.37
318.896	18.86
319.106	18.78
319.315	23.84
319.524	14.42
319.734	12.19
319.943	13.29
320.152	8.32
320.362	3.78
320.571	5.2
320.78	6.42
320.989	11.68
321.199	16.93
321.408	23.26
321.617	16.46
321.826	13.42
322.035	11.33
322.245	11.21
322.454	14.17
322.663	9.82
322.872	1.02
323.081	-6.24
323.29	-5.59
323.5	-6.46
323.709	-5.8
323.918	1.99
324.127	-0.53
324.336	-3.5
324.545	-5.15
324.754	-0.58
324.963	-3.16
325.172	-3.3
325.381	-6.66
325.59	-9.52
325.799	-16.78
326.008	-24.16
326.217	-25.31
326.426	-18.73
326.635	-15.07
326.844	-12.33
327.053	-4.44
327.262	6.25
327.47	6.78
327.679	13.3
327.888	14.55
328.097	12.76
328.306	5.67
328.515	8.28
328.724	10.42
328.932	4.9
329.141	7.82
329.35	7.45
329.559	9.38
329.768	7.38
329.976	6.92
330.185	10.95
330.394	17.51
330.602	22.67
330.811	14.22
331.02	14.29
331.229	14.47
331.437	18.22
331.646	10.87
331.855	16.71
332.063	13.54
332.272	11.67
332.48	7.4
332.689	9.44
332.898	3.5
333.106	1.82
333.315	9.03
333.523	5.13
333.732	3.31
333.94	7.06
334.149	11.11
334.357	11.15
334.566	10.72
334.774	15.1
334.983	7.7
335.191	7.55
335.4	2.18
335.608	-3.65
335.817	-23.79
336.025	-19.29
336.234	-19.86
336.442	-13.65
336.65	-16.59
336.859	-4.09
337.067	0.33
337.275	7.83
337.484	10.95
337.692	7.13
337.9	17.74
338.109	24.61
338.317	13.39
338.525	8
338.734	11.48
338.942	2.08
339.15	-6.63
339.358	-11.34
339.567	3.36
339.775	2.91
339.983	-5.49
340.191	-1.97
340.399	-3
340.608	2.61
340.816	4.08
341.024	11.79
341.232	-1.5
341.44	-0.47
341.648	3.32
341.856	2.57
342.064	6.86
342.272	2.49
342.481	-0.69
342.689	6.01
342.897	2.09
343.105	2.51
343.313	17.49
343.521	19.55
343.729	22.16
343.937	20.79
344.145	20.41
344.353	25.41
344.56	22
344.768	22.55
344.976	24.28
345.184	18.69
345.392	14.94
345.6	24.04
345.808	24.2
346.016	20.34
346.224	23.35
346.431	27.75
346.639	22.28
346.847	26.06
347.055	25.43
347.263	25.69
347.471	22.05
347.678	6.5
347.886	0.05
348.094	-0.56
348.302	4.41
348.509	8.86
348.717	9.39
348.925	14.2
349.132	13.84
349.34	6.05
349.548	12.6
349.755	12.9
349.963	11.59
350.171	9.04
350.378	10.86
350.586	9.17
350.793	7.21
351.001	10.81
351.209	9.44
351.416	16.82
351.624	20.77
351.831	12.61
352.039	18.38
352.246	19.36
352.454	17.15
352.661	7.32
352.869	5.54
353.076	5.93
353.284	0.57
353.491	11.36
353.699	7.19
353.906	6.59
354.113	12.65
354.321	10.98
354.528	14.54
354.736	10.48
354.943	11.95
355.15	10.25
355.358	6.98
355.565	4.77
355.772	3.83
355.98	15.94
356.187	22.2
356.394	13.39
356.601	10.12
356.809	15.44
357.016	24.05
357.223	22.01
357.43	12.27
357.638	16.56
357.845	12.95
358.052	13.75
358.259	7.14
358.466	0.56
358.673	-3.19
358.881	-3.02
359.088	5.8
359.295	7.39
359.502	-3.5
359.709	-0.19
359.916	0.7
360.123	-7.36
360.33	-28.74
360.537	-26.67
360.744	-22.85
360.951	-20.84
361.158	-30.25
361.365	-33.58
361.572	-25.75
361.779	-10.13
361.986	-10.84
362.193	-15.95
362.4	-12.35
362.607	-17.74
362.814	-12.58
363.021	-5.96
363.228	-5.81
363.435	-1.49
363.641	-9.54
363.848	-8.88
364.055	-8.24
364.262	-9.6
364.469	-8.46
364.676	1.36
364.882	-4.6
365.089	-2.3
365.296	7.94
365.503	10.72
365.709	0.65
365.916	0.44
366.123	-5.37
366.33	-9.56
366.536	-5.37
366.743	-6.69
366.95	-3.86
367.156	-1.59
367.363	-0.58
367.57	-0.19
367.776	-12.64
367.983	-0.24
368.19	7.24
368.396	6.3
368.603	1.06
368.809	11.66
369.016	11.68
369.222	22.56
369.429	26.96
369.635	19.25
369.842	15.51
370.048	24.35
370.255	26.94
370.461	26.52
370.668	30.32
370.874	25.39
371.081	26.31
371.287	29.57
371.494	23.14
371.7	17.33
371.906	9.24
372.113	12.41
372.319	9.19
372.526	11.71
372.732	3.43
372.938	5.95
373.145	2.68
373.351	3.27
373.557	-4.39
373.763	-8.26
373.97	-4.58
374.176	2.09
374.382	5.32
374.588	4.82
374.795	11.69
375.001	5.93
375.207	3.85
375.413	3.37
375.62	-0.34
375.826	8.58
376.032	14.71
376.238	20.5
376.444	17.45
376.65	11.92
376.856	-1.26
377.062	18.38
377.269	25.11
377.475	16.86
377.681	22.78
377.887	23.66
378.093	12.17
378.299	13.18
378.505	4.42
378.711	6.13
378.917	-3.35
379.123	-8.77
379.329	0.68
379.535	7.16
379.741	9.25
379.947	9.95
380.152	9.94
380.358	12.6
380.564	9.32
380.77	1.57
380.976	-2.89
381.182	9.76
381.388	9.67
381.594	8.43
381.799	12.71
382.005	7.6
382.211	14.06
382.417	24.37
382.623	23.48
382.828	29.28
383.034	24.17
383.24	28.63
383.445	23.83
383.651	25.59
383.857	18.35
384.063	18.65
384.268	12.74
384.474	14.27
384.68	8.18
384.885	11.54
385.091	24.13
385.296	30.48
385.502	29.65
385.708	16.98
385.913	17.61
386.119	10.79
386.324	11.12
386.53	10.49
386.735	-3.15
386.941	1.25
387.146	-2.69
387.352	9.01
387.557	21.01
387.763	34.29
387.968	27.2
388.174	33.9
388.379	26.61
388.585	29.33
388.79	22.55
388.996	14.9
389.201	16.66
389.406	13.13
389.612	6.27
389.817	-1.76
390.022	-0.75
390.228	-1.33
390.433	-1
390.638	4.35
390.844	2.39
391.049	5.43
391.254	5.88
391.459	9.67
391.665	-2.05
391.87	-14.47
392.075	-8.26
392.28	-5.8
392.485	-19.92
392.691	-16.23
392.896	-17.79
393.101	-20.11
393.306	-6.62
393.511	-2.68
393.716	7.22
393.922	6.55
394.127	7.45
394.332	14.72
394.537	15.13
394.742	23.38
394.947	21.15
395.152	23.86
395.357	24.19
395.562	29.46
395.767	19.83
395.972	22.55
396.177	22.34
396.382	16.88
396.587	13.71
396.792	21.18
396.997	28.22
397.202	34.67
397.407	35.65
397.611	35.85
397.816	32.4
398.021	25.25
398.226	29.16
398.431	30.78
398.636	31.77
398.841	33.09
399.045	29.28
399.25	23.08
399.455	23.3
399.66	24.83
399.864	14.25
400.069	15.64
400.274	21.47
400.479	25.58
400.683	28.28
400.888	31.59
401.093	28.29
401.297	19.08
401.502	14.97
401.707	13.11
401.911	13.9
402.116	16.13
402.321	18.87
402.525	20.81
402.73	21.46
402.934	22.39
403.139	19.9
403.344	23.6
403.548	27.46
403.753	18.02
403.957	10.59
404.162	17.04
404.366	22.71
404.571	8.19
404.775	-3.2
404.98	-2.44
405.184	2.75
405.388	9.17
405.593	9.22
405.797	9.05
406.002	19.29
406.206	11.36
406.41	12.22
406.615	13.72
406.819	15.5
407.023	14.27
407.228	11.69
407.432	6.84
407.636	2.4
407.841	4.34
408.045	3.28
408.249	3.45
408.453	3.29
408.658	4.14
408.862	13.96
409.066	16.61
409.27	8.92
409.474	14.02
409.679	7.81
409.883	8.89
410.087	0.41
410.291	-5.12
410.495	-3.33
410.699	0.65
410.903	2.49
411.108	-2.39
411.312	-8.21
411.516	-14.36
411.72	-8.5
411.924	-7.12
412.128	-9.25
412.332	0.43
412.536	7.24
412.74	12.46
412.944	15.54
413.148	10.58
413.352	10.56
413.556	13.5
413.76	11.69
413.964	22.94
414.167	31.76
414.371	37.86
414.575	37.66
414.779	41.53
414.983	37.93
415.187	43.3
415.391	47.85
415.594	46.66
415.798	44.08
416.002	43.42
416.206	41.38
416.41	45.38
416.613	38.08
416.817	31.52
417.021	37.03
417.225	47.93
417.428	47.37
417.632	36.58
417.836	41.81
418.039	44.6
418.243	44.35
418.447	35.39
418.65	36.47
418.854	45.67
419.057	52.1
419.261	53.47
419.465	50.09
419.668	51.4
419.872	59.19
420.075	61.99
420.279	61.44
420.482	69.5
420.686	66.75
420.889	76.95
421.093	77.69
421.296	73.14
421.5	57.95
421.703	53.53
421.907	65.41
422.11	56.04
422.314	46.44
422.517	43.7
422.72	45.62
422.924	42.52
423.127	39.53
423.33	28.75
423.534	36.49
423.737	31.25
423.94	28.07
424.144	29.69
424.347	31.27
424.55	27.36
424.754	16.6
424.957	16.1
425.16	16.51
425.363	14.79
425.567	13.48
425.77	14.01
425.973	25.52
426.176	22.55
426.379	38.24
426.582	42.73
426.786	40.41
426.989	42.57
427.192	50.72
427.395	50.58
427.598	42.37
427.801	35.13
428.004	34.05
428.207	33.72
428.41	35.35
428.613	39.6
428.816	43.06
429.019	41.3
429.222	35.25
429.425	31.71
429.628	33.46
429.831	32.31
430.034	31.85
430.237	29.56
430.44	29.88
430.643	23.94
430.846	18.13
431.049	18.56
431.252	16.93
431.454	11.44
431.657	6.79
431.86	12.44
432.063	17.87
432.266	12.94
432.469	14.12
432.671	12.16
432.874	18.67
433.077	14.17
433.28	25.64
433.482	29.45
433.685	30.62
433.888	21.53
434.09	20.31
434.293	17.36
434.496	13.35
434.698	5.28
434.901	11.62
435.104	11.8
435.306	15
435.509	9.04
435.712	10.58
435.914	-1.94
436.117	0.46
436.319	1.75
436.522	4.8
436.724	3.64
436.927	0.59
437.129	-9.94
437.332	-9.8
437.534	-20.73
437.737	-34.67
437.939	-22.53
438.142	-16.04
438.344	-9.05
438.547	-5.99
438.749	9.7
438.951	6.01
439.154	15.46
439.356	17.02
439.558	11.64
439.761	21.35
439.963	19.34
440.165	27.5
440.368	32.13
440.57	18.98
440.772	23.78
440.975	15.9
441.177	27.23
441.379	31.28
441.581	32.54
441.784	29.04
441.986	43.92
442.188	35.44
442.39	32.52
442.592	29.26
442.795	34.26
442.997	30.62
443.199	37.38
443.401	24.39
443.603	26.67
443.805	21.97
444.007	18.19
444.209	19.56
444.411	28
444.613	25
444.815	34.94
445.017	33.74
445.219	36.06
445.421	34.25
445.623	31.15
445.825	31.29
446.027	33.46
446.229	25.06
446.431	32.92
446.633	33.81
446.835	34.32
447.037	21.91
447.239	16.34
447.441	26.49
447.643	30.46
447.844	24.81
448.046	46.09
448.248	50.83
448.45	55.62
448.652	51.02
448.853	56.56
449.055	50.1
449.257	43.87
449.459	41.4
449.66	35.27
449.862	31.42
450.064	25.7
450.266	26.88
450.467	24.36
450.669	26.64
450.871	24.9
451.072	38.35
451.274	44.71
451.475	39.71
451.677	34.1
451.879	43.49
452.08	41.84
452.282	36.32
452.483	34.71
452.685	31.93
452.886	30.33
453.088	10.35
453.289	8.66
453.491	3.33
453.692	-3.94
453.894	2.87
454.095	7.15
454.297	16.25
454.498	24.71
454.7	26.89
454.901	22.25
455.102	22.59
455.304	14.84
455.505	12.34
455.706	12.55
455.908	4.78
456.109	-5.72
456.31	-1.58
456.512	-13.77
456.713	-11.66
456.914	-16.62
457.116	-21.61
457.317	1.01
457.518	-0.34
457.719	5.07
457.921	9.48
458.122	-1.34
458.323	-1.5
458.524	-0.99
458.725	-3.53
458.926	-5.94
459.128	-5.76
459.329	0.12
459.53	3.24
459.731	5.17
459.932	-3.61
460.133	-3.02
460.334	4.83
460.535	5.14
460.736	6.05
460.937	6.87
461.138	4.68
461.339	7.97
461.54	1.14
461.741	-0.73
461.942	-0.54
462.143	4.68
462.344	5.8
462.545	7.31
462.746	11.37
462.947	4.46
463.148	5.87
463.348	7.25
463.549	7.03
463.75	3.58
463.951	10.53
464.152	12.79
464.353	17.09
464.553	31.24
464.754	34.98
464.955	37.04
465.156	38.15
465.356	38.46
465.557	35.68
465.758	42.4
465.959	45.86
466.159	46.56
466.36	43.31
466.561	44.97
466.761	46.71
466.962	42.36
467.163	46.7
467.363	45.1
467.564	45.72
467.764	42.52
467.965	39.84
468.166	37.88
468.366	43.72
468.567	45.89
468.767	42.08
468.968	33.4
469.168	32.08
469.369	38.23
469.569	38.54
469.77	36.26
469.97	22.3
470.17	17.49
470.371	11.67
470.571	1.98
470.772	7.8
470.972	9.01
471.172	16.76
471.373	10.41
471.573	9.88
471.773	6.28
471.974	6.29
472.174	4.46
472.374	6.51
472.575	0.98
472.775	-1.76
472.975	-11.39
473.175	-4.33
473.376	-6.98
473.576	-5.79
473.776	1.08
473.976	4.4
474.177	14.55
474.377	17.22
474.577	26.31
474.777	27.76
474.977	26.57
475.177	19.21
475.377	18.17
475.577	26.54
475.777	31.73
475.978	31.57
476.178	33.47
476.378	33.77
476.578	38.83
476.778	36.91
476.978	37.95
477.178	41.4
477.378	39.66
477.578	36.99
477.778	32.92
477.977	24.24
478.177	17.58
478.377	13.95
478.577	10.86
478.777	13.41
478.977	15.79
479.177	15.01
479.377	16.06
479.577	8.97
479.776	5.72
479.976	-2.08
480.176	-0.53
480.376	1.4
480.576	5.64
480.775	-2.28
480.975	-0.57
481.175	0.28
481.374	3.19
481.574	7.91
481.774	10.56
481.974	9.22
482.173	17.85
482.373	21.84
482.572	23.86
482.772	27.78
482.972	26.39
483.171	29.68
483.371	34.93
483.57	33.78
483.77	31.27
483.97	34.14
484.169	38.29
484.369	35.44
484.568	32.9
484.768	31.08
484.967	34.93
485.167	35.95
485.366	36.92
485.566	35.8
485.765	34.55
485.964	32.42
486.164	35.67
486.363	29.78
486.563	33.42
486.762	29.35
486.961	24.85
487.161	23.18
487.36	15.83
487.559	7.57
487.759	12.79
487.958	16.79
488.157	9.26
488.356	9.77
488.556	10.91
488.755	8.51
488.954	7.81
489.153	7.78
489.353	8.68
489.552	3.21
489.751	-6
489.95	-3.78
490.149	-1.21
490.348	-2.29
490.548	3.06
490.747	-4.9
490.946	0.03
491.145	4.94
491.344	1.99
491.543	8.02
491.742	12.05
491.941	7.39
492.14	8.39
492.339	7.57
492.538	6.56
492.737	7.22
492.936	12.04
493.135	13.45
493.334	6.87
493.533	4.66
493.732	12.32
493.931	23.9
494.13	21.28
494.328	21.37
494.527	19.48
494.726	14.95
494.925	11.66
495.124	9.66
495.323	6.42
495.521	8.46
495.72	8.57
495.919	9.3
496.118	10.16
496.316	9.93
496.515	11.08
496.714	4.13
496.913	8.6
497.111	6.51
497.31	-0.48
497.509	4.29
497.707	4.7
497.906	9.69
498.105	1.19
498.303	-0.04
498.502	-1.73
498.7	-0.11
498.899	-0.45
499.097	5.43
499.296	7.41
499.495	10.13
499.693	7.6
499.892	8.88
500.09	1.92
500.289	6.56
500.487	7.6
500.686	11.51
500.884	17.43
501.082	12.32
501.281	9.99
501.479	14.72
501.678	14.08
501.876	13.05
502.074	7.57
502.273	10.32
502.471	12.73
502.669	14.17
502.868	18.95
503.066	19.8
503.264	19.96
503.463	16.65
503.661	11.19
503.859	10.65
504.057	11.94
504.256	13.84
504.454	10.52
504.652	5.85
504.85	8.91
505.048	10.84
505.246	9.68
505.445	9.04
505.643	4.82
505.841	3.91
506.039	5.32
506.237	3.43
506.435	5.68
506.633	3.73
506.831	5.02
507.029	1.69
507.227	7.47
507.425	12.07
507.623	10.87
507.821	12.88
508.019	14.6
508.217	16.89
508.415	17.4
508.613	18.36
508.811	18.51
509.009	14.79
509.207	17.03
509.405	18.78
509.603	22.04
509.8	25.99
509.998	28.35
510.196	26.33
510.394	25.07
510.592	24.37
510.79	26.44
510.987	25.48
511.185	21.26
511.383	16.63
511.581	12.68
511.778	19.13
511.976	21.43
512.174	20.72
512.371	14.82
512.569	19.19
512.767	17.29
512.964	17.1
513.162	17.74
513.36	11.23
513.557	12.48
513.755	10.74
513.952	13.46
514.15	8.82
514.348	12.73
514.545	15.81
514.743	15.64
514.94	14.23
515.138	11.96
515.335	11.47
515.533	12.13
515.73	14.84
515.927	10.22
516.125	9.29
516.322	15.56
516.52	17.03
516.717	15.78
516.915	19.23
517.112	20.99
517.309	21.51
517.507	23.66
517.704	20.18
517.901	18.03
518.099	15.59
518.296	17.43
518.493	15.99
518.69	14.09
518.888	14.45
519.085	14.03
519.282	16.07
519.479	17.85
519.676	13.28
519.874	5.85
520.071	4.9
520.268	6.12
520.465	3.84
520.662	7.27
520.859	7.43
521.056	5.95
521.254	11
521.451	10.89
521.648	9.77
521.845	8.94
522.042	11.39
522.239	9.05
522.436	6.65
522.633	4.12
522.83	6.04
523.027	2.73
523.224	4.41
523.421	5.16
523.618	5.83
523.815	12.01
524.011	13.23
524.208	17.89
524.405	18.9
524.602	16.26
524.799	10.39
524.996	6.62
525.193	6.42
525.389	1.96
525.586	3.25
525.783	0.76
525.98	2.61
526.176	3.71
526.373	3.19
526.57	9.92
526.767	8.15
526.963	6.41
527.16	9.78
527.357	8.23
527.553	12.44
527.75	6.77
527.947	0.99
528.143	4.03
528.34	-1.11
528.537	-2.05
528.733	-0.48
528.93	-0.74
529.126	0.62
529.323	0.22
529.519	1.74
529.716	-1.68
529.912	3.81
530.109	6.62
530.305	3.7
530.502	8.42
530.698	2.68
530.895	3.49
531.091	5.16
531.288	4.76
531.484	6.21
531.68	2.9
531.877	7.6
532.073	8.77
532.269	9.66
532.466	11.44
532.662	11.32
532.858	9.56
533.055	13.18
533.251	13.35
533.447	15.51
533.643	18.37
533.84	19.06
534.036	19.71
534.232	21.88
534.428	21.12
534.624	20.46
534.821	23.28
535.017	24.93
535.213	25.69
535.409	26.12
535.605	27.22
535.801	24.75
535.997	24.65
536.193	25.62
536.389	27.07
536.586	26.88
536.782	23.88
536.978	27.55
537.174	29.57
537.37	29.02
537.566	30.06
537.762	27.32
537.958	25.58
538.153	21.57
538.349	18.88
538.545	21.16
538.741	19.62
538.937	16.55
539.133	15.4
539.329	17.33
539.525	18.26
539.721	16.62
539.916	18.86
540.112	15.42
540.308	18.78
540.504	17.72
540.699	20.17
540.895	21.21
541.091	20.74
541.287	18.92
541.482	20.03
541.678	19.58
541.874	17.62
542.069	18.15
542.265	21.15
542.461	22.96
542.656	22.47
542.852	21.16
543.048	22.98
543.243	22.18
543.439	19.98
543.634	20.37
543.83	19.77
544.025	22.08
544.221	23.59
544.417	24.28
544.612	23.37
544.807	22.63
545.003	23.24
545.198	21.89
545.394	21.83
545.589	25.01
545.785	22.24
545.98	21.98
546.176	21.87
546.371	18.66
546.566	15.86
546.762	16.49
546.957	18.75
547.152	18.59
547.348	16.41
547.543	15.63
547.738	11.09
547.933	10.83
548.129	10.08
548.324	10.5
548.519	4.24
548.714	4.51
548.91	4.62
549.105	3.09
549.3	2.58
549.495	1.32
549.69	-3.21
549.885	-5.45
550.08	-2.09
550.276	-1.8
550.471	1.45
550.666	2.24
550.861	0.58
551.056	-3.76
551.251	-4.46
551.446	-1.11
551.641	-1.2
551.836	0.75
552.031	-0.52
552.226	-1.52
552.421	-1.71
552.616	2.63
552.811	3.29
553.006	2.19
553.201	1.34
553.395	3.65
553.59	4.8
553.785	4.68
553.98	6.43
554.175	3.37
554.37	3.96
554.565	2.24
554.759	2.3
554.954	3.72
555.149	5.43
555.344	6.87
555.538	6.82
555.733	9.09
555.928	12.75
556.122	14.79
556.317	14.5
556.512	13.93
556.706	12.15
556.901	13.02
557.096	13.39
557.29	15.97
557.485	13.93
557.68	9.79
557.874	10.54
558.069	11.86
558.263	13.15
558.458	13.35
558.652	15.68
558.847	14.69
559.041	16.73
559.236	17.39
559.43	16.76
559.625	19.45
559.819	19.78
560.014	18.64
560.208	15.66
560.402	16.07
560.597	17.86
560.791	18.16
560.986	17.78
561.18	17.73
561.374	16.95
561.569	16.83
561.763	19.42
561.957	18.04
562.151	16.71
562.346	18.87
562.54	19.96
562.734	19.91
562.928	20.31
563.123	21.07
563.317	21.41
563.511	21.8
563.705	17.95
563.899	13.67
564.093	12.98
564.288	15.09
564.482	13.72
564.676	12.61
564.87	14.72
565.064	14.17
565.258	15.05
565.452	16.21
565.646	17.19
565.84	15.3
566.034	18.64
566.228	18.89
566.422	17.16
566.616	15.94
566.81	14.31
567.004	16.41
567.198	13.93
567.392	13.08
567.586	11.29
567.779	14.83
567.973	16.93
568.167	18.03
568.361	18.82
568.555	19.16
568.749	19.49
568.942	16.05
569.136	17.59
569.33	15.44
569.524	15.9
569.718	14.28
569.911	15.64
570.105	13.88
570.299	13.88
570.492	14.13
570.686	14.15
570.88	15.96
571.073	13.98
571.267	14.15
571.461	12.99
571.654	14.97
571.848	14.18
572.041	14.77
572.235	15.19
572.429	16.99
572.622	16.25
572.816	16.2
573.009	18.45
573.203	16.01
573.396	18.91
573.59	17.53
573.783	17.9
573.976	16.16
574.17	15.02
574.363	14.17
574.557	13.25
574.75	12.11
574.943	11.48
575.137	11.56
575.33	11.37
575.523	12.17
575.717	11.33
575.91	10.08
576.103	9.14
576.297	8.92
576.49	7.17
576.683	8.5
576.876	8.79
577.07	7.1
577.263	7.93
577.456	6.12
577.649	6.74
577.842	8.06
578.036	11.21
578.229	12.49
578.422	13.87
578.615	13.17
578.808	14.51
579.001	15.75
579.194	17.28
579.387	19.08
579.58	19.68
579.773	17.68
579.966	18.13
580.159	18.04
580.352	17.73
580.545	18.68
580.738	17.2
580.931	16.82
581.124	19.13
581.317	16.93
581.51	16.87
581.703	15.42
581.896	15.25
582.088	15.48
582.281	16.88
582.474	15.04
582.667	16.75
582.86	16.16
583.053	13.62
583.245	15.54
583.438	12.79
583.631	14.65
583.824	15.6
584.016	15.61
584.209	13.85
584.402	13.21
584.594	13.68
584.787	16.02
584.98	15.1
585.172	14.91
585.365	15.65
585.558	16.03
585.75	17.87
585.943	16.85
586.135	15.83
586.328	14.84
586.52	15.72
586.713	14.25
586.906	13.15
587.098	13.25
587.291	12.62
587.483	11.93
587.675	9.83
587.868	8.65
588.06	7.13
588.253	10.77
588.445	10.61
588.638	8.08
588.83	6.72
589.022	7.76
589.215	6.57
589.407	8.09
589.599	8.29
589.792	7.34
589.984	8.19
590.176	5.41
590.368	5.1
590.561	6.07
590.753	8.28
590.945	8.68
591.137	8.39
591.33	4.45
591.522	6.54
591.714	6.83
591.906	10.13
592.098	11.31
592.29	9.95
592.482	10.31
592.674	10.3
592.867	9.83
593.059	8.36
593.251	8.35
593.443	8.48
593.635	7.3
593.827	6.23
594.019	5.3
594.211	8.2
594.403	7.9
594.595	7.56
594.787	6.35
594.979	6.75
595.17	8.87
595.362	10.14
595.554	7.71
595.746	6.87
595.938	6.67
596.13	7.11
596.322	6.7
596.513	4.59
596.705	6.26
596.897	6.03
597.089	7.62
597.281	7.65
597.472	8.08
597.664	7.64
597.856	9.16
598.048	8.96
598.239	7
598.431	5.87
598.623	4.94
598.814	2.94
599.006	4.53
599.197	4.06
599.389	4.47
599.581	4.41
599.772	5.39
599.964	2.46
600.155	1.74
600.347	2.24
600.538	4.4
600.73	4.19
600.921	4.11
601.113	4.61
601.304	4.66
601.496	5.26
601.687	5.89
601.879	4.18
602.07	6.2
602.262	7.21
602.453	7.99
602.644	6.13
602.836	6.62
603.027	4.78
603.218	4.26
603.41	4.28
603.601	6.39
603.792	6.14
603.983	8.9
604.175	9.61
604.366	9.04
604.557	8.71
604.748	7.47
604.94	7.86
605.131	5.96
605.322	6.28
605.513	6.81
605.704	8.66
605.895	9.12
606.086	7.25
606.278	8.29
606.469	8.46
606.66	9.77
606.851	10.59
607.042	10.62
607.233	10.01
607.424	9.85
607.615	8.47
607.806	8.78
607.997	8.28
608.188	9
608.379	9.09
608.57	9.4
608.761	10.06
608.952	10.17
609.142	10.51
609.333	9.98
609.524	9.5
609.715	8.71
609.906	8.1
610.097	9.06
610.287	7.07
610.478	9.35
610.669	11.3
610.86	11.08
611.051	10.75
611.241	11.84
611.432	12.98
611.623	14.95
611.813	15.42
612.004	15.73
612.195	15.02
612.385	15.08
612.576	14.81
612.767	15.23
612.957	14.28
613.148	15.17
613.338	14.83
613.529	12.25
613.72	11.08
613.91	12.14
614.101	12.79
614.291	14.05
614.482	13.19
614.672	10.84
614.863	11.37
615.053	11.66
615.243	11.77
615.434	11.66
615.624	10.9
615.815	10.41
616.005	9.42
616.195	9.25
616.386	8.66
616.576	8.18
616.766	8.85
616.957	9.88
617.147	8.75
617.337	8.45
617.528	9.64
617.718	9.96
617.908	8.37
618.098	7.49
618.289	7.23
618.479	6.19
618.669	7.73
618.859	8.03
619.049	9.2
619.239	10.14
619.43	8.15
619.62	7.86
619.81	8.64
620	9.09
620.19	8.21
620.38	8.35
620.57	9.01
620.76	7.25
620.95	8.05
621.14	7.77
621.33	8.78
621.52	8.69
621.71	8.43
621.9	9.35
622.09	9.95
622.28	10.65
622.47	9.73
622.659	8.19
622.849	7.68
623.039	6.75
623.229	5.57
623.419	7.08
623.609	5.93
623.799	5.41
623.988	3.82
624.178	5.31
624.368	4.24
624.558	4.86
624.747	5.13
624.937	4.49
625.127	3.6
625.316	2.57
625.506	4.04
625.696	4.9
625.885	4.7
626.075	4.67
626.265	4.79
626.454	4.32
626.644	6.05
626.833	4.73
627.023	4.97
627.212	4.55
627.402	4.99
627.591	6.05
627.781	6.29
627.97	7.21
628.16	6.25
628.349	6.5
628.539	5.05
628.728	5.65
628.918	6.52
629.107	8.97
629.296	8.58
629.486	7.44
629.675	7.41
629.865	8.76
630.054	9.13
630.243	6.53
630.432	7.31
630.622	7.16
630.811	8.94
631	9.84
631.19	10.61
631.379	8.86
631.568	8.73
631.757	7.95
631.946	8.22
632.136	8.87
632.325	7.65
632.514	8.35
632.703	9.06
632.892	7.96
633.081	6.39
633.27	6.91
633.459	7.18
633.648	6.6
633.837	4.55
634.026	2.91
634.215	5.68
634.404	5.91
634.593	6.92
634.782	7.57
634.971	6.36
635.16	5.03
635.349	6.88
635.538	7.12
635.727	6.4
635.916	5.32
636.105	6.8
636.294	10.8
636.482	10.36
636.671	9.54
636.86	10.39
637.049	11.64
637.238	10.46
637.426	10
637.615	11.11
637.804	12.42
637.993	12.9
638.181	12.63
638.37	12.85
638.559	12.54
638.747	11.58
638.936	11.7
639.125	12.48
639.313	11.76
639.502	12.32
639.691	12.67
639.879	13.27
640.068	12.07
640.256	10.41
640.445	10.85
640.633	11.54
640.822	10.35
641.01	9.53
641.199	11.54
641.387	13.09
641.576	12.48
641.764	12.69
641.953	12.56
642.141	12.69
642.329	13.08
642.518	12.03
642.706	12.14
642.894	12.29
643.083	12.41
643.271	12.67
643.459	11.42
643.648	11.86
643.836	11.42
644.024	11.68
644.213	11.73
644.401	11.23
644.589	9.98
644.777	11.48
644.965	11.72
645.154	10.78
645.342	9.61
645.53	9.01
645.718	7.72
645.906	8.58
646.094	8.72
646.282	7.09
646.47	8.02
646.658	7.36
646.846	5.45
647.034	6.95
647.223	7.13
647.411	8.9
647.599	7.9
647.786	7.82
647.974	5.98
648.162	5.4
648.35	5.83
648.538	5.74
648.726	5.74
648.914	6.36
649.102	8.16
649.29	8.38
649.478	8.53
649.665	9.5
649.853	8.32
650.041	7.44
650.229	9.52
650.417	8.58
650.604	7.98
650.792	9.66
650.98	7.24
651.168	6.8
651.355	6.57
651.543	6.67
651.731	6.74
651.918	7.34
652.106	7.73
652.294	7.05
652.481	9.22
652.669	8.35
652.856	8.5
653.044	7.34
653.231	6.36
653.419	7.06
653.606	7.23
653.794	8.14
653.981	8.52
654.169	7.33
654.356	7.76
654.544	8.35
654.731	7.74
654.919	7.84
655.106	7.19
655.294	6.85
655.481	8.5
655.668	8.93
655.856	8.18
656.043	8.05
656.23	8.06
656.418	7.44
656.605	6.48
656.792	5.57
656.979	6.11
657.167	7.34
657.354	6.34
657.541	6.15
657.728	5.76
657.916	4.78
658.103	4.57
658.29	4.22
658.477	5.28
658.664	6.2
658.851	7.11
659.038	8.52
659.225	7.78
659.412	6.81
659.6	6.95
659.787	9.79
659.974	8.43
660.161	9.72
660.348	8.6
660.535	12.2
660.722	11.05
660.909	10.59
661.095	10.5
661.282	11.08
661.469	11.41
661.656	11.33
661.843	12.46
662.03	13.3
662.217	13.36
662.404	13.51
662.59	12.32
662.777	11.52
662.964	10.35
663.151	10.79
663.338	11.4
663.524	10.76
663.711	9.01
663.898	10.96
664.085	11.21
664.271	11.44
664.458	9.32
664.645	10.96
664.831	12.38
665.018	11.81
665.204	12.31
665.391	11.71
665.578	11.18
665.764	10.07
665.951	8.76
666.137	9.2
666.324	9.03
666.51	8.86
666.697	8.16
666.883	8.93
667.07	8.8
667.256	8.59
667.443	8.09
667.629	8.19
667.816	6.51
668.002	4.25
668.188	3.98
668.375	3.47
668.561	2.67
668.747	-0.76
668.934	-0.86
669.12	-1.03
669.306	0.19
669.493	-0.27
669.679	0.15
669.865	1.37
670.051	-0.2
670.238	-1.11
670.424	-0.85
670.61	-0.81
670.796	-0.68
670.982	-0.56
671.169	-0.03
671.355	-0.45
671.541	-1.18
671.727	-0.76
671.913	1.32
672.099	2.7
672.285	0.53
672.471	0.55
672.657	2.53
672.843	3.99
673.029	4.14
673.215	4.31
673.401	6.23
673.587	4.51
673.773	4.34
673.959	5.11
674.145	5.29
674.331	6.59
674.517	7.63
674.703	7.72
674.888	7.78
675.074	7.04
675.26	8.5
675.446	9.03
675.632	7.49
675.817	6.9
676.003	6.93
676.189	9.4
676.375	9.41
676.56	8.29
676.746	7.88
676.932	6.25
677.117	5.24
677.303	4.6
677.489	5.73
677.674	3.69
677.86	5.06
678.046	5.55
678.231	4.13
678.417	3.32
678.602	2.46
678.788	2.31
678.973	2.88
679.159	4.4
679.344	4.62
679.53	6.1
679.715	5.38
679.901	4.54
680.086	4.08
680.272	5.23
680.457	5.46
680.643	4.66
680.828	6.43
681.013	5.09
681.199	5.02
681.384	5.43
681.569	6.56
681.755	5.78
681.94	5.44
682.125	6.33
682.31	8.46
682.496	7.55
682.681	8.11
682.866	8.04
683.051	5.82
683.237	6.5
683.422	7.55
683.607	7.75
683.792	8
683.977	7.41
684.162	5.9
684.347	7.56
684.532	6.98
684.717	6.3
684.903	7.15
685.088	7.15
685.273	8.2
685.458	8.17
685.643	9.06
685.828	8.12
686.013	9.74
686.198	8.29
686.382	10.89
686.567	11.02
686.752	10.98
686.937	12.09
687.122	11.85
687.307	11.03
687.492	11.79
687.677	10.89
687.861	12.15
688.046	11.47
688.231	11.39
688.416	13.64
688.601	12.89
688.785	13.19
688.97	13.68
689.155	12.33
689.339	12.26
689.524	10.55
689.709	11.07
689.893	10
690.078	10.3
690.263	9.76
690.447	9.01
690.632	6.61
690.816	7.29
691.001	7.46
691.186	7.87
691.37	6.93
691.555	8.91
691.739	9.07
691.924	10.49
692.108	10.09
692.293	8.66
692.477	9.01
692.661	8.68
692.846	8.1
693.03	9.77
693.215	9.38
693.399	10.02
693.583	10.67
693.768	10.28
693.952	9.58
694.136	8.44
694.321	9.4
694.505	11.65
694.689	11.26
694.873	10.58
695.058	10.11
695.242	11.26
695.426	8.23
695.61	6.91
695.794	7.63
695.979	7.82
696.163	7.42
696.347	7.91
696.531	7.61
696.715	8.15
696.899	6.54
697.083	7.04
697.267	7.91
697.451	7.27
697.635	7.13
697.819	6.94
698.003	6.83
698.187	5.29
698.371	6.03
698.555	5.61
698.739	6.59
698.923	6.82
699.107	6.35
699.291	7.66
699.475	8.28
699.659	8.25
699.842	7.52
700.026	8.26
700.21	7.3
700.394	8.74
700.578	8.33
700.761	9.02
700.945	9.79
701.129	8.93
701.313	9.04
701.496	9.44
701.68	9.2
701.864	9.76
702.047	10.6
702.231	10.32
702.415	10.18
702.598	8.97
702.782	9.83
702.965	9.7
703.149	9.32
703.333	9.55
703.516	8.95
703.7	8.59
703.883	7.65
704.067	7.72
704.25	7.9
704.434	6.15
704.617	6.29
704.801	5.99
704.984	6.04
705.167	5.75
705.351	5.27
705.534	5.51
705.718	6.13
705.901	4.75
706.084	4.69
706.268	4.34
706.451	3.22
706.634	2.83
706.817	2.38
707.001	0.56
707.184	-0.61
707.367	-1.71
707.55	-1.44
707.734	-1.45
707.917	-0.62
708.1	-0.92
708.283	1.04
708.466	0.65
708.649	0.44
708.832	0.17
709.015	1.22
709.199	1.85
709.382	2.25
709.565	1.05
709.748	2.53
709.931	1.74
710.114	1.84
710.297	2.82
710.48	2.32
710.663	1.57
710.846	3.76
711.028	3.93
711.211	2.8
711.394	4.07
711.577	5.04
711.76	3.31
711.943	1.44
712.126	1.88
712.309	2.46
712.491	4.34
712.674	3.63
712.857	4.47
713.04	3.66
713.222	4.16
713.405	3.65
713.588	4.42
713.771	5.78
713.953	5.52
714.136	5.01
714.319	6.55
714.501	6.7
714.684	7.04
714.866	8.66
715.049	10.1
715.232	9.44
715.414	7.9
715.597	8.2
715.779	8.42
715.962	8.41
716.144	6.74
716.327	6.22
716.509	7.32
716.692	5.27
716.874	4.91
717.057	4.17
717.239	5
717.421	5.08
717.604	2.95
717.786	4.05
717.968	4.53
718.151	1.54
718.333	1.83
718.515	2.42
718.698	1
718.88	-0.14
719.062	-1.11
719.244	0.07
719.427	0.47
719.609	0.25
719.791	-0.71
719.973	0.71
720.155	-0.6
720.338	-0.96
720.52	-0.05
720.702	0.98
720.884	1.14
721.066	1.92
721.248	-0.65
721.43	0.83
721.612	0.45
721.794	1.51
721.976	2.78
722.158	3.05
722.34	1.01
722.522	1.7
722.704	3.43
722.886	3.93
723.068	3.41
723.25	5.14
723.432	6.15
723.614	6.38
723.796	5.89
723.977	5.73
724.159	5.76
724.341	5.45
724.523	4.51
724.705	4.84
724.886	4.24
725.068	5.06
725.25	5.5
725.432	4.7
725.613	3.25
725.795	4.04
725.977	4.22
726.158	4.48
726.34	3.5
726.522	2.93
726.703	4.08
726.885	3.53
727.066	1.35
727.248	2.1
727.43	2.33
727.611	2.91
727.793	3.68
727.974	2.94
728.156	2.65
728.337	2.84
728.519	1.95
728.7	2.88
728.882	2.85
729.063	1.21
729.244	1.98
729.426	2.13
729.607	2.14
729.788	2.36
729.97	4.14
730.151	3.8
730.332	4.78
730.514	5.51
730.695	7.27
730.876	8.73
731.058	8.24
731.239	7.46
731.42	7.54
731.601	6.83
731.782	7.52
731.964	7.13
732.145	7.46
732.326	7.24
732.507	6.07
732.688	6.63
732.869	7.76
733.05	7.96
733.231	9.07
733.412	7.27
733.593	8.29
733.774	7.11
733.955	9.34
734.136	8.96
734.317	6.3
734.498	5.57
734.679	5.52
734.86	4.87
735.041	5.89
735.222	5.57
735.403	6.53
735.584	6.8
735.765	8.03
735.946	8.22
736.126	8.29
736.307	10.01
736.488	10.19
736.669	8.37
736.849	7.44
737.03	7.69
737.211	10.45
737.392	9.73
737.572	8.63
737.753	7.76
737.934	7.56
738.114	10.47
738.295	9.57
738.476	9.35
738.656	10.49
738.837	10.8
739.017	10.91
739.198	10.65
739.378	10.83
739.559	10.11
739.74	10.23
739.92	9.69
740.1	8.05
740.281	7.4
740.461	8.81
740.642	9.26
740.822	7.85
741.003	7.44
741.183	5.91
741.363	7.41
741.544	6.87
741.724	6.3
741.904	4.1
742.085	4.11
742.265	3.96
742.445	3.76
742.626	3.47
742.806	3.48
742.986	2.63
743.166	1.11
743.347	-0.36
743.527	-0.03
743.707	0.03
743.887	-0.36
744.067	0.2
744.247	0.21
744.427	0.29
744.608	-0.76
744.788	-1.51
744.968	1.03
745.148	0.78
745.328	-0
745.508	0.88
745.688	1.43
745.868	1.53
746.048	0.36
746.228	1.15
746.408	-1.17
746.588	-2.1
746.767	-0.79
746.947	0.24
747.127	2.71
747.307	0.96
747.487	1.54
747.667	1.73
747.847	2.32
748.026	2.1
748.206	2.47
748.386	4.7
748.566	4.28
748.745	3.78
748.925	5.82
749.105	6.3
749.285	5.69
749.464	4.74
749.644	5.45
749.824	6.41
750.003	4.68
750.183	5.12
750.362	6.63
750.542	4.93
750.722	4.84
750.901	3.24
751.081	4.65
751.26	4.69
751.44	4.23
751.619	3.12
751.799	2.53
751.978	0.4
752.158	0.26
752.337	0.16
752.516	-0.96
752.696	-3.39
752.875	-2.56
753.055	-2.48
753.234	-0.82
753.413	-0.69
753.593	-0.22
753.772	0.85
753.951	1.5
754.13	1.5
754.31	1.35
754.489	1.84
754.668	2.81
754.847	2.54
755.027	3.42
755.206	5.58
755.385	6.59
755.564	7.55
755.743	8.22
755.922	7.41
756.101	7.52
756.28	6.98
756.46	6.86
756.639	5.54
756.818	5.95
756.997	5.68
757.176	4.39
757.355	4.5
757.534	4.1
757.713	4.33
757.892	3.58
758.07	4.08
758.249	3.69
758.428	3.44
758.607	3.74
758.786	4.23
758.965	2.76
759.144	2.96
759.323	2.01
759.501	2.01
759.68	1.95
759.859	2.21
760.038	3.28
760.216	4.13
760.395	5.38
760.574	5.88
760.753	6.96
760.931	8.63
761.11	8.83
761.289	7.85
761.467	7.18
761.646	7.49
761.824	8.2
762.003	7.31
762.182	6.73
762.36	6.21
762.539	5.34
762.717	6.62
762.896	6.25
763.074	6.32
763.253	6.76
763.431	8.43
763.61	8.99
763.788	8.61
763.966	8.34
764.145	8.28
764.323	6.97
764.502	5.12
764.68	4.24
764.858	3.02
765.037	3.77
765.215	4.79
765.393	4.71
765.571	5.92
765.75	7.29
765.928	6.78
766.106	6.17
766.284	7.36
766.463	6.11
766.641	4.56
766.819	5.6
766.997	5.99
767.175	4.86
767.353	3.52
767.531	3.93
767.71	4.36
767.888	3.21
768.066	3.04
768.244	3.76
768.422	4.71
768.6	7.58
768.778	6.74
768.956	6.1
769.134	8.39
769.312	5.92
769.489	5.61
769.667	7.07
769.845	8.03
770.023	7.24
770.201	7.81
770.379	8.19
770.557	8.23
770.735	8.83
770.912	7.73
771.09	7.9
771.268	8.67
771.446	8.17
771.623	10.83
771.801	11.99
771.979	11.52
772.157	10.54
772.334	8.63
772.512	11.14
772.69	11.38
772.867	9.02
773.045	9.86
773.222	9.39
773.4	10.4
773.577	10.65
773.755	11.4
773.933	11.6
774.11	12.72
774.288	12.62
774.465	13.15
774.643	13.23
774.82	15.41
774.997	14.59
775.175	14.19
775.352	14.19
775.53	14.13
775.707	13.97
775.884	14.75
776.062	13.8
776.239	13.14
776.416	13.58
776.594	12
776.771	12.55
776.948	12.54
777.125	11.3
777.303	9.64
777.48	8.9
777.657	6.4
777.834	5.81
778.012	3.11
778.189	1.64
778.366	3.26
778.543	-0.54
778.72	-0.12
778.897	-0.25
779.074	-2.23
779.251	-1.66
779.428	-1.33
779.605	-2.33
779.782	-2.06
779.959	-3.04
780.136	-3.89
780.313	-1.69
780.49	-3.92
780.667	-3.6
780.844	-3.76
781.021	-2.16
781.198	-3.2
781.375	-0.99
781.552	-0.48
781.728	2.08
781.905	2.95
782.082	2.35
782.259	3.34
782.436	2.53
782.612	3.72
782.789	3.61
782.966	1.33
783.143	2.7
783.319	4.7
783.496	4.69
783.673	2.92
783.849	5.07
784.026	5.59
784.203	6.9
784.379	5.47
784.556	7.09
784.732	6.83
784.909	8.33
785.085	8.57
785.262	8.92
785.438	10.72
785.615	9.78
785.791	10.87
785.968	10.07
786.144	11.38
786.321	11.56
786.497	11.4
786.673	9.69
786.85	8.2
787.026	6.91
787.203	6.08
787.379	7.41
787.555	4.98
787.731	4.89
787.908	2.96
788.084	6.46
788.26	4.41
788.437	5.62
788.613	4.49
788.789	4
788.965	3.35
789.141	2.19
789.317	0.67
789.494	-0.91
789.67	1.62
789.846	1.42
790.022	-0
790.198	-1.67
790.374	0.45
790.55	-1.83
790.726	-3.8
790.902	-0.48
791.078	2.65
791.254	1.96
791.43	3.03
791.606	4.43
791.782	1.6
791.958	1.8
792.134	1.11
792.31	3.35
792.486	5.17
792.661	4.74
792.837	5.87
793.013	7.22
793.189	8.53
793.365	6.92
793.54	8.25
793.716	10.14
793.892	13.17
794.068	13.77
794.243	15.76
794.419	18.49
794.595	16.1
794.77	14.92
794.946	17.09
795.122	14.03
795.297	16.08
795.473	15.81
795.648	15.39
795.824	14.21
796	12.55
796.175	11.66
796.351	10.68
796.526	9.03
796.702	9.43
796.877	7.3
797.052	9.37
797.228	7.29
797.403	4.08
797.579	3.4
797.754	2.66
797.929	4.46
798.105	3.53
798.28	1.6
798.455	1.54
798.631	-1.03
798.806	0.4
798.981	-0.68
799.157	-1.24
799.332	-1.78
799.507	-0.38
799.682	0.03
799.858	-1.08
800.033	0.32
800.208	-0.8
800.383	1.32
800.558	3.98
800.733	1.17
800.908	2.13
801.083	4.69
801.258	1.52
801.434	4.3
801.609	2.43
801.784	1.79
801.959	5.28
802.134	6.11
802.309	7.73
802.484	7.37
802.658	8.3
802.833	6.89
803.008	9.84
803.183	9.27
803.358	9.51
803.533	7.98
803.708	8.55
803.883	9.53
804.057	4.55
804.232	4.76
804.407	8.81
804.582	8.05
804.756	5.95
804.931	9.22
805.106	6.8
805.281	6.37
805.455	8.47
805.63	6.28
805.805	2.55
805.979	2.36
806.154	3.42
806.328	4.43
806.503	6.61
806.678	6.99
806.852	8.01
807.027	8.49
807.201	6.43
807.376	6.11
807.55	6.34
807.725	6.26
807.899	5.66
808.074	4.93
808.248	6.12
808.422	6.78
808.597	5.96
808.771	7
808.946	11.27
809.12	11.35
809.294	11.8
809.468	14.48
809.643	15.52
809.817	11.3
809.991	8.18
810.166	9.75
810.34	8.04
810.514	6.79
810.688	4.28
810.862	8.99
811.037	10.43
811.211	9.64
811.385	10.88
811.559	10.48
811.733	7.79
811.907	6.67
812.081	6.3
812.255	5.86
812.429	4.51
812.603	-0.94
812.777	-4.13
812.951	-6.91
813.125	-8.62
813.299	-10.84
813.473	-7.47
813.647	-1.96
813.821	-0.95
813.995	-0.97
814.169	-1
814.343	2.06
814.516	1.17
814.69	0.93
814.864	-3.28
815.038	-1.56
815.212	0.39
815.385	3.74
815.559	6.38
815.733	8.45
815.907	8.75
816.08	11.47
816.254	11.94
816.428	13.84
816.601	16.64
816.775	17.06
816.948	17.14
817.122	18.43
817.296	15.15
817.469	14.46
817.643	15.28
817.816	14.85
817.99	14.29
818.163	17.94
818.337	16.84
818.51	21.79
818.684	20.84
818.857	21.63
819.031	19.07
819.204	16.94
819.377	17.05
819.551	16.2
819.724	13.74
819.897	15.3
820.071	15.61
820.244	12.32
820.417	11.51
820.591	11.43
820.764	9.58
820.937	11.84
821.11	8.04
821.284	7.63
821.457	12.38
821.63	13.94
821.803	9.13
821.976	11.46
822.149	11
822.322	14.15
822.496	13.78
822.669	16.78
822.842	15.63
823.015	15.48
823.188	16.65
823.361	18.23
823.534	14.27
823.707	12.29
823.88	14.28
824.053	14.81
824.226	14.6
824.399	14.71
824.571	12.75
824.744	17.98
824.917	20.43
825.09	18.33
825.263	16.73
825.436	20.5
825.608	18.92
825.781	19.12
825.954	19.63
826.127	18.04
826.299	12.59
826.472	13.27
826.645	11.85
826.818	12.45
826.99	11.43
827.163	14.58
827.336	16.05
827.508	17.43
827.681	16.51
827.853	17.13
828.026	20.14
828.198	21.28
828.371	16.98
828.544	14.92
828.716	10.89
828.889	7.7
829.061	6.07
829.233	4.27
829.406	5.08
829.578	2.58
829.751	1.18
829.923	3.99
830.096	3.05
830.268	4.7
830.44	2.29
830.613	1.64
830.785	1.66
830.957	1.37
831.129	1.11
831.302	2.36
831.474	0.56
831.646	-1.14
831.818	-0.78
831.991	1.54
832.163	3.14
832.335	6.91
832.507	9.08
832.679	7.36
832.851	8.08
833.023	8.39
833.195	10.51
833.368	11.35
833.54	13.87
833.712	14.04
833.884	18.57
834.056	20.09
834.228	20.05
834.4	26.77
834.571	27.7
834.743	25.53
834.915	25.36
835.087	27.5
835.259	28.63
835.431	29.54
835.603	25.98
835.775	20.79
835.946	18.91
836.118	25.22
836.29	25.11
836.462	22.5
836.634	20.9
836.805	14.07
836.977	12.89
837.149	8.45
837.32	9.03
837.492	5.23
837.664	2.57
837.835	3.9
838.007	-4.56
838.179	-3.14
838.35	3.92
838.522	4.43
838.693	3.27
838.865	0.56
839.036	-4.22
839.208	-0.57
839.379	2.61
839.551	5.38
839.722	2.64
839.894	4.45
840.065	9.68
840.237	9.38
840.408	14.06
840.579	17.72
840.751	19.44
840.922	19.03
841.093	15.48
841.265	16.27
841.436	18.34
841.607	17.2
841.778	16.05
841.95	10.64
842.121	13.04
842.292	13.77
842.463	14.21
842.635	19.84
842.806	23.85
842.977	24.63
843.148	24.21
843.319	21.59
843.49	18.81
843.661	11.79
843.832	9.54
844.003	6.94
844.174	7.25
844.345	8.82
844.516	5.63
844.687	5.87
844.858	12.71
845.029	13.08
845.2	11.2
845.371	9.27
845.542	11.19
845.713	3.49
845.884	3.89
846.055	1.62
846.225	-0.48
846.396	-4.6
846.567	-1.16
846.738	-7.74
846.909	-8.34
847.079	-11.99
847.25	-3.7
847.421	-1.2
847.591	-0.75
847.762	-4.06
847.933	-6.34
848.103	-5.94
848.274	-6.11
848.445	-10.58
848.615	-15.7
848.786	-9.04
848.956	-5.85
849.127	-0.75
849.297	12.01
849.468	18.53
849.638	19.54
849.809	18.02
849.979	17.45
850.15	17.96
850.32	22.46
850.491	24.69
850.661	32.4
850.831	32.5
851.002	33.5
851.172	29.65
851.342	27.11
851.513	24.83
851.683	28.61
851.853	31.02
852.024	28.95
852.194	32.59
852.364	31.66
852.534	30.06
852.705	31.19
852.875	24.12
853.045	21.79
853.215	20.62
853.385	19.33
853.555	20.52
853.725	14.1
853.895	11.75
854.066	11.95
854.236	9.17
854.406	1.48
854.576	2.9
854.746	0.55
854.916	5.31
855.086	7.32
855.256	5.64
855.425	0.52
855.595	8
855.765	1.67
855.935	3.3
856.105	0.65
856.275	-4.59
856.445	-2.89
856.614	-5.96
856.784	0.4
856.954	-0.01
857.124	0.81
857.294	5.08
857.463	6.76
857.633	9.9
857.803	4.69
857.972	10.19
858.142	15.16
858.312	19.91
858.481	21.8
858.651	15.67
858.821	16.11
858.99	22.83
859.16	12.36
859.329	20.03
859.499	17.92
859.668	25.06
859.838	25.53
860.007	31.33
860.177	30.97
860.346	29.29
860.516	29.2
860.685	26.08
860.854	24.24
861.024	21.46
861.193	17.32
861.363	23.03
861.532	22.66
861.701	18.78
861.87	19.63
862.04	12.46
862.209	16.95
862.378	13.56
862.547	10.8
862.717	18.15
862.886	14
863.055	14.9
863.224	10.73
863.393	13.95
863.563	10.36
863.732	12.07
863.901	11.73
864.07	13.79
864.239	15.71
864.408	18.17
864.577	20.8
864.746	25.2
864.915	25.22
865.084	24.46
865.253	22.02
865.422	24
865.591	29.5
865.76	26.29
865.929	28.15
866.097	31.67
866.266	30.09
866.435	29.27
866.604	25.81
866.773	32.06
866.942	22.31
867.11	20.67
867.279	19.8
867.448	23.18
867.617	19.6
867.785	17.57
867.954	5.89
868.123	18.79
868.291	7.39
868.46	1.32
868.629	-7.31
868.797	-1.36
868.966	-16
869.134	-11.69
869.303	4.93
869.472	11.11
869.64	0.24
869.809	4.51
869.977	9.2
870.146	2.22
870.314	-6.88
870.482	4.92
870.651	3.13
870.819	0.18
870.988	-0.87
871.156	5.51
871.324	8.95
871.493	7.26
871.661	5.28
871.829	15.5
871.998	18.67
872.166	20.89
872.334	21.8
872.502	26.71
872.671	15.55
872.839	10.86
873.007	18.83
873.175	24.04
873.343	23.7
873.512	19.19
873.68	35.1
873.848	39.94
874.016	35.44
874.184	39.6
874.352	45.36
874.52	48.62
874.688	49.86
874.856	44.99
875.024	46.02
875.192	40.98
875.36	39.21
875.528	34.26
875.696	38.66
875.864	39.29
876.032	41.41
876.199	59.35
876.367	64.49
876.535	54.67
876.703	50.74
876.871	47.85
877.039	64.7
877.206	63.68
877.374	69.77
877.542	66.66
877.71	59.96
877.877	49.86
878.045	46.14
878.213	41.15
878.38	48.23
878.548	56.38
878.715	57.91
878.883	57.81
879.051	67.89
879.218	63.07
879.386	53.95
879.553	54.02
879.721	44.54
879.888	39.5
880.056	45.26
880.223	59.59
880.391	51.38
880.558	34.4
880.726	42.58
880.893	24.56
881.06	15.1
881.228	17.29
881.395	42.13
881.562	57.9
881.73	58.7
881.897	55.05
882.064	55.88
882.231	60.18
882.399	60.11
882.566	43.38
882.733	46.18
882.9	52.41
883.068	60.97
883.235	66.5
883.402	83.64
883.569	63.59
883.736	55.64
883.903	65.27
884.07	67.69
884.237	57.08
884.404	66.92
884.571	92.13
884.738	85.92
884.905	76
885.072	58.54
885.239	60.63
885.406	59.2
