#Video File Name: 31_risk-taking_4.avi
#Project ID: 31_risk-taking_4
#Event codes:
#1 also bal [hideg sarok]
#2 also kozepso
#3 also jobb
#4 kozepso bal
#5 kozepso kozep
#6 kozepso jobb
#7 felso bal
#8 felso kozep
#9 felso jobb [meleg sarok]
#q rejtekhely in [Q out]
#a napozas in [A out]
#z teljes test ki
#s inaktiv [S out]
#Field separator: ;
#MWrap version: Wed Feb 14 09:50:29 CET 2018
#id;description;key;time;duration;object id
1;rejtekhely in [Q out];q;14.50;0.00;1
2;q-end;Q;545.00;530.50;1
3;rejtekhely in [Q out];q;548.00;0.00;1
4;q-end;Q;589.00;41.00;1
5;teljes test ki;z;640.00;0.00;1
#6;napozas in [A out];a;673.50;0.00;1
7;napozas in [A out];a;641.00;0.00;1
8;a-end;A;681.00;40.00;1
