#Video File Name: 35_exploration_4.avi
#Project ID: 35_exploration_4
#Event codes:
#1 also bal [hideg sarok]
#2 also kozepso
#3 also jobb
#4 kozepso bal
#5 kozepso kozep
#6 kozepso jobb
#7 felso bal
#8 felso kozep
#9 felso jobb [meleg sarok]
#q rejtekhely in [Q out]
#a napozas in [A out]
#z teljes test ki
#s inaktiv [S out]
#Field separator: ;
#MWrap version: Wed Feb 14 09:50:29 CET 2018
#id;description;key;time;duration;object id
#1;felso kozep;8;0.50;0.00;1
2;felso bal;7;0.50;0.00;1
3;kozepso bal;4;27.00;0.00;1
4;also bal [hideg sarok];1;29.00;0.00;1
5;also kozepso;2;29.50;0.00;1
6;also jobb;3;30.50;0.00;1
7;kozepso jobb;6;54.50;0.00;1
8;rejtekhely in [Q out];q;57.50;0.00;1
9;q-end;Q;61.50;4.00;1
10;felso jobb [meleg sarok];9;63.00;0.00;1
11;felso kozep;8;85.50;0.00;1
#12;kozepso kozep;5;87.00;0.00;1
13;kozepso kozep;5;105.00;0.00;1
14;kozepso bal;4;105.50;0.00;1
15;also bal [hideg sarok];1;108.00;0.00;1
16;also kozepso;2;108.50;0.00;1
17;also jobb;3;109.50;0.00;1
18;kozepso jobb;6;110.50;0.00;1
19;felso jobb [meleg sarok];9;111.50;0.00;1
20;felso kozep;8;113.50;0.00;1
21;felso bal;7;123.00;0.00;1
22;kozepso bal;4;124.50;0.00;1
23;also bal [hideg sarok];1;125.50;0.00;1
24;also kozepso;2;126.50;0.00;1
25;also jobb;3;127.50;0.00;1
26;kozepso jobb;6;129.00;0.00;1
27;felso jobb [meleg sarok];9;130.00;0.00;1
28;felso kozep;8;132.50;0.00;1
29;felso bal;7;149.00;0.00;1
30;kozepso bal;4;151.00;0.00;1
31;also bal [hideg sarok];1;152.50;0.00;1
32;also kozepso;2;153.00;0.00;1
33;also jobb;3;154.50;0.00;1
34;kozepso jobb;6;156.00;0.00;1
35;felso jobb [meleg sarok];9;157.50;0.00;1
36;felso kozep;8;162.00;0.00;1
37;felso bal;7;166.00;0.00;1
38;kozepso bal;4;167.00;0.00;1
39;also bal [hideg sarok];1;169.00;0.00;1
40;also kozepso;2;169.50;0.00;1
41;also jobb;3;170.50;0.00;1
42;kozepso jobb;6;172.00;0.00;1
43;felso jobb [meleg sarok];9;173.00;0.00;1
44;felso kozep;8;178.00;0.00;1
45;felso bal;7;204.00;0.00;1
46;kozepso bal;4;204.50;0.00;1
47;kozepso kozep;5;205.50;0.00;1
48;also kozepso;2;206.00;0.00;1
49;also jobb;3;208.00;0.00;1
50;kozepso jobb;6;208.50;0.00;1
51;felso jobb [meleg sarok];9;210.50;0.00;1
52;felso kozep;8;211.50;0.00;1
53;felso bal;7;213.00;0.00;1
54;felso kozep;8;214.50;0.00;1
55;felso bal;7;215.00;0.00;1
56;kozepso bal;4;217.00;0.00;1
57;also bal [hideg sarok];1;218.50;0.00;1
58;also kozepso;2;219.00;0.00;1
59;also jobb;3;220.00;0.00;1
60;kozepso jobb;6;221.50;0.00;1
61;felso jobb [meleg sarok];9;223.50;0.00;1
62;felso kozep;8;226.00;0.00;1
63;felso bal;7;232.00;0.00;1
64;kozepso bal;4;234.00;0.00;1
65;also bal [hideg sarok];1;235.00;0.00;1
66;also kozepso;2;236.50;0.00;1
67;also jobb;3;238.00;0.00;1
68;kozepso jobb;6;240.00;0.00;1
69;felso jobb [meleg sarok];9;241.50;0.00;1
70;felso kozep;8;244.50;0.00;1
71;felso bal;7;252.00;0.00;1
72;kozepso bal;4;253.00;0.00;1
73;also bal [hideg sarok];1;254.00;0.00;1
74;also kozepso;2;255.00;0.00;1
75;also jobb;3;256.50;0.00;1
76;kozepso jobb;6;259.00;0.00;1
77;felso jobb [meleg sarok];9;261.00;0.00;1
78;felso kozep;8;263.00;0.00;1
79;felso bal;7;265.50;0.00;1
80;kozepso bal;4;267.00;0.00;1
81;also bal [hideg sarok];1;268.50;0.00;1
82;also kozepso;2;269.00;0.00;1
83;also jobb;3;270.50;0.00;1
84;kozepso jobb;6;275.00;0.00;1
85;felso jobb [meleg sarok];9;276.50;0.00;1
86;felso kozep;8;280.00;0.00;1
87;felso bal;7;287.00;0.00;1
88;kozepso bal;4;290.50;0.00;1
89;also bal [hideg sarok];1;292.50;0.00;1
90;also kozepso;2;293.00;0.00;1
91;also jobb;3;294.00;0.00;1
#92;kozepso jobb;6;299.00;0.00;1
#93;kozepso jobb;6;300.50;0.00;1
#94;kozepso jobb;6;299.00;0.00;1
95;kozepso jobb;6;300.00;0.00;1
96;felso jobb [meleg sarok];9;301.50;0.00;1
#97;felso kozep;8;303.50;0.00;1
98;felso kozep;8;305.50;0.00;1
99;felso bal;7;307.50;0.00;1
100;kozepso bal;4;320.00;0.00;1
101;kozepso kozep;5;321.50;0.00;1
102;rejtekhely in [Q out];q;322.50;0.00;1
103;q-end;Q;323.50;1.00;1
104;also jobb;3;323.50;0.00;1
105;kozepso jobb;6;324.50;0.00;1
106;felso jobb [meleg sarok];9;326.00;0.00;1
107;felso kozep;8;335.00;0.00;1
108;felso bal;7;343.50;0.00;1
109;kozepso bal;4;347.00;0.00;1
110;also bal [hideg sarok];1;348.50;0.00;1
111;also kozepso;2;349.00;0.00;1
112;also jobb;3;350.50;0.00;1
113;kozepso jobb;6;352.50;0.00;1
114;felso jobb [meleg sarok];9;354.50;0.00;1
115;felso kozep;8;359.50;0.00;1
116;felso bal;7;362.50;0.00;1
117;kozepso bal;4;376.50;0.00;1
118;also bal [hideg sarok];1;378.00;0.00;1
119;also kozepso;2;378.50;0.00;1
120;also jobb;3;380.50;0.00;1
121;kozepso jobb;6;386.00;0.00;1
122;felso jobb [meleg sarok];9;387.00;0.00;1
123;felso kozep;8;389.00;0.00;1
124;felso bal;7;394.50;0.00;1
125;kozepso bal;4;398.50;0.00;1
126;also bal [hideg sarok];1;400.50;0.00;1
127;also kozepso;2;401.00;0.00;1
128;also jobb;3;402.00;0.00;1
129;kozepso jobb;6;404.50;0.00;1
130;felso jobb [meleg sarok];9;406.00;0.00;1
131;felso kozep;8;410.50;0.00;1
132;felso bal;7;423.00;0.00;1
133;kozepso bal;4;428.50;0.00;1
134;also bal [hideg sarok];1;430.00;0.00;1
135;also kozepso;2;430.50;0.00;1
136;also jobb;3;431.50;0.00;1
137;kozepso jobb;6;434.50;0.00;1
138;felso jobb [meleg sarok];9;436.00;0.00;1
139;felso kozep;8;440.00;0.00;1
140;felso bal;7;443.00;0.00;1
141;kozepso bal;4;462.00;0.00;1
142;also bal [hideg sarok];1;465.00;0.00;1
143;also kozepso;2;465.50;0.00;1
144;also jobb;3;466.50;0.00;1
145;kozepso jobb;6;468.50;0.00;1
146;felso jobb [meleg sarok];9;471.00;0.00;1
147;felso kozep;8;474.00;0.00;1
148;felso bal;7;484.50;0.00;1
149;kozepso bal;4;488.00;0.00;1
150;also bal [hideg sarok];1;490.00;0.00;1
151;also kozepso;2;490.50;0.00;1
152;also jobb;3;491.50;0.00;1
153;kozepso jobb;6;494.00;0.00;1
154;felso jobb [meleg sarok];9;495.50;0.00;1
155;felso kozep;8;498.00;0.00;1
156;felso bal;7;505.50;0.00;1
157;kozepso bal;4;509.50;0.00;1
158;also bal [hideg sarok];1;512.50;0.00;1
159;also kozepso;2;513.00;0.00;1
160;also jobb;3;514.00;0.00;1
161;kozepso jobb;6;516.50;0.00;1
162;felso jobb [meleg sarok];9;517.50;0.00;1
163;felso kozep;8;520.50;0.00;1
164;felso bal;7;524.00;0.00;1
165;kozepso bal;4;532.00;0.00;1
166;also bal [hideg sarok];1;534.00;0.00;1
167;also kozepso;2;534.00;0.00;1
168;also jobb;3;535.50;0.00;1
169;kozepso jobb;6;539.50;0.00;1
170;felso jobb [meleg sarok];9;541.00;0.00;1
171;felso kozep;8;543.50;0.00;1
172;felso bal;7;546.00;0.00;1
173;kozepso bal;4;549.50;0.00;1
174;felso bal;7;551.50;0.00;1
#175;felso kozep;8;556.50;0.00;1
176;felso kozep;8;556.50;0.00;1
#177;felso jobb [meleg sarok];9;574.50;0.00;1
#178;kozepso kozep;5;610.50;0.00;1
179;kozepso kozep;5;626.00;0.00;1
180;also kozepso;2;628.00;0.00;1
181;kozepso kozep;5;631.00;0.00;1
182;felso kozep;8;631.50;0.00;1
183;felso bal;7;643.50;0.00;1
184;kozepso bal;4;644.50;0.00;1
185;felso bal;7;646.00;0.00;1
#186;kozepso bal;4;651.00;0.00;1
187;kozepso bal;4;652.00;0.00;1
188;also bal [hideg sarok];1;653.50;0.00;1
189;also kozepso;2;654.50;0.00;1
190;rejtekhely in [Q out];q;655.00;0.00;1
191;q-end;Q;656.00;1.00;1
192;kozepso jobb;6;658.00;0.00;1
193;felso jobb [meleg sarok];9;658.50;0.00;1
194;felso kozep;8;660.00;0.00;1
195;felso bal;7;662.00;0.00;1
196;felso kozep;8;663.50;0.00;1
197;felso bal;7;664.00;0.00;1
198;kozepso bal;4;670.00;0.00;1
199;also bal [hideg sarok];1;672.00;0.00;1
200;also kozepso;2;672.50;0.00;1
201;also jobb;3;673.50;0.00;1
202;kozepso jobb;6;675.50;0.00;1
203;felso jobb [meleg sarok];9;676.50;0.00;1
204;felso kozep;8;678.50;0.00;1
205;felso bal;7;680.00;0.00;1
206;kozepso bal;4;684.00;0.00;1
207;kozepso kozep;5;687.00;0.00;1
#208;also kozepso;2;688.50;0.00;1
209;rejtekhely in [Q out];q;688.50;0.00;1
210;q-end;Q;689.00;0.50;1
211;also jobb;3;689.00;0.00;1
212;kozepso jobb;6;689.50;0.00;1
213;felso jobb [meleg sarok];9;691.00;0.00;1
214;felso kozep;8;695.00;0.00;1
215;felso bal;7;696.50;0.00;1
216;felso kozep;8;697.50;0.00;1
217;felso bal;7;698.00;0.00;1
218;kozepso bal;4;699.50;0.00;1
219;felso bal;7;700.00;0.00;1
220;felso kozep;8;703.00;0.00;1
221;felso jobb [meleg sarok];9;706.00;0.00;1
222;felso kozep;8;717.00;0.00;1
223;felso bal;7;720.00;0.00;1
224;kozepso bal;4;721.00;0.00;1
225;felso bal;7;721.50;0.00;1
226;felso kozep;8;725.00;0.00;1
227;felso bal;7;750.50;0.00;1
228;felso kozep;8;760.00;0.00;1
#229;felso jobb [meleg sarok];9;761.50;0.00;1
230;felso jobb [meleg sarok];9;769.00;0.00;1
231;kozepso jobb;6;770.50;0.00;1
232;also jobb;3;772.50;0.00;1
233;kozepso jobb;6;773.50;0.00;1
234;felso jobb [meleg sarok];9;774.50;0.00;1
235;felso kozep;8;813.50;0.00;1
236;kozepso kozep;5;814.00;0.00;1
237;also kozepso;2;819.50;0.00;1
238;also bal [hideg sarok];1;821.00;0.00;1
239;kozepso bal;4;821.50;0.00;1
240;felso bal;7;822.50;0.00;1
241;felso kozep;8;824.50;0.00;1
#242;felso jobb [meleg sarok];9;827.50;0.00;1
243;felso bal;7;829.00;0.00;1
244;felso kozep;8;829.50;0.00;1
245;felso jobb [meleg sarok];9;831.00;0.00;1
246;kozepso jobb;6;834.50;0.00;1
247;felso jobb [meleg sarok];9;838.00;0.00;1
#248;felso kozep;8;840.00;0.00;1
249;felso kozep;8;839.50;0.00;1
250;felso bal;7;841.50;0.00;1
251;kozepso bal;4;849.00;0.00;1
252;also bal [hideg sarok];1;851.50;0.00;1
253;also kozepso;2;852.50;0.00;1
254;also jobb;3;854.50;0.00;1
255;kozepso jobb;6;860.00;0.00;1
256;felso jobb [meleg sarok];9;862.00;0.00;1
257;felso kozep;8;867.00;0.00;1
258;felso bal;7;888.00;0.00;1
259;kozepso bal;4;891.00;0.00;1
260;also bal [hideg sarok];1;893.00;0.00;1
261;also kozepso;2;893.50;0.00;1
262;also jobb;3;897.50;0.00;1
263;kozepso jobb;6;904.50;0.00;1
264;felso jobb [meleg sarok];9;907.50;0.00;1
265;felso kozep;8;911.50;0.00;1
266;felso bal;7;920.50;0.00;1
267;kozepso bal;4;940.00;0.00;1
268;also bal [hideg sarok];1;942.50;0.00;1
269;also kozepso;2;945.00;0.00;1
270;also jobb;3;946.00;0.00;1
271;kozepso jobb;6;954.00;0.00;1
272;felso jobb [meleg sarok];9;956.50;0.00;1
273;felso kozep;8;973.50;0.00;1
274;felso bal;7;997.50;0.00;1
275;kozepso bal;4;1013.50;0.00;1
276;kozepso kozep;5;1015.50;0.00;1
277;also kozepso;2;1016.00;0.00;1
#278;also jobb;3;1018.00;0.00;1
#279;rejtekhely in [Q out];q;1019.00;0.00;1
280;also jobb;3;1022.00;0.00;1
281;rejtekhely in [Q out];q;1027.50;0.00;1
282;q-end;Q;1046.50;19.00;1
283;also kozepso;2;1081.50;0.00;1
284;also jobb;3;1085.50;0.00;1
285;also kozepso;2;1106.50;0.00;1
286;also jobb;3;1115.00;0.00;1
287;kozepso jobb;6;1121.00;0.00;1
288;felso jobb [meleg sarok];9;1124.00;0.00;1
289;felso kozep;8;1214.50;0.00;1
290;felso bal;7;1215.50;0.00;1
291;kozepso bal;4;1218.50;0.00;1
292;kozepso kozep;5;1219.00;0.00;1
293;also kozepso;2;1219.50;0.00;1
294;also jobb;3;1224.00;0.00;1
295;kozepso jobb;6;1226.50;0.00;1
296;felso jobb [meleg sarok];9;1229.00;0.00;1
297;felso kozep;8;1232.50;0.00;1
298;felso bal;7;1273.00;0.00;1
299;kozepso bal;4;1279.50;0.00;1
300;also bal [hideg sarok];1;1280.50;0.00;1
301;also kozepso;2;1282.50;0.00;1
302;also jobb;3;1284.50;0.00;1
303;kozepso jobb;6;1288.50;0.00;1
304;felso jobb [meleg sarok];9;1290.50;0.00;1
305;felso kozep;8;1297.50;0.00;1
306;felso bal;7;1322.00;0.00;1
307;kozepso bal;4;1323.50;0.00;1
308;kozepso kozep;5;1324.50;0.00;1
309;also kozepso;2;1325.50;0.00;1
310;also jobb;3;1327.00;0.00;1
311;kozepso jobb;6;1330.00;0.00;1
312;felso jobb [meleg sarok];9;1332.00;0.00;1
313;felso kozep;8;1345.50;0.00;1
314;felso bal;7;1383.50;0.00;1
315;kozepso bal;4;1404.00;0.00;1
316;kozepso kozep;5;1404.50;0.00;1
317;also kozepso;2;1406.00;0.00;1
318;also jobb;3;1408.00;0.00;1
319;kozepso jobb;6;1413.00;0.00;1
320;felso jobb [meleg sarok];9;1414.50;0.00;1
321;felso kozep;8;1418.50;0.00;1
322;felso bal;7;1427.50;0.00;1
323;kozepso bal;4;1432.00;0.00;1
324;also bal [hideg sarok];1;1433.00;0.00;1
325;also kozepso;2;1434.50;0.00;1
326;also jobb;3;1435.50;0.00;1
327;also kozepso;2;1441.50;0.00;1
328;also jobb;3;1446.00;0.00;1
329;rejtekhely in [Q out];q;1453.50;0.00;1
330;q-end;Q;1478.00;24.50;1
331;also jobb;3;1477.50;0.00;1
332;rejtekhely in [Q out];q;1479.00;0.00;1
333;also kozepso;2;1483.50;0.00;1
334;q-end;Q;1483.50;4.50;1
335;teljes test ki;z;1486.00;0.00;1
336;rejtekhely in [Q out];q;1498.00;0.00;1
337;q-end;Q;1524.00;26.00;1
338;also jobb;3;1524.00;0.00;1
339;teljes test ki;z;1534.00;0.00;1
340;also kozepso;2;1545.50;0.00;1
341;rejtekhely in [Q out];q;1562.00;0.00;1
342;q-end;Q;1631.50;69.50;1
343;also jobb;3;1632.00;0.00;1
344;teljes test ki;z;1643.00;0.00;1
345;rejtekhely in [Q out];q;1646.00;0.00;1
346;q-end;Q;1647.50;1.50;1
347;also kozepso;2;1648.00;0.00;1
348;rejtekhely in [Q out];q;1677.00;0.00;1
349;q-end;Q;1725.50;48.50;1
350;also jobb;3;1726.00;0.00;1
351;kozepso jobb;6;1766.50;0.00;1
352;felso jobb [meleg sarok];9;1768.50;0.00;1
