Data from Transmission_09-44-56-510.txt Node
Date: Fri Aug 24 09:44:56 EEST 2018
User: tibor.sos
Spectrometer: USB4F01757
Scans to average: 10
Trigger mode: 4
Integration Time (sec): 1.000000E-2
Electric dark correction enabled: true
Boxcar width: 10
XAxis mode: Wavelengths
Number of Pixels in Spectrum: 3648
>>>>>Begin Spectral Data<<<<<
178.758	-191.74
178.974	-561.83
179.191	-682.67
179.407	-262.86
179.624	-204.8
179.84	-208.09
180.057	-240.41
180.273	-204.2
180.489	-189.33
180.706	-377.93
180.922	-226.35
181.138	-168.89
181.355	-44.58
181.571	-18.05
181.787	16.38
182.004	-2.28
182.22	-42.73
182.436	-38.63
182.653	-51.05
182.869	-59.94
183.085	-59.52
183.301	-46.09
183.518	-4.81
183.734	-9.3
183.95	0.46
184.166	-2.65
184.383	25.39
184.599	16.27
184.815	10.17
185.031	-19.27
185.247	5.97
185.463	-12.53
185.68	-3.48
185.896	-15.23
186.112	12.55
186.328	26.94
186.544	58.95
186.76	72.55
186.976	65.7
187.192	94.72
187.408	95.55
187.624	102.96
187.84	93.5
188.056	74.81
188.272	98.04
188.488	71.35
188.704	66.95
188.92	56.34
189.136	67.57
189.352	69.1
189.568	107.55
189.784	104.29
190	114.52
190.216	128.25
190.432	134.05
190.648	139.89
190.864	244.37
191.08	161.78
191.296	105.53
191.511	106.07
191.727	76.87
191.943	132.52
192.159	108.98
192.375	92.92
192.591	153.81
192.806	120.42
193.022	109.08
193.238	237.18
193.454	259.92
193.669	384.26
193.885	415.05
194.101	485.25
194.317	274.4
194.532	991.01
194.748	-354.62
194.964	227.2
195.18	103.64
195.395	135.17
195.611	114.67
195.827	115.13
196.042	55.42
196.258	146.51
196.473	21.44
196.689	-37.7
196.905	29.65
197.12	-398.02
197.336	-108.9
197.551	189.02
197.767	33800
197.982	143.83
198.198	1208.22
198.414	1112.36
198.629	268.36
198.845	229.28
199.06	311.61
199.276	338.24
199.491	1298.38
199.707	328.62
199.922	168.69
200.137	210.11
200.353	216.81
200.568	184.46
200.784	202.21
200.999	225.13
201.215	331.3
201.43	329.07
201.645	252.96
201.861	269.97
202.076	280.82
202.291	261.21
202.507	222.88
202.722	111.57
202.937	148.97
203.153	174.7
203.368	118.36
203.583	62
203.798	21.14
204.014	-1.28
204.229	25.69
204.444	28.09
204.659	-95.91
204.875	-61.68
205.09	428.57
205.305	-924.53
205.52	261.79
205.735	207.19
205.951	-1624
206.166	171.65
206.381	132.2
206.596	1676.36
206.811	667.84
207.026	371.22
207.241	141.64
207.457	-253.58
207.672	-540.5
207.887	222.43
208.102	48.85
208.317	65.11
208.532	-152.54
208.747	344.26
208.962	164.48
209.177	181.21
209.392	104.05
209.607	139.14
209.822	244.33
210.037	220.7
210.252	287.32
210.467	378.84
210.682	204.22
210.897	194.74
211.112	186.75
211.326	128.37
211.541	141.11
211.756	62.67
211.971	128.83
212.186	79.16
212.401	63.2
212.616	25.2
212.831	13.78
213.045	24.26
213.26	36.51
213.475	50.67
213.69	39.51
213.905	45.42
214.119	-212.67
214.334	5355.56
214.549	476.92
214.764	-620.73
214.978	-388.4
215.193	-506.72
215.408	3235.9
215.622	-242.26
215.837	-164.44
216.052	379.31
216.266	-27.85
216.481	77.33
216.696	88.71
216.91	466.67
217.125	150.15
217.34	378.24
217.554	334.05
217.769	-6.03
217.983	62.28
218.198	33.54
218.412	179.42
218.627	155.46
218.842	109.16
219.056	35.91
219.271	56.38
219.485	131.73
219.7	150.67
219.914	136.06
220.129	180.75
220.343	86.53
220.558	57.76
220.772	46.34
220.986	90.32
221.201	210.83
221.415	-108.88
221.63	-41.11
221.844	-20.32
222.058	-52.31
222.273	-61.7
222.487	-76.89
222.702	-25.83
222.916	-62.72
223.13	16.58
223.344	-9
223.559	1.23
223.773	24.1
223.987	45.26
224.202	20.95
224.416	43.99
224.63	-8.17
224.844	-36.26
225.059	-58.29
225.273	-1428.28
225.487	888
225.701	117.48
225.915	82.25
226.13	66.05
226.344	77.01
226.558	80.22
226.772	66.2
226.986	78.62
227.2	80.79
227.415	64.97
227.629	70.72
227.843	66.34
228.057	52.38
228.271	51
228.485	59.86
228.699	56.44
228.913	43.03
229.127	38.31
229.341	17.31
229.555	24.67
229.769	-21.11
229.983	-23.62
230.197	-62.2
230.411	-83.03
230.625	-168.7
230.839	-88.55
231.053	-357.03
231.267	-803.17
231.481	-1184.04
231.695	-610.81
231.909	-235.04
232.122	-113.4
232.336	-111.85
232.55	-174.01
232.764	-327.31
232.978	-352.7
233.192	-458.35
233.405	-568.39
233.619	-406.29
233.833	-178.5
234.047	-340.5
234.261	-555.84
234.474	-325.54
234.688	791.63
234.902	578.41
235.116	335.45
235.329	293.97
235.543	419.95
235.757	212.45
235.97	105.64
236.184	81.64
236.398	63.3
236.612	68.61
236.825	119.29
237.039	229.57
237.252	211.31
237.466	667.53
237.68	2355.93
237.893	-157400
238.107	-460.87
238.32	1542.61
238.534	-297.84
238.748	-188.67
238.961	-116.69
239.175	-90.41
239.388	-157.61
239.602	-367.74
239.815	-156.87
240.029	-328.54
240.242	-194.78
240.456	-140.06
240.669	-180.35
240.882	-132.62
241.096	-330.54
241.309	-166.71
241.523	-191.5
241.736	-139.59
241.95	557.54
242.163	-521.8
242.376	-117.88
242.59	-1150.4
242.803	6226.67
243.016	544.41
243.23	1326.05
243.443	10200
243.656	-1730.83
243.87	-276.77
244.083	-129.14
244.296	-97.95
244.509	-47.95
244.723	-53.6
244.936	-32.1
245.149	-68.25
245.362	-144.82
245.576	-48.59
245.789	-64.73
246.002	-33.94
246.215	-71.17
246.428	-36.46
246.641	-46.6
246.855	-77.98
247.068	-68.79
247.281	-118.83
247.494	-21.52
247.707	-46.12
247.92	-71.74
248.133	-23.2
248.346	-44.92
248.559	-15.1
248.772	-52.36
248.985	-25.06
249.198	-4.4
249.411	-0.81
249.624	2.29
249.837	9.29
250.05	9.92
250.263	2.38
250.476	-7.17
250.689	10.13
250.902	2.17
251.115	-0.05
251.328	14.28
251.541	21.86
251.754	31.66
251.967	25.55
252.18	23.97
252.393	26.1
252.605	27.28
252.818	38.32
253.031	32.38
253.244	40.63
253.457	30.27
253.67	22.93
253.882	23.89
254.095	29.78
254.308	37.2
254.521	30.7
254.733	27.72
254.946	33.91
255.159	29.03
255.372	28.8
255.584	27.68
255.797	19.11
256.01	20.67
256.222	25.6
256.435	29.7
256.648	31.14
256.86	37.22
257.073	43.62
257.285	34.99
257.498	38.63
257.711	26.52
257.923	34.33
258.136	39.04
258.348	34.17
258.561	27.67
258.773	6.73
258.986	-7.52
259.198	-5.62
259.411	-41.82
259.623	-44.28
259.836	-43.87
260.048	-43.39
260.261	-7.78
260.473	-15.44
260.686	-29.54
260.898	-38.98
261.111	-43.65
261.323	-37.1
261.535	-39.35
261.748	-38.11
261.96	-25.22
262.173	-15.26
262.385	-17.9
262.597	-19.32
262.81	-20.13
263.022	-21.44
263.234	-3.35
263.447	2.49
263.659	1.9
263.871	6.65
264.083	15.56
264.296	20.75
264.508	15.4
264.72	2.55
264.932	0.42
265.145	-7.52
265.357	-6.55
265.569	-13.01
265.781	-23.23
265.993	-31.96
266.205	-41.18
266.418	-40.67
266.63	-65.4
266.842	-54
267.054	-50.62
267.266	-44.19
267.478	-52.07
267.69	-65.09
267.902	-65.01
268.114	-69.21
268.326	-64.63
268.538	-69.34
268.75	-51
268.962	-50.11
269.174	-34.88
269.386	-16.56
269.598	5.25
269.81	8.29
270.022	8.95
270.234	11.27
270.446	16.33
270.658	13.22
270.87	13.31
271.082	16.1
271.294	16.85
271.506	10.85
271.718	9.08
271.929	16.29
272.141	20.11
272.353	25.93
272.565	27.64
272.777	26.97
272.989	28.31
273.2	31.16
273.412	32.62
273.624	31.03
273.836	34.31
274.047	33.9
274.259	35.29
274.471	40.95
274.683	39.62
274.894	38.11
275.106	44.84
275.318	47.29
275.529	47.45
275.741	40.6
275.953	46.29
276.164	50.71
276.376	46.93
276.588	52.47
276.799	48.88
277.011	45.24
277.222	61.44
277.434	52.36
277.646	43.39
277.857	40.95
278.069	44.17
278.28	26.9
278.492	18.97
278.703	10.96
278.915	14.05
279.126	6.19
279.338	4.11
279.549	7.78
279.761	5.82
279.972	6.69
280.183	4.07
280.395	3.41
280.606	-0.99
280.818	-6.14
281.029	-5.31
281.24	-7.71
281.452	-12.64
281.663	-20.67
281.875	-24.74
282.086	-24.82
282.297	-26.39
282.508	-23.99
282.72	-16.04
282.931	-13.33
283.142	-15.95
283.354	-28.09
283.565	-27.11
283.776	-22.31
283.987	-47.95
284.199	-57.76
284.41	-43.8
284.621	-27.85
284.832	-14.56
285.043	-12.18
285.254	-19.24
285.466	-36.29
285.677	-26.84
285.888	-27.45
286.099	-31.45
286.31	-14.86
286.521	-20.58
286.732	-22.38
286.943	-22.91
287.154	-27.19
287.366	-28.15
287.577	-17
287.788	-16.58
287.999	-12.88
288.21	-23.09
288.421	-10.35
288.632	-6.92
288.843	-8.23
289.054	-8.6
289.264	-20.48
289.475	-17.47
289.686	-10.56
289.897	-4.02
290.108	2.34
290.319	3.67
290.53	7.42
290.741	5
290.952	3.73
291.163	11.24
291.373	11.47
291.584	14.89
291.795	14.87
292.006	9.97
292.217	8.41
292.427	10.85
292.638	14.09
292.849	13.63
293.06	20.21
293.27	20.44
293.481	19.25
293.692	23.52
293.903	18.86
294.113	20.59
294.324	20.31
294.535	9.28
294.745	11.59
294.956	17.49
295.167	13.04
295.377	21.75
295.588	16.51
295.798	16.28
296.009	13.17
296.22	11.95
296.43	3.86
296.641	3.37
296.851	2.08
297.062	-3.63
297.272	-8.41
297.483	-13.68
297.693	-12.33
297.904	-11.82
298.114	-6.77
298.325	1.2
298.535	-7.74
298.746	-8.38
298.956	-4.34
299.167	-9.2
299.377	-9.63
299.587	-10.84
299.798	-15.58
300.008	-20.86
300.219	-16.99
300.429	-12.46
300.639	-7.03
300.85	3.05
301.06	3.08
301.27	11.08
301.481	11.72
301.691	9.81
301.901	8.89
302.111	8.18
302.322	2.86
302.532	-1.6
302.742	-13.4
302.952	-6.04
303.163	-13.11
303.373	-16.73
303.583	-10.79
303.793	-17.2
304.003	-6.93
304.214	-5.53
304.424	-5.73
304.634	-12.01
304.844	-13.77
305.054	-9.51
305.264	-11.65
305.474	-9.35
305.684	-15.9
305.894	-5.28
306.104	1.53
306.314	1.06
306.525	-1.82
306.735	-0.03
306.945	0.2
307.155	11.27
307.365	9.94
307.575	15.96
307.784	15.08
307.994	14.51
308.204	14.87
308.414	12.93
308.624	12.38
308.834	20.97
309.044	28.64
309.254	30.52
309.464	27.45
309.674	21.37
309.884	21.27
310.093	23.68
310.303	21.29
310.513	23.41
310.723	25.6
310.933	24.87
311.142	26.7
311.352	26.76
311.562	26.32
311.772	28.07
311.981	25.85
312.191	24.89
312.401	26.15
312.611	27.53
312.82	26.97
313.03	32.11
313.24	26.4
313.449	23.7
313.659	21.71
313.869	17.99
314.078	21.91
314.288	21.24
314.497	15.06
314.707	14.63
314.917	10.28
315.126	15.63
315.336	16.81
315.545	15.11
315.755	19.42
315.964	16.82
316.174	19.9
316.383	16.92
316.593	18.84
316.802	15.53
317.012	19.5
317.221	21.13
317.431	18.66
317.64	18.52
317.849	15.8
318.059	19.44
318.268	24.1
318.478	27.49
318.687	30.9
318.896	36.92
319.106	33.55
319.315	31.43
319.524	19.96
319.734	19.42
319.943	23.23
320.152	21.59
320.362	18.39
320.571	14.01
320.78	14.85
320.989	19.37
321.199	25.15
321.408	20.64
321.617	17.57
321.826	16.43
322.035	14.56
322.245	15.55
322.454	14.61
322.663	9.99
322.872	5.92
323.081	0.06
323.29	-3.83
323.5	-1
323.709	-0.11
323.918	6.06
324.127	-0.8
324.336	-11.25
324.545	-19.97
324.754	-21.2
324.963	-21.84
325.172	-16.16
325.381	-16.78
325.59	-17.99
325.799	-12.52
326.008	-20.83
326.217	-25.27
326.426	-7.66
326.635	-7.65
326.844	-9.56
327.053	1.12
327.262	6.12
327.47	2.26
327.679	3.1
327.888	-4.01
328.097	-3.37
328.306	-1.22
328.515	6.94
328.724	15.41
328.932	15.46
329.141	27.24
329.35	27.26
329.559	28.63
329.768	20.85
329.976	19.11
330.185	13.61
330.394	17.71
330.602	18.17
330.811	6.18
331.02	5.18
331.229	6.1
331.437	6.71
331.646	5.08
331.855	12.49
332.063	11.42
332.272	16.08
332.48	15.11
332.689	13.51
332.898	14.5
333.106	16.28
333.315	23.04
333.523	15.15
333.732	13.16
333.94	10.63
334.149	20.95
334.357	21.13
334.566	16.58
334.774	15.09
334.983	16.18
335.191	18.08
335.4	15.86
335.608	10.95
335.817	-0.27
336.025	-12.55
336.234	-33.61
336.442	-25.73
336.65	-25.42
336.859	-13.44
337.067	-23.3
337.275	-21.41
337.484	-27.89
337.692	-28.04
337.9	-27.05
338.109	-17.43
338.317	-25.01
338.525	-27.38
338.734	-26.45
338.942	-22.72
339.15	-28.93
339.358	-34.01
339.567	-22.48
339.775	-17.44
339.983	-25.31
340.191	-22.38
340.399	-10.75
340.608	4.02
340.816	3.83
341.024	5.65
341.232	-4.12
341.44	-0.83
341.648	3.25
341.856	5.26
342.064	3.44
342.272	-4.81
342.481	-7.02
342.689	-1.22
342.897	1.92
343.105	0.85
343.313	6.74
343.521	11.7
343.729	7.4
343.937	4.04
344.145	0.9
344.353	6.17
344.56	1.2
344.768	-2.83
344.976	-8.81
345.184	-16.67
345.392	-16.96
345.6	-9.89
345.808	-3.07
346.016	-14.29
346.224	-12.7
346.431	-14.75
346.639	-6.78
346.847	-10.63
347.055	-14.02
347.263	-25.38
347.471	-30.68
347.678	-35.6
347.886	-44.63
348.094	-33.89
348.302	-27.63
348.509	-27.9
348.717	-22.75
348.925	-17
349.132	-12.8
349.34	-7.81
349.548	1.22
349.755	2.46
349.963	-1.55
350.171	-5.73
350.378	-3.64
350.586	-5.04
350.793	2.27
351.001	-0.29
351.209	-0.21
351.416	3.26
351.624	8.69
351.831	4.43
352.039	-1.04
352.246	3.52
352.454	-3.72
352.661	-3.05
352.869	5.52
353.076	2.25
353.284	10.4
353.491	16.59
353.699	10.24
353.906	7.07
354.113	3.99
354.321	5.18
354.528	6.18
354.736	7.06
354.943	8.21
355.15	5.84
355.358	1.62
355.565	-5.26
355.772	-4.88
355.98	-1.83
356.187	3.81
356.394	-4.48
356.601	-5.52
356.809	1.42
357.016	4.66
357.223	0.47
357.43	-2.33
357.638	-3.99
357.845	-10.57
358.052	-17.46
358.259	-12.8
358.466	-15.18
358.673	-17.78
358.881	-23.28
359.088	-17.82
359.295	-14.05
359.502	-27.08
359.709	-26.5
359.916	-23.81
360.123	-23.77
360.33	-35.19
360.537	-32.43
360.744	-24.2
360.951	-26.23
361.158	-26.98
361.365	-27.98
361.572	-15.53
361.779	-14.95
361.986	-20.78
362.193	-21.79
362.4	-15.21
362.607	-30.08
362.814	-31.14
363.021	-22.85
363.228	-21.31
363.435	-18.21
363.641	-21.03
363.848	-14.3
364.055	-10.24
364.262	-1.22
364.469	-4.78
364.676	0.63
364.882	-3.78
365.089	-3.21
365.296	1.01
365.503	0.02
365.709	-6.14
365.916	-9.69
366.123	-11.1
366.33	-9.16
366.536	-3.56
366.743	-4.93
366.95	-3.5
367.156	5.15
367.363	-2.78
367.57	-5.31
367.776	-8.47
367.983	-2.81
368.19	0.07
368.396	4.31
368.603	3.72
368.809	17.59
369.016	13.78
369.222	14.45
369.429	21.55
369.635	21.34
369.842	24.61
370.048	26.6
370.255	18.63
370.461	18.89
370.668	20.02
370.874	15.49
371.081	25.02
371.287	27.55
371.494	19.57
371.7	25.23
371.906	21.68
372.113	16.97
372.319	11.77
372.526	15.1
372.732	12.97
372.938	5.26
373.145	-2
373.351	2.18
373.557	0.77
373.763	-2.27
373.97	-1.85
374.176	2.23
374.382	4.02
374.588	10.22
374.795	9.14
375.001	4.19
375.207	2.94
375.413	1.64
375.62	3.34
375.826	18.45
376.032	14.27
376.238	22.62
376.444	23.94
376.65	18.99
376.856	10.65
377.062	13.05
377.269	19.73
377.475	16.08
377.681	6.11
377.887	8.83
378.093	0.03
378.299	7.49
378.505	-4.66
378.711	-3.18
378.917	-10.22
379.123	-7.54
379.329	2.05
379.535	12.14
379.741	10.25
379.947	5.81
380.152	2.76
380.358	-2.47
380.564	-9.21
380.77	-18.24
380.976	-17.8
381.182	-16.07
381.388	-22.02
381.594	-33.79
381.799	-27.9
382.005	-20.92
382.211	-19.76
382.417	-13.16
382.623	-24.14
382.828	-17.99
383.034	-25.56
383.24	-27.32
383.445	-30.74
383.651	-41.47
383.857	-63.08
384.063	-63.81
384.268	-82.13
384.474	-85.38
384.68	-82.37
384.885	-68.76
385.091	-49.27
385.296	-44.43
385.502	-38.45
385.708	-39.82
385.913	-36.55
386.119	-44.7
386.324	-45.36
386.53	-46.4
386.735	-62.63
386.941	-47.57
387.146	-51.58
387.352	-32.42
387.557	-28.86
387.763	-29.58
387.968	-32.15
388.174	-19.94
388.379	-25.09
388.585	-19.53
388.79	-17.19
388.996	-17.35
389.201	-22.41
389.406	-37.26
389.612	-36.69
389.817	-33.18
390.022	-23.96
390.228	-7.74
390.433	-1.2
390.638	-1.89
390.844	-2.66
391.049	-2.66
391.254	1.59
391.459	4.22
391.665	-0.39
391.87	-1.68
392.075	4.68
392.28	7.51
392.485	11.5
392.691	7.27
392.896	7.28
393.101	6.65
393.306	21.05
393.511	20.97
393.716	29.3
393.922	32.09
394.127	30.81
394.332	30.06
394.537	24.29
394.742	19.91
394.947	14.37
395.152	15.61
395.357	17.37
395.562	7.1
395.767	-1.76
395.972	0.98
396.177	6.26
396.382	6.86
396.587	5.06
396.792	2.92
396.997	15.01
397.202	18.64
397.407	12.27
397.611	3.82
397.816	5.24
398.021	2.41
398.226	-3.61
398.431	-2.37
398.636	-7.2
398.841	-10.16
399.045	-5.08
399.25	-5.34
399.455	-8.27
399.66	-1.73
399.864	-1.57
400.069	-6.38
400.274	-7.27
400.479	-11.36
400.683	-9.07
400.888	-6.28
401.093	-18.08
401.297	-22.02
401.502	-26
401.707	-22.85
401.911	-10.9
402.116	-11.42
402.321	3.8
402.525	5.3
402.73	-3.39
402.934	-2.05
403.139	-0.35
403.344	-3.98
403.548	-3.14
403.753	-4.71
403.957	-17.21
404.162	-19.8
404.366	3.69
404.571	5.78
404.775	8.66
404.98	-7.56
405.184	-5.27
405.388	1.06
405.593	1.17
405.797	-4.33
406.002	1.58
406.206	-3.27
406.41	0.38
406.615	1.6
406.819	4.9
407.023	13.66
407.228	10.81
407.432	2.61
407.636	-1.96
407.841	8.61
408.045	7.04
408.249	4.97
408.453	11.69
408.658	5.05
408.862	9.21
409.066	11.83
409.27	19.42
409.474	10.68
409.679	10.2
409.883	3.92
410.087	-1.33
410.291	-7.18
410.495	-19.16
410.699	-32.17
410.903	-38.01
411.108	-28.36
411.312	-36.41
411.516	-35
411.72	-9.41
411.924	-5.23
412.128	-8.64
412.332	0.94
412.536	6.92
412.74	8.28
412.944	11.13
413.148	5.45
413.352	-5.75
413.556	-12.53
413.76	-14.3
413.964	-5.98
414.167	1.18
414.371	8.23
414.575	11.99
414.779	10.65
414.983	15.01
415.187	16.86
415.391	14.43
415.594	26.41
415.798	21.73
416.002	12.82
416.206	15.71
416.41	12.01
416.613	8.52
416.817	6.3
417.021	4.97
417.225	0.68
417.428	-4.64
417.632	-3.1
417.836	-2.3
418.039	11.33
418.243	14.32
418.447	12.56
418.65	26.96
418.854	31.57
419.057	30.78
419.261	33.75
419.465	24.16
419.668	27.34
419.872	17.27
420.075	19.19
420.279	27.13
420.482	22.5
420.686	22.31
420.889	17.65
421.093	22.81
421.296	19.81
421.5	9.07
421.703	12.77
421.907	15.65
422.11	9.31
422.314	1.14
422.517	-13
422.72	-6.14
422.924	-27.23
423.127	-36.02
423.33	-40.36
423.534	-39.76
423.737	-36.86
423.94	-38.58
424.144	-27.21
424.347	-14.29
424.55	-22.65
424.754	-24.82
424.957	-33.08
425.16	-22.66
425.363	-25.27
425.567	-19.32
425.77	-9.09
425.973	-4.78
426.176	-9.25
426.379	1.99
426.582	6.21
426.786	19.77
426.989	13.3
427.192	31.01
427.395	31.84
427.598	28.8
427.801	30.7
428.004	29.74
428.207	27.51
428.41	25.02
428.613	18.87
428.816	24.27
429.019	31.23
429.222	28.51
429.425	28.92
429.628	26.19
429.831	27.6
430.034	28.92
430.237	25.48
430.44	27.93
430.643	25.67
430.846	27.74
431.049	15.24
431.252	15.03
431.454	11.03
431.657	7.12
431.86	2.85
432.063	-0.65
432.266	-6.16
432.469	-8.52
432.671	-7.15
432.874	3.88
433.077	-6.23
433.28	-11.48
433.482	-6.1
433.685	-18.58
433.888	-21.52
434.09	-34.31
434.293	-53.18
434.496	-53.78
434.698	-59.21
434.901	-54.19
435.104	-54.37
435.306	-40.06
435.509	-40.77
435.712	-42.83
435.914	-59.61
436.117	-35.68
436.319	-27.45
436.522	-17.72
436.724	-15.78
436.927	-19.41
437.129	-22.62
437.332	-20.25
437.534	-18.7
437.737	-27.11
437.939	7.69
438.142	14.47
438.344	21.61
438.547	25.9
438.749	37.72
438.951	36.6
439.154	47.49
439.356	36.43
439.558	36.86
439.761	41.73
439.963	30.94
440.165	35.12
440.368	30.98
440.57	14.49
440.772	11.51
440.975	5.09
441.177	12.28
441.379	6.81
441.581	10.3
441.784	0.97
441.986	11.82
442.188	-5.48
442.39	-5.11
442.592	-15.69
442.795	-1.97
442.997	-14.3
443.199	-11.58
443.401	-15.62
443.603	-9.2
443.805	-20.13
444.007	-27.31
444.209	-26.05
444.411	-16.14
444.613	-14.43
444.815	-0.28
445.017	-3.41
445.219	-0.81
445.421	-6.77
445.623	-8.32
445.825	-19.69
446.027	-23.23
446.229	-32.65
446.431	-25.81
446.633	-32.13
446.835	-18.68
447.037	-26.63
447.239	-20.25
447.441	-25.91
447.643	-29.53
447.844	-41.34
448.046	-22.02
448.248	-18.54
448.45	-14.6
448.652	-30.05
448.853	-24.25
449.055	-23.29
449.257	-13.33
449.459	-20.43
449.66	-15.14
449.862	-17.6
450.064	-3.89
450.266	3.23
450.467	-0.25
450.669	-3
450.871	-15.4
451.072	-15.54
451.274	-17.43
451.475	-21.38
451.677	-9.47
451.879	-17.27
452.08	-38.08
452.282	-24.84
452.483	-24.76
452.685	-24.93
452.886	-13.36
453.088	-27.08
453.289	-52.08
453.491	-64.65
453.692	-98.01
453.894	-76.05
454.095	-62.2
454.297	-80.63
454.498	-69.26
454.7	-63.76
454.901	-44.86
455.102	-25.54
455.304	-22.86
455.505	-14.19
455.706	-23.13
455.908	-25.25
456.109	-25.3
456.31	-13.96
456.512	-30.86
456.713	-23.19
456.914	-26.81
457.116	-42.09
457.317	-31.22
457.518	-27.59
457.719	-25.01
457.921	-12.61
458.122	-16.46
458.323	-14.98
458.524	-3.18
458.725	-1.73
458.926	-0.97
459.128	-11
459.329	-11.47
459.53	-16.25
459.731	-34.37
459.932	-33.61
460.133	-39.5
460.334	-28.49
460.535	-23.33
460.736	-12.55
460.937	-27.2
461.138	-31.47
461.339	-20.34
461.54	-21.68
461.741	-17.57
461.942	-11.13
462.143	-7.56
462.344	-12.62
462.545	-13.31
462.746	-24.7
462.947	-25.03
463.148	-23.28
463.348	-20.23
463.549	-23.86
463.75	-26.79
463.951	-16.92
464.152	-16.78
464.353	-11.52
464.553	1.21
464.754	7.78
464.955	9.1
465.156	14.7
465.356	21.47
465.557	19.86
465.758	19.51
465.959	26.24
466.159	22.75
466.36	16.54
466.561	17.4
466.761	13.08
466.962	16.2
467.163	14.74
467.363	14.46
467.564	19.67
467.764	18.32
467.965	15.19
468.166	11.79
468.366	23.16
468.567	21.12
468.767	21.52
468.968	18
469.168	22.15
469.369	24.03
469.569	16.94
469.77	15.89
469.97	7.25
470.17	9.19
470.371	14.48
470.571	11.94
470.772	15.61
470.972	23.4
471.172	26.32
471.373	26.97
471.573	21.33
471.773	17.6
471.974	25.57
472.174	28.68
472.374	32.38
472.575	23.43
472.775	28.23
472.975	17.04
473.175	19.63
473.376	10.52
473.576	11.95
473.776	15.11
473.976	13.34
474.177	21.87
474.377	15.38
474.577	12.58
474.777	13.45
474.977	5.57
475.177	-1
475.377	-3.41
475.577	0.06
475.777	4.22
475.978	-1.13
476.178	-0.22
476.378	5.05
476.578	12.12
476.778	14.82
476.978	15.13
477.178	19.93
477.378	20.46
477.578	26.9
477.778	24.23
477.977	24.38
478.177	23.9
478.377	22.25
478.577	23.6
478.777	28.64
478.977	28.84
479.177	28.32
479.377	30.37
479.577	27.09
479.776	23.01
479.976	19.75
480.176	23.7
480.376	20.03
480.576	15.6
480.775	3.73
480.975	-0.93
481.175	-5.65
481.374	-8.03
481.574	-5.28
481.774	-6.72
481.974	-5.88
482.173	-7.62
482.373	-7.46
482.572	-2.94
482.772	-4.52
482.972	-5.33
483.171	-1.56
483.371	5.29
483.57	5.96
483.77	10.48
483.97	10.81
484.169	12.69
484.369	7.41
484.568	2.98
484.768	7.51
484.967	9.86
485.167	15.94
485.366	12.62
485.566	11.93
485.765	9.37
485.964	3.12
486.164	2.14
486.363	1.91
486.563	3.31
486.762	-2.49
486.961	2.44
487.161	0.53
487.36	-4.96
487.559	-6.26
487.759	-5.96
487.958	-11.12
488.157	-17.95
488.356	-13.6
488.556	-4.19
488.755	-3.81
488.954	-10.21
489.153	-7.02
489.353	-8.32
489.552	-4.96
489.751	-7.86
489.95	-7.17
490.149	-5.51
490.348	-5.48
490.548	-2.19
490.747	-1.94
490.946	-0.82
491.145	-3.72
491.344	-4.79
491.543	0.81
491.742	-0.46
491.941	-9.06
492.14	-9.48
492.339	-9.45
492.538	-12.38
492.737	-11.59
492.936	-6.09
493.135	-2.08
493.334	-8.16
493.533	-11.26
493.732	-3.59
493.931	4.23
494.13	2.92
494.328	7.15
494.527	7.47
494.726	2.79
494.925	-4.07
495.124	-4.17
495.323	-3.61
495.521	-1.91
495.72	-3.5
495.919	-3.49
496.118	3.1
496.316	5.87
496.515	10.85
496.714	5.86
496.913	5.53
497.111	4.19
497.31	-0.86
497.509	-0.05
497.707	-0.92
497.906	-1.75
498.105	-9.44
498.303	-11.11
498.502	-14.6
498.7	-10.85
498.899	-7.9
499.097	-0.77
499.296	4.23
499.495	3.59
499.693	3.39
499.892	1.65
500.09	-3.01
500.289	1.27
500.487	1.57
500.686	2.65
500.884	6.53
501.082	6.3
501.281	7.25
501.479	11.43
501.678	13.81
501.876	13.36
502.074	12.09
502.273	16.36
502.471	16.5
502.669	18.54
502.868	20
503.066	18.99
503.264	22.07
503.463	14.45
503.661	11.9
503.859	12.8
504.057	17.57
504.256	18.61
504.454	13.48
504.652	11.04
504.85	9.57
505.048	11.83
505.246	9.94
505.445	10.31
505.643	8.46
505.841	10.75
506.039	12.15
506.237	10.03
506.435	7.65
506.633	13.5
506.831	15.04
507.029	15.76
507.227	16.99
507.425	17.22
507.623	23.73
507.821	22.26
508.019	25.75
508.217	23.77
508.415	24.28
508.613	26.35
508.811	27.38
509.009	29.76
509.207	27.87
509.405	26.33
509.603	26.62
509.8	27.23
509.998	25.36
510.196	23.86
510.394	20.4
510.592	20.33
510.79	14.13
510.987	12.54
511.185	11.62
511.383	9.05
511.581	4.62
511.778	5.22
511.976	10.88
512.174	4.41
512.371	-0.67
512.569	-0.01
512.767	-2.72
512.964	-7
513.162	-9.24
513.36	-12.17
513.557	-12.35
513.755	-12.85
513.952	-11.54
514.15	-12.2
514.348	-8.99
514.545	-5.67
514.743	-2.31
514.94	1.71
515.138	0.59
515.335	-1.69
515.533	-2.22
515.73	0.24
515.927	-3.75
516.125	-5.85
516.322	-3.89
516.52	0.59
516.717	4.54
516.915	9.27
517.112	10.03
517.309	11.65
517.507	15.41
517.704	13.71
517.901	11.42
518.099	9.36
518.296	12.01
518.493	14.49
518.69	17.3
518.888	18.29
519.085	18.94
519.282	19.85
519.479	21.45
519.676	22.61
519.874	21.76
520.071	18.96
520.268	18.36
520.465	22.91
520.662	24.45
520.859	23.14
521.056	24.17
521.254	29.27
521.451	28.15
521.648	26.92
521.845	25.34
522.042	29.55
522.239	33.74
522.436	30.63
522.633	23.54
522.83	20.38
523.027	15.85
523.224	13.25
523.421	16.7
523.618	12.87
523.815	15.21
524.011	11.12
524.208	16.02
524.405	15.38
524.602	9.81
524.799	3.44
524.996	1.66
525.193	-1.71
525.389	-3.06
525.586	-1.75
525.783	-0.91
525.98	2.82
526.176	-1.11
526.373	-4.49
526.57	-1.87
526.767	-1.36
526.963	-0.89
527.16	5.77
527.357	9.57
527.553	7.62
527.75	9.71
527.947	6.78
528.143	12.12
528.34	8.61
528.537	10.84
528.733	13.15
528.93	14.57
529.126	16.11
529.323	18.71
529.519	16.79
529.716	12.61
529.912	10.35
530.109	11.11
530.305	11.63
530.502	13.4
530.698	12.34
530.895	12.24
531.091	15.17
531.288	11.58
531.484	9.65
531.68	8.82
531.877	8.96
532.073	10.56
532.269	9.32
532.466	10.91
532.662	11.76
532.858	10.05
533.055	11.85
533.251	12.34
533.447	9.74
533.643	12.86
533.84	13.87
534.036	15.56
534.232	17.96
534.428	15.67
534.624	15.26
534.821	15.43
535.017	18.92
535.213	16.46
535.409	18.99
535.605	19.84
535.801	19.64
535.997	17.21
536.193	17.03
536.389	19.72
536.586	17.72
536.782	16.64
536.978	20.74
537.174	21.66
537.37	20.39
537.566	24.51
537.762	20.35
537.958	21.66
538.153	21.31
538.349	18.98
538.545	22.21
538.741	20.67
538.937	19.53
539.133	16.4
539.329	18.55
539.525	16.61
539.721	15.54
539.916	16.32
540.112	15.79
540.308	15.98
540.504	12.6
540.699	15.14
540.895	14.24
541.091	14.62
541.287	12.96
541.482	12.71
541.678	12.7
541.874	15.33
542.069	15.24
542.265	14.98
542.461	15.55
542.656	12.11
542.852	14.61
543.048	15.45
543.243	16.49
543.439	16.65
543.634	17.67
543.83	17.04
544.025	15.72
544.221	19.22
544.417	20.67
544.612	22.9
544.807	22.68
545.003	20.75
545.198	16.11
545.394	16.3
545.589	16.89
545.785	13.77
545.98	11.38
546.176	11.4
546.371	8.79
546.566	9.88
546.762	10.37
546.957	10.02
547.152	10.16
547.348	9.44
547.543	10.66
547.738	5.81
547.933	3.76
548.129	4
548.324	1.48
548.519	-2.7
548.714	-2.99
548.91	-1.1
549.105	0.65
549.3	4.52
549.495	6.47
549.69	2.9
549.885	2.94
550.08	7.65
550.276	9.12
550.471	11.54
550.666	9.39
550.861	10.64
551.056	6.43
551.251	6.22
551.446	8.47
551.641	5.77
551.836	11.3
552.031	13.06
552.226	14.51
552.421	16.57
552.616	17.69
552.811	18.04
553.006	16.11
553.201	14.95
553.395	14.43
553.59	13.46
553.785	14.56
553.98	13.58
554.175	11.27
554.37	8.72
554.565	7.64
554.759	7.24
554.954	6.28
555.149	9.1
555.344	7.4
555.538	4.77
555.733	5.92
555.928	5.83
556.122	5.89
556.317	1.42
556.512	-2.25
556.706	-3.88
556.901	-3.33
557.096	-3.47
557.29	-3.28
557.485	-4.24
557.68	-7.37
557.874	-4.46
558.069	-1.65
558.263	-2.61
558.458	-1.36
558.652	-1.39
558.847	-1.71
559.041	-0.22
559.236	-1.75
559.43	1.48
559.625	4.29
559.819	2.92
560.014	3.29
560.208	4.26
560.402	6.55
560.597	9.82
560.791	11.22
560.986	11.44
561.18	13.39
561.374	14.46
561.569	12.72
561.763	14.76
561.957	11.94
562.151	9.46
562.346	11.2
562.54	13.23
562.734	14.03
562.928	15.39
563.123	15.92
563.317	18.75
563.511	19.14
563.705	17.53
563.899	19.33
564.093	18.32
564.288	18.67
564.482	21.19
564.676	21.6
564.87	24.4
565.064	21.91
565.258	19.26
565.452	17.34
565.646	20.52
565.84	18.37
566.034	19.39
566.228	23.59
566.422	23.19
566.616	21.26
566.81	23.1
567.004	24.43
567.198	23.75
567.392	21.72
567.586	18.41
567.779	19.99
567.973	18.49
568.167	20.25
568.361	21.21
568.555	19.01
568.749	16.7
568.942	13.57
569.136	17.16
569.33	16.78
569.524	18.18
569.718	17.26
569.911	19.58
570.105	21.84
570.299	19.23
570.492	19.8
570.686	22.02
570.88	21.27
571.073	18.06
571.267	18.03
571.461	17.73
571.654	19.15
571.848	19.16
572.041	19.74
572.235	18.71
572.429	18.83
572.622	18.68
572.816	20.03
573.009	22.11
573.203	18.17
573.396	20
573.59	20.64
573.783	20.61
573.976	20.78
574.17	18.47
574.363	17.96
574.557	17.02
574.75	14.56
574.943	14.73
575.137	17.47
575.33	18.8
575.523	18.94
575.717	17.95
575.91	15.84
576.103	15.15
576.297	12.99
576.49	13.34
576.683	12.66
576.876	11.76
577.07	9.94
577.263	12.93
577.456	11.88
577.649	10.18
577.842	11.76
578.036	11.24
578.229	12.16
578.422	13.6
578.615	12.75
578.808	12.4
579.001	13.43
579.194	12.29
579.387	12
579.58	12.28
579.773	11.05
579.966	11.22
580.159	10.66
580.352	11.7
580.545	10.28
580.738	11.73
580.931	11.31
581.124	13.47
581.317	10.45
581.51	8.88
581.703	10.14
581.896	8.71
582.088	8.63
582.281	8.67
582.474	7.98
582.667	10.51
582.86	11.34
583.053	9.36
583.245	10.29
583.438	9.47
583.631	11.52
583.824	13
584.016	14.94
584.209	15.16
584.402	16.69
584.594	16.36
584.787	18.19
584.98	18.35
585.172	17.22
585.365	17.8
585.558	19.82
585.75	20.82
585.943	19.45
586.135	18.31
586.328	16.54
586.52	17.38
586.713	17.29
586.906	16.75
587.098	18.24
587.291	18.03
587.483	15.92
587.675	15.41
587.868	14.52
588.06	13.33
588.253	14.74
588.445	13.18
588.638	13.25
588.83	11.47
589.022	11.94
589.215	11.57
589.407	13.57
589.599	13.6
589.792	12.73
589.984	14.65
590.176	14.65
590.368	17.9
590.561	17.34
590.753	15.81
590.945	16.05
591.137	14.08
591.33	12.31
591.522	15.84
591.714	13.99
591.906	17.45
592.098	17.38
592.29	16.8
592.482	17.52
592.674	15.67
592.867	14.84
593.059	15.4
593.251	14.45
593.443	14.21
593.635	14.02
593.827	13
594.019	12.97
594.211	11.86
594.403	11.32
594.595	12.12
594.787	12.74
594.979	14.83
595.17	13.88
595.362	14.63
595.554	13.61
595.746	14.41
595.938	13.1
596.13	13.88
596.322	14.35
596.513	12.51
596.705	13.89
596.897	13.88
597.089	14.02
597.281	16.24
597.472	16.13
597.664	14.43
597.856	15.56
598.048	13.9
598.239	14.49
598.431	13.94
598.623	12.78
598.814	11.78
599.006	12.25
599.197	14.28
599.389	13.99
599.581	11.3
599.772	10.67
599.964	10.84
600.155	10.48
600.347	9.33
600.538	9.23
600.73	10.52
600.921	11.11
601.113	10.4
601.304	9.43
601.496	8.5
601.687	9.14
601.879	8.71
602.07	10.14
602.262	12.22
602.453	12.18
602.644	10.57
602.836	9.43
603.027	6.31
603.218	6.06
603.41	6.05
603.601	8.61
603.792	9.48
603.983	8.38
604.175	8.24
604.366	8.01
604.557	10.76
604.748	9.88
604.94	9.34
605.131	7.83
605.322	7.62
605.513	9.57
605.704	11.49
605.895	12.32
606.086	12.72
606.278	12.52
606.469	13.36
606.66	15.86
606.851	16.25
607.042	16.64
607.233	15.8
607.424	14.46
607.615	14.61
607.806	15.09
607.997	16.12
608.188	16.58
608.379	15.79
608.57	14.52
608.761	14.14
608.952	15.7
609.142	17.83
609.333	17.17
609.524	16.14
609.715	15.59
609.906	14.43
610.097	15.54
610.287	13.68
610.478	13.37
610.669	13.15
610.86	14.62
611.051	14.66
611.241	16.35
611.432	17.55
611.623	18.08
611.813	15.92
612.004	14.73
612.195	16.75
612.385	18.63
612.576	19.95
612.767	20.14
612.957	18.71
613.148	18.26
613.338	17.19
613.529	16.4
613.72	15.49
613.91	16.3
614.101	14.53
614.291	15.73
614.482	15.95
614.672	15.15
614.863	13.95
615.053	14.39
615.243	14.24
615.434	16.08
615.624	17.07
615.815	18.47
616.005	18.93
616.195	15.83
616.386	13.15
616.576	12.23
616.766	12.09
616.957	12.5
617.147	11.34
617.337	11.54
617.528	12.32
617.718	11.41
617.908	10.94
618.098	10.89
618.289	12.1
618.479	10.7
618.669	10.69
618.859	11.08
619.049	12.15
619.239	11.18
619.43	10.04
619.62	6.87
619.81	6.97
620	8.06
620.19	8.12
620.38	10.5
620.57	10.99
620.76	10.37
620.95	11.47
621.14	12.93
621.33	13.76
621.52	13.54
621.71	13.15
621.9	13.53
622.09	13.22
622.28	12.55
622.47	11.82
622.659	12.12
622.849	12.92
623.039	12.4
623.229	12.66
623.419	11.83
623.609	12.47
623.799	11.53
623.988	10.73
624.178	11.2
624.368	10.32
624.558	9.94
624.747	10.49
624.937	9.35
625.127	7.3
625.316	6.72
625.506	7.18
625.696	8.68
625.885	7.21
626.075	5.98
626.265	6.1
626.454	7.62
626.644	7.34
626.833	6.28
627.023	6.3
627.212	7.03
627.402	9.31
627.591	10.29
627.781	11.35
627.97	11.53
628.16	11.45
628.349	11.13
628.539	9.94
628.728	11.28
628.918	11.63
629.107	11.96
629.296	12.94
629.486	12.2
629.675	12.29
629.865	13.6
630.054	15.31
630.243	14.34
630.432	12.59
630.622	13.23
630.811	15.54
631	14.89
631.19	13.92
631.379	11.98
631.568	11.89
631.757	11.62
631.946	11.29
632.136	12.37
632.325	12.53
632.514	13.64
632.703	11.28
632.892	10.05
633.081	10.92
633.27	11.54
633.459	11.64
633.648	10.58
633.837	10.19
634.026	9.54
634.215	11.22
634.404	11.84
634.593	12.7
634.782	11.62
634.971	12.5
635.16	10.39
635.349	11.17
635.538	10.62
635.727	9.93
635.916	9.22
636.105	8.69
636.294	10.32
636.482	10.3
636.671	10.92
636.86	12.43
637.049	12.97
637.238	11.89
637.426	11.6
637.615	10.99
637.804	10.37
637.993	10.38
638.181	8.78
638.37	9.5
638.559	8.31
638.747	7.99
638.936	7.41
639.125	9.47
639.313	8.07
639.502	7.93
639.691	7.38
639.879	6.71
640.068	6.92
640.256	4.28
640.445	4.07
640.633	5.5
640.822	3.99
641.01	5.17
641.199	5.47
641.387	7.49
641.576	8.71
641.764	10.37
641.953	9.5
642.141	11.03
642.329	11.16
642.518	10.37
642.706	10.58
642.894	10.32
643.083	11.04
643.271	11.27
643.459	13.07
643.648	14.17
643.836	16.1
644.024	16.23
644.213	17.86
644.401	17.57
644.589	17.12
644.777	17.91
644.965	17.51
645.154	17.05
645.342	15.48
645.53	15.5
645.718	14.42
645.906	15.75
646.094	15.73
646.282	15.38
646.47	15.75
646.658	14.39
646.846	14.45
647.034	14.8
647.223	14.64
647.411	14.42
647.599	13.5
647.786	12.96
647.974	11.43
648.162	10.56
648.35	10.21
648.538	8.94
648.726	8.96
648.914	7.81
649.102	8
649.29	7.8
649.478	8.52
649.665	9.04
649.853	9.71
650.041	8.31
650.229	8.71
650.417	8.15
650.604	8.5
650.792	8.41
650.98	6.14
651.168	6.2
651.355	5.99
651.543	6.88
651.731	6.03
651.918	5.1
652.106	6.6
652.294	7.27
652.481	8.52
652.669	7.02
652.856	6.29
653.044	7.02
653.231	6.24
653.419	6.29
653.606	6.41
653.794	5.93
653.981	7.23
654.169	6.66
654.356	6.51
654.544	7.51
654.731	7.51
654.919	7.11
655.106	7.01
655.294	6.73
655.481	8.21
655.668	8.93
655.856	8.51
656.043	7.11
656.23	5.12
656.418	5.12
656.605	6.72
656.792	7.33
656.979	7.02
657.167	8.02
657.354	8.28
657.541	7.82
657.728	6.86
657.916	4.83
658.103	5.3
658.29	5.04
658.477	5.62
658.664	5.48
658.851	5.84
659.038	6.86
659.225	5.97
659.412	4.99
659.6	3.2
659.787	4.69
659.974	3.95
660.161	6.47
660.348	5.21
660.535	5.74
660.722	4.24
660.909	3.1
661.095	2.76
661.282	1.39
661.469	0.7
661.656	0.17
661.843	1.42
662.03	0.59
662.217	1.71
662.404	0.92
662.59	0.35
662.777	0.1
662.964	0.17
663.151	1.8
663.338	2.85
663.524	3.71
663.711	3.28
663.898	4.73
664.085	4.53
664.271	4.53
664.458	3.55
664.645	4.07
664.831	5.62
665.018	6.06
665.204	6.1
665.391	6.38
665.578	6.87
665.764	6.25
665.951	5.79
666.137	6.01
666.324	6.81
666.51	7.16
666.697	7.45
666.883	7.15
667.07	6.06
667.256	4.96
667.443	4.47
667.629	4.17
667.816	3.23
668.002	3.67
668.188	3.81
668.375	4.35
668.561	4.97
668.747	3.22
668.934	2.89
669.12	2.21
669.306	2.57
669.493	2.54
669.679	3.62
669.865	3.73
670.051	2.79
670.238	1.36
670.424	1.01
670.61	0.82
670.796	2.19
670.982	1.27
671.169	1.1
671.355	0.56
671.541	0.9
671.727	1.71
671.913	-0.28
672.099	-1.68
672.285	-3.44
672.471	-3.19
672.657	-1.31
672.843	-0.87
673.029	-0.26
673.215	-0.11
673.401	0.81
673.587	-1.34
673.773	0.16
673.959	2.42
674.145	2.22
674.331	2.43
674.517	1.76
674.703	0.31
674.888	1.26
675.074	-0.42
675.26	1.19
675.446	0.99
675.632	0.27
675.817	1.03
676.003	3.19
676.189	4.43
676.375	3.8
676.56	2.05
676.746	1.25
676.932	-0.26
677.117	-0.62
677.303	-1.45
677.489	0.25
677.674	-0.81
677.86	-2.91
678.046	-2.31
678.231	-1.61
678.417	-0.25
678.602	-0.82
678.788	-0.71
678.973	1.45
679.159	2.64
679.344	3.13
679.53	3.65
679.715	3.62
679.901	2.72
680.086	2.06
680.272	2.85
680.457	4.04
680.643	3.66
680.828	6.01
681.013	6.11
681.199	6.71
681.384	7.68
681.569	7.5
681.755	7.16
681.94	7.19
682.125	6.09
682.31	7.56
682.496	7.65
682.681	7.91
682.866	6.54
683.051	5
683.237	5.4
683.422	5.8
683.607	5.64
683.792	6.45
683.977	6.47
684.162	5.05
684.347	5.71
684.532	6.79
684.717	4.87
684.903	4.59
685.088	4.23
685.273	2.71
685.458	1.45
685.643	3.23
685.828	3.59
686.013	5.14
686.198	3.56
686.382	4.5
686.567	4.79
686.752	4.75
686.937	5.56
687.122	6.87
687.307	5.78
687.492	6.35
687.677	5.09
687.861	5.15
688.046	5.49
688.231	5.1
688.416	4.77
688.601	5.58
688.785	6.82
688.97	6.86
689.155	6.9
689.339	7.55
689.524	5.89
689.709	5.31
689.893	5.2
690.078	5.64
690.263	5.67
690.447	5.34
690.632	5.31
690.816	5.54
691.001	4.87
691.186	5.54
691.37	3.37
691.555	5.13
691.739	4.98
691.924	5.53
692.108	4.35
692.293	3.74
692.477	3.44
692.661	2.94
692.846	3.95
693.03	4.66
693.215	5.76
693.399	5.01
693.583	4.72
693.768	4.85
693.952	4.2
694.136	3.82
694.321	4.79
694.505	5.43
694.689	4.23
694.873	4.48
695.058	4.58
695.242	7.73
695.426	6.68
695.61	6.87
695.794	6.7
695.979	6.42
696.163	7.27
696.347	7.84
696.531	7.22
696.715	7.04
696.899	6.12
697.083	5.04
697.267	7.04
697.451	6.96
697.635	7.33
697.819	7.41
698.003	7.25
698.187	5.15
698.371	5.79
698.555	6.93
698.739	7.01
698.923	6.45
699.107	5.37
699.291	5.11
699.475	6.12
699.659	6.61
699.842	8.37
700.026	6.98
700.21	7.21
700.394	7.54
700.578	7.85
700.761	8.34
700.945	10.48
701.129	10.23
701.313	9.99
701.496	10.61
701.68	11.58
701.864	11.84
702.047	13.09
702.231	13.72
702.415	12.91
702.598	11.03
702.782	12.87
702.965	12.8
703.149	13.19
703.333	12.14
703.516	10.39
703.7	8.48
703.883	9.22
704.067	7.83
704.25	6.99
704.434	4.74
704.617	4.59
704.801	3.51
704.984	3.04
705.167	3.35
705.351	1.42
705.534	0.68
705.718	0.88
705.901	0.27
706.084	-0.72
706.268	0.17
706.451	0.51
706.634	-1.17
706.817	-2.36
707.001	-4.51
707.184	-4.37
707.367	-3.68
707.55	-2.18
707.734	-1.23
707.917	-0.69
708.1	-0.62
708.283	0.91
708.466	1.53
708.649	1
708.832	0.99
709.015	2.18
709.199	3.35
709.382	3.15
709.565	1.99
709.748	3.14
709.931	2.68
710.114	2.24
710.297	2.45
710.48	3.41
710.663	4.47
710.846	5.34
711.028	5.53
711.211	5.55
711.394	5.5
711.577	5.3
711.76	4.59
711.943	4.81
712.126	4.36
712.309	4.62
712.491	4.66
712.674	4.4
712.857	4.35
713.04	3.24
713.222	3.27
713.405	3.36
713.588	2.24
713.771	2.28
713.953	2.12
714.136	1.58
714.319	0.74
714.501	-0.06
714.684	0.72
714.866	0.66
715.049	0.42
715.232	-0.37
715.414	-1.15
715.597	0.57
715.779	0.57
715.962	1.71
716.144	0.28
716.327	1.56
716.509	2.24
716.692	-0.09
716.874	-0.19
717.057	0.28
717.239	1.92
717.421	2.28
717.604	1.53
717.786	2.25
717.968	3.41
718.151	3.36
718.333	2.95
718.515	3.95
718.698	3.19
718.88	2.11
719.062	2.29
719.244	2.73
719.427	0.86
719.609	1.7
719.791	0.41
719.973	0.75
720.155	-0.28
720.338	-1.02
720.52	0.17
720.702	1.79
720.884	2.12
721.066	1.13
721.248	-1.75
721.43	-0.93
721.612	-1.13
721.794	-1.44
721.976	-1.52
722.158	-0.08
722.34	-1.71
722.522	0.04
722.704	2.01
722.886	1.22
723.068	1.26
723.25	3.93
723.432	4.68
723.614	5.11
723.796	5.25
723.977	3.29
724.159	3.74
724.341	3.45
724.523	0.84
724.705	0.63
724.886	0.02
725.068	3.8
725.25	4.13
725.432	3.61
725.613	3.15
725.795	3.64
725.977	3.97
726.158	4.59
726.34	3.4
726.522	4.02
726.703	5.68
726.885	6.01
727.066	3.84
727.248	3.53
727.43	4.26
727.611	4.8
727.793	5.86
727.974	5.49
728.156	4.71
728.337	4.92
728.519	4.1
728.7	6.22
728.882	4.03
729.063	3.56
729.244	2.46
729.426	3.85
729.607	3.91
729.788	2.97
729.97	3.44
730.151	3.11
730.332	3.15
730.514	2.97
730.695	3.58
730.876	4.58
731.058	4.99
731.239	5.41
731.42	4.79
731.601	4.23
731.782	4.37
731.964	6.13
732.145	7.31
732.326	6.07
732.507	4.14
732.688	6.45
732.869	8.61
733.05	10.55
733.231	10.26
733.412	8.2
733.593	9.4
733.774	10.37
733.955	11.22
734.136	10.52
734.317	8.73
734.498	8.77
734.679	8.37
734.86	6.09
735.041	5.45
735.222	4.98
735.403	7.25
735.584	7.43
735.765	6.47
735.946	6.21
736.126	6.97
736.307	8.14
736.488	5.91
736.669	1.79
736.849	0.24
737.03	0.61
737.211	2.39
737.392	0.69
737.572	-3.16
737.753	-3.97
737.934	-3.64
738.114	-1.38
738.295	-3.32
738.476	-3.22
738.656	-0.66
738.837	-0.63
739.017	0.96
739.198	0.46
739.378	2.23
739.559	3.53
739.74	3.14
739.92	2.88
740.1	1.97
740.281	1.28
740.461	2.26
740.642	3.24
740.822	1.69
741.003	3.16
741.183	3.5
741.363	5.81
741.544	6.6
741.724	6.49
741.904	5.16
742.085	5.71
742.265	4.39
742.445	3.42
742.626	3.02
742.806	2.49
742.986	1.12
743.166	-0.72
743.347	-1.42
743.527	0.22
743.707	0.34
743.887	1.02
744.067	-0.02
744.247	1.07
744.427	0.39
744.608	-0.88
744.788	0.48
744.968	0.78
745.148	1.18
745.328	0.33
745.508	-1.13
745.688	-0.76
745.868	-1.67
746.048	0.09
746.228	2.11
746.408	2.26
746.588	1.67
746.767	2.77
746.947	3.43
747.127	2.58
747.307	0.6
747.487	1.82
747.667	0.47
747.847	4.06
748.026	3.98
748.206	4.71
748.386	6.85
748.566	4.43
748.745	5.12
748.925	5.26
749.105	5.6
749.285	6.98
749.464	6.77
749.644	8.09
749.824	8.05
750.003	5.39
750.183	4.69
750.362	5.45
750.542	5.29
750.722	4.5
750.901	4.6
751.081	5.86
751.26	6.19
751.44	6.78
751.619	5.46
751.799	5.03
751.978	3.27
752.158	1.6
752.337	2.2
752.516	2.64
752.696	1.97
752.875	2.66
753.055	2.75
753.234	3.36
753.413	4.44
753.593	4.32
753.772	5.02
753.951	6.06
754.13	5.69
754.31	5.25
754.489	5.34
754.668	6.58
754.847	7
755.027	7.01
755.206	7.42
755.385	6.23
755.564	8.3
755.743	10.31
755.922	10.11
756.101	8.51
756.28	8.24
756.46	7.78
756.639	6.11
756.818	6.62
756.997	6.87
757.176	6.28
757.355	5.09
757.534	5.25
757.713	5.29
757.892	4.85
758.07	5.94
758.249	5.48
758.428	4.37
758.607	3.05
758.786	3.2
758.965	3.12
759.144	4.87
759.323	1.69
759.501	-0.27
759.68	0.11
759.859	1.68
760.038	1.96
760.216	1.63
760.395	2.17
760.574	1.85
760.753	2.47
760.931	2.37
761.11	4.11
761.289	2.68
761.467	1.41
761.646	2.11
761.824	1.27
762.003	-0.07
762.182	-0.38
762.36	-0.76
762.539	-1.75
762.717	-2.04
762.896	-2.5
763.074	-2.01
763.253	-0.43
763.431	1.8
763.61	2.37
763.788	2.06
763.966	3.34
764.145	3.8
764.323	3.3
764.502	1.32
764.68	1.06
764.858	-0.29
765.037	1.63
765.215	2.81
765.393	2.47
765.571	3.29
765.75	5.33
765.928	4.76
766.106	4.68
766.284	5.67
766.463	5.21
766.641	4.09
766.819	4.94
766.997	4.72
767.175	4.28
767.353	3.2
767.531	3.57
767.71	3.2
767.888	3.06
768.066	3.74
768.244	4.32
768.422	3.92
768.6	6.98
768.778	5.34
768.956	5.03
769.134	5.5
769.312	6.2
769.489	4.89
769.667	6.61
769.845	8.18
770.023	7.66
770.201	8.07
770.379	8.76
770.557	9.74
770.735	9.98
770.912	8.64
771.09	8.42
771.268	7.79
771.446	6.27
771.623	5.53
771.801	6.14
771.979	6.57
772.157	5.57
772.334	2.6
772.512	4.65
772.69	4.58
772.867	4.69
773.045	4.2
773.222	3.96
773.4	3.28
773.577	2.83
773.755	3.19
773.933	3.67
774.11	3.52
774.288	3
774.465	2.54
774.643	1.65
774.82	3.56
774.997	4.08
775.175	5.12
775.352	7.85
775.53	8.77
775.707	9.17
775.884	10.46
776.062	11.24
776.239	10.58
776.416	10.73
776.594	9.22
776.771	8.22
776.948	10.14
777.125	9.56
777.303	8.26
777.48	7.93
777.657	6.66
777.834	6.94
778.012	5.5
778.189	6.93
778.366	8.28
778.543	4.53
778.72	3
778.897	3.06
779.074	2.88
779.251	1.47
779.428	-0.34
779.605	-1.18
779.782	-2.1
779.959	-2.33
780.136	-2.81
780.313	-1.43
780.49	-2.85
780.667	-3.79
780.844	-3.05
781.021	-3.2
781.198	-4.29
781.375	-3.63
781.552	-4.05
781.728	-3.3
781.905	-4.83
782.082	-5.47
782.259	-4.85
782.436	-3.81
782.612	-4.29
782.789	-7.05
782.966	-8.74
783.143	-6.59
783.319	-4.42
783.496	-1.91
783.673	-0.72
783.849	0.06
784.026	0.25
784.203	1.86
784.379	0.21
784.556	0.9
784.732	0.41
784.909	1.69
785.085	1.62
785.262	1.84
785.438	3.19
785.615	2.55
785.791	4.2
785.968	5.63
786.144	5.51
786.321	8.13
786.497	7.02
786.673	5.74
786.85	3.96
787.026	1.23
787.203	-1.64
787.379	-5.48
787.555	-6.49
787.731	-6.55
787.908	-7.78
788.084	-5.8
788.26	-7.52
788.437	-4.51
788.613	-6.6
788.789	-6.18
788.965	-6.73
789.141	-6.85
789.317	-8.04
789.494	-10.35
789.67	-9.41
789.846	-7.96
790.022	-10.01
790.198	-6.79
790.374	-4.55
790.55	-7.1
790.726	-7.85
790.902	-5.28
791.078	-3.01
791.254	-5.66
791.43	-5.18
791.606	-5.59
791.782	-6.42
791.958	-8.13
792.134	-9.46
792.31	-8.58
792.486	-10.02
792.661	-10.13
792.837	-9.61
793.013	-7.95
793.189	-6.14
793.365	-6.97
793.54	-8.06
793.716	-9
793.892	-8.32
794.068	-11.44
794.243	-8.18
794.419	-5.42
794.595	-8.35
794.77	-8.26
794.946	-4.46
795.122	-5.93
795.297	-4.56
795.473	-1.93
795.648	1.19
795.824	0.85
796	1.96
796.175	3.19
796.351	2.86
796.526	2.7
796.702	3.42
796.877	4.34
797.052	4.32
797.228	2.34
797.403	0.13
797.579	-0.26
797.754	1.38
797.929	2.06
798.105	1.85
798.28	1.78
798.455	3.47
798.631	1.88
798.806	3.07
798.981	2.26
799.157	0.96
799.332	-2.26
799.507	0.03
799.682	0.72
799.858	1.69
800.033	4.65
800.208	3.38
800.383	3.83
800.558	0.65
800.733	2.18
800.908	3.54
801.083	6.29
801.258	5.53
801.434	9.57
801.609	8.8
801.784	6.87
801.959	9.7
802.134	6.07
802.309	6.4
802.484	4.15
802.658	4.69
802.833	3.02
803.008	5.58
803.183	3.66
803.358	3.09
803.533	3.99
803.708	2.56
803.883	3.6
804.057	-0.27
804.232	4.45
804.407	5.4
804.582	7.2
804.756	7.12
804.931	8.27
805.106	3.16
805.281	4.92
805.455	6.21
805.63	4.47
805.805	6.32
805.979	7.79
806.154	8.6
806.328	7.94
806.503	10.44
806.678	12.66
806.852	11.83
807.027	12.27
807.201	9.38
807.376	8.92
807.55	9.15
807.725	10.18
807.899	9.67
808.074	9.02
808.248	10.17
808.422	10.81
808.597	10.7
808.771	13.89
808.946	15.7
809.12	18.05
809.294	16.47
809.468	14.97
809.643	14.66
809.817	14.21
809.991	15.81
810.166	15.11
810.34	10.04
810.514	13.63
810.688	13.1
810.862	13.49
811.037	14.24
811.211	13.33
811.385	14.12
811.559	15.1
811.733	13.91
811.907	10.74
812.081	8.03
812.255	5.77
812.429	4.4
812.603	2.79
812.777	1.87
812.951	2.86
813.125	3.78
813.299	2.26
813.473	2.9
813.647	3.98
813.821	5.67
813.995	8.94
814.169	8.56
814.343	10.71
814.516	12.4
814.69	13.66
814.864	13.6
815.038	15.2
815.212	13.09
815.385	13.54
815.559	14.55
815.733	18.74
815.907	20.4
816.08	22.35
816.254	19.69
816.428	17.87
816.601	19.19
816.775	19.4
816.948	19.65
817.122	22.15
817.296	23.55
817.469	23.81
817.643	25.97
817.816	26.36
817.99	23.28
818.163	25.77
818.337	22.1
818.51	22.66
818.684	20.29
818.857	19.76
819.031	19.52
819.204	19.92
819.377	17.72
819.551	17.13
819.724	17.49
819.897	19.6
820.071	23.05
820.244	20.14
820.417	20.89
820.591	17.56
820.764	16.5
820.937	14.29
821.11	10.34
821.284	6.73
821.457	8.02
821.63	11.42
821.803	6.35
821.976	8.2
822.149	9.04
822.322	11.45
822.496	11.33
822.669	9.44
822.842	6.89
823.015	6.21
823.188	5.34
823.361	1.56
823.534	-2.47
823.707	-5.29
823.88	-3.09
824.053	-4.25
824.226	0.45
824.399	1.94
824.571	1.11
824.744	0.93
824.917	5.22
825.09	0.7
825.263	0.93
825.436	5.22
825.608	3.69
825.781	4.82
825.954	4.49
826.127	3.59
826.299	3.29
826.472	2.94
826.645	4.32
826.818	5.6
826.99	6.19
827.163	8.46
827.336	11.45
827.508	11.23
827.681	13.11
827.853	11.4
828.026	11.14
828.198	13.25
828.371	16.8
828.544	14.15
828.716	16.82
828.889	13.63
829.061	10.72
829.233	12.78
829.406	9.86
829.578	7.7
829.751	8.73
829.923	10.72
830.096	13.62
830.268	11.99
830.44	12.8
830.613	14.56
830.785	15.72
830.957	11.16
831.129	11.99
831.302	13.47
831.474	13
831.646	14.08
831.818	11.44
831.991	9.15
832.163	9.38
832.335	8.14
832.507	9.94
832.679	11.36
832.851	9.92
833.023	11.14
833.195	14.48
833.368	15.23
833.54	17.15
833.712	16.29
833.884	18.31
834.056	13.61
834.228	12.11
834.4	15.57
834.571	19.12
834.743	17.9
834.915	15.12
835.087	16.54
835.259	15.24
835.431	15.09
835.603	14.82
835.775	11.03
835.946	11.02
836.118	11.56
836.29	10.71
836.462	10.77
836.634	11.48
836.805	7.06
836.977	7
837.149	6.69
837.32	7.75
837.492	10.15
837.664	11.9
837.835	13.96
838.007	3.7
838.179	1.52
838.35	5.72
838.522	10.74
838.693	10.6
838.865	8.36
839.036	8.82
839.208	12.13
839.379	16.6
839.551	17.39
839.722	15.5
839.894	13.24
840.065	15.15
840.237	15.56
840.408	14.6
840.579	18.07
840.751	15.7
840.922	13.31
841.093	8.67
841.265	9.44
841.436	8.68
841.607	13.92
841.778	13.41
841.95	12.27
842.121	10.01
842.292	12.6
842.463	11.63
842.635	13.07
842.806	9.64
842.977	4.95
843.148	6.67
843.319	5.42
843.49	6.34
843.661	-2.74
843.832	-5.93
844.003	0.86
844.174	-3.77
844.345	-3.08
844.516	-8.57
844.687	-2.51
844.858	1.97
845.029	4.33
845.2	0.02
845.371	1.26
845.542	-3.25
845.713	-9.85
845.884	-14.75
846.055	-19.28
846.225	-17.56
846.396	-20.5
846.567	-9.17
846.738	-14.63
846.909	-7.58
847.079	-10.05
847.25	-0.71
847.421	-4.86
847.591	-13.19
847.762	-15.35
847.933	-19.69
848.103	-12.89
848.274	-21.75
848.445	-25.3
848.615	-29.34
848.786	-24.87
848.956	-20.78
849.127	-10.64
849.297	2.4
849.468	7.2
849.638	13.11
849.809	9.61
849.979	9.76
850.15	0.7
850.32	7.04
850.491	2.23
850.661	10.06
850.831	9.16
851.002	13.02
851.172	17.63
851.342	13.49
851.513	13.32
851.683	14.61
851.853	17.51
852.024	19.51
852.194	20.47
852.364	20.07
852.534	20.58
852.705	19.8
852.875	15.84
853.045	17.23
853.215	13.63
853.385	16.93
853.555	23.27
853.725	22.89
853.895	16.56
854.066	16.24
854.236	11.56
854.406	8.87
854.576	10.84
854.746	3.88
854.916	13.93
855.086	17.08
855.256	22.5
855.425	23.31
855.595	21.38
855.765	20.8
855.935	19.97
856.105	9.13
856.275	7.49
856.445	0.57
856.614	-4.52
856.784	-0.89
856.954	-3.49
857.124	-2.36
857.294	2.92
857.463	6.47
857.633	6.44
857.803	7.12
857.972	6.02
858.142	5.78
858.312	11.79
858.481	6.71
858.651	3.69
858.821	-5.02
858.99	-0.47
859.16	-3.56
859.329	-2.32
859.499	-5.81
859.668	6.83
859.838	6.52
860.007	18.83
860.177	19
860.346	24.9
860.516	27.95
860.685	22.11
860.854	20.43
861.024	16.27
861.193	17.75
861.363	22.89
861.532	22.65
861.701	25.5
861.87	25.68
862.04	31.4
862.209	31.01
862.378	33.57
862.547	29.8
862.717	27.3
862.886	28.65
863.055	29.72
863.224	25.37
863.393	22.84
863.563	13.95
863.732	14.29
863.901	6.44
864.07	4.92
864.239	7.43
864.408	8.27
864.577	7.8
864.746	11.31
864.915	3.22
865.084	7.81
865.253	5.45
865.422	2.89
865.591	-0.77
865.76	1.21
865.929	-0.12
866.097	-3.33
866.266	-4.62
866.435	-1.56
866.604	-1.36
866.773	2.98
866.942	0.03
867.11	1.1
867.279	1.56
867.448	13.99
867.617	14.85
867.785	12.13
867.954	-0.52
868.123	0.5
868.291	-13.66
868.46	-10.48
868.629	-7.67
868.797	-11.78
868.966	-13.01
869.134	-6.27
869.303	0.9
869.472	3.56
869.64	-0.48
869.809	7.03
869.977	2.72
870.146	8.93
870.314	6.24
870.482	9.03
870.651	13.68
870.819	8.05
870.988	-1.49
871.156	0.85
871.324	4.11
871.493	7.1
871.661	23.79
871.829	27.35
871.998	22.81
872.166	11.76
872.334	12.74
872.502	15.28
872.671	13.2
872.839	19.42
873.007	24.7
873.175	26.74
873.343	20.82
873.512	18.53
873.68	15.53
873.848	5.83
874.016	7.49
874.184	6.26
874.352	11.92
874.52	20.75
874.688	13.11
874.856	16.53
875.024	14.63
875.192	-4.71
875.36	-8.31
875.528	-1.72
875.696	14.83
875.864	18.84
876.032	17.94
876.199	12.56
876.367	3.5
876.535	-10.79
876.703	-15.41
876.871	-7.63
877.039	1.75
877.206	-0.59
877.374	8.06
877.542	12.74
877.71	4.55
877.877	9.6
878.045	-3.09
878.213	3.52
878.38	6.49
878.548	22.15
878.715	32.46
878.883	33.39
879.051	37.02
879.218	21.58
879.386	17.67
879.553	17.36
879.721	16.77
879.888	18.47
880.056	26.75
880.223	43.57
880.391	39.55
880.558	25.95
880.726	40.78
880.893	38.63
881.06	20.01
881.228	20.06
881.395	14.54
881.562	35.03
881.73	19.73
881.897	3.86
882.064	17.54
882.231	6.89
882.399	13.16
882.566	13.7
882.733	26.46
882.9	16.15
883.068	35.44
883.235	39.15
883.402	41.66
883.569	36.96
883.736	33.1
883.903	36.03
884.07	37.15
884.237	27.8
884.404	31.95
884.571	51.88
884.738	56.1
884.905	55.94
885.072	41.96
885.239	57.31
885.406	57.47
