Data from Transmission_09-43-21-261.txt Node
Date: Fri Aug 24 09:43:21 EEST 2018
User: tibor.sos
Spectrometer: USB4F01757
Scans to average: 10
Trigger mode: 4
Integration Time (sec): 1.000000E-2
Electric dark correction enabled: true
Boxcar width: 10
XAxis mode: Wavelengths
Number of Pixels in Spectrum: 3648
>>>>>Begin Spectral Data<<<<<
178.758	93.05
178.974	159.54
179.191	232.79
179.407	102.38
179.624	60.11
179.84	35.58
180.057	25.09
180.273	66.87
180.489	108.05
180.706	101.08
180.922	56.46
181.138	5.66
181.355	27.28
181.571	15.96
181.787	46.47
182.004	73.95
182.22	65.4
182.436	44.4
182.653	11.1
182.869	11.91
183.085	42.29
183.301	40.03
183.518	45.25
183.734	35.99
183.95	59.31
184.166	66.33
184.383	90.99
184.599	94.79
184.815	72.78
185.031	44.33
185.247	67.49
185.463	73.36
185.68	79.22
185.896	73.05
186.112	98.74
186.328	109.09
186.544	89.99
186.76	109.82
186.976	114.31
187.192	103.45
187.408	111.53
187.624	118.57
187.84	82.14
188.056	85.01
188.272	80.74
188.488	76.26
188.704	69.99
188.92	47.58
189.136	53
189.352	48.91
189.568	61.02
189.784	63.53
190	95.99
190.216	98.37
190.432	91.29
190.648	63.16
190.864	25.65
191.08	117.2
191.296	45.93
191.511	21.7
191.727	45.38
191.943	100.89
192.159	58.81
192.375	62.11
192.591	29.48
192.806	56.18
193.022	36.3
193.238	28.23
193.454	47.63
193.669	-19.19
193.885	35.96
194.101	90.08
194.317	19.71
194.532	-840.45
194.748	356.3
194.964	177.9
195.18	130.99
195.395	60.5
195.611	14.15
195.827	56.58
196.042	-94.78
196.258	21.56
196.473	17.03
196.689	37.34
196.905	36.71
197.12	35.64
197.336	-128.11
197.551	51.76
197.767	68400
197.982	301.21
198.198	2493.15
198.414	1919.1
198.629	475.75
198.845	332.11
199.06	427.73
199.276	354.27
199.491	1085.41
199.707	316.69
199.922	251.87
200.137	308.7
200.353	306.11
200.568	229.57
200.784	254.67
200.999	238.42
201.215	370.46
201.43	424.58
201.645	329.01
201.861	343.63
202.076	264.62
202.291	329.86
202.507	315.07
202.722	199.52
202.937	392.5
203.153	261.2
203.368	181.98
203.583	113.95
203.798	81.6
204.014	42.26
204.229	34.04
204.444	-25.64
204.659	-275.27
204.875	-332.71
205.09	776.47
205.305	-1184.91
205.52	65.04
205.735	-52.69
205.951	-1088
206.166	163.04
206.381	112.99
206.596	-123.64
206.811	378.95
207.026	51.66
207.241	78.77
207.457	94.7
207.672	181.82
207.887	-564.49
208.102	-113.57
208.317	-153.63
208.532	558.19
208.747	-493.99
208.962	-461.78
209.177	910.07
209.392	391.28
209.607	196.52
209.822	229.11
210.037	146.68
210.252	115.56
210.467	135.73
210.682	121.37
210.897	104.47
211.112	34.65
211.326	63.34
211.541	-57.48
211.756	0.46
211.971	-66.88
212.186	-39.8
212.401	-74.35
212.616	-103.1
212.831	-77.17
213.045	-128.03
213.26	-82.19
213.475	-78.07
213.69	-115.93
213.905	-177.95
214.119	-680.54
214.334	7866.67
214.549	832.39
214.764	-880.83
214.978	-528.33
215.193	-667.19
215.408	2779.49
215.622	-274.72
215.837	-1351.11
216.052	18.39
216.266	62.78
216.481	93.87
216.696	89.03
216.91	-315.15
217.125	106.99
217.34	113.99
217.554	118.92
217.769	32.48
217.983	34.78
218.198	-30.71
218.412	11.58
218.627	-10.69
218.842	54.2
219.056	28.89
219.271	45.18
219.485	115.09
219.7	88.56
219.914	72.73
220.129	104.81
220.343	10.51
220.558	-14.92
220.772	-44.18
220.986	-46.89
221.201	-97.49
221.415	239.64
221.63	215.29
221.844	133.67
222.058	193.77
222.273	220.44
222.487	231.64
222.702	298.8
222.916	265.95
223.13	158.92
223.344	145.54
223.559	101.85
223.773	102.29
223.987	124.75
224.202	133.53
224.416	246.59
224.63	176.81
224.844	144
225.059	163.69
225.273	848.48
225.487	-828.8
225.701	-15.17
225.915	13.08
226.13	69.62
226.344	85.8
226.558	96.51
226.772	112.22
226.986	105.6
227.2	122.36
227.415	114.45
227.629	120.1
227.843	104.86
228.057	83.81
228.271	88.01
228.485	92.38
228.699	105.93
228.913	135.61
229.127	115.23
229.341	115.19
229.555	162.61
229.769	226.11
229.983	277.43
230.197	256.62
230.411	333.74
230.625	334.47
230.839	167.52
231.053	288.59
231.267	461.38
231.481	302.35
231.695	186.19
231.909	178.1
232.122	114.16
232.336	127.29
232.55	115.16
232.764	41.23
232.978	27.56
233.192	44.54
233.405	-40.12
233.619	25.16
233.833	19.71
234.047	33.01
234.261	-100.95
234.474	-27.29
234.688	72.56
234.902	177.78
235.116	234.92
235.329	192.55
235.543	318.06
235.757	138.02
235.97	121.11
236.184	124.83
236.398	115.8
236.612	122.03
236.825	168.2
237.039	193.03
237.252	167.54
237.466	552.38
237.68	1335.59
237.893	-61600
238.107	-117
238.32	619.13
238.534	-278.18
238.748	-130.27
238.961	-43.79
239.175	-129.68
239.388	-113.5
239.602	-120.82
239.815	-51.4
240.029	-132.77
240.242	-128.88
240.456	-54.46
240.669	-43.81
240.882	-61.9
241.096	-113.79
241.309	-79.9
241.523	-173.45
241.736	-266.36
241.95	672.63
242.163	-1263.16
242.376	-292.27
242.59	-1392
242.803	7226.67
243.016	222.36
243.23	168.07
243.443	3440
243.656	-760.9
243.87	-86
244.083	-16.3
244.296	-3.95
244.509	14.24
244.723	20.99
244.936	18
245.149	-24.89
245.362	-33.18
245.576	-1.7
245.789	-12.62
246.002	31.87
246.215	43.1
246.428	27.03
246.641	39.3
246.855	18.68
247.068	28.73
247.281	-51.28
247.494	2.68
247.707	-29.04
247.92	-38.15
248.133	-11.74
248.346	-39.98
248.559	-29.34
248.772	-75.11
248.985	-51.14
249.198	-42.8
249.411	-44.35
249.624	-39.73
249.837	-35.32
250.05	-35.25
250.263	-31.35
250.476	-58.16
250.689	-49.47
250.902	-42.31
251.115	-55.41
251.328	-41.71
251.541	-28.98
251.754	-13.6
251.967	-20.9
252.18	-25.95
252.393	-21.3
252.605	-26.46
252.818	-18.76
253.031	-26.97
253.244	-17.71
253.457	-25.5
253.67	-32.86
253.882	-33.1
254.095	-12.01
254.308	-15.81
254.521	-23.46
254.733	-10.29
254.946	-5.8
255.159	-7.27
255.372	-12.95
255.584	-2.97
255.797	-18.08
256.01	-39.8
256.222	-39.33
256.435	-47.93
256.648	-31.8
256.86	-29.29
257.073	-27.58
257.285	-37.6
257.498	-44.36
257.711	-48.8
257.923	-33.75
258.136	-34.56
258.348	-38.49
258.561	-62.26
258.773	-69.05
258.986	-92.88
259.198	-127.84
259.411	-210.22
259.623	-133.96
259.836	-110.12
260.048	-100.56
260.261	-40.46
260.473	-26.96
260.686	-10.36
260.898	-9.42
261.111	-12.47
261.323	-17.33
261.535	-11.63
261.748	-2.52
261.96	8.38
262.173	14.42
262.385	15.36
262.597	18.34
262.81	19.78
263.022	20.88
263.234	35.17
263.447	39.31
263.659	37.94
263.871	46.54
264.083	38.28
264.296	36
264.508	35.74
264.72	27.08
264.932	30.08
265.145	14.98
265.357	11.29
265.569	11.15
265.781	16.48
265.993	13.55
266.205	-1.41
266.418	-22.96
266.63	-28.58
266.842	-29.47
267.054	-32.15
267.266	-20.78
267.478	-25.64
267.69	-37.57
267.902	-42.99
268.114	-29.33
268.326	-23.94
268.538	-29.36
268.75	-15.36
268.962	-15.39
269.174	-22.77
269.386	-7.44
269.598	-2.76
269.81	0.71
270.022	1.33
270.234	4.71
270.446	13.26
270.658	18.05
270.87	25.32
271.082	26.21
271.294	22.13
271.506	22.87
271.718	21.65
271.929	23.78
272.141	25.99
272.353	29.62
272.565	28.99
272.777	29.62
272.989	33.78
273.2	34.62
273.412	30.36
273.624	32.73
273.836	31.03
274.047	33.92
274.259	40.93
274.471	37.54
274.683	35.41
274.894	35.07
275.106	33.9
275.318	29.81
275.529	28.52
275.741	30.89
275.953	33.9
276.164	30.54
276.376	31.09
276.588	30.44
276.799	36.26
277.011	35.97
277.222	28.74
277.434	23.07
277.646	16
277.857	26.73
278.069	20.17
278.28	14.61
278.492	15.61
278.703	1.26
278.915	15.74
279.126	9.91
279.338	10.39
279.549	20.4
279.761	21.14
279.972	17.14
280.183	12.25
280.395	9.49
280.606	5.33
280.818	0.87
281.029	6.73
281.24	3.13
281.452	-3.77
281.663	-2.06
281.875	-4.67
282.086	-3.31
282.297	-5.27
282.508	1.01
282.72	1.94
282.931	5.73
283.142	10.34
283.354	1.65
283.565	5.39
283.776	0.45
283.987	-25.71
284.199	-25.25
284.41	-10.12
284.621	-2.6
284.832	15.02
285.043	27.22
285.254	20
285.466	8.77
285.677	6.28
285.888	1.21
286.099	2.25
286.31	5.77
286.521	-0.32
286.732	-1.95
286.943	-4.14
287.154	-2.04
287.366	-6.97
287.577	-4.07
287.788	-8.84
287.999	-11.44
288.21	-13.76
288.421	-1.44
288.632	-0.26
288.843	-0.59
289.054	1.28
289.264	-8.98
289.475	-14.83
289.686	-4.76
289.897	-1.41
290.108	1.53
290.319	4.03
290.53	1.46
290.741	-1.46
290.952	2.7
291.163	3.07
291.373	2.43
291.584	7.21
291.795	0.43
292.006	1.82
292.217	2.52
292.427	7.05
292.638	9.35
292.849	3.26
293.06	7.79
293.27	2.35
293.481	4.2
293.692	1.84
293.903	1.95
294.113	4.5
294.324	3.53
294.535	-5.13
294.745	-9.11
294.956	3.55
295.167	5.11
295.377	2.32
295.588	1.84
295.798	3.55
296.009	-6.16
296.22	1
296.43	-9.21
296.641	-11.4
296.851	-11.18
297.062	-20.52
297.272	-16.41
297.483	-19.5
297.693	-15.26
297.904	-20.97
298.114	-11.81
298.325	-2.39
298.535	-5.79
298.746	-9.86
298.956	-4.37
299.167	-2.25
299.377	-7.32
299.587	-4.58
299.798	-5.03
300.008	-7.34
300.219	-8.76
300.429	-1.04
300.639	-1.42
300.85	6.69
301.06	5.39
301.27	10.77
301.481	18.37
301.691	18.33
301.901	16.18
302.111	11.7
302.322	16.14
302.532	12.76
302.742	1.65
302.952	-3.3
303.163	-8.91
303.373	-10.99
303.583	-3.68
303.793	-2.78
304.003	1.28
304.214	4.86
304.424	4.88
304.634	3.39
304.844	4.36
305.054	10.05
305.264	5.28
305.474	7.82
305.684	-0.49
305.894	0.93
306.104	1.41
306.314	-3.11
306.525	0.48
306.735	-7.34
306.945	-5.79
307.155	-10.02
307.365	-5.32
307.575	2.26
307.784	3.16
307.994	-3.06
308.204	-7.03
308.414	-9.86
308.624	-16.46
308.834	-11.13
309.044	-8.59
309.254	-7.09
309.464	-11.75
309.674	-7.81
309.884	-12.59
310.093	-7.33
310.303	-8.48
310.513	-3.54
310.723	1.73
310.933	1.26
311.142	8.24
311.352	8.42
311.562	12.32
311.772	11.61
311.981	9.76
312.191	8.22
312.401	11.61
312.611	12.33
312.82	9.2
313.03	13.3
313.24	7.51
313.449	11
313.659	8.83
313.869	6.15
314.078	6.91
314.288	8.84
314.497	3.11
314.707	0.32
314.917	-2.24
315.126	0.31
315.336	5.18
315.545	-2.87
315.755	-4.95
315.964	0.04
316.174	-0.32
316.383	-0.36
316.593	-0.4
316.802	-4.05
317.012	-4.03
317.221	-0.99
317.431	-2.78
317.64	2.26
317.849	-6.7
318.059	-14.59
318.268	-10.7
318.478	-7.42
318.687	-5.54
318.896	-1.23
319.106	-4.37
319.315	-3.13
319.524	-15.77
319.734	-26.89
319.943	-21.32
320.152	-16.08
320.362	-20.38
320.571	-17.48
320.78	-19.12
320.989	-16.92
321.199	-12.32
321.408	-10.49
321.617	-16.06
321.826	-13.43
322.035	-17.91
322.245	-10.94
322.454	-4.52
322.663	-6.45
322.872	-12.2
323.081	-16.99
323.29	-19.76
323.5	-16.84
323.709	-18.75
323.918	-6.29
324.127	-9.99
324.336	-22.24
324.545	-24.63
324.754	-25.41
324.963	-22.91
325.172	-16.86
325.381	-17.08
325.59	-20.7
325.799	-23.07
326.008	-20.14
326.217	-19.05
326.426	-6.03
326.635	-8.27
326.844	-6.04
327.053	-6.49
327.262	-2.03
327.47	0.16
327.679	-2.56
327.888	-2.17
328.097	-4.35
328.306	-12.52
328.515	-3.79
328.724	8.62
328.932	-1.33
329.141	0.81
329.35	-2.76
329.559	-4.11
329.768	-0.14
329.976	0.09
330.185	-5.21
330.394	-2.67
330.602	-5.64
330.811	-17.76
331.02	-16.58
331.229	-22.76
331.437	-10.95
331.646	-14.52
331.855	-6.28
332.063	-10.02
332.272	-11.49
332.48	-15.64
332.689	-15.6
332.898	-10.07
333.106	-14.31
333.315	-9.67
333.523	-10.08
333.732	-11.92
333.94	-14.19
334.149	-23.93
334.357	-25.23
334.566	-20.83
334.774	-21.15
334.983	-18.89
335.191	-24.19
335.4	-29.71
335.608	-33.39
335.817	-51.22
336.025	-43.34
336.234	-68.54
336.442	-39.65
336.65	-31.34
336.859	-10.81
337.067	-7.9
337.275	-10.22
337.484	-11.97
337.692	-9.69
337.9	-11.47
338.109	-12.57
338.317	-20.59
338.525	-13.75
338.734	-7.13
338.942	-3.43
339.15	-17.71
339.358	-23.86
339.567	-7.77
339.775	-1.6
339.983	-2.1
340.191	-3.16
340.399	0
340.608	14.55
340.816	10.39
341.024	10.86
341.232	-4.9
341.44	-3.66
341.648	-4.32
341.856	-0.96
342.064	-1.19
342.272	-6.24
342.481	-1.64
342.689	1.97
342.897	6.45
343.105	2.23
343.313	8.32
343.521	14.49
343.729	9.62
343.937	3.39
344.145	-3.33
344.353	6.01
344.56	4.91
344.768	6.74
344.976	-1.72
345.184	-12.9
345.392	-19.8
345.6	-18.73
345.808	-17.6
346.016	-19.52
346.224	-21.6
346.431	-15.32
346.639	-2.66
346.847	-7.4
347.055	-5.73
347.263	-12.26
347.471	-19.06
347.678	-21.65
347.886	-33.59
348.094	-28.66
348.302	-19.69
348.509	-16.63
348.717	-24.91
348.925	-19.05
349.132	-26.88
349.34	-25.81
349.548	-17.68
349.755	-16.25
349.963	-13.56
350.171	-16.05
350.378	-18.15
350.586	-19.2
350.793	-23.73
351.001	-30.68
351.209	-27.46
351.416	-26.7
351.624	-22.87
351.831	-24.59
352.039	-34.25
352.246	-35.79
352.454	-38.39
352.661	-44.47
352.869	-43.31
353.076	-37.52
353.284	-34.18
353.491	-35.22
353.699	-37.15
353.906	-32.64
354.113	-22.99
354.321	-15.66
354.528	-11.23
354.736	-11.74
354.943	-14.94
355.15	-13.14
355.358	-18.5
355.565	-20.38
355.772	-10.94
355.98	-6.5
356.187	1.11
356.394	-4.61
356.601	-2.74
356.809	5.74
357.016	11.5
357.223	11.99
357.43	6.91
357.638	7.14
357.845	11
358.052	18.15
358.259	21.46
358.466	16.49
358.673	6.47
358.881	3.56
359.088	5.99
359.295	9.87
359.502	4.32
359.709	10.52
359.916	8.76
360.123	4.75
360.33	-4.99
360.537	-8.67
360.744	8.2
360.951	11.74
361.158	2.08
361.365	6.9
361.572	14.84
361.779	21.01
361.986	18.8
362.193	11.05
362.4	10.94
362.607	0
362.814	5.5
363.021	9.59
363.228	2.61
363.435	2.35
363.641	4.64
363.848	15.77
364.055	17.84
364.262	24.93
364.469	15.66
364.676	20.75
364.882	20.05
365.089	13
365.296	16.76
365.503	15.28
365.709	4.12
365.916	-3.44
366.123	-1.55
366.33	-6.79
366.536	-0.61
366.743	-12.46
366.95	-10.9
367.156	-13.58
367.363	-14.9
367.57	-17.86
367.776	-15.7
367.983	-13.38
368.19	-20.15
368.396	-19.57
368.603	-26.21
368.809	-13.69
369.016	-17.15
369.222	-21.16
369.429	-9.59
369.635	-13
369.842	-11.1
370.048	3.16
370.255	10.16
370.461	5.62
370.668	8.29
370.874	7.1
371.081	13.94
371.287	19.73
371.494	17.67
371.7	20.99
371.906	22.59
372.113	21.77
372.319	21.13
372.526	25.63
372.732	14.69
372.938	12.94
373.145	11.23
373.351	10.44
373.557	12.67
373.763	6.31
373.97	12.53
374.176	16.89
374.382	12.05
374.588	5.31
374.795	7.15
375.001	2.28
375.207	1.85
375.413	3.79
375.62	-1.16
375.826	4.35
376.032	2.53
376.238	3.23
376.444	-1.14
376.65	-4.15
376.856	-12.91
377.062	2.69
377.269	16.36
377.475	4.33
377.681	-2.5
377.887	-2.71
378.093	-16.24
378.299	-15.05
378.505	-21.62
378.711	-17.09
378.917	-9.18
379.123	-6.51
379.329	2.13
379.535	4.35
379.741	5.26
379.947	8
380.152	8.58
380.358	2.64
380.564	0.3
380.77	-1.75
380.976	1.55
381.182	0.64
381.388	-1.74
381.594	-11.6
381.799	-3.23
382.005	2.72
382.211	7.2
382.417	11.97
382.623	3.54
382.828	8.79
383.034	0.81
383.24	-8.97
383.445	-18.81
383.651	-24.58
383.857	-30.81
384.063	-21.8
384.268	-34.16
384.474	-34.39
384.68	-28.8
384.885	-19.9
385.091	-14.28
385.296	-11.91
385.502	-3.02
385.708	-12.34
385.913	-16.29
386.119	-27.7
386.324	-34.91
386.53	-40.22
386.735	-43.45
386.941	-28.91
387.146	-29.25
387.352	-19.1
387.557	8.46
387.763	18.62
387.968	12.36
388.174	18.39
388.379	6.89
388.585	6.14
388.79	5.87
388.996	1.31
389.201	4.57
389.406	-0.31
389.612	-13.34
389.817	-11.98
390.022	5.53
390.228	15.84
390.433	19.59
390.638	18.43
390.844	17.08
391.049	18.39
391.254	12.53
391.459	15.07
391.665	12.13
391.87	0.7
392.075	9.91
392.28	14.75
392.485	1.85
392.691	2.69
392.896	0.59
393.101	-2.51
393.306	6.33
393.511	5.39
393.716	12.42
393.922	17.74
394.127	9.66
394.332	6.28
394.537	6.02
394.742	1.78
394.947	1.43
395.152	1.2
395.357	5.23
395.562	7.28
395.767	-0.78
395.972	4.52
396.177	3.03
396.382	-0.98
396.587	1.77
396.792	8.07
396.997	16.03
397.202	24.69
397.407	22.83
397.611	25.09
397.816	16.18
398.021	12.75
398.226	10.53
398.431	14.17
398.636	7.27
398.841	5.83
399.045	18.35
399.25	18.71
399.455	17.28
399.66	20.46
399.864	22.19
400.069	29.43
400.274	29.88
400.479	29.47
400.683	29
400.888	26.06
401.093	19.09
401.297	20.27
401.502	14.07
401.707	15.17
401.911	19.6
402.116	38.61
402.321	41.75
402.525	46.84
402.73	49.08
402.934	52.58
403.139	60.99
403.344	52.43
403.548	47
403.753	50.68
403.957	38.3
404.162	29.68
404.366	22.39
404.571	13.78
404.775	11.96
404.98	0.5
405.184	-0.77
405.388	17.36
405.593	12.5
405.797	4.43
406.002	11.26
406.206	3.62
406.41	3.47
406.615	9.4
406.819	12.2
407.023	8.57
407.228	10.04
407.432	2.92
407.636	-0.25
407.841	2.56
408.045	1.17
408.249	3.33
408.453	12.99
408.658	9.17
408.862	18.47
409.066	20.06
409.27	26.08
409.474	30.93
409.679	16
409.883	9.62
410.087	10.3
410.291	15.37
410.495	12
410.699	7.83
410.903	-8.53
411.108	-6.2
411.312	-13.33
411.516	-25.02
411.72	-24.64
411.924	-21.78
412.128	-14.81
412.332	-11.06
412.536	-5.92
412.74	-1.86
412.944	-2.37
413.148	-12.01
413.352	-18.22
413.556	-22.67
413.76	-24.54
413.964	-11.08
414.167	7.23
414.371	15.32
414.575	8.41
414.779	5.47
414.983	6.8
415.187	13.24
415.391	3.96
415.594	20.38
415.798	23.25
416.002	19.84
416.206	21.36
416.41	15.74
416.613	6.18
416.817	-7.29
417.021	-9.26
417.225	-8.89
417.428	-20.08
417.632	-23.65
417.836	-25.84
418.039	-23.96
418.243	-19.12
418.447	-39.93
418.65	-40.99
418.854	-36.5
419.057	-28.9
419.261	-32.41
419.465	-41.86
419.668	-25.03
419.872	-35.36
420.075	-37.55
420.279	-29.17
420.482	-15.73
420.686	-11.72
420.889	-4.46
421.093	13.04
421.296	5.6
421.5	3.79
421.703	0.8
421.907	7.97
422.11	5.3
422.314	1.73
422.517	-5.27
422.72	-0.97
422.924	-4.92
423.127	-15.26
423.33	-25.31
423.534	-19.24
423.737	-4.25
423.94	-13.54
424.144	-4.02
424.347	-1.35
424.55	-1.49
424.754	-18.43
424.957	-26.43
425.16	-29.83
425.363	-36.54
425.567	-25.35
425.77	-22.73
425.973	-11.79
426.176	-24.5
426.379	-19.31
426.582	-10.23
426.786	-3.11
426.989	-9.44
427.192	2.66
427.395	10.27
427.598	16.83
427.801	10.47
428.004	7.69
428.207	21.28
428.41	18.17
428.613	13.75
428.816	18.42
429.019	23
429.222	16.32
429.425	21.4
429.628	24.35
429.831	21.88
430.034	24.31
430.237	22.95
430.44	25.02
430.643	28.29
430.846	27.91
431.049	25.79
431.252	25.77
431.454	19.85
431.657	20.32
431.86	19.55
432.063	24.71
432.266	17.92
432.469	10.53
432.671	9.71
432.874	19.48
433.077	8.77
433.28	6.92
433.482	17.72
433.685	14.51
433.888	13.15
434.09	8.84
434.293	0
434.496	6.5
434.698	10.91
434.901	15.44
435.104	4.34
435.306	5.52
435.509	0
435.712	6.17
435.914	-5.61
436.117	-1.31
436.319	5.48
436.522	4.33
436.724	-1.32
436.927	-4.58
437.129	-10.06
437.332	-6.71
437.534	-4.08
437.737	-21.03
437.939	-9.4
438.142	-15.6
438.344	-20.25
438.547	-18.16
438.749	-14.66
438.951	-23.81
439.154	-28.67
439.356	-22.16
439.558	-27.82
439.761	-8.3
439.963	-19.28
440.165	-11.31
440.368	-10.83
440.57	-41.61
440.772	-35.27
440.975	-39.81
441.177	-30.29
441.379	-35.03
441.581	-20.67
441.784	-33.78
441.986	-13.95
442.188	-24.44
442.39	-24.95
442.592	-24.04
442.795	-15.39
442.997	-21.98
443.199	-20.4
443.401	-20.37
443.603	-19.81
443.805	-33.84
444.007	-34.69
444.209	-28.85
444.411	-10.08
444.613	-9.67
444.815	7.06
445.017	5.49
445.219	15.45
445.421	15.54
445.623	15.99
445.825	4.18
446.027	7.55
446.229	-5.82
446.431	2.97
446.633	-4.48
446.835	5.53
447.037	-4.87
447.239	-1.47
447.441	0.96
447.643	6.73
447.844	-1.67
448.046	14.38
448.248	8.32
448.45	3.33
448.652	-18.2
448.853	-9.68
449.055	-22.1
449.257	-20.94
449.459	-39.38
449.66	-33.59
449.862	-41.03
450.064	-22.03
450.266	-12.21
450.467	-5.3
450.669	-3.84
450.871	-8.58
451.072	-1.98
451.274	6.87
451.475	3.11
451.677	17.47
451.879	1.57
452.08	16.13
452.282	21.79
452.483	29.46
452.685	32.22
452.886	31.87
453.088	10.64
453.289	3.78
453.491	-5.37
453.692	-8.76
453.894	-3.48
454.095	16.93
454.297	2.89
454.498	-10.32
454.7	-14.38
454.901	-10.26
455.102	3.4
455.304	-2.34
455.505	-5.12
455.706	-2.42
455.908	-12.71
456.109	-4.1
456.31	-1.81
456.512	-12.4
456.713	-5.32
456.914	-10.37
457.116	-15.45
457.317	-4.17
457.518	-11.07
457.719	-14.39
457.921	-8.17
458.122	-15.67
458.323	-28.78
458.524	-15.54
458.725	-8.21
458.926	-6.18
459.128	-12.47
459.329	-6.88
459.53	-9.99
459.731	-10.08
459.932	-19.15
460.133	-6.4
460.334	-8.42
460.535	-10.39
460.736	-12.82
460.937	-23.06
461.138	-21.95
461.339	-16.93
461.54	-17.46
461.741	-6.37
461.942	1.38
462.143	7.46
462.344	2.84
462.545	7.46
462.746	6.97
462.947	-8.88
463.148	-4.86
463.348	-3.57
463.549	-13.74
463.75	-12.58
463.951	-11.81
464.152	-10.18
464.353	-19.22
464.553	-8.49
464.754	-11.1
464.955	-6.83
465.156	-4.52
465.356	-6.91
465.557	-13.66
465.758	-11.88
465.959	-4.23
466.159	-5.1
466.36	-10.92
466.561	-11.12
466.761	-13.1
466.962	-14.35
467.163	-5.89
467.363	-12.32
467.564	-6.99
467.764	-2.18
467.965	-4.73
468.166	-10.94
468.366	1.25
468.567	0.92
468.767	5.69
468.968	9.28
469.168	8.51
469.369	9.48
469.569	10.79
469.77	15.23
469.97	5.78
470.17	2.46
470.371	2.34
470.571	-0.63
470.772	3.09
470.972	8.63
471.172	13.5
471.373	8.69
471.573	13.57
471.773	10.13
471.974	9.08
472.174	12.39
472.374	19.15
472.575	10.38
472.775	13.34
472.975	-4
473.175	-1.92
473.376	-1.54
473.576	-3.77
473.776	-2.31
473.976	-6.12
474.177	2.53
474.377	-2.25
474.577	-1.02
474.777	1.6
474.977	-2.12
475.177	-5.16
475.377	-6.1
475.577	9.41
475.777	10.59
475.978	3.54
476.178	-1.98
476.378	-4.28
476.578	-2.05
476.778	-2.96
476.978	-6.19
477.178	-2.29
477.378	-3.25
477.578	-2.63
477.778	-5.02
477.977	-6.44
478.177	-3.88
478.377	-12.11
478.577	-9.56
478.777	-7.14
478.977	-4.44
479.177	1.38
479.377	1.52
479.577	-6.07
479.776	-14.74
479.976	-21.1
480.176	-12.06
480.376	-9.44
480.576	-8.08
480.775	-14.35
480.975	-11.44
481.175	-9.16
481.374	-7.02
481.574	-0.63
481.774	-3.91
481.974	3.37
482.173	3.37
482.373	-1.76
482.572	5.45
482.772	6.59
482.972	10.58
483.171	10.07
483.371	12.56
483.57	7.82
483.77	13.84
483.97	12.77
484.169	16.28
484.369	14.54
484.568	15.31
484.768	16.83
484.967	21.05
485.167	18.52
485.366	18.58
485.566	22.45
485.765	23.94
485.964	22.04
486.164	17.12
486.363	17.73
486.563	20.97
486.762	18.91
486.961	18.48
487.161	11.99
487.36	7.76
487.559	4.54
487.759	4.59
487.958	1.12
488.157	0.6
488.356	-0.37
488.556	-3.96
488.755	-4.84
488.954	-8.51
489.153	-10.92
489.353	-9.96
489.552	-13.66
489.751	-24.48
489.95	-33.92
490.149	-34.04
490.348	-31.21
490.548	-29.63
490.747	-34.74
490.946	-31.37
491.145	-34.14
491.344	-34.78
491.543	-32.33
491.742	-35.82
491.941	-31.58
492.14	-32.5
492.339	-35.1
492.538	-36.8
492.737	-35.61
492.936	-30.49
493.135	-29.98
493.334	-30.88
493.533	-30.99
493.732	-21.21
493.931	-10.66
494.13	-9.42
494.328	-6.5
494.527	-5.88
494.726	-10.66
494.925	-12.05
495.124	-13.38
495.323	-11.03
495.521	-11.64
495.72	-11.27
495.919	-10.45
496.118	-7.56
496.316	-1.29
496.515	0.31
496.714	-1.45
496.913	2.16
497.111	-1.45
497.31	-6.82
497.509	-7.54
497.707	-6.73
497.906	-4.87
498.105	-11.71
498.303	-17.08
498.502	-16.5
498.7	-16.19
498.899	-19.41
499.097	-18.13
499.296	-19.63
499.495	-21.23
499.693	-19.8
499.892	-19.93
500.09	-23.67
500.289	-17.88
500.487	-24.56
500.686	-23.6
500.884	-22.85
501.082	-26.71
501.281	-28.99
501.479	-20.19
501.678	-17.07
501.876	-17.13
502.074	-20.82
502.273	-18.3
502.471	-15.24
502.669	-15.22
502.868	-15.92
503.066	-9.39
503.264	-7.95
503.463	-9.22
503.661	-11.65
503.859	-13.54
504.057	-11.86
504.256	-8.78
504.454	-13.78
504.652	-11.54
504.85	-10.12
505.048	-8.79
505.246	-6.74
505.445	-4.48
505.643	-8.06
505.841	-7.78
506.039	-10.69
506.237	-13.91
506.435	-10.45
506.633	-8.3
506.831	-5.68
507.029	-5.37
507.227	-6.4
507.425	-4.89
507.623	-2.93
507.821	-1.12
508.019	4.3
508.217	5.49
508.415	9.25
508.613	8.2
508.811	6.01
509.009	2.81
509.207	6.21
509.405	6.36
509.603	6.27
509.8	7.61
509.998	3.3
510.196	4.63
510.394	3.64
510.592	1.15
510.79	0.34
510.987	-3.47
511.185	-3.32
511.383	-7.79
511.581	-11.81
511.778	-7.28
511.976	-8.97
512.174	-13.95
512.371	-20.74
512.569	-23.24
512.767	-23.82
512.964	-22.92
513.162	-20.16
513.36	-22.59
513.557	-24.61
513.755	-22.02
513.952	-17.3
514.15	-16.8
514.348	-13.87
514.545	-8.68
514.743	-5.1
514.94	-3.39
515.138	-2.8
515.335	-0.15
515.533	2.58
515.73	7.51
515.927	4.02
516.125	7.39
516.322	9.09
516.52	16.32
516.717	17.85
516.915	21.24
517.112	19.59
517.309	18.51
517.507	20.38
517.704	17.1
517.901	11.57
518.099	8.71
518.296	10.77
518.493	13.35
518.69	12.49
518.888	13.17
519.085	13.18
519.282	13.45
519.479	12.01
519.676	10.68
519.874	8.09
520.071	4.61
520.268	3.89
520.465	5.67
520.662	5.23
520.859	3.96
521.056	0.19
521.254	5.97
521.451	4.75
521.648	-0.03
521.845	1.71
522.042	6.45
522.239	6.54
522.436	2.82
522.633	-5.57
522.83	-4.89
523.027	-11.54
523.224	-9.37
523.421	-6.86
523.618	-11.49
523.815	-3.65
524.011	-6.6
524.208	-1.48
524.405	-2.15
524.602	-2.36
524.799	-11.66
524.996	-18.7
525.193	-19.02
525.389	-26.46
525.586	-26.39
525.783	-28.07
525.98	-23.8
526.176	-23.08
526.373	-27.65
526.57	-24.44
526.767	-23.05
526.963	-23.05
527.16	-16.84
527.357	-20.44
527.553	-23.29
527.75	-17.99
527.947	-26.63
528.143	-19.25
528.34	-17.33
528.537	-18.26
528.733	-19.53
528.93	-11.81
529.126	0.8
529.323	1.47
529.519	4.37
529.716	0.5
529.912	2
530.109	2.66
530.305	-0.75
530.502	2.87
530.698	2.93
530.895	3.15
531.091	5.19
531.288	3.75
531.484	5.12
531.68	5.89
531.877	5.68
532.073	7.47
532.269	2.87
532.466	1.73
532.662	3.59
532.858	1.51
533.055	1.55
533.251	-4.82
533.447	-6.31
533.643	-4.73
533.84	-4.36
534.036	-2.21
534.232	-0.84
534.428	-1.77
534.624	-1.45
534.821	-1.27
535.017	-1.45
535.213	-4.37
535.409	-4.36
535.605	-5.25
535.801	-7.6
535.997	-8.68
536.193	-9.27
536.389	-7.02
536.586	-7.72
536.782	-8.9
536.978	-10.3
537.174	-7.88
537.37	-2.08
537.566	1.19
537.762	-0.93
537.958	3.99
538.153	2.06
538.349	-0.63
538.545	4.07
538.741	4.49
538.937	1.02
539.133	3
539.329	1.98
539.525	2.95
539.721	3.51
539.916	6.74
540.112	4.66
540.308	6.76
540.504	7.01
540.699	10.15
540.895	10.98
541.091	16.59
541.287	16.02
541.482	13.91
541.678	14.74
541.874	11.7
542.069	7.39
542.265	10.41
542.461	9.95
542.656	8.61
542.852	8.12
543.048	8.55
543.243	8.7
543.439	10.12
543.634	6.22
543.83	3.35
544.025	2.24
544.221	4.97
544.417	5.52
544.612	7.95
544.807	6.03
545.003	5.35
545.198	2.06
545.394	1.31
545.589	4.95
545.785	4.52
545.98	9.81
546.176	11.11
546.371	5.86
546.566	5.71
546.762	3.53
546.957	4.33
547.152	6.18
547.348	3.66
547.543	5.05
547.738	5.51
547.933	6.35
548.129	8.09
548.324	6.13
548.519	2.42
548.714	-0.22
548.91	1.48
549.105	1.76
549.3	2.11
549.495	3.4
549.69	-2.74
549.885	-3.88
550.08	-4.5
550.276	-1.62
550.471	3.92
550.666	6.35
550.861	7.04
551.056	2.64
551.251	0.39
551.446	5.91
551.641	4.59
551.836	6.2
552.031	6.16
552.226	6.58
552.421	5.89
552.616	8.19
552.811	10.54
553.006	5.43
553.201	3.87
553.395	5.92
553.59	3.37
553.785	6.57
553.98	8.89
554.175	4.64
554.37	2
554.565	0.88
554.759	-0.18
554.954	-0.75
555.149	1.31
555.344	2.4
555.538	-0.33
555.733	-2.12
555.928	1.28
556.122	2.79
556.317	-1.1
556.512	-0.98
556.706	0.26
556.901	0.24
557.096	3.73
557.29	3.24
557.485	1.26
557.68	-2.48
557.874	-0.6
558.069	-1.18
558.263	-0.12
558.458	-0.3
558.652	1.71
558.847	0.08
559.041	2.39
559.236	0.33
559.43	1.94
559.625	2.28
559.819	5.16
560.014	3.05
560.208	2.78
560.402	4.16
560.597	6.12
560.791	5.27
560.986	4.27
561.18	3.02
561.374	3.9
561.569	3.26
561.763	6.65
561.957	2.68
562.151	-0.06
562.346	0.66
562.54	2.12
562.734	-1.03
562.928	-3.76
563.123	-2.63
563.317	-2.43
563.511	-2.13
563.705	-3.34
563.899	-4.39
564.093	-5.74
564.288	-5.69
564.482	-6.82
564.676	-6.71
564.87	-4.24
565.064	-4.81
565.258	-3.37
565.452	-3.36
565.646	-2.7
565.84	-3.41
566.034	-1.2
566.228	-0.2
566.422	0.87
566.616	0.91
566.81	0.96
567.004	5.3
567.198	6.25
567.392	8.94
567.586	6.09
567.779	8.56
567.973	8.7
568.167	11.77
568.361	9.78
568.555	11.43
568.749	11.04
568.942	7.74
569.136	10.84
569.33	10.05
569.524	11.62
569.718	12.01
569.911	11.24
570.105	11.03
570.299	10.31
570.492	9.57
570.686	11.29
570.88	12.04
571.073	9.29
571.267	6.76
571.461	6.15
571.654	7.15
571.848	6.12
572.041	5.51
572.235	4.17
572.429	5.89
572.622	5.34
572.816	6.71
573.009	6.61
573.203	3.75
573.396	5.73
573.59	4.42
573.783	4.14
573.976	3.57
574.17	3.75
574.363	3.48
574.557	2.98
574.75	-1.61
574.943	0.62
575.137	2.64
575.33	4.36
575.523	2.4
575.717	2.42
575.91	0.73
576.103	1.05
576.297	-0.4
576.49	-1.31
576.683	-1.22
576.876	-2.81
577.07	-4.55
577.263	-2.38
577.456	-3.62
577.649	-4.09
577.842	-4.01
578.036	-1.99
578.229	-2.99
578.422	-1.87
578.615	-1.57
578.808	-0.48
579.001	-1.26
579.194	-0.67
579.387	-1.18
579.58	-0.52
579.773	-0.71
579.966	1.51
580.159	1.33
580.352	1.82
580.545	2.39
580.738	1.96
580.931	0.14
581.124	1.51
581.317	-2.53
581.51	-4
581.703	-2.8
581.896	-3.04
582.088	-3.77
582.281	-2.09
582.474	-1.63
582.667	-0.79
582.86	-2.01
583.053	-4.27
583.245	-3.85
583.438	-6.87
583.631	-4.37
583.824	-3.52
584.016	-4.15
584.209	-7.01
584.402	-4.89
584.594	-5.62
584.787	-4.35
584.98	-1.66
585.172	1.01
585.365	3.08
585.558	5.28
585.75	5.58
585.943	5.93
586.135	6
586.328	6.22
586.52	7.27
586.713	6.59
586.906	8.83
587.098	9.34
587.291	9.07
587.483	9.51
587.675	9.52
587.868	7.94
588.06	6.75
588.253	9.62
588.445	7.61
588.638	6.61
588.83	7.55
589.022	5.83
589.215	3.81
589.407	4.23
589.599	0.47
589.792	-0.14
589.984	-0.33
590.176	0.56
590.368	0.35
590.561	-2.35
590.753	-1.25
590.945	-0.2
591.137	-0.16
591.33	-2.46
591.522	-1
591.714	-2.49
591.906	-0.74
592.098	0.24
592.29	0.35
592.482	0.96
592.674	2.46
592.867	0.71
593.059	1.43
593.251	0.74
593.443	0.1
593.635	0.28
593.827	-1.37
594.019	-1.24
594.211	-3.35
594.403	-3.92
594.595	-1.61
594.787	-2.57
594.979	-4.67
595.17	-3.04
595.362	-0.06
595.554	-0.29
595.746	-1.29
595.938	-1.93
596.13	-2.15
596.322	-0.79
596.513	-1.14
596.705	-0.05
596.897	-0.04
597.089	-0.28
597.281	1.1
597.472	1.59
597.664	3.22
597.856	4.86
598.048	4.31
598.239	4.25
598.431	3.11
598.623	0.27
598.814	-1.64
599.006	-0.34
599.197	-1.23
599.389	-2.54
599.581	-3.61
599.772	-2.56
599.964	-2.19
600.155	-3.15
600.347	-5.43
600.538	-5.08
600.73	-4.36
600.921	-3.76
601.113	-4.21
601.304	-4.09
601.496	-3.36
601.687	-4.07
601.879	-5.32
602.07	-5.22
602.262	-4.87
602.453	-4.83
602.644	-4.41
602.836	-2.22
603.027	-1.93
603.218	-1.85
603.41	-1.9
603.601	-1.3
603.792	-1.49
603.983	-0.66
604.175	0.67
604.366	1.37
604.557	1.03
604.748	-1.6
604.94	-3.14
605.131	-3.85
605.322	-3.24
605.513	-3.45
605.704	-1.95
605.895	-1.53
606.086	-1.41
606.278	-1.13
606.469	-0.07
606.66	1.15
606.851	0.41
607.042	-0.42
607.233	-1.34
607.424	-1.76
607.615	-2.23
607.806	-1.6
607.997	-2.64
608.188	-2.87
608.379	-3.85
608.57	-2.96
608.761	-3.31
608.952	-2.16
609.142	0.76
609.333	0.23
609.524	-0.15
609.715	0.38
609.906	1.83
610.097	2.42
610.287	2.15
610.478	2.36
610.669	3.67
610.86	3.61
611.051	3.46
611.241	4.05
611.432	4.71
611.623	5.99
611.813	6.01
612.004	5.24
612.195	5.75
612.385	5.74
612.576	5.63
612.767	6.75
612.957	5.86
613.148	3.89
613.338	3.61
613.529	2.28
613.72	0.81
613.91	0.18
614.101	-0.73
614.291	1.36
614.482	2.12
614.672	-0.27
614.863	0.08
615.053	-0.81
615.243	-0.87
615.434	0.67
615.624	-0.99
615.815	-0.6
616.005	-0.34
616.195	-1.07
616.386	-1.41
616.576	-1.46
616.766	-0.99
616.957	0.79
617.147	0.49
617.337	-1.42
617.528	-0.46
617.718	0.17
617.908	-1.88
618.098	-1.65
618.289	-2.35
618.479	-3.58
618.669	-2.11
618.859	-1.3
619.049	1.2
619.239	1.35
619.43	-0.3
619.62	-0.24
619.81	0.29
620	0.61
620.19	1.86
620.38	2.02
620.57	1.42
620.76	2.23
620.95	0.58
621.14	1.77
621.33	3.75
621.52	3.8
621.71	2.84
621.9	5.23
622.09	5.08
622.28	5.38
622.47	5.1
622.659	3.89
622.849	3.43
623.039	1.73
623.229	1.42
623.419	2.1
623.609	2.95
623.799	0.83
623.988	0.1
624.178	-0.25
624.368	-0.15
624.558	-0.17
624.747	-1.79
624.937	0.38
625.127	-0.76
625.316	-1.05
625.506	-0.21
625.696	0.5
625.885	-0.28
626.075	0.25
626.265	-0.08
626.454	-0.45
626.644	0.31
626.833	-0.38
627.023	0.96
627.212	0.59
627.402	0.92
627.591	0.63
627.781	-0.7
627.97	-0.59
628.16	0.28
628.349	0.43
628.539	-0.32
628.728	0.88
628.918	-0.19
629.107	0.33
629.296	0.05
629.486	-1.28
629.675	-0.22
629.865	-0.62
630.054	0.05
630.243	-1.69
630.432	-1.85
630.622	-1.14
630.811	-0.31
631	-1.17
631.19	-0.2
631.379	-2.21
631.568	-2.32
631.757	-0.32
631.946	-0.17
632.136	-0.31
632.325	-1.28
632.514	0.28
632.703	-0.43
632.892	-2.03
633.081	-2.31
633.27	-1.88
633.459	-1.44
633.648	-2.46
633.837	-2.44
634.026	-3.24
634.215	-1.62
634.404	-1.99
634.593	-1.12
634.782	-0.45
634.971	-1.29
635.16	-1.93
635.349	-1.1
635.538	-0.74
635.727	-1.36
635.916	-1.52
636.105	-1.23
636.294	1.61
636.482	0.22
636.671	0.29
636.86	2.36
637.049	2.25
637.238	2.63
637.426	1.81
637.615	0.46
637.804	0.63
637.993	0.88
638.181	1.6
638.37	4.03
638.559	3.24
638.747	2.86
638.936	4.81
639.125	5.86
639.313	6.11
639.502	6.41
639.691	7.15
639.879	6.95
640.068	6.5
640.256	3.76
640.445	2.76
640.633	3.18
640.822	2.08
641.01	4.66
641.199	3.05
641.387	3.92
641.576	6.19
641.764	7.53
641.953	7.41
642.141	6.97
642.329	6.31
642.518	6.16
642.706	7.34
642.894	5.68
643.083	4.82
643.271	4.35
643.459	5.15
643.648	6.15
643.836	6.74
644.024	6.01
644.213	6.84
644.401	8.35
644.589	7.66
644.777	7.86
644.965	6.52
645.154	7.08
645.342	7.42
645.53	6.93
645.718	7.36
645.906	6.59
646.094	5.92
646.282	3.63
646.47	4.22
646.658	2.1
646.846	1.18
647.034	4.09
647.223	4.71
647.411	4.07
647.599	2.01
647.786	2.02
647.974	1.87
648.162	0.55
648.35	-1.36
648.538	-1.1
648.726	0.01
648.914	-0.56
649.102	0.11
649.29	0.38
649.478	1.59
649.665	0.73
649.853	1.26
650.041	0.27
650.229	3.32
650.417	2.2
650.604	1.55
650.792	3.67
650.98	0.61
651.168	-0.79
651.355	-0.69
651.543	-0.11
651.731	0.4
651.918	-0.81
652.106	1.37
652.294	3.18
652.481	3.5
652.669	3.61
652.856	4.12
653.044	4.28
653.231	3.96
653.419	1.7
653.606	1.58
653.794	2.58
653.981	3.29
654.169	1.6
654.356	1.6
654.544	2.1
654.731	1.2
654.919	0.63
655.106	1.68
655.294	1.82
655.481	2.86
655.668	3.35
655.856	2.84
656.043	2.7
656.23	3.22
656.418	3.79
656.605	2.74
656.792	2.7
656.979	2.89
657.167	3.29
657.354	4.2
657.541	4.25
657.728	3.54
657.916	2.92
658.103	1.9
658.29	2.04
658.477	3.51
658.664	4.8
658.851	6.03
659.038	6.4
659.225	4.85
659.412	5.26
659.6	3.81
659.787	5.46
659.974	3.88
660.161	4.49
660.348	2.4
660.535	4.16
660.722	3.35
660.909	2.81
661.095	3.05
661.282	2.46
661.469	2.68
661.656	1.59
661.843	3.07
662.03	3.71
662.217	3.55
662.404	2.42
662.59	0.18
662.777	-0.55
662.964	-1.63
663.151	0.38
663.338	0.33
663.524	0.82
663.711	0.16
663.898	1
664.085	-0.18
664.271	0.77
664.458	-0.69
664.645	-0.12
664.831	0.02
665.018	-1.36
665.204	-0.21
665.391	-0.52
665.578	0.22
665.764	-1.23
665.951	-0.15
666.137	0.1
666.324	0.92
666.51	2.91
666.697	3.03
666.883	4.21
667.07	2.37
667.256	2.19
667.443	1.49
667.629	2.15
667.816	1.18
668.002	1.11
668.188	1.81
668.375	2.21
668.561	1.34
668.747	0.13
668.934	0.87
669.12	-0.16
669.306	-0.62
669.493	-1.98
669.679	-1
669.865	-1.31
670.051	-1.8
670.238	-0.97
670.424	-3.08
670.61	-4.16
670.796	-3.62
670.982	-3.48
671.169	-4.14
671.355	-4.35
671.541	-4.67
671.727	-2.46
671.913	-2.88
672.099	-3.32
672.285	-5.14
672.471	-4.96
672.657	-4.53
672.843	-3.32
673.029	-3.2
673.215	-3.29
673.401	0.07
673.587	0.51
673.773	0.8
673.959	1.75
674.145	0.79
674.331	1
674.517	2.42
674.703	1.4
674.888	2.85
675.074	1.67
675.26	2.51
675.446	2.7
675.632	0.47
675.817	1.22
676.003	0.59
676.189	2.01
676.375	2.03
676.56	2.37
676.746	0.97
676.932	0.06
677.117	-0.15
677.303	-2.45
677.489	-2.55
677.674	-3.7
677.86	-5.15
678.046	-4.94
678.231	-4.66
678.417	-4.94
678.602	-5.74
678.788	-7.41
678.973	-5.54
679.159	-3.95
679.344	-3.47
679.53	-2.68
679.715	-3.99
679.901	-3.6
680.086	-4.3
680.272	-4.78
680.457	-4.98
680.643	-5.63
680.828	-4.73
681.013	-4.54
681.199	-4.45
681.384	-5.7
681.569	-5.34
681.755	-3.98
681.94	-4.61
682.125	-4.23
682.31	-2.22
682.496	-2.35
682.681	-0.63
682.866	-1.03
683.051	-2.45
683.237	-2.67
683.422	-1.79
683.607	-0.92
683.792	0.08
683.977	0.15
684.162	-0.81
684.347	0.16
684.532	0.52
684.717	-0.39
684.903	-0.8
685.088	-1.19
685.273	-0.74
685.458	-0.79
685.643	-0.12
685.828	-0.41
686.013	0.68
686.198	-1.87
686.382	-0.95
686.567	-0.68
686.752	-0.69
686.937	-0.33
687.122	0.13
687.307	-0.03
687.492	0.36
687.677	-0.27
687.861	0.15
688.046	1.37
688.231	-0.17
688.416	1.92
688.601	3.31
688.785	4.51
688.97	5.55
689.155	6.04
689.339	5.96
689.524	4.77
689.709	4.45
689.893	3.96
690.078	6.27
690.263	6.66
690.447	5.71
690.632	4.16
690.816	5.32
691.001	4.87
691.186	3.58
691.37	2.84
691.555	4.28
691.739	4.7
691.924	4.63
692.108	5.02
692.293	4.02
692.477	4.02
692.661	2.91
692.846	1.34
693.03	1.18
693.215	1.63
693.399	2
693.583	1.24
693.768	1.62
693.952	-1.25
694.136	-2.1
694.321	-1.35
694.505	-0.97
694.689	-1.67
694.873	-1.23
695.058	-0.69
695.242	0.28
695.426	-1.29
695.61	-1.89
695.794	-0.29
695.979	-0.58
696.163	-0.59
696.347	-0.78
696.531	-0.05
696.715	1.89
696.899	2.05
697.083	0.59
697.267	1.1
697.451	2.46
697.635	2.44
697.819	3.71
698.003	4.43
698.187	4.21
698.371	4.73
698.555	4.29
698.739	4.09
698.923	4.64
699.107	5.26
699.291	4.79
699.475	4.35
699.659	4.08
699.842	4.89
700.026	4.77
700.21	3.58
700.394	3.66
700.578	4.3
700.761	4.62
700.945	6.39
701.129	5.69
701.313	5.08
701.496	5.59
701.68	5.82
701.864	5.04
702.047	5.18
702.231	6.96
702.415	7.06
702.598	7.2
702.782	6.3
702.965	5.57
703.149	6.83
703.333	6.23
703.516	5.66
703.7	5.22
703.883	5.71
704.067	6.86
704.25	6.95
704.434	4.2
704.617	2.29
704.801	0.77
704.984	1.11
705.167	1.7
705.351	0.75
705.534	1.04
705.718	0.47
705.901	-0.64
706.084	-0.78
706.268	-1.42
706.451	-2.64
706.634	-1.33
706.817	-3.43
707.001	-4.71
707.184	-3.12
707.367	-3.58
707.55	-3.44
707.734	-2.87
707.917	-2.45
708.1	-3.3
708.283	-0.47
708.466	1.75
708.649	3.71
708.832	3.06
709.015	3.54
709.199	3.67
709.382	4.01
709.565	4.89
709.748	6.76
709.931	5.14
710.114	5.71
710.297	6.45
710.48	5.39
710.663	8.07
710.846	6.87
711.028	6.43
711.211	4.82
711.394	4.88
711.577	2.29
711.76	-0.82
711.943	-0.72
712.126	-1.87
712.309	-0.74
712.491	-0.12
712.674	-0.15
712.857	0.37
713.04	-0.36
713.222	-0.76
713.405	-0.93
713.588	-2.97
713.771	-1.65
713.953	-2.12
714.136	-2.06
714.319	0.05
714.501	-1.7
714.684	-2.11
714.866	-1.76
715.049	-0.23
715.232	-0.89
715.414	-0.79
715.597	1.9
715.779	2.23
715.962	3.11
716.144	1.36
716.327	0.84
716.509	0.54
716.692	-2.04
716.874	-0.99
717.057	-0.83
717.239	-0.11
717.421	1.6
717.604	0.06
717.786	0.57
717.968	-0.08
718.151	-0.86
718.333	-1.28
718.515	0.68
718.698	0.16
718.88	-0.4
719.062	0.71
719.244	2.85
719.427	1.24
719.609	1.34
719.791	-0.35
719.973	-0.53
720.155	-2.77
720.338	-1.74
720.52	-0.86
720.702	-1.67
720.884	0.18
721.066	-0.29
721.248	-4.66
721.43	-4
721.612	-4.47
721.794	-2.79
721.976	-3.03
722.158	-2.12
722.34	-2.78
722.522	-1.72
722.704	-0.38
722.886	-1.39
723.068	-1.86
723.25	0.18
723.432	0.32
723.614	1.43
723.796	1.3
723.977	2.35
724.159	2.32
724.341	3.01
724.523	2.24
724.705	-0.92
724.886	-1.47
725.068	1.8
725.25	2.01
725.432	1.91
725.613	0.39
725.795	1.99
725.977	2.98
726.158	2.92
726.34	2.95
726.522	3.24
726.703	3.85
726.885	5.47
727.066	3.28
727.248	5.07
727.43	5.17
727.611	5.76
727.793	5.18
727.974	4.25
728.156	3.51
728.337	3.03
728.519	3.01
728.7	4.88
728.882	4.74
729.063	5.21
729.244	4.75
729.426	5.87
729.607	4.38
729.788	3.72
729.97	4.04
730.151	3.16
730.332	3.56
730.514	3.65
730.695	2.76
730.876	3.72
731.058	2.02
731.239	1.48
731.42	0.11
731.601	1.04
731.782	2.48
731.964	2.46
732.145	3.77
732.326	3.28
732.507	2.04
732.688	2.78
732.869	4.49
733.05	5.79
733.231	5.6
733.412	4.08
733.593	5.07
733.774	4.91
733.955	5.35
734.136	4.55
734.317	3.79
734.498	2.46
734.679	2.59
734.86	2.4
735.041	2.71
735.222	3.66
735.403	4.54
735.584	3.92
735.765	4.66
735.946	3.92
736.126	4.98
736.307	4.3
736.488	2.48
736.669	-1.02
736.849	-1.38
737.03	-0.9
737.211	0.74
737.392	-0.3
737.572	-0.62
737.753	-1.55
737.934	-1.67
738.114	-1.14
738.295	-1.16
738.476	-0.33
738.656	-0.1
738.837	0.08
739.017	1.3
739.198	1.21
739.378	1.81
739.559	1.06
739.74	2.49
739.92	0.68
740.1	0.61
740.281	1.42
740.461	1.93
740.642	1.45
740.822	-1.21
741.003	0.09
741.183	0.03
741.363	1.12
741.544	1.75
741.724	2.15
741.904	1.53
742.085	2.56
742.265	0.75
742.445	0.28
742.626	0.51
742.806	-0.56
742.986	-1.62
743.166	-3
743.347	-2.77
743.527	-3.53
743.707	-2.18
743.887	-1.39
744.067	-2.38
744.247	-1.59
744.427	1.29
744.608	1.08
744.788	0.68
744.968	1.67
745.148	2.21
745.328	1.14
745.508	-0.19
745.688	0.57
745.868	-1.28
746.048	-0.47
746.228	-0.11
746.408	-0.37
746.588	-0.8
746.767	0.22
746.947	2.53
747.127	1.54
747.307	0.48
747.487	1.88
747.667	1.55
747.847	3.74
748.026	4.43
748.206	1.42
748.386	4.17
748.566	2.57
748.745	1.94
748.925	2.12
749.105	3.01
749.285	3.45
749.464	3.62
749.644	4.79
749.824	5.35
750.003	4.46
750.183	2.78
750.362	2.92
750.542	1.74
750.722	-0.09
750.901	0.47
751.081	1.64
751.26	0.51
751.44	0.3
751.619	-2.11
751.799	-3.82
751.978	-3.52
752.158	-4.19
752.337	-5.8
752.516	-6.59
752.696	-7.82
752.875	-7.16
753.055	-6.32
753.234	-5.46
753.413	-5.27
753.593	-3.66
753.772	-2.23
753.951	-0.39
754.13	-0.58
754.31	-1.19
754.489	-0.17
754.668	1.84
754.847	1.72
755.027	3.67
755.206	4.63
755.385	5.83
755.564	7.45
755.743	7.53
755.922	6.91
756.101	7.45
756.28	8.04
756.46	7.74
756.639	5.95
756.818	5.7
756.997	5.43
757.176	5.37
757.355	3.02
757.534	1.88
757.713	1.83
757.892	2.01
758.07	4.95
758.249	4.85
758.428	2.56
758.607	2.17
758.786	1.69
758.965	0.87
759.144	1.58
759.323	0.34
759.501	-0.37
759.68	-0.26
759.859	2.29
760.038	2.02
760.216	2.81
760.395	3.86
760.574	3.58
760.753	4.4
760.931	5.21
761.11	6.41
761.289	6.31
761.467	4.79
761.646	3.94
761.824	2.23
762.003	0.46
762.182	1.18
762.36	1.61
762.539	1.76
762.717	1.64
762.896	0.64
763.074	0.75
763.253	0.77
763.431	3.07
763.61	1.62
763.788	1.62
763.966	1.38
764.145	1.11
764.323	1.83
764.502	0.4
764.68	-0.71
764.858	-1.37
765.037	0.57
765.215	1.73
765.393	2.81
765.571	3.08
765.75	3.56
765.928	2.92
766.106	1.57
766.284	1.75
766.463	3.21
766.641	2.77
766.819	3.52
766.997	4.64
767.175	3.08
767.353	3.31
767.531	3.42
767.71	3.63
767.888	3.44
768.066	2.07
768.244	2.66
768.422	4.3
768.6	5.56
768.778	3.5
768.956	3.29
769.134	4.61
769.312	4.44
769.489	3.86
769.667	4.24
769.845	5.45
770.023	5.15
770.201	4.07
770.379	4.33
770.557	3.56
770.735	3.26
770.912	2.22
771.09	1.66
771.268	2.17
771.446	1.69
771.623	2.47
771.801	4.04
771.979	3.47
772.157	0.76
772.334	-0.74
772.512	-0.23
772.69	0.31
772.867	-0.95
773.045	-1.49
773.222	-0.74
773.4	0.67
773.577	0.46
773.755	-1.08
773.933	0.31
774.11	-0.81
774.288	-0.68
774.465	-1.57
774.643	-1.36
774.82	-1.88
774.997	-3.62
775.175	-4.59
775.352	-2.7
775.53	-2.83
775.707	-2.49
775.884	-0.06
776.062	1
776.239	1.95
776.416	3.6
776.594	2.45
776.771	3.68
776.948	4.98
777.125	3.44
777.303	2.05
777.48	1.51
777.657	-1.44
777.834	1.16
778.012	2.17
778.189	3.69
778.366	3.57
778.543	2.45
778.72	4.14
778.897	5.53
779.074	4.32
779.251	4.45
779.428	4.34
779.605	1.8
779.782	1.72
779.959	1.63
780.136	-0.86
780.313	0.23
780.49	-1.69
780.667	-1.12
780.844	-0.07
781.021	0.13
781.198	0.41
781.375	3.15
781.552	1.49
781.728	0.25
781.905	-0.07
782.082	0.53
782.259	2.1
782.436	2.08
782.612	0.77
782.789	-0.43
782.966	-2.4
783.143	-2.11
783.319	0.11
783.496	1
783.673	-0.3
783.849	-0.72
784.026	-0.83
784.203	-0.67
784.379	-2.05
784.556	-1.01
784.732	-1.17
784.909	0.31
785.085	-0.68
785.262	0.16
785.438	1.89
785.615	2.47
785.791	3.3
785.968	4.13
786.144	4.07
786.321	6.16
786.497	3.89
786.673	4.19
786.85	3.42
787.026	2
787.203	1.11
787.379	1.75
787.555	0.54
787.731	1.03
787.908	0.68
788.084	0.43
788.26	-3.59
788.437	-0.37
788.613	-2.9
788.789	-3.28
788.965	-2.82
789.141	-4.17
789.317	-4.69
789.494	-6.43
789.67	-5.91
789.846	-5.63
790.022	-6.96
790.198	-4.75
790.374	-2.94
790.55	-2.76
790.726	-5.2
790.902	-5.2
791.078	-4.93
791.254	-5.32
791.43	-3.96
791.606	-3.05
791.782	-3.13
791.958	-2.78
792.134	-5.17
792.31	-2.67
792.486	-2.85
792.661	-3.49
792.837	-0.1
793.013	-1.05
793.189	-1.03
793.365	-2.47
793.54	-0.83
793.716	-0.75
793.892	0.87
794.068	-1.97
794.243	-2.48
794.419	-0.7
794.595	-1.84
794.77	-3.42
794.946	1.39
795.122	-1.07
795.297	-0.73
795.473	0.59
795.648	3.63
795.824	2.98
796	2.64
796.175	3.67
796.351	2.06
796.526	-1.57
796.702	-0.28
796.877	0.49
797.052	0.59
797.228	-2.81
797.403	-3.38
797.579	-2.85
797.754	-0.58
797.929	0.4
798.105	0.2
798.28	-1.01
798.455	2.93
798.631	-0.14
798.806	0.91
798.981	2.39
799.157	0.97
799.332	-0.71
799.507	2.36
799.682	1.84
799.858	0.8
800.033	1.12
800.208	2.19
800.383	1.91
800.558	2.29
800.733	2.45
800.908	2.67
801.083	4.17
801.258	2.44
801.434	1.29
801.609	1.55
801.784	4.28
801.959	4.29
802.134	0.26
802.309	-0.19
802.484	-1.21
802.658	-3.85
802.833	-4.65
803.008	-3.48
803.183	-6.04
803.358	-7.07
803.533	-5.54
803.708	-4.84
803.883	-5.53
804.057	-9.78
804.232	-7.76
804.407	-5.49
804.582	-5.41
804.756	-6.62
804.931	-5.41
805.106	-6.91
805.281	-7.54
805.455	-9.56
805.63	-8.47
805.805	-9.18
805.979	-5.82
806.154	-5.21
806.328	-3.42
806.503	-2.96
806.678	-1.28
806.852	-0.21
807.027	0.48
807.201	-3.81
807.376	-0.6
807.55	-0.78
807.725	1.1
807.899	1.07
808.074	0
808.248	1.94
808.422	1.82
808.597	1.85
808.771	5
808.946	10.63
809.12	13.89
809.294	13.74
809.468	15.48
809.643	14.14
809.817	16.31
809.991	14.13
810.166	16.21
810.34	12.95
810.514	13.3
810.688	14.68
810.862	14.66
811.037	12.42
811.211	11.24
811.385	10.06
811.559	9.82
811.733	10.29
811.907	8.35
812.081	9.04
812.255	6.57
812.429	5.39
812.603	0.55
812.777	-0.48
812.951	-2.19
813.125	-1.85
813.299	-3.25
813.473	-7.44
813.647	-4.18
813.821	-4.99
813.995	-3.5
814.169	-4.68
814.343	-3.8
814.516	0.23
814.69	2.55
814.864	2.96
815.038	6.43
815.212	5
815.385	3.62
815.559	5.57
815.733	2.09
815.907	4.4
816.08	6.11
816.254	4.8
816.428	3.77
816.601	4.23
816.775	4.41
816.948	3.7
817.122	7.36
817.296	6.02
817.469	6.1
817.643	6.19
817.816	6.72
817.99	5.57
818.163	6.04
818.337	4.13
818.51	5.61
818.684	6.88
818.857	7.62
819.031	5.81
819.204	2.28
819.377	9.25
819.551	8.26
819.724	6.81
819.897	7.42
820.071	7.45
820.244	8.56
820.417	5.82
820.591	5.58
820.764	4.62
820.937	8.62
821.11	6.31
821.284	6.15
821.457	9.7
821.63	8.75
821.803	7.05
821.976	9.43
822.149	12.52
822.322	11.06
822.496	9.9
822.669	14.76
822.842	14.87
823.015	11.42
823.188	11.94
823.361	12.52
823.534	11.66
823.707	8.08
823.88	8.85
824.053	8.99
824.226	10.05
824.399	11.24
824.571	6.86
824.744	7
824.917	7.49
825.09	3.46
825.263	6.77
825.436	9.95
825.608	9.98
825.781	7.33
825.954	10.32
826.127	11.76
826.299	7.35
826.472	8.64
826.645	7.77
826.818	5.32
826.99	3.72
827.163	4.19
827.336	4.91
827.508	2.21
827.681	3.1
827.853	3.55
828.026	3.07
828.198	4.78
828.371	6.7
828.544	6.21
828.716	6.97
828.889	3.65
829.061	0.7
829.233	-3.56
829.406	-5.61
829.578	-10.84
829.751	-13.73
829.923	-13.18
830.096	-13.9
830.268	-10.46
830.44	-7.71
830.613	-5.69
830.785	-5.97
830.957	-9.75
831.129	-4.71
831.302	-3.04
831.474	-5.79
831.646	-5.13
831.818	-7.88
831.991	-6.17
832.163	-6.19
832.335	-6.55
832.507	-5.29
832.679	-5.43
832.851	-5.29
833.023	-4.39
833.195	-2.5
833.368	1.02
833.54	-0.05
833.712	-0.71
833.884	1.55
834.056	-1.92
834.228	-1.06
834.4	2.9
834.571	7.47
834.743	5.99
834.915	2.57
835.087	5.87
835.259	7.32
835.431	8.18
835.603	5.8
835.775	4.18
835.946	7.49
836.118	7.06
836.29	7.07
836.462	6.72
836.634	8.35
836.805	6.2
836.977	3.94
837.149	5.26
837.32	5.65
837.492	1.39
837.664	6.22
837.835	4.52
838.007	-0.5
838.179	1.66
838.35	3.42
838.522	9.21
838.693	9.69
838.865	2.6
839.036	2.5
839.208	3.97
839.379	8.47
839.551	6.63
839.722	7.27
839.894	6.94
840.065	5.18
840.237	7.3
840.408	9.07
840.579	11.03
840.751	10.71
840.922	12.21
841.093	8.07
841.265	7.13
841.436	10.37
841.607	12.83
841.778	8.38
841.95	9.49
842.121	10.92
842.292	10.43
842.463	15.06
842.635	18.81
842.806	20.41
842.977	16.2
843.148	15.41
843.319	13.41
843.49	12.16
843.661	14.18
843.832	10.12
844.003	8.75
844.174	8.27
844.345	10.76
844.516	4.52
844.687	12.24
844.858	10.56
845.029	9.46
845.2	8.36
845.371	11.79
845.542	8.76
845.713	-0.12
845.884	-3.56
846.055	-11.3
846.225	-11.49
846.396	-18.09
846.567	-12.19
846.738	-21.07
846.909	-20.09
847.079	-16.45
847.25	-9.83
847.421	-13.85
847.591	-19.98
847.762	-17.5
847.933	-25.59
848.103	-17.37
848.274	-24.82
848.445	-25.46
848.615	-28.47
848.786	-30.54
848.956	-22.43
849.127	-20.27
849.297	-6.78
849.468	0.77
849.638	9.82
849.809	5.93
849.979	7.64
850.15	4.21
850.32	12.16
850.491	15.31
850.661	14.06
850.831	14.21
851.002	18.23
851.172	24.66
851.342	21.97
851.513	23.78
851.683	24.14
851.853	29.67
852.024	31.69
852.194	29.77
852.364	33.76
852.534	30.56
852.705	30.16
852.875	23.93
853.045	22.22
853.215	14.36
853.385	15.8
853.555	21.2
853.725	20.37
853.895	15.33
854.066	14.54
854.236	16.01
854.406	11.37
854.576	9.8
854.746	5.13
854.916	3.27
855.086	3.32
855.256	9.3
855.425	4.55
855.595	2.91
855.765	3.41
855.935	-2.93
856.105	-5.71
856.275	-0.35
856.445	-2.83
856.614	-2.27
856.784	8.47
856.954	9.63
857.124	8.04
857.294	11.89
857.463	16.89
857.633	15.31
857.803	12.28
857.972	20.5
858.142	21.39
858.312	22.96
858.481	23.6
858.651	20.69
858.821	16.12
858.99	15.6
859.16	15.95
859.329	23.41
859.499	26.2
859.668	32.56
859.838	28.24
860.007	39.5
860.177	40.81
860.346	39.44
860.516	41.2
860.685	36.41
860.854	35.09
861.024	32.88
861.193	30.43
861.363	31.55
861.532	27.95
861.701	28.3
861.87	27.59
862.04	27.44
862.209	28.36
862.378	26.2
862.547	27.94
862.717	29.58
862.886	26.2
863.055	23.08
863.224	21.4
863.393	19.86
863.563	15.66
863.732	12.43
863.901	3.74
864.07	6.22
864.239	5.06
864.408	2.11
864.577	2.5
864.746	11.13
864.915	9.45
865.084	9.72
865.253	5.56
865.422	6.39
865.591	10.84
865.76	8.78
865.929	9.91
866.097	7.6
866.266	0.11
866.435	-3.97
866.604	-7.37
866.773	-5.2
866.942	-7.22
867.11	-13.57
867.279	-15.17
867.448	6.54
867.617	-3.65
867.785	-7.38
867.954	-15.17
868.123	-14.9
868.291	-29.41
868.46	-24.72
868.629	-21.71
868.797	-15.76
868.966	-23.56
869.134	-23.42
869.303	-10.03
869.472	-8.69
869.64	-14.52
869.809	-6.99
869.977	-4.8
870.146	3.11
870.314	-2.29
870.482	-2.31
870.651	-3.21
870.819	-2.05
870.988	-9.52
871.156	-8.54
871.324	-6.32
871.493	-12.36
871.661	2.68
871.829	5.83
871.998	-1.77
872.166	-9.1
872.334	-7.65
872.502	3.4
872.671	-2.88
872.839	8.89
873.007	5.42
873.175	8.83
873.343	3.37
873.512	0.86
873.68	3.62
873.848	7.5
874.016	8.58
874.184	9.65
874.352	7.27
874.52	10.32
874.688	16.36
874.856	22.5
875.024	25
875.192	2.51
875.36	-2.65
875.528	4.24
875.696	9.75
875.864	0.27
876.032	-0.7
876.199	-1.14
876.367	-13.43
876.535	-9.04
876.703	-4.23
876.871	11.43
877.039	26.77
877.206	23.01
877.374	18.19
877.542	15.81
877.71	14.65
877.877	17.27
878.045	21.77
878.213	20.54
878.38	25.52
878.548	37.09
878.715	60.18
878.883	64.49
879.051	66.42
879.218	56.22
879.386	59.11
879.553	48.08
879.721	44.17
879.888	39.6
880.056	41.13
880.223	39.64
880.391	30.8
880.558	21.04
880.726	26.52
880.893	25.17
881.06	19.39
881.228	13.6
881.395	17.17
881.562	7.08
881.73	-19.53
881.897	-51.44
882.064	-35.32
882.231	-55.49
882.399	-49.18
882.566	-42.79
882.733	-36.16
882.9	-61.79
883.068	-23.15
883.235	-16.16
883.402	-8.14
883.569	-3.48
883.736	19.29
883.903	17.77
884.07	13.68
884.237	2.82
884.404	11.25
884.571	25.15
884.738	28.44
884.905	25.22
885.072	33.19
885.239	46.68
885.406	59.11
