Data from Transmission_09-59-43-681.txt Node
Date: Fri Aug 24 09:59:43 EEST 2018
User: tibor.sos
Spectrometer: USB4F01757
Scans to average: 10
Trigger mode: 4
Integration Time (sec): 1.000000E-2
Electric dark correction enabled: true
Boxcar width: 10
XAxis mode: Wavelengths
Number of Pixels in Spectrum: 3648
>>>>>Begin Spectral Data<<<<<
178.758	-88.72
178.974	-257.25
179.191	-395.03
179.407	-143.52
179.624	-132.05
179.84	-113.94
180.057	-154.65
180.273	-125.64
180.489	-105.57
180.706	-258.02
180.922	-204.96
181.138	-144.85
181.355	-55.01
181.571	-21.35
181.787	-14.28
182.004	-10.98
182.22	-20.86
182.436	-16.65
182.653	26.27
182.869	17.26
183.085	40.26
183.301	60.68
183.518	48.25
183.734	63.06
183.95	85.54
184.166	107.08
184.383	105.57
184.599	117.98
184.815	81.25
185.031	53.94
185.247	76.22
185.463	79.2
185.68	72.09
185.896	81.46
186.112	104.48
186.328	84.72
186.544	98.86
186.76	90.71
186.976	87.45
187.192	79.5
187.408	80.21
187.624	74.29
187.84	53.98
188.056	56.89
188.272	47.42
188.488	44.39
188.704	35.35
188.92	9.22
189.136	17.82
189.352	33.79
189.568	60.62
189.784	84.91
190	124.77
190.216	123.75
190.432	108.81
190.648	101.97
190.864	206.59
191.08	210.96
191.296	109.93
191.511	119.91
191.727	145.29
191.943	143.39
192.159	106.74
192.375	100.89
192.591	131.37
192.806	185.18
193.022	44.96
193.238	111.53
193.454	120.36
193.669	157.39
193.885	126.24
194.101	189.81
194.317	58.51
194.532	-889.89
194.748	763.03
194.964	-29.46
195.18	5.02
195.395	-36.01
195.611	-3.33
195.827	-14.93
196.042	-118.88
196.258	-31.14
196.473	43.47
196.689	-10.77
196.905	15.06
197.12	-542.57
197.336	-126.69
197.551	-80
197.767	47200
197.982	296.37
198.198	1567.12
198.414	1591.01
198.629	327.02
198.845	195.67
199.06	255.11
199.276	201.31
199.491	354.59
199.707	145.68
199.922	122.26
200.137	104.39
200.353	82.47
200.568	62.14
200.784	71.42
200.999	18.12
201.215	8.91
201.43	-36.88
201.645	-21.03
201.861	-34.6
202.076	-10.23
202.291	-41.23
202.507	-105.61
202.722	-37.03
202.937	-235.65
203.153	-207.18
203.368	-78.45
203.583	-20.89
203.798	-18.63
204.014	-4.85
204.229	-24.9
204.444	-6.03
204.659	-83.44
204.875	31.15
205.09	484.03
205.305	-2083.02
205.52	487.8
205.735	165.27
205.951	-560
206.166	1.01
206.381	-91.9
206.596	-945.45
206.811	-149.71
207.026	-91.51
207.241	80.19
207.457	196.88
207.672	198.35
207.887	-85.98
208.102	54.28
208.317	62.76
208.532	178.53
208.747	0
208.962	88.03
209.177	-295.3
209.392	-322.74
209.607	-68.76
209.822	-8.54
210.037	-22.05
210.252	-47.58
210.467	-124.55
210.682	-34.48
210.897	-94.65
211.112	-232.87
211.326	-183.98
211.541	-226.15
211.756	-97.4
211.971	-293.68
212.186	-182.43
212.401	-207.88
212.616	-200.72
212.831	-149.55
213.045	-262.59
213.26	-164.08
213.475	-177.43
213.69	-163.62
213.905	-232.67
214.119	-962.9
214.334	10696.3
214.549	950.61
214.764	-1034.2
214.978	-543.34
215.193	-553.36
215.408	2810.26
215.622	-279.25
215.837	-480
216.052	413.79
216.266	129.62
216.481	14.93
216.696	75.94
216.91	715.15
217.125	164.13
217.34	283.94
217.554	4.32
217.769	110.44
217.983	33.37
218.198	20.2
218.412	5.14
218.627	179.96
218.842	192.72
219.056	106.72
219.271	86.32
219.485	84.06
219.7	20.8
219.914	4.8
220.129	-13.55
220.343	-34.61
220.558	-15.61
220.772	-109
220.986	-51.78
221.201	-105.22
221.415	315.26
221.63	208.14
221.844	174.31
222.058	196.79
222.273	152.05
222.487	235.47
222.702	369.11
222.916	387.62
223.13	250.04
223.344	244.36
223.559	170.27
223.773	164.51
223.987	187.13
224.202	184.17
224.416	226.65
224.63	136.78
224.844	100.77
225.059	138.96
225.273	-4.04
225.487	-448
225.701	-35.15
225.915	1.11
226.13	30.1
226.344	34.46
226.558	33.31
226.772	32.46
226.986	69.07
227.2	67.22
227.415	77.23
227.629	95.96
227.843	71.14
228.057	44.62
228.271	41.56
228.485	27.34
228.699	21.23
228.913	0.64
229.127	-13.01
229.341	-56.61
229.555	-70.44
229.769	-149.83
229.983	-169.21
230.197	-133.89
230.411	-143.15
230.625	-171.15
230.839	-111.45
231.053	-185.68
231.267	-268.78
231.481	-448.83
231.695	-253.45
231.909	-22.19
232.122	-38.15
232.336	-4.14
232.55	-4.59
232.764	-9.4
232.978	-52.14
233.192	-70.38
233.405	-102.13
233.619	36.06
233.833	93.62
234.047	85.99
234.261	3.79
234.474	1.56
234.688	141.4
234.902	240
235.116	194
235.329	175.1
235.543	163.88
235.757	162.92
235.97	89.78
236.184	113.04
236.398	133.41
236.612	115.49
236.825	185.96
237.039	306.65
237.252	299.06
237.466	1042.42
237.68	3532.2
237.893	-160400
238.107	-651.38
238.32	1714.78
238.534	-296.4
238.748	-189.73
238.961	-89.19
239.175	-21.92
239.388	-60.85
239.602	-186.51
239.815	-59.08
240.029	-268.08
240.242	-150.94
240.456	-108.13
240.669	-91.3
240.882	-52.89
241.096	-171.73
241.309	-76.58
241.523	-92.04
241.736	-169.34
241.95	551.96
242.163	-809.02
242.376	-281.68
242.59	-1254.4
242.803	8800
243.016	786.71
243.23	1831.93
243.443	17946.67
243.656	-2366.92
243.87	-354.4
244.083	-206.55
244.296	-195.9
244.509	-151.51
244.723	-172.71
244.936	-173.81
245.149	-251.42
245.362	-249.23
245.576	-121
245.789	-160
246.002	-124.74
246.215	-137.83
246.428	-99.17
246.641	-106.46
246.855	-171.52
247.068	-221.23
247.281	-275.16
247.494	-97.45
247.707	-110.02
247.92	-97.83
248.133	-76.48
248.346	-128.94
248.559	-83.07
248.772	-93.59
248.985	-39.29
249.198	-17.94
249.411	-26.63
249.624	-15.94
249.837	-24.7
250.05	-19.23
250.263	-26.73
250.476	-5.09
250.689	-9.04
250.902	-2.99
251.115	-17.57
251.328	-8.94
251.541	-3.33
251.754	7.91
251.967	3.75
252.18	3.1
252.393	-5.18
252.605	-7.72
252.818	-7.02
253.031	-14.2
253.244	-10.83
253.457	-29.37
253.67	-37.28
253.882	-30.44
254.095	-16.83
254.308	-8.01
254.521	-17.22
254.733	-8.19
254.946	-12.29
255.159	-11.77
255.372	-18.38
255.584	-18.54
255.797	-26.45
256.01	-32.42
256.222	-33.27
256.435	-43.73
256.648	-38.02
256.86	-30.02
257.073	-22.81
257.285	-16.9
257.498	-17.03
257.711	-23.06
257.923	-14.67
258.136	-11.13
258.348	-9.41
258.561	-16.13
258.773	-32.98
258.986	-32.75
259.198	-35.32
259.411	-78.06
259.623	-43.86
259.836	-29.99
260.048	-10.34
260.261	15.43
260.473	11.36
260.686	17.01
260.898	15.16
261.111	19.38
261.323	14.31
261.535	14.14
261.748	11.99
261.96	25.72
262.173	33.58
262.385	32.72
262.597	31.56
262.81	31.26
263.022	22.2
263.234	21.09
263.447	22.17
263.659	20.3
263.871	19.55
264.083	9.86
264.296	7.69
264.508	8.36
264.72	-1.96
264.932	2.8
265.145	-7.87
265.357	-12.54
265.569	-22.83
265.781	-36.19
265.993	-58.67
266.205	-68.15
266.418	-96.74
266.63	-125.6
266.842	-93.6
267.054	-66.69
267.266	-47.51
267.478	-45.66
267.69	-28.51
267.902	-35.02
268.114	-49.23
268.326	-38.2
268.538	-22.56
268.75	-22.03
268.962	-18.78
269.174	-8.23
269.386	10.25
269.598	23.84
269.81	32.66
270.022	29.53
270.234	36.84
270.446	43.13
270.658	37.45
270.87	39.33
271.082	35.59
271.294	31.27
271.506	19.87
271.718	14.67
271.929	17.6
272.141	20.13
272.353	18.81
272.565	21.27
272.777	24.1
272.989	24.01
273.2	28.26
273.412	25.67
273.624	25.5
273.836	16.65
274.047	16.06
274.259	15.48
274.471	19.65
274.683	12.94
274.894	12.36
275.106	15.2
275.318	15.65
275.529	14.01
275.741	5.71
275.953	16.38
276.164	23.11
276.376	23.48
276.588	19.97
276.799	23.86
277.011	30.27
277.222	38.5
277.434	30.69
277.646	28.15
277.857	27.66
278.069	27.15
278.28	34.09
278.492	28.74
278.703	24.09
278.915	30.08
279.126	29.33
279.338	20.38
279.549	23.42
279.761	18.03
279.972	15.41
280.183	18.06
280.395	12.52
280.606	2.67
280.818	-2.18
281.029	0.53
281.24	-3.43
281.452	-3.98
281.663	-11.12
281.875	-10.81
282.086	-12.37
282.297	-22.06
282.508	-22.34
282.72	-21.31
282.931	-21.21
283.142	-23.64
283.354	-35.3
283.565	-34.51
283.776	-29.31
283.987	-47.82
284.199	-44.7
284.41	-28.5
284.621	-14.56
284.832	-11.41
285.043	-3.94
285.254	-11.48
285.466	-19.79
285.677	-15.14
285.888	-24.5
286.099	-25.88
286.31	-15.82
286.521	-20.29
286.732	-20.59
286.943	-11.6
287.154	-14.87
287.366	-15.79
287.577	-10.74
287.788	-15.3
287.999	-15.33
288.21	-24.93
288.421	-16.1
288.632	-21.37
288.843	-18.54
289.054	-23.11
289.264	-23.77
289.475	-22.24
289.686	-15.8
289.897	-14.65
290.108	-13.29
290.319	-13.27
290.53	-5.16
290.741	-5.76
290.952	-1.51
291.163	7.8
291.373	6.45
291.584	12.13
291.795	18.26
292.006	16.65
292.217	22.33
292.427	21.99
292.638	26.89
292.849	25.25
293.06	33.89
293.27	22.97
293.481	22.62
293.692	22.6
293.903	19.5
294.113	20.19
294.324	20.82
294.535	13.15
294.745	15.62
294.956	19.16
295.167	15.7
295.377	15.95
295.588	15.06
295.798	9.67
296.009	6.59
296.22	4.26
296.43	-1.49
296.641	-7.37
296.851	-6.8
297.062	-10.15
297.272	-8.7
297.483	-17.22
297.693	-14.53
297.904	-17.23
298.114	-9.78
298.325	-3.43
298.535	0.54
298.746	3.21
298.956	10.74
299.167	5.94
299.377	3.1
299.587	2.46
299.798	4.23
300.008	0.8
300.219	10.86
300.429	8.79
300.639	6.85
300.85	10.25
301.06	12.26
301.27	18.78
301.481	16.05
301.691	10.32
301.901	12.36
302.111	14.42
302.322	21.64
302.532	10.52
302.742	0.43
302.952	-2.08
303.163	-11.25
303.373	-15.84
303.583	-12.75
303.793	-12.06
304.003	-7.59
304.214	-6.28
304.424	-6.18
304.634	-14.34
304.844	-12
305.054	-8.53
305.264	-6.12
305.474	-7.82
305.684	-14.76
305.894	-4.05
306.104	1.27
306.314	-2.48
306.525	-4.12
306.735	-9.77
306.945	-2.98
307.155	7.11
307.365	9.43
307.575	12.77
307.784	12.61
307.994	10.28
308.204	7.68
308.414	10
308.624	12.26
308.834	16.25
309.044	18.95
309.254	20.2
309.464	18.11
309.674	13.25
309.884	8.61
310.093	11.23
310.303	10.74
310.513	14.34
310.723	18.15
310.933	19.43
311.142	19.97
311.352	22.84
311.562	21.53
311.772	22.11
311.981	25.8
312.191	26.41
312.401	31.16
312.611	30.08
312.82	25.24
313.03	21.78
313.24	20.75
313.449	20.76
313.659	17.12
313.869	12.93
314.078	11.31
314.288	16.94
314.497	11.53
314.707	7.41
314.917	4.88
315.126	8.72
315.336	9.08
315.545	6.13
315.755	6.41
315.964	4.95
316.174	4.13
316.383	1.91
316.593	-1.03
316.802	-2.83
317.012	-2.84
317.221	4.05
317.431	5.45
317.64	4.53
317.849	-2.01
318.059	-3.39
318.268	1.38
318.478	6.14
318.687	6.36
318.896	10.61
319.106	9.38
319.315	3.87
319.524	-7.89
319.734	-9.62
319.943	-6.63
320.152	-9.17
320.362	-10.55
320.571	-15.4
320.78	-18.32
320.989	-11.9
321.199	-11.4
321.408	-9.85
321.617	-13.69
321.826	-12.75
322.035	-12.74
322.245	-11.06
322.454	-9.48
322.663	-9.86
322.872	-14.69
323.081	-17.94
323.29	-21.05
323.5	-23.25
323.709	-19.01
323.918	-14.82
324.127	-20.06
324.336	-25.03
324.545	-28.33
324.754	-22.02
324.963	-18.95
325.172	-15.19
325.381	-20.45
325.59	-24.49
325.799	-24.48
326.008	-32.05
326.217	-31.15
326.426	-18.31
326.635	-12.32
326.844	-9.3
327.053	1.84
327.262	6.31
327.47	4.14
327.679	9.93
327.888	15.82
328.097	15.79
328.306	16.81
328.515	17.87
328.724	23.41
328.932	25.46
329.141	21.3
329.35	18.78
329.559	19.91
329.768	29.82
329.976	31.11
330.185	27.27
330.394	27.36
330.602	31.01
330.811	18.2
331.02	16.79
331.229	21
331.437	19.4
331.646	17.31
331.855	22.09
332.063	19.06
332.272	15.96
332.48	11.6
332.689	12.4
332.898	11.59
333.106	7.37
333.315	12.03
333.523	7.23
333.732	8.7
333.94	6.28
334.149	1.74
334.357	1.51
334.566	6.57
334.774	12.86
334.983	11.18
335.191	10.42
335.4	11.68
335.608	7.08
335.817	-11.12
336.025	-15.34
336.234	-22.4
336.442	-22.9
336.65	-19.67
336.859	-2
337.067	-8.81
337.275	5.76
337.484	1.13
337.692	-7.82
337.9	-5.53
338.109	-2.05
338.317	-9.1
338.525	-19.02
338.734	-20.45
338.942	-27.35
339.15	-36.24
339.358	-55.82
339.567	-31.86
339.775	-35.72
339.983	-43.35
340.191	-41.3
340.399	-32.43
340.608	-16.4
340.816	-17.57
341.024	-10.37
341.232	-17.11
341.44	-8
341.648	-10.82
341.856	-7.82
342.064	-5.17
342.272	-6.59
342.481	-7.11
342.689	-3.63
342.897	5.6
343.105	10.75
343.313	20.59
343.521	25.14
343.729	25.98
343.937	22.81
344.145	21.21
344.353	21.79
344.56	19.75
344.768	24.34
344.976	16.11
345.184	13.62
345.392	5.99
345.6	8.66
345.808	7.23
346.016	0.28
346.224	5.29
346.431	12.28
346.639	15.49
346.847	13.19
347.055	12.99
347.263	7.63
347.471	0.06
347.678	-16.9
347.886	-24.34
348.094	-16.52
348.302	-18.13
348.509	-15.7
348.717	-10.83
348.925	-1.65
349.132	-14.62
349.34	-5.54
349.548	3.87
349.755	5.46
349.963	-2.71
350.171	-9.84
350.378	-0.61
350.586	-3.34
350.793	-7.23
351.001	-7.56
351.209	-6.78
351.416	-0.84
351.624	-2.85
351.831	-3.48
352.039	2.48
352.246	-0.96
352.454	-10.93
352.661	-5.76
352.869	0.49
353.076	-3.73
353.284	-7.81
353.491	-0.13
353.699	-5.07
353.906	-7.48
354.113	-6.86
354.321	-7.27
354.528	3.42
354.736	-5.95
354.943	-5.95
355.15	-8.38
355.358	-19.66
355.565	-21.11
355.772	-19.57
355.98	-5.69
356.187	0.45
356.394	-8.02
356.601	-4.37
356.809	8.01
357.016	10.73
357.223	6.24
357.43	3.79
357.638	7.3
357.845	6.56
358.052	6.72
358.259	5.68
358.466	7.61
358.673	4.82
358.881	0.87
359.088	-0.7
359.295	0.17
359.502	-9.17
359.709	-2.51
359.916	-1.54
360.123	-2.76
360.33	-24.81
360.537	-28.55
360.744	-27.03
360.951	-28.43
361.158	-39.78
361.365	-39.32
361.572	-29.48
361.779	-19.32
361.986	-22.76
362.193	-19.73
362.4	-20.17
362.607	-31.06
362.814	-25.25
363.021	-15.98
363.228	-18.44
363.435	-5.12
363.641	-5.92
363.848	3.27
364.055	-0
364.262	1.44
364.469	-3.51
364.676	5.67
364.882	4.43
365.089	8.37
365.296	12.43
365.503	12
365.709	-1.18
365.916	-6.02
366.123	-12.16
366.33	-6.84
366.536	-10.21
366.743	-10.95
366.95	-9.62
367.156	-9.65
367.363	-13.05
367.57	-21.28
367.776	-24.09
367.983	-20.25
368.19	-16.9
368.396	-11.32
368.603	-20.81
368.809	-12.21
369.016	-9.97
369.222	-15.01
369.429	-12.05
369.635	-8.21
369.842	-7.22
370.048	-0.11
370.255	3.32
370.461	4.6
370.668	-6.21
370.874	-13.46
371.081	-5.44
371.287	4.13
371.494	1.71
371.7	6.13
371.906	9.68
372.113	11.91
372.319	9.93
372.526	10.33
372.732	7.9
372.938	13.96
373.145	12.12
373.351	7.65
373.557	16.45
373.763	10.91
373.97	3.82
374.176	5.58
374.382	10.32
374.588	10.67
374.795	11.33
375.001	8.49
375.207	6.88
375.413	0.8
375.62	-0.17
375.826	-0.24
376.032	-5.79
376.238	1.67
376.444	-3.43
376.65	-5.69
376.856	-19.85
377.062	-10.7
377.269	-1.86
377.475	-11.4
377.681	-17.65
377.887	-23.47
378.093	-27.36
378.299	-23.3
378.505	-27.28
378.711	-36.43
378.917	-40.81
379.123	-34.49
379.329	-16.82
379.535	-7.62
379.741	-6.43
379.947	-4.83
380.152	-1.12
380.358	1.2
380.564	-3.58
380.77	-11.05
380.976	-16.04
381.182	-2.92
381.388	-5.55
381.594	-13.34
381.799	-3.53
382.005	4.09
382.211	5.02
382.417	9.42
382.623	6.22
382.828	10.4
383.034	10.12
383.24	16.64
383.445	9.05
383.651	2.55
383.857	0.88
384.063	-0.94
384.268	-9.75
384.474	-9.31
384.68	-19.2
384.885	-14.98
385.091	0.06
385.296	11.48
385.502	12.02
385.708	8.88
385.913	8
386.119	-1.13
386.324	-7.95
386.53	-9.38
386.735	-8.59
386.941	6.63
387.146	0.43
387.352	14.25
387.557	14.75
387.763	16.27
387.968	6.11
388.174	8.94
388.379	13.42
388.585	9.36
388.79	5.34
388.996	7.35
389.201	-4.89
389.406	-22.32
389.612	-38.72
389.817	-35.16
390.022	-37.19
390.228	-19
390.433	-26.37
390.638	-23.43
390.844	-25.31
391.049	-23.95
391.254	-31.65
391.459	-31.12
391.665	-42.07
391.87	-47.49
392.075	-32.5
392.28	-20.27
392.485	-26.12
392.691	-26.21
392.896	-29.13
393.101	-24.38
393.306	-18.46
393.511	-8.21
393.716	-2.54
393.922	0.6
394.127	-9.26
394.332	0.11
394.537	-9.29
394.742	-0.86
394.947	-0.8
395.152	6
395.357	4.21
395.562	5.04
395.767	2.99
395.972	0.39
396.177	-1.03
396.382	-4.11
396.587	-2.63
396.792	-2.58
396.997	3.04
397.202	14.14
397.407	10.09
397.611	13.46
397.816	9.47
398.021	8.31
398.226	3.59
398.431	9.04
398.636	2.73
398.841	7.62
399.045	5.84
399.25	-0.49
399.455	-0.63
399.66	5.26
399.864	2.37
400.069	-1.73
400.274	4.25
400.479	9.09
400.683	9.14
400.888	7.89
401.093	-3.46
401.297	-17.37
401.502	-26.69
401.707	-29.7
401.911	-16.62
402.116	-9.84
402.321	1.09
402.525	14.75
402.73	16.09
402.934	18.1
403.139	13.05
403.344	10.63
403.548	18.62
403.753	4.09
403.957	-2.67
404.162	-15.21
404.366	-2.54
404.571	-4.86
404.775	-14.81
404.98	-5.01
405.184	-3.31
405.388	5.62
405.593	13.94
405.797	13.04
406.002	25.18
406.206	15.76
406.41	16.59
406.615	16.44
406.819	14.77
407.023	11.48
407.228	13.15
407.432	6.57
407.636	4.53
407.841	8.45
408.045	13.61
408.249	1.93
408.453	9.38
408.658	6.85
408.862	10.14
409.066	9.53
409.27	3.04
409.474	-7.85
409.679	-13.67
409.883	-12.3
410.087	-20.17
410.291	-21.49
410.495	-37
410.699	-41.87
410.903	-42.72
411.108	-35.18
411.312	-40.75
411.516	-46.66
411.72	-32.15
411.924	-20.59
412.128	-23.72
412.332	-25.2
412.536	-13.4
412.74	3.3
412.944	9
413.148	5.63
413.352	8.42
413.556	5.49
413.76	12.01
413.964	26.63
414.167	26.5
414.371	30.76
414.575	22.75
414.779	25.66
414.983	34.64
415.187	28.61
415.391	18.79
415.594	24.04
415.798	14.83
416.002	13.31
416.206	14.47
416.41	21.63
416.613	21.85
416.817	19.3
417.021	12.22
417.225	10.17
417.428	-0.17
417.632	-3.46
417.836	-0.65
418.039	0.84
418.243	5.19
418.447	0.55
418.65	2.01
418.854	9.77
419.057	23.15
419.261	15.67
419.465	9.65
419.668	15.36
419.872	11.44
420.075	13.35
420.279	12.99
420.482	18.14
420.686	6.19
420.889	2.7
421.093	4.87
421.296	5.73
421.5	4.95
421.703	3.68
421.907	11.03
422.11	6.55
422.314	-0.24
422.517	-14.71
422.72	-8.34
422.924	-19.34
423.127	-25.43
423.33	-46.79
423.534	-56.79
423.737	-54.93
423.94	-44.56
424.144	-30.67
424.347	-15.61
424.55	-16.14
424.754	-35.29
424.957	-35.41
425.16	-20.2
425.363	-11.01
425.567	-10.14
425.77	-13.75
425.973	-9.96
426.176	-20.78
426.379	-13.13
426.582	-3.67
426.786	8.1
426.989	3.09
427.192	16.39
427.395	23.57
427.598	22.21
427.801	19.03
428.004	21.4
428.207	25.97
428.41	25.99
428.613	20.6
428.816	17.84
429.019	21.58
429.222	15.91
429.425	15.66
429.628	14.14
429.831	10.87
430.034	15.77
430.237	18.6
430.44	21.14
430.643	17.63
430.846	16.55
431.049	9.04
431.252	6.67
431.454	-0.53
431.657	-15.19
431.86	-8.78
432.063	1.88
432.266	2.75
432.469	-11.57
432.671	-10.04
432.874	1.55
433.077	-3.24
433.28	2.32
433.482	8.74
433.685	-0.05
433.888	-10.2
434.09	-10.86
434.293	-26.14
434.496	-32.73
434.698	-36.96
434.901	-28.16
435.104	-30.34
435.306	-23.3
435.509	-17.71
435.712	-15.65
435.914	-16.2
436.117	-1.45
436.319	-0.38
436.522	1.53
436.724	10.77
436.927	4.04
437.129	3.28
437.332	10.07
437.534	11.79
437.737	7.76
437.939	24.1
438.142	31.37
438.344	24.68
438.547	27.68
438.749	42.38
438.951	36.86
439.154	41.53
439.356	44.39
439.558	45.54
439.761	41.25
439.963	34.54
440.165	30.45
440.368	25.77
440.57	13.15
440.772	6.02
440.975	-7.61
441.177	0.51
441.379	-1.39
441.581	2.53
441.784	-9.45
441.986	3.8
442.188	-8.23
442.39	-9.59
442.592	-13.25
442.795	4.33
442.997	-1.18
443.199	1.59
443.401	0.86
443.603	-3.98
443.805	-9.08
444.007	-5.86
444.209	-6.27
444.411	9.91
444.613	3.02
444.815	9.16
445.017	14.18
445.219	15.59
445.421	13.83
445.623	15.78
445.825	12.42
446.027	17.08
446.229	3.91
446.431	13.47
446.633	8.04
446.835	16.65
447.037	7.38
447.239	8.87
447.441	1.76
447.643	2.95
447.844	-3.59
448.046	2.4
448.248	5.91
448.45	5.74
448.652	-5.95
448.853	2.42
449.055	6.36
449.257	8.75
449.459	15.27
449.66	16.8
449.862	4.48
450.064	19.19
450.266	10.03
450.467	10.52
450.669	18.01
450.871	18.69
451.072	26.03
451.274	27.46
451.475	19.04
451.677	34.04
451.879	24.63
452.08	21.15
452.282	34.88
452.483	34.22
452.685	36.72
452.886	32.88
453.088	21.72
453.289	13.39
453.491	-7.05
453.692	-22.63
453.894	-3.01
454.095	-5.14
454.297	-16.05
454.498	-11.55
454.7	2.88
454.901	5.41
455.102	16.47
455.304	15.54
455.505	16.09
455.706	16.4
455.908	15.48
456.109	18.66
456.31	26.65
456.512	19.92
456.713	21.96
456.914	17.96
457.116	4.45
457.317	14.36
457.518	8.6
457.719	18.49
457.921	25.33
458.122	16.37
458.323	20.1
458.524	19.09
458.725	26.57
458.926	18.97
459.128	18.8
459.329	15.87
459.53	6.01
459.731	-3.49
459.932	-2.53
460.133	-0.24
460.334	7.79
460.535	13.96
460.736	9.74
460.937	2.09
461.138	4.01
461.339	17.37
461.54	16.66
461.741	20.9
461.942	13.86
462.143	17.17
462.344	13.54
462.545	8.42
462.746	14.39
462.947	15.82
463.148	22.59
463.348	21.81
463.549	19.2
463.75	23.65
463.951	35.11
464.152	25.88
464.353	22.73
464.553	26.64
464.754	22.78
464.955	28.18
465.156	24.84
465.356	24.85
465.557	23
465.758	20.32
465.959	16.95
466.159	18
466.36	9.79
466.561	13.01
466.761	16.76
466.962	12.18
467.163	16.41
467.363	13.45
467.564	9.77
467.764	11.1
467.965	7.51
468.166	-0.1
468.366	12.1
468.567	7.85
468.767	10.07
468.968	6.44
469.168	10.73
469.369	19.01
469.569	14.28
469.77	14.34
469.97	17.49
470.17	19.09
470.371	16.68
470.571	17.16
470.772	20.3
470.972	27.77
471.172	30.53
471.373	19.11
471.573	19.6
471.773	22.81
471.974	26.29
472.174	28.21
472.374	35.27
472.575	29.63
472.775	34.95
472.975	23.27
473.175	27.72
473.376	21.44
473.576	21.05
473.776	29.95
473.976	27.61
474.177	29.4
474.377	27.38
474.577	32.78
474.777	32.78
474.977	25.81
475.177	19.65
475.377	18.94
475.577	26.71
475.777	29.33
475.978	24.79
476.178	23.44
476.378	23.42
476.578	22.57
476.778	23.79
476.978	20.52
477.178	27.09
477.378	25.09
477.578	23.21
477.778	19.2
477.977	17.57
478.177	20.86
478.377	19.11
478.577	21.5
478.777	25.44
478.977	22.6
479.177	27.36
479.377	23.15
479.577	16
479.776	14.3
479.976	14.02
480.176	11.3
480.376	14.68
480.576	13.66
480.775	6.59
480.975	6.85
481.175	6.34
481.374	4.4
481.574	4.95
481.774	8.17
481.974	12.24
482.173	9.56
482.373	3.88
482.572	2.05
482.772	1.72
482.972	2.89
483.171	4.91
483.371	8.83
483.57	10.88
483.77	18.72
483.97	17.44
484.169	12.54
484.369	13.89
484.568	8.01
484.768	10.76
484.967	12.25
485.167	12.28
485.366	10.48
485.566	4.91
485.765	8.07
485.964	2.9
486.164	1.2
486.363	0.1
486.563	1.42
486.762	2.08
486.961	3.31
487.161	2.03
487.36	3.39
487.559	-6.78
487.759	-8.68
487.958	-17.06
488.157	-19.39
488.356	-12.96
488.556	-11.42
488.755	-12.09
488.954	-12.86
489.153	-8.49
489.353	-7.23
489.552	-5.14
489.751	-4.85
489.95	-6.64
490.149	-8.07
490.348	-6.99
490.548	-4.5
490.747	-5.99
490.946	-8.45
491.145	-3.2
491.344	-10.09
491.543	-12.21
491.742	-6.58
491.941	-4.93
492.14	-2.19
492.339	-2
492.538	-6.41
492.737	-8.01
492.936	-1.21
493.135	-3.06
493.334	-11.78
493.533	-16.61
493.732	-13.57
493.931	-3.75
494.13	-6.44
494.328	-1.17
494.527	-2.65
494.726	-5.4
494.925	-6.42
495.124	-8.28
495.323	-12.99
495.521	-8.2
495.72	-3.3
495.919	-1.47
496.118	-3.31
496.316	0.55
496.515	1.88
496.714	2.5
496.913	8.64
497.111	6.56
497.31	2.33
497.509	8.92
497.707	13.21
497.906	16.84
498.105	12.73
498.303	11.87
498.502	10.32
498.7	12.72
498.899	13.31
499.097	20.17
499.296	24.14
499.495	29.89
499.693	29.15
499.892	24.39
500.09	23.28
500.289	29.77
500.487	25.39
500.686	27.92
500.884	30.18
501.082	26.06
501.281	24.26
501.479	29.61
501.678	31.35
501.876	27.1
502.074	26.88
502.273	30.14
502.471	31.75
502.669	33.55
502.868	32.53
503.066	33.02
503.264	31.13
503.463	29.94
503.661	22.03
503.859	23.38
504.057	29.6
504.256	27.34
504.454	21.86
504.652	23.06
504.85	23.17
505.048	23.87
505.246	22.4
505.445	23.25
505.643	20.88
505.841	18.16
506.039	23.1
506.237	18.81
506.435	19.31
506.633	18.71
506.831	20.71
507.029	22.91
507.227	24.95
507.425	26.93
507.623	27.79
507.821	29.35
508.019	28.2
508.217	27.51
508.415	31.47
508.613	32.52
508.811	28.42
509.009	27.94
509.207	25.23
509.405	26.23
509.603	27.6
509.8	27.66
509.998	25.7
510.196	21.85
510.394	22.99
510.592	20.04
510.79	19.43
510.987	16.97
511.185	18.37
511.383	17.72
511.581	12.71
511.778	15.29
511.976	17.64
512.174	15.45
512.371	12.36
512.569	11.21
512.767	14.7
512.964	14.28
513.162	12.78
513.36	7.93
513.557	5.44
513.755	4.05
513.952	7.12
514.15	8.19
514.348	10.5
514.545	11.83
514.743	14.93
514.94	15.91
515.138	13.31
515.335	14.5
515.533	14.95
515.73	17.92
515.927	16.01
516.125	16.24
516.322	17.86
516.52	22.45
516.717	20.74
516.915	16.95
517.112	18.19
517.309	17.98
517.507	25.76
517.704	26.26
517.901	22.21
518.099	20.76
518.296	22.28
518.493	24.05
518.69	23.31
518.888	22.29
519.085	24.95
519.282	29
519.479	27.3
519.676	22.31
519.874	19.98
520.071	16.03
520.268	16.03
520.465	16.25
520.662	14.37
520.859	12.76
521.056	13.29
521.254	19.28
521.451	22.2
521.648	17.32
521.845	15.55
522.042	21.77
522.239	24.83
522.436	22.12
522.633	18.66
522.83	19.43
523.027	15.46
523.224	10.84
523.421	9.31
523.618	5.38
523.815	15.66
524.011	18.27
524.208	26.33
524.405	24.45
524.602	25.55
524.799	15.79
524.996	12.71
525.193	13.95
525.389	9.86
525.586	7.54
525.783	8.04
525.98	13.98
526.176	8.9
526.373	1.98
526.57	6.1
526.767	5.71
526.963	2.33
527.16	5.88
527.357	8.07
527.553	8.29
527.75	6.19
527.947	-3.32
528.143	-5.07
528.34	-11.93
528.537	-12.1
528.733	-11.37
528.93	2.36
529.126	9.55
529.323	8.04
529.519	8.14
529.716	5.85
529.912	8.4
530.109	3.91
530.305	6.64
530.502	12.04
530.698	9.28
530.895	6.62
531.091	10.51
531.288	10.22
531.484	9.78
531.68	10.03
531.877	11.59
532.073	11.97
532.269	14.83
532.466	13.99
532.662	17.35
532.858	15.71
533.055	12.41
533.251	13.19
533.447	13.34
533.643	16.47
533.84	16.88
534.036	15.59
534.232	18.77
534.428	16.92
534.624	16.77
534.821	17.68
535.017	21.47
535.213	18.58
535.409	20.68
535.605	21.32
535.801	20.42
535.997	20.78
536.193	20.26
536.389	18.47
536.586	18.68
536.782	18.01
536.978	17.06
537.174	16.45
537.37	14.67
537.566	17.45
537.762	12.14
537.958	12.76
538.153	12.24
538.349	7.86
538.545	7.09
538.741	2.72
538.937	-0.39
539.133	-4.11
539.329	-0.5
539.525	0.41
539.721	-0.99
539.916	1.83
540.112	-0.67
540.308	2.72
540.504	1.08
540.699	4.1
540.895	3.75
541.091	9.42
541.287	12.47
541.482	15.26
541.678	14.58
541.874	16.28
542.069	16.43
542.265	19.67
542.461	22.96
542.656	26.53
542.852	26.95
543.048	28.77
543.243	32.05
543.439	29.89
543.634	27.17
543.83	27.83
544.025	27.34
544.221	29.08
544.417	29.3
544.612	32.3
544.807	31.36
545.003	30.78
545.198	28.2
545.394	26.06
545.589	25.01
545.785	22.26
545.98	22.66
546.176	21.62
546.371	17.5
546.566	17.17
546.762	14.89
546.957	18.54
547.152	16.52
547.348	13.81
547.543	16.26
547.738	14.31
547.933	11.77
548.129	11.34
548.324	11.39
548.519	8.8
548.714	8.09
548.91	8.23
549.105	7.89
549.3	6.79
549.495	10.71
549.69	8.66
549.885	8.76
550.08	10.25
550.276	11.56
550.471	16.29
550.666	14.56
550.861	15.23
551.056	11.24
551.251	13.98
551.446	19.54
551.641	17.19
551.836	20.66
552.031	22.17
552.226	22.28
552.421	21.63
552.616	21.93
552.811	21.51
553.006	19.98
553.201	19.39
553.395	20.43
553.59	16.1
553.785	15.68
553.98	17.13
554.175	13.46
554.37	13.92
554.565	13.28
554.759	12.37
554.954	11.27
555.149	10.71
555.344	10.21
555.538	8.12
555.733	9.93
555.928	11.67
556.122	12.54
556.317	10.66
556.512	12.95
556.706	12.11
556.901	13.84
557.096	13.98
557.29	15.13
557.485	15.45
557.68	14.62
557.874	16.77
558.069	15.57
558.263	16.46
558.458	16.54
558.652	16.1
558.847	18.79
559.041	22.78
559.236	21.65
559.43	22.53
559.625	22.07
559.819	19.91
560.014	18.44
560.208	17.91
560.402	17.66
560.597	18.65
560.791	19.73
560.986	17.94
561.18	18.38
561.374	18.77
561.569	16.53
561.763	18.36
561.957	16.71
562.151	15.04
562.346	17.01
562.54	18.63
562.734	18.35
562.928	15.23
563.123	13.88
563.317	16.29
563.511	16.06
563.705	14.15
563.899	16.3
564.093	15.73
564.288	16.15
564.482	19.27
564.676	18.5
564.87	18.93
565.064	19.11
565.258	20.57
565.452	21.81
565.646	25.6
565.84	24.5
566.034	25.31
566.228	29.54
566.422	30.98
566.616	28.51
566.81	29.58
567.004	30.66
567.198	29.91
567.392	29.98
567.586	29.02
567.779	29.91
567.973	28.96
568.167	28.62
568.361	28.4
568.555	29.58
568.749	29.4
568.942	30.2
569.136	30.4
569.33	28.3
569.524	24.81
569.718	24.77
569.911	25.35
570.105	26.97
570.299	24.78
570.492	22.14
570.686	23.54
570.88	22.33
571.073	22.14
571.267	22.58
571.461	21.45
571.654	22.17
571.848	21.76
572.041	21.03
572.235	19.92
572.429	20.28
572.622	16.31
572.816	16.08
573.009	13.61
573.203	13.31
573.396	14.21
573.59	16.64
573.783	13.89
573.976	13.75
574.17	12.71
574.363	12.36
574.557	12.46
574.75	11.32
574.943	13.9
575.137	15.42
575.33	15.98
575.523	16.21
575.717	14.16
575.91	13.11
576.103	14.29
576.297	15.76
576.49	15.98
576.683	16.64
576.876	16.69
577.07	17.54
577.263	19.02
577.456	18.95
577.649	16.93
577.842	18.83
578.036	21.49
578.229	21.94
578.422	21.95
578.615	22.71
578.808	21.14
579.001	20.15
579.194	20.21
579.387	19.98
579.58	20.75
579.773	20.92
579.966	21.68
580.159	21.4
580.352	21.07
580.545	20.62
580.738	20.92
580.931	18.96
581.124	19.8
581.317	16.52
581.51	16.35
581.703	17.51
581.896	17.27
582.088	14.89
582.281	14.74
582.474	16.54
582.667	16.54
582.86	18.31
583.053	18.64
583.245	19.53
583.438	19.36
583.631	20.4
583.824	21.44
584.016	22.93
584.209	22.18
584.402	22.28
584.594	22.84
584.787	23.87
584.98	23.51
585.172	24.66
585.365	24.58
585.558	24.2
585.75	24.35
585.943	24.33
586.135	23.35
586.328	23.05
586.52	22.69
586.713	22.33
586.906	22.36
587.098	21.99
587.291	21.36
587.483	19.38
587.675	17.4
587.868	16.46
588.06	14.19
588.253	15.34
588.445	14.44
588.638	15.07
588.83	13.79
589.022	14.41
589.215	13.18
589.407	15.49
589.599	16.97
589.792	17.11
589.984	16.84
590.176	18.73
590.368	19.58
590.561	20.74
590.753	21.49
590.945	21.12
591.137	20.09
591.33	20.88
591.522	23.26
591.714	21.7
591.906	24.33
592.098	25.34
592.29	25.74
592.482	26.48
592.674	24.26
592.867	24.18
593.059	25.13
593.251	24.73
593.443	23.82
593.635	21.53
593.827	20.01
594.019	19.78
594.211	17.36
594.403	16.82
594.595	16.03
594.787	15.4
594.979	16.26
595.17	17.34
595.362	17.55
595.554	17.59
595.746	19.78
595.938	17.67
596.13	16.24
596.322	15.85
596.513	13.7
596.705	15.96
596.897	16.78
597.089	17.55
597.281	18.46
597.472	18.91
597.664	19.55
597.856	21.18
598.048	20.4
598.239	22.29
598.431	20.85
598.623	21.19
598.814	21.04
599.006	20.55
599.197	21.01
599.389	18.82
599.581	16.66
599.772	16.88
599.964	17.95
600.155	21.01
600.347	20.05
600.538	20.25
600.73	18.73
600.921	19.06
601.113	16.96
601.304	16.58
601.496	16.5
601.687	17.45
601.879	16.96
602.07	18.96
602.262	17.5
602.453	19.46
602.644	17.44
602.836	17.5
603.027	17.7
603.218	17.05
603.41	17.02
603.601	18.7
603.792	18.04
603.983	16.57
604.175	16.28
604.366	18.78
604.557	21.13
604.748	18.22
604.94	15.97
605.131	15.88
605.322	16.5
605.513	17.05
605.704	17.25
605.895	16.99
606.086	15.09
606.278	16.57
606.469	17.72
606.66	18.01
606.851	17.54
607.042	16.21
607.233	16.4
607.424	16.93
607.615	16.09
607.806	15.07
607.997	16.43
608.188	16.4
608.379	14.35
608.57	13.33
608.761	16.28
608.952	17.08
609.142	18.47
609.333	16.69
609.524	16.11
609.715	17.02
609.906	16.39
610.097	17.34
610.287	16.26
610.478	15.29
610.669	17.2
610.86	18.15
611.051	18.31
611.241	18.39
611.432	18.73
611.623	19.32
611.813	21.41
612.004	20.56
612.195	19.34
612.385	18.78
612.576	20.48
612.767	18.49
612.957	19.24
613.148	18.76
613.338	18.94
613.529	18.82
613.72	17.55
613.91	18.83
614.101	18.7
614.291	18.85
614.482	18.78
614.672	17.85
614.863	17.45
615.053	17.89
615.243	17.01
615.434	17.32
615.624	16.64
615.815	16.92
616.005	15.81
616.195	15.22
616.386	15.46
616.576	15.12
616.766	16.9
616.957	17.66
617.147	16.9
617.337	16.16
617.528	15.47
617.718	13.89
617.908	12.07
618.098	11.39
618.289	12.19
618.479	11.26
618.669	11.36
618.859	11.41
619.049	13.44
619.239	13.72
619.43	13.63
619.62	14.29
619.81	14.91
620	17.76
620.19	17.7
620.38	17.77
620.57	17.22
620.76	17.06
620.95	16.29
621.14	17.62
621.33	18.26
621.52	19.41
621.71	19.19
621.9	18.7
622.09	19.29
622.28	19.59
622.47	18.42
622.659	17.31
622.849	17.68
623.039	16.44
623.229	17.02
623.419	17.35
623.609	15.2
623.799	14.48
623.988	12.03
624.178	12.26
624.368	12.73
624.558	12.86
624.747	12.53
624.937	12.26
625.127	9.35
625.316	8.9
625.506	9.87
625.696	11.81
625.885	10.54
626.075	9.85
626.265	9.6
626.454	10.28
626.644	11.83
626.833	9.95
627.023	9.92
627.212	8.05
627.402	8.88
627.591	11.26
627.781	9.85
627.97	10.88
628.16	11.11
628.349	10.58
628.539	9.74
628.728	11.31
628.918	11.73
629.107	14.41
629.296	13.66
629.486	11.46
629.675	10.36
629.865	12.5
630.054	13.57
630.243	11.57
630.432	11.7
630.622	10.32
630.811	11.66
631	9.91
631.19	10.96
631.379	9.72
631.568	9
631.757	9.85
631.946	9.78
632.136	11.1
632.325	9.18
632.514	10.46
632.703	7.29
632.892	5.82
633.081	5.56
633.27	7.32
633.459	8.08
633.648	7.32
633.837	7.17
634.026	5.54
634.215	7.28
634.404	7.99
634.593	10.71
634.782	10.63
634.971	11.47
635.16	9.85
635.349	9.98
635.538	10.95
635.727	10.07
635.916	9.44
636.105	8.3
636.294	10.46
636.482	9.23
636.671	9.68
636.86	12.36
637.049	12.24
637.238	13.01
637.426	12.79
637.615	12.43
637.804	12.75
637.993	12.95
638.181	14.12
638.37	14.79
638.559	12.77
638.747	13.23
638.936	14.87
639.125	16.33
639.313	15.32
639.502	14.66
639.691	15.76
639.879	14.78
640.068	15.28
640.256	15.02
640.445	15.67
640.633	17.6
640.822	16.25
641.01	17.61
641.199	16.64
641.387	17.45
641.576	19.48
641.764	21.2
641.953	21.11
642.141	19.31
642.329	19.15
642.518	19.09
642.706	19.28
642.894	17.29
643.083	17.63
643.271	17.9
643.459	17.35
643.648	16.44
643.836	17.23
644.024	16.53
644.213	15.61
644.401	14.77
644.589	13.32
644.777	13.47
644.965	13.2
645.154	13.05
645.342	12.05
645.53	11.42
645.718	10.74
645.906	11.1
646.094	11.37
646.282	10.61
646.47	11.73
646.658	10.25
646.846	9.93
647.034	9.68
647.223	10.84
647.411	11.85
647.599	10.07
647.786	10.62
647.974	10.64
648.162	11.11
648.35	10.52
648.538	9.61
648.726	9.63
648.914	8.95
649.102	10.11
649.29	10.53
649.478	9.43
649.665	8.63
649.853	9.64
650.041	8.36
650.229	9.4
650.417	7.99
650.604	8.96
650.792	10.77
650.98	9.63
651.168	7.54
651.355	8.18
651.543	7.97
651.731	6.26
651.918	5.98
652.106	7.52
652.294	8.38
652.481	10.33
652.669	10.26
652.856	9.4
653.044	8.69
653.231	7.72
653.419	8.79
653.606	9.17
653.794	8.36
653.981	8.89
654.169	7.65
654.356	7.51
654.544	7.82
654.731	6.65
654.919	7.48
655.106	9.12
655.294	7.87
655.481	9.99
655.668	10.96
655.856	9.69
656.043	9.63
656.23	8.67
656.418	8.25
656.605	7.75
656.792	7.08
656.979	7.18
657.167	8.01
657.354	8.33
657.541	7.31
657.728	8.12
657.916	8.2
658.103	8.45
658.29	9.47
658.477	8.73
658.664	9.28
658.851	9.92
659.038	8.71
659.225	8.27
659.412	8.86
659.6	9.11
659.787	12.23
659.974	9.58
660.161	11.27
660.348	10.81
660.535	12.82
660.722	12.74
660.909	12.45
661.095	12.38
661.282	12.13
661.469	13.52
661.656	11.96
661.843	13.43
662.03	11.97
662.217	11.87
662.404	12.61
662.59	12.63
662.777	11.65
662.964	11.54
663.151	12.66
663.338	11.85
663.524	11.41
663.711	9.25
663.898	10.34
664.085	8.93
664.271	8.37
664.458	6.26
664.645	7.43
664.831	8.65
665.018	8.44
665.204	7.46
665.391	6.84
665.578	6.62
665.764	5.62
665.951	6.31
666.137	5.86
666.324	5.66
666.51	4.12
666.697	3.78
666.883	5.14
667.07	4.38
667.256	4.56
667.443	3.83
667.629	3.89
667.816	3.8
668.002	4.53
668.188	6
668.375	6.08
668.561	4.68
668.747	2.25
668.934	2.16
669.12	4.05
669.306	3.38
669.493	3.93
669.679	4.52
669.865	5.05
670.051	5.24
670.238	5.29
670.424	6.75
670.61	6.75
670.796	7.28
670.982	6.26
671.169	6.1
671.355	6.43
671.541	6.61
671.727	7.05
671.913	8.04
672.099	8.43
672.285	7.59
672.471	8.16
672.657	9.6
672.843	11.29
673.029	10.3
673.215	11.56
673.401	13.75
673.587	12.19
673.773	12.78
673.959	13.09
674.145	12.47
674.331	11.81
674.517	11.96
674.703	11.12
674.888	13.37
675.074	13.05
675.26	14.18
675.446	13
675.632	11.76
675.817	10.09
676.003	10.07
676.189	11.45
676.375	11.58
676.56	10.09
676.746	9.47
676.932	8.45
677.117	6.7
677.303	4.88
677.489	5.13
677.674	2.94
677.86	3.11
678.046	4.02
678.231	4.4
678.417	4.5
678.602	5.07
678.788	3.82
678.973	4.41
679.159	4.73
679.344	6.31
679.53	6.26
679.715	6.68
679.901	5.49
680.086	4.54
680.272	5.55
680.457	6.38
680.643	5.56
680.828	7.37
681.013	8.48
681.199	8.47
681.384	8.85
681.569	9.64
681.755	8.48
681.94	8.12
682.125	8.1
682.31	9.55
682.496	7.18
682.681	8.04
682.866	7.42
683.051	6.15
683.237	5.99
683.422	7.95
683.607	8.4
683.792	9.19
683.977	9.44
684.162	7.29
684.347	8.15
684.532	8.3
684.717	5.79
684.903	5.24
685.088	5.55
685.273	5.87
685.458	5.04
685.643	6.33
685.828	4.92
686.013	5.77
686.198	4.47
686.382	6.21
686.567	5.34
686.752	5.32
686.937	5.84
687.122	4.93
687.307	4.03
687.492	3.53
687.677	2.55
687.861	2.78
688.046	2.27
688.231	2.41
688.416	1.66
688.601	2.69
688.785	4.76
688.97	4.68
689.155	4.88
689.339	6.97
689.524	5.97
689.709	6.85
689.893	6.65
690.078	7.43
690.263	7.08
690.447	6.8
690.632	6.87
690.816	7.87
691.001	9.19
691.186	10.49
691.37	10.67
691.555	10.55
691.739	10.31
691.924	11.68
692.108	10.6
692.293	11.3
692.477	11.42
692.661	9.41
692.846	8.08
693.03	8.35
693.215	6.9
693.399	6.34
693.583	6.64
693.768	6.28
693.952	5.51
694.136	5.28
694.321	7.68
694.505	7.46
694.689	6.48
694.873	6.83
695.058	5.29
695.242	5.79
695.426	6.67
695.61	6.24
695.794	6.97
695.979	6.68
696.163	5.39
696.347	6.01
696.531	5.7
696.715	7.81
696.899	7.65
697.083	8
697.267	9.59
697.451	9.46
697.635	9.74
697.819	9.89
698.003	11.19
698.187	9.72
698.371	10.97
698.555	11.55
698.739	11.65
698.923	11.94
699.107	11.86
699.291	10.81
699.475	11.21
699.659	10.68
699.842	10.75
700.026	11.55
700.21	10.62
700.394	11.26
700.578	10.36
700.761	8.91
700.945	10.06
701.129	10.1
701.313	9.59
701.496	9.96
701.68	9.24
701.864	8.83
702.047	8.89
702.231	10.54
702.415	10.69
702.598	8.4
702.782	8.1
702.965	8.5
703.149	8.24
703.333	8.88
703.516	8.94
703.7	7.99
703.883	7.8
704.067	7.34
704.25	7.37
704.434	5.77
704.617	6.5
704.801	4.99
704.984	3.89
705.167	3.44
705.351	0.19
705.534	0.81
705.718	1.07
705.901	0.4
706.084	-2
706.268	-2.43
706.451	-2.14
706.634	-3.3
706.817	-5.84
707.001	-5.28
707.184	-4.79
707.367	-5.23
707.55	-3.1
707.734	-2.64
707.917	-1.23
708.1	-1.98
708.283	-0.7
708.466	-1.09
708.649	-0.17
708.832	-0.36
709.015	1.52
709.199	3.97
709.382	4.18
709.565	3.1
709.748	3.51
709.931	2.76
710.114	1.86
710.297	2.75
710.48	5.68
710.663	7.96
710.846	7.46
711.028	7.48
711.211	6.33
711.394	5.49
711.577	5.84
711.76	3.92
711.943	3.86
712.126	4.14
712.309	5.76
712.491	6.54
712.674	4.26
712.857	3.81
713.04	3.24
713.222	2.78
713.405	3.35
713.588	3.48
713.771	3.57
713.953	3.35
714.136	3.52
714.319	2.46
714.501	1.16
714.684	0.75
714.866	-0.39
715.049	1.38
715.232	0.78
715.414	0.02
715.597	1.39
715.779	0.78
715.962	1.95
716.144	-0.49
716.327	-1.1
716.509	1.5
716.692	-0.37
716.874	0.65
717.057	0.66
717.239	0.28
717.421	-0.22
717.604	-0.21
717.786	1.7
717.968	1.56
718.151	1.01
718.333	0.7
718.515	1.67
718.698	0.48
718.88	-0.12
719.062	-0.07
719.244	0.55
719.427	-0.01
719.609	0.99
719.791	-0.56
719.973	1.03
720.155	0.27
720.338	0.46
720.52	2.08
720.702	2
720.884	3.31
721.066	3.96
721.248	1.49
721.43	2.4
721.612	0.95
721.794	2.08
721.976	3.63
722.158	3.86
722.34	2.79
722.522	4.59
722.704	3.44
722.886	3.47
723.068	3.57
723.25	4.35
723.432	4.9
723.614	5.25
723.796	4.65
723.977	5.62
724.159	6.19
724.341	6.69
724.523	5.27
724.705	3.37
724.886	3.55
725.068	7.26
725.25	7.67
725.432	6.38
725.613	4.7
725.795	3.46
725.977	5.56
726.158	7.15
726.34	7.21
726.522	8.39
726.703	9.4
726.885	8.89
727.066	6.76
727.248	7.77
727.43	8.03
727.611	8.28
727.793	7.59
727.974	6.28
728.156	4.61
728.337	4.36
728.519	4.62
728.7	4.28
728.882	2.67
729.063	2.85
729.244	4.2
729.426	3.93
729.607	4.25
729.788	3.71
729.97	2.24
730.151	2.2
730.332	2.38
730.514	2.55
730.695	3.01
730.876	4.37
731.058	2.62
731.239	2.84
731.42	3.48
731.601	2.62
731.782	1.73
731.964	2.46
732.145	4.15
732.326	2.53
732.507	1.55
732.688	2.59
732.869	1.72
733.05	2.69
733.231	2.78
733.412	2.01
733.593	1.11
733.774	1.58
733.955	1.1
734.136	0.6
734.317	-1.16
734.498	-0.01
734.679	0.41
734.86	-0.28
735.041	-0.23
735.222	0.08
735.403	1.53
735.584	2.04
735.765	2.45
735.946	1.41
736.126	3.16
736.307	4.14
736.488	2.32
736.669	0.34
736.849	0.42
737.03	3.4
737.211	4.44
737.392	4.52
737.572	3.34
737.753	2.92
737.934	4.13
738.114	5.92
738.295	3.74
738.476	4.17
738.656	5.64
738.837	5.44
739.017	5.65
739.198	5.21
739.378	6.68
739.559	6.37
739.74	6.07
739.92	4.73
740.1	4.53
740.281	4.08
740.461	6
740.642	5.78
740.822	2.87
741.003	3.12
741.183	2.83
741.363	4.52
741.544	5.13
741.724	4.95
741.904	3.51
742.085	3.75
742.265	2.62
742.445	2.59
742.626	1.87
742.806	1.84
742.986	1.91
743.166	0.35
743.347	-1.26
743.527	0.19
743.707	-0.49
743.887	-1.34
744.067	-1.8
744.247	-3.47
744.427	-3.07
744.608	-2.38
744.788	-0.54
744.968	1.36
745.148	1.8
745.328	1.42
745.508	0.44
745.688	0.79
745.868	0.37
746.048	0.96
746.228	1.63
746.408	2.74
746.588	1.39
746.767	1.63
746.947	2.89
747.127	3.66
747.307	2.78
747.487	5.5
747.667	5.25
747.847	8.3
748.026	9.28
748.206	7.9
748.386	7.95
748.566	6.15
748.745	5.71
748.925	4.9
749.105	5.51
749.285	5.26
749.464	4.94
749.644	6.12
749.824	7.08
750.003	6.92
750.183	6.19
750.362	6.04
750.542	5.07
750.722	4.03
750.901	3.32
751.081	2.81
751.26	1.68
751.44	2.49
751.619	0.27
751.799	-1.09
751.978	-1.71
752.158	-2.56
752.337	-2.79
752.516	-3.75
752.696	-2.92
752.875	-1.58
753.055	-2.27
753.234	-0.18
753.413	-0.3
753.593	-0.24
753.772	-0.98
753.951	-0.22
754.13	-0.75
754.31	-0.11
754.489	0.22
754.668	0.8
754.847	2.54
755.027	2.94
755.206	3.15
755.385	4.92
755.564	7.32
755.743	6.8
755.922	8.2
756.101	7.52
756.28	7.67
756.46	6.66
756.639	5.15
756.818	7.48
756.997	6.12
757.176	6.35
757.355	3.94
757.534	3.25
757.713	2.76
757.892	4.04
758.07	3.74
758.249	4.53
758.428	5.6
758.607	3.76
758.786	4.53
758.965	3.69
759.144	4.32
759.323	2.23
759.501	2.66
759.68	2.01
759.859	3.53
760.038	2.98
760.216	3.19
760.395	3.18
760.574	1.77
760.753	2.75
760.931	2.34
761.11	4.3
761.289	3.77
761.467	2.1
761.646	2.31
761.824	2.99
762.003	0.45
762.182	-0.71
762.36	-0.02
762.539	-1.11
762.717	-0.27
762.896	-1.23
763.074	-1.09
763.253	-1.14
763.431	0.35
763.61	-0.6
763.788	-0.49
763.966	0.22
764.145	0.87
764.323	1.04
764.502	-0.56
764.68	-0.26
764.858	-1.89
765.037	0.88
765.215	2.41
765.393	2.15
765.571	2.19
765.75	4.89
765.928	4.47
766.106	3.97
766.284	4.37
766.463	3.57
766.641	2.25
766.819	3.46
766.997	3.92
767.175	2.73
767.353	2.36
767.531	2.53
767.71	2.73
767.888	1.57
768.066	0.59
768.244	1.53
768.422	0.46
768.6	3.09
768.778	-0.57
768.956	-2.31
769.134	-1.68
769.312	-2.16
769.489	-3.98
769.667	-1.82
769.845	-1.66
770.023	-0.81
770.201	-0.67
770.379	-0.64
770.557	-0.75
770.735	0.57
770.912	-0.25
771.09	0.76
771.268	0.36
771.446	0.66
771.623	0.87
771.801	2.77
771.979	3.19
772.157	3.3
772.334	0.46
772.512	2.64
772.69	4.29
772.867	3.23
773.045	3.5
773.222	3.98
773.4	2.73
773.577	3.44
773.755	3.1
773.933	4.09
774.11	3.71
774.288	3.9
774.465	2.45
774.643	2.44
774.82	2.33
774.997	4.12
775.175	1.01
775.352	3.63
775.53	3.65
775.707	3.23
775.884	3.76
776.062	5.9
776.239	4.48
776.416	4.51
776.594	3.56
776.771	2.63
776.948	2.86
777.125	3.19
777.303	2.73
777.48	1.01
777.657	-0.39
777.834	2.04
778.012	0.47
778.189	0.68
778.366	0.71
778.543	-2.46
778.72	-4.96
778.897	-1.99
779.074	-4.68
779.251	-4.49
779.428	-5.2
779.605	-5.76
779.782	-7.46
779.959	-8.22
780.136	-6.98
780.313	-4.73
780.49	-4.22
780.667	-3.18
780.844	-4.46
781.021	-4.9
781.198	-5.3
781.375	-4.86
781.552	-8.15
781.728	-9.52
781.905	-8.34
782.082	-6.42
782.259	-6.12
782.436	-5.77
782.612	-7.41
782.789	-7.19
782.966	-8.9
783.143	-8.89
783.319	-8.6
783.496	-6.67
783.673	-4.96
783.849	-4.12
784.026	-5.18
784.203	-5.04
784.379	-5.42
784.556	-3.61
784.732	-3.86
784.909	-0.81
785.085	0.51
785.262	2.25
785.438	5.34
785.615	5.01
785.791	5.61
785.968	6.85
786.144	7.22
786.321	9.42
786.497	9.54
786.673	9.11
786.85	8.51
787.026	8.76
787.203	7.67
787.379	6.73
787.555	4.79
787.731	3.93
787.908	3.52
788.084	4.75
788.26	2.62
788.437	5.45
788.613	3.34
788.789	0.98
788.965	1.29
789.141	1.54
789.317	0.84
789.494	-2.26
789.67	-2.19
789.846	-2.43
790.022	-7.29
790.198	-7.28
790.374	-6.59
790.55	-3.8
790.726	-5.55
790.902	-4.93
791.078	-0.68
791.254	-1.96
791.43	-0.17
791.606	-0.09
791.782	-2.43
791.958	-2.84
792.134	-4.87
792.31	-4.12
792.486	-3.18
792.661	-1.47
792.837	-1.81
793.013	-2.13
793.189	-1.48
793.365	0.86
793.54	2.51
793.716	6.37
793.892	6.55
794.068	4.7
794.243	5.66
794.419	7.85
794.595	7.23
794.77	4.7
794.946	7.43
795.122	6.72
795.297	8.23
795.473	8.18
795.648	10.75
795.824	10.65
796	10.13
796.175	13.31
796.351	10.85
796.526	10.06
796.702	10.08
796.877	9.56
797.052	7.81
797.228	5.59
797.403	3.91
797.579	4.92
797.754	5.55
797.929	3.02
798.105	1.94
798.28	1.41
798.455	2.06
798.631	0.04
798.806	-0.73
798.981	-0.71
799.157	-1.72
799.332	-3.1
799.507	-1.64
799.682	1.56
799.858	-2.23
800.033	-1.81
800.208	-0.92
800.383	2.07
800.558	3.06
800.733	2.37
800.908	3.53
801.083	5.42
801.258	4.09
801.434	6.89
801.609	5.79
801.784	6.46
801.959	8.97
802.134	5.69
802.309	3.97
802.484	3.21
802.658	2.45
802.833	0.63
803.008	2.04
803.183	-0.3
803.358	-2.62
803.533	-1.41
803.708	-1.96
803.883	-1.93
804.057	-7.6
804.232	-4.55
804.407	-2.44
804.582	-1.6
804.756	-5.3
804.931	-4.44
805.106	-9
805.281	-6.86
805.455	-6.91
805.63	-9.84
805.805	-8.38
805.979	-5.24
806.154	-2.71
806.328	-3.21
806.503	-1.41
806.678	-2.33
806.852	-1.19
807.027	-1.23
807.201	-3.27
807.376	-2.13
807.55	-3.17
807.725	-2
807.899	-1.45
808.074	-1.36
808.248	-2.47
808.422	-1.74
808.597	-3.5
808.771	-1.09
808.946	-0.04
809.12	2.89
809.294	2.34
809.468	2.7
809.643	1.64
809.817	1.86
809.991	1.27
810.166	1.71
810.34	-0.74
810.514	1.46
810.688	0.81
810.862	0.2
811.037	0.85
811.211	1.28
811.385	1.75
811.559	0.43
811.733	0.61
811.907	0.04
812.081	0.94
812.255	0.81
812.429	-0.28
812.603	-4.03
812.777	-5.65
812.951	-4.79
813.125	-5.18
813.299	-5.33
813.473	-10.63
813.647	-6.13
813.821	-4.46
813.995	-0.98
814.169	-3.46
814.343	-1.83
814.516	1.52
814.69	1
814.864	-1.26
815.038	1.87
815.212	0.92
815.385	0.49
815.559	3.44
815.733	2.87
815.907	1.68
816.08	3.63
816.254	5.06
816.428	5.65
816.601	7.37
816.775	8.95
816.948	9.27
817.122	11.77
817.296	8.41
817.469	10.26
817.643	9.54
817.816	11.11
817.99	8.24
818.163	5.7
818.337	5.8
818.51	7.02
818.684	9.79
818.857	10.22
819.031	5.89
819.204	5.38
819.377	7.24
819.551	8.21
819.724	9.76
819.897	7.47
820.071	5.09
820.244	1
820.417	-1.27
820.591	-1.09
820.764	1.37
820.937	2.49
821.11	-2
821.284	-1.44
821.457	-1.77
821.63	-0.02
821.803	-0.68
821.976	2.69
822.149	5.15
822.322	3.62
822.496	1.76
822.669	3.9
822.842	4.14
823.015	4.83
823.188	3.92
823.361	2.03
823.534	2.77
823.707	0.48
823.88	1.97
824.053	2.81
824.226	2.4
824.399	2.35
824.571	1
824.744	5.33
824.917	8.6
825.09	5.71
825.263	7.28
825.436	11.56
825.608	6.52
825.781	6.34
825.954	3.19
826.127	3.13
826.299	3.28
826.472	-0.3
826.645	0.22
826.818	1.27
826.99	-0.53
827.163	1.81
827.336	3.96
827.508	3.2
827.681	7.18
827.853	7.85
828.026	7.79
828.198	9.96
828.371	8.14
828.544	5.32
828.716	7.01
828.889	4.68
829.061	0.9
829.233	3
829.406	-0.08
829.578	0.13
829.751	2.09
829.923	2.53
830.096	6.24
830.268	2.79
830.44	3.99
830.613	8.07
830.785	6.41
830.957	5.83
831.129	9.67
831.302	4.45
831.474	1.46
831.646	5.46
831.818	3.86
831.991	3.29
832.163	3.01
832.335	4.53
832.507	4.56
832.679	4.68
832.851	3.93
833.023	6.07
833.195	7.99
833.368	3.57
833.54	1.71
833.712	-2.51
833.884	0.5
834.056	-1.61
834.228	-4.51
834.4	-1.57
834.571	0.48
834.743	-1.97
834.915	-0.78
835.087	2.17
835.259	0.5
835.431	-0.05
835.603	-4.44
835.775	-8.02
835.946	-9.89
836.118	-9.42
836.29	-10.41
836.462	-9.69
836.634	-13
836.805	-13.39
836.977	-9.23
837.149	-9.4
837.32	-6.65
837.492	-6.6
837.664	-5.75
837.835	-6.64
838.007	-11.26
838.179	-9.55
838.35	-5.14
838.522	-0
838.693	-0.39
838.865	-4.63
839.036	-6.56
839.208	-0.18
839.379	4.32
839.551	5.08
839.722	5.05
839.894	3.36
840.065	3.36
840.237	6.79
840.408	4.78
840.579	6.75
840.751	6.29
840.922	7.86
841.093	5
841.265	5.24
841.436	6.5
841.607	6.52
841.778	2.68
841.95	-1.47
842.121	-5.14
842.292	-3.82
842.463	-1.71
842.635	5.28
842.806	4.75
842.977	3.32
843.148	1.8
843.319	3.62
843.49	6.69
843.661	4.52
843.832	2.99
844.003	5.33
844.174	4.69
844.345	13.07
844.516	7.03
844.687	7.32
844.858	8.41
845.029	9.66
845.2	10.32
845.371	11.94
845.542	6.84
845.713	3.69
845.884	-1.45
846.055	-2.39
846.225	-7.65
846.396	-7.36
846.567	-8.74
846.738	-7.73
846.909	-6.02
847.079	-4.15
847.25	-1.72
847.421	-5.4
847.591	-15.15
847.762	-16.98
847.933	-26.31
848.103	-23.88
848.274	-27.56
848.445	-27.02
848.615	-27.03
848.786	-29.29
848.956	-28.45
849.127	-17.59
849.297	-7.88
849.468	-0.09
849.638	-3.07
849.809	-1.69
849.979	-5.45
850.15	-5.92
850.32	-1.22
850.491	-7.88
850.661	-5
850.831	-5.17
851.002	-0.82
851.172	6.77
851.342	5.69
851.513	6.51
851.683	9.25
851.853	12.91
852.024	10.91
852.194	12.67
852.364	17.51
852.534	22.31
852.705	21.66
852.875	19.12
853.045	17.29
853.215	19.32
853.385	22.18
853.555	26.17
853.725	24.65
853.895	21.21
854.066	28.73
854.236	29.07
854.406	27.93
854.576	26.86
854.746	20.81
854.916	27.57
855.086	19.06
855.256	22.08
855.425	24.21
855.595	31.37
855.765	19.79
855.935	12.44
856.105	6.04
856.275	7.42
856.445	5.41
856.614	2.85
856.784	7.01
856.954	2.97
857.124	-1.34
857.294	3.28
857.463	2.21
857.633	-2.33
857.803	-11.11
857.972	-4.75
858.142	-4.43
858.312	-3.98
858.481	-5.94
858.651	-0.08
858.821	-1.22
858.99	-4.22
859.16	-14.58
859.329	1.56
859.499	6.65
859.668	8.45
859.838	6.26
860.007	11.66
860.177	16.51
860.346	13.58
860.516	14.83
860.685	14.32
860.854	10.92
861.024	4.19
861.193	6.46
861.363	17.49
861.532	17.43
861.701	16.56
861.87	15.02
862.04	14.79
862.209	20.45
862.378	17.91
862.547	19.48
862.717	18.27
862.886	11.96
863.055	11.18
863.224	10.7
863.393	11.98
863.563	8.81
863.732	9.03
863.901	2.46
864.07	2.17
864.239	7.37
864.408	8.74
864.577	10.86
864.746	10.85
864.915	2.96
865.084	7.09
865.253	10.28
865.422	13.53
865.591	10.48
865.76	6.05
865.929	5.49
866.097	0.15
866.266	1.87
866.435	4.7
866.604	6.98
866.773	4.34
866.942	-3.28
867.11	-7.65
867.279	-14.2
867.448	-4.52
867.617	1.29
867.785	-0.87
867.954	1.04
868.123	5.07
868.291	0.16
868.46	9.69
868.629	2.35
868.797	-1.02
868.966	-11.5
869.134	5.2
869.303	6.28
869.472	8.39
869.64	4.18
869.809	7.86
869.977	0.32
870.146	-4.11
870.314	-1.77
870.482	7.25
870.651	3.46
870.819	-3.98
870.988	-8.17
871.156	-15.19
871.324	-23.91
871.493	-32.06
871.661	-22.81
871.829	-23.14
871.998	-31.51
872.166	-46.21
872.334	-46.49
872.502	-20.59
872.671	-33.09
872.839	-25.97
873.007	-32.04
873.175	-28.99
873.343	-26.5
873.512	-20.92
873.68	-21.36
873.848	-25.26
874.016	-26.88
874.184	-19.24
874.352	-10.7
874.52	-3.67
874.688	-1.31
874.856	10.83
875.024	12.5
875.192	9.62
875.36	9.98
875.528	11.77
875.696	15.72
875.864	10.08
876.032	-0.49
876.199	-4.93
876.367	-5.23
876.535	-1.34
876.703	7.6
876.871	8.95
877.039	12.65
877.206	18.14
877.374	29.73
877.542	36.19
877.71	34.25
877.877	27.75
878.045	32.83
878.213	27
878.38	22.05
878.548	22.43
878.715	23.55
878.883	24.78
879.051	17.96
879.218	12.13
879.386	26.11
879.553	20.07
879.721	27.52
879.888	19.92
880.056	14.25
880.223	8.66
880.391	8.94
880.558	1.66
880.726	18.2
880.893	6.99
881.06	-0
881.228	-20.93
881.395	-8.76
881.562	-0.3
881.73	-21.19
881.897	-26.38
882.064	-3.24
882.231	-6.17
882.399	-14.57
882.566	-7.13
882.733	6.7
882.9	-35.34
883.068	14.36
883.235	-7.22
883.402	-2.83
883.569	25.2
883.736	49.52
883.903	38.17
884.07	42.79
884.237	29.34
884.404	30.32
884.571	30.16
884.738	44.71
884.905	54.72
885.072	48.55
885.239	65.95
885.406	62.39
