#Video File Name: 03_exploration_10.avi
#Project ID: 03_exploration_10
#Event codes:
#1 start
#w valtas
#q rejtekhely in [Q out: fej+test ki]
#
#Field separator: ;
#MWrap version: Wed Feb 14 09:50:29 CET 2018
#id;description;key;time;duration;object id
1;start;1;0.50;0.00;1
2;rejtekhely in [Q out: fej+test ki];q;0.50;0.00;1
3;q-end;Q;84.50;84.00;1
4;valtas;w;85.50;0.00;1
5;valtas;w;86.00;0.00;1
6;valtas;w;170.50;0.00;1
7;valtas;w;171.00;0.00;1
8;valtas;w;176.50;0.00;1
9;valtas;w;177.00;0.00;1
10;valtas;w;179.00;0.00;1
11;valtas;w;179.50;0.00;1
12;valtas;w;181.50;0.00;1
13;valtas;w;187.50;0.00;1
14;valtas;w;196.50;0.00;1
15;valtas;w;205.00;0.00;1
16;valtas;w;208.50;0.00;1
17;valtas;w;212.50;0.00;1
18;valtas;w;213.50;0.00;1
19;valtas;w;215.00;0.00;1
20;valtas;w;216.50;0.00;1
21;valtas;w;218.00;0.00;1
22;valtas;w;218.50;0.00;1
23;valtas;w;220.00;0.00;1
24;valtas;w;223.00;0.00;1
25;valtas;w;226.00;0.00;1
26;valtas;w;227.00;0.00;1
27;valtas;w;256.50;0.00;1
28;valtas;w;328.50;0.00;1
29;valtas;w;329.50;0.00;1
30;valtas;w;332.00;0.00;1
31;valtas;w;341.00;0.00;1
32;valtas;w;341.50;0.00;1
33;valtas;w;347.00;0.00;1
34;valtas;w;348.00;0.00;1
35;valtas;w;349.00;0.00;1
36;valtas;w;355.00;0.00;1
37;valtas;w;383.50;0.00;1
38;valtas;w;385.00;0.00;1
39;valtas;w;386.50;0.00;1
40;valtas;w;448.50;0.00;1
41;valtas;w;449.00;0.00;1
42;valtas;w;449.50;0.00;1
43;valtas;w;451.00;0.00;1
44;valtas;w;453.00;0.00;1
45;valtas;w;453.50;0.00;1
46;valtas;w;455.50;0.00;1
47;valtas;w;465.00;0.00;1
48;valtas;w;477.50;0.00;1
49;valtas;w;477.50;0.00;1
50;valtas;w;481.00;0.00;1
51;valtas;w;485.50;0.00;1
52;valtas;w;490.50;0.00;1
53;valtas;w;492.00;0.00;1
54;valtas;w;492.00;0.00;1
55;valtas;w;493.50;0.00;1
56;valtas;w;494.00;0.00;1
57;valtas;w;496.50;0.00;1
58;valtas;w;505.00;0.00;1
59;valtas;w;505.00;0.00;1
60;valtas;w;507.00;0.00;1
61;valtas;w;507.00;0.00;1
62;valtas;w;513.00;0.00;1
63;valtas;w;513.50;0.00;1
64;valtas;w;515.50;0.00;1
65;valtas;w;516.50;0.00;1
66;valtas;w;518.50;0.00;1
67;valtas;w;521.00;0.00;1
68;valtas;w;533.50;0.00;1
69;valtas;w;548.00;0.00;1
70;valtas;w;548.50;0.00;1
71;valtas;w;550.00;0.00;1
72;valtas;w;551.00;0.00;1
73;valtas;w;552.50;0.00;1
74;valtas;w;560.50;0.00;1
75;valtas;w;562.50;0.00;1
76;valtas;w;573.00;0.00;1
77;valtas;w;574.50;0.00;1
78;valtas;w;577.00;0.00;1
79;valtas;w;578.00;0.00;1
80;valtas;w;579.00;0.00;1
81;valtas;w;581.00;0.00;1
82;valtas;w;591.00;0.00;1
83;valtas;w;597.50;0.00;1
84;valtas;w;613.00;0.00;1
85;valtas;w;615.00;0.00;1
86;valtas;w;619.00;0.00;1
87;valtas;w;627.00;0.00;1
88;valtas;w;636.00;0.00;1
89;valtas;w;765.50;0.00;1
90;valtas;w;771.50;0.00;1
91;valtas;w;773.00;0.00;1
92;valtas;w;774.50;0.00;1
93;valtas;w;780.00;0.00;1
94;valtas;w;790.00;0.00;1
95;valtas;w;799.00;0.00;1
96;valtas;w;837.50;0.00;1
97;valtas;w;838.00;0.00;1
98;valtas;w;859.00;0.00;1
99;valtas;w;868.00;0.00;1
100;valtas;w;869.50;0.00;1
101;valtas;w;870.50;0.00;1
102;valtas;w;871.00;0.00;1
103;valtas;w;872.00;0.00;1
104;valtas;w;901.00;0.00;1
105;valtas;w;901.50;0.00;1
106;valtas;w;902.50;0.00;1
107;valtas;w;904.50;0.00;1
108;valtas;w;905.00;0.00;1
