#Video File Name: 03_exploration_9.avi
#Project ID: 03_explo03_exploration_9
#Event codes:
#1 start
#w valtas
#q rejtekhely in [Q out: fej+test ki]
#
#Field separator: ;
#MWrap version: Wed Feb 14 09:50:29 CET 2018
#id;description;key;time;duration;object id
1;start;1;0.50;0.00;1
2;rejtekhely in [Q out: fej+test ki];q;0.50;0.00;1
3;q-end;Q;215.00;214.50;1
4;valtas;w;222.00;0.00;1
5;valtas;w;224.50;0.00;1
6;valtas;w;341.50;0.00;1
7;valtas;w;341.50;0.00;1
8;valtas;w;342.00;0.00;1
9;valtas;w;342.50;0.00;1
10;valtas;w;343.50;0.00;1
11;valtas;w;345.00;0.00;1
12;valtas;w;362.00;0.00;1
13;valtas;w;364.00;0.00;1
14;valtas;w;372.00;0.00;1
15;valtas;w;372.50;0.00;1
16;valtas;w;377.00;0.00;1
17;valtas;w;379.00;0.00;1
18;valtas;w;381.00;0.00;1
19;valtas;w;385.00;0.00;1
20;valtas;w;404.50;0.00;1
21;valtas;w;406.00;0.00;1
22;valtas;w;413.00;0.00;1
23;valtas;w;414.00;0.00;1
24;valtas;w;415.00;0.00;1
25;valtas;w;416.50;0.00;1
26;valtas;w;419.00;0.00;1
27;valtas;w;419.50;0.00;1
28;valtas;w;424.00;0.00;1
29;valtas;w;427.50;0.00;1
30;valtas;w;431.50;0.00;1
31;valtas;w;434.00;0.00;1
32;valtas;w;451.00;0.00;1
33;valtas;w;453.00;0.00;1
34;valtas;w;457.00;0.00;1
35;rejtekhely in [Q out: fej+test ki];q;464.50;0.00;1
36;q-end;Q;470.00;5.50;1
37;valtas;w;470.50;0.00;1
38;valtas;w;473.50;0.00;1
39;valtas;w;477.50;0.00;1
40;valtas;w;482.00;0.00;1
41;valtas;w;555.00;0.00;1
42;valtas;w;567.50;0.00;1
43;valtas;w;572.00;0.00;1
44;valtas;w;580.00;0.00;1
45;valtas;w;585.00;0.00;1
46;valtas;w;595.50;0.00;1
47;valtas;w;596.00;0.00;1
48;valtas;w;597.50;0.00;1
49;valtas;w;598.50;0.00;1
50;valtas;w;600.00;0.00;1
51;valtas;w;609.00;0.00;1
52;valtas;w;610.00;0.00;1
53;valtas;w;612.00;0.00;1
54;valtas;w;612.50;0.00;1
55;valtas;w;615.00;0.00;1
56;valtas;w;618.50;0.00;1
57;rejtekhely in [Q out: fej+test ki];q;625.50;0.00;1
58;q-end;Q;627.00;1.50;1
59;valtas;w;627.50;0.00;1
60;valtas;w;628.50;0.00;1
61;valtas;w;632.50;0.00;1
62;valtas;w;633.00;0.00;1
63;valtas;w;634.00;0.00;1
64;valtas;w;634.50;0.00;1
65;valtas;w;636.50;0.00;1
66;rejtekhely in [Q out: fej+test ki];q;639.00;0.00;1
67;q-end;Q;649.50;10.50;1
68;rejtekhely in [Q out: fej+test ki];q;655.00;0.00;1
69;q-end;Q;742.50;87.50;1
70;valtas;w;743.00;0.00;1
71;valtas;w;743.50;0.00;1
72;valtas;w;744.00;0.00;1
73;valtas;w;746.00;0.00;1
74;valtas;w;747.50;0.00;1
75;valtas;w;748.50;0.00;1
76;valtas;w;749.00;0.00;1
77;valtas;w;749.50;0.00;1
78;valtas;w;751.00;0.00;1
79;valtas;w;751.50;0.00;1
80;valtas;w;843.00;0.00;1
81;valtas;w;844.00;0.00;1
82;valtas;w;845.00;0.00;1
83;valtas;w;855.50;0.00;1
84;valtas;w;866.50;0.00;1
85;valtas;w;868.50;0.00;1
86;valtas;w;869.50;0.00;1
87;valtas;w;871.00;0.00;1
88;valtas;w;873.50;0.00;1
89;valtas;w;874.00;0.00;1
90;valtas;w;875.00;0.00;1
91;valtas;w;876.00;0.00;1
92;valtas;w;876.50;0.00;1
93;valtas;w;878.00;0.00;1
94;valtas;w;886.00;0.00;1
95;valtas;w;888.00;0.00;1
96;valtas;w;900.50;0.00;1
97;valtas;w;901.50;0.00;1
98;valtas;w;902.00;0.00;1
