#Video File Name: 03_exploration_1.avi
#Project ID: 03_exploration_1
#Event codes:
#1 start
#w valtas
#q rejtekhely in [Q out: fej+test ki]
#
#Field separator: ;
#MWrap version: Wed Feb 14 09:50:29 CET 2018
#id;description;key;time;duration;object id
1;start;1;0.50;0.00;1
2;rejtekhely in [Q out: fej+test ki];q;1.50;0.00;1
3;q-end;Q;109.00;107.50;1
4;valtas;w;109.00;0.00;1
5;valtas;w;111.50;0.00;1
6;valtas;w;143.00;0.00;1
7;valtas;w;155.50;0.00;1
8;valtas;w;156.50;0.00;1
9;valtas;w;157.00;0.00;1
10;valtas;w;180.00;0.00;1
11;valtas;w;186.50;0.00;1
12;valtas;w;188.00;0.00;1
13;valtas;w;194.00;0.00;1
14;rejtekhely in [Q out: fej+test ki];q;194.00;0.00;1
15;q-end;Q;195.00;1.00;1
16;valtas;w;195.00;0.00;1
17;valtas;w;198.00;0.00;1
18;valtas;w;203.00;0.00;1
19;valtas;w;206.00;0.00;1
20;valtas;w;211.00;0.00;1
21;rejtekhely in [Q out: fej+test ki];q;212.00;0.00;1
22;q-end;Q;213.50;1.50;1
23;valtas;w;213.50;0.00;1
24;valtas;w;215.00;0.00;1
26;valtas;w;223.00;0.00;1
27;valtas;w;228.00;0.00;1
28;rejtekhely in [Q out: fej+test ki];q;228.00;0.00;1
29;q-end;Q;229.00;1.00;1
30;valtas;w;229.00;0.00;1
31;valtas;w;234.50;0.00;1
32;valtas;w;241.00;0.00;1
33;valtas;w;243.50;0.00;1
34;rejtekhely in [Q out: fej+test ki];q;244.00;0.00;1
35;q-end;Q;245.00;1.00;1
36;valtas;w;245.50;0.00;1
37;valtas;w;246.50;0.00;1
38;valtas;w;250.00;0.00;1
39;valtas;w;251.00;0.00;1
40;valtas;w;259.50;0.00;1
41;valtas;w;264.00;0.00;1
42;valtas;w;266.50;0.00;1
43;valtas;w;275.50;0.00;1
44;valtas;w;277.00;0.00;1
45;valtas;w;285.00;0.00;1
46;valtas;w;286.50;0.00;1
47;valtas;w;287.50;0.00;1
48;valtas;w;290.00;0.00;1
49;valtas;w;291.00;0.00;1
50;valtas;w;295.50;0.00;1
51;valtas;w;297.00;0.00;1
52;rejtekhely in [Q out: fej+test ki];q;297.50;0.00;1
53;q-end;Q;299.00;1.50;1
54;valtas;w;319.50;0.00;1
55;valtas;w;322.50;0.00;1
56;valtas;w;324.50;0.00;1
57;valtas;w;325.50;0.00;1
58;valtas;w;327.00;0.00;1
59;valtas;w;328.50;0.00;1
60;valtas;w;329.50;0.00;1
61;valtas;w;331.50;0.00;1
62;valtas;w;332.50;0.00;1
63;valtas;w;334.00;0.00;1
64;valtas;w;334.50;0.00;1
65;valtas;w;350.50;0.00;1
67;valtas;w;380.00;0.00;1
68;valtas;w;384.50;0.00;1
69;rejtekhely in [Q out: fej+test ki];q;385.50;0.00;1
70;q-end;Q;389.50;4.00;1
71;valtas;w;390.00;0.00;1
72;valtas;w;393.00;0.00;1
73;valtas;w;410.00;0.00;1
74;valtas;w;415.00;0.00;1
75;valtas;w;420.00;0.00;1
76;valtas;w;423.00;0.00;1
77;valtas;w;423.50;0.00;1
78;valtas;w;425.00;0.00;1
79;valtas;w;426.50;0.00;1
80;valtas;w;431.50;0.00;1
81;valtas;w;439.50;0.00;1
82;valtas;w;442.50;0.00;1
83;valtas;w;443.50;0.00;1
84;valtas;w;444.00;0.00;1
85;valtas;w;446.50;0.00;1
86;valtas;w;453.50;0.00;1
87;valtas;w;458.00;0.00;1
89;valtas;w;471.50;0.00;1
90;valtas;w;480.00;0.00;1
91;valtas;w;487.50;0.00;1
92;valtas;w;527.00;0.00;1
93;valtas;w;591.50;0.00;1
94;valtas;w;595.00;0.00;1
95;valtas;w;595.50;0.00;1
96;valtas;w;597.50;0.00;1
97;valtas;w;598.50;0.00;1
98;valtas;w;601.50;0.00;1
99;valtas;w;602.50;0.00;1
100;valtas;w;603.50;0.00;1
101;valtas;w;606.50;0.00;1
102;valtas;w;610.50;0.00;1
103;valtas;w;618.00;0.00;1
104;valtas;w;620.50;0.00;1
106;rejtekhely in [Q out: fej+test ki];q;621.50;0.00;1
107;q-end;Q;622.50;1.00;1
108;valtas;w;622.50;0.00;1
109;valtas;w;623.50;0.00;1
110;valtas;w;624.50;0.00;1
111;valtas;w;628.00;0.00;1
112;valtas;w;641.50;0.00;1
113;valtas;w;655.50;0.00;1
114;valtas;w;658.00;0.00;1
115;valtas;w;661.00;0.00;1
116;valtas;w;661.50;0.00;1
117;valtas;w;663.00;0.00;1
118;valtas;w;664.00;0.00;1
119;valtas;w;666.00;0.00;1
120;valtas;w;668.00;0.00;1
121;valtas;w;669.00;0.00;1
122;valtas;w;674.00;0.00;1
123;valtas;w;675.50;0.00;1
124;valtas;w;676.00;0.00;1
125;valtas;w;678.00;0.00;1
126;valtas;w;699.50;0.00;1
127;valtas;w;700.50;0.00;1
128;valtas;w;703.50;0.00;1
129;valtas;w;705.00;0.00;1
130;valtas;w;708.00;0.00;1
131;valtas;w;757.00;0.00;1
132;valtas;w;762.00;0.00;1
133;valtas;w;762.50;0.00;1
134;rejtekhely in [Q out: fej+test ki];q;763.50;0.00;1
135;q-end;Q;764.00;0.50;1
136;valtas;w;765.00;0.00;1
137;valtas;w;765.00;0.00;1
138;valtas;w;768.50;0.00;1
139;valtas;w;770.00;0.00;1
140;valtas;w;782.50;0.00;1
141;valtas;w;784.50;0.00;1
142;valtas;w;788.50;0.00;1
143;valtas;w;801.00;0.00;1
144;valtas;w;802.50;0.00;1
145;valtas;w;804.00;0.00;1
146;valtas;w;805.50;0.00;1
147;valtas;w;815.00;0.00;1
148;valtas;w;847.50;0.00;1
149;valtas;w;872.50;0.00;1
150;valtas;w;875.00;0.00;1
151;rejtekhely in [Q out: fej+test ki];q;875.50;0.00;1
152;q-end;Q;876.50;1.00;1
153;valtas;w;877.50;0.00;1
154;valtas;w;877.50;0.00;1
155;valtas;w;879.00;0.00;1
156;valtas;w;881.00;0.00;1
157;valtas;w;883.50;0.00;1
158;valtas;w;886.00;0.00;1
159;valtas;w;888.50;0.00;1
160;valtas;w;889.50;0.00;1
161;valtas;w;898.50;0.00;1
162;rejtekhely in [Q out: fej+test ki];q;899.50;0.00;1
163;q-end;Q;901.00;1.50;1
164;valtas;w;902.00;0.00;1
165;valtas;w;904.50;0.00;1
166;valtas;w;905.50;0.00;1
167;valtas;w;908.00;0.00;1
168;valtas;w;910.50;0.00;1
169;valtas;w;912.00;0.00;1
170;valtas;w;916.50;0.00;1
171;valtas;w;918.00;0.00;1
172;valtas;w;921.50;0.00;1
173;valtas;w;924.50;0.00;1
174;valtas;w;926.00;0.00;1
