#Video File Name: 03_exploration_4.avi
#Project ID: 03_exploration_4
#Event codes:
#1 start
#w valtas
#q rejtekhely in [Q out: fej+test ki]
#
#Field separator: ;
#MWrap version: Wed Feb 14 09:50:29 CET 2018
#id;description;key;time;duration;object id
1;start;1;0.50;0.00;1
2;rejtekhely in [Q out: fej+test ki];q;1.00;0.00;1
3;q-end;Q;44.50;43.50;1
4;valtas;w;46.00;0.00;1
5;valtas;w;58.00;0.00;1
6;valtas;w;58.50;0.00;1
7;valtas;w;59.50;0.00;1
8;valtas;w;97.00;0.00;1
9;valtas;w;113.50;0.00;1
10;valtas;w;118.50;0.00;1
11;valtas;w;119.50;0.00;1
12;valtas;w;120.50;0.00;1
13;valtas;w;121.00;0.00;1
14;valtas;w;122.00;0.00;1
15;valtas;w;124.00;0.00;1
16;rejtekhely in [Q out: fej+test ki];q;125.00;0.00;1
17;q-end;Q;125.50;0.50;1
18;valtas;w;126.00;0.00;1
#19;valtas;w;127.00;0.00;1
20;valtas;w;130.00;0.00;1
21;valtas;w;131.00;0.00;1
22;valtas;w;142.50;0.00;1
23;valtas;w;162.50;0.00;1
24;valtas;w;164.00;0.00;1
25;rejtekhely in [Q out: fej+test ki];q;167.50;0.00;1
26;q-end;Q;169.00;1.50;1
27;valtas;w;170.00;0.00;1
28;valtas;w;173.50;0.00;1
29;valtas;w;175.50;0.00;1
30;valtas;w;176.50;0.00;1
31;valtas;w;181.50;0.00;1
32;valtas;w;182.00;0.00;1
33;valtas;w;185.00;0.00;1
34;valtas;w;189.00;0.00;1
35;valtas;w;189.50;0.00;1
36;valtas;w;203.50;0.00;1
37;rejtekhely in [Q out: fej+test ki];q;204.50;0.00;1
38;q-end;Q;205.50;1.00;1
39;valtas;w;207.00;0.00;1
40;valtas;w;207.50;0.00;1
41;valtas;w;210.50;0.00;1
42;valtas;w;219.00;0.00;1
43;valtas;w;221.50;0.00;1
44;valtas;w;243.00;0.00;1
45;valtas;w;245.00;0.00;1
46;valtas;w;247.50;0.00;1
47;valtas;w;249.00;0.00;1
48;valtas;w;253.50;0.00;1
49;valtas;w;254.50;0.00;1
50;valtas;w;256.50;0.00;1
51;valtas;w;266.50;0.00;1
52;valtas;w;268.00;0.00;1
53;valtas;w;271.50;0.00;1
54;valtas;w;275.00;0.00;1
55;valtas;w;277.50;0.00;1
56;valtas;w;299.50;0.00;1
57;valtas;w;301.50;0.00;1
58;valtas;w;302.50;0.00;1
59;valtas;w;304.00;0.00;1
60;valtas;w;305.00;0.00;1
61;valtas;w;316.50;0.00;1
62;valtas;w;352.50;0.00;1
63;valtas;w;352.50;0.00;1
64;valtas;w;359.00;0.00;1
65;valtas;w;379.00;0.00;1
66;valtas;w;380.00;0.00;1
67;valtas;w;390.50;0.00;1
68;rejtekhely in [Q out: fej+test ki];q;394.50;0.00;1
69;q-end;Q;395.50;1.00;1
70;valtas;w;396.50;0.00;1
71;valtas;w;396.50;0.00;1
72;valtas;w;401.00;0.00;1
73;valtas;w;401.50;0.00;1
74;valtas;w;403.00;0.00;1
75;valtas;w;404.50;0.00;1
76;valtas;w;420.50;0.00;1
#77;rejtekhely in [Q out: fej+test ki];q;425.00;0.00;1
78;rejtekhely in [Q out: fej+test ki];q;422.00;0.00;1
79;q-end;Q;428.50;6.50;1
80;valtas;w;430.50;0.00;1
81;valtas;w;436.50;0.00;1
82;valtas;w;438.00;0.00;1
83;valtas;w;463.00;0.00;1
84;valtas;w;471.50;0.00;1
85;valtas;w;474.50;0.00;1
86;valtas;w;475.50;0.00;1
87;rejtekhely in [Q out: fej+test ki];q;478.00;0.00;1
88;q-end;Q;480.00;2.00;1
89;valtas;w;480.50;0.00;1
90;valtas;w;486.00;0.00;1
91;valtas;w;488.50;0.00;1
92;valtas;w;495.00;0.00;1
93;valtas;w;499.00;0.00;1
94;valtas;w;501.00;0.00;1
95;valtas;w;502.00;0.00;1
96;valtas;w;505.50;0.00;1
97;valtas;w;547.00;0.00;1
98;valtas;w;569.50;0.00;1
99;valtas;w;574.00;0.00;1
100;valtas;w;585.00;0.00;1
101;valtas;w;587.00;0.00;1
102;valtas;w;588.00;0.00;1
103;valtas;w;589.50;0.00;1
104;valtas;w;594.00;0.00;1
105;valtas;w;602.00;0.00;1
106;valtas;w;604.00;0.00;1
107;valtas;w;606.00;0.00;1
108;valtas;w;609.00;0.00;1
109;valtas;w;610.00;0.00;1
110;valtas;w;611.00;0.00;1
111;valtas;w;612.50;0.00;1
112;valtas;w;613.50;0.00;1
113;valtas;w;615.00;0.00;1
114;valtas;w;616.00;0.00;1
115;valtas;w;640.00;0.00;1
116;valtas;w;646.50;0.00;1
117;valtas;w;659.00;0.00;1
118;valtas;w;666.00;0.00;1
119;valtas;w;683.00;0.00;1
120;valtas;w;716.50;0.00;1
121;valtas;w;720.50;0.00;1
122;valtas;w;722.50;0.00;1
123;valtas;w;731.00;0.00;1
124;valtas;w;732.50;0.00;1
125;valtas;w;735.00;0.00;1
126;valtas;w;735.50;0.00;1
127;valtas;w;738.00;0.00;1
128;valtas;w;739.00;0.00;1
129;valtas;w;742.50;0.00;1
130;valtas;w;746.50;0.00;1
131;valtas;w;756.50;0.00;1
132;valtas;w;765.00;0.00;1
133;valtas;w;776.50;0.00;1
134;valtas;w;778.50;0.00;1
135;valtas;w;805.00;0.00;1
136;valtas;w;807.50;0.00;1
137;valtas;w;808.50;0.00;1
138;valtas;w;843.00;0.00;1
139;valtas;w;853.50;0.00;1
140;valtas;w;855.00;0.00;1
141;rejtekhely in [Q out: fej+test ki];q;855.50;0.00;1
142;q-end;Q;857.00;1.50;1
143;valtas;w;858.00;0.00;1
144;valtas;w;859.00;0.00;1
145;valtas;w;879.50;0.00;1
146;valtas;w;883.00;0.00;1
147;valtas;w;888.50;0.00;1
148;valtas;w;894.00;0.00;1
149;valtas;w;905.00;0.00;1
150;valtas;w;911.50;0.00;1
151;rejtekhely in [Q out: fej+test ki];q;915.00;0.00;1
152;q-end;Q;916.00;1.00;1
153;valtas;w;916.50;0.00;1
154;valtas;w;916.00;0.00;1
155;rejtekhely in [Q out: fej+test ki];q;916.50;0.00;1
156;q-end;Q;917.50;1.00;1
157;valtas;w;918.50;0.00;1
158;valtas;w;919.50;0.00;1
159;valtas;w;925.50;0.00;1
160;valtas;w;933.00;0.00;1
