#Video File Name: 05_exploration_6.avi
#Project ID: 05_exploration_6
#Event codes:
#1 start
#w valtas
#q rejtekhely in [Q out: fej+test ki]
#
#Field separator: ;
#MWrap version: Wed Feb 14 09:50:29 CET 2018
#id;description;key;time;duration;object id
1;start;1;0.50;0.00;1
2;rejtekhely in [Q out: fej+test ki];q;0.50;0.00;1
3;q-end;Q;86.50;86.00;1
4;valtas;w;101.00;0.00;1
5;valtas;w;123.00;0.00;1
6;valtas;w;124.50;0.00;1
7;valtas;w;126.00;0.00;1
8;valtas;w;126.50;0.00;1
9;valtas;w;128.00;0.00;1
10;valtas;w;130.00;0.00;1
11;valtas;w;131.00;0.00;1
12;valtas;w;132.00;0.00;1
13;valtas;w;132.50;0.00;1
14;valtas;w;134.50;0.00;1
15;valtas;w;136.00;0.00;1
16;valtas;w;143.00;0.00;1
17;valtas;w;149.00;0.00;1
18;valtas;w;151.00;0.00;1
19;valtas;w;152.50;0.00;1
20;valtas;w;153.50;0.00;1
21;valtas;w;154.00;0.00;1
22;valtas;w;155.00;0.00;1
23;valtas;w;156.00;0.00;1
24;valtas;w;164.00;0.00;1
25;valtas;w;171.00;0.00;1
26;valtas;w;173.00;0.00;1
27;rejtekhely in [Q out: fej+test ki];q;173.50;0.00;1
28;q-end;Q;175.00;1.50;1
29;valtas;w;175.50;0.00;1
30;valtas;w;181.00;0.00;1
31;valtas;w;182.50;0.00;1
32;valtas;w;186.50;0.00;1
33;valtas;w;188.50;0.00;1
34;valtas;w;191.00;0.00;1
35;valtas;w;191.50;0.00;1
36;valtas;w;193.50;0.00;1
37;valtas;w;210.00;0.00;1
38;valtas;w;213.50;0.00;1
39;valtas;w;216.00;0.00;1
40;valtas;w;221.50;0.00;1
41;valtas;w;225.50;0.00;1
42;valtas;w;228.50;0.00;1
43;valtas;w;231.00;0.00;1
44;valtas;w;232.50;0.00;1
45;valtas;w;239.00;0.00;1
46;valtas;w;241.00;0.00;1
#47;valtas;w;250.00;0.00;1
48;rejtekhely in [Q out: fej+test ki];q;250.00;0.00;1
49;q-end;Q;278.00;28.00;1
50;valtas;w;278.50;0.00;1
51;valtas;w;284.00;0.00;1
52;valtas;w;286.50;0.00;1
53;valtas;w;288.50;0.00;1
54;valtas;w;289.50;0.00;1
55;valtas;w;293.50;0.00;1
56;valtas;w;294.00;0.00;1
57;valtas;w;304.00;0.00;1
58;valtas;w;313.00;0.00;1
59;valtas;w;321.00;0.00;1
60;valtas;w;323.00;0.00;1
61;valtas;w;325.50;0.00;1
62;valtas;w;327.00;0.00;1
63;valtas;w;331.00;0.00;1
64;valtas;w;339.00;0.00;1
65;valtas;w;341.00;0.00;1
66;valtas;w;342.50;0.00;1
67;valtas;w;346.50;0.00;1
68;valtas;w;347.50;0.00;1
69;valtas;w;350.50;0.00;1
70;valtas;w;351.50;0.00;1
71;valtas;w;360.00;0.00;1
72;valtas;w;362.50;0.00;1
73;valtas;w;365.00;0.00;1
74;valtas;w;367.00;0.00;1
75;valtas;w;367.50;0.00;1
76;valtas;w;368.00;0.00;1
77;valtas;w;369.00;0.00;1
78;valtas;w;369.50;0.00;1
79;valtas;w;370.00;0.00;1
#80;valtas;w;371.00;0.00;1
81;rejtekhely in [Q out: fej+test ki];q;371.00;0.00;1
82;q-end;Q;376.50;5.50;1
83;valtas;w;377.00;0.00;1
84;valtas;w;388.50;0.00;1
85;valtas;w;390.00;0.00;1
86;valtas;w;392.50;0.00;1
87;valtas;w;396.50;0.00;1
88;valtas;w;397.50;0.00;1
89;valtas;w;400.00;0.00;1
90;valtas;w;405.50;0.00;1
91;valtas;w;406.50;0.00;1
92;valtas;w;408.00;0.00;1
93;valtas;w;412.00;0.00;1
94;valtas;w;412.50;0.00;1
95;valtas;w;415.50;0.00;1
96;valtas;w;416.50;0.00;1
97;valtas;w;419.00;0.00;1
98;valtas;w;420.00;0.00;1
99;rejtekhely in [Q out: fej+test ki];q;426.00;0.00;1
100;q-end;Q;436.00;10.00;1
101;valtas;w;437.50;0.00;1
102;valtas;w;446.50;0.00;1
103;valtas;w;447.50;0.00;1
104;valtas;w;448.50;0.00;1
105;valtas;w;450.00;0.00;1
106;valtas;w;451.50;0.00;1
107;valtas;w;453.50;0.00;1
108;valtas;w;454.50;0.00;1
109;valtas;w;455.50;0.00;1
110;valtas;w;456.00;0.00;1
111;valtas;w;464.00;0.00;1
112;valtas;w;465.00;0.00;1
113;valtas;w;467.00;0.00;1
114;valtas;w;468.00;0.00;1
115;valtas;w;469.50;0.00;1
116;valtas;w;470.50;0.00;1
117;valtas;w;473.00;0.00;1
118;valtas;w;474.50;0.00;1
#119;rejtekhely in [Q out: fej+test ki];q;480.00;0.00;1
120;valtas;w;479.50;0.00;1
121;valtas;w;513.50;0.00;1
122;valtas;w;514.00;0.00;1
123;valtas;w;515.00;0.00;1
124;valtas;w;517.00;0.00;1
125;valtas;w;518.00;0.00;1
126;valtas;w;521.50;0.00;1
127;valtas;w;525.50;0.00;1
128;valtas;w;526.00;0.00;1
129;valtas;w;527.00;0.00;1
130;valtas;w;530.00;0.00;1
131;valtas;w;530.50;0.00;1
132;valtas;w;534.50;0.00;1
133;valtas;w;536.00;0.00;1
134;valtas;w;542.00;0.00;1
135;valtas;w;546.50;0.00;1
136;valtas;w;550.50;0.00;1
137;valtas;w;552.50;0.00;1
138;valtas;w;553.50;0.00;1
139;valtas;w;555.00;0.00;1
140;valtas;w;560.50;0.00;1
141;valtas;w;565.50;0.00;1
142;valtas;w;581.50;0.00;1
143;valtas;w;599.00;0.00;1
#144;valtas;w;603.50;0.00;1
145;valtas;w;605.50;0.00;1
146;valtas;w;606.50;0.00;1
147;valtas;w;609.50;0.00;1
148;valtas;w;610.00;0.00;1
149;valtas;w;615.00;0.00;1
150;valtas;w;619.50;0.00;1
151;valtas;w;623.50;0.00;1
152;valtas;w;624.50;0.00;1
153;valtas;w;629.50;0.00;1
154;valtas;w;630.00;0.00;1
155;valtas;w;634.50;0.00;1
156;valtas;w;648.50;0.00;1
157;valtas;w;650.00;0.00;1
158;valtas;w;650.50;0.00;1
159;valtas;w;652.50;0.00;1
160;valtas;w;654.00;0.00;1
161;valtas;w;655.50;0.00;1
162;valtas;w;656.50;0.00;1
163;valtas;w;661.50;0.00;1
164;valtas;w;662.50;0.00;1
165;valtas;w;667.00;0.00;1
166;valtas;w;668.50;0.00;1
167;valtas;w;671.00;0.00;1
168;valtas;w;672.00;0.00;1
169;valtas;w;676.00;0.00;1
170;valtas;w;676.50;0.00;1
171;valtas;w;679.50;0.00;1
172;rejtekhely in [Q out: fej+test ki];q;684.00;0.00;1
173;q-end;Q;702.50;18.50;1
174;valtas;w;703.50;0.00;1
175;valtas;w;709.00;0.00;1
176;valtas;w;714.00;0.00;1
177;valtas;w;714.50;0.00;1
178;valtas;w;716.50;0.00;1
179;valtas;w;718.00;0.00;1
180;valtas;w;718.50;0.00;1
181;valtas;w;720.50;0.00;1
182;valtas;w;734.50;0.00;1
183;valtas;w;735.50;0.00;1
184;valtas;w;737.00;0.00;1
185;valtas;w;740.00;0.00;1
186;valtas;w;741.50;0.00;1
187;valtas;w;743.00;0.00;1
188;valtas;w;745.00;0.00;1
189;valtas;w;756.00;0.00;1
190;valtas;w;757.00;0.00;1
191;valtas;w;759.50;0.00;1
192;valtas;w;761.50;0.00;1
193;valtas;w;763.00;0.00;1
194;valtas;w;763.50;0.00;1
195;valtas;w;764.00;0.00;1
196;valtas;w;765.00;0.00;1
197;valtas;w;773.50;0.00;1
198;valtas;w;780.00;0.00;1
199;valtas;w;781.50;0.00;1
200;valtas;w;782.00;0.00;1
201;valtas;w;785.50;0.00;1
202;valtas;w;786.50;0.00;1
203;valtas;w;792.00;0.00;1
204;valtas;w;793.00;0.00;1
205;valtas;w;798.00;0.00;1
206;valtas;w;816.00;0.00;1
207;valtas;w;824.50;0.00;1
208;valtas;w;825.50;0.00;1
209;valtas;w;826.50;0.00;1
210;valtas;w;828.50;0.00;1
211;valtas;w;837.50;0.00;1
212;valtas;w;838.50;0.00;1
213;valtas;w;845.00;0.00;1
214;valtas;w;856.00;0.00;1
215;valtas;w;858.00;0.00;1
216;valtas;w;861.00;0.00;1
217;valtas;w;864.00;0.00;1
218;valtas;w;865.50;0.00;1
219;valtas;w;866.50;0.00;1
220;rejtekhely in [Q out: fej+test ki];q;867.50;0.00;1
221;q-end;Q;868.00;0.50;1
222;valtas;w;868.50;0.00;1
223;valtas;w;869.00;0.00;1
224;rejtekhely in [Q out: fej+test ki];q;870.00;0.00;1
225;q-end;Q;871.00;1.00;1
226;valtas;w;872.00;0.00;1
227;valtas;w;879.00;0.00;1
228;valtas;w;880.00;0.00;1
229;valtas;w;883.50;0.00;1
230;valtas;w;885.00;0.00;1
231;valtas;w;886.50;0.00;1
232;valtas;w;890.50;0.00;1
233;valtas;w;892.00;0.00;1
234;valtas;w;895.50;0.00;1
235;valtas;w;896.50;0.00;1
236;rejtekhely in [Q out: fej+test ki];q;898.00;0.00;1
237;q-end;Q;899.00;1.00;1
238;valtas;w;899.50;0.00;1
239;valtas;w;912.50;0.00;1
240;valtas;w;913.50;0.00;1
241;valtas;w;914.50;0.00;1
242;valtas;w;916.50;0.00;1
243;valtas;w;917.50;0.00;1
244;valtas;w;920.50;0.00;1
245;valtas;w;922.50;0.00;1
