#Video File Name: 06_exploration_1.avi
#Project ID: 06_exploration_1
#Event codes:
#1 start
#w valtas
#q rejtekhely in [Q out: fej+test ki]
#
#Field separator: ;
#MWrap version: Wed Feb 14 09:50:29 CET 2018
#id;description;key;time;duration;object id
1;start;1;0.50;0.00;1
2;rejtekhely in [Q out: fej+test ki];q;0.50;0.00;1
3;q-end;Q;92.50;92.00;1
4;valtas;w;94.00;0.00;1
5;rejtekhely in [Q out: fej+test ki];q;192.00;0.00;1
6;q-end;Q;227.00;35.00;1
7;valtas;w;228.50;0.00;1
8;valtas;w;237.50;0.00;1
9;valtas;w;276.00;0.00;1
10;valtas;w;326.50;0.00;1
11;rejtekhely in [Q out: fej+test ki];q;328.50;0.00;1
12;q-end;Q;330.00;1.50;1
13;valtas;w;331.00;0.00;1
14;rejtekhely in [Q out: fej+test ki];q;453.50;0.00;1
15;q-end;Q;455.50;2.00;1
16;valtas;w;458.00;0.00;1
17;valtas;w;459.50;0.00;1
18;valtas;w;466.00;0.00;1
19;valtas;w;467.00;0.00;1
20;valtas;w;469.50;0.00;1
21;rejtekhely in [Q out: fej+test ki];q;469.50;0.00;1
22;q-end;Q;470.50;1.00;1
23;valtas;w;471.50;0.00;1
24;rejtekhely in [Q out: fej+test ki];q;471.50;0.00;1
25;q-end;Q;473.00;1.50;1
26;valtas;w;474.00;0.00;1
27;valtas;w;475.50;0.00;1
28;valtas;w;495.00;0.00;1
29;rejtekhely in [Q out: fej+test ki];q;499.00;0.00;1
30;q-end;Q;500.00;1.00;1
31;valtas;w;500.50;0.00;1
32;valtas;w;501.00;0.00;1
33;valtas;w;502.50;0.00;1
34;valtas;w;507.00;0.00;1
35;valtas;w;507.50;0.00;1
36;valtas;w;508.00;0.00;1
37;rejtekhely in [Q out: fej+test ki];q;509.50;0.00;1
38;q-end;Q;510.50;1.00;1
39;valtas;w;511.50;0.00;1
40;valtas;w;516.00;0.00;1
41;valtas;w;532.50;0.00;1
42;valtas;w;533.50;0.00;1
43;valtas;w;539.00;0.00;1
44;valtas;w;540.50;0.00;1
45;rejtekhely in [Q out: fej+test ki];q;541.50;0.00;1
46;q-end;Q;542.00;0.50;1
47;valtas;w;543.00;0.00;1
48;valtas;w;543.50;0.00;1
49;valtas;w;559.50;0.00;1
50;valtas;w;564.50;0.00;1
51;valtas;w;568.00;0.00;1
52;valtas;w;569.00;0.00;1
53;valtas;w;569.00;0.00;1
54;valtas;w;570.00;0.00;1
55;rejtekhely in [Q out: fej+test ki];q;572.50;0.00;1
56;q-end;Q;573.50;1.00;1
57;valtas;w;574.50;0.00;1
58;rejtekhely in [Q out: fej+test ki];q;574.00;0.00;1
59;q-end;Q;578.00;4.00;1
60;valtas;w;580.50;0.00;1
61;valtas;w;597.00;0.00;1
62;rejtekhely in [Q out: fej+test ki];q;610.00;0.00;1
63;q-end;Q;614.00;4.00;1
64;valtas;w;615.00;0.00;1
65;valtas;w;616.00;0.00;1
66;valtas;w;618.00;0.00;1
67;valtas;w;622.50;0.00;1
68;valtas;w;624.00;0.00;1
69;valtas;w;624.50;0.00;1
70;valtas;w;627.00;0.00;1
71;valtas;w;629.50;0.00;1
72;valtas;w;630.50;0.00;1
73;valtas;w;638.50;0.00;1
74;valtas;w;639.00;0.00;1
75;valtas;w;650.00;0.00;1
76;valtas;w;653.50;0.00;1
77;valtas;w;659.00;0.00;1
78;valtas;w;662.00;0.00;1
79;rejtekhely in [Q out: fej+test ki];q;663.50;0.00;1
80;undefined;;667.00;0.00;1
81;undefined;2;667.50;0.00;1
82;undefined;C;667.50;0.00;1
83;undefined;;669.50;0.00;1
84;undefined;2;670.00;0.00;1
85;undefined;C;670.00;0.00;1
86;q-end;Q;681.00;17.50;1
87;valtas;w;681.00;0.00;1
88;valtas;w;683.50;0.00;1
89;valtas;w;685.00;0.00;1
90;valtas;w;687.00;0.00;1
91;valtas;w;689.00;0.00;1
92;valtas;w;698.50;0.00;1
93;valtas;w;700.00;0.00;1
94;valtas;w;704.00;0.00;1
95;valtas;w;706.50;0.00;1
96;rejtekhely in [Q out: fej+test ki];q;708.00;0.00;1
97;q-end;Q;715.00;7.00;1
99;valtas;w;715.00;0.00;1
100;valtas;w;715.50;0.00;1
101;valtas;w;738.00;0.00;1
102;valtas;w;739.00;0.00;1
103;valtas;w;741.00;0.00;1
104;valtas;w;741.50;0.00;1
105;valtas;w;756.00;0.00;1
106;valtas;w;758.50;0.00;1
107;valtas;w;762.50;0.00;1
108;valtas;w;766.50;0.00;1
109;rejtekhely in [Q out: fej+test ki];q;767.50;0.00;1
110;q-end;Q;786.00;18.50;1
111;valtas;w;787.00;0.00;1
112;valtas;w;787.50;0.00;1
113;valtas;w;793.50;0.00;1
114;valtas;w;797.00;0.00;1
115;valtas;w;801.50;0.00;1
116;valtas;w;803.50;0.00;1
117;valtas;w;814.00;0.00;1
118;valtas;w;817.50;0.00;1
119;valtas;w;820.00;0.00;1
120;valtas;w;821.50;0.00;1
121;valtas;w;825.50;0.00;1
122;valtas;w;826.50;0.00;1
123;valtas;w;828.00;0.00;1
124;valtas;w;832.50;0.00;1
125;valtas;w;835.50;0.00;1
126;valtas;w;837.50;0.00;1
127;valtas;w;843.50;0.00;1
128;valtas;w;848.00;0.00;1
129;valtas;w;851.00;0.00;1
130;valtas;w;857.50;0.00;1
131;valtas;w;862.00;0.00;1
132;valtas;w;863.50;0.00;1
133;rejtekhely in [Q out: fej+test ki];q;863.00;0.00;1
134;q-end;Q;865.00;2.00;1
135;valtas;w;866.00;0.00;1
136;valtas;w;891.50;0.00;1
137;valtas;w;901.50;0.00;1
138;valtas;w;904.50;0.00;1
139;valtas;w;906.50;0.00;1
