#Video File Name: 07_exploration_6.avi
#Project ID: 07_exploration_6
#Event codes:
#1 start
#w valtas
#q rejtekhely in [Q out: fej+test ki]
#
#Field separator: ;
#MWrap version: Wed Feb 14 09:50:29 CET 2018
#id;description;key;time;duration;object id
1;start;1;0.50;0.00;1
2;rejtekhely in [Q out: fej+test ki];q;0.50;0.00;1
3;q-end;Q;272.00;271.50;1
4;rejtekhely in [Q out: fej+test ki];q;334.50;0.00;1
5;q-end;Q;345.00;10.50;1
6;valtas;w;348.50;0.00;1
7;valtas;w;378.50;0.00;1
8;valtas;w;386.50;0.00;1
9;valtas;w;387.50;0.00;1
10;rejtekhely in [Q out: fej+test ki];q;389.50;0.00;1
11;q-end;Q;406.50;17.00;1
12;valtas;w;407.50;0.00;1
13;valtas;w;417.00;0.00;1
14;valtas;w;420.50;0.00;1
15;valtas;w;433.00;0.00;1
16;valtas;w;439.00;0.00;1
17;valtas;w;443.00;0.00;1
18;valtas;w;450.00;0.00;1
19;rejtekhely in [Q out: fej+test ki];q;453.50;0.00;1
20;q-end;Q;457.50;4.00;1
21;valtas;w;458.00;0.00;1
22;valtas;w;458.50;0.00;1
23;valtas;w;459.50;0.00;1
24;valtas;w;460.00;0.00;1
25;valtas;w;476.50;0.00;1
26;valtas;w;480.00;0.00;1
27;valtas;w;485.00;0.00;1
28;valtas;w;487.50;0.00;1
29;valtas;w;489.50;0.00;1
30;valtas;w;501.00;0.00;1
31;rejtekhely in [Q out: fej+test ki];q;509.00;0.00;1
32;q-end;Q;510.00;1.00;1
33;valtas;w;510.50;0.00;1
34;valtas;w;514.50;0.00;1
35;rejtekhely in [Q out: fej+test ki];q;516.00;0.00;1
36;q-end;Q;521.50;5.50;1
37;valtas;w;521.50;0.00;1
38;valtas;w;548.00;0.00;1
39;valtas;w;559.00;0.00;1
40;valtas;w;565.00;0.00;1
41;valtas;w;566.00;0.00;1
42;valtas;w;572.00;0.00;1
43;valtas;w;573.00;0.00;1
44;valtas;w;577.00;0.00;1
45;valtas;w;581.50;0.00;1
46;valtas;w;582.50;0.00;1
47;valtas;w;584.50;0.00;1
48;rejtekhely in [Q out: fej+test ki];q;587.50;0.00;1
49;q-end;Q;590.00;2.50;1
50;valtas;w;591.50;0.00;1
51;valtas;w;594.00;0.00;1
52;rejtekhely in [Q out: fej+test ki];q;596.00;0.00;1
53;q-end;Q;597.00;1.00;1
54;valtas;w;598.00;0.00;1
55;rejtekhely in [Q out: fej+test ki];q;602.00;0.00;1
56;q-end;Q;615.00;13.00;1
57;valtas;w;616.00;0.00;1
58;valtas;w;616.00;0.00;1
59;valtas;w;619.50;0.00;1
60;valtas;w;627.50;0.00;1
61;valtas;w;630.50;0.00;1
62;valtas;w;631.00;0.00;1
63;valtas;w;642.00;0.00;1
64;valtas;w;643.50;0.00;1
65;valtas;w;645.50;0.00;1
66;valtas;w;653.00;0.00;1
67;valtas;w;654.00;0.00;1
68;valtas;w;658.00;0.00;1
69;valtas;w;662.00;0.00;1
70;valtas;w;664.00;0.00;1
71;valtas;w;682.50;0.00;1
72;valtas;w;685.00;0.00;1
73;valtas;w;686.50;0.00;1
#74;valtas;w;687.50;0.00;1
75;rejtekhely in [Q out: fej+test ki];q;687.50;0.00;1
76;q-end;Q;696.00;8.50;1
77;valtas;w;697.00;0.00;1
78;rejtekhely in [Q out: fej+test ki];q;697.00;0.00;1
79;q-end;Q;700.50;3.50;1
80;valtas;w;701.00;0.00;1
81;valtas;w;701.50;0.00;1
82;rejtekhely in [Q out: fej+test ki];q;704.50;0.00;1
83;q-end;Q;707.50;3.00;1
84;valtas;w;708.50;0.00;1
85;valtas;w;708.50;0.00;1
86;valtas;w;709.00;0.00;1
87;valtas;w;710.00;0.00;1
88;valtas;w;711.00;0.00;1
89;valtas;w;712.50;0.00;1
90;valtas;w;712.50;0.00;1
91;valtas;w;736.50;0.00;1
92;rejtekhely in [Q out: fej+test ki];q;740.00;0.00;1
93;q-end;Q;742.00;2.00;1
94;valtas;w;742.50;0.00;1
95;valtas;w;743.00;0.00;1
96;valtas;w;750.00;0.00;1
97;valtas;w;756.50;0.00;1
98;valtas;w;760.00;0.00;1
99;valtas;w;764.50;0.00;1
100;valtas;w;770.00;0.00;1
101;valtas;w;772.50;0.00;1
102;valtas;w;774.50;0.00;1
103;valtas;w;775.00;0.00;1
104;rejtekhely in [Q out: fej+test ki];q;776.50;0.00;1
105;q-end;Q;778.00;1.50;1
106;valtas;w;778.50;0.00;1
107;valtas;w;812.50;0.00;1
108;valtas;w;820.50;0.00;1
109;valtas;w;821.50;0.00;1
110;valtas;w;823.50;0.00;1
111;valtas;w;824.50;0.00;1
112;valtas;w;826.00;0.00;1
113;valtas;w;828.00;0.00;1
114;valtas;w;837.00;0.00;1
115;rejtekhely in [Q out: fej+test ki];q;838.00;0.00;1
116;q-end;Q;839.00;1.00;1
117;valtas;w;839.50;0.00;1
118;rejtekhely in [Q out: fej+test ki];q;841.50;0.00;1
119;q-end;Q;864.00;22.50;1
120;valtas;w;865.00;0.00;1
121;valtas;w;882.00;0.00;1
122;valtas;w;885.00;0.00;1
123;rejtekhely in [Q out: fej+test ki];q;887.50;0.00;1
124;q-end;Q;889.50;2.00;1
125;valtas;w;890.00;0.00;1
126;rejtekhely in [Q out: fej+test ki];q;904.50;0.00;1
127;q-end;Q;905.50;1.00;1
128;valtas;w;906.00;0.00;1
