#Video File Name: 08_exploration_10.avi
#Project ID: 08_exploration_10
#Event codes:
#1 start
#w valtas
#q rejtekhely in [Q out: fej+test ki]
#
#Field separator: ;
#MWrap version: Wed Feb 14 09:50:29 CET 2018
#id;description;key;time;duration;object id
1;start;1;0.50;0.00;1
2;rejtekhely in [Q out: fej+test ki];q;7.50;0.00;1
3;q-end;Q;128.50;121.00;1
4;valtas;w;130.50;0.00;1
5;valtas;w;131.00;0.00;1
6;valtas;w;161.00;0.00;1
7;valtas;w;165.00;0.00;1
8;valtas;w;167.00;0.00;1
9;valtas;w;174.50;0.00;1
10;valtas;w;179.00;0.00;1
11;valtas;w;184.50;0.00;1
12;valtas;w;185.50;0.00;1
13;valtas;w;191.00;0.00;1
14;valtas;w;191.50;0.00;1
15;valtas;w;193.50;0.00;1
16;valtas;w;196.00;0.00;1
17;valtas;w;197.00;0.00;1
18;valtas;w;203.50;0.00;1
19;valtas;w;204.00;0.00;1
20;valtas;w;207.50;0.00;1
21;rejtekhely in [Q out: fej+test ki];q;211.50;0.00;1
22;q-end;Q;212.00;0.50;1
23;valtas;w;212.50;0.00;1
24;valtas;w;214.00;0.00;1
25;valtas;w;218.50;0.00;1
26;valtas;w;220.00;0.00;1
27;valtas;w;221.50;0.00;1
28;valtas;w;223.00;0.00;1
29;valtas;w;237.00;0.00;1
30;valtas;w;238.00;0.00;1
31;valtas;w;243.00;0.00;1
32;valtas;w;245.00;0.00;1
33;valtas;w;250.50;0.00;1
34;valtas;w;251.00;0.00;1
35;rejtekhely in [Q out: fej+test ki];q;253.50;0.00;1
#36;q-end;Q;255.50;2.00;1
37;q-end;Q;266.00;12.50;1
38;valtas;w;266.50;0.00;1
39;valtas;w;274.00;0.00;1
40;valtas;w;276.50;0.00;1
41;valtas;w;279.00;0.00;1
42;valtas;w;286.00;0.00;1
43;valtas;w;289.50;0.00;1
44;valtas;w;300.50;0.00;1
45;rejtekhely in [Q out: fej+test ki];q;301.50;0.00;1
46;q-end;Q;317.50;16.00;1
47;valtas;w;318.50;0.00;1
48;valtas;w;319.00;0.00;1
49;valtas;w;321.00;0.00;1
50;valtas;w;326.00;0.00;1
51;valtas;w;333.50;0.00;1
52;valtas;w;335.50;0.00;1
53;valtas;w;337.00;0.00;1
54;valtas;w;358.50;0.00;1
55;valtas;w;360.50;0.00;1
56;rejtekhely in [Q out: fej+test ki];q;360.50;0.00;1
57;q-end;Q;363.50;3.00;1
58;valtas;w;364.50;0.00;1
59;valtas;w;365.00;0.00;1
60;valtas;w;368.00;0.00;1
61;valtas;w;368.50;0.00;1
62;valtas;w;369.00;0.00;1
63;valtas;w;370.00;0.00;1
64;valtas;w;372.00;0.00;1
65;valtas;w;386.50;0.00;1
66;valtas;w;387.00;0.00;1
67;valtas;w;389.00;0.00;1
68;valtas;w;398.00;0.00;1
69;rejtekhely in [Q out: fej+test ki];q;402.00;0.00;1
70;q-end;Q;410.50;8.50;1
71;valtas;w;411.00;0.00;1
72;valtas;w;421.00;0.00;1
73;valtas;w;425.50;0.00;1
74;valtas;w;428.00;0.00;1
75;valtas;w;431.50;0.00;1
76;valtas;w;432.50;0.00;1
77;valtas;w;434.50;0.00;1
78;valtas;w;438.50;0.00;1
79;valtas;w;440.00;0.00;1
80;valtas;w;443.50;0.00;1
81;valtas;w;448.00;0.00;1
82;valtas;w;449.50;0.00;1
83;rejtekhely in [Q out: fej+test ki];q;450.50;0.00;1
84;q-end;Q;452.50;2.00;1
85;valtas;w;453.50;0.00;1
86;valtas;w;455.00;0.00;1
87;valtas;w;463.00;0.00;1
88;valtas;w;472.00;0.00;1
89;valtas;w;473.00;0.00;1
90;rejtekhely in [Q out: fej+test ki];q;475.00;0.00;1
91;q-end;Q;484.00;9.00;1
92;valtas;w;484.50;0.00;1
93;valtas;w;485.00;0.00;1
94;valtas;w;488.50;0.00;1
95;valtas;w;492.50;0.00;1
96;valtas;w;522.00;0.00;1
97;rejtekhely in [Q out: fej+test ki];q;533.00;0.00;1
98;q-end;Q;542.00;9.00;1
99;valtas;w;543.00;0.00;1
100;rejtekhely in [Q out: fej+test ki];q;546.00;0.00;1
101;q-end;Q;550.00;4.00;1
102;valtas;w;550.50;0.00;1
103;valtas;w;551.00;0.00;1
104;valtas;w;553.50;0.00;1
105;valtas;w;556.50;0.00;1
106;valtas;w;560.00;0.00;1
107;valtas;w;561.00;0.00;1
108;valtas;w;566.00;0.00;1
109;valtas;w;567.50;0.00;1
110;valtas;w;568.50;0.00;1
111;valtas;w;572.00;0.00;1
112;valtas;w;625.00;0.00;1
113;rejtekhely in [Q out: fej+test ki];q;640.00;0.00;1
114;q-end;Q;651.00;11.00;1
115;valtas;w;651.50;0.00;1
116;valtas;w;652.50;0.00;1
117;rejtekhely in [Q out: fej+test ki];q;654.00;0.00;1
118;q-end;Q;657.00;3.00;1
119;valtas;w;658.00;0.00;1
120;valtas;w;667.50;0.00;1
121;valtas;w;674.50;0.00;1
122;valtas;w;678.00;0.00;1
123;valtas;w;680.50;0.00;1
124;valtas;w;691.50;0.00;1
125;valtas;w;699.00;0.00;1
126;valtas;w;704.50;0.00;1
127;valtas;w;709.00;0.00;1
128;valtas;w;710.50;0.00;1
#129;rejtekhely in [Q out: fej+test ki];q;710.50;0.00;1
130;rejtekhely in [Q out: fej+test ki];q;713.00;0.00;1
131;q-end;Q;715.00;2.00;1
132;valtas;w;718.00;0.00;1
133;valtas;w;749.00;0.00;1
134;rejtekhely in [Q out: fej+test ki];q;756.00;0.00;1
135;q-end;Q;771.50;15.50;1
136;valtas;w;772.50;0.00;1
137;valtas;w;781.50;0.00;1
138;valtas;w;793.00;0.00;1
139;valtas;w;793.50;0.00;1
140;rejtekhely in [Q out: fej+test ki];q;803.00;0.00;1
141;q-end;Q;805.00;2.00;1
142;valtas;w;805.50;0.00;1
143;valtas;w;805.50;0.00;1
144;valtas;w;813.50;0.00;1
145;rejtekhely in [Q out: fej+test ki];q;816.50;0.00;1
146;q-end;Q;819.50;3.00;1
147;valtas;w;820.00;0.00;1
148;rejtekhely in [Q out: fej+test ki];q;825.00;0.00;1
149;q-end;Q;828.50;3.50;1
150;valtas;w;829.50;0.00;1
151;valtas;w;837.00;0.00;1
152;valtas;w;839.00;0.00;1
153;valtas;w;840.00;0.00;1
154;rejtekhely in [Q out: fej+test ki];q;844.50;0.00;1
155;q-end;Q;845.50;1.00;1
156;valtas;w;846.50;0.00;1
157;valtas;w;850.50;0.00;1
158;valtas;w;855.00;0.00;1
159;rejtekhely in [Q out: fej+test ki];q;856.00;0.00;1
160;q-end;Q;860.50;4.50;1
161;valtas;w;861.00;0.00;1
162;valtas;w;863.50;0.00;1
163;valtas;w;864.50;0.00;1
164;valtas;w;879.50;0.00;1
165;valtas;w;890.50;0.00;1
166;valtas;w;891.50;0.00;1
167;rejtekhely in [Q out: fej+test ki];q;894.00;0.00;1
168;q-end;Q;900.00;6.00;1
169;valtas;w;900.50;0.00;1
170;valtas;w;902.00;0.00;1
