#Video File Name: 08_exploration_3.avi
#Project ID: 08_exploration_3
#Event codes:
#1 start
#w valtas
#q rejtekhely in [Q out: fej+test ki]
#
#Field separator: ;
#MWrap version: Wed Feb 14 09:50:29 CET 2018
#id;description;key;time;duration;object id
1;start;1;0.50;0.00;1
2;rejtekhely in [Q out: fej+test ki];q;0.50;0.00;1
3;q-end;Q;34.00;33.50;1
4;valtas;w;44.50;0.00;1
5;rejtekhely in [Q out: fej+test ki];q;44.00;0.00;1
6;q-end;Q;125.50;81.50;1
7;valtas;w;126.50;0.00;1
8;valtas;w;136.00;0.00;1
9;valtas;w;145.00;0.00;1
10;valtas;w;149.00;0.00;1
11;rejtekhely in [Q out: fej+test ki];q;151.00;0.00;1
12;q-end;Q;152.50;1.50;1
13;valtas;w;153.00;0.00;1
14;valtas;w;153.00;0.00;1
15;valtas;w;154.00;0.00;1
16;valtas;w;154.50;0.00;1
17;valtas;w;156.00;0.00;1
18;valtas;w;160.50;0.00;1
19;valtas;w;164.00;0.00;1
20;valtas;w;171.00;0.00;1
21;valtas;w;175.00;0.00;1
22;valtas;w;189.00;0.00;1
23;valtas;w;191.50;0.00;1
24;valtas;w;196.00;0.00;1
25;valtas;w;197.00;0.00;1
26;valtas;w;199.00;0.00;1
27;valtas;w;200.00;0.00;1
28;valtas;w;202.00;0.00;1
29;valtas;w;206.50;0.00;1
30;valtas;w;211.00;0.00;1
31;valtas;w;212.50;0.00;1
32;valtas;w;215.50;0.00;1
33;valtas;w;222.50;0.00;1
34;valtas;w;230.00;0.00;1
35;rejtekhely in [Q out: fej+test ki];q;230.00;0.00;1
36;q-end;Q;270.50;40.50;1
37;valtas;w;271.50;0.00;1
38;valtas;w;284.00;0.00;1
39;valtas;w;285.00;0.00;1
40;valtas;w;292.00;0.00;1
41;valtas;w;294.00;0.00;1
42;valtas;w;297.50;0.00;1
43;valtas;w;304.50;0.00;1
44;valtas;w;307.00;0.00;1
45;valtas;w;308.00;0.00;1
46;valtas;w;311.50;0.00;1
47;valtas;w;313.50;0.00;1
48;valtas;w;324.50;0.00;1
49;valtas;w;325.00;0.00;1
50;valtas;w;332.50;0.00;1
51;valtas;w;344.00;0.00;1
52;valtas;w;348.50;0.00;1
53;valtas;w;349.50;0.00;1
54;valtas;w;351.00;0.00;1
55;valtas;w;357.00;0.00;1
56;valtas;w;361.00;0.00;1
57;valtas;w;369.50;0.00;1
58;valtas;w;371.50;0.00;1
59;rejtekhely in [Q out: fej+test ki];q;372.00;0.00;1
60;q-end;Q;382.50;10.50;1
61;valtas;w;384.00;0.00;1
62;valtas;w;385.50;0.00;1
63;valtas;w;386.00;0.00;1
64;rejtekhely in [Q out: fej+test ki];q;393.50;0.00;1
65;q-end;Q;404.00;10.50;1
66;valtas;w;405.00;0.00;1
67;valtas;w;405.50;0.00;1
68;valtas;w;425.50;0.00;1
69;valtas;w;428.50;0.00;1
70;valtas;w;436.00;0.00;1
71;valtas;w;438.50;0.00;1
72;valtas;w;447.50;0.00;1
73;valtas;w;452.00;0.00;1
74;valtas;w;455.00;0.00;1
75;valtas;w;456.50;0.00;1
76;valtas;w;488.50;0.00;1
77;rejtekhely in [Q out: fej+test ki];q;491.50;0.00;1
78;q-end;Q;514.50;23.00;1
79;valtas;w;515.50;0.00;1
80;valtas;w;521.00;0.00;1
81;rejtekhely in [Q out: fej+test ki];q;522.50;0.00;1
82;q-end;Q;531.50;9.00;1
83;valtas;w;535.50;0.00;1
85;valtas;w;543.50;0.00;1
86;rejtekhely in [Q out: fej+test ki];q;545.00;0.00;1
87;q-end;Q;546.50;1.50;1
88;valtas;w;551.00;0.00;1
89;valtas;w;555.50;0.00;1
90;valtas;w;566.00;0.00;1
91;valtas;w;570.00;0.00;1
92;valtas;w;579.00;0.00;1
93;rejtekhely in [Q out: fej+test ki];q;590.50;0.00;1
94;q-end;Q;599.50;9.00;1
95;valtas;w;601.00;0.00;1
96;valtas;w;612.00;0.00;1
97;valtas;w;619.00;0.00;1
98;valtas;w;621.00;0.00;1
99;valtas;w;624.00;0.00;1
100;rejtekhely in [Q out: fej+test ki];q;625.00;0.00;1
101;q-end;Q;634.00;9.00;1
102;valtas;w;634.50;0.00;1
103;valtas;w;635.00;0.00;1
104;valtas;w;645.00;0.00;1
105;rejtekhely in [Q out: fej+test ki];q;645.50;0.00;1
106;q-end;Q;668.00;22.50;1
107;valtas;w;668.00;0.00;1
108;valtas;w;668.50;0.00;1
109;rejtekhely in [Q out: fej+test ki];q;673.50;0.00;1
110;q-end;Q;685.00;11.50;1
111;valtas;w;685.50;0.00;1
112;valtas;w;689.00;0.00;1
113;valtas;w;689.50;0.00;1
114;valtas;w;691.50;0.00;1
115;valtas;w;694.00;0.00;1
116;valtas;w;696.00;0.00;1
117;valtas;w;697.00;0.00;1
118;valtas;w;704.00;0.00;1
119;valtas;w;706.50;0.00;1
120;valtas;w;716.00;0.00;1
121;valtas;w;717.00;0.00;1
122;valtas;w;723.00;0.00;1
123;valtas;w;737.50;0.00;1
124;rejtekhely in [Q out: fej+test ki];q;739.50;0.00;1
125;q-end;Q;742.50;3.00;1
126;valtas;w;743.50;0.00;1
127;valtas;w;745.50;0.00;1
128;valtas;w;746.50;0.00;1
129;valtas;w;749.50;0.00;1
130;valtas;w;760.50;0.00;1
131;valtas;w;763.50;0.00;1
132;valtas;w;765.50;0.00;1
133;rejtekhely in [Q out: fej+test ki];q;768.00;0.00;1
134;q-end;Q;782.00;14.00;1
135;valtas;w;783.00;0.00;1
136;valtas;w;784.00;0.00;1
137;rejtekhely in [Q out: fej+test ki];q;794.50;0.00;1
138;q-end;Q;804.00;9.50;1
139;valtas;w;804.50;0.00;1
140;rejtekhely in [Q out: fej+test ki];q;805.00;0.00;1
141;q-end;Q;809.00;4.00;1
142;valtas;w;811.00;0.00;1
143;valtas;w;814.00;0.00;1
144;valtas;w;817.50;0.00;1
145;valtas;w;820.50;0.00;1
146;valtas;w;822.50;0.00;1
147;valtas;w;824.50;0.00;1
148;valtas;w;828.00;0.00;1
149;valtas;w;833.00;0.00;1
150;valtas;w;855.50;0.00;1
151;rejtekhely in [Q out: fej+test ki];q;866.50;0.00;1
152;q-end;Q;890.00;23.50;1
153;valtas;w;890.50;0.00;1
154;valtas;w;891.00;0.00;1
155;valtas;w;895.50;0.00;1
156;valtas;w;900.00;0.00;1
157;rejtekhely in [Q out: fej+test ki];q;907.50;0.00;1
158;q-end;Q;909.50;2.00;1
159;valtas;w;910.50;0.00;1
160;valtas;w;910.50;0.00;1
161;valtas;w;916.50;0.00;1
162;valtas;w;922.50;0.00;1
163;valtas;w;930.00;0.00;1
