#Video File Name: 09_exploration_4.avi
#Project ID: 09_exploration_4
#Event codes:
#1 start
#w valtas
#q rejtekhely in [Q out: fej+test ki]
#
#Field separator: ;
#MWrap version: Wed Feb 14 09:50:29 CET 2018
#id;description;key;time;duration;object id
1;start;1;0.50;0.00;1
9;valtas;w;70.00;0.00;1
10;valtas;w;71.00;0.00;1
11;rejtekhely in [Q out: fej+test ki];q;88.50;0.00;1
12;q-end;Q;92.50;4.00;1
13;valtas;w;93.50;0.00;1
14;valtas;w;93.50;0.00;1
15;valtas;w;100.50;0.00;1
16;valtas;w;101.00;0.00;1
#17;valtas;w;102.50;0.00;1
18;valtas;w;102.00;0.00;1
19;rejtekhely in [Q out: fej+test ki];q;102.50;0.00;1
20;q-end;Q;103.50;1.00;1
21;valtas;w;104.00;0.00;1
22;valtas;w;105.00;0.00;1
23;valtas;w;107.00;0.00;1
24;valtas;w;128.50;0.00;1
25;valtas;w;130.00;0.00;1
26;rejtekhely in [Q out: fej+test ki];q;130.00;0.00;1
27;q-end;Q;131.00;1.00;1
28;valtas;w;132.00;0.00;1
29;valtas;w;132.50;0.00;1
30;rejtekhely in [Q out: fej+test ki];q;134.50;0.00;1
31;q-end;Q;135.50;1.00;1
32;valtas;w;136.00;0.00;1
33;rejtekhely in [Q out: fej+test ki];q;136.00;0.00;1
34;q-end;Q;139.00;3.00;1
35;valtas;w;140.00;0.00;1
36;rejtekhely in [Q out: fej+test ki];q;141.00;0.00;1
37;q-end;Q;144.00;3.00;1
38;valtas;w;144.50;0.00;1
39;valtas;w;145.50;0.00;1
40;valtas;w;149.00;0.00;1
41;valtas;w;150.00;0.00;1
42;valtas;w;154.00;0.00;1
43;valtas;w;155.50;0.00;1
44;valtas;w;172.50;0.00;1
45;valtas;w;175.00;0.00;1
46;valtas;w;177.00;0.00;1
47;rejtekhely in [Q out: fej+test ki];q;177.50;0.00;1
48;q-end;Q;180.00;2.50;1
49;valtas;w;180.50;0.00;1
50;valtas;w;181.00;0.00;1
51;valtas;w;181.50;0.00;1
52;valtas;w;184.50;0.00;1
53;valtas;w;186.00;0.00;1
54;valtas;w;187.50;0.00;1
55;valtas;w;192.00;0.00;1
56;valtas;w;192.50;0.00;1
57;valtas;w;193.00;0.00;1
58;valtas;w;194.50;0.00;1
59;valtas;w;211.00;0.00;1
60;valtas;w;221.00;0.00;1
61;valtas;w;221.50;0.00;1
62;valtas;w;223.50;0.00;1
63;valtas;w;226.50;0.00;1
64;valtas;w;227.00;0.00;1
65;rejtekhely in [Q out: fej+test ki];q;228.00;0.00;1
#66;q-end;Q;230.00;2.00;1
67;q-end;Q;234.00;6.00;1
68;valtas;w;234.50;0.00;1
69;valtas;w;235.00;0.00;1
70;valtas;w;240.00;0.00;1
71;rejtekhely in [Q out: fej+test ki];q;241.00;0.00;1
72;q-end;Q;242.00;1.00;1
73;valtas;w;243.00;0.00;1
74;valtas;w;245.00;0.00;1
75;valtas;w;246.50;0.00;1
76;valtas;w;257.50;0.00;1
77;valtas;w;258.00;0.00;1
78;valtas;w;262.00;0.00;1
79;valtas;w;263.00;0.00;1
80;valtas;w;271.50;0.00;1
81;valtas;w;272.50;0.00;1
82;valtas;w;275.00;0.00;1
83;valtas;w;278.00;0.00;1
84;valtas;w;279.00;0.00;1
#85;rejtekhely in [Q out: fej+test ki];q;280.00;0.00;1
86;valtas;w;281.50;0.00;1
87;valtas;w;312.00;0.00;1
88;valtas;w;314.50;0.00;1
89;valtas;w;317.00;0.00;1
90;valtas;w;319.50;0.00;1
91;valtas;w;323.00;0.00;1
92;valtas;w;326.50;0.00;1
93;rejtekhely in [Q out: fej+test ki];q;335.00;0.00;1
94;q-end;Q;336.00;1.00;1
95;valtas;w;337.00;0.00;1
96;valtas;w;337.00;0.00;1
97;valtas;w;338.00;0.00;1
98;valtas;w;340.50;0.00;1
99;valtas;w;341.50;0.00;1
100;valtas;w;343.50;0.00;1
101;valtas;w;345.00;0.00;1
102;valtas;w;346.50;0.00;1
103;valtas;w;350.50;0.00;1
104;valtas;w;364.00;0.00;1
105;valtas;w;366.50;0.00;1
106;valtas;w;367.00;0.00;1
107;valtas;w;368.50;0.00;1
108;rejtekhely in [Q out: fej+test ki];q;378.00;0.00;1
109;q-end;Q;384.50;6.50;1
110;valtas;w;392.50;0.00;1
111;valtas;w;394.50;0.00;1
112;valtas;w;399.00;0.00;1
113;valtas;w;409.00;0.00;1
114;valtas;w;411.00;0.00;1
115;valtas;w;412.50;0.00;1
116;valtas;w;415.00;0.00;1
117;valtas;w;416.50;0.00;1
118;valtas;w;420.00;0.00;1
119;valtas;w;425.50;0.00;1
120;valtas;w;429.50;0.00;1
121;valtas;w;512.50;0.00;1
122;valtas;w;513.00;0.00;1
123;valtas;w;514.00;0.00;1
124;valtas;w;514.50;0.00;1
125;valtas;w;515.00;0.00;1
126;valtas;w;516.00;0.00;1
127;valtas;w;521.50;0.00;1
128;valtas;w;524.00;0.00;1
129;valtas;w;526.00;0.00;1
130;valtas;w;530.00;0.00;1
131;valtas;w;532.50;0.00;1
132;valtas;w;537.00;0.00;1
133;valtas;w;557.00;0.00;1
134;valtas;w;557.50;0.00;1
135;valtas;w;559.00;0.00;1
136;valtas;w;559.50;0.00;1
137;valtas;w;560.00;0.00;1
138;valtas;w;561.50;0.00;1
139;rejtekhely in [Q out: fej+test ki];q;564.50;0.00;1
140;q-end;Q;565.50;1.00;1
141;valtas;w;566.50;0.00;1
142;valtas;w;566.50;0.00;1
143;valtas;w;568.50;0.00;1
144;valtas;w;570.00;0.00;1
145;valtas;w;571.50;0.00;1
146;valtas;w;572.00;0.00;1
147;valtas;w;573.50;0.00;1
148;valtas;w;583.00;0.00;1
149;valtas;w;588.00;0.00;1
150;valtas;w;589.00;0.00;1
151;valtas;w;590.50;0.00;1
152;valtas;w;594.00;0.00;1
153;valtas;w;595.50;0.00;1
154;valtas;w;596.00;0.00;1
155;valtas;w;603.50;0.00;1
156;valtas;w;604.50;0.00;1
157;valtas;w;607.50;0.00;1
158;valtas;w;609.00;0.00;1
159;valtas;w;615.00;0.00;1
160;valtas;w;616.00;0.00;1
161;valtas;w;631.00;0.00;1
162;valtas;w;632.50;0.00;1
163;valtas;w;643.50;0.00;1
164;valtas;w;647.00;0.00;1
165;rejtekhely in [Q out: fej+test ki];q;647.50;0.00;1
166;q-end;Q;648.50;1.00;1
167;valtas;w;649.00;0.00;1
168;valtas;w;653.00;0.00;1
169;valtas;w;653.50;0.00;1
170;valtas;w;683.00;0.00;1
171;valtas;w;686.00;0.00;1
172;valtas;w;687.50;0.00;1
173;valtas;w;689.00;0.00;1
174;valtas;w;692.50;0.00;1
175;valtas;w;693.50;0.00;1
176;valtas;w;696.00;0.00;1
177;valtas;w;698.50;0.00;1
178;valtas;w;700.00;0.00;1
179;valtas;w;702.00;0.00;1
180;valtas;w;705.50;0.00;1
181;valtas;w;708.00;0.00;1
182;valtas;w;751.00;0.00;1
183;valtas;w;752.50;0.00;1
184;valtas;w;752.50;0.00;1
185;rejtekhely in [Q out: fej+test ki];q;753.00;0.00;1
186;q-end;Q;754.50;1.50;1
187;valtas;w;755.00;0.00;1
188;valtas;w;757.00;0.00;1
189;valtas;w;757.50;0.00;1
190;valtas;w;761.50;0.00;1
191;valtas;w;763.00;0.00;1
192;valtas;w;767.50;0.00;1
193;valtas;w;770.00;0.00;1
194;valtas;w;773.00;0.00;1
195;valtas;w;774.50;0.00;1
196;valtas;w;777.00;0.00;1
197;valtas;w;835.00;0.00;1
198;valtas;w;837.50;0.00;1
199;valtas;w;845.50;0.00;1
200;valtas;w;846.50;0.00;1
#201;valtas;w;852.50;0.00;1
202;rejtekhely in [Q out: fej+test ki];q;851.00;0.00;1
203;q-end;Q;883.00;32.00;1
204;valtas;w;895.50;0.00;1
205;valtas;w;898.50;0.00;1
206;valtas;w;900.50;0.00;1
207;valtas;w;901.00;0.00;1
