#Video File Name: 11_exploration_9.avi
#Project ID: 11_exploration_9
#Event codes:
#1 start
#w valtas
#q rejtekhely in [Q out: fej+test ki]
#
#Field separator: ;
#MWrap version: Wed Feb 14 09:50:29 CET 2018
#id;description;key;time;duration;object id
1;start;1;0.50;0.00;1
2;valtas;w;40.00;0.00;1
3;valtas;w;65.50;0.00;1
4;rejtekhely in [Q out: fej+test ki];q;293.00;0.00;1
5;q-end;Q;377.50;84.50;1
6;valtas;w;379.00;0.00;1
7;rejtekhely in [Q out: fej+test ki];q;396.00;0.00;1
8;q-end;Q;409.00;13.00;1
9;valtas;w;410.50;0.00;1
10;valtas;w;448.50;0.00;1
11;valtas;w;452.00;0.00;1
12;valtas;w;456.00;0.00;1
13;valtas;w;482.00;0.00;1
14;rejtekhely in [Q out: fej+test ki];q;483.50;0.00;1
15;q-end;Q;490.00;6.50;1
16;valtas;w;491.00;0.00;1
17;valtas;w;491.00;0.00;1
18;valtas;w;492.00;0.00;1
19;valtas;w;498.00;0.00;1
20;valtas;w;498.50;0.00;1
21;valtas;w;500.50;0.00;1
22;valtas;w;504.00;0.00;1
23;valtas;w;527.00;0.00;1
24;valtas;w;531.50;0.00;1
25;valtas;w;534.50;0.00;1
26;valtas;w;541.00;0.00;1
27;valtas;w;542.50;0.00;1
28;valtas;w;543.00;0.00;1
29;valtas;w;552.50;0.00;1
30;valtas;w;571.00;0.00;1
31;valtas;w;572.00;0.00;1
32;valtas;w;572.50;0.00;1
33;valtas;w;581.00;0.00;1
34;valtas;w;588.50;0.00;1
35;valtas;w;594.50;0.00;1
36;valtas;w;598.00;0.00;1
37;valtas;w;600.50;0.00;1
38;valtas;w;604.50;0.00;1
39;valtas;w;610.50;0.00;1
40;valtas;w;611.50;0.00;1
41;valtas;w;642.00;0.00;1
42;valtas;w;643.00;0.00;1
43;valtas;w;644.50;0.00;1
44;valtas;w;688.00;0.00;1
45;valtas;w;694.00;0.00;1
46;valtas;w;720.50;0.00;1
47;valtas;w;722.00;0.00;1
48;valtas;w;759.50;0.00;1
49;valtas;w;761.00;0.00;1
50;valtas;w;764.50;0.00;1
51;valtas;w;774.00;0.00;1
52;rejtekhely in [Q out: fej+test ki];q;775.50;0.00;1
53;q-end;Q;776.50;1.00;1
54;valtas;w;777.00;0.00;1
55;valtas;w;789.50;0.00;1
56;valtas;w;801.00;0.00;1
57;valtas;w;801.50;0.00;1
58;valtas;w;804.50;0.00;1
59;valtas;w;806.00;0.00;1
60;valtas;w;809.50;0.00;1
61;valtas;w;817.00;0.00;1
62;valtas;w;832.00;0.00;1
63;valtas;w;833.50;0.00;1
64;valtas;w;837.00;0.00;1
65;valtas;w;847.00;0.00;1
66;valtas;w;849.50;0.00;1
67;valtas;w;857.00;0.00;1
68;valtas;w;860.00;0.00;1
69;valtas;w;864.50;0.00;1
70;valtas;w;867.50;0.00;1
71;rejtekhely in [Q out: fej+test ki];q;869.00;0.00;1
72;q-end;Q;870.00;1.00;1
73;valtas;w;870.50;0.00;1
74;valtas;w;883.00;0.00;1
75;valtas;w;885.00;0.00;1
76;valtas;w;890.50;0.00;1
77;valtas;w;904.50;0.00;1
#78;start;1;904.50;0.00;1
79;start;1;904.50;0.00;1
