#Video File Name: 12_exploration_8.avi
#Project ID: 12_exploration_8
#Event codes:
#1 start
#w valtas
#q rejtekhely in [Q out: fej+test ki]
#
#Field separator: ;
#MWrap version: Wed Feb 14 09:50:29 CET 2018
#id;description;key;time;duration;object id
1;start;1;0.50;0.00;1
2;rejtekhely in [Q out: fej+test ki];q;0.50;0.00;1
3;q-end;Q;131.50;131.00;1
4;valtas;w;141.50;0.00;1
5;valtas;w;142.00;0.00;1
6;valtas;w;143.00;0.00;1
7;valtas;w;144.00;0.00;1
8;valtas;w;144.50;0.00;1
9;valtas;w;146.00;0.00;1
10;valtas;w;147.00;0.00;1
11;valtas;w;151.00;0.00;1
12;valtas;w;163.00;0.00;1
13;valtas;w;165.00;0.00;1
14;valtas;w;165.50;0.00;1
15;valtas;w;166.00;0.00;1
16;valtas;w;166.50;0.00;1
17;valtas;w;168.50;0.00;1
18;valtas;w;169.50;0.00;1
19;valtas;w;171.00;0.00;1
20;valtas;w;171.50;0.00;1
21;valtas;w;173.50;0.00;1
22;valtas;w;179.50;0.00;1
23;valtas;w;181.50;0.00;1
24;valtas;w;182.00;0.00;1
25;valtas;w;182.50;0.00;1
26;valtas;w;183.00;0.00;1
27;valtas;w;184.00;0.00;1
28;valtas;w;185.00;0.00;1
29;valtas;w;186.00;0.00;1
30;valtas;w;195.00;0.00;1
31;valtas;w;195.50;0.00;1
32;valtas;w;198.50;0.00;1
33;valtas;w;199.50;0.00;1
34;valtas;w;200.00;0.00;1
35;valtas;w;201.00;0.00;1
36;valtas;w;204.00;0.00;1
37;valtas;w;205.00;0.00;1
38;valtas;w;210.00;0.00;1
39;valtas;w;210.50;0.00;1
40;valtas;w;212.00;0.00;1
41;valtas;w;213.50;0.00;1
42;valtas;w;214.50;0.00;1
43;valtas;w;215.50;0.00;1
44;valtas;w;218.00;0.00;1
45;valtas;w;219.50;0.00;1
46;valtas;w;230.00;0.00;1
47;valtas;w;230.50;0.00;1
48;valtas;w;232.00;0.00;1
49;valtas;w;232.50;0.00;1
50;valtas;w;235.50;0.00;1
51;valtas;w;236.50;0.00;1
52;valtas;w;237.50;0.00;1
53;valtas;w;240.50;0.00;1
54;valtas;w;241.00;0.00;1
55;valtas;w;241.50;0.00;1
#56;valtas;w;248.50;0.00;1
57;valtas;w;252.00;0.00;1
58;valtas;w;271.50;0.00;1
59;valtas;w;273.50;0.00;1
60;valtas;w;274.50;0.00;1
61;valtas;w;275.00;0.00;1
62;valtas;w;276.00;0.00;1
63;valtas;w;279.00;0.00;1
64;valtas;w;280.00;0.00;1
65;valtas;w;283.50;0.00;1
66;valtas;w;309.00;0.00;1
67;valtas;w;310.50;0.00;1
68;valtas;w;311.50;0.00;1
69;valtas;w;312.50;0.00;1
70;valtas;w;313.50;0.00;1
71;valtas;w;317.00;0.00;1
72;valtas;w;318.00;0.00;1
73;valtas;w;327.50;0.00;1
74;valtas;w;328.00;0.00;1
75;valtas;w;330.50;0.00;1
76;valtas;w;332.00;0.00;1
77;valtas;w;333.00;0.00;1
78;valtas;w;333.50;0.00;1
79;valtas;w;334.00;0.00;1
80;valtas;w;335.00;0.00;1
81;valtas;w;336.00;0.00;1
82;valtas;w;336.50;0.00;1
83;valtas;w;337.50;0.00;1
84;valtas;w;340.00;0.00;1
85;valtas;w;341.00;0.00;1
86;valtas;w;343.00;0.00;1
87;valtas;w;343.50;0.00;1
88;valtas;w;347.50;0.00;1
89;valtas;w;348.50;0.00;1
90;valtas;w;373.00;0.00;1
91;valtas;w;373.00;0.00;1
92;valtas;w;374.00;0.00;1
93;valtas;w;374.50;0.00;1
94;valtas;w;375.00;0.00;1
95;valtas;w;376.00;0.00;1
96;valtas;w;378.00;0.00;1
97;valtas;w;378.50;0.00;1
98;valtas;w;383.00;0.00;1
99;valtas;w;384.00;0.00;1
100;valtas;w;389.00;0.00;1
101;valtas;w;391.00;0.00;1
102;valtas;w;415.00;0.00;1
103;valtas;w;418.50;0.00;1
104;valtas;w;421.00;0.00;1
105;valtas;w;421.50;0.00;1
106;valtas;w;423.00;0.00;1
107;valtas;w;424.00;0.00;1
108;valtas;w;426.50;0.00;1
109;valtas;w;428.00;0.00;1
110;valtas;w;432.50;0.00;1
111;valtas;w;534.50;0.00;1
112;valtas;w;535.00;0.00;1
113;valtas;w;535.50;0.00;1
114;valtas;w;536.00;0.00;1
115;valtas;w;536.50;0.00;1
116;valtas;w;541.00;0.00;1
117;valtas;w;542.00;0.00;1
118;valtas;w;545.50;0.00;1
119;valtas;w;548.50;0.00;1
120;valtas;w;550.00;0.00;1
121;valtas;w;551.00;0.00;1
122;valtas;w;552.00;0.00;1
123;valtas;w;553.00;0.00;1
124;valtas;w;554.50;0.00;1
125;valtas;w;555.00;0.00;1
126;valtas;w;559.00;0.00;1
127;valtas;w;561.50;0.00;1
128;valtas;w;562.50;0.00;1
129;valtas;w;563.50;0.00;1
130;valtas;w;564.50;0.00;1
131;valtas;w;566.00;0.00;1
132;valtas;w;569.50;0.00;1
133;valtas;w;570.00;0.00;1
134;valtas;w;585.50;0.00;1
135;valtas;w;586.00;0.00;1
136;valtas;w;589.00;0.00;1
137;valtas;w;590.00;0.00;1
138;valtas;w;591.00;0.00;1
139;valtas;w;591.50;0.00;1
140;valtas;w;595.00;0.00;1
141;valtas;w;596.00;0.00;1
142;valtas;w;601.00;0.00;1
143;valtas;w;602.50;0.00;1
144;valtas;w;608.50;0.00;1
145;valtas;w;609.50;0.00;1
146;valtas;w;612.50;0.00;1
147;valtas;w;613.50;0.00;1
148;valtas;w;614.00;0.00;1
149;valtas;w;615.00;0.00;1
150;valtas;w;616.00;0.00;1
151;valtas;w;618.50;0.00;1
152;valtas;w;619.50;0.00;1
153;valtas;w;628.00;0.00;1
154;valtas;w;629.00;0.00;1
155;valtas;w;636.00;0.00;1
156;valtas;w;636.50;0.00;1
157;valtas;w;637.00;0.00;1
158;valtas;w;637.50;0.00;1
159;valtas;w;638.00;0.00;1
160;valtas;w;639.50;0.00;1
161;valtas;w;642.00;0.00;1
162;valtas;w;642.50;0.00;1
163;valtas;w;644.00;0.00;1
164;valtas;w;644.50;0.00;1
165;valtas;w;651.50;0.00;1
166;valtas;w;654.00;0.00;1
167;valtas;w;660.00;0.00;1
168;valtas;w;662.00;0.00;1
169;valtas;w;663.00;0.00;1
170;valtas;w;667.50;0.00;1
171;valtas;w;671.00;0.00;1
172;valtas;w;675.50;0.00;1
173;valtas;w;676.50;0.00;1
174;valtas;w;692.50;0.00;1
175;valtas;w;693.00;0.00;1
176;valtas;w;695.00;0.00;1
177;valtas;w;696.00;0.00;1
178;valtas;w;697.50;0.00;1
179;valtas;w;698.00;0.00;1
180;valtas;w;701.50;0.00;1
181;valtas;w;702.00;0.00;1
182;valtas;w;706.00;0.00;1
183;valtas;w;718.00;0.00;1
184;valtas;w;720.00;0.00;1
185;valtas;w;721.00;0.00;1
186;valtas;w;721.50;0.00;1
187;valtas;w;722.50;0.00;1
188;valtas;w;724.50;0.00;1
189;valtas;w;725.00;0.00;1
190;valtas;w;727.50;0.00;1
191;valtas;w;729.50;0.00;1
192;valtas;w;732.50;0.00;1
193;valtas;w;733.00;0.00;1
194;valtas;w;734.50;0.00;1
195;valtas;w;735.00;0.00;1
196;valtas;w;737.50;0.00;1
197;valtas;w;738.00;0.00;1
198;valtas;w;740.50;0.00;1
199;valtas;w;742.50;0.00;1
200;valtas;w;746.50;0.00;1
201;valtas;w;761.00;0.00;1
202;valtas;w;762.50;0.00;1
203;valtas;w;763.50;0.00;1
204;valtas;w;764.50;0.00;1
205;valtas;w;765.50;0.00;1
206;valtas;w;767.50;0.00;1
207;valtas;w;768.50;0.00;1
208;valtas;w;771.50;0.00;1
209;valtas;w;779.50;0.00;1
210;valtas;w;781.00;0.00;1
211;valtas;w;783.00;0.00;1
212;valtas;w;783.50;0.00;1
213;valtas;w;785.00;0.00;1
214;valtas;w;788.00;0.00;1
215;valtas;w;788.50;0.00;1
216;valtas;w;791.50;0.00;1
217;valtas;w;799.00;0.00;1
218;valtas;w;800.00;0.00;1
219;valtas;w;801.00;0.00;1
220;valtas;w;802.00;0.00;1
221;valtas;w;803.00;0.00;1
222;valtas;w;806.00;0.00;1
223;valtas;w;806.50;0.00;1
224;valtas;w;809.50;0.00;1
225;valtas;w;823.00;0.00;1
226;valtas;w;824.50;0.00;1
227;valtas;w;825.00;0.00;1
228;valtas;w;826.00;0.00;1
229;valtas;w;827.50;0.00;1
230;valtas;w;828.50;0.00;1
231;valtas;w;829.00;0.00;1
232;valtas;w;830.00;0.00;1
233;valtas;w;830.50;0.00;1
#234;valtas;w;834.00;0.00;1
235;valtas;w;838.50;0.00;1
236;valtas;w;840.00;0.00;1
237;valtas;w;842.50;0.00;1
238;valtas;w;847.00;0.00;1
239;valtas;w;851.00;0.00;1
240;valtas;w;851.50;0.00;1
241;valtas;w;853.00;0.00;1
242;valtas;w;853.50;0.00;1
243;valtas;w;856.50;0.00;1
244;valtas;w;857.00;0.00;1
245;valtas;w;863.50;0.00;1
246;valtas;w;872.50;0.00;1
247;valtas;w;873.50;0.00;1
248;valtas;w;874.50;0.00;1
249;valtas;w;875.00;0.00;1
250;valtas;w;876.00;0.00;1
251;valtas;w;877.50;0.00;1
252;valtas;w;877.50;0.00;1
253;valtas;w;878.50;0.00;1
254;valtas;w;879.50;0.00;1
255;valtas;w;889.00;0.00;1
256;valtas;w;889.00;0.00;1
