#Video File Name: 12_exploration_4.avi
#Project ID: 12_exploration_4
#Event codes:
#1 start
#w valtas
#q rejtekhely in [Q out: fej+test ki]
#
#Field separator: ;
#MWrap version: Wed Feb 14 09:50:29 CET 2018
#id;description;key;time;duration;object id
1;start;1;0.50;0.00;1
2;valtas;w;11.50;0.00;1
3;valtas;w;15.00;0.00;1
4;valtas;w;20.00;0.00;1
5;valtas;w;20.50;0.00;1
6;valtas;w;21.00;0.00;1
7;valtas;w;21.50;0.00;1
8;valtas;w;22.50;0.00;1
9;valtas;w;23.00;0.00;1
10;valtas;w;25.00;0.00;1
11;valtas;w;26.00;0.00;1
12;valtas;w;28.50;0.00;1
13;valtas;w;41.50;0.00;1
14;valtas;w;43.50;0.00;1
15;valtas;w;44.50;0.00;1
16;valtas;w;44.50;0.00;1
17;rejtekhely in [Q out: fej+test ki];q;45.00;0.00;1
18;q-end;Q;45.50;0.50;1
19;valtas;w;46.00;0.00;1
20;valtas;w;47.00;0.00;1
21;valtas;w;47.50;0.00;1
22;valtas;w;53.50;0.00;1
23;valtas;w;54.50;0.00;1
24;valtas;w;60.00;0.00;1
25;valtas;w;61.50;0.00;1
26;valtas;w;62.50;0.00;1
27;rejtekhely in [Q out: fej+test ki];q;62.50;0.00;1
28;q-end;Q;63.50;1.00;1
29;valtas;w;64.00;0.00;1
30;valtas;w;64.00;0.00;1
31;valtas;w;68.00;0.00;1
32;valtas;w;69.50;0.00;1
33;valtas;w;71.50;0.00;1
34;valtas;w;74.50;0.00;1
35;valtas;w;75.00;0.00;1
36;valtas;w;75.50;0.00;1
37;valtas;w;76.00;0.00;1
38;valtas;w;76.50;0.00;1
39;valtas;w;77.00;0.00;1
40;valtas;w;80.50;0.00;1
41;valtas;w;86.00;0.00;1
42;valtas;w;88.50;0.00;1
43;valtas;w;89.50;0.00;1
44;valtas;w;90.50;0.00;1
45;valtas;w;91.50;0.00;1
46;valtas;w;93.50;0.00;1
47;valtas;w;95.50;0.00;1
48;valtas;w;98.00;0.00;1
49;valtas;w;99.50;0.00;1
50;valtas;w;101.00;0.00;1
51;valtas;w;101.50;0.00;1
52;valtas;w;102.00;0.00;1
53;valtas;w;102.50;0.00;1
54;valtas;w;111.00;0.00;1
55;valtas;w;120.50;0.00;1
56;valtas;w;122.50;0.00;1
57;valtas;w;123.50;0.00;1
58;valtas;w;125.00;0.00;1
59;valtas;w;126.50;0.00;1
60;valtas;w;127.00;0.00;1
61;valtas;w;127.50;0.00;1
62;valtas;w;131.00;0.00;1
63;valtas;w;145.00;0.00;1
64;valtas;w;145.50;0.00;1
65;valtas;w;146.00;0.00;1
66;valtas;w;146.50;0.00;1
67;rejtekhely in [Q out: fej+test ki];q;147.00;0.00;1
68;q-end;Q;147.50;0.50;1
69;valtas;w;148.00;0.00;1
70;valtas;w;148.50;0.00;1
71;valtas;w;150.50;0.00;1
72;valtas;w;151.50;0.00;1
73;valtas;w;154.00;0.00;1
74;valtas;w;160.50;0.00;1
75;valtas;w;162.00;0.00;1
76;valtas;w;162.50;0.00;1
77;valtas;w;163.50;0.00;1
78;valtas;w;164.50;0.00;1
79;valtas;w;165.00;0.00;1
80;valtas;w;165.50;0.00;1
81;valtas;w;167.50;0.00;1
82;valtas;w;168.00;0.00;1
83;valtas;w;169.00;0.00;1
84;valtas;w;169.50;0.00;1
85;valtas;w;171.50;0.00;1
86;valtas;w;172.50;0.00;1
87;valtas;w;175.50;0.00;1
88;valtas;w;176.50;0.00;1
89;valtas;w;177.50;0.00;1
90;valtas;w;179.00;0.00;1
91;valtas;w;179.50;0.00;1
92;valtas;w;180.00;0.00;1
93;valtas;w;183.50;0.00;1
94;valtas;w;185.00;0.00;1
95;valtas;w;191.00;0.00;1
96;valtas;w;193.50;0.00;1
97;valtas;w;200.00;0.00;1
#98;valtas;w;204.00;0.00;1
99;valtas;w;223.50;0.00;1
100;valtas;w;224.00;0.00;1
101;valtas;w;225.50;0.00;1
102;valtas;w;226.50;0.00;1
103;valtas;w;227.50;0.00;1
104;valtas;w;228.00;0.00;1
105;valtas;w;228.50;0.00;1
106;valtas;w;231.50;0.00;1
107;valtas;w;233.50;0.00;1
108;valtas;w;237.00;0.00;1
109;valtas;w;239.00;0.00;1
110;valtas;w;239.50;0.00;1
111;rejtekhely in [Q out: fej+test ki];q;239.50;0.00;1
112;q-end;Q;240.50;1.00;1
113;valtas;w;242.00;0.00;1
114;valtas;w;242.50;0.00;1
115;valtas;w;242.50;0.00;1
116;valtas;w;246.00;0.00;1
117;valtas;w;249.00;0.00;1
118;valtas;w;252.00;0.00;1
119;valtas;w;253.00;0.00;1
120;valtas;w;254.00;0.00;1
121;valtas;w;255.00;0.00;1
122;valtas;w;256.00;0.00;1
123;valtas;w;256.50;0.00;1
124;valtas;w;257.00;0.00;1
125;valtas;w;260.00;0.00;1
126;valtas;w;261.00;0.00;1
127;valtas;w;264.00;0.00;1
128;valtas;w;279.50;0.00;1
129;valtas;w;280.00;0.00;1
130;valtas;w;281.00;0.00;1
131;valtas;w;281.50;0.00;1
132;valtas;w;282.50;0.00;1
133;valtas;w;283.00;0.00;1
134;valtas;w;286.00;0.00;1
135;valtas;w;292.00;0.00;1
136;valtas;w;294.50;0.00;1
137;valtas;w;296.00;0.00;1
138;valtas;w;296.50;0.00;1
139;valtas;w;297.50;0.00;1
140;valtas;w;298.00;0.00;1
141;valtas;w;298.50;0.00;1
142;valtas;w;299.00;0.00;1
#143;valtas;w;301.00;0.00;1
144;valtas;w;303.00;0.00;1
145;valtas;w;306.00;0.00;1
146;valtas;w;308.50;0.00;1
147;valtas;w;309.50;0.00;1
148;valtas;w;310.00;0.00;1
149;rejtekhely in [Q out: fej+test ki];q;310.50;0.00;1
150;q-end;Q;311.50;1.00;1
151;valtas;w;312.00;0.00;1
152;valtas;w;312.50;0.00;1
153;valtas;w;313.00;0.00;1
154;valtas;w;315.00;0.00;1
155;valtas;w;316.00;0.00;1
156;valtas;w;319.50;0.00;1
157;rejtekhely in [Q out: fej+test ki];q;321.00;0.00;1
158;q-end;Q;321.50;0.50;1
159;valtas;w;322.50;0.00;1
160;valtas;w;322.50;0.00;1
161;valtas;w;324.00;0.00;1
162;valtas;w;324.50;0.00;1
163;valtas;w;326.00;0.00;1
164;valtas;w;330.50;0.00;1
165;valtas;w;333.50;0.00;1
166;valtas;w;334.50;0.00;1
167;valtas;w;337.50;0.00;1
168;valtas;w;341.50;0.00;1
169;valtas;w;343.50;0.00;1
170;valtas;w;345.00;0.00;1
171;valtas;w;345.50;0.00;1
172;valtas;w;347.50;0.00;1
173;valtas;w;348.00;0.00;1
174;valtas;w;348.50;0.00;1
175;valtas;w;352.00;0.00;1
176;valtas;w;363.00;0.00;1
177;valtas;w;365.00;0.00;1
178;valtas;w;366.00;0.00;1
179;valtas;w;367.00;0.00;1
180;valtas;w;368.00;0.00;1
181;valtas;w;369.50;0.00;1
182;valtas;w;370.50;0.00;1
183;valtas;w;371.50;0.00;1
184;valtas;w;374.00;0.00;1
185;valtas;w;377.00;0.00;1
186;valtas;w;380.00;0.00;1
187;valtas;w;381.00;0.00;1
188;valtas;w;382.00;0.00;1
189;valtas;w;383.00;0.00;1
190;valtas;w;384.00;0.00;1
191;valtas;w;384.50;0.00;1
192;valtas;w;387.00;0.00;1
193;valtas;w;389.00;0.00;1
194;valtas;w;395.00;0.00;1
195;valtas;w;396.50;0.00;1
196;valtas;w;398.00;0.00;1
197;rejtekhely in [Q out: fej+test ki];q;398.00;0.00;1
198;q-end;Q;398.50;0.50;1
199;valtas;w;398.00;0.00;1
200;valtas;w;399.00;0.00;1
201;valtas;w;399.50;0.00;1
202;valtas;w;406.00;0.00;1
#203;valtas;w;407.00;0.00;1
204;valtas;w;409.50;0.00;1
205;valtas;w;410.50;0.00;1
206;valtas;w;411.00;0.00;1
207;valtas;w;415.50;0.00;1
208;valtas;w;416.50;0.00;1
209;valtas;w;418.00;0.00;1
210;valtas;w;418.50;0.00;1
211;rejtekhely in [Q out: fej+test ki];q;427.00;0.00;1
212;q-end;Q;435.50;8.50;1
213;valtas;w;436.50;0.00;1
214;valtas;w;436.50;0.00;1
215;valtas;w;438.00;0.00;1
216;valtas;w;440.50;0.00;1
217;valtas;w;441.00;0.00;1
218;valtas;w;442.50;0.00;1
219;valtas;w;443.00;0.00;1
220;valtas;w;444.50;0.00;1
221;valtas;w;446.50;0.00;1
222;valtas;w;447.50;0.00;1
223;valtas;w;448.50;0.00;1
224;valtas;w;451.00;0.00;1
225;valtas;w;453.50;0.00;1
226;valtas;w;454.00;0.00;1
227;valtas;w;457.00;0.00;1
228;valtas;w;478.50;0.00;1
229;valtas;w;481.50;0.00;1
230;valtas;w;482.00;0.00;1
231;valtas;w;483.00;0.00;1
232;valtas;w;483.50;0.00;1
233;valtas;w;485.00;0.00;1
234;valtas;w;486.00;0.00;1
235;valtas;w;491.00;0.00;1
236;valtas;w;494.00;0.00;1
237;valtas;w;495.50;0.00;1
238;valtas;w;496.00;0.00;1
239;valtas;w;499.00;0.00;1
240;valtas;w;508.00;0.00;1
241;valtas;w;510.00;0.00;1
242;valtas;w;510.50;0.00;1
243;valtas;w;511.50;0.00;1
244;valtas;w;513.00;0.00;1
245;valtas;w;514.00;0.00;1
246;valtas;w;514.50;0.00;1
247;valtas;w;518.00;0.00;1
248;valtas;w;529.00;0.00;1
249;valtas;w;529.50;0.00;1
250;valtas;w;531.00;0.00;1
251;valtas;w;531.50;0.00;1
252;rejtekhely in [Q out: fej+test ki];q;531.50;0.00;1
253;q-end;Q;532.50;1.00;1
254;valtas;w;533.50;0.00;1
255;valtas;w;533.50;0.00;1
256;valtas;w;535.00;0.00;1
257;valtas;w;534.50;0.00;1
258;valtas;w;539.00;0.00;1
259;valtas;w;539.50;0.00;1
260;valtas;w;540.50;0.00;1
261;valtas;w;542.50;0.00;1
262;valtas;w;545.50;0.00;1
263;valtas;w;561.00;0.00;1
264;valtas;w;562.00;0.00;1
265;valtas;w;563.00;0.00;1
266;valtas;w;563.50;0.00;1
267;valtas;w;564.00;0.00;1
268;valtas;w;567.50;0.00;1
269;valtas;w;571.00;0.00;1
270;valtas;w;577.50;0.00;1
271;valtas;w;578.50;0.00;1
272;valtas;w;580.50;0.00;1
273;valtas;w;581.00;0.00;1
274;rejtekhely in [Q out: fej+test ki];q;581.00;0.00;1
275;q-end;Q;581.50;0.50;1
276;valtas;w;581.50;0.00;1
277;valtas;w;582.00;0.00;1
278;valtas;w;586.50;0.00;1
279;rejtekhely in [Q out: fej+test ki];q;588.50;0.00;1
280;q-end;Q;589.50;1.00;1
281;valtas;w;590.00;0.00;1
282;valtas;w;590.00;0.00;1
283;valtas;w;596.50;0.00;1
284;valtas;w;597.00;0.00;1
285;valtas;w;601.00;0.00;1
286;valtas;w;605.50;0.00;1
287;valtas;w;609.50;0.00;1
288;valtas;w;613.00;0.00;1
289;valtas;w;613.50;0.00;1
290;valtas;w;614.00;0.00;1
291;rejtekhely in [Q out: fej+test ki];q;614.00;0.00;1
292;q-end;Q;614.50;0.50;1
293;valtas;w;615.50;0.00;1
294;valtas;w;616.00;0.00;1
295;valtas;w;616.50;0.00;1
296;valtas;w;619.00;0.00;1
297;valtas;w;621.50;0.00;1
298;valtas;w;625.00;0.00;1
299;valtas;w;626.50;0.00;1
300;valtas;w;627.50;0.00;1
301;valtas;w;628.50;0.00;1
302;rejtekhely in [Q out: fej+test ki];q;628.50;0.00;1
303;q-end;Q;629.50;1.00;1
304;valtas;w;630.00;0.00;1
305;valtas;w;630.50;0.00;1
306;valtas;w;635.50;0.00;1
307;valtas;w;648.50;0.00;1
308;valtas;w;652.00;0.00;1
309;valtas;w;653.00;0.00;1
310;valtas;w;653.50;0.00;1
311;valtas;w;655.00;0.00;1
312;valtas;w;655.50;0.00;1
313;valtas;w;656.00;0.00;1
314;valtas;w;659.50;0.00;1
315;valtas;w;681.00;0.00;1
316;valtas;w;682.00;0.00;1
317;valtas;w;683.00;0.00;1
318;valtas;w;684.50;0.00;1
319;valtas;w;685.50;0.00;1
320;valtas;w;686.00;0.00;1
321;valtas;w;686.50;0.00;1
322;valtas;w;689.50;0.00;1
323;valtas;w;704.50;0.00;1
324;valtas;w;707.00;0.00;1
325;valtas;w;708.50;0.00;1
326;valtas;w;709.50;0.00;1
327;valtas;w;710.50;0.00;1
328;valtas;w;711.00;0.00;1
329;valtas;w;711.50;0.00;1
330;valtas;w;714.50;0.00;1
331;valtas;w;717.00;0.00;1
332;valtas;w;722.00;0.00;1
333;valtas;w;759.00;0.00;1
334;valtas;w;760.00;0.00;1
335;valtas;w;762.50;0.00;1
336;valtas;w;763.00;0.00;1
337;valtas;w;763.50;0.00;1
338;rejtekhely in [Q out: fej+test ki];q;763.50;0.00;1
339;q-end;Q;764.50;1.00;1
340;valtas;w;765.00;0.00;1
341;valtas;w;765.50;0.00;1
342;valtas;w;765.50;0.00;1
343;valtas;w;768.00;0.00;1
344;valtas;w;770.00;0.00;1
345;rejtekhely in [Q out: fej+test ki];q;774.00;0.00;1
346;q-end;Q;777.00;3.00;1
347;valtas;w;777.50;0.00;1
348;valtas;w;777.50;0.00;1
349;valtas;w;781.00;0.00;1
350;valtas;w;782.50;0.00;1
351;valtas;w;783.50;0.00;1
352;valtas;w;785.00;0.00;1
353;valtas;w;786.00;0.00;1
354;valtas;w;786.50;0.00;1
355;valtas;w;790.00;0.00;1
356;valtas;w;791.00;0.00;1
357;valtas;w;798.50;0.00;1
358;valtas;w;811.50;0.00;1
359;valtas;w;813.50;0.00;1
360;valtas;w;815.50;0.00;1
361;rejtekhely in [Q out: fej+test ki];q;816.00;0.00;1
362;q-end;Q;817.00;1.00;1
363;valtas;w;817.00;0.00;1
364;valtas;w;818.00;0.00;1
365;valtas;w;818.50;0.00;1
366;valtas;w;821.00;0.00;1
367;valtas;w;822.00;0.00;1
368;valtas;w;828.00;0.00;1
369;rejtekhely in [Q out: fej+test ki];q;830.00;0.00;1
370;q-end;Q;830.50;0.50;1
371;valtas;w;831.00;0.00;1
372;valtas;w;831.50;0.00;1
373;valtas;w;835.00;0.00;1
374;valtas;w;855.50;0.00;1
375;valtas;w;855.50;0.00;1
376;valtas;w;856.50;0.00;1
377;valtas;w;856.50;0.00;1
378;valtas;w;857.50;0.00;1
379;valtas;w;858.50;0.00;1
380;valtas;w;860.00;0.00;1
381;valtas;w;860.50;0.00;1
382;valtas;w;863.50;0.00;1
383;valtas;w;879.50;0.00;1
384;valtas;w;881.00;0.00;1
385;valtas;w;882.50;0.00;1
386;valtas;w;883.00;0.00;1
387;rejtekhely in [Q out: fej+test ki];q;883.00;0.00;1
388;q-end;Q;884.00;1.00;1
389;valtas;w;884.00;0.00;1
390;valtas;w;886.00;0.00;1
391;valtas;w;886.50;0.00;1
392;valtas;w;889.50;0.00;1
393;valtas;w;901.00;0.00;1
394;valtas;w;902.00;0.00;1
395;valtas;w;906.00;0.00;1
396;rejtekhely in [Q out: fej+test ki];q;906.50;0.00;1
397;q-end;Q;907.00;0.50;1
398;valtas;w;907.50;0.00;1
399;valtas;w;908.00;0.00;1
400;valtas;w;908.50;0.00;1
401;valtas;w;912.50;0.00;1
402;valtas;w;916.50;0.00;1
403;valtas;w;919.00;0.00;1
404;valtas;w;921.00;0.00;1
405;valtas;w;921.50;0.00;1
406;rejtekhely in [Q out: fej+test ki];q;921.50;0.00;1
407;q-end;Q;922.00;0.50;1
408;valtas;w;922.00;0.00;1
409;valtas;w;923.00;0.00;1
