#Video File Name: 16_exploration_8.avi
#Project ID: 16_exploration_8
#Event codes:
#1 start
#w valtas
#q rejtekhely in [Q out: fej+test ki]
#
#Field separator: ;
#MWrap version: Wed Feb 14 09:50:29 CET 2018
#id;description;key;time;duration;object id
1;start;1;0.50;0.00;1
2;valtas;w;68.50;0.00;1
3;valtas;w;110.00;0.00;1
4;valtas;w;123.50;0.00;1
5;valtas;w;124.50;0.00;1
6;valtas;w;135.50;0.00;1
7;valtas;w;137.50;0.00;1
8;rejtekhely in [Q out: fej+test ki];q;138.50;0.00;1
9;q-end;Q;139.50;1.00;1
10;valtas;w;141.50;0.00;1
11;valtas;w;150.00;0.00;1
12;valtas;w;202.00;0.00;1
13;rejtekhely in [Q out: fej+test ki];q;202.50;0.00;1
14;q-end;Q;205.00;2.50;1
15;valtas;w;206.00;0.00;1
16;rejtekhely in [Q out: fej+test ki];q;224.00;0.00;1
17;q-end;Q;226.50;2.50;1
18;valtas;w;227.00;0.00;1
19;valtas;w;231.00;0.00;1
20;valtas;w;234.50;0.00;1
21;valtas;w;244.50;0.00;1
22;valtas;w;247.00;0.00;1
23;valtas;w;300.50;0.00;1
24;valtas;w;304.00;0.00;1
25;valtas;w;312.00;0.00;1
26;valtas;w;313.50;0.00;1
27;valtas;w;317.00;0.00;1
28;valtas;w;349.50;0.00;1
29;valtas;w;354.00;0.00;1
30;valtas;w;398.00;0.00;1
31;valtas;w;398.50;0.00;1
32;valtas;w;400.00;0.00;1
33;valtas;w;404.50;0.00;1
34;valtas;w;405.50;0.00;1
35;valtas;w;409.00;0.00;1
36;valtas;w;414.50;0.00;1
37;valtas;w;421.00;0.00;1
38;valtas;w;437.50;0.00;1
39;valtas;w;454.00;0.00;1
40;valtas;w;456.00;0.00;1
41;valtas;w;473.50;0.00;1
42;valtas;w;491.50;0.00;1
43;valtas;w;498.50;0.00;1
44;valtas;w;500.50;0.00;1
45;valtas;w;527.00;0.00;1
46;valtas;w;527.50;0.00;1
47;valtas;w;529.50;0.00;1
48;valtas;w;532.00;0.00;1
49;valtas;w;550.00;0.00;1
50;rejtekhely in [Q out: fej+test ki];q;553.50;0.00;1
#51;q-end;Q;564.00;10.50;1
52;q-end;Q;573.00;19.50;1
53;valtas;w;604.50;0.00;1
54;valtas;w;648.00;0.00;1
55;valtas;w;649.50;0.00;1
56;valtas;w;654.50;0.00;1
57;valtas;w;692.50;0.00;1
58;valtas;w;699.50;0.00;1
59;valtas;w;704.50;0.00;1
60;valtas;w;741.50;0.00;1
61;rejtekhely in [Q out: fej+test ki];q;743.50;0.00;1
62;q-end;Q;748.50;5.00;1
63;valtas;w;754.50;0.00;1
64;valtas;w;756.50;0.00;1
65;valtas;w;803.00;0.00;1
66;rejtekhely in [Q out: fej+test ki];q;804.00;0.00;1
67;q-end;Q;805.50;1.50;1
68;valtas;w;806.50;0.00;1
69;valtas;w;806.50;0.00;1
70;valtas;w;813.50;0.00;1
71;valtas;w;817.50;0.00;1
72;rejtekhely in [Q out: fej+test ki];q;828.00;0.00;1
73;q-end;Q;831.00;3.00;1
74;valtas;w;831.00;0.00;1
75;valtas;w;831.50;0.00;1
76;valtas;w;832.50;0.00;1
77;valtas;w;833.00;0.00;1
78;valtas;w;833.50;0.00;1
79;valtas;w;838.00;0.00;1
80;valtas;w;839.50;0.00;1
81;valtas;w;841.00;0.00;1
82;valtas;w;847.00;0.00;1
83;valtas;w;848.50;0.00;1
84;valtas;w;891.50;0.00;1
85;valtas;w;903.50;0.00;1
86;valtas;w;907.00;0.00;1
