#Video File Name: 18_exploration_3.avi
#Project ID: 18_exploration_3
#Event codes:
#1 start
#w valtas
#q rejtekhely in [Q out: fej+test ki]
#
#Field separator: ;
#MWrap version: Wed Feb 14 09:50:29 CET 2018
#id;description;key;time;duration;object id
1;start;1;0.50;0.00;1
2;rejtekhely in [Q out: fej+test ki];q;1.00;0.00;1
3;q-end;Q;63.50;62.50;1
4;valtas;w;65.50;0.00;1
5;valtas;w;69.50;0.00;1
6;valtas;w;76.00;0.00;1
7;rejtekhely in [Q out: fej+test ki];q;73.50;0.00;1
9;q-end;Q;106.00;32.50;1
10;valtas;w;107.50;0.00;1
11;valtas;w;110.50;0.00;1
12;valtas;w;116.50;0.00;1
13;rejtekhely in [Q out: fej+test ki];q;118.00;0.00;1
14;q-end;Q;119.50;1.50;1
15;valtas;w;120.00;0.00;1
16;valtas;w;122.50;0.00;1
17;valtas;w;130.00;0.00;1
18;valtas;w;131.00;0.00;1
19;valtas;w;141.50;0.00;1
20;valtas;w;144.00;0.00;1
21;valtas;w;149.50;0.00;1
22;rejtekhely in [Q out: fej+test ki];q;151.50;0.00;1
23;q-end;Q;153.00;1.50;1
24;valtas;w;154.00;0.00;1
25;valtas;w;154.00;0.00;1
26;valtas;w;156.00;0.00;1
27;valtas;w;160.50;0.00;1
28;valtas;w;171.00;0.00;1
29;valtas;w;175.50;0.00;1
30;valtas;w;181.00;0.00;1
31;rejtekhely in [Q out: fej+test ki];q;181.50;0.00;1
32;q-end;Q;185.00;3.50;1
33;valtas;w;186.00;0.00;1
34;valtas;w;191.50;0.00;1
35;valtas;w;195.00;0.00;1
36;valtas;w;197.00;0.00;1
37;valtas;w;198.00;0.00;1
38;valtas;w;199.00;0.00;1
39;valtas;w;200.50;0.00;1
40;valtas;w;213.50;0.00;1
41;valtas;w;242.00;0.00;1
42;valtas;w;244.50;0.00;1
43;rejtekhely in [Q out: fej+test ki];q;252.50;0.00;1
44;q-end;Q;265.50;13.00;1
45;valtas;w;266.50;0.00;1
46;valtas;w;268.00;0.00;1
47;valtas;w;269.50;0.00;1
48;valtas;w;273.50;0.00;1
49;valtas;w;279.50;0.00;1
50;valtas;w;280.50;0.00;1
51;valtas;w;284.00;0.00;1
52;valtas;w;285.50;0.00;1
53;valtas;w;286.00;0.00;1
54;valtas;w;289.00;0.00;1
55;rejtekhely in [Q out: fej+test ki];q;290.00;0.00;1
56;q-end;Q;291.50;1.50;1
57;valtas;w;292.00;0.00;1
58;valtas;w;292.00;0.00;1
59;valtas;w;294.00;0.00;1
60;valtas;w;299.00;0.00;1
61;valtas;w;303.50;0.00;1
62;valtas;w;325.00;0.00;1
63;valtas;w;332.50;0.00;1
64;valtas;w;333.00;0.00;1
65;rejtekhely in [Q out: fej+test ki];q;333.00;0.00;1
66;q-end;Q;334.50;1.50;1
67;valtas;w;335.50;0.00;1
68;valtas;w;338.00;0.00;1
69;valtas;w;351.50;0.00;1
70;valtas;w;368.00;0.00;1
71;valtas;w;379.50;0.00;1
72;valtas;w;382.00;0.00;1
73;rejtekhely in [Q out: fej+test ki];q;382.50;0.00;1
74;q-end;Q;385.00;2.50;1
75;valtas;w;387.00;0.00;1
76;valtas;w;388.50;0.00;1
77;valtas;w;394.50;0.00;1
78;valtas;w;412.50;0.00;1
79;valtas;w;421.00;0.00;1
80;valtas;w;424.50;0.00;1
81;valtas;w;427.00;0.00;1
82;valtas;w;430.00;0.00;1
83;valtas;w;435.00;0.00;1
84;valtas;w;440.00;0.00;1
85;rejtekhely in [Q out: fej+test ki];q;446.00;0.00;1
86;q-end;Q;448.50;2.50;1
87;valtas;w;450.50;0.00;1
88;valtas;w;458.50;0.00;1
89;valtas;w;465.00;0.00;1
90;valtas;w;469.00;0.00;1
91;rejtekhely in [Q out: fej+test ki];q;470.00;0.00;1
92;q-end;Q;473.00;3.00;1
93;valtas;w;473.50;0.00;1
94;valtas;w;474.50;0.00;1
95;valtas;w;479.50;0.00;1
96;valtas;w;511.00;0.00;1
97;valtas;w;529.00;0.00;1
98;valtas;w;531.00;0.00;1
99;rejtekhely in [Q out: fej+test ki];q;536.50;0.00;1
100;q-end;Q;544.50;8.00;1
101;valtas;w;545.50;0.00;1
102;valtas;w;545.50;0.00;1
103;valtas;w;552.50;0.00;1
104;rejtekhely in [Q out: fej+test ki];q;549.50;0.00;1
105;q-end;Q;579.00;29.50;1
106;valtas;w;580.50;0.00;1
107;valtas;w;590.00;0.00;1
108;valtas;w;615.00;0.00;1
109;rejtekhely in [Q out: fej+test ki];q;622.50;0.00;1
110;q-end;Q;635.50;13.00;1
111;valtas;w;636.50;0.00;1
112;valtas;w;637.50;0.00;1
113;valtas;w;640.00;0.00;1
114;valtas;w;641.00;0.00;1
115;valtas;w;642.50;0.00;1
116;valtas;w;643.50;0.00;1
117;valtas;w;644.00;0.00;1
118;valtas;w;647.00;0.00;1
119;rejtekhely in [Q out: fej+test ki];q;648.00;0.00;1
120;q-end;Q;650.00;2.00;1
121;valtas;w;650.50;0.00;1
122;valtas;w;651.00;0.00;1
123;valtas;w;652.00;0.00;1
124;valtas;w;658.50;0.00;1
125;valtas;w;661.50;0.00;1
126;valtas;w;673.50;0.00;1
127;valtas;w;679.00;0.00;1
128;rejtekhely in [Q out: fej+test ki];q;680.00;0.00;1
129;q-end;Q;681.50;1.50;1
130;valtas;w;682.50;0.00;1
131;valtas;w;683.50;0.00;1
132;valtas;w;689.00;0.00;1
133;valtas;w;700.00;0.00;1
134;valtas;w;709.00;0.00;1
135;valtas;w;740.50;0.00;1
136;valtas;w;741.50;0.00;1
137;rejtekhely in [Q out: fej+test ki];q;743.00;0.00;1
138;q-end;Q;746.00;3.00;1
139;valtas;w;746.50;0.00;1
140;valtas;w;760.00;0.00;1
141;valtas;w;813.00;0.00;1
142;valtas;w;827.50;0.00;1
143;valtas;w;836.00;0.00;1
144;valtas;w;837.50;0.00;1
145;rejtekhely in [Q out: fej+test ki];q;837.50;0.00;1
146;q-end;Q;839.50;2.00;1
147;valtas;w;840.50;0.00;1
148;valtas;w;843.50;0.00;1
149;valtas;w;845.00;0.00;1
150;rejtekhely in [Q out: fej+test ki];q;846.50;0.00;1
151;q-end;Q;847.50;1.00;1
153;valtas;w;851.50;0.00;1
154;valtas;w;861.00;0.00;1
155;valtas;w;871.00;0.00;1
156;valtas;w;877.00;0.00;1
157;valtas;w;882.50;0.00;1
158;valtas;w;884.50;0.00;1
159;valtas;w;887.00;0.00;1
160;valtas;w;888.00;0.00;1
161;valtas;w;901.00;0.00;1
162;valtas;w;915.50;0.00;1
163;valtas;w;927.50;0.00;1
164;valtas;w;930.50;0.00;1
