#Video File Name: 19_exploration_3.avi
#Project ID: 19_exploration_3
#Event codes:
#1 start
#w valtas
#q rejtekhely in [Q out: fej+test ki]
#
#Field separator: ;
#MWrap version: Wed Feb 14 09:50:29 CET 2018
#id;description;key;time;duration;object id
1;start;1;0.50;0.00;1
2;rejtekhely in [Q out: fej+test ki];q;0.50;0.00;1
3;q-end;Q;23.00;22.50;1
4;valtas;w;49.00;0.00;1
5;valtas;w;51.00;0.00;1
6;valtas;w;53.00;0.00;1
7;valtas;w;55.00;0.00;1
8;valtas;w;56.50;0.00;1
9;valtas;w;60.50;0.00;1
10;valtas;w;72.00;0.00;1
11;valtas;w;85.00;0.00;1
12;valtas;w;93.00;0.00;1
13;valtas;w;94.00;0.00;1
14;valtas;w;95.50;0.00;1
15;valtas;w;97.00;0.00;1
16;valtas;w;104.00;0.00;1
17;valtas;w;106.50;0.00;1
18;valtas;w;112.00;0.00;1
19;valtas;w;128.50;0.00;1
20;valtas;w;132.00;0.00;1
21;valtas;w;135.50;0.00;1
22;valtas;w;138.50;0.00;1
23;valtas;w;146.50;0.00;1
24;valtas;w;147.50;0.00;1
25;valtas;w;151.50;0.00;1
26;valtas;w;161.50;0.00;1
27;valtas;w;193.00;0.00;1
28;valtas;w;194.50;0.00;1
29;valtas;w;197.00;0.00;1
30;valtas;w;198.00;0.00;1
31;valtas;w;200.00;0.00;1
32;valtas;w;203.00;0.00;1
33;valtas;w;209.50;0.00;1
34;valtas;w;223.00;0.00;1
35;valtas;w;225.50;0.00;1
36;rejtekhely in [Q out: fej+test ki];q;226.00;0.00;1
37;q-end;Q;228.00;2.00;1
38;valtas;w;228.50;0.00;1
39;valtas;w;229.00;0.00;1
40;valtas;w;235.00;0.00;1
41;valtas;w;237.00;0.00;1
42;valtas;w;245.00;0.00;1
43;valtas;w;254.00;0.00;1
44;valtas;w;264.00;0.00;1
45;rejtekhely in [Q out: fej+test ki];q;265.50;0.00;1
46;q-end;Q;266.50;1.00;1
47;valtas;w;267.00;0.00;1
48;valtas;w;267.50;0.00;1
49;valtas;w;268.00;0.00;1
50;valtas;w;273.00;0.00;1
51;valtas;w;285.00;0.00;1
52;valtas;w;286.50;0.00;1
53;valtas;w;341.50;0.00;1
54;valtas;w;343.50;0.00;1
55;valtas;w;344.50;0.00;1
56;valtas;w;345.50;0.00;1
57;valtas;w;346.00;0.00;1
58;valtas;w;348.50;0.00;1
59;valtas;w;361.00;0.00;1
60;valtas;w;367.00;0.00;1
61;valtas;w;369.50;0.00;1
62;valtas;w;370.50;0.00;1
63;valtas;w;373.00;0.00;1
64;valtas;w;374.00;0.00;1
65;valtas;w;379.00;0.00;1
66;valtas;w;383.50;0.00;1
67;valtas;w;388.50;0.00;1
68;valtas;w;409.00;0.00;1
69;valtas;w;421.00;0.00;1
70;valtas;w;428.50;0.00;1
71;valtas;w;433.00;0.00;1
72;valtas;w;434.50;0.00;1
73;valtas;w;436.00;0.00;1
74;valtas;w;437.50;0.00;1
75;valtas;w;439.00;0.00;1
76;valtas;w;443.50;0.00;1
77;valtas;w;466.50;0.00;1
78;valtas;w;499.50;0.00;1
79;valtas;w;501.00;0.00;1
80;rejtekhely in [Q out: fej+test ki];q;503.00;0.00;1
81;q-end;Q;504.00;1.00;1
82;valtas;w;504.50;0.00;1
83;valtas;w;505.00;0.00;1
84;valtas;w;507.00;0.00;1
85;valtas;w;513.00;0.00;1
86;valtas;w;521.50;0.00;1
87;valtas;w;522.50;0.00;1
88;valtas;w;547.50;0.00;1
89;valtas;w;561.50;0.00;1
90;valtas;w;569.00;0.00;1
91;valtas;w;572.50;0.00;1
92;valtas;w;574.00;0.00;1
93;valtas;w;575.50;0.00;1
94;valtas;w;576.50;0.00;1
95;valtas;w;578.50;0.00;1
96;valtas;w;581.00;0.00;1
97;valtas;w;597.50;0.00;1
98;valtas;w;613.00;0.00;1
99;valtas;w;615.00;0.00;1
100;rejtekhely in [Q out: fej+test ki];q;617.50;0.00;1
101;q-end;Q;618.50;1.00;1
102;valtas;w;619.00;0.00;1
103;valtas;w;619.50;0.00;1
104;valtas;w;620.50;0.00;1
105;valtas;w;621.50;0.00;1
106;valtas;w;628.00;0.00;1
107;valtas;w;629.50;0.00;1
108;valtas;w;648.00;0.00;1
109;rejtekhely in [Q out: fej+test ki];q;650.00;0.00;1
110;q-end;Q;651.00;1.00;1
111;valtas;w;651.50;0.00;1
112;valtas;w;651.50;0.00;1
113;valtas;w;653.50;0.00;1
115;valtas;w;662.00;0.00;1
116;valtas;w;685.50;0.00;1
117;valtas;w;706.00;0.00;1
118;valtas;w;707.50;0.00;1
119;valtas;w;709.00;0.00;1
120;valtas;w;710.50;0.00;1
121;valtas;w;712.50;0.00;1
122;valtas;w;715.00;0.00;1
123;valtas;w;836.00;0.00;1
124;valtas;w;866.00;0.00;1
125;valtas;w;871.50;0.00;1
126;rejtekhely in [Q out: fej+test ki];q;874.00;0.00;1
127;q-end;Q;874.50;0.50;1
128;valtas;w;875.00;0.00;1
129;valtas;w;875.50;0.00;1
130;valtas;w;876.00;0.00;1
131;valtas;w;877.50;0.00;1
132;valtas;w;885.50;0.00;1
133;valtas;w;901.00;0.00;1
