#Video File Name: 19_exploration_8.avi
#Project ID: 19_exploration_8
#Event codes:
#1 start
#w valtas
#q rejtekhely in [Q out: fej+test ki]
#
#Field separator: ;
#MWrap version: Wed Feb 14 09:50:29 CET 2018
#id;description;key;time;duration;object id
1;start;1;0.50;0.00;1
2;valtas;w;54.50;0.00;1
3;valtas;w;61.50;0.00;1
4;valtas;w;66.00;0.00;1
5;valtas;w;71.00;0.00;1
6;valtas;w;79.50;0.00;1
7;valtas;w;94.00;0.00;1
8;valtas;w;95.00;0.00;1
9;valtas;w;101.00;0.00;1
10;valtas;w;102.00;0.00;1
11;valtas;w;103.00;0.00;1
12;valtas;w;106.50;0.00;1
13;valtas;w;107.00;0.00;1
14;rejtekhely in [Q out: fej+test ki];q;108.50;0.00;1
15;q-end;Q;112.00;3.50;1
16;valtas;w;113.00;0.00;1
17;valtas;w;128.00;0.00;1
18;valtas;w;130.00;0.00;1
19;valtas;w;141.50;0.00;1
#20;valtas;w;155.00;0.00;1
21;rejtekhely in [Q out: fej+test ki];q;154.50;0.00;1
22;q-end;Q;161.00;6.50;1
23;valtas;w;179.50;0.00;1
24;valtas;w;181.00;0.00;1
25;valtas;w;187.50;0.00;1
26;valtas;w;191.00;0.00;1
27;valtas;w;230.50;0.00;1
28;rejtekhely in [Q out: fej+test ki];q;231.50;0.00;1
29;q-end;Q;233.00;1.50;1
30;valtas;w;233.50;0.00;1
31;valtas;w;234.00;0.00;1
32;valtas;w;238.00;0.00;1
33;valtas;w;239.50;0.00;1
34;valtas;w;242.50;0.00;1
35;valtas;w;244.00;0.00;1
36;rejtekhely in [Q out: fej+test ki];q;246.50;0.00;1
37;q-end;Q;268.00;21.50;1
38;valtas;w;269.00;0.00;1
39;valtas;w;308.50;0.00;1
40;valtas;w;310.50;0.00;1
41;valtas;w;311.50;0.00;1
42;valtas;w;313.00;0.00;1
43;valtas;w;313.50;0.00;1
44;valtas;w;316.00;0.00;1
45;valtas;w;321.50;0.00;1
46;valtas;w;323.50;0.00;1
47;rejtekhely in [Q out: fej+test ki];q;325.50;0.00;1
48;q-end;Q;333.50;8.00;1
49;valtas;w;336.00;0.00;1
#50;valtas;w;336.50;0.00;1
51;rejtekhely in [Q out: fej+test ki];q;336.00;0.00;1
52;q-end;Q;338.00;2.00;1
53;valtas;w;338.50;0.00;1
54;valtas;w;343.00;0.00;1
55;valtas;w;344.50;0.00;1
56;rejtekhely in [Q out: fej+test ki];q;346.50;0.00;1
57;q-end;Q;357.50;11.00;1
58;valtas;w;376.00;0.00;1
59;rejtekhely in [Q out: fej+test ki];q;381.50;0.00;1
60;q-end;Q;391.50;10.00;1
61;valtas;w;392.50;0.00;1
62;valtas;w;393.50;0.00;1
63;valtas;w;396.00;0.00;1
64;valtas;w;401.50;0.00;1
65;valtas;w;403.50;0.00;1
66;valtas;w;422.50;0.00;1
67;valtas;w;424.00;0.00;1
68;valtas;w;425.00;0.00;1
69;valtas;w;431.00;0.00;1
70;valtas;w;436.00;0.00;1
71;valtas;w;436.50;0.00;1
72;valtas;w;443.00;0.00;1
73;valtas;w;445.50;0.00;1
74;valtas;w;450.00;0.00;1
75;valtas;w;458.50;0.00;1
#76;rejtekhely in [Q out: fej+test ki];q;476.00;0.00;1
77;rejtekhely in [Q out: fej+test ki];q;478.00;0.00;1
78;q-end;Q;481.00;3.00;1
79;valtas;w;482.00;0.00;1
80;valtas;w;482.00;0.00;1
81;valtas;w;483.00;0.00;1
82;valtas;w;492.00;0.00;1
83;valtas;w;501.50;0.00;1
84;valtas;w;529.50;0.00;1
85;rejtekhely in [Q out: fej+test ki];q;544.00;0.00;1
86;undefined;Q;544.00;0.00;1
87;valtas;w;544.50;0.00;1
88;valtas;w;545.00;0.00;1
89;valtas;w;546.50;0.00;1
90;valtas;w;550.50;0.00;1
91;valtas;w;552.50;0.00;1
92;valtas;w;553.50;0.00;1
93;valtas;w;557.00;0.00;1
94;valtas;w;567.00;0.00;1
95;valtas;w;567.50;0.00;1
96;valtas;w;581.00;0.00;1
97;rejtekhely in [Q out: fej+test ki];q;584.00;0.00;1
98;q-end;Q;609.50;25.50;1
99;valtas;w;614.50;0.00;1
100;valtas;w;617.00;0.00;1
101;valtas;w;638.50;0.00;1
102;valtas;w;646.00;0.00;1
103;valtas;w;654.50;0.00;1
104;valtas;w;657.50;0.00;1
105;valtas;w;663.50;0.00;1
106;valtas;w;664.50;0.00;1
107;valtas;w;671.00;0.00;1
108;valtas;w;674.50;0.00;1
109;valtas;w;677.00;0.00;1
110;valtas;w;707.50;0.00;1
111;valtas;w;752.00;0.00;1
112;valtas;w;752.00;0.00;1
113;valtas;w;756.00;0.00;1
114;valtas;w;757.50;0.00;1
115;valtas;w;758.00;0.00;1
116;valtas;w;759.00;0.00;1
117;valtas;w;764.50;0.00;1
118;valtas;w;765.50;0.00;1
119;valtas;w;768.50;0.00;1
120;valtas;w;772.50;0.00;1
121;valtas;w;779.50;0.00;1
122;valtas;w;793.00;0.00;1
123;valtas;w;805.00;0.00;1
124;valtas;w;806.00;0.00;1
125;valtas;w;807.50;0.00;1
126;valtas;w;808.50;0.00;1
127;valtas;w;814.50;0.00;1
128;valtas;w;820.00;0.00;1
129;valtas;w;830.00;0.00;1
130;valtas;w;847.00;0.00;1
131;valtas;w;854.50;0.00;1
132;rejtekhely in [Q out: fej+test ki];q;856.00;0.00;1
133;q-end;Q;857.00;1.00;1
134;valtas;w;858.00;0.00;1
135;valtas;w;861.50;0.00;1
136;valtas;w;864.00;0.00;1
137;valtas;w;865.50;0.00;1
138;valtas;w;879.50;0.00;1
139;valtas;w;881.50;0.00;1
