#Video File Name: 20_exploration_8.avi
#Project ID: 20_exploration_8
#Event codes:
#1 start
#w valtas
#q rejtekhely in [Q out: fej+test ki]
#
#Field separator: ;
#MWrap version: Wed Feb 14 09:50:29 CET 2018
#id;description;key;time;duration;object id
1;start;1;0.50;0.00;1
2;rejtekhely in [Q out: fej+test ki];q;0.50;0.00;1
3;q-end;Q;107.00;106.50;1
4;valtas;w;113.50;0.00;1
5;valtas;w;118.00;0.00;1
6;valtas;w;127.50;0.00;1
7;rejtekhely in [Q out: fej+test ki];q;128.00;0.00;1
8;q-end;Q;129.50;1.50;1
9;valtas;w;129.50;0.00;1
10;valtas;w;131.00;0.00;1
11;valtas;w;133.50;0.00;1
12;rejtekhely in [Q out: fej+test ki];q;135.50;0.00;1
13;q-end;Q;138.00;2.50;1
#14;valtas;w;138.50;0.00;1
15;valtas;w;138.50;0.00;1
16;rejtekhely in [Q out: fej+test ki];q;143.50;0.00;1
17;q-end;Q;158.00;14.50;1
18;valtas;w;158.50;0.00;1
19;valtas;w;159.00;0.00;1
20;valtas;w;162.00;0.00;1
21;valtas;w;163.50;0.00;1
22;valtas;w;166.00;0.00;1
23;valtas;w;168.00;0.00;1
24;valtas;w;170.00;0.00;1
25;valtas;w;171.00;0.00;1
26;valtas;w;176.50;0.00;1
27;valtas;w;184.50;0.00;1
28;valtas;w;187.50;0.00;1
29;valtas;w;193.00;0.00;1
30;valtas;w;194.00;0.00;1
31;rejtekhely in [Q out: fej+test ki];q;195.00;0.00;1
32;q-end;Q;196.50;1.50;1
33;valtas;w;197.00;0.00;1
34;valtas;w;197.50;0.00;1
35;valtas;w;199.00;0.00;1
36;valtas;w;200.50;0.00;1
37;valtas;w;208.50;0.00;1
38;valtas;w;214.00;0.00;1
39;valtas;w;215.00;0.00;1
40;valtas;w;217.00;0.00;1
41;valtas;w;218.00;0.00;1
42;valtas;w;231.00;0.00;1
43;valtas;w;232.00;0.00;1
44;valtas;w;234.50;0.00;1
45;valtas;w;241.00;0.00;1
46;rejtekhely in [Q out: fej+test ki];q;241.50;0.00;1
47;q-end;Q;243.00;1.50;1
48;valtas;w;243.50;0.00;1
49;rejtekhely in [Q out: fej+test ki];q;252.50;0.00;1
50;q-end;Q;260.00;7.50;1
51;valtas;w;261.50;0.00;1
52;valtas;w;264.00;0.00;1
53;valtas;w;272.00;0.00;1
54;rejtekhely in [Q out: fej+test ki];q;272.50;0.00;1
55;q-end;Q;273.50;1.00;1
56;valtas;w;274.00;0.00;1
#57;rejtekhely in [Q out: fej+test ki];q;277.50;0.00;1
58;valtas;w;279.50;0.00;1
59;valtas;w;284.50;0.00;1
60;valtas;w;298.00;0.00;1
61;valtas;w;306.00;0.00;1
62;valtas;w;308.00;0.00;1
63;rejtekhely in [Q out: fej+test ki];q;308.50;0.00;1
64;q-end;Q;313.50;5.00;1
65;valtas;w;314.00;0.00;1
66;valtas;w;316.00;0.00;1
67;rejtekhely in [Q out: fej+test ki];q;315.50;0.00;1
68;q-end;Q;333.00;17.50;1
69;valtas;w;334.00;0.00;1
70;valtas;w;344.50;0.00;1
71;rejtekhely in [Q out: fej+test ki];q;344.50;0.00;1
72;q-end;Q;346.50;2.00;1
73;valtas;w;347.00;0.00;1
74;valtas;w;347.50;0.00;1
75;rejtekhely in [Q out: fej+test ki];q;348.50;0.00;1
76;q-end;Q;350.50;2.00;1
77;rejtekhely in [Q out: fej+test ki];q;357.00;0.00;1
78;q-end;Q;358.00;1.00;1
79;valtas;w;358.50;0.00;1
80;valtas;w;367.50;0.00;1
81;rejtekhely in [Q out: fej+test ki];q;381.00;0.00;1
82;q-end;Q;382.00;1.00;1
83;valtas;w;383.00;0.00;1
84;valtas;w;388.00;0.00;1
85;valtas;w;398.50;0.00;1
86;rejtekhely in [Q out: fej+test ki];q;400.50;0.00;1
87;q-end;Q;405.50;5.00;1
88;valtas;w;408.50;0.00;1
89;rejtekhely in [Q out: fej+test ki];q;410.00;0.00;1
90;q-end;Q;411.50;1.50;1
91;valtas;w;412.00;0.00;1
92;rejtekhely in [Q out: fej+test ki];q;414.50;0.00;1
93;q-end;Q;444.50;30.00;1
94;valtas;w;445.00;0.00;1
95;valtas;w;452.50;0.00;1
96;rejtekhely in [Q out: fej+test ki];q;461.00;0.00;1
97;q-end;Q;462.50;1.50;1
98;valtas;w;462.50;0.00;1
99;rejtekhely in [Q out: fej+test ki];q;468.00;0.00;1
100;q-end;Q;478.00;10.00;1
101;valtas;w;479.00;0.00;1
102;valtas;w;480.00;0.00;1
103;valtas;w;481.50;0.00;1
104;valtas;w;484.00;0.00;1
105;valtas;w;485.00;0.00;1
106;valtas;w;486.00;0.00;1
107;valtas;w;486.50;0.00;1
108;valtas;w;487.50;0.00;1
109;valtas;w;491.00;0.00;1
110;valtas;w;496.00;0.00;1
111;valtas;w;503.00;0.00;1
112;valtas;w;506.00;0.00;1
113;valtas;w;507.00;0.00;1
114;valtas;w;509.50;0.00;1
#115;valtas;w;510.00;0.00;1
116;rejtekhely in [Q out: fej+test ki];q;509.50;0.00;1
117;q-end;Q;511.00;1.50;1
118;valtas;w;512.00;0.00;1
119;valtas;w;513.50;0.00;1
120;valtas;w;515.50;0.00;1
121;valtas;w;518.50;0.00;1
122;rejtekhely in [Q out: fej+test ki];q;519.00;0.00;1
123;q-end;Q;525.00;6.00;1
124;valtas;w;530.50;0.00;1
125;valtas;w;531.00;0.00;1
126;rejtekhely in [Q out: fej+test ki];q;534.00;0.00;1
127;q-end;Q;542.00;8.00;1
#128;rejtekhely in [Q out: fej+test ki];q;545.00;0.00;1
129;valtas;w;542.50;0.00;1
130;rejtekhely in [Q out: fej+test ki];q;544.00;0.00;1
131;q-end;Q;557.00;13.00;1
132;valtas;w;558.00;0.00;1
#133;rejtekhely in [Q out: fej+test ki];q;561.00;0.00;1
134;valtas;w;562.50;0.00;1
#135;rejtekhely in [Q out: fej+test ki];q;563.50;0.00;1
136;valtas;w;568.00;0.00;1
137;rejtekhely in [Q out: fej+test ki];q;570.00;0.00;1
138;q-end;Q;575.50;5.50;1
139;valtas;w;576.50;0.00;1
140;valtas;w;577.50;0.00;1
141;valtas;w;580.00;0.00;1
142;rejtekhely in [Q out: fej+test ki];q;581.00;0.00;1
143;q-end;Q;590.00;9.00;1
144;valtas;w;590.50;0.00;1
145;rejtekhely in [Q out: fej+test ki];q;594.50;0.00;1
146;q-end;Q;596.50;2.00;1
#147;q-end;Q;596.50;2.00;1
148;valtas;w;597.50;0.00;1
149;valtas;w;599.50;0.00;1
150;valtas;w;619.00;0.00;1
151;valtas;w;621.50;0.00;1
152;valtas;w;632.50;0.00;1
153;valtas;w;636.50;0.00;1
154;rejtekhely in [Q out: fej+test ki];q;637.00;0.00;1
155;q-end;Q;640.50;3.50;1
156;valtas;w;641.00;0.00;1
157;valtas;w;641.50;0.00;1
158;rejtekhely in [Q out: fej+test ki];q;644.00;0.00;1
159;q-end;Q;659.00;15.00;1
160;valtas;w;660.50;0.00;1
161;valtas;w;662.50;0.00;1
162;valtas;w;671.00;0.00;1
163;valtas;w;673.00;0.00;1
164;valtas;w;677.50;0.00;1
165;valtas;w;681.50;0.00;1
166;valtas;w;682.50;0.00;1
167;valtas;w;689.00;0.00;1
168;rejtekhely in [Q out: fej+test ki];q;693.00;0.00;1
169;q-end;Q;699.00;6.00;1
170;valtas;w;699.50;0.00;1
171;valtas;w;702.50;0.00;1
172;rejtekhely in [Q out: fej+test ki];q;716.00;0.00;1
173;q-end;Q;805.50;89.50;1
174;valtas;w;809.50;0.00;1
175;valtas;w;818.00;0.00;1
176;valtas;w;819.50;0.00;1
177;rejtekhely in [Q out: fej+test ki];q;820.50;0.00;1
178;q-end;Q;823.00;2.50;1
179;valtas;w;824.00;0.00;1
180;valtas;w;824.00;0.00;1
181;rejtekhely in [Q out: fej+test ki];q;825.50;0.00;1
182;q-end;Q;904.50;79.00;1
