#Video File Name: 21_exploration_1.avi
#Project ID: 21_exploration_1
#Event codes:
#1 start
#w valtas
#q rejtekhely in [Q out: fej+test ki]
#
#Field separator: ;
#MWrap version: Wed Feb 14 09:50:29 CET 2018
#id;description;key;time;duration;object id
1;start;1;0.50;0.00;1
2;rejtekhely in [Q out: fej+test ki];q;22.50;0.00;1
3;q-end;Q;44.00;21.50;1
4;valtas;w;45.50;0.00;1
5;valtas;w;46.00;0.00;1
6;valtas;w;61.00;0.00;1
7;valtas;w;63.00;0.00;1
8;rejtekhely in [Q out: fej+test ki];q;64.00;0.00;1
9;q-end;Q;72.50;8.50;1
10;valtas;w;73.00;0.00;1
11;valtas;w;73.50;0.00;1
12;rejtekhely in [Q out: fej+test ki];q;75.00;0.00;1
13;q-end;Q;77.00;2.00;1
14;valtas;w;79.50;0.00;1
15;valtas;w;81.00;0.00;1
16;valtas;w;81.50;0.00;1
17;valtas;w;106.50;0.00;1
18;valtas;w;108.00;0.00;1
19;rejtekhely in [Q out: fej+test ki];q;119.00;0.00;1
20;q-end;Q;150.00;31.00;1
21;valtas;w;150.50;0.00;1
22;valtas;w;152.50;0.00;1
23;valtas;w;153.50;0.00;1
24;valtas;w;158.50;0.00;1
25;valtas;w;170.50;0.00;1
26;valtas;w;176.00;0.00;1
27;valtas;w;177.00;0.00;1
28;valtas;w;180.50;0.00;1
29;rejtekhely in [Q out: fej+test ki];q;181.00;0.00;1
30;q-end;Q;185.50;4.50;1
31;valtas;w;186.00;0.00;1
32;valtas;w;198.00;0.00;1
33;valtas;w;200.00;0.00;1
34;valtas;w;205.50;0.00;1
35;valtas;w;207.50;0.00;1
36;valtas;w;208.50;0.00;1
37;valtas;w;211.00;0.00;1
38;valtas;w;214.50;0.00;1
39;valtas;w;219.00;0.00;1
40;valtas;w;226.00;0.00;1
41;valtas;w;227.50;0.00;1
42;valtas;w;229.50;0.00;1
43;valtas;w;230.50;0.00;1
44;valtas;w;232.00;0.00;1
45;valtas;w;233.50;0.00;1
46;valtas;w;235.50;0.00;1
47;valtas;w;242.00;0.00;1
48;valtas;w;252.00;0.00;1
49;valtas;w;255.00;0.00;1
50;valtas;w;255.50;0.00;1
51;valtas;w;256.50;0.00;1
52;valtas;w;258.00;0.00;1
53;valtas;w;260.00;0.00;1
54;valtas;w;267.50;0.00;1
55;valtas;w;274.50;0.00;1
56;valtas;w;282.00;0.00;1
57;valtas;w;283.50;0.00;1
58;valtas;w;336.50;0.00;1
59;rejtekhely in [Q out: fej+test ki];q;340.50;0.00;1
60;q-end;Q;380.00;39.50;1
63;valtas;w;394.50;0.00;1
64;valtas;w;395.50;0.00;1
65;valtas;w;397.50;0.00;1
66;valtas;w;406.50;0.00;1
67;valtas;w;410.50;0.00;1
68;valtas;w;411.50;0.00;1
69;valtas;w;415.00;0.00;1
70;valtas;w;419.00;0.00;1
71;valtas;w;424.00;0.00;1
72;rejtekhely in [Q out: fej+test ki];q;430.00;0.00;1
73;q-end;Q;433.50;3.50;1
74;valtas;w;445.00;0.00;1
75;valtas;w;478.00;0.00;1
76;valtas;w;521.50;0.00;1
77;rejtekhely in [Q out: fej+test ki];q;523.00;0.00;1
78;q-end;Q;524.00;1.00;1
79;valtas;w;525.00;0.00;1
80;valtas;w;527.00;0.00;1
81;valtas;w;534.00;0.00;1
82;rejtekhely in [Q out: fej+test ki];q;540.00;0.00;1
83;q-end;Q;547.00;7.00;1
84;valtas;w;547.50;0.00;1
85;valtas;w;549.50;0.00;1
86;valtas;w;550.50;0.00;1
87;rejtekhely in [Q out: fej+test ki];q;568.50;0.00;1
88;q-end;Q;577.50;9.00;1
89;valtas;w;578.50;0.00;1
90;valtas;w;584.50;0.00;1
91;valtas;w;586.00;0.00;1
92;valtas;w;592.50;0.00;1
93;valtas;w;596.50;0.00;1
94;valtas;w;602.50;0.00;1
95;valtas;w;604.00;0.00;1
96;valtas;w;608.00;0.00;1
97;rejtekhely in [Q out: fej+test ki];q;620.50;0.00;1
98;q-end;Q;630.00;9.50;1
99;valtas;w;630.50;0.00;1
100;valtas;w;631.50;0.00;1
101;valtas;w;632.50;0.00;1
102;valtas;w;634.50;0.00;1
104;valtas;w;637.50;0.00;1
105;rejtekhely in [Q out: fej+test ki];q;640.00;0.00;1
106;q-end;Q;641.50;1.50;1
107;valtas;w;642.00;0.00;1
108;valtas;w;665.00;0.00;1
109;rejtekhely in [Q out: fej+test ki];q;671.50;0.00;1
111;q-end;Q;703.50;32.00;1
112;valtas;w;740.00;0.00;1
113;valtas;w;741.50;0.00;1
114;valtas;w;745.50;0.00;1
115;valtas;w;748.00;0.00;1
116;valtas;w;751.00;0.00;1
117;valtas;w;752.00;0.00;1
118;rejtekhely in [Q out: fej+test ki];q;758.50;0.00;1
119;q-end;Q;761.50;3.00;1
120;valtas;w;762.00;0.00;1
121;valtas;w;764.50;0.00;1
122;valtas;w;765.50;0.00;1
123;valtas;w;768.50;0.00;1
124;valtas;w;781.00;0.00;1
125;valtas;w;786.00;0.00;1
126;valtas;w;790.00;0.00;1
127;rejtekhely in [Q out: fej+test ki];q;791.50;0.00;1
128;q-end;Q;793.50;2.00;1
129;valtas;w;797.00;0.00;1
130;valtas;w;808.50;0.00;1
131;valtas;w;811.00;0.00;1
132;valtas;w;812.00;0.00;1
133;valtas;w;818.00;0.00;1
134;valtas;w;818.50;0.00;1
135;valtas;w;832.00;0.00;1
136;valtas;w;833.50;0.00;1
137;valtas;w;835.50;0.00;1
138;valtas;w;836.00;0.00;1
139;rejtekhely in [Q out: fej+test ki];q;840.00;0.00;1
140;q-end;Q;842.50;2.50;1
141;valtas;w;851.50;0.00;1
142;valtas;w;855.00;0.00;1
143;valtas;w;864.00;0.00;1
144;valtas;w;865.00;0.00;1
145;valtas;w;870.50;0.00;1
