#Video File Name: 21_exploration_9.avi
#Project ID: 21_exploration_9
#Event codes:
#1 start
#w valtas
#q rejtekhely in [Q out: fej+test ki]
#
#Field separator: ;
#MWrap version: Wed Feb 14 09:50:29 CET 2018
#id;description;key;time;duration;object id
1;start;1;0.50;0.00;1
2;rejtekhely in [Q out: fej+test ki];q;0.50;0.00;1
#3;q-end;Q;314.50;314.00;1
4;q-end;Q;320.50;320.00;1
5;valtas;w;333.00;0.00;1
6;rejtekhely in [Q out: fej+test ki];q;334.00;0.00;1
7;q-end;Q;343.50;9.50;1
#8;valtas;w;344.50;0.00;1
9;valtas;w;348.50;0.00;1
10;valtas;w;356.50;0.00;1
11;valtas;w;359.50;0.00;1
12;valtas;w;368.00;0.00;1
13;valtas;w;369.00;0.00;1
14;rejtekhely in [Q out: fej+test ki];q;370.50;0.00;1
15;q-end;Q;371.50;1.00;1
16;valtas;w;372.00;0.00;1
17;valtas;w;373.50;0.00;1
18;valtas;w;379.00;0.00;1
19;valtas;w;380.50;0.00;1
20;rejtekhely in [Q out: fej+test ki];q;402.50;0.00;1
21;q-end;Q;413.00;10.50;1
22;valtas;w;422.50;0.00;1
23;valtas;w;425.50;0.00;1
24;valtas;w;428.00;0.00;1
25;valtas;w;428.50;0.00;1
26;valtas;w;431.00;0.00;1
27;valtas;w;433.50;0.00;1
28;valtas;w;436.00;0.00;1
29;valtas;w;437.00;0.00;1
30;valtas;w;441.50;0.00;1
31;valtas;w;444.50;0.00;1
32;valtas;w;449.50;0.00;1
33;valtas;w;452.00;0.00;1
34;valtas;w;453.00;0.00;1
35;valtas;w;455.50;0.00;1
36;valtas;w;466.50;0.00;1
37;valtas;w;472.00;0.00;1
38;valtas;w;480.00;0.00;1
39;valtas;w;482.00;0.00;1
40;valtas;w;486.00;0.00;1
41;valtas;w;490.50;0.00;1
42;valtas;w;495.50;0.00;1
43;valtas;w;519.00;0.00;1
44;valtas;w;521.50;0.00;1
45;valtas;w;524.50;0.00;1
46;valtas;w;526.50;0.00;1
47;valtas;w;528.50;0.00;1
48;rejtekhely in [Q out: fej+test ki];q;529.50;0.00;1
49;q-end;Q;530.50;1.00;1
50;valtas;w;531.50;0.00;1
51;rejtekhely in [Q out: fej+test ki];q;532.50;0.00;1
52;q-end;Q;533.50;1.00;1
53;valtas;w;534.00;0.00;1
54;valtas;w;536.50;0.00;1
55;valtas;w;549.50;0.00;1
56;valtas;w;552.00;0.00;1
57;valtas;w;553.00;0.00;1
58;valtas;w;557.00;0.00;1
59;rejtekhely in [Q out: fej+test ki];q;559.50;0.00;1
60;q-end;Q;563.00;3.50;1
61;valtas;w;564.00;0.00;1
62;valtas;w;565.00;0.00;1
63;valtas;w;566.50;0.00;1
64;rejtekhely in [Q out: fej+test ki];q;571.00;0.00;1
65;q-end;Q;572.00;1.00;1
66;valtas;w;572.50;0.00;1
67;valtas;w;572.50;0.00;1
#68;valtas;w;574.50;0.00;1
69;rejtekhely in [Q out: fej+test ki];q;573.50;0.00;1
70;q-end;Q;580.50;7.00;1
71;valtas;w;581.50;0.00;1
72;valtas;w;581.50;0.00;1
73;valtas;w;584.50;0.00;1
74;valtas;w;587.00;0.00;1
75;valtas;w;605.50;0.00;1
76;valtas;w;613.00;0.00;1
77;valtas;w;629.00;0.00;1
78;valtas;w;634.50;0.00;1
79;valtas;w;636.00;0.00;1
80;valtas;w;639.00;0.00;1
81;valtas;w;640.50;0.00;1
82;rejtekhely in [Q out: fej+test ki];q;642.50;0.00;1
83;q-end;Q;644.00;1.50;1
84;valtas;w;645.00;0.00;1
85;valtas;w;646.50;0.00;1
86;valtas;w;652.50;0.00;1
87;valtas;w;660.50;0.00;1
88;valtas;w;661.00;0.00;1
89;valtas;w;662.00;0.00;1
90;valtas;w;663.50;0.00;1
91;valtas;w;665.00;0.00;1
92;valtas;w;667.50;0.00;1
93;valtas;w;669.50;0.00;1
94;valtas;w;670.00;0.00;1
95;valtas;w;673.50;0.00;1
96;valtas;w;679.00;0.00;1
97;valtas;w;683.00;0.00;1
98;valtas;w;683.50;0.00;1
99;valtas;w;689.50;0.00;1
100;valtas;w;696.00;0.00;1
101;valtas;w;701.50;0.00;1
102;valtas;w;702.50;0.00;1
103;valtas;w;705.00;0.00;1
104;valtas;w;706.00;0.00;1
105;valtas;w;709.50;0.00;1
106;valtas;w;710.00;0.00;1
107;valtas;w;713.50;0.00;1
108;valtas;w;714.00;0.00;1
109;valtas;w;715.00;0.00;1
110;valtas;w;718.50;0.00;1
111;valtas;w;726.50;0.00;1
112;valtas;w;731.50;0.00;1
113;valtas;w;736.50;0.00;1
114;valtas;w;740.50;0.00;1
115;valtas;w;742.00;0.00;1
116;valtas;w;743.50;0.00;1
117;valtas;w;748.00;0.00;1
118;valtas;w;749.50;0.00;1
119;valtas;w;757.50;0.00;1
120;valtas;w;760.00;0.00;1
121;valtas;w;817.50;0.00;1
122;valtas;w;826.00;0.00;1
123;valtas;w;827.00;0.00;1
124;valtas;w;829.00;0.00;1
125;valtas;w;829.00;0.00;1
126;valtas;w;830.00;0.00;1
127;valtas;w;831.00;0.00;1
128;valtas;w;833.00;0.00;1
129;rejtekhely in [Q out: fej+test ki];q;834.00;0.00;1
130;q-end;Q;835.00;1.00;1
131;valtas;w;835.50;0.00;1
132;valtas;w;838.00;0.00;1
133;valtas;w;844.50;0.00;1
134;valtas;w;847.00;0.00;1
135;valtas;w;851.00;0.00;1
136;valtas;w;855.00;0.00;1
137;valtas;w;862.50;0.00;1
138;rejtekhely in [Q out: fej+test ki];q;862.50;0.00;1
139;q-end;Q;873.00;10.50;1
140;valtas;w;888.50;0.00;1
141;valtas;w;892.50;0.00;1
142;valtas;w;895.00;0.00;1
143;valtas;w;897.50;0.00;1
144;rejtekhely in [Q out: fej+test ki];q;898.00;0.00;1
145;q-end;Q;903.00;5.00;1
146;valtas;w;907.00;0.00;1
