#Video File Name: 24_exploration_9.avi
#Project ID: 24_exploration_9
#Event codes:
#1 start
#w valtas
#q rejtekhely in [Q out: fej+test ki]
#
#Field separator: ;
#MWrap version: Wed Feb 14 09:50:29 CET 2018
#id;description;key;time;duration;object id
1;start;1;0.50;0.00;1
2;rejtekhely in [Q out: fej+test ki];q;0.50;0.00;1
3;q-end;Q;26.50;26.00;1
4;valtas;w;27.00;0.00;1
5;valtas;w;39.00;0.00;1
6;valtas;w;48.50;0.00;1
7;valtas;w;55.50;0.00;1
8;rejtekhely in [Q out: fej+test ki];q;58.50;0.00;1
9;q-end;Q;61.50;3.00;1
10;valtas;w;62.50;0.00;1
11;valtas;w;63.50;0.00;1
12;valtas;w;65.00;0.00;1
13;rejtekhely in [Q out: fej+test ki];q;80.00;0.00;1
14;q-end;Q;83.50;3.50;1
15;valtas;w;84.50;0.00;1
16;rejtekhely in [Q out: fej+test ki];q;84.50;0.00;1
17;q-end;Q;129.00;44.50;1
18;valtas;w;132.00;0.00;1
#19;valtas;w;134.50;0.00;1
20;rejtekhely in [Q out: fej+test ki];q;133.50;0.00;1
21;q-end;Q;144.00;10.50;1
22;valtas;w;145.00;0.00;1
23;rejtekhely in [Q out: fej+test ki];q;147.00;0.00;1
24;q-end;Q;155.50;8.50;1
25;valtas;w;156.50;0.00;1
26;valtas;w;169.00;0.00;1
27;valtas;w;178.50;0.00;1
28;valtas;w;183.50;0.00;1
29;valtas;w;189.00;0.00;1
30;valtas;w;189.50;0.00;1
31;valtas;w;202.00;0.00;1
32;valtas;w;202.50;0.00;1
33;valtas;w;205.50;0.00;1
34;valtas;w;211.50;0.00;1
35;valtas;w;215.00;0.00;1
36;valtas;w;227.50;0.00;1
37;valtas;w;243.50;0.00;1
38;valtas;w;249.50;0.00;1
39;valtas;w;250.50;0.00;1
40;rejtekhely in [Q out: fej+test ki];q;252.00;0.00;1
41;q-end;Q;255.00;3.00;1
42;valtas;w;255.50;0.00;1
43;rejtekhely in [Q out: fej+test ki];q;257.50;0.00;1
44;q-end;Q;275.50;18.00;1
45;valtas;w;277.50;0.00;1
46;rejtekhely in [Q out: fej+test ki];q;281.50;0.00;1
47;q-end;Q;283.50;2.00;1
48;valtas;w;283.50;0.00;1
49;rejtekhely in [Q out: fej+test ki];q;284.50;0.00;1
50;q-end;Q;286.00;1.50;1
51;valtas;w;287.00;0.00;1
52;valtas;w;292.50;0.00;1
53;valtas;w;294.00;0.00;1
54;valtas;w;295.50;0.00;1
#55;rejtekhely in [Q out: fej+test ki];q;297.00;0.00;1
56;valtas;w;299.00;0.00;1
57;valtas;w;299.50;0.00;1
58;valtas;w;320.00;0.00;1
59;rejtekhely in [Q out: fej+test ki];q;324.00;0.00;1
60;q-end;Q;337.50;13.50;1
61;valtas;w;338.50;0.00;1
62;valtas;w;347.00;0.00;1
63;valtas;w;355.50;0.00;1
64;rejtekhely in [Q out: fej+test ki];q;356.00;0.00;1
65;q-end;Q;357.50;1.50;1
66;valtas;w;357.50;0.00;1
67;rejtekhely in [Q out: fej+test ki];q;364.50;0.00;1
68;q-end;Q;378.00;13.50;1
69;valtas;w;378.50;0.00;1
70;valtas;w;396.50;0.00;1
71;valtas;w;404.50;0.00;1
72;rejtekhely in [Q out: fej+test ki];q;405.50;0.00;1
73;q-end;Q;412.00;6.50;1
74;valtas;w;413.50;0.00;1
75;rejtekhely in [Q out: fej+test ki];q;415.00;0.00;1
76;q-end;Q;419.50;4.50;1
77;valtas;w;424.00;0.00;1
78;valtas;w;452.50;0.00;1
79;valtas;w;455.00;0.00;1
80;valtas;w;457.50;0.00;1
81;rejtekhely in [Q out: fej+test ki];q;460.00;0.00;1
82;q-end;Q;461.50;1.50;1
83;rejtekhely in [Q out: fej+test ki];q;464.50;0.00;1
84;q-end;Q;469.00;4.50;1
85;valtas;w;469.50;0.00;1
86;valtas;w;470.00;0.00;1
87;valtas;w;479.00;0.00;1
88;valtas;w;483.50;0.00;1
89;valtas;w;486.00;0.00;1
90;valtas;w;488.00;0.00;1
91;valtas;w;495.50;0.00;1
92;rejtekhely in [Q out: fej+test ki];q;495.50;0.00;1
93;q-end;Q;498.50;3.00;1
94;valtas;w;499.00;0.00;1
95;valtas;w;499.50;0.00;1
96;valtas;w;500.00;0.00;1
97;valtas;w;518.50;0.00;1
98;valtas;w;533.00;0.00;1
99;valtas;w;557.00;0.00;1
100;valtas;w;570.00;0.00;1
101;rejtekhely in [Q out: fej+test ki];q;572.00;0.00;1
102;q-end;Q;573.50;1.50;1
103;valtas;w;574.00;0.00;1
104;rejtekhely in [Q out: fej+test ki];q;574.50;0.00;1
105;q-end;Q;577.50;3.00;1
106;valtas;w;579.00;0.00;1
107;valtas;w;584.00;0.00;1
108;valtas;w;584.50;0.00;1
109;valtas;w;586.00;0.00;1
110;valtas;w;586.50;0.00;1
111;valtas;w;591.50;0.00;1
112;valtas;w;595.50;0.00;1
113;valtas;w;596.50;0.00;1
114;valtas;w;601.00;0.00;1
115;valtas;w;604.50;0.00;1
116;valtas;w;613.50;0.00;1
117;valtas;w;621.00;0.00;1
118;valtas;w;647.50;0.00;1
119;valtas;w;651.00;0.00;1
120;valtas;w;656.00;0.00;1
121;valtas;w;659.50;0.00;1
122;rejtekhely in [Q out: fej+test ki];q;664.50;0.00;1
123;q-end;Q;665.50;1.00;1
124;valtas;w;665.50;0.00;1
125;valtas;w;666.00;0.00;1
126;valtas;w;667.50;0.00;1
127;valtas;w;689.50;0.00;1
128;valtas;w;694.50;0.00;1
#129;rejtekhely in [Q out: fej+test ki];q;702.00;0.00;1
130;valtas;w;704.00;0.00;1
131;valtas;w;709.50;0.00;1
132;valtas;w;711.00;0.00;1
133;valtas;w;727.50;0.00;1
134;valtas;w;736.00;0.00;1
135;valtas;w;739.50;0.00;1
136;rejtekhely in [Q out: fej+test ki];q;754.50;0.00;1
137;q-end;Q;767.00;12.50;1
138;valtas;w;768.00;0.00;1
139;rejtekhely in [Q out: fej+test ki];q;768.00;0.00;1
140;q-end;Q;773.50;5.50;1
141;valtas;w;774.50;0.00;1
142;rejtekhely in [Q out: fej+test ki];q;778.00;0.00;1
143;q-end;Q;779.50;1.50;1
144;valtas;w;780.50;0.00;1
145;valtas;w;795.00;0.00;1
146;rejtekhely in [Q out: fej+test ki];q;796.50;0.00;1
147;q-end;Q;798.50;2.00;1
148;valtas;w;800.00;0.00;1
149;valtas;w;806.50;0.00;1
150;rejtekhely in [Q out: fej+test ki];q;809.00;0.00;1
151;q-end;Q;841.00;32.00;1
152;valtas;w;842.50;0.00;1
153;valtas;w;848.00;0.00;1
154;valtas;w;850.00;0.00;1
155;valtas;w;852.00;0.00;1
156;valtas;w;852.00;0.00;1
157;valtas;w;853.00;0.00;1
158;valtas;w;858.00;0.00;1
159;valtas;w;859.50;0.00;1
160;rejtekhely in [Q out: fej+test ki];q;860.50;0.00;1
161;q-end;Q;861.00;0.50;1
162;valtas;w;862.00;0.00;1
163;rejtekhely in [Q out: fej+test ki];q;869.00;0.00;1
164;q-end;Q;870.50;1.50;1
165;valtas;w;871.00;0.00;1
166;valtas;w;871.50;0.00;1
167;rejtekhely in [Q out: fej+test ki];q;881.00;0.00;1
168;q-end;Q;904.00;23.00;1
