#Video File Name: 26_exploration_1.avi
#Project ID: 26_exploration_1
#Event codes:
#1 start
#w valtas
#q rejtekhely in [Q out: fej+test ki]
#
#Field separator: ;
#MWrap version: Wed Feb 14 09:50:29 CET 2018
#id;description;key;time;duration;object id
1;start;1;0.50;0.00;1
3;rejtekhely in [Q out: fej+test ki];q;2.50;0.00;1
4;q-end;Q;52.50;50.00;1
5;valtas;w;56.50;0.00;1
6;valtas;w;60.00;0.00;1
7;valtas;w;67.50;0.00;1
8;valtas;w;78.50;0.00;1
9;valtas;w;88.00;0.00;1
10;valtas;w;89.50;0.00;1
11;valtas;w;92.00;0.00;1
12;valtas;w;96.50;0.00;1
13;valtas;w;97.50;0.00;1
14;valtas;w;103.00;0.00;1
15;valtas;w;108.50;0.00;1
16;valtas;w;113.50;0.00;1
17;valtas;w;114.00;0.00;1
18;valtas;w;116.50;0.00;1
19;valtas;w;117.00;0.00;1
20;valtas;w;126.00;0.00;1
21;valtas;w;133.00;0.00;1
22;rejtekhely in [Q out: fej+test ki];q;139.50;0.00;1
23;q-end;Q;165.50;26.00;1
24;valtas;w;167.00;0.00;1
25;valtas;w;170.00;0.00;1
26;valtas;w;172.50;0.00;1
27;valtas;w;176.50;0.00;1
28;rejtekhely in [Q out: fej+test ki];q;180.00;0.00;1
29;q-end;Q;191.50;11.50;1
30;valtas;w;191.00;0.00;1
31;valtas;w;191.50;0.00;1
32;valtas;w;194.50;0.00;1
33;valtas;w;209.00;0.00;1
34;valtas;w;223.00;0.00;1
35;valtas;w;228.00;0.00;1
36;valtas;w;240.50;0.00;1
37;valtas;w;245.00;0.00;1
38;valtas;w;247.50;0.00;1
39;valtas;w;254.00;0.00;1
40;valtas;w;274.50;0.00;1
41;valtas;w;277.00;0.00;1
42;valtas;w;279.00;0.00;1
43;valtas;w;284.00;0.00;1
44;valtas;w;290.50;0.00;1
45;valtas;w;294.50;0.00;1
46;valtas;w;296.50;0.00;1
47;valtas;w;298.00;0.00;1
48;valtas;w;318.00;0.00;1
49;valtas;w;328.00;0.00;1
50;valtas;w;374.50;0.00;1
51;rejtekhely in [Q out: fej+test ki];q;380.50;0.00;1
52;q-end;Q;392.50;12.00;1
53;valtas;w;393.50;0.00;1
54;valtas;w;398.50;0.00;1
55;valtas;w;400.50;0.00;1
56;valtas;w;414.50;0.00;1
57;rejtekhely in [Q out: fej+test ki];q;424.50;0.00;1
58;q-end;Q;432.50;8.00;1
59;valtas;w;433.50;0.00;1
60;valtas;w;440.50;0.00;1
61;valtas;w;445.00;0.00;1
62;valtas;w;658.00;0.00;1
63;valtas;w;766.00;0.00;1
64;valtas;w;775.50;0.00;1
65;valtas;w;786.00;0.00;1
66;rejtekhely in [Q out: fej+test ki];q;837.00;0.00;1
67;q-end;Q;850.00;13.00;1
68;valtas;w;851.50;0.00;1
69;valtas;w;852.00;0.00;1
70;valtas;w;880.50;0.00;1
71;valtas;w;881.50;0.00;1
72;valtas;w;882.50;0.00;1
73;valtas;w;885.00;0.00;1
74;valtas;w;893.00;0.00;1
