#Video File Name: 29_exploration_2.avi
#Project ID: 29_exploration_2
#Event codes:
#1 start
#w valtas
#q rejtekhely in [Q out: fej+test ki]
#
#Field separator: ;
#MWrap version: Wed Feb 14 09:50:29 CET 2018
#id;description;key;time;duration;object id
1;start;1;0.50;0.00;1
2;rejtekhely in [Q out: fej+test ki];q;0.50;0.00;1
3;q-end;Q;59.50;59.00;1
4;valtas;w;61.00;0.00;1
5;valtas;w;139.00;0.00;1
6;rejtekhely in [Q out: fej+test ki];q;141.50;0.00;1
7;q-end;Q;168.50;27.00;1
8;valtas;w;169.00;0.00;1
9;valtas;w;171.00;0.00;1
10;valtas;w;174.50;0.00;1
11;valtas;w;175.00;0.00;1
12;rejtekhely in [Q out: fej+test ki];q;176.50;0.00;1
13;q-end;Q;210.50;34.00;1
14;valtas;w;212.00;0.00;1
15;valtas;w;212.50;0.00;1
16;valtas;w;214.50;0.00;1
17;valtas;w;216.50;0.00;1
18;valtas;w;227.00;0.00;1
19;valtas;w;229.50;0.00;1
20;valtas;w;232.50;0.00;1
21;valtas;w;332.00;0.00;1
22;valtas;w;333.50;0.00;1
23;rejtekhely in [Q out: fej+test ki];q;335.00;0.00;1
24;q-end;Q;343.50;8.50;1
25;valtas;w;344.50;0.00;1
26;valtas;w;345.00;0.00;1
27;valtas;w;347.50;0.00;1
28;valtas;w;348.00;0.00;1
29;valtas;w;349.50;0.00;1
30;valtas;w;350.00;0.00;1
31;valtas;w;350.50;0.00;1
32;valtas;w;351.00;0.00;1
33;rejtekhely in [Q out: fej+test ki];q;352.00;0.00;1
34;rejtekhely in [Q out: fej+test ki];q;387.00;0.00;1
35;q-end;Q;404.00;17.00;1
36;valtas;w;405.00;0.00;1
37;valtas;w;406.00;0.00;1
38;valtas;w;412.50;0.00;1
39;valtas;w;413.50;0.00;1
40;rejtekhely in [Q out: fej+test ki];q;415.00;0.00;1
41;q-end;Q;511.50;96.50;1
42;valtas;w;512.50;0.00;1
43;valtas;w;513.00;0.00;1
44;valtas;w;600.00;0.00;1
45;rejtekhely in [Q out: fej+test ki];q;610.00;0.00;1
46;q-end;Q;621.00;11.00;1
47;valtas;w;621.00;0.00;1
48;rejtekhely in [Q out: fej+test ki];q;623.00;0.00;1
49;q-end;Q;625.00;2.00;1
50;valtas;w;626.00;0.00;1
51;valtas;w;626.50;0.00;1
52;valtas;w;631.00;0.00;1
53;valtas;w;637.50;0.00;1
54;valtas;w;638.50;0.00;1
55;rejtekhely in [Q out: fej+test ki];q;640.50;0.00;1
56;q-end;Q;709.00;68.50;1
57;valtas;w;709.50;0.00;1
58;valtas;w;787.00;0.00;1
59;valtas;w;808.00;0.00;1
60;valtas;w;809.50;0.00;1
61;valtas;w;816.50;0.00;1
62;valtas;w;817.50;0.00;1
63;rejtekhely in [Q out: fej+test ki];q;819.00;0.00;1
64;q-end;Q;852.00;33.00;1
65;valtas;w;853.50;0.00;1
66;rejtekhely in [Q out: fej+test ki];q;868.50;0.00;1
