#Video File Name: 29_exploration_5.avi
#Project ID: 29_exploration_5
#Event codes:
#1 start
#w valtas
#q rejtekhely in [Q out: fej+test ki]
#
#Field separator: ;
#MWrap version: Wed Feb 14 09:50:29 CET 2018
#id;description;key;time;duration;object id
1;start;1;0.50;0.00;1
2;rejtekhely in [Q out: fej+test ki];q;0.50;0.00;1
3;q-end;Q;44.00;43.50;1
4;valtas;w;45.00;0.00;1
5;valtas;w;115.00;0.00;1
6;valtas;w;154.00;0.00;1
#7;valtas;w;163.50;0.00;1
8;rejtekhely in [Q out: fej+test ki];q;155.50;0.00;1
9;q-end;Q;160.50;5.00;1
10;valtas;w;161.50;0.00;1
11;rejtekhely in [Q out: fej+test ki];q;162.50;0.00;1
12;q-end;Q;203.50;41.00;1
13;valtas;w;208.50;0.00;1
14;valtas;w;248.00;0.00;1
15;valtas;w;249.50;0.00;1
16;rejtekhely in [Q out: fej+test ki];q;255.00;0.00;1
17;q-end;Q;257.50;2.50;1
18;valtas;w;260.00;0.00;1
19;valtas;w;284.00;0.00;1
20;valtas;w;285.50;0.00;1
21;valtas;w;286.00;0.00;1
22;valtas;w;287.00;0.00;1
23;valtas;w;289.00;0.00;1
24;valtas;w;299.00;0.00;1
25;valtas;w;300.00;0.00;1
26;valtas;w;330.00;0.00;1
27;valtas;w;331.00;0.00;1
28;valtas;w;332.50;0.00;1
29;valtas;w;337.50;0.00;1
30;valtas;w;338.00;0.00;1
31;valtas;w;339.50;0.00;1
32;valtas;w;344.00;0.00;1
33;valtas;w;347.50;0.00;1
34;rejtekhely in [Q out: fej+test ki];q;349.00;0.00;1
35;q-end;Q;350.50;1.50;1
36;valtas;w;351.00;0.00;1
37;valtas;w;351.50;0.00;1
38;valtas;w;351.50;0.00;1
39;valtas;w;358.00;0.00;1
40;valtas;w;362.00;0.00;1
41;valtas;w;391.00;0.00;1
42;valtas;w;399.00;0.00;1
43;valtas;w;412.00;0.00;1
44;valtas;w;413.00;0.00;1
45;valtas;w;416.00;0.00;1
46;valtas;w;419.50;0.00;1
47;valtas;w;423.50;0.00;1
48;valtas;w;433.50;0.00;1
49;valtas;w;465.00;0.00;1
50;rejtekhely in [Q out: fej+test ki];q;469.50;0.00;1
51;q-end;Q;488.50;19.00;1
52;valtas;w;489.50;0.00;1
53;valtas;w;490.50;0.00;1
54;valtas;w;491.50;0.00;1
55;rejtekhely in [Q out: fej+test ki];q;492.00;0.00;1
56;q-end;Q;502.00;10.00;1
57;valtas;w;502.50;0.00;1
58;valtas;w;529.50;0.00;1
59;valtas;w;581.00;0.00;1
60;valtas;w;603.00;0.00;1
#61;valtas;w;612.00;0.00;1
62;valtas;w;647.00;0.00;1
63;rejtekhely in [Q out: fej+test ki];q;662.00;0.00;1
64;q-end;Q;681.50;19.50;1
65;valtas;w;691.00;0.00;1
66;valtas;w;692.00;0.00;1
67;valtas;w;749.00;0.00;1
68;rejtekhely in [Q out: fej+test ki];q;750.50;0.00;1
69;q-end;Q;785.50;35.00;1
70;valtas;w;786.50;0.00;1
71;valtas;w;786.50;0.00;1
72;valtas;w;803.50;0.00;1
73;rejtekhely in [Q out: fej+test ki];q;805.00;0.00;1
74;q-end;Q;854.50;49.50;1
75;valtas;w;877.50;0.00;1
