#Video File Name: 30_exploration_1.avi
#Project ID: 30_exploration_1
#Event codes:
#1 start
#w valtas
#q rejtekhely in [Q out: fej+test ki]
#
#Field separator: ;
#MWrap version: Wed Feb 14 09:50:29 CET 2018
#id;description;key;time;duration;object id
1;start;1;0.50;0.00;1
2;rejtekhely in [Q out: fej+test ki];q;0.50;0.00;1
3;q-end;Q;44.50;44.00;1
4;valtas;w;45.00;0.00;1
5;rejtekhely in [Q out: fej+test ki];q;49.00;0.00;1
6;q-end;Q;54.00;5.00;1
7;valtas;w;55.00;0.00;1
8;valtas;w;58.50;0.00;1
9;valtas;w;96.00;0.00;1
10;valtas;w;103.50;0.00;1
11;valtas;w;106.00;0.00;1
12;valtas;w;107.00;0.00;1
13;valtas;w;109.50;0.00;1
14;valtas;w;110.00;0.00;1
15;valtas;w;111.00;0.00;1
16;valtas;w;114.00;0.00;1
17;valtas;w;115.00;0.00;1
18;valtas;w;116.00;0.00;1
19;valtas;w;118.50;0.00;1
20;valtas;w;121.00;0.00;1
21;valtas;w;122.50;0.00;1
22;rejtekhely in [Q out: fej+test ki];q;129.50;0.00;1
23;q-end;Q;140.50;11.00;1
24;valtas;w;142.50;0.00;1
25;valtas;w;146.00;0.00;1
26;valtas;w;160.00;0.00;1
27;valtas;w;161.00;0.00;1
28;valtas;w;169.00;0.00;1
29;valtas;w;173.00;0.00;1
30;valtas;w;180.00;0.00;1
31;valtas;w;183.50;0.00;1
32;valtas;w;197.50;0.00;1
33;rejtekhely in [Q out: fej+test ki];q;199.00;0.00;1
34;q-end;Q;219.50;20.50;1
35;valtas;w;220.00;0.00;1
36;valtas;w;251.00;0.00;1
37;valtas;w;253.50;0.00;1
38;valtas;w;253.50;0.00;1
39;valtas;w;255.00;0.00;1
40;valtas;w;255.50;0.00;1
41;valtas;w;256.50;0.00;1
42;valtas;w;257.50;0.00;1
43;valtas;w;261.00;0.00;1
44;valtas;w;263.50;0.00;1
45;valtas;w;264.50;0.00;1
46;valtas;w;267.00;0.00;1
47;valtas;w;278.00;0.00;1
48;valtas;w;278.50;0.00;1
49;valtas;w;315.50;0.00;1
50;valtas;w;318.00;0.00;1
51;valtas;w;319.50;0.00;1
52;valtas;w;321.00;0.00;1
53;valtas;w;322.00;0.00;1
54;valtas;w;332.00;0.00;1
55;valtas;w;333.50;0.00;1
56;valtas;w;334.00;0.00;1
57;valtas;w;336.00;0.00;1
58;valtas;w;347.50;0.00;1
59;valtas;w;353.00;0.00;1
60;valtas;w;353.50;0.00;1
61;valtas;w;355.50;0.00;1
62;valtas;w;360.50;0.00;1
63;valtas;w;361.50;0.00;1
64;valtas;w;362.00;0.00;1
65;valtas;w;364.00;0.00;1
66;valtas;w;365.50;0.00;1
67;valtas;w;370.50;0.00;1
68;valtas;w;372.00;0.00;1
69;valtas;w;377.50;0.00;1
70;valtas;w;380.50;0.00;1
71;valtas;w;385.00;0.00;1
72;valtas;w;388.00;0.00;1
73;valtas;w;392.50;0.00;1
74;valtas;w;398.00;0.00;1
75;valtas;w;400.00;0.00;1
76;valtas;w;401.00;0.00;1
77;valtas;w;428.00;0.00;1
78;valtas;w;434.00;0.00;1
79;valtas;w;439.00;0.00;1
80;valtas;w;441.50;0.00;1
81;valtas;w;444.50;0.00;1
82;valtas;w;447.00;0.00;1
83;valtas;w;448.50;0.00;1
84;valtas;w;449.50;0.00;1
85;valtas;w;450.50;0.00;1
86;valtas;w;451.00;0.00;1
87;valtas;w;452.50;0.00;1
88;valtas;w;455.00;0.00;1
89;valtas;w;457.00;0.00;1
90;valtas;w;458.00;0.00;1
91;valtas;w;459.00;0.00;1
92;valtas;w;459.50;0.00;1
93;valtas;w;460.50;0.00;1
94;valtas;w;461.00;0.00;1
95;valtas;w;467.50;0.00;1
96;rejtekhely in [Q out: fej+test ki];q;474.00;0.00;1
97;rejtekhely in [Q out: fej+test ki];q;473.50;0.00;1
98;q-end;Q;475.00;1.50;1
99;valtas;w;476.00;0.00;1
100;rejtekhely in [Q out: fej+test ki];q;478.50;0.00;1
101;q-end;Q;481.00;2.50;1
102;valtas;w;481.00;0.00;1
103;rejtekhely in [Q out: fej+test ki];q;482.50;0.00;1
104;q-end;Q;487.00;4.50;1
105;valtas;w;487.50;0.00;1
106;valtas;w;507.50;0.00;1
107;valtas;w;510.50;0.00;1
108;valtas;w;511.50;0.00;1
109;valtas;w;512.00;0.00;1
110;valtas;w;517.50;0.00;1
111;valtas;w;519.00;0.00;1
112;valtas;w;525.00;0.00;1
113;valtas;w;528.00;0.00;1
114;valtas;w;530.00;0.00;1
115;valtas;w;555.50;0.00;1
116;valtas;w;557.00;0.00;1
117;valtas;w;591.50;0.00;1
118;valtas;w;604.50;0.00;1
119;valtas;w;606.00;0.00;1
120;valtas;w;610.00;0.00;1
121;valtas;w;630.50;0.00;1
122;valtas;w;631.00;0.00;1
123;valtas;w;632.50;0.00;1
124;valtas;w;638.50;0.00;1
125;rejtekhely in [Q out: fej+test ki];q;638.50;0.00;1
126;q-end;Q;743.50;105.00;1
127;valtas;w;744.50;0.00;1
128;valtas;w;750.50;0.00;1
129;valtas;w;750.50;0.00;1
130;valtas;w;772.00;0.00;1
131;valtas;w;772.50;0.00;1
132;valtas;w;872.00;0.00;1
133;valtas;w;874.00;0.00;1
134;valtas;w;892.50;0.00;1
