#Video File Name: 31_exploration_2.avi
#Project ID: 31_exploration_2
#Event codes:
#1 start
#w valtas
#q rejtekhely in [Q out: fej+test ki]
#
#Field separator: ;
#MWrap version: Wed Feb 14 09:50:29 CET 2018
#id;description;key;time;duration;object id
1;start;1;0.50;0.00;1
2;valtas;w;8.00;0.00;1
3;rejtekhely in [Q out: fej+test ki];q;8.00;0.00;1
4;q-end;Q;130.00;122.00;1
6;valtas;w;203.00;0.00;1
7;valtas;w;203.00;0.00;1
8;valtas;w;204.50;0.00;1
9;valtas;w;211.00;0.00;1
10;valtas;w;211.50;0.00;1
11;valtas;w;213.50;0.00;1
12;valtas;w;214.50;0.00;1
13;valtas;w;220.50;0.00;1
14;valtas;w;222.00;0.00;1
15;valtas;w;230.50;0.00;1
16;valtas;w;230.50;0.00;1
17;valtas;w;232.00;0.00;1
18;valtas;w;233.00;0.00;1
19;valtas;w;233.50;0.00;1
20;valtas;w;246.50;0.00;1
21;valtas;w;258.00;0.00;1
22;valtas;w;259.00;0.00;1
24;valtas;w;270.00;0.00;1
25;rejtekhely in [Q out: fej+test ki];q;270.50;0.00;1
26;q-end;Q;272.50;2.00;1
27;valtas;w;273.00;0.00;1
28;valtas;w;273.50;0.00;1
29;valtas;w;274.00;0.00;1
30;valtas;w;277.00;0.00;1
31;valtas;w;279.00;0.00;1
32;rejtekhely in [Q out: fej+test ki];q;280.00;0.00;1
33;q-end;Q;288.00;8.00;1
34;valtas;w;288.50;0.00;1
35;valtas;w;332.50;0.00;1
36;valtas;w;333.00;0.00;1
37;valtas;w;334.00;0.00;1
38;valtas;w;335.50;0.00;1
39;valtas;w;338.50;0.00;1
40;valtas;w;339.50;0.00;1
41;valtas;w;341.00;0.00;1
42;valtas;w;342.50;0.00;1
43;valtas;w;344.00;0.00;1
44;valtas;w;350.50;0.00;1
45;valtas;w;351.50;0.00;1
46;valtas;w;355.00;0.00;1
47;valtas;w;356.00;0.00;1
48;rejtekhely in [Q out: fej+test ki];q;359.00;0.00;1
49;q-end;Q;375.00;16.00;1
50;valtas;w;378.00;0.00;1
51;valtas;w;381.00;0.00;1
52;valtas;w;382.50;0.00;1
53;valtas;w;383.50;0.00;1
54;valtas;w;388.00;0.00;1
55;valtas;w;413.50;0.00;1
56;valtas;w;414.50;0.00;1
57;valtas;w;416.50;0.00;1
58;valtas;w;417.50;0.00;1
59;valtas;w;419.00;0.00;1
60;valtas;w;420.00;0.00;1
61;valtas;w;422.50;0.00;1
62;valtas;w;425.00;0.00;1
63;valtas;w;428.50;0.00;1
64;valtas;w;430.50;0.00;1
65;rejtekhely in [Q out: fej+test ki];q;433.50;0.00;1
66;q-end;Q;518.00;84.50;1
67;valtas;w;518.50;0.00;1
68;valtas;w;519.50;0.00;1
69;valtas;w;533.00;0.00;1
70;valtas;w;536.00;0.00;1
71;valtas;w;537.00;0.00;1
72;rejtekhely in [Q out: fej+test ki];q;540.50;0.00;1
73;q-end;Q;545.00;4.50;1
74;valtas;w;545.50;0.00;1
75;valtas;w;550.00;0.00;1
76;valtas;w;571.00;0.00;1
77;valtas;w;575.50;0.00;1
78;valtas;w;576.50;0.00;1
79;valtas;w;580.50;0.00;1
80;valtas;w;584.00;0.00;1
81;valtas;w;586.50;0.00;1
82;valtas;w;590.50;0.00;1
83;valtas;w;595.00;0.00;1
84;valtas;w;601.00;0.00;1
85;valtas;w;603.00;0.00;1
86;valtas;w;606.50;0.00;1
87;valtas;w;609.00;0.00;1
88;valtas;w;611.50;0.00;1
89;valtas;w;613.00;0.00;1
90;valtas;w;617.50;0.00;1
91;valtas;w;618.50;0.00;1
92;valtas;w;627.50;0.00;1
93;valtas;w;628.00;0.00;1
94;valtas;w;628.50;0.00;1
95;valtas;w;638.50;0.00;1
96;valtas;w;641.00;0.00;1
97;valtas;w;642.00;0.00;1
98;valtas;w;645.50;0.00;1
99;rejtekhely in [Q out: fej+test ki];q;649.50;0.00;1
100;q-end;Q;698.50;49.00;1
101;valtas;w;699.00;0.00;1
102;valtas;w;704.50;0.00;1
103;valtas;w;706.00;0.00;1
104;valtas;w;706.50;0.00;1
105;valtas;w;712.50;0.00;1
106;valtas;w;723.00;0.00;1
107;valtas;w;726.00;0.00;1
108;valtas;w;730.00;0.00;1
109;rejtekhely in [Q out: fej+test ki];q;730.50;0.00;1
110;q-end;Q;739.50;9.00;1
111;valtas;w;750.00;0.00;1
112;valtas;w;781.50;0.00;1
113;valtas;w;783.50;0.00;1
114;valtas;w;784.00;0.00;1
115;rejtekhely in [Q out: fej+test ki];q;788.50;0.00;1
#Restarted recording from the last position
116;q-end;Q;808.00;19.50;1
