#Video File Name: 33_exploration_6.avi
#Project ID: 33_exploration_6
#Event codes:
#1 start
#w valtas
#q rejtekhely in [Q out: fej+test ki]
#
#Field separator: ;
#MWrap version: Wed Feb 14 09:50:29 CET 2018
#id;description;key;time;duration;object id
1;start;1;0.50;0.00;1
2;rejtekhely in [Q out: fej+test ki];q;3.50;0.00;1
3;q-end;Q;105.00;101.50;1
4;valtas;w;106.50;0.00;1
5;valtas;w;164.50;0.00;1
6;valtas;w;172.50;0.00;1
7;valtas;w;179.00;0.00;1
8;valtas;w;183.50;0.00;1
9;rejtekhely in [Q out: fej+test ki];q;186.00;0.00;1
10;q-end;Q;188.50;2.50;1
11;valtas;w;189.00;0.00;1
12;valtas;w;189.50;0.00;1
13;valtas;w;190.00;0.00;1
14;valtas;w;194.50;0.00;1
15;valtas;w;227.50;0.00;1
16;valtas;w;239.00;0.00;1
17;valtas;w;266.00;0.00;1
18;valtas;w;267.00;0.00;1
19;valtas;w;273.00;0.00;1
20;valtas;w;276.50;0.00;1
21;valtas;w;277.50;0.00;1
22;valtas;w;282.00;0.00;1
23;valtas;w;309.50;0.00;1
24;valtas;w;310.50;0.00;1
25;valtas;w;312.50;0.00;1
26;valtas;w;313.50;0.00;1
27;valtas;w;314.50;0.00;1
28;valtas;w;324.50;0.00;1
29;valtas;w;330.50;0.00;1
30;valtas;w;341.00;0.00;1
31;valtas;w;342.00;0.00;1
32;valtas;w;345.00;0.00;1
33;valtas;w;345.50;0.00;1
34;valtas;w;349.00;0.00;1
35;valtas;w;350.00;0.00;1
36;valtas;w;357.00;0.00;1
37;valtas;w;380.00;0.00;1
38;valtas;w;381.50;0.00;1
39;valtas;w;382.50;0.00;1
40;valtas;w;384.50;0.00;1
41;valtas;w;385.50;0.00;1
42;valtas;w;388.00;0.00;1
43;valtas;w;392.50;0.00;1
44;valtas;w;407.50;0.00;1
45;valtas;w;419.00;0.00;1
46;valtas;w;428.00;0.00;1
47;valtas;w;432.00;0.00;1
48;valtas;w;436.50;0.00;1
49;valtas;w;455.00;0.00;1
50;valtas;w;473.00;0.00;1
51;valtas;w;477.50;0.00;1
52;valtas;w;489.50;0.00;1
53;valtas;w;493.50;0.00;1
54;rejtekhely in [Q out: fej+test ki];q;494.50;0.00;1
55;q-end;Q;496.50;2.00;1
56;valtas;w;497.00;0.00;1
57;valtas;w;506.00;0.00;1
58;valtas;w;522.50;0.00;1
59;valtas;w;542.00;0.00;1
60;rejtekhely in [Q out: fej+test ki];q;551.50;0.00;1
61;q-end;Q;566.50;15.00;1
62;valtas;w;567.50;0.00;1
63;rejtekhely in [Q out: fej+test ki];q;568.50;0.00;1
64;q-end;Q;574.00;5.50;1
65;valtas;w;575.00;0.00;1
66;valtas;w;575.50;0.00;1
67;valtas;w;584.50;0.00;1
68;valtas;w;585.50;0.00;1
69;valtas;w;586.00;0.00;1
70;valtas;w;587.50;0.00;1
71;valtas;w;591.00;0.00;1
72;valtas;w;592.00;0.00;1
73;valtas;w;600.50;0.00;1
74;valtas;w;622.50;0.00;1
75;valtas;w;624.00;0.00;1
76;rejtekhely in [Q out: fej+test ki];q;626.00;0.00;1
77;q-end;Q;629.00;3.00;1
78;valtas;w;629.50;0.00;1
79;valtas;w;630.00;0.00;1
80;valtas;w;637.00;0.00;1
81;valtas;w;639.00;0.00;1
82;valtas;w;641.50;0.00;1
83;valtas;w;648.00;0.00;1
84;valtas;w;657.50;0.00;1
85;valtas;w;690.00;0.00;1
86;valtas;w;700.50;0.00;1
87;rejtekhely in [Q out: fej+test ki];q;702.00;0.00;1
88;q-end;Q;703.50;1.50;1
89;valtas;w;704.00;0.00;1
90;rejtekhely in [Q out: fej+test ki];q;712.50;0.00;1
91;q-end;Q;747.50;35.00;1
92;valtas;w;748.50;0.00;1
93;valtas;w;753.00;0.00;1
94;valtas;w;754.00;0.00;1
95;valtas;w;760.00;0.00;1
96;valtas;w;780.00;0.00;1
97;valtas;w;780.50;0.00;1
98;valtas;w;781.50;0.00;1
99;valtas;w;783.50;0.00;1
100;valtas;w;784.50;0.00;1
101;valtas;w;787.50;0.00;1
102;valtas;w;788.50;0.00;1
103;valtas;w;801.00;0.00;1
104;valtas;w;803.00;0.00;1
105;valtas;w;815.50;0.00;1
106;valtas;w;835.00;0.00;1
107;rejtekhely in [Q out: fej+test ki];q;837.00;0.00;1
108;q-end;Q;851.50;14.50;1
109;valtas;w;855.00;0.00;1
110;valtas;w;863.50;0.00;1
111;valtas;w;868.50;0.00;1
112;valtas;w;869.50;0.00;1
113;valtas;w;883.00;0.00;1
114;rejtekhely in [Q out: fej+test ki];q;884.00;0.00;1
115;q-end;Q;906.00;22.00;1
