#Video File Name: 35_exploration_3.avi
#Project ID: 35_exploration_3
#Event codes:
#1 start
#w valtas
#q rejtekhely in [Q out: fej+test ki]
#
#Field separator: ;
#MWrap version: Wed Feb 14 09:50:29 CET 2018
#id;description;key;time;duration;object id
1;start;1;0.50;0.00;1
2;rejtekhely in [Q out: fej+test ki];q;0.50;0.00;1
3;q-end;Q;25.00;24.50;1
4;valtas;w;67.50;0.00;1
5;valtas;w;70.50;0.00;1
6;valtas;w;71.50;0.00;1
7;rejtekhely in [Q out: fej+test ki];q;72.50;0.00;1
8;q-end;Q;74.00;1.50;1
9;valtas;w;74.50;0.00;1
10;valtas;w;75.00;0.00;1
11;valtas;w;76.00;0.00;1
12;valtas;w;78.50;0.00;1
13;valtas;w;83.50;0.00;1
14;valtas;w;89.50;0.00;1
15;valtas;w;99.50;0.00;1
16;valtas;w;101.50;0.00;1
17;valtas;w;102.00;0.00;1
18;rejtekhely in [Q out: fej+test ki];q;103.00;0.00;1
19;q-end;Q;103.50;0.50;1
20;valtas;w;103.50;0.00;1
21;valtas;w;104.00;0.00;1
22;valtas;w;104.50;0.00;1
23;valtas;w;105.50;0.00;1
24;valtas;w;108.50;0.00;1
25;valtas;w;109.50;0.00;1
26;valtas;w;110.50;0.00;1
27;valtas;w;125.50;0.00;1
28;valtas;w;129.50;0.00;1
29;valtas;w;130.50;0.00;1
30;valtas;w;131.50;0.00;1
31;valtas;w;132.00;0.00;1
32;valtas;w;134.50;0.00;1
33;valtas;w;135.50;0.00;1
34;valtas;w;144.00;0.00;1
35;valtas;w;150.00;0.00;1
36;valtas;w;167.50;0.00;1
37;valtas;w;187.00;0.00;1
38;valtas;w;191.50;0.00;1
39;valtas;w;194.00;0.00;1
40;valtas;w;195.00;0.00;1
41;valtas;w;197.00;0.00;1
42;valtas;w;197.50;0.00;1
43;valtas;w;198.00;0.00;1
44;valtas;w;200.50;0.00;1
45;valtas;w;203.50;0.00;1
46;valtas;w;212.50;0.00;1
47;valtas;w;231.50;0.00;1
48;valtas;w;249.00;0.00;1
49;valtas;w;258.00;0.00;1
50;valtas;w;261.50;0.00;1
51;rejtekhely in [Q out: fej+test ki];q;262.50;0.00;1
52;q-end;Q;265.00;2.50;1
53;valtas;w;266.00;0.00;1
54;valtas;w;266.00;0.00;1
55;rejtekhely in [Q out: fej+test ki];q;267.50;0.00;1
56;q-end;Q;271.50;4.00;1
57;valtas;w;272.50;0.00;1
58;valtas;w;272.50;0.00;1
59;valtas;w;273.50;0.00;1
60;valtas;w;274.50;0.00;1
61;valtas;w;278.00;0.00;1
62;rejtekhely in [Q out: fej+test ki];q;281.00;0.00;1
63;q-end;Q;292.00;11.00;1
64;valtas;w;293.00;0.00;1
65;valtas;w;294.50;0.00;1
66;valtas;w;298.00;0.00;1
67;valtas;w;305.00;0.00;1
68;rejtekhely in [Q out: fej+test ki];q;309.00;0.00;1
69;q-end;Q;310.50;1.50;1
70;valtas;w;311.50;0.00;1
71;valtas;w;311.50;0.00;1
72;valtas;w;312.50;0.00;1
73;valtas;w;315.00;0.00;1
74;valtas;w;316.00;0.00;1
75;rejtekhely in [Q out: fej+test ki];q;329.50;0.00;1
76;q-end;Q;331.00;1.50;1
77;valtas;w;331.50;0.00;1
78;valtas;w;332.00;0.00;1
79;valtas;w;332.50;0.00;1
80;valtas;w;339.50;0.00;1
81;valtas;w;354.00;0.00;1
82;valtas;w;357.00;0.00;1
83;valtas;w;360.00;0.00;1
84;valtas;w;362.00;0.00;1
85;valtas;w;362.50;0.00;1
86;valtas;w;364.00;0.00;1
88;valtas;w;379.50;0.00;1
89;valtas;w;389.50;0.00;1
90;rejtekhely in [Q out: fej+test ki];q;391.00;0.00;1
91;q-end;Q;393.50;2.50;1
92;valtas;w;394.00;0.00;1
93;rejtekhely in [Q out: fej+test ki];q;395.00;0.00;1
94;q-end;Q;398.50;3.50;1
95;valtas;w;399.50;0.00;1
96;valtas;w;400.00;0.00;1
97;valtas;w;404.50;0.00;1
98;valtas;w;423.50;0.00;1
99;valtas;w;427.00;0.00;1
100;valtas;w;469.00;0.00;1
101;valtas;w;470.00;0.00;1
102;valtas;w;471.00;0.00;1
103;valtas;w;472.00;0.00;1
104;valtas;w;474.00;0.00;1
105;valtas;w;477.50;0.00;1
106;valtas;w;480.00;0.00;1
107;valtas;w;483.00;0.00;1
108;valtas;w;492.50;0.00;1
109;valtas;w;494.50;0.00;1
110;valtas;w;496.50;0.00;1
111;valtas;w;498.00;0.00;1
112;valtas;w;499.50;0.00;1
113;valtas;w;506.50;0.00;1
114;valtas;w;523.00;0.00;1
115;valtas;w;537.00;0.00;1
116;valtas;w;538.50;0.00;1
117;valtas;w;542.50;0.00;1
118;valtas;w;543.00;0.00;1
119;valtas;w;547.50;0.00;1
120;valtas;w;549.00;0.00;1
121;valtas;w;558.00;0.00;1
122;valtas;w;564.00;0.00;1
#123;valtas;w;564.50;0.00;1
124;valtas;w;573.50;0.00;1
125;valtas;w;575.00;0.00;1
126;valtas;w;587.50;0.00;1
127;rejtekhely in [Q out: fej+test ki];q;588.00;0.00;1
128;q-end;Q;589.00;1.00;1
129;valtas;w;589.50;0.00;1
130;valtas;w;590.50;0.00;1
131;valtas;w;592.50;0.00;1
132;valtas;w;593.50;0.00;1
133;valtas;w;598.50;0.00;1
134;rejtekhely in [Q out: fej+test ki];q;600.00;0.00;1
135;q-end;Q;624.00;24.00;1
136;valtas;w;628.50;0.00;1
137;valtas;w;629.00;0.00;1
138;valtas;w;630.50;0.00;1
139;valtas;w;631.00;0.00;1
140;valtas;w;636.50;0.00;1
141;valtas;w;638.50;0.00;1
142;rejtekhely in [Q out: fej+test ki];q;639.00;0.00;1
143;q-end;Q;647.00;8.00;1
144;valtas;w;650.50;0.00;1
145;valtas;w;662.00;0.00;1
146;valtas;w;665.50;0.00;1
147;rejtekhely in [Q out: fej+test ki];q;667.00;0.00;1
148;q-end;Q;668.00;1.00;1
149;valtas;w;668.50;0.00;1
150;valtas;w;669.00;0.00;1
151;valtas;w;670.00;0.00;1
152;rejtekhely in [Q out: fej+test ki];q;671.50;0.00;1
153;q-end;Q;676.50;5.00;1
154;valtas;w;677.50;0.00;1
155;valtas;w;678.00;0.00;1
156;valtas;w;697.00;0.00;1
157;valtas;w;761.50;0.00;1
158;valtas;w;765.00;0.00;1
159;valtas;w;766.00;0.00;1
160;valtas;w;766.50;0.00;1
161;valtas;w;767.50;0.00;1
162;valtas;w;769.00;0.00;1
163;valtas;w;787.00;0.00;1
164;valtas;w;788.50;0.00;1
165;valtas;w;790.50;0.00;1
166;valtas;w;792.50;0.00;1
167;valtas;w;794.00;0.00;1
168;valtas;w;794.50;0.00;1
169;valtas;w;800.50;0.00;1
170;valtas;w;803.00;0.00;1
171;valtas;w;817.50;0.00;1
172;valtas;w;818.50;0.00;1
173;valtas;w;820.00;0.00;1
174;rejtekhely in [Q out: fej+test ki];q;820.50;0.00;1
175;valtas;w;823.50;0.00;1
176;q-end;Q;824.00;3.50;1
177;valtas;w;824.50;0.00;1
178;valtas;w;828.00;0.00;1
179;valtas;w;833.50;0.00;1
180;valtas;w;835.50;0.00;1
181;valtas;w;838.00;0.00;1
182;valtas;w;839.00;0.00;1
183;valtas;w;851.50;0.00;1
184;valtas;w;869.50;0.00;1
185;valtas;w;872.50;0.00;1
186;valtas;w;876.00;0.00;1
187;valtas;w;877.50;0.00;1
188;valtas;w;880.00;0.00;1
189;rejtekhely in [Q out: fej+test ki];q;884.00;0.00;1
190;q-end;Q;893.50;9.50;1
191;valtas;w;894.50;0.00;1
192;valtas;w;895.00;0.00;1
193;valtas;w;897.50;0.00;1
