Data from Transmission_09-29-45-503.txt Node
Date: Fri Aug 24 09:29:45 EEST 2018
User: tibor.sos
Spectrometer: USB4F01757
Scans to average: 10
Trigger mode: 4
Integration Time (sec): 1.000000E-2
Electric dark correction enabled: true
Boxcar width: 10
XAxis mode: Wavelengths
Number of Pixels in Spectrum: 3648
>>>>>Begin Spectral Data<<<<<
178.758	-28.45
178.974	-138.93
179.191	-154
179.407	-47.79
179.624	-33.73
179.84	-40.25
180.057	-63.89
180.273	-47.08
180.489	-37.97
180.706	-144.6
180.922	-97.69
181.138	-87.51
181.355	-20.52
181.571	4.89
181.787	16.1
182.004	0.67
182.22	-19.86
182.436	-75.35
182.653	-23.97
182.869	-6.2
183.085	-42.72
183.301	-13.82
183.518	12.38
183.734	21.85
183.95	20.6
184.166	19.28
184.383	58.23
184.599	61.99
184.815	48.35
185.031	42.43
185.247	71.72
185.463	79.89
185.68	82.87
185.896	83.98
186.112	85.71
186.328	90.53
186.544	126.01
186.76	131.97
186.976	139.26
187.192	154.59
187.408	175.34
187.624	208.23
187.84	159.29
188.056	151.15
188.272	133.5
188.488	142.47
188.704	143.58
188.92	167.73
189.136	145.94
189.352	156.07
189.568	185.4
189.784	210.16
190	187.76
190.216	208.64
190.432	206.39
190.648	214.46
190.864	496.71
191.08	384.97
191.296	175.01
191.511	179.16
191.727	217.24
191.943	223.36
192.159	154.59
192.375	155.26
192.591	174.77
192.806	275.42
193.022	199
193.238	387.26
193.454	260.95
193.669	407.29
193.885	467.89
194.101	611.8
194.317	285.21
194.532	1817.98
194.748	-952.94
194.964	543.34
195.18	294.86
195.395	263.87
195.611	230.39
195.827	517.49
196.042	959.84
196.258	438.72
196.473	303.38
196.689	240.22
196.905	338.35
197.12	1110.89
197.336	204.27
197.551	-91.76
197.767	36600
197.982	-10.17
198.198	-150.68
198.414	65.17
198.629	1.39
198.845	-11.65
199.06	-14.21
199.276	33.9
199.491	65.95
199.707	102.56
199.922	69.84
200.137	68.55
200.353	11.9
200.568	53.91
200.784	83.46
200.999	71.15
201.215	176.08
201.43	214.34
201.645	175.96
201.861	238.48
202.076	230.35
202.291	281.62
202.507	304.29
202.722	230.01
202.937	334.33
203.153	376.41
203.368	271.15
203.583	199.21
203.798	152.99
204.014	138.04
204.229	104.49
204.444	170.59
204.659	284.3
204.875	535.2
205.09	-771.43
205.305	343.4
205.52	-365.85
205.735	-171.26
205.951	-1336
206.166	174.68
206.381	178.91
206.596	1909.09
206.811	969.59
207.026	433.21
207.241	204.74
207.457	-173.83
207.672	-434.71
207.887	536.45
208.102	286.85
208.317	136.3
208.532	-281.36
208.747	191.26
208.962	474.9
209.177	-605.37
209.392	-202.49
209.607	8.13
209.822	73.43
210.037	43.87
210.252	51.5
210.467	136.93
210.682	109.23
210.897	85.01
211.112	99.62
211.326	105.75
211.541	98.23
211.756	71.21
211.971	60.24
212.186	38.2
212.401	51
212.616	40.17
212.831	48.29
213.045	40.98
213.26	49.52
213.475	60.89
213.69	26.98
213.905	-29.48
214.119	-435.29
214.334	5133.33
214.549	535.22
214.764	-566.84
214.978	-316.04
215.193	-505.14
215.408	4251.28
215.622	-690.57
215.837	-3435.56
216.052	1993.1
216.266	392.41
216.481	322.67
216.696	300.82
216.91	-4030.3
217.125	-225.53
217.34	-631.09
217.554	-833.51
217.769	463.57
217.983	239.01
218.198	228.28
218.412	414.79
218.627	-169.71
218.842	-91.59
219.056	-90.47
219.271	-76.95
219.485	-108.6
219.7	-38.93
219.914	76.12
220.129	67.38
220.343	-9.42
220.558	-27.58
220.772	-123.17
220.986	-80.12
221.201	-161.32
221.415	355.81
221.63	243.3
221.844	200.34
222.058	193.58
222.273	209.55
222.487	198.85
222.702	320.37
222.916	306.59
223.13	191.34
223.344	156.12
223.559	145.93
223.773	159.53
223.987	192.83
224.202	221.4
224.416	332.61
224.63	186.99
224.844	130.89
225.059	110.11
225.273	321.21
225.487	-337.6
225.701	46.07
225.915	15.45
226.13	45.84
226.344	100.97
226.558	118.43
226.772	98.86
226.986	94.23
227.2	105.12
227.415	122.6
227.629	167.88
227.843	185.72
228.057	164.97
228.271	152.05
228.485	171.84
228.699	189.77
228.913	186.33
229.127	166.75
229.341	154.93
229.555	213.03
229.769	286.72
229.983	328.55
230.197	258.02
230.411	375.05
230.625	432.76
230.839	221.88
231.053	161.8
231.267	390.48
231.481	301.41
231.695	190.39
231.909	76.79
232.122	18.93
232.336	40.25
232.55	23.18
232.764	11.93
232.978	-66.67
233.192	-22.72
233.405	-31
233.619	-53.25
233.833	-12.32
234.047	-79.46
234.261	-157.1
234.474	-48.73
234.688	0.93
234.902	76.83
235.116	124.51
235.329	158.41
235.543	93.26
235.757	79.84
235.97	68.19
236.184	70.6
236.398	68.47
236.612	76.8
236.825	127.04
237.039	174.66
237.252	151.83
237.466	139.39
237.68	572.88
237.893	-24600
238.107	135.18
238.32	-74.78
238.534	85.85
238.748	114.34
238.961	123.63
239.175	47.18
239.388	122.05
239.602	273.9
239.815	220.68
240.029	183.09
240.242	130.91
240.456	108.33
240.669	141.04
240.882	130.66
241.096	212.57
241.309	112.01
241.523	110.09
241.736	111.21
241.95	179.89
242.163	61.65
242.376	3.09
242.59	-385.6
242.803	2466.67
243.016	301.51
243.23	1063.87
243.443	9506.67
243.656	-1306.77
243.87	-223.67
244.083	-139.06
244.296	-113.14
244.509	-90.4
244.723	-100.07
244.936	-81.8
245.149	-145.84
245.362	-136.16
245.576	-69.64
245.789	-51.86
246.002	-23.32
246.215	-47.01
246.428	-31.21
246.641	-42.34
246.855	-49.65
247.068	-49.96
247.281	-68.72
247.494	0.08
247.707	-19.46
247.92	-20.01
248.133	-10
248.346	-31.52
248.559	-22.09
248.772	-51.37
248.985	-31.13
249.198	-5.52
249.411	-23.35
249.624	-26.55
249.837	-10.45
250.05	-3.27
250.263	-21.65
250.476	-19.9
250.689	3.17
250.902	4.49
251.115	-9.86
251.328	-4.43
251.541	-1.59
251.754	-2.45
251.967	-6.24
252.18	9.26
252.393	6.99
252.605	14.7
252.818	26.02
253.031	29.37
253.244	30.89
253.457	36.23
253.67	31.92
253.882	43.49
254.095	53.8
254.308	46.06
254.521	34.69
254.733	39.44
254.946	40.98
255.159	32.1
255.372	25.34
255.584	27.22
255.797	24.14
256.01	18.71
256.222	29.5
256.435	21.47
256.648	17.69
256.86	20.7
257.073	27.36
257.285	18.71
257.498	5.62
257.711	14.22
257.923	5.89
258.136	14.16
258.348	5.6
258.561	-16.88
258.773	-27.69
258.986	-25.73
259.198	-33.2
259.411	-81.88
259.623	-52.1
259.836	-16.42
260.048	3.37
260.261	26.02
260.473	30
260.686	33.13
260.898	36.82
261.111	24.17
261.323	24.66
261.535	16.46
261.748	24.08
261.96	35.14
262.173	29.96
262.385	35.89
262.597	37.28
262.81	41.31
263.022	42
263.234	48.55
263.447	49.59
263.659	46.19
263.871	49.99
264.083	45.41
264.296	39.03
264.508	32.65
264.72	25.65
264.932	29.1
265.145	18.02
265.357	13.62
265.569	15.97
265.781	12.02
265.993	5.95
266.205	-9.36
266.418	-25.97
266.63	-35.77
266.842	-16.16
267.054	-27.75
267.266	-27.36
267.478	-25.42
267.69	-18.33
267.902	-35.48
268.114	-22.97
268.326	-24.51
268.538	-7.54
268.75	-8.19
268.962	-15.57
269.174	-3.44
269.386	6.67
269.598	17.4
269.81	19.01
270.022	20.52
270.234	19.8
270.446	22
270.658	18.41
270.87	23.23
271.082	19.98
271.294	19.31
271.506	17.11
271.718	16.59
271.929	19.72
272.141	18.88
272.353	22.23
272.565	17.8
272.777	21.05
272.989	23.95
273.2	35.04
273.412	36.82
273.624	33.81
273.836	32.08
274.047	39.24
274.259	45.92
274.471	47.18
274.683	42.87
274.894	44.39
275.106	50.66
275.318	49.44
275.529	57.68
275.741	53.47
275.953	54.64
276.164	56.43
276.376	58.7
276.588	63.05
276.799	67.87
277.011	68.99
277.222	74.58
277.434	65.44
277.646	50.27
277.857	60.12
278.069	67.6
278.28	61.29
278.492	45.24
278.703	41.27
278.915	44.7
279.126	48.79
279.338	48.61
279.549	45.06
279.761	44.67
279.972	43.87
280.183	47.3
280.395	51.51
280.606	54.58
280.818	50.38
281.029	46.31
281.24	45.71
281.452	50.28
281.663	46.82
281.875	49.4
282.086	55.42
282.297	50.45
282.508	47.56
282.72	53.81
282.931	56.79
283.142	49.28
283.354	44.56
283.565	45.46
283.776	47.98
283.987	42.96
284.199	31.81
284.41	31.11
284.621	32.52
284.832	26.68
285.043	26.3
285.254	25.81
285.466	27.83
285.677	24.85
285.888	10.22
286.099	13.35
286.31	19.32
286.521	5.54
286.732	2.31
286.943	-1.1
287.154	-5.77
287.366	-8.25
287.577	-1.45
287.788	-3.71
287.999	1.32
288.21	-5.44
288.421	0.89
288.632	-2.43
288.843	-1.74
289.054	-1.57
289.264	-3.67
289.475	-6.11
289.686	-2.33
289.897	-1.44
290.108	3.08
290.319	8.38
290.53	11.34
290.741	6.27
290.952	14.31
291.163	15.58
291.373	14.74
291.584	19.77
291.795	22
292.006	17.71
292.217	18.3
292.427	15.47
292.638	20.07
292.849	19.91
293.06	27.67
293.27	24.77
293.481	27.29
293.692	22.87
293.903	21.52
294.113	18.79
294.324	16.35
294.535	8.96
294.745	10.92
294.956	7.89
295.167	4.98
295.377	0.73
295.588	5.4
295.798	8.33
296.009	0.75
296.22	-1.63
296.43	0.79
296.641	-3.47
296.851	-5.05
297.062	-9.07
297.272	-4.58
297.483	-1.87
297.693	-3.46
297.904	-9.84
298.114	1.57
298.325	4.31
298.535	2.94
298.746	3.62
298.956	5.44
299.167	3.08
299.377	-3.61
299.587	-6.21
299.798	-7.43
300.008	-18.86
300.219	-16.99
300.429	-15.06
300.639	-11.98
300.85	-11.45
301.06	-11.57
301.27	-2.77
301.481	1.34
301.691	-7.19
301.901	-11.7
302.111	-14.02
302.322	-6.85
302.532	-15.31
302.742	-24.33
302.952	-22.49
303.163	-24.02
303.373	-33.85
303.583	-32.66
303.793	-23.93
304.003	-9.39
304.214	-5.11
304.424	1.45
304.634	-1.2
304.844	0.46
305.054	2.23
305.264	2.42
305.474	8.82
305.684	5.03
305.894	6.44
306.104	12.69
306.314	9.39
306.525	12.96
306.735	7.86
306.945	3.74
307.155	12.09
307.365	21.26
307.575	19.7
307.784	20.56
307.994	22.38
308.204	19.53
308.414	18.12
308.624	12.81
308.834	15.62
309.044	16.17
309.254	18.23
309.464	17.64
309.674	15.22
309.884	11.27
310.093	12.53
310.303	11.91
310.513	15.92
310.723	17.58
310.933	17.04
311.142	19.76
311.352	24.16
311.562	21.11
311.772	18.99
311.981	21.52
312.191	21.51
312.401	22.69
312.611	24.21
312.82	17.64
313.03	22.26
313.24	21.39
313.449	22.46
313.659	20.42
313.869	17.33
314.078	19.67
314.288	18.11
314.497	15.64
314.707	15.61
314.917	12.12
315.126	18.9
315.336	18.06
315.545	14.27
315.755	13.4
315.964	11.98
316.174	11.59
316.383	8.21
316.593	9.07
316.802	8.32
317.012	5.35
317.221	13.53
317.431	10.34
317.64	11.07
317.849	4.38
318.059	3.03
318.268	8.86
318.478	10.27
318.687	14.81
318.896	14.67
319.106	14.55
319.315	13.77
319.524	3.85
319.734	1.45
319.943	3.81
320.152	4.36
320.362	1.91
320.571	-0.1
320.78	-2.58
320.989	0.8
321.199	3.03
321.408	6.29
321.617	3.38
321.826	9.79
322.035	6.39
322.245	10.34
322.454	13.49
322.663	9.99
322.872	3.15
323.081	-1.71
323.29	-1.88
323.5	-1.18
323.709	-1.78
323.918	4.47
324.127	-0.02
324.336	-13.02
324.545	-21.5
324.754	-14.42
324.963	-12
325.172	-8.86
325.381	-9.95
325.59	-10.35
325.799	-13.77
326.008	-21.76
326.217	-34.07
326.426	-30.16
326.635	-27.17
326.844	-30.3
327.053	-22.78
327.262	-13.42
327.47	-12.6
327.679	-7.24
327.888	-10.21
328.097	-7.73
328.306	-10.8
328.515	-1.07
328.724	7.3
328.932	7.25
329.141	1.7
329.35	-4.37
329.559	-6.24
329.768	-3.3
329.976	-4.58
330.185	-2.78
330.394	-0.9
330.602	5.27
330.811	-5.22
331.02	-2.77
331.229	-0.11
331.437	2.07
331.646	0.79
331.855	5.8
332.063	7.16
332.272	4.35
332.48	-3.76
332.689	-6.07
332.898	-13.45
333.106	-14.34
333.315	-10.12
333.523	-9.34
333.732	-6.99
333.94	2.93
334.149	4.24
334.357	5.26
334.566	7.24
334.774	13.62
334.983	15.62
335.191	21.8
335.4	10.21
335.608	7.11
335.817	-3.18
336.025	-5.7
336.234	-15.01
336.442	-19.74
336.65	-15.96
336.859	-2.77
337.067	-2.93
337.275	7.74
337.484	12.66
337.692	15.2
337.9	21.18
338.109	27.08
338.317	17.04
338.525	14.32
338.734	24.92
338.942	15
339.15	6.08
339.358	-9.19
339.567	2.34
339.775	5.26
339.983	-2.89
340.191	1.77
340.399	9.29
340.608	15.71
340.816	10.24
341.024	12.33
341.232	7.53
341.44	11.52
341.648	11.62
341.856	10.83
342.064	13.78
342.272	7.73
342.481	13.51
342.689	16.74
342.897	8.12
343.105	-7.1
343.313	6.06
343.521	9.8
343.729	9.47
343.937	4.26
344.145	5.06
344.353	11.14
344.56	9.63
344.768	4.21
344.976	-0.68
345.184	1.62
345.392	-0.7
345.6	5.77
345.808	7.87
346.016	3.05
346.224	12.82
346.431	18.5
346.639	25.77
346.847	19.58
347.055	13.23
347.263	17.34
347.471	18.15
347.678	15.1
347.886	9
348.094	12.8
348.302	18.78
348.509	18.4
348.717	15.65
348.925	16.57
349.132	19.06
349.34	14.29
349.548	14.35
349.755	13.13
349.963	4.45
350.171	-0.03
350.378	1.01
350.586	-10.31
350.793	-14.8
351.001	-12.59
351.209	-15.72
351.416	-5.77
351.624	-2.22
351.831	-1.5
352.039	-3.41
352.246	-13.27
352.454	-20.94
352.661	-29.02
352.869	-35.61
353.076	-34.1
353.284	-30.21
353.491	-22.85
353.699	-23.46
353.906	-14.24
354.113	-6.05
354.321	-2.58
354.528	2.92
354.736	2.92
354.943	2.1
355.15	2.38
355.358	-13.46
355.565	-14.27
355.772	-14.4
355.98	-8.56
356.187	-1.92
356.394	-6.35
356.601	1.15
356.809	10
357.016	19.45
357.223	26.03
357.43	22.85
357.638	20.1
357.845	20.2
358.052	14.57
358.259	16.38
358.466	15.69
358.673	10.75
358.881	6.97
359.088	4.51
359.295	10.07
359.502	9.26
359.709	26.27
359.916	22.87
360.123	18.47
360.33	8.05
360.537	1.86
360.744	8.36
360.951	5.78
361.158	1.44
361.365	-5.65
361.572	-4.63
361.779	1.33
361.986	4.83
362.193	3.08
362.4	17.36
362.607	11.29
362.814	8.73
363.021	7.77
363.228	7.92
363.435	12.68
363.641	8.15
363.848	3.55
364.055	-9.91
364.262	-2.16
364.469	-8.48
364.676	2.28
364.882	3.46
365.089	-1.62
365.296	6.61
365.503	10.94
365.709	3.01
365.916	1.04
366.123	-0.85
366.33	-1.91
366.536	1.64
366.743	-4.82
366.95	-13.39
367.156	-8.04
367.363	-9.31
367.57	-5.07
367.776	-3.33
367.983	0.6
368.19	4.77
368.396	8.06
368.603	13.03
368.809	20.72
369.016	19.23
369.222	21.18
369.429	23.85
369.635	29.44
369.842	23.53
370.048	34.23
370.255	35.28
370.461	37.43
370.668	34.1
370.874	27.92
371.081	29.18
371.287	37.57
371.494	32.5
371.7	37.83
371.906	31.07
372.113	26.36
372.319	19.43
372.526	21.59
372.732	19.94
372.938	13.5
373.145	11.96
373.351	9.29
373.557	11.76
373.763	14.17
373.97	2.39
374.176	11.69
374.382	15.73
374.588	12.5
374.795	14.96
375.001	15.13
375.207	12
375.413	13.52
375.62	9.46
375.826	12.68
376.032	12.22
376.238	8.73
376.444	9.13
376.65	17.44
376.856	5.27
377.062	8.46
377.269	12.67
377.475	3.6
377.681	5.47
377.887	0.03
378.093	-10.08
378.299	-0.49
378.505	-8.72
378.711	-16.16
378.917	-15.44
379.123	-13.1
379.329	-4.23
379.535	-1.66
379.741	-7.92
379.947	-7.17
380.152	-12.41
380.358	-14.65
380.564	-11.28
380.77	-15.51
380.976	-25.27
381.182	-19.47
381.388	-15
381.594	-18.76
381.799	-7.6
382.005	-8.24
382.211	-7.08
382.417	3.78
382.623	-4.86
382.828	-1.34
383.034	-3.3
383.24	-0.87
383.445	-12.57
383.651	-13.63
383.857	-7.24
384.063	4.6
384.268	-9.42
384.474	9.7
384.68	9.27
384.885	7.21
385.091	21.9
385.296	33.08
385.502	39.36
385.708	32.33
385.913	38.72
386.119	36.22
386.324	41.59
386.53	52.62
386.735	44.86
386.941	47.82
387.146	41.6
387.352	43.31
387.557	33.69
387.763	38.52
387.968	24.69
388.174	23.36
388.379	19.56
388.585	28.1
388.79	17.64
388.996	18.66
389.201	17.76
389.406	4.7
389.612	-2.11
389.817	1.01
390.022	0.37
390.228	9.17
390.433	9.27
390.638	11.25
390.844	9.28
391.049	11.64
391.254	11.23
391.459	15.53
391.665	3.56
391.87	10.3
392.075	21.29
392.28	22.74
392.485	20.35
392.691	21.45
392.896	18.22
393.101	20.3
393.306	28.81
393.511	29.78
393.716	34.38
393.922	31.82
394.127	26.65
394.332	32.06
394.537	28.46
394.742	27.04
394.947	23.2
395.152	22.03
395.357	22.7
395.562	22.68
395.767	17.12
395.972	23.15
396.177	17.69
396.382	12.35
396.587	14.38
396.792	15.54
396.997	24.57
397.202	30.84
397.407	27.75
397.611	26.9
397.816	30.53
398.021	25.33
398.226	26.44
398.431	27.39
398.636	28.04
398.841	28.94
399.045	33.14
399.25	29.85
399.455	34.06
399.66	29.4
399.864	27.42
400.069	22.85
400.274	27.65
400.479	32.53
400.683	32.01
400.888	38.65
401.093	28.21
401.297	19.31
401.502	7.66
401.707	2.91
401.911	2.8
402.116	-0.73
402.321	8.11
402.525	6.63
402.73	10.23
402.934	-1.62
403.139	-5.6
403.344	-10.04
403.548	-11.01
403.753	-21.87
403.957	-34.2
404.162	-40.85
404.366	-20.39
404.571	-27.52
404.775	-34.51
404.98	-38.96
405.184	-36.68
405.388	-21.62
405.593	-23.9
405.797	-19.12
406.002	-4.42
406.206	-13.57
406.41	-7.26
406.615	-6.17
406.819	-4.44
407.023	-1.16
407.228	7.33
407.432	-0.48
407.636	-5.99
407.841	7.59
408.045	11.72
408.249	13.23
408.453	11.99
408.658	12.02
408.862	17.9
409.066	21.42
409.27	20.82
409.474	17.33
409.679	9.65
409.883	15.45
410.087	17.38
410.291	11.76
410.495	13.45
410.699	1.79
410.903	-0.67
411.108	5.84
411.312	-6.37
411.516	-20.38
411.72	-5.52
411.924	-1.88
412.128	-14.37
412.332	-13.28
412.536	-4.26
412.74	6.92
412.944	0.87
413.148	2.19
413.352	0.35
413.556	-0.84
413.76	3.49
413.964	16.25
414.167	20.99
414.371	30.31
414.575	25.74
414.779	19.69
414.983	26.49
415.187	25.48
415.391	19.18
415.594	26.62
415.798	27.75
416.002	20.79
416.206	20.26
416.41	23.73
416.613	15.56
416.817	9.76
417.021	6.26
417.225	13.41
417.428	-0.38
417.632	-11.14
417.836	-3.92
418.039	-3.49
418.243	-6.24
418.447	-30.14
418.65	-44.73
418.854	-39.52
419.057	-18.21
419.261	-21.04
419.465	-20.19
419.668	-14.19
419.872	-16.36
420.075	-20.68
420.279	-5.23
420.482	-1.17
420.686	-6.03
420.889	-0.51
421.093	9.08
421.296	2.54
421.5	-6.99
421.703	-8.36
421.907	-7.11
422.11	-19.63
422.314	-40.85
422.517	-44.26
422.72	-33.46
422.924	-28.3
423.127	-30.48
423.33	-57.85
423.534	-61.53
423.737	-47.26
423.94	-40.25
424.144	-33.31
424.347	-20.8
424.55	-33.88
424.754	-35.8
424.957	-42.77
425.16	-25.75
425.363	-30.88
425.567	-21.96
425.77	-19.93
425.973	-21.44
426.176	-32.89
426.379	-27.83
426.582	-12.18
426.786	-11.01
426.989	-7.87
427.192	-1.78
427.395	2.28
427.598	7.18
427.801	3.72
428.004	-7.14
428.207	-0.93
428.41	-5.03
428.613	-10.55
428.816	-7.73
429.019	-9.24
429.222	-8.8
429.425	-10.65
429.628	-15
429.831	-15.08
430.034	-8.71
430.237	-2.06
430.44	3.49
430.643	7.24
430.846	8.4
431.049	9.95
431.252	12.23
431.454	10.76
431.657	5.44
431.86	4.79
432.063	5.08
432.266	2.62
432.469	-12.48
432.671	-16.19
432.874	-7.84
433.077	-11.03
433.28	-5.41
433.482	-1.46
433.685	-14.21
433.888	-10.61
434.09	-23.89
434.293	-38.05
434.496	-42.13
434.698	-43.3
434.901	-31.57
435.104	-38.49
435.306	-28.6
435.509	-37.38
435.712	-46.48
435.914	-59.61
436.117	-42.56
436.319	-25.75
436.522	-22.91
436.724	-19.18
436.927	-16.38
437.129	-21.25
437.332	-18.21
437.534	-30.04
437.737	-47.96
437.939	-20.2
438.142	-28.48
438.344	-13.59
438.547	-15.44
438.749	-9.04
438.951	-15.76
439.154	-19.67
439.356	-10.6
439.558	-6.56
439.761	-9.05
439.963	-2.57
440.165	5.98
440.368	2.94
440.57	-31.42
440.772	-37.16
440.975	-40.65
441.177	-29.15
441.379	-31.43
441.581	-32.67
441.784	-31.03
441.986	-7.13
442.188	-16.49
442.39	-15.08
442.592	-16.12
442.795	-8.8
442.997	-6.21
443.199	-5.03
443.401	-7.71
443.603	-1.5
443.805	-17.66
444.007	-10.83
444.209	-10.2
444.411	-4.47
444.613	-0.52
444.815	10.24
445.017	12.29
445.219	14.73
445.421	16.35
445.623	10.13
445.825	12.23
446.027	5.54
446.229	-3.53
446.431	7.64
446.633	5.65
446.835	6.08
447.037	10.57
447.239	16.01
447.441	21.52
447.643	23.63
447.844	6.48
448.046	19.29
448.248	17.84
448.45	21.25
448.652	15.96
448.853	18.96
449.055	20.11
449.257	26.87
449.459	27.32
449.66	20.42
449.862	29.34
450.064	36.15
450.266	44.66
450.467	42.48
450.669	39.1
450.871	36.89
451.072	38.96
451.274	28.56
451.475	11.67
451.677	13.25
451.879	-3.39
452.08	-6.25
452.282	-0.82
452.483	-8.53
452.685	-9.41
452.886	5.52
453.088	-7.05
453.289	-19.37
453.491	-30.95
453.692	-28.36
453.894	-15.81
454.095	-16.66
454.297	-38.73
454.498	-35.42
454.7	-36.32
454.901	-25.98
455.102	-19.61
455.304	-15.23
455.505	-11.24
455.706	-15.47
455.908	-13.96
456.109	-11.51
456.31	-7.57
456.512	-12.7
456.713	-8.95
456.914	-18.64
457.116	-39.9
457.317	-29.85
457.518	-28.56
457.719	-31.26
457.921	-25.75
458.122	-29.17
458.323	-25.83
458.524	-12.58
458.725	-8.83
458.926	-7.21
459.128	-12.82
459.329	0.89
459.53	-3.08
459.731	-11.28
459.932	-11.29
460.133	-17.05
460.334	-5.13
460.535	1.25
460.736	4.53
460.937	-3.83
461.138	4.35
461.339	10.74
461.54	13.45
461.741	14.64
461.942	20.79
462.143	21.12
462.344	17.7
462.545	23.23
462.746	10.76
462.947	1.68
463.148	-5.11
463.348	-4.01
463.549	-14.53
463.75	-18.08
463.951	-7.91
464.152	-8.64
464.353	-7.76
464.553	-1.6
464.754	3.05
464.955	-3.64
465.156	-3.65
465.356	-4.45
465.557	-2.42
465.758	-7.79
465.959	-0.79
466.159	-6.24
466.36	-9.56
466.561	-11.34
466.761	-13.33
466.962	-9.74
467.163	-4.03
467.363	-2.95
467.564	-2.7
467.764	-3
467.965	-4.85
468.166	-6.71
468.366	1.27
468.567	3.93
468.767	3.85
468.968	-0.89
469.168	1.85
469.369	9.67
469.569	5.67
469.77	6.05
469.97	2.22
470.17	1.41
470.371	2.58
470.571	1.74
470.772	11.59
470.972	12.57
471.172	17.91
471.373	13.6
471.573	16.29
471.773	13.65
471.974	20.36
472.174	18.28
472.374	20.8
472.575	15.64
472.775	14.58
472.975	6.84
473.175	7.2
473.376	5.5
473.576	1.33
473.776	5.6
473.976	5.5
474.177	12.19
474.377	9.28
474.577	15.39
474.777	11.76
474.977	6.57
475.177	0.58
475.377	0.48
475.577	2.49
475.777	2.14
475.978	2.88
476.178	-1.05
476.378	5.92
476.578	5.97
476.778	8.14
476.978	11.31
477.178	13.7
477.378	13.63
477.578	17.33
477.778	18.01
477.977	15.99
478.177	11.88
478.377	5.83
478.577	5.38
478.777	5.97
478.977	9.02
479.177	8.2
479.377	6.4
479.577	-0.64
479.776	2.15
479.976	1.72
480.176	3.52
480.376	6.35
480.576	3.12
480.775	-0.02
480.975	0.24
481.175	-5.69
481.374	-2.28
481.574	-0.77
481.774	-5.92
481.974	-0.22
482.173	0.96
482.373	-3.66
482.572	4.51
482.772	7.38
482.972	7.11
483.171	9.23
483.371	13.91
483.57	16.3
483.77	21
483.97	22.2
484.169	21.76
484.369	19.24
484.568	15.96
484.768	17.8
484.967	20.85
485.167	20.41
485.366	20.31
485.566	20.73
485.765	20.58
485.964	18.98
486.164	15.26
486.363	14.75
486.563	17.63
486.762	15.59
486.961	15.42
487.161	13.21
487.36	10.6
487.559	6.04
487.759	6.14
487.958	5.5
488.157	-0.35
488.356	0.89
488.556	4.3
488.755	6.46
488.954	2.12
489.153	0.22
489.353	2.47
489.552	3
489.751	-4.79
489.95	-7.92
490.149	-6.7
490.348	-6.49
490.548	-5.71
490.747	-5.24
490.946	-5.83
491.145	-8.48
491.344	-9.1
491.543	-7.82
491.742	-7.48
491.941	-8.94
492.14	-14.47
492.339	-14.99
492.538	-19.88
492.737	-20.19
492.936	-18.53
493.135	-18.96
493.334	-27.3
493.533	-33.45
493.732	-24.06
493.931	-15.82
494.13	-17.74
494.328	-10.95
494.527	-13.97
494.726	-17.11
494.925	-21.16
495.124	-24.91
495.323	-23.1
495.521	-21.36
495.72	-20.76
495.919	-21.43
496.118	-24.23
496.316	-20.4
496.515	-19.37
496.714	-16.38
496.913	-14.58
497.111	-17.26
497.31	-18.48
497.509	-13.2
497.707	-11.87
497.906	-12.53
498.105	-18.45
498.303	-16.32
498.502	-22.85
498.7	-19.1
498.899	-17.07
499.097	-12.63
499.296	-7.57
499.495	-6.31
499.693	-8.12
499.892	-9.55
500.09	-9.93
500.289	0.92
500.487	1.09
500.686	5.38
500.884	5.4
501.082	3.12
501.281	-0.52
501.479	2.27
501.678	6.02
501.876	6.32
502.074	7.5
502.273	9.68
502.471	11.51
502.669	11.07
502.868	11.87
503.066	9.4
503.264	10.15
503.463	7.17
503.661	2.53
503.859	0.34
504.057	4.5
504.256	3.13
504.454	-0.88
504.652	-1.41
504.85	-1.41
505.048	2.1
505.246	-0.62
505.445	4.5
505.643	6.23
505.841	3.61
506.039	6.96
506.237	4
506.435	4.83
506.633	4.8
506.831	9.04
507.029	6.1
507.227	10.26
507.425	13.13
507.623	14.66
507.821	15.29
508.019	20.5
508.217	20.19
508.415	23.73
508.613	23.95
508.811	22.28
509.009	21.56
509.207	22.26
509.405	24.99
509.603	21.32
509.8	18.26
509.998	19.94
510.196	18.52
510.394	17.92
510.592	16.53
510.79	11.78
510.987	11.49
511.185	16.43
511.383	14.05
511.581	9.37
511.778	12.17
511.976	15.03
512.174	10.12
512.371	5.09
512.569	3.25
512.767	1.59
512.964	1.75
513.162	0.24
513.36	-9.93
513.557	-13.16
513.755	-12
513.952	-6.95
514.15	-12.75
514.348	-11.89
514.545	-10.03
514.743	-6.04
514.94	-2.06
515.138	-4.58
515.335	-8.29
515.533	-6.41
515.73	-2.81
515.927	-3.1
516.125	-2.35
516.322	1.32
516.52	4.41
516.717	4.89
516.915	7.99
517.112	8.39
517.309	8.18
517.507	15.41
517.704	14.17
517.901	13.01
518.099	12.43
518.296	16.58
518.493	14.36
518.69	14.54
518.888	12.45
519.085	12.62
519.282	17.34
519.479	14.68
519.676	11.93
519.874	10.86
520.071	5.56
520.268	4.9
520.465	7.06
520.662	7.03
520.859	7.03
521.056	1.64
521.254	4.2
521.451	4.02
521.648	1.78
521.845	5.9
522.042	9.17
522.239	8.99
522.436	8.6
522.633	2.22
522.83	-1.08
523.027	-3.16
523.224	-2.99
523.421	-3.88
523.618	-1.5
523.815	2.35
524.011	-0.66
524.208	4.17
524.405	4.59
524.602	0.77
524.799	-5.82
524.996	-8.02
525.193	-3.79
525.389	-7.64
525.586	-4.03
525.783	-4.05
525.98	-2.79
526.176	-5.39
526.373	-10.25
526.57	-10.66
526.767	-8.91
526.963	-8.25
527.16	-0.71
527.357	1.66
527.553	-0.77
527.75	-2.75
527.947	-3.12
528.143	-1.05
528.34	-1.3
528.537	-1.22
528.733	4.19
528.93	9.89
529.126	13.85
529.323	14.44
529.519	18.66
529.716	13.58
529.912	11.96
530.109	9.37
530.305	9.36
530.502	11.97
530.698	8.76
530.895	7.31
531.091	8.52
531.288	2.04
531.484	-0.34
531.68	0.04
531.877	2.24
532.073	2.83
532.269	3.83
532.466	4.8
532.662	4.39
532.858	0.89
533.055	1.68
533.251	-1.46
533.447	-1.07
533.643	-2.82
533.84	-1.08
534.036	-1.39
534.232	-0.72
534.428	-2.54
534.624	-1.33
534.821	3.17
535.017	8.15
535.213	7.64
535.409	11.03
535.605	10.29
535.801	8.75
535.997	8.36
536.193	6.99
536.389	5.39
536.586	1.6
536.782	2.09
536.978	1.55
537.174	1.95
537.37	2.14
537.566	0.71
537.762	-2.4
537.958	-0.72
538.153	0.59
538.349	-0.25
538.545	2.05
538.741	-1.07
538.937	-4.69
539.133	-2.65
539.329	1.21
539.525	-2.47
539.721	-1.41
539.916	1.87
540.112	-1.33
540.308	0.51
540.504	3.17
540.699	6.19
540.895	5.8
541.091	9.94
541.287	11.61
541.482	11.67
541.678	13.48
541.874	16.26
542.069	14
542.265	16.08
542.461	15.28
542.656	15.99
542.852	16.85
543.048	17.18
543.243	15.45
543.439	13.72
543.634	15.81
543.83	15.64
544.025	16.66
544.221	22.08
544.417	22.87
544.612	23.04
544.807	21.48
545.003	19.87
545.198	17.26
545.394	16.64
545.589	20.99
545.785	20.61
545.98	19.41
546.176	19.07
546.371	15.07
546.566	16.28
546.762	13.78
546.957	13.7
547.152	13
547.348	9.32
547.543	8.8
547.738	7.7
547.933	7.55
548.129	4.19
548.324	-0.03
548.519	-2.56
548.714	-4.51
548.91	-3.64
549.105	-5.15
549.3	-4.17
549.495	-6.07
549.69	-10.97
549.885	-14.35
550.08	-11.55
550.276	-10.41
550.471	-6.98
550.666	-9.13
550.861	-6.17
551.056	-7.09
551.251	-6.29
551.446	1.04
551.641	-1.14
551.836	-0.08
552.031	0.89
552.226	0.66
552.421	0.65
552.616	0.47
552.811	3.49
553.006	1.64
553.201	1.25
553.395	0.7
553.59	0.57
553.785	2.79
553.98	4.54
554.175	0.38
554.37	-0.27
554.565	-1.82
554.759	-2.23
554.954	-5.5
555.149	-4.11
555.344	-4.05
555.538	-6.07
555.733	-3.78
555.928	-0.49
556.122	-2.06
556.317	-0.86
556.512	-1.72
556.706	-2.63
556.901	-2.68
557.096	-1.74
557.29	-0.75
557.485	-0.51
557.68	-2.2
557.874	-3.7
558.069	-3.67
558.263	-1.17
558.458	-1.87
558.652	-0.01
558.847	0.24
559.041	7.52
559.236	7.1
559.43	6.41
559.625	6.57
559.819	3.95
560.014	0.79
560.208	0.33
560.402	0.86
560.597	2.8
560.791	1.34
560.986	0.89
561.18	1.68
561.374	3.89
561.569	2.93
561.763	6.74
561.957	6.23
562.151	6.07
562.346	8.22
562.54	11.05
562.734	9.68
562.928	9.31
563.123	5.04
563.317	5.51
563.511	5.73
563.705	2.65
563.899	4.98
564.093	3.99
564.288	5.8
564.482	5.71
564.676	5.36
564.87	9.84
565.064	9.2
565.258	8.08
565.452	7.47
565.646	9.85
565.84	6.42
566.034	7.35
566.228	6.88
566.422	4.85
566.616	2.37
566.81	4.12
567.004	6.66
567.198	6.32
567.392	4.35
567.586	2.78
567.779	4.62
567.973	3.71
568.167	5.66
568.361	4.8
568.555	4.41
568.749	3.98
568.942	2.76
569.136	2.83
569.33	2.06
569.524	1.46
569.718	2.05
569.911	3.38
570.105	3.73
570.299	2.62
570.492	2.15
570.686	3.02
570.88	2.22
571.073	0.47
571.267	0.27
571.461	0.04
571.654	0.82
571.848	0.2
572.041	1.16
572.235	-0.18
572.429	0.35
572.622	-0.23
572.816	2.49
573.009	2.3
573.203	1.6
573.396	4.23
573.59	5.5
573.783	3.42
573.976	3.72
574.17	5.1
574.363	5.19
574.557	3.14
574.75	1.79
574.943	2.02
575.137	3.89
575.33	5.71
575.523	6.75
575.717	6.05
575.91	6.16
576.103	5.48
576.297	5.17
576.49	5.4
576.683	6.32
576.876	3.85
577.07	3.09
577.263	3.05
577.456	1.77
577.649	-0.14
577.842	0.44
578.036	1.4
578.229	-0.37
578.422	0.59
578.615	2.92
578.808	2.85
579.001	4.86
579.194	6.11
579.387	7.57
579.58	8.41
579.773	8.03
579.966	8.25
580.159	7.38
580.352	8.89
580.545	9.99
580.738	9.23
580.931	9.79
581.124	11.15
581.317	10.61
581.51	10.4
581.703	11.3
581.896	10.96
582.088	10.86
582.281	13.01
582.474	12.66
582.667	12.76
582.86	13.59
583.053	10.49
583.245	9.03
583.438	4.7
583.631	4.99
583.824	6.56
584.016	6.36
584.209	5.7
584.402	3.94
584.594	2.98
584.787	5.77
584.98	4.93
585.172	5.92
585.365	5.02
585.558	4.99
585.75	5.06
585.943	5.97
586.135	6.3
586.328	4.27
586.52	5.6
586.713	4.88
586.906	4.6
587.098	6.36
587.291	7.5
587.483	8.29
587.675	8.29
587.868	7.24
588.06	6.16
588.253	8.65
588.445	7.76
588.638	6.83
588.83	3.81
589.022	3.5
589.215	1.37
589.407	4.21
589.599	4.83
589.792	6.36
589.984	5.77
590.176	4.8
590.368	6.24
590.561	5.37
590.753	7.37
590.945	4.45
591.137	2.81
591.33	0.28
591.522	0.92
591.714	-0.99
591.906	1.93
592.098	3.04
592.29	2.33
592.482	4.07
592.674	5.04
592.867	6.05
593.059	6.6
593.251	7.78
593.443	6.86
593.635	5.31
593.827	2.5
594.019	2.6
594.211	2.9
594.403	2.89
594.595	3.11
594.787	1.78
594.979	5.72
595.17	7.83
595.362	9.94
595.554	9.18
595.746	8.47
595.938	6.73
596.13	6.98
596.322	7.76
596.513	5.52
596.705	6.19
596.897	4.87
597.089	5.33
597.281	4.59
597.472	4.62
597.664	5.4
597.856	6.38
598.048	6.35
598.239	5.12
598.431	3.67
598.623	1.72
598.814	-0.54
599.006	-1.01
599.197	-0.96
599.389	-2.72
599.581	-1.88
599.772	-0.25
599.964	0.48
600.155	-0.04
600.347	-1.21
600.538	1.02
600.73	2.25
600.921	3.63
601.113	3.12
601.304	4.54
601.496	5.07
601.687	4.76
601.879	5.38
602.07	6.1
602.262	7.05
602.453	6.54
602.644	8.66
602.836	9.39
603.027	7.86
603.218	7.63
603.41	7.96
603.601	8.42
603.792	8.54
603.983	9.14
604.175	9.24
604.366	8.97
604.557	10.2
604.748	6.95
604.94	5.48
605.131	4.02
605.322	2.37
605.513	2.39
605.704	2.73
605.895	2.93
606.086	1.49
606.278	1.81
606.469	4.51
606.66	4.9
606.851	5.32
607.042	5.48
607.233	4.87
607.424	4.45
607.615	3.64
607.806	3.46
607.997	3.43
608.188	5.34
608.379	6.63
608.57	5.87
608.761	7.38
608.952	8.05
609.142	9.63
609.333	9.46
609.524	9.3
609.715	11.66
609.906	10.06
610.097	11.61
610.287	11.1
610.478	9.96
610.669	9.67
610.86	9.64
611.051	11.93
611.241	12.86
611.432	13.2
611.623	13.8
611.813	13.51
612.004	13.09
612.195	12.36
612.385	10.78
612.576	9.73
612.767	9.9
612.957	9.96
613.148	8.95
613.338	9.11
613.529	9.56
613.72	7.8
613.91	9.45
614.101	7.53
614.291	7.13
614.482	7.72
614.672	8.09
614.863	8.13
615.053	6.04
615.243	5.91
615.434	6.44
615.624	6
615.815	5.94
616.005	5.26
616.195	3.69
616.386	4.43
616.576	5.52
616.766	6.24
616.957	6.96
617.147	6.28
617.337	4.58
617.528	3.81
617.718	3.67
617.908	2.09
618.098	2.6
618.289	3.33
618.479	3.21
618.669	3.54
618.859	3.21
619.049	6.32
619.239	6.71
619.43	5.09
619.62	3.54
619.81	4.62
620	5.01
620.19	5.86
620.38	4.56
620.57	4.04
620.76	2.94
620.95	3.28
621.14	5.65
621.33	7.06
621.52	6.24
621.71	3.66
621.9	3.84
622.09	3.52
622.28	3.51
622.47	2.31
622.659	1.16
622.849	2.46
623.039	1.52
623.229	-0.83
623.419	1.15
623.609	1.36
623.799	0.53
623.988	0.38
624.178	-0.03
624.368	-0.32
624.558	-0.7
624.747	0.57
624.937	0.01
625.127	-2.88
625.316	-2.51
625.506	-1.32
625.696	1.13
625.885	0.81
626.075	2.63
626.265	2.97
626.454	2.56
626.644	2.13
626.833	0.96
627.023	0.3
627.212	0.21
627.402	0.11
627.591	1.84
627.781	2.18
627.97	2.11
628.16	2.42
628.349	2.5
628.539	2.24
628.728	2.11
628.918	2.16
629.107	4.37
629.296	4.15
629.486	4.07
629.675	5.24
629.865	6.22
630.054	6.19
630.243	5
630.432	6.16
630.622	8.42
630.811	10.31
631	10.08
631.19	11.14
631.379	11.23
631.568	10.84
631.757	10.13
631.946	9.01
632.136	8.97
632.325	9.58
632.514	10.95
632.703	9.77
632.892	8.59
633.081	7.85
633.27	8.95
633.459	8.51
633.648	6.44
633.837	5.99
634.026	3.75
634.215	4.36
634.404	4.51
634.593	4.66
634.782	3.67
634.971	3.56
635.16	2.34
635.349	1.02
635.538	2.4
635.727	1.4
635.916	1.49
636.105	2.33
636.294	3.75
636.482	3.81
636.671	4.11
636.86	5.03
637.049	5.32
637.238	3.33
637.426	4.09
637.615	4.33
637.804	4.44
637.993	6.54
638.181	7.42
638.37	6.66
638.559	5.71
638.747	5.53
638.936	6.04
639.125	7.34
639.313	7.03
639.502	5.96
639.691	7.27
639.879	6.46
640.068	6.56
640.256	5.07
640.445	5.21
640.633	5.57
640.822	5.62
641.01	7.24
641.199	8.67
641.387	8.67
641.576	9.49
641.764	10.22
641.953	8.95
642.141	8.05
642.329	8.11
642.518	7.45
642.706	7.61
642.894	7.65
643.083	7.17
643.271	7.81
643.459	7.81
643.648	8.25
643.836	9.53
644.024	8.99
644.213	9.49
644.401	8.37
644.589	6.63
644.777	6.48
644.965	6.03
645.154	5.46
645.342	5.12
645.53	5.45
645.718	5.82
645.906	6.22
646.094	5.77
646.282	4.02
646.47	3.47
646.658	3.48
646.846	0.89
647.034	2.56
647.223	2.48
647.411	2.1
647.599	-0.14
647.786	-0.13
647.974	0.12
648.162	-0.82
648.35	-1.52
648.538	0.14
648.726	-0.23
648.914	-1.07
649.102	-0.39
649.29	0.25
649.478	1.13
649.665	0.19
649.853	0.07
650.041	0.63
650.229	2.85
650.417	3.52
650.604	2.56
650.792	4.73
650.98	2.23
651.168	1.53
651.355	2.47
651.543	4.13
651.731	4.13
651.918	3.37
652.106	5.85
652.294	5.67
652.481	6.07
652.669	5.42
652.856	5.51
653.044	5.71
653.231	3.64
653.419	2.3
653.606	2.65
653.794	3.53
653.981	3.61
654.169	2.99
654.356	2.05
654.544	3.07
654.731	2.84
654.919	3.55
655.106	4.4
655.294	3.8
655.481	4.34
655.668	5.15
655.856	4.56
656.043	3.38
656.23	4.39
656.418	4.56
656.605	5.94
656.792	6.65
656.979	7.31
657.167	9.31
657.354	9.34
657.541	9.07
657.728	8.16
657.916	7.3
658.103	6.57
658.29	6.86
658.477	8.14
658.664	7.47
658.851	7.79
659.038	7.83
659.225	7.16
659.412	6.87
659.6	5.9
659.787	7.81
659.974	6.94
660.161	8
660.348	5.93
660.535	7.96
660.722	6.9
660.909	4.84
661.095	4.03
661.282	4.58
661.469	5.11
661.656	5.91
661.843	6.83
662.03	7.04
662.217	8.69
662.404	6.91
662.59	7.36
662.777	6.7
662.964	6.69
663.151	7.49
663.338	7.21
663.524	7.36
663.711	6.67
663.898	7.49
664.085	7.54
664.271	8.58
664.458	7.12
664.645	7.37
664.831	8.81
665.018	8.67
665.204	8.58
665.391	7.74
665.578	6.5
665.764	5.45
665.951	6.63
666.137	5.03
666.324	5.07
666.51	4.92
666.697	5.16
666.883	5.68
667.07	5.33
667.256	5.18
667.443	4.18
667.629	3.69
667.816	1.86
668.002	0.86
668.188	1.41
668.375	0.65
668.561	-1.1
668.747	-2.9
668.934	-1.71
669.12	-2.06
669.306	-1.46
669.493	-1.46
669.679	0.5
669.865	0.01
670.051	0.31
670.238	0.73
670.424	0.38
670.61	1.01
670.796	1.94
670.982	2.07
671.169	1.23
671.355	0.67
671.541	0.53
671.727	1.94
671.913	1.03
672.099	1.15
672.285	0.75
672.471	2.68
672.657	3.26
672.843	2.54
673.029	2.97
673.215	3.94
673.401	6.92
673.587	4.3
673.773	4.72
673.959	4.88
674.145	4.95
674.331	6.12
674.517	5.07
674.703	4.47
674.888	5
675.074	4.76
675.26	6.64
675.446	6.78
675.632	5.53
675.817	6.49
676.003	5.86
676.189	5.86
676.375	5.59
676.56	6.88
676.746	5.67
676.932	3.66
677.117	2.85
677.303	1.83
677.489	2.63
677.674	1.29
677.86	0.44
678.046	0.21
678.231	0.39
678.417	1.01
678.602	0.37
678.788	-0.87
678.973	0.01
679.159	0.67
679.344	0.74
679.53	3
679.715	2.33
679.901	2.04
680.086	2.97
680.272	1.84
680.457	0.93
680.643	1.37
680.828	2.86
681.013	1.68
681.199	0.6
681.384	1.43
681.569	2.68
681.755	3.64
681.94	3.76
682.125	4.18
682.31	5.06
682.496	4.29
682.681	4.83
682.866	4.85
683.051	2.57
683.237	3.08
683.422	2.82
683.607	1.56
683.792	2.99
683.977	2.85
684.162	2.71
684.347	3.9
684.532	4.2
684.717	4.33
684.903	5.55
685.088	5.74
685.273	5.16
685.458	5.8
685.643	6.34
685.828	5.6
686.013	4.53
686.198	3.04
686.382	2.65
686.567	2.58
686.752	2.82
686.937	4.68
687.122	4.46
687.307	4.15
687.492	4.78
687.677	3.42
687.861	3.03
688.046	2.7
688.231	2.48
688.416	3.46
688.601	3.28
688.785	4.27
688.97	5.03
689.155	7.82
689.339	6.93
689.524	5.4
689.709	5.76
689.893	6.1
690.078	7.62
690.263	8.82
690.447	9.01
690.632	8.16
690.816	8.01
691.001	7.56
691.186	6.76
691.37	6.55
691.555	8.08
691.739	8.32
691.924	9.92
692.108	9.33
692.293	8.95
692.477	8.73
692.661	7.18
692.846	6.71
693.03	4.81
693.215	4.22
693.399	5.1
693.583	4.52
693.768	4.42
693.952	3.47
694.136	2.26
694.321	2.82
694.505	3.47
694.689	3.68
694.873	4.22
695.058	2.81
695.242	4.38
695.426	2.78
695.61	1.63
695.794	1.37
695.979	1.04
696.163	0.37
696.347	0.84
696.531	0.78
696.715	0.68
696.899	-0.2
697.083	-0.84
697.267	-0.46
697.451	0.02
697.635	-0.43
697.819	-0.72
698.003	-0.05
698.187	-0.65
698.371	0.36
698.555	1.09
698.739	1.53
698.923	2.86
699.107	2.57
699.291	2.37
699.475	3.05
699.659	4.26
699.842	4.33
700.026	3.84
700.21	2.85
700.394	3.75
700.578	3.44
700.761	4.42
700.945	6.55
701.129	5.79
701.313	5.81
701.496	6.53
701.68	7.09
701.864	6.9
702.047	7.92
702.231	8.71
702.415	7.19
702.598	5.3
702.782	6.16
702.965	5.95
703.149	5.84
703.333	6.13
703.516	5.4
703.7	4.8
703.883	6.04
704.067	6.31
704.25	6.53
704.434	4.76
704.617	4.42
704.801	3.05
704.984	3.17
705.167	2.89
705.351	2.57
705.534	2.58
705.718	2.49
705.901	1.61
706.084	0.54
706.268	1.18
706.451	2.9
706.634	2.46
706.817	1.01
707.001	-0.09
707.184	-1.62
707.367	-2.97
707.55	-2.35
707.734	-2.24
707.917	-1.74
708.1	-1.95
708.283	0.73
708.466	1.19
708.649	1.15
708.832	0.88
709.015	1.14
709.199	2.02
709.382	1.49
709.565	2.38
709.748	2.85
709.931	3.54
710.114	3.18
710.297	2.3
710.48	2.03
710.663	4.24
710.846	5.01
711.028	4.85
711.211	4.43
711.394	4.6
711.577	4.15
711.76	3.9
711.943	2.36
712.126	2.43
712.309	1.81
712.491	3.51
712.674	3.52
712.857	4.57
713.04	2.99
713.222	4.58
713.405	4.17
713.588	4.3
713.771	3.28
713.953	2.29
714.136	1.85
714.319	2.63
714.501	1.06
714.684	0.69
714.866	2.28
715.049	3.43
715.232	3.84
715.414	2.31
715.597	3.14
715.779	3.9
715.962	4.22
716.144	4.76
716.327	4.94
716.509	5.09
716.692	1.49
716.874	2.51
717.057	1.15
717.239	2.12
717.421	2.09
717.604	1.35
717.786	4.09
717.968	5.06
718.151	5.14
718.333	5.18
718.515	6.09
718.698	5.75
718.88	4.71
719.062	3.11
719.244	5.43
719.427	3.9
719.609	5.51
719.791	4.41
719.973	4.39
720.155	2.79
720.338	2.57
720.52	5.48
720.702	5.32
720.884	6.47
721.066	6.15
721.248	3.81
721.43	3.9
721.612	2.73
721.794	4.56
721.976	3.34
722.158	5.13
722.34	5.02
722.522	5.82
722.704	6.93
722.886	6.34
723.068	5.9
723.25	6.52
723.432	5.28
723.614	5.21
723.796	4.3
723.977	3.74
724.159	4.25
724.341	3.9
724.523	2.93
724.705	1.56
724.886	0.15
725.068	2.09
725.25	4.37
725.432	3.98
725.613	1.25
725.795	2.58
725.977	2.72
726.158	3.01
726.34	2.56
726.522	3.25
726.703	5.21
726.885	5.31
727.066	5.52
727.248	7.33
727.43	7.48
727.611	6.97
727.793	7.53
727.974	8.25
728.156	8.65
728.337	8.07
728.519	7.31
728.7	8.34
728.882	7.5
729.063	4.56
729.244	3.78
729.426	4.98
729.607	5.25
729.788	3.4
729.97	3.39
730.151	2.1
730.332	1.39
730.514	1.48
730.695	2.26
730.876	0.76
731.058	-2.13
731.239	-1.37
731.42	-0.01
731.601	-1
731.782	-1.6
731.964	-1.84
732.145	-1.01
732.326	-1.58
732.507	-2.45
732.688	-1.18
732.869	0.96
733.05	2.36
733.231	3.05
733.412	0.5
733.593	0.5
733.774	0.96
733.955	2.03
734.136	1.17
734.317	-1.74
734.498	-1.59
734.679	0.62
734.86	0.05
735.041	-0.67
735.222	-1.72
735.403	-0.44
735.584	-1.08
735.765	1.14
735.946	0.88
736.126	1.62
736.307	3.26
736.488	2.06
736.669	-0.61
736.849	-1.07
737.03	-1.23
737.211	0.52
737.392	1.03
737.572	0.36
737.753	-0.94
737.934	0.06
738.114	3.81
738.295	1.17
738.476	-0.12
738.656	1.88
738.837	3.45
739.017	5.58
739.198	5.79
739.378	6.06
739.559	4.62
739.74	5.62
739.92	4.83
740.1	2.81
740.281	1.79
740.461	3.32
740.642	4.24
740.822	2.82
741.003	3.66
741.183	4.1
741.363	5.97
741.544	6.61
741.724	6.3
741.904	3.87
742.085	3.74
742.265	3.17
742.445	1.24
742.626	0.29
742.806	-0.38
742.986	-0.74
743.166	-0.32
743.347	-1.44
743.527	-2.36
743.707	-3.67
743.887	-2.02
744.067	-1.55
744.247	-1.77
744.427	-3.14
744.608	-3.66
744.788	-3.26
744.968	-3.61
745.148	-5.27
745.328	-4.4
745.508	-4.37
745.688	-3.37
745.868	-3.32
746.048	-3.49
746.228	-0.14
746.408	-1.71
746.588	-3.85
746.767	-2.41
746.947	-2.16
747.127	-3.66
747.307	-4.59
747.487	-1.58
747.667	-2.07
747.847	0.49
748.026	0.84
748.206	2.61
748.386	4.41
748.566	2.7
748.745	2.64
748.925	5.43
749.105	4.76
749.285	5.07
749.464	6.28
749.644	7.36
749.824	8.82
750.003	8.13
750.183	7.09
750.362	8.41
750.542	7.51
750.722	6.8
750.901	8.19
751.081	10.37
751.26	9.54
751.44	8.33
751.619	6.02
751.799	5.49
751.978	2.52
752.158	1.37
752.337	2.31
752.516	3.06
752.696	1.17
752.875	2.18
753.055	1.76
753.234	1.68
753.413	2.52
753.593	2.67
753.772	1.11
753.951	4.38
754.13	4.46
754.31	3.67
754.489	3.13
754.668	5.04
754.847	4.32
755.027	5.46
755.206	6.71
755.385	7.17
755.564	8.96
755.743	10.07
755.922	10
756.101	9.07
756.28	9.28
756.46	8.18
756.639	6.41
756.818	6.5
756.997	7.46
757.176	6.54
757.355	6.13
757.534	6.21
757.713	5.42
757.892	4.31
758.07	4.86
758.249	5.45
758.428	3.48
758.607	2.67
758.786	3.13
758.965	1.92
759.144	1.79
759.323	-1.04
759.501	-1.04
759.68	-0.62
759.859	0.69
760.038	0.36
760.216	0.39
760.395	1.44
760.574	1.79
760.753	0.63
760.931	2.06
761.11	2.95
761.289	3.24
761.467	2.56
761.646	3.05
761.824	3.2
762.003	2.13
762.182	1.58
762.36	2.72
762.539	2.23
762.717	2.96
762.896	3.93
763.074	4.86
763.253	5.2
763.431	6.44
763.61	5.51
763.788	5.77
763.966	6.18
764.145	7.31
764.323	7.74
764.502	7.95
764.68	6.86
764.858	4.67
765.037	5.8
765.215	6.8
765.393	7.88
765.571	7.47
765.75	9.16
765.928	9.26
766.106	8.64
766.284	9.07
766.463	9.47
766.641	8.46
766.819	9.67
766.997	9.89
767.175	9.08
767.353	9.5
767.531	9.88
767.71	10.77
767.888	8.72
768.066	8.87
768.244	8.78
768.422	9.99
768.6	13.02
768.778	11.37
768.956	9.85
769.134	10.69
769.312	11.5
769.489	9.83
769.667	10.81
769.845	11.93
770.023	10.4
770.201	10.87
770.379	11.23
770.557	10.15
770.735	9.56
770.912	9.92
771.09	9.63
771.268	9.59
771.446	8.51
771.623	9.54
771.801	9.11
771.979	8.69
772.157	7.74
772.334	5.34
772.512	5.54
772.69	6.62
772.867	5.96
773.045	6.2
773.222	6.42
773.4	6.73
773.577	6
773.755	7.48
773.933	6.63
774.11	7.29
774.288	7.56
774.465	8.42
774.643	6.68
774.82	7.88
774.997	5.88
775.175	4.5
775.352	7.72
775.53	7.76
775.707	7.58
775.884	8.21
776.062	9.65
776.239	10.13
776.416	10.97
776.594	8.74
776.771	8.4
776.948	10.11
777.125	9.32
777.303	7.94
777.48	6.62
777.657	5.52
777.834	4.59
778.012	5.1
778.189	4.41
778.366	5.4
778.543	3.47
778.72	5.67
778.897	7.38
779.074	3.62
779.251	3.85
779.428	2.57
779.605	0.77
779.782	-0.71
779.959	0.09
780.136	-1.77
780.313	1.63
780.49	-0.89
780.667	0.11
780.844	0.49
781.021	0.2
781.198	-0.07
781.375	2.49
781.552	3.26
781.728	2.45
781.905	2.44
782.082	2.19
782.259	2.37
782.436	0.27
782.612	-1.29
782.789	-1.13
782.966	-1.74
783.143	-0.67
783.319	1.94
783.496	3.51
783.673	2.09
783.849	4.46
784.026	1.31
784.203	2.81
784.379	0.39
784.556	-0.1
784.732	0.24
784.909	1.69
785.085	0.01
785.262	0.29
785.438	0.78
785.615	0.65
785.791	2.83
785.968	1.08
786.144	2.75
786.321	5.41
786.497	4.7
786.673	2.95
786.85	2.98
787.026	1.33
787.203	0.74
787.379	1.75
787.555	-2.25
787.731	-1.79
787.908	-0.63
788.084	0.92
788.26	0.62
788.437	2.87
788.613	1.52
788.789	0.14
788.965	-2.07
789.141	-2
789.317	-3.24
789.494	-6.18
789.67	-4.6
789.846	-4.39
790.022	-6.88
790.198	-6.06
790.374	-3.92
790.55	-4.03
790.726	-4.75
790.902	-5.08
791.078	-4.06
791.254	-2.79
791.43	-2.3
791.606	-3.32
791.782	-3.84
791.958	-4.4
792.134	-4.1
792.31	-3.86
792.486	-3.94
792.661	-4.37
792.837	-2.01
793.013	-2.27
793.189	0.36
793.365	1.51
793.54	0.54
793.716	2.47
793.892	3.14
794.068	3.82
794.243	5.55
794.419	4.23
794.595	3.41
794.77	4.09
794.946	4.96
795.122	4.65
795.297	5.37
795.473	5.39
795.648	7.32
795.824	7.43
796	8.48
796.175	10.57
796.351	11.3
796.526	10.23
796.702	11.75
796.877	10.49
797.052	10.22
797.228	9.65
797.403	5.68
797.579	5.48
797.754	3.81
797.929	3.13
798.105	5.38
798.28	5.47
798.455	4.88
798.631	3.14
798.806	3.26
798.981	3.73
799.157	1.51
799.332	-0.64
799.507	-2.23
799.682	-1.79
799.858	-1.46
800.033	0.92
800.208	0.06
800.383	0.54
800.558	0.7
800.733	-0.17
800.908	2.25
801.083	5.48
801.258	4.34
801.434	3.9
801.609	3.2
801.784	2.38
801.959	2.92
802.134	0.66
802.309	2.24
802.484	2.24
802.658	2.67
802.833	2.81
803.008	5.68
803.183	3.69
803.358	3.22
803.533	2.51
803.708	0.3
803.883	0.42
804.057	-2.85
804.232	0.11
804.407	2.78
804.582	4.92
804.756	3.77
804.931	4.87
805.106	3.97
805.281	4.45
805.455	4.09
805.63	3.25
805.805	4.54
805.979	5.22
806.154	6.97
806.328	7.6
806.503	9.73
806.678	9.49
806.852	12.45
807.027	12.77
807.201	11.07
807.376	10.46
807.55	11.05
807.725	12.12
807.899	9.91
808.074	9.57
808.248	6.48
808.422	6.63
808.597	3.51
808.771	5.65
808.946	9.39
809.12	13.07
809.294	12.59
809.468	12.49
809.643	13.06
809.817	11.98
809.991	8.79
810.166	9.56
810.34	8.79
810.514	8.77
810.688	6.94
810.862	5.18
811.037	7.52
811.211	5.19
811.385	5.94
811.559	3.46
811.733	5.8
811.907	4.74
812.081	5.53
812.255	4.54
812.429	2.31
812.603	-2.17
812.777	-5.79
812.951	-4.68
813.125	-6.51
813.299	-10.67
813.473	-14.18
813.647	-8.91
813.821	-9.41
813.995	-7.82
814.169	-8.79
814.343	-7.44
814.516	-2.76
814.69	-2.88
814.864	-0.7
815.038	1.61
815.212	4.51
815.385	2.21
815.559	3.49
815.733	2.97
815.907	5.21
816.08	6.75
816.254	3.94
816.428	4.95
816.601	5.3
816.775	6.92
816.948	7.86
817.122	12.22
817.296	10.69
817.469	8.59
817.643	7.82
817.816	6.97
817.99	7.99
818.163	8.14
818.337	7.02
818.51	6.08
818.684	5.41
818.857	4.69
819.031	2.62
819.204	4.16
819.377	4.19
819.551	5.73
819.724	7.24
819.897	10.65
820.071	9.3
820.244	4
820.417	2.74
820.591	5.57
820.764	3.09
820.937	2.87
821.11	4.56
821.284	7.34
821.457	10.16
821.63	9.95
821.803	10.98
821.976	13.2
822.149	16.22
822.322	18.24
822.496	14.61
822.669	15.63
822.842	15.12
823.015	14.76
823.188	15.76
823.361	15.31
823.534	12.87
823.707	14.09
823.88	15.85
824.053	14.93
824.226	13.9
824.399	16.7
824.571	18.93
824.744	20.44
824.917	19.95
825.09	19.55
825.263	18.78
825.436	20.38
825.608	17.54
825.781	15.26
825.954	13.45
826.127	15.96
826.299	13.6
826.472	13.46
826.645	15.43
826.818	16.57
826.99	14.06
827.163	16.88
827.336	16.55
827.508	17.96
827.681	17.85
827.853	16.89
828.026	14.42
828.198	11.53
828.371	10.03
828.544	8.11
828.716	6.81
828.889	4.26
829.061	0.98
829.233	0.55
829.406	-0.66
829.578	-3.82
829.751	-2.34
829.923	-1.67
830.096	-4.43
830.268	-6.53
830.44	-9.1
830.613	-5.93
830.785	-7.67
830.957	-10.26
831.129	-6.96
831.302	-3.18
831.474	-5.72
831.646	-3.67
831.818	-2.92
831.991	-4.02
832.163	-0.91
832.335	0.33
832.507	2.74
832.679	0.79
832.851	1.5
833.023	5.46
833.195	7.07
833.368	6.48
833.54	7.79
833.712	9.51
833.884	12.49
834.056	11.35
834.228	9.25
834.4	12.97
834.571	15.76
834.743	13.9
834.915	11.01
835.087	13.67
835.259	17.54
835.431	18.48
835.603	18.09
835.775	9.71
835.946	8.7
836.118	11.17
836.29	12.07
836.462	12.45
836.634	6.98
836.805	3.54
836.977	4.97
837.149	9.77
837.32	9.55
837.492	12.14
837.664	12.98
837.835	16.08
838.007	12.33
838.179	12.69
838.35	15.8
838.522	23.56
838.693	24.41
838.865	16.35
839.036	11.99
839.208	12.72
839.379	17.71
839.551	19.55
839.722	18.46
839.894	18.99
840.065	18.73
840.237	20.83
840.408	24.28
840.579	23.27
840.751	19.13
840.922	19.81
841.093	15.27
841.265	17.21
841.436	17.1
841.607	20.6
841.778	19.66
841.95	16.84
842.121	14.7
842.292	12.74
842.463	15.22
842.635	18.65
842.806	23.52
842.977	21.56
843.148	19.41
843.319	15.91
843.49	18.06
843.661	13.38
843.832	16.27
844.003	14.68
844.174	14.16
844.345	15.33
844.516	11.57
844.687	12.96
844.858	16.09
845.029	18.29
845.2	8.6
845.371	7.23
845.542	5.66
845.713	-2.31
845.884	-2.39
846.055	-1.41
846.225	-0.91
846.396	-7.51
846.567	-1.54
846.738	-6.56
846.909	-3.37
847.079	-3.78
847.25	6.75
847.421	-1.88
847.591	-7.42
847.762	-10.54
847.933	-17.17
848.103	-12.8
848.274	-14.11
848.445	-18.17
848.615	-20.75
848.786	-20.73
848.956	-13.84
849.127	-9.81
849.297	1.96
849.468	6.05
849.638	9.16
849.809	8.61
849.979	8.12
850.15	6.22
850.32	10.25
850.491	13.74
850.661	16.64
850.831	12.12
851.002	20.78
851.172	22.02
851.342	22.77
851.513	25.29
851.683	27.31
851.853	23.77
852.024	21.25
852.194	22.21
852.364	25.94
852.534	25.33
852.705	28.43
852.875	23.28
853.045	22.45
853.215	16.21
853.385	20.51
853.555	22.52
853.725	21.34
853.895	18.6
854.066	16.2
854.236	15.99
854.406	14.1
854.576	10.19
854.746	9.39
854.916	14.53
855.086	12.97
855.256	7.3
855.425	14.21
855.595	15.96
855.765	13.47
855.935	11.88
856.105	5.97
856.275	3.86
856.445	-1.51
856.614	0.12
856.784	9.03
856.954	-0.02
857.124	-2.23
857.294	-2.26
857.463	1.34
857.633	4.68
857.803	0.32
857.972	5.01
858.142	4.5
858.312	8.17
858.481	8.12
858.651	4.23
858.821	12.84
858.99	13.8
859.16	13.03
859.329	21.88
859.499	21.69
859.668	23.31
859.838	24.14
860.007	36.01
860.177	35.2
860.346	34.39
860.516	40.17
860.685	44.86
860.854	42.83
861.024	42.71
861.193	38.58
861.363	36.29
861.532	33.59
861.701	32.58
861.87	32.59
862.04	35.86
862.209	37.87
862.378	32.45
862.547	28.67
862.717	29.56
862.886	22.69
863.055	18.58
863.224	13.72
863.393	9.68
863.563	4.62
863.732	8.22
863.901	6.05
864.07	6.88
864.239	6.15
864.408	6.77
864.577	6
864.746	13.33
864.915	16.57
865.084	20.6
865.253	19.16
865.422	20.94
865.591	18.61
865.76	20.91
865.929	16.61
866.097	20.41
866.266	20.58
866.435	22.52
866.604	28.18
866.773	34.79
866.942	35.07
867.11	33.63
867.279	32.81
867.448	35.56
867.617	28.18
867.785	25.01
867.954	22.4
868.123	25.99
868.291	13.01
868.46	11.57
868.629	6.08
868.797	12.01
868.966	12.28
869.134	6.98
869.303	-0.03
869.472	-1.67
869.64	-8.06
869.809	-7.43
869.977	-7
870.146	-9.43
870.314	-5.98
870.482	-2.09
870.651	-10.66
870.819	-18.76
870.988	-19.8
871.156	-17.17
871.324	-22.24
871.493	-25.81
871.661	-15.87
871.829	-7.53
871.998	-12.17
872.166	-9.53
872.334	-11.36
872.502	-6.25
872.671	-5.41
872.839	13.52
873.007	23.21
873.175	21.81
873.343	22.36
873.512	24.53
873.68	31.02
873.848	32.94
874.016	31.77
874.184	38.08
874.352	41.22
874.52	43.55
874.688	48.82
874.856	49.8
875.024	50.85
875.192	44.94
875.36	43.48
875.528	46.37
875.696	42.63
875.864	45.9
876.032	47.92
876.199	55.53
876.367	50.15
876.535	47.04
876.703	48.82
876.871	46.79
877.039	43.13
877.206	42.76
877.374	40.93
877.542	47.18
877.71	46.68
877.877	52.07
878.045	58.04
878.213	53.05
878.38	62.96
878.548	64.45
878.715	72.79
878.883	76.61
879.051	79.34
879.218	68.9
879.386	69.74
879.553	66.36
879.721	61.17
879.888	66.43
880.056	83.23
880.223	88.31
880.391	100.9
880.558	100.03
880.726	94.81
880.893	93.15
881.06	83.78
881.228	98.3
881.395	90.45
881.562	90.83
881.73	97.99
881.897	96.68
882.064	90.92
882.231	76.55
882.399	62.61
882.566	63.5
882.733	82.44
882.9	71.22
883.068	85.15
883.235	85.45
883.402	96.68
883.569	81.1
883.736	77.2
883.903	71.41
884.07	79.7
884.237	86.61
884.404	86.04
884.571	98.78
884.738	93.31
884.905	90.26
885.072	83.57
885.239	84.55
885.406	82.96
