Data from Transmission_09-29-42-754.txt Node
Date: Fri Aug 24 09:29:42 EEST 2018
User: tibor.sos
Spectrometer: USB4F01757
Scans to average: 10
Trigger mode: 4
Integration Time (sec): 1.000000E-2
Electric dark correction enabled: true
Boxcar width: 10
XAxis mode: Wavelengths
Number of Pixels in Spectrum: 3648
>>>>>Begin Spectral Data<<<<<
178.758	135.27
178.974	241.98
179.191	233.49
179.407	113.17
179.624	81.93
179.84	76.22
180.057	112.27
180.273	136.88
180.489	134.24
180.706	219.14
180.922	158.68
181.138	103.93
181.355	104.01
181.571	83.14
181.787	115.54
182.004	102.01
182.22	142.73
182.436	118.14
182.653	102.03
182.869	100.61
183.085	112.31
183.301	112.01
183.518	93.61
183.734	98.71
183.95	133.35
184.166	149.43
184.383	144.13
184.599	114.77
184.815	92.35
185.031	79.03
185.247	74.44
185.463	94.54
185.68	102.51
185.896	103.83
186.112	141
186.328	137.79
186.544	151.38
186.76	145.67
186.976	143.11
187.192	147.15
187.408	185.04
187.624	213.61
187.84	147.89
188.056	133.99
188.272	133.68
188.488	125.75
188.704	121.42
188.92	139.37
189.136	153.68
189.352	178.7
189.568	239.38
189.784	267.6
190	221.76
190.216	240.06
190.432	263.94
190.648	286.81
190.864	629.29
191.08	531.85
191.296	251.22
191.511	284.01
191.727	328.85
191.943	276.64
192.159	174.62
192.375	214.34
192.591	252.17
192.806	319.77
193.022	211.74
193.238	357.14
193.454	297.44
193.669	378.31
193.885	299.27
194.101	297.86
194.317	100.32
194.532	362.92
194.748	-170.59
194.964	119.83
195.18	50.06
195.395	38.78
195.611	-13.84
195.827	54.81
196.042	-11.65
196.258	33.33
196.473	92.66
196.689	86
196.905	138.12
197.12	264.36
197.336	221.71
197.551	-322.75
197.767	117900
197.982	283.54
198.198	1620.55
198.414	1585.39
198.629	453.35
198.845	306.66
199.06	350.61
199.276	245.34
199.491	857.84
199.707	254.2
199.922	145.34
200.137	194.72
200.353	133.47
200.568	111.71
200.784	129.76
200.999	122.35
201.215	199.18
201.43	150.96
201.645	159.53
201.861	170.17
202.076	141.43
202.291	168.23
202.507	160.07
202.722	121.87
202.937	200.19
203.153	151.62
203.368	136.26
203.583	115.73
203.798	141.54
204.014	151.82
204.229	169.5
204.444	231.01
204.659	283.66
204.875	722.43
205.09	-1629.41
205.305	3824.53
205.52	-1634.96
205.735	-1271.26
205.951	10044
206.166	-562.78
206.381	-378.72
206.596	-4172.73
206.811	-1012.28
207.026	-815.87
207.241	-226.69
207.457	886.92
207.672	2200.83
207.887	-2858.88
208.102	-462.42
208.317	-366.04
208.532	756.5
208.747	-528.42
208.962	-277.61
209.177	1102.68
209.392	356.07
209.607	212.2
209.822	257.81
210.037	223.96
210.252	223.14
210.467	291.22
210.682	190.94
210.897	210.6
211.112	206.24
211.326	191.8
211.541	180.8
211.756	94.35
211.971	102.36
212.186	88.53
212.401	33.53
212.616	67.31
212.831	79.75
213.045	135.68
213.26	105.17
213.475	142.16
213.69	193.12
213.905	157.1
214.119	225.79
214.334	1188.89
214.549	188.26
214.764	86.53
214.978	182.59
215.193	167.19
215.408	-551.28
215.622	106.79
215.837	397.78
216.052	-881.61
216.266	-40.25
216.481	-78.67
216.696	4.75
216.91	2300
217.125	128.57
217.34	289.64
217.554	211.35
217.769	-91.65
217.983	33.49
218.198	47.07
218.412	-258.2
218.627	247.44
218.842	197.11
219.056	146.34
219.271	109.73
219.485	129.62
219.7	123.48
219.914	123.78
220.129	243.67
220.343	192.66
220.558	99.48
220.772	193.4
220.986	184.2
221.201	287.62
221.415	-274.94
221.63	-113.11
221.844	-112.76
222.058	-152.5
222.273	-128.65
222.487	-116.49
222.702	-77.63
222.916	-48.86
223.13	-75.21
223.344	-122.73
223.559	-72.18
223.773	-57.3
223.987	-99.47
224.202	-117.48
224.416	-164.14
224.63	-167.39
224.844	-187.83
225.059	-226.4
225.273	-3093.94
225.487	2354.4
225.701	265.59
225.915	204.52
226.13	205.11
226.344	209.18
226.558	202.27
226.772	178.28
226.986	173.14
227.2	214.57
227.415	201.69
227.629	226.98
227.843	233.78
228.057	170.13
228.271	154.8
228.485	158.05
228.699	182.49
228.913	197.92
229.127	164.95
229.341	175.67
229.555	257.8
229.769	331.78
229.983	393.27
230.197	480.75
230.411	662.37
230.625	714.67
230.839	527.69
231.053	708.49
231.267	1546.56
231.481	1113.15
231.695	671.17
231.909	451.24
232.122	249.13
232.336	265
232.55	346.88
232.764	441.05
232.978	495.16
233.192	463.03
233.405	510.33
233.619	376.31
233.833	171.89
234.047	188.68
234.261	373.19
234.474	276.61
234.688	-410.7
234.902	-186.35
235.116	-33.69
235.329	44.29
235.543	-77.36
235.757	-14.48
235.97	0.48
236.184	-2.95
236.398	30.12
236.612	58.5
236.825	109.2
237.039	116.68
237.252	137.49
237.466	277.49
237.68	-601.69
237.893	18700
238.107	367.98
238.32	-698.26
238.534	215.59
238.748	74.87
238.961	94.93
239.175	66.82
239.388	50.43
239.602	-68.33
239.815	-26.74
240.029	-74.63
240.242	-89.55
240.456	-18.51
240.669	6.45
240.882	-27.91
241.096	-85.34
241.309	8.44
241.523	-20
241.736	26.32
241.95	375.98
242.163	-734.59
242.376	-83.22
242.59	-983.2
242.803	7100
243.016	397.89
243.23	814.29
243.443	7313.33
243.656	-927.07
243.87	-146.18
244.083	-33.39
244.296	-9.49
244.509	9.07
244.723	-7.91
244.936	-20.75
245.149	-127.81
245.362	-116.95
245.576	-26.21
245.789	-16.21
246.002	7.03
246.215	-11.43
246.428	10.84
246.641	17.91
246.855	-11.28
247.068	-2.31
247.281	-42.27
247.494	22.23
247.707	13.58
247.92	1.35
248.133	31.13
248.346	35.75
248.559	47.21
248.772	29.16
248.985	9.35
249.198	26.72
249.411	37.63
249.624	52.83
249.837	48.8
250.05	18.46
250.263	7.81
250.476	19.8
250.689	25.33
250.902	28.47
251.115	19.5
251.328	28.95
251.541	29.74
251.754	34.83
251.967	28.53
252.18	31.19
252.393	31.23
252.605	24.58
252.818	21.04
253.031	14.11
253.244	18.44
253.457	16.49
253.67	13.55
253.882	14.32
254.095	20.02
254.308	22.33
254.521	24.98
254.733	28.75
254.946	22.1
255.159	21
255.372	18.03
255.584	14.9
255.797	8.28
256.01	-3.93
256.222	2.22
256.435	-3.35
256.648	6.36
256.86	9.42
257.073	22.61
257.285	29.53
257.498	36.77
257.711	30.37
257.923	36.15
258.136	38.79
258.348	20.25
258.561	9.48
258.773	2.65
258.986	4.98
259.198	-1.64
259.411	-10.38
259.623	7.95
259.836	9.96
260.048	32.03
260.261	40.78
260.473	43.35
260.686	40.98
260.898	50.58
261.111	42.03
261.323	44.15
261.535	29.79
261.748	29.61
261.96	33.19
262.173	32.23
262.385	35.78
262.597	35.72
262.81	44.17
263.022	45.58
263.234	50.28
263.447	47.26
263.659	52.16
263.871	53.81
264.083	53.59
264.296	51.93
264.508	46.58
264.72	39.38
264.932	37.29
265.145	27.89
265.357	21.46
265.569	14.77
265.781	3.04
265.993	7.18
266.205	18.27
266.418	1.23
266.63	24.9
266.842	23.4
267.054	39.78
267.266	35.45
267.478	53.4
267.69	34.12
267.902	28.59
268.114	11.19
268.326	3.53
268.538	-7.77
268.75	-2.74
268.962	-0.88
269.174	9.89
269.386	32.27
269.598	39.77
269.81	38
270.022	38.69
270.234	38.1
270.446	39.02
270.658	30.21
270.87	31.91
271.082	30.04
271.294	31.97
271.506	24.38
271.718	25.09
271.929	24.25
272.141	29.53
272.353	37.03
272.565	39.84
272.777	42.09
272.989	40.4
273.2	44.57
273.412	41.25
273.624	37.99
273.836	35.28
274.047	39.88
274.259	41.33
274.471	39.8
274.683	45.22
274.894	46.76
275.106	52.12
275.318	49.82
275.529	53.06
275.741	47.89
275.953	52.82
276.164	56.98
276.376	56.05
276.588	59.23
276.799	54.6
277.011	50.83
277.222	54.08
277.434	59.64
277.646	61.41
277.857	78.38
278.069	84.68
278.28	75.92
278.492	59.94
278.703	49.76
278.915	56.95
279.126	48.54
279.338	41.33
279.549	35.27
279.761	35.51
279.972	27.15
280.183	22.51
280.395	18.21
280.606	11.13
280.818	1.3
281.029	-0.71
281.24	1.95
281.452	-2.05
281.663	-3.35
281.875	1.13
282.086	-3.76
282.297	-20.18
282.508	-12.97
282.72	-9.36
282.931	-2.88
283.142	3.19
283.354	-3.57
283.565	2.85
283.776	-2.06
283.987	-16.67
284.199	-7.49
284.41	10.1
284.621	21.36
284.832	25.07
285.043	27.52
285.254	23.3
285.466	28.08
285.677	31.51
285.888	32.17
286.099	28.39
286.31	26.1
286.521	21.88
286.732	26.75
286.943	20.92
287.154	17.7
287.366	19.77
287.577	20.72
287.788	12.91
287.999	7.14
288.21	4.72
288.421	12.38
288.632	7.3
288.843	6.04
289.054	7.9
289.264	5.81
289.475	5.14
289.686	22.59
289.897	14.25
290.108	17.8
290.319	15.69
290.53	17.38
290.741	16.68
290.952	19.9
291.163	22.91
291.373	23.45
291.584	30.55
291.795	27.45
292.006	27.57
292.217	36.81
292.427	41.39
292.638	41.85
292.849	39.66
293.06	43.97
293.27	37.75
293.481	39.54
293.692	45.68
293.903	49.51
294.113	45.86
294.324	53.22
294.535	48.43
294.745	51.84
294.956	55.33
295.167	47.72
295.377	48.93
295.588	49.95
295.798	48.46
296.009	38.25
296.22	42.79
296.43	37.78
296.641	30.86
296.851	23.2
297.062	26.99
297.272	23.13
297.483	19.16
297.693	25.02
297.904	23.73
298.114	19.26
298.325	15.34
298.535	9.19
298.746	4.21
298.956	4.54
299.167	5.84
299.377	-0.84
299.587	4.51
299.798	2.58
300.008	-3.31
300.219	-2.45
300.429	1.2
300.639	-4.07
300.85	-0.6
301.06	1.92
301.27	9.57
301.481	12.19
301.691	11.35
301.901	17.26
302.111	19.06
302.322	14.31
302.532	13.37
302.742	12.09
302.952	14.15
303.163	5.05
303.373	0.84
303.583	1.39
303.793	1.54
304.003	2.95
304.214	6.64
304.424	6.77
304.634	2.25
304.844	2.78
305.054	5.88
305.264	1.54
305.474	2.92
305.684	0.86
305.894	4.59
306.104	11.43
306.314	-0.17
306.525	-10.84
306.735	-8.13
306.945	-6.76
307.155	1.73
307.365	-0.25
307.575	12.95
307.784	15.41
307.994	15.96
308.204	17.35
308.414	19.8
308.624	20.01
308.834	28.52
309.044	32.62
309.254	34.69
309.464	35.63
309.674	38.62
309.884	38.41
310.093	39.07
310.303	35.83
310.513	34.25
310.723	38.44
310.933	44.27
311.142	41.26
311.352	37.76
311.562	39.66
311.772	40.97
311.981	36.01
312.191	38.47
312.401	34.31
312.611	35.36
312.82	34.16
313.03	38.3
313.24	31.17
313.449	32.49
313.659	31.45
313.869	27.69
314.078	23.35
314.288	20.09
314.497	12.54
314.707	10.76
314.917	7.25
315.126	9.1
315.336	7.34
315.545	11.49
315.755	17.05
315.964	10.66
316.174	16.73
316.383	20.11
316.593	19.01
316.802	23.24
317.012	23.73
317.221	20.8
317.431	14.26
317.64	17.3
317.849	13.14
318.059	9.02
318.268	17.82
318.478	24.23
318.687	29.49
318.896	35.56
319.106	34.66
319.315	34.67
319.524	32.91
319.734	29.85
319.943	29.95
320.152	28.28
320.362	27.91
320.571	22.56
320.78	15.58
320.989	18.6
321.199	19.62
321.408	22.54
321.617	20.36
321.826	21.04
322.035	18.1
322.245	20.55
322.454	19.77
322.663	14.69
322.872	6.8
323.081	4.86
323.29	4.49
323.5	3.15
323.709	7.41
323.918	8.03
324.127	10.41
324.336	2.07
324.545	1.15
324.754	8.93
324.963	9.29
325.172	13.87
325.381	13.74
325.59	11.95
325.799	7.12
326.008	11.35
326.217	14.46
326.426	22.37
326.635	22.48
326.844	29.56
327.053	29.75
327.262	39.63
327.47	37.4
327.679	34.75
327.888	37.79
328.097	34.15
328.306	33.9
328.515	38.47
328.724	42.54
328.932	43
329.141	36.13
329.35	34.83
329.559	37.99
329.768	39.08
329.976	38.52
330.185	42.9
330.394	42.12
330.602	35.65
330.811	28.58
331.02	29.47
331.229	30.9
331.437	35.44
331.646	30.49
331.855	33.84
332.063	34.88
332.272	37.16
332.48	41.65
332.689	38.46
332.898	33.49
333.106	36.63
333.315	35.44
333.523	35.73
333.732	32.42
333.94	32.96
334.149	31.88
334.357	34.63
334.566	27.81
334.774	29.03
334.983	37.77
335.191	37.2
335.4	28.31
335.608	20.19
335.817	11.41
336.025	8.08
336.234	0.77
336.442	4.66
336.65	5.69
336.859	2.78
337.067	7.24
337.275	-0.23
337.484	-0.55
337.692	-0.48
337.9	-2.57
338.109	2.91
338.317	3.49
338.525	1.74
338.734	3.55
338.942	-2.9
339.15	-17.32
339.358	-34.94
339.567	-5.92
339.775	2.28
339.983	-0.02
340.191	1.79
340.399	8.47
340.608	18.83
340.816	18.75
341.024	14.38
341.232	5.25
341.44	10.9
341.648	19.94
341.856	23.11
342.064	24.88
342.272	25.07
342.481	28.3
342.689	23.24
342.897	23.98
343.105	18.74
343.313	29.53
343.521	37.46
343.729	41.4
343.937	31.28
344.145	30.25
344.353	35.55
344.56	29.22
344.768	24.15
344.976	21.4
345.184	13.91
345.392	15.88
345.6	26.34
345.808	20.43
346.016	21.29
346.224	19.6
346.431	19.28
346.639	25.69
346.847	27.04
347.055	31.05
347.263	26.16
347.471	27.38
347.678	17.5
347.886	8.8
348.094	11.52
348.302	15.18
348.509	14.51
348.717	13.42
348.925	27.68
349.132	33.95
349.34	29.74
349.548	31.53
349.755	32.61
349.963	35.69
350.171	40.17
350.378	37.51
350.586	40.44
350.793	38.11
351.001	33.29
351.209	28.88
351.416	29.86
351.624	31.3
351.831	29.53
352.039	31.25
352.246	43.3
352.454	41.43
352.661	39.59
352.869	40.97
353.076	37.09
353.284	27.87
353.491	33.87
353.699	26.61
353.906	29.6
354.113	30.84
354.321	27.49
354.528	30.59
354.736	29.87
354.943	25.29
355.15	25.17
355.358	21.18
355.565	18.79
355.772	15.77
355.98	27.84
356.187	32.33
356.394	31.3
356.601	21.33
356.809	24.74
357.016	36.23
357.223	37.05
357.43	33.3
357.638	34.24
357.845	33.13
358.052	37.07
358.259	30.82
358.466	34.06
358.673	24.2
358.881	25.17
359.088	28.88
359.295	27.63
359.502	20.12
359.709	20.67
359.916	20.99
360.123	16.44
360.33	-3.42
360.537	-9.14
360.744	-8.16
360.951	-8.98
361.158	-12.18
361.365	-15.09
361.572	-11.31
361.779	5.88
361.986	11.72
362.193	5.68
362.4	6.69
362.607	3.01
362.814	-1.77
363.021	11.2
363.228	3.93
363.435	-3.55
363.641	-5.33
363.848	0.24
364.055	-2.6
364.262	5.5
364.469	5.57
364.676	16.33
364.882	16.81
365.089	20.3
365.296	22.73
365.503	19.5
365.709	9.7
365.916	9.4
366.123	7.87
366.33	7.23
366.536	11.91
366.743	12.19
366.95	16.39
367.156	19.23
367.363	18.26
367.57	14.66
367.776	19.6
367.983	30.95
368.19	26.13
368.396	32.6
368.603	23.36
368.809	24.19
369.016	19.25
369.222	16.18
369.429	17.66
369.635	16.14
369.842	13.89
370.048	19.51
370.255	21.34
370.461	17.46
370.668	14.58
370.874	13.3
371.081	18.59
371.287	22.92
371.494	15.35
371.7	14.72
371.906	16.1
372.113	17.32
372.319	9.69
372.526	13.59
372.732	9.37
372.938	4.98
373.145	8.24
373.351	16.77
373.557	16.85
373.763	13.97
373.97	21.01
374.176	31.66
374.382	33.22
374.588	33.85
374.795	34.89
375.001	37.9
375.207	30.37
375.413	27.08
375.62	27.89
375.826	44.65
376.032	44.52
376.238	41.36
376.444	35.22
376.65	35.8
376.856	36.87
377.062	39.95
377.269	47.65
377.475	40.61
377.681	34.29
377.887	33.91
378.093	23.41
378.299	26.25
378.505	20.7
378.711	24.86
378.917	13.88
379.123	7.97
379.329	9.84
379.535	17.25
379.741	21.39
379.947	17.7
380.152	18.28
380.358	13.13
380.564	14.32
380.77	13.77
380.976	8.5
381.182	10.13
381.388	15.23
381.594	5.05
381.799	20.39
382.005	19.01
382.211	21.07
382.417	29.43
382.623	20.18
382.828	24.35
383.034	22.81
383.24	25.19
383.445	21.28
383.651	19.33
383.857	16.17
384.063	12.95
384.268	15.15
384.474	7.59
384.68	10.61
384.885	16.74
385.091	23.5
385.296	29.2
385.502	28.62
385.708	13.9
385.913	21.19
386.119	12.22
386.324	14.24
386.53	22.41
386.735	9.74
386.941	26.59
387.146	17.19
387.352	13.64
387.557	33.18
387.763	43.67
387.968	32.95
388.174	35.24
388.379	31.78
388.585	34.4
388.79	37.22
388.996	35.64
389.201	32.53
389.406	22.91
389.612	16.01
389.817	22.12
390.022	31.64
390.228	34.77
390.433	43.05
390.638	40.68
390.844	40.55
391.049	37.17
391.254	40.13
391.459	39.81
391.665	44.87
391.87	30.29
392.075	33.81
392.28	40.96
392.485	37.22
392.691	33.91
392.896	29.23
393.101	24.03
393.306	30.73
393.511	36.33
393.716	42.12
393.922	44.69
394.127	36.96
394.332	37.58
394.537	35.9
394.742	31.42
394.947	29.3
395.152	28.03
395.357	32
395.562	25.6
395.767	22.7
395.972	19.03
396.177	18.05
396.382	14.34
396.587	9.93
396.792	17.25
396.997	29.62
397.202	31.61
397.407	37.71
397.611	33.11
397.816	29.27
398.021	23.39
398.226	26.03
398.431	34.93
398.636	30.79
398.841	31.61
399.045	28.89
399.25	36.24
399.455	42.89
399.66	45.65
399.864	42.98
400.069	36.38
400.274	40.79
400.479	47.35
400.683	46.72
400.888	53.35
401.093	50.59
401.297	41.01
401.502	37.98
401.707	37.55
401.911	46.64
402.116	47.59
402.321	49.46
402.525	51.94
402.73	50.3
402.934	47.53
403.139	49.62
403.344	55.72
403.548	35.33
403.753	21.02
403.957	11.45
404.162	10.09
404.366	20.16
404.571	20.77
404.775	9.43
404.98	7.5
405.184	5.6
405.388	6.69
405.593	2.56
405.797	1.26
406.002	3.2
406.206	-2.69
406.41	6.63
406.615	12.15
406.819	7.49
407.023	14.38
407.228	16.14
407.432	7.4
407.636	8.11
407.841	17.27
408.045	23.76
408.249	25.25
408.453	28.66
408.658	29.34
408.862	29.13
409.066	34.05
409.27	31.77
409.474	31.18
409.679	26.7
409.883	29.47
410.087	39.54
410.291	46.36
410.495	37.89
410.699	34.94
410.903	32.02
411.108	33.28
411.312	17.02
411.516	14.31
411.72	31.07
411.924	19.13
412.128	20.84
412.332	15.48
412.536	18.64
412.74	21.57
412.944	25.03
413.148	12.66
413.352	11.87
413.556	14.69
413.76	12.14
413.964	21.55
414.167	25.27
414.371	19.97
414.575	17.58
414.779	9.81
414.983	7.29
415.187	12.56
415.391	12.29
415.594	24.38
415.798	32.04
416.002	19.29
416.206	27.1
416.41	27.44
416.613	25.71
416.817	16.93
417.021	16.23
417.225	17.51
417.428	15.72
417.632	5.29
417.836	6.36
418.039	17.41
418.243	12.61
418.447	2.59
418.65	10.91
418.854	15.21
419.057	24.13
419.261	19.99
419.465	10.41
419.668	15.48
419.872	10.59
420.075	-1.84
420.279	11.12
420.482	13.02
420.686	16.27
420.889	16.93
421.093	31.63
421.296	34.06
421.5	22.77
421.703	30.74
421.907	39.26
422.11	44.33
422.314	36.47
422.517	44.37
422.72	56.86
422.924	46.65
423.127	39.99
423.33	49.52
423.534	66.53
423.737	71.54
423.94	60.5
424.144	52.99
424.347	57.59
424.55	58.01
424.754	53.46
424.957	50.8
425.16	50.3
425.363	41.04
425.567	45.19
425.77	52.15
425.973	51.33
426.176	46.19
426.379	40.62
426.582	47.43
426.786	51.5
426.989	44.18
427.192	56.29
427.395	53.22
427.598	47.91
427.801	36.15
428.004	28.92
428.207	38.46
428.41	36.44
428.613	32.91
428.816	35.99
429.019	41.24
429.222	34.63
429.425	32.73
429.628	27.72
429.831	20.88
430.034	16.65
430.237	19.91
430.44	19.6
430.643	13.14
430.846	8.91
431.049	7.99
431.252	5.04
431.454	0.96
431.657	-8.35
431.86	-3.44
432.063	6.35
432.266	7.81
432.469	-1.29
432.671	-4
432.874	4.48
433.077	-7.11
433.28	-5.4
433.482	1.96
433.685	-7.4
433.888	-4.7
434.09	-7.53
434.293	-11.24
434.496	-17.96
434.698	-17.54
434.901	-4.54
435.104	-8.78
435.306	-7
435.509	-1.41
435.712	3.28
435.914	1.5
436.117	6.52
436.319	4.9
436.522	4.5
436.724	9.06
436.927	17.68
437.129	15.52
437.332	27.13
437.534	23.33
437.737	19.03
437.939	37.5
438.142	46.36
438.344	52.38
438.547	63.81
438.749	67.06
438.951	62.26
439.154	68.92
439.356	76.04
439.558	89.4
439.761	92.71
439.963	77.67
440.165	67.16
440.368	65.62
440.57	56.89
440.772	60.31
440.975	48.2
441.177	54.48
441.379	44.55
441.581	42.13
441.784	34.48
441.986	47.98
442.188	34.45
442.39	34.96
442.592	24.64
442.795	23.32
442.997	19.6
443.199	20.89
443.401	15.63
443.603	16.8
443.805	8.77
444.007	7.85
444.209	3.95
444.411	15.19
444.613	12.68
444.815	28.63
445.017	28.64
445.219	30.06
445.421	27.75
445.623	29.14
445.825	25.39
446.027	24.8
446.229	11.15
446.431	22.43
446.633	11.51
446.835	11.4
447.037	14.17
447.239	10.63
447.441	17.15
447.643	23.27
447.844	5.41
448.046	14.27
448.248	9.62
448.45	18.03
448.652	10.95
448.853	20.06
449.055	17.66
449.257	26.72
449.459	27.16
449.66	22.14
449.862	24.52
450.064	38.21
450.266	40.17
450.467	45.62
450.669	44.17
450.871	47.93
451.072	63.03
451.274	62.5
451.475	54.45
451.677	42.71
451.879	37.86
452.08	33.3
452.282	30.89
452.483	37.4
452.685	35.87
452.886	34.46
453.088	22.22
453.289	8.97
453.491	-6.07
453.692	-26.04
453.894	-2.81
454.095	10.37
454.297	-9.38
454.498	-8.51
454.7	-12.66
454.901	-6.99
455.102	5.33
455.304	1.63
455.505	4.02
455.706	7.19
455.908	8.91
456.109	6.4
456.31	12.47
456.512	-0.63
456.713	4.92
456.914	7.57
457.116	9.23
457.317	18.52
457.518	14.12
457.719	23.56
457.921	31.43
458.122	20.27
458.323	13.26
458.524	17.59
458.725	20.04
458.926	21.33
459.128	21.06
459.329	13.08
459.53	5.7
459.731	-2.81
459.932	-5.32
460.133	-5.29
460.334	17.54
460.535	23.88
460.736	30.11
460.937	24.9
461.138	16.85
461.339	26.3
461.54	18.81
461.741	24.6
461.942	13.91
462.143	10.01
462.344	10
462.545	3.82
462.746	4.1
462.947	-3.82
463.148	2.04
463.348	3.28
463.549	2.95
463.75	8.35
463.951	28.82
464.152	21.27
464.353	21.56
464.553	15.1
464.754	15.65
464.955	14.77
465.156	18.72
465.356	21.39
465.557	15.59
465.758	21.66
465.959	24.22
466.159	27.07
466.36	27.21
466.561	28.09
466.761	29.39
466.962	28.2
467.163	35.31
467.363	31.51
467.564	33.22
467.764	39.25
467.965	33.64
468.166	22.53
468.366	34.17
468.567	37.6
468.767	46.36
468.968	49.39
469.168	49.8
469.369	53.6
469.569	43.91
469.77	38.73
469.97	34.17
470.17	32.94
470.371	34.94
470.571	34.53
470.772	34.4
470.972	40.35
471.172	45.78
471.373	39.94
471.573	37.27
471.773	29.29
471.974	27.61
472.174	30.53
472.374	30.68
472.575	24.53
472.775	24.6
472.975	9.48
473.175	6.27
473.376	4.32
473.576	4.13
473.776	13.72
473.976	12.42
474.177	14.01
474.377	10.18
474.577	12.28
474.777	11.69
474.977	10.68
475.177	6.68
475.377	4.42
475.577	7.92
475.777	8.75
475.978	15.6
476.178	16
476.378	17.39
476.578	21.02
476.778	21.85
476.978	17.94
477.178	22.61
477.378	22.24
477.578	24.13
477.778	20.32
477.977	14.29
478.177	13.7
478.377	10.64
478.577	9.2
478.777	10.59
478.977	10.34
479.177	7.92
479.377	10.11
479.577	1.18
479.776	5.13
479.976	5.08
480.176	3.53
480.376	5.35
480.576	5.98
480.775	5.14
480.975	5.66
481.175	9.53
481.374	8.08
481.574	11.47
481.774	11.07
481.974	14.29
482.173	16.79
482.373	15.51
482.572	19.58
482.772	19.25
482.972	21.83
483.171	26.23
483.371	30.53
483.57	28.78
483.77	36.55
483.97	36.29
484.169	32.93
484.369	32.86
484.568	29.2
484.768	27.52
484.967	28.39
485.167	27.95
485.366	24.51
485.566	24.05
485.765	24.63
485.964	20.51
486.164	20.22
486.363	21
486.563	23.03
486.762	24.76
486.961	27.76
487.161	24.25
487.36	20.98
487.559	20.02
487.759	19.83
487.958	12.1
488.157	7.8
488.356	15.69
488.556	14.05
488.755	16.34
488.954	20.74
489.153	17.87
489.353	23.38
489.552	21.69
489.751	16.07
489.95	11.78
490.149	11.93
490.348	12.18
490.548	11.27
490.747	10.51
490.946	5.8
491.145	4.51
491.344	3.28
491.543	6.84
491.742	3.52
491.941	0.62
492.14	2.22
492.339	4.88
492.538	-1.1
492.737	5.31
492.936	8.4
493.135	4.87
493.334	1.41
493.533	-12.28
493.732	-2.26
493.931	8.1
494.13	9.19
494.328	15.69
494.527	17.22
494.726	17.4
494.925	16.26
495.124	15.01
495.323	16.91
495.521	13.03
495.72	13.21
495.919	15.23
496.118	17.75
496.316	19.12
496.515	16.93
496.714	14.8
496.913	14.17
497.111	14.11
497.31	11.74
497.509	15.33
497.707	22.25
497.906	17.87
498.105	9.7
498.303	10.61
498.502	7.56
498.7	6.18
498.899	3.87
499.097	4.31
499.296	7.68
499.495	7.73
499.693	10.19
499.892	9.03
500.09	11.63
500.289	16.62
500.487	16.21
500.686	14.73
500.884	18.73
501.082	14.37
501.281	7.12
501.479	7.23
501.678	6.7
501.876	5.48
502.074	7.74
502.273	13.85
502.471	13.37
502.669	11.11
502.868	7.52
503.066	12.58
503.264	12.85
503.463	8.92
503.661	7.73
503.859	9.2
504.057	12.1
504.256	9.42
504.454	7.68
504.652	10.95
504.85	13
505.048	16.51
505.246	17.81
505.445	20.9
505.643	22.27
505.841	26.11
506.039	25.31
506.237	20.65
506.435	19.75
506.633	19.43
506.831	24.31
507.029	25.15
507.227	23.07
507.425	25.01
507.623	25.77
507.821	22.87
508.019	24.48
508.217	21.03
508.415	24.6
508.613	22.36
508.811	20.27
509.009	22.1
509.207	18.33
509.405	14.98
509.603	17.52
509.8	15.27
509.998	14.72
510.196	17.66
510.394	20.71
510.592	20
510.79	19.28
510.987	14.46
511.185	18.39
511.383	18.71
511.581	15.67
511.778	20.12
511.976	24.22
512.174	18.83
512.371	17.04
512.569	17.16
512.767	16.52
512.964	15.28
513.162	12.97
513.36	10.8
513.557	12.36
513.755	14.1
513.952	17.75
514.15	10.81
514.348	9.94
514.545	7.31
514.743	11.56
514.94	13
515.138	13.1
515.335	12.79
515.533	12.05
515.73	15.17
515.927	12.36
516.125	8.4
516.322	15.53
516.52	18.39
516.717	16.44
516.915	17.33
517.112	14.65
517.309	14.86
517.507	18.48
517.704	19.09
517.901	15
518.099	12.89
518.296	17.1
518.493	17.07
518.69	21.09
518.888	18.12
519.085	19.96
519.282	21.23
519.479	16.66
519.676	15.19
519.874	9.04
520.071	7.31
520.268	9.8
520.465	6.49
520.662	7.7
520.859	7.01
521.056	6.27
521.254	13.26
521.451	14.71
521.648	16
521.845	16.18
522.042	19.25
522.239	22.14
522.436	20.35
522.633	17.15
522.83	15.56
523.027	13.34
523.224	10.93
523.421	14.47
523.618	15.11
523.815	17.87
524.011	21.79
524.208	25.96
524.405	26.57
524.602	27.45
524.799	23.31
524.996	17.86
525.193	15.15
525.389	8.01
525.586	11.64
525.783	5.33
525.98	8.18
526.176	7.05
526.373	5.11
526.57	6.03
526.767	4.33
526.963	1.03
527.16	5.84
527.357	6.56
527.553	6.71
527.75	9.46
527.947	3.39
528.143	4.99
528.34	1.17
528.537	-3.69
528.733	-5.55
528.93	-4.06
529.126	3.08
529.323	7.74
529.519	8.44
529.716	2.2
529.912	5.15
530.109	3.53
530.305	2.61
530.502	1.43
530.698	-0.28
530.895	-2.61
531.091	-2.41
531.288	-3.89
531.484	-3.03
531.68	-2.52
531.877	-1.77
532.073	-0.74
532.269	-1.84
532.466	-0.63
532.662	2.83
532.858	3.56
533.055	4.2
533.251	3.35
533.447	0.29
533.643	3.03
533.84	1.18
534.036	2.14
534.232	3.73
534.428	3.06
534.624	4.87
534.821	7.88
535.017	14.87
535.213	16.26
535.409	15.81
535.605	17.06
535.801	12.8
535.997	14.43
536.193	16.19
536.389	16.84
536.586	18.55
536.782	18.03
536.978	19.03
537.174	20.9
537.37	18.58
537.566	20.86
537.762	19.45
537.958	23.47
538.153	22.67
538.349	22.24
538.545	22.56
538.741	23.08
538.937	20.56
539.133	20.6
539.329	21.27
539.525	21.04
539.721	20.58
539.916	24.95
540.112	19.49
540.308	19.28
540.504	20.33
540.699	20.98
540.895	17.81
541.091	20.36
541.287	24.04
541.482	25.92
541.678	30.48
541.874	31.1
542.069	30.52
542.265	29.21
542.461	27.74
542.656	28.9
542.852	27.22
543.048	26.81
543.243	25
543.439	26.6
543.634	27.21
543.83	26.27
544.025	26.2
544.221	29.37
544.417	32.31
544.612	31.05
544.807	31.09
545.003	31.88
545.198	27.53
545.394	22.85
545.589	25.54
545.785	21.89
545.98	21.01
546.176	19.43
546.371	17.27
546.566	16.86
546.762	15.14
546.957	16.5
547.152	17.92
547.348	16.39
547.543	16.14
547.738	16.37
547.933	11.56
548.129	9.02
548.324	11.42
548.519	8.22
548.714	7.95
548.91	6.96
549.105	7.93
549.3	9.81
549.495	13.81
549.69	9.92
549.885	9.86
550.08	14.17
550.276	17.32
550.471	20.73
550.666	21.51
550.861	23.8
551.056	20.81
551.251	21.78
551.446	24.27
551.641	23.18
551.836	23.11
552.031	28.08
552.226	30.42
552.421	27.5
552.616	26.54
552.811	27.48
553.006	25.95
553.201	22.29
553.395	22.63
553.59	18.04
553.785	18.88
553.98	18.84
554.175	15.75
554.37	14
554.565	13.85
554.759	12.4
554.954	11.64
555.149	14.53
555.344	13.75
555.538	13.09
555.733	14.05
555.928	16.02
556.122	15.73
556.317	15.72
556.512	17.23
556.706	18.32
556.901	18.26
557.096	18.6
557.29	21.34
557.485	22.25
557.68	22.84
557.874	24.03
558.069	23.31
558.263	23.83
558.458	22
558.652	20.06
558.847	20.07
559.041	21.04
559.236	19.44
559.43	20.09
559.625	21.22
559.819	20.31
560.014	17.1
560.208	16.92
560.402	15.29
560.597	11.51
560.791	11.24
560.986	11.96
561.18	11.51
561.374	12.55
561.569	12.6
561.763	13.73
561.957	10.33
562.151	9.01
562.346	10.25
562.54	15.15
562.734	15.81
562.928	15.05
563.123	14.39
563.317	13.77
563.511	12.62
563.705	9.25
563.899	9.95
564.093	10.02
564.288	8.58
564.482	9.46
564.676	11.44
564.87	12.4
565.064	11.43
565.258	11.32
565.452	11.91
565.646	10.47
565.84	9.34
566.034	13.86
566.228	15.92
566.422	13.98
566.616	13.43
566.81	14.31
567.004	15.35
567.198	14.71
567.392	15.17
567.586	13.69
567.779	14.4
567.973	14.31
568.167	15.36
568.361	17.47
568.555	17.3
568.749	18.85
568.942	17.64
569.136	19.1
569.33	17.83
569.524	16.79
569.718	17.52
569.911	17.79
570.105	17.46
570.299	15.82
570.492	15.22
570.686	14.47
570.88	12.79
571.073	11.74
571.267	12.08
571.461	12.26
571.654	13.59
571.848	14.96
572.041	15.32
572.235	17.12
572.429	16.1
572.622	13.08
572.816	12.31
573.009	12.12
573.203	10.13
573.396	12.93
573.59	14.68
573.783	13.36
573.976	11.58
574.17	11.61
574.363	12.4
574.557	12.78
574.75	13.93
574.943	15.67
575.137	18.72
575.33	17.03
575.523	16.53
575.717	14.47
575.91	12.05
576.103	10.92
576.297	7.86
576.49	6.61
576.683	9.46
576.876	9.89
577.07	9.08
577.263	10.17
577.456	9.01
577.649	6.48
577.842	7.72
578.036	10.24
578.229	9.76
578.422	9.95
578.615	10.22
578.808	7.68
579.001	9.68
579.194	8.64
579.387	11.35
579.58	11.17
579.773	11.98
579.966	14.03
580.159	14.91
580.352	15.83
580.545	16.91
580.738	16.3
580.931	13.98
581.124	15.78
581.317	15.1
581.51	14.47
581.703	16.85
581.896	16.76
582.088	17.15
582.281	18.89
582.474	18.82
582.667	19.8
582.86	21.2
583.053	18.78
583.245	18.37
583.438	16.12
583.631	18.56
583.824	18.65
584.016	17.04
584.209	14.93
584.402	16.07
584.594	16.65
584.787	16.95
584.98	18.23
585.172	17.86
585.365	15.56
585.558	16.63
585.75	15.57
585.943	15.72
586.135	13.96
586.328	12.44
586.52	13.78
586.713	13.33
586.906	12.14
587.098	12.81
587.291	14.45
587.483	13.48
587.675	12.92
587.868	12.61
588.06	11.82
588.253	12.59
588.445	12.15
588.638	10.02
588.83	9.33
589.022	8.76
589.215	8.26
589.407	10.04
589.599	8.36
589.792	7.74
589.984	8.12
590.176	8.31
590.368	9.47
590.561	9.05
590.753	8.48
590.945	9.1
591.137	7.35
591.33	4.64
591.522	6.54
591.714	6.11
591.906	10.27
592.098	12.19
592.29	12.69
592.482	14.55
592.674	15.61
592.867	16.59
593.059	17.06
593.251	15.9
593.443	17.07
593.635	16.86
593.827	16.64
594.019	16.64
594.211	18.11
594.403	17.94
594.595	18.29
594.787	18.37
594.979	18.5
595.17	18.77
595.362	20.52
595.554	20.21
595.746	18.39
595.938	16.42
596.13	16.21
596.322	18.04
596.513	15.01
596.705	17.04
596.897	16.32
597.089	17.13
597.281	18.69
597.472	19.01
597.664	18.47
597.856	20.71
598.048	19.27
598.239	17.8
598.431	16.94
598.623	14.8
598.814	11.54
599.006	12.33
599.197	13.82
599.389	13.1
599.581	12.41
599.772	14.57
599.964	13.78
600.155	13.71
600.347	11.91
600.538	11.96
600.73	11.03
600.921	10.7
601.113	9.74
601.304	10.35
601.496	10.24
601.687	11.28
601.879	8.37
602.07	10.23
602.262	10.19
602.453	10.16
602.644	9.83
602.836	12.56
603.027	12.52
603.218	12.16
603.41	10.97
603.601	11.65
603.792	11.89
603.983	11.1
604.175	11.08
604.366	12.11
604.557	14.02
604.748	13.2
604.94	13.53
605.131	12.53
605.322	11.79
605.513	12.81
605.704	14.73
605.895	16.63
606.086	15.49
606.278	15.33
606.469	16.56
606.66	18.56
606.851	17.96
607.042	17.51
607.233	18.44
607.424	18.68
607.615	19.17
607.806	18.13
607.997	18.64
608.188	20.34
608.379	19.2
608.57	17.48
608.761	16.83
608.952	16.14
609.142	16.5
609.333	16.3
609.524	15.1
609.715	15.38
609.906	15.8
610.097	16.11
610.287	15.17
610.478	13.05
610.669	13.33
610.86	13.49
611.051	14.55
611.241	13.81
611.432	13.91
611.623	14.74
611.813	13.9
612.004	14.25
612.195	13.15
612.385	13.11
612.576	13.49
612.767	13.42
612.957	13.63
613.148	14.6
613.338	13.17
613.529	11.34
613.72	9.96
613.91	8.34
614.101	7.78
614.291	10.38
614.482	11.85
614.672	9.8
614.863	9.69
615.053	8.73
615.243	8.74
615.434	9.6
615.624	8.17
615.815	7.87
616.005	8.53
616.195	7.35
616.386	7.44
616.576	8.72
616.766	9.25
616.957	9.81
617.147	8.91
617.337	8.89
617.528	8.55
617.718	7.22
617.908	6.32
618.098	6.36
618.289	5.85
618.479	5.47
618.669	7.97
618.859	9.94
619.049	11.52
619.239	12.17
619.43	11.74
619.62	11.73
619.81	13.64
620	13.67
620.19	14.31
620.38	14.02
620.57	13.67
620.76	13.35
620.95	13.12
621.14	14.16
621.33	15.92
621.52	17.2
621.71	17.14
621.9	18.12
622.09	18.21
622.28	17.92
622.47	15.35
622.659	14.16
622.849	13.52
623.039	12.35
623.229	11.66
623.419	12.5
623.609	12.64
623.799	11.81
623.988	11.08
624.178	11.6
624.368	10.45
624.558	11.46
624.747	11.6
624.937	12.1
625.127	11.13
625.316	9.93
625.506	9.85
625.696	10.63
625.885	10.25
626.075	10.83
626.265	11.53
626.454	14.16
626.644	13.8
626.833	12.9
627.023	12.8
627.212	11.99
627.402	12.44
627.591	12.47
627.781	11.76
627.97	11.67
628.16	11.56
628.349	13.24
628.539	10.8
628.728	12.17
628.918	11.38
629.107	12.46
629.296	11.95
629.486	12.36
629.675	13.24
629.865	13.83
630.054	14.43
630.243	13.34
630.432	12.27
630.622	13.59
630.811	15.24
631	14.97
631.19	15.93
631.379	14.14
631.568	13.22
631.757	14.04
631.946	13.51
632.136	13.85
632.325	12.22
632.514	14.88
632.703	12.97
632.892	12.54
633.081	12.4
633.27	15.17
633.459	14.68
633.648	14
633.837	13.87
634.026	12.99
634.215	15.1
634.404	15.18
634.593	16.16
634.782	14.52
634.971	14.99
635.16	13.97
635.349	14.85
635.538	17.17
635.727	15.28
635.916	14.96
636.105	15.07
636.294	16.57
636.482	15.13
636.671	15.45
636.86	16.89
637.049	16.83
637.238	14.09
637.426	14.27
637.615	13.7
637.804	14.33
637.993	13.73
638.181	11.67
638.37	12.57
638.559	11.18
638.747	11.75
638.936	12.18
639.125	13.76
639.313	12.77
639.502	11.05
639.691	11.93
639.879	11.19
640.068	10.17
640.256	9.34
640.445	9.56
640.633	10.96
640.822	9.98
641.01	11.35
641.199	12.7
641.387	13.69
641.576	14.92
641.764	15.59
641.953	15.15
642.141	16.58
642.329	16.84
642.518	15.83
642.706	15.47
642.894	14.22
643.083	13.15
643.271	14.72
643.459	16.21
643.648	18
643.836	19.83
644.024	19.71
644.213	21.79
644.401	20.54
644.589	19.29
644.777	19.76
644.965	20.89
645.154	21.27
645.342	20.06
645.53	20.69
645.718	19.35
645.906	19.95
646.094	19.01
646.282	18.64
646.47	20.59
646.658	20.42
646.846	20.63
647.034	21.43
647.223	20.53
647.411	20.9
647.599	18.55
647.786	18.35
647.974	19.11
648.162	17.12
648.35	17.41
648.538	18.82
648.726	19.33
648.914	16.51
649.102	17.05
649.29	17.93
649.478	18.33
649.665	18.36
649.853	18.18
650.041	18.67
650.229	18.16
650.417	16.57
650.604	17.32
650.792	17
650.98	17.51
651.168	17.37
651.355	17.5
651.543	18.07
651.731	16.94
651.918	15.88
652.106	16.64
652.294	17.6
652.481	17.84
652.669	16.19
652.856	15.94
653.044	14.32
653.231	14.29
653.419	12.11
653.606	12.27
653.794	12.7
653.981	12.44
654.169	11.83
654.356	10.78
654.544	11.23
654.731	12.37
654.919	10.01
655.106	10.1
655.294	9.31
655.481	10.17
655.668	11.39
655.856	10.71
656.043	11.14
656.23	10.87
656.418	10.51
656.605	12
656.792	12.89
656.979	13.17
657.167	12.62
657.354	13.1
657.541	12.82
657.728	13.07
657.916	11.86
658.103	11.6
658.29	12.6
658.477	12.14
658.664	11.1
658.851	12.81
659.038	12.6
659.225	12.54
659.412	13.22
659.6	12.37
659.787	13.9
659.974	11.66
660.161	12.5
660.348	11.95
660.535	12.36
660.722	10.97
660.909	10.1
661.095	11.07
661.282	11.18
661.469	11.51
661.656	10.75
661.843	12.89
662.03	13.46
662.217	13.62
662.404	12.77
662.59	12.15
662.777	11.27
662.964	12.02
663.151	12.21
663.338	13.08
663.524	13.4
663.711	13.37
663.898	14.03
664.085	13.5
664.271	12.34
664.458	10.96
664.645	11.38
664.831	13.18
665.018	11.95
665.204	12.39
665.391	13.16
665.578	13.69
665.764	11.83
665.951	11.26
666.137	10.74
666.324	11.89
666.51	13.09
666.697	13.1
666.883	13.18
667.07	12.81
667.256	11.87
667.443	10.86
667.629	11.08
667.816	9.81
668.002	8.51
668.188	9.83
668.375	10.75
668.561	10.86
668.747	9.52
668.934	10.51
669.12	10.87
669.306	9.2
669.493	8
669.679	9.58
669.865	10.04
670.051	10.66
670.238	9.94
670.424	9.57
670.61	8.67
670.796	7.8
670.982	6.62
671.169	5.79
671.355	6.27
671.541	4.76
671.727	6.65
671.913	7.68
672.099	6.94
672.285	4.82
672.471	5.06
672.657	5.42
672.843	6.57
673.029	6.15
673.215	6.53
673.401	8.53
673.587	6.56
673.773	7.72
673.959	8.17
674.145	7.79
674.331	7.62
674.517	8.15
674.703	8.4
674.888	9.6
675.074	8.75
675.26	9.05
675.446	10.23
675.632	8.52
675.817	8.45
676.003	8.83
676.189	9.59
676.375	10.11
676.56	10.63
676.746	8.43
676.932	7.36
677.117	7.07
677.303	5.94
677.489	7.16
677.674	5.91
677.86	5.18
678.046	5.81
678.231	6.37
678.417	7.25
678.602	6.84
678.788	5.61
678.973	7.36
679.159	9.07
679.344	8.85
679.53	9.99
679.715	8.99
679.901	8.96
680.086	9.23
680.272	8.58
680.457	8.62
680.643	9.75
680.828	10.23
681.013	10.93
681.199	11.55
681.384	11.38
681.569	11.82
681.755	12.11
681.94	12.08
682.125	11.22
682.31	12.16
682.496	12.38
682.681	14.07
682.866	13.43
683.051	12.73
683.237	12.49
683.422	13.17
683.607	13.61
683.792	14.17
683.977	15.5
684.162	14.28
684.347	14
684.532	13.49
684.717	13.72
684.903	12.99
685.088	13.08
685.273	13.37
685.458	12.35
685.643	11.96
685.828	10.36
686.013	11.7
686.198	9.74
686.382	11.14
686.567	11.14
686.752	9.75
686.937	8.05
687.122	9.12
687.307	9.38
687.492	9.95
687.677	8.23
687.861	7.08
688.046	7.68
688.231	7.1
688.416	7.44
688.601	6.46
688.785	6.5
688.97	6.81
689.155	8.02
689.339	8.75
689.524	8.83
689.709	9.26
689.893	8.08
690.078	9.49
690.263	8.5
690.447	6.57
690.632	6.84
690.816	8.82
691.001	7.16
691.186	5.77
691.37	6.29
691.555	8.58
691.739	8.99
691.924	9.89
692.108	9.43
692.293	9.23
692.477	10.16
692.661	10.5
692.846	8.99
693.03	8.37
693.215	8.92
693.399	8.97
693.583	9.54
693.768	10.08
693.952	9.3
694.136	8.61
694.321	11.03
694.505	11.51
694.689	10.28
694.873	10.51
695.058	10.03
695.242	10.42
695.426	8.99
695.61	8.81
695.794	8.98
695.979	8.96
696.163	8.3
696.347	7.7
696.531	8.17
696.715	9.88
696.899	7.99
697.083	6.21
697.267	6.53
697.451	7.03
697.635	6.73
697.819	6.32
698.003	6.2
698.187	4.26
698.371	4.89
698.555	5.44
698.739	6.66
698.923	7.97
699.107	6.83
699.291	6.88
699.475	7.14
699.659	5.73
699.842	5.74
700.026	7.81
700.21	6.79
700.394	6.57
700.578	5.93
700.761	7.2
700.945	8.96
701.129	8.73
701.313	7.61
701.496	9.1
701.68	8.56
701.864	9.1
702.047	10.12
702.231	12.71
702.415	12.75
702.598	10.87
702.782	10.97
702.965	11
703.149	11.01
703.333	10.81
703.516	11.54
703.7	12.94
703.883	10.98
704.067	12.44
704.25	12.52
704.434	11.36
704.617	10.53
704.801	10.47
704.984	10.15
705.167	10.1
705.351	8.11
705.534	9.36
705.718	11.01
705.901	11.02
706.084	8.38
706.268	8.35
706.451	8.83
706.634	10.1
706.817	9.75
707.001	9.44
707.184	8.26
707.367	8.79
707.55	8.42
707.734	9.36
707.917	9.45
708.1	9.54
708.283	11.51
708.466	12.77
708.649	12.18
708.832	12.03
709.015	13.47
709.199	15.15
709.382	14.88
709.565	13.3
709.748	13.39
709.931	12.49
710.114	12.3
710.297	13.17
710.48	12.17
710.663	12.53
710.846	12.62
711.028	13.48
711.211	13.1
711.394	12.96
711.577	12.83
711.76	10.78
711.943	10.24
712.126	8.46
712.309	9.13
712.491	10.1
712.674	10.46
712.857	10.97
713.04	10.61
713.222	10.69
713.405	11.55
713.588	12.51
713.771	13.5
713.953	14.08
714.136	14.3
714.319	13.89
714.501	14.09
714.684	14.18
714.866	14.99
715.049	15.1
715.232	14.56
715.414	14.03
715.597	15.89
715.779	15.63
715.962	17.03
716.144	14.85
716.327	15.74
716.509	15.82
716.692	14.56
716.874	13.35
717.057	13.79
717.239	13.14
717.421	12.23
717.604	11.26
717.786	11.84
717.968	9.41
718.151	9.1
718.333	8.09
718.515	9.27
718.698	8.83
718.88	7.38
719.062	6.86
719.244	7.27
719.427	6.2
719.609	7.24
719.791	6.24
719.973	7.22
720.155	4.09
720.338	3.53
720.52	4.35
720.702	5.77
720.884	5.19
721.066	6.85
721.248	4.32
721.43	3.77
721.612	2.21
721.794	5.35
721.976	5.95
722.158	7.12
722.34	6.78
722.522	5.85
722.704	7.17
722.886	6.62
723.068	6.39
723.25	8.81
723.432	8.65
723.614	9
723.796	9.93
723.977	9.82
724.159	11.01
724.341	10.72
724.523	8.68
724.705	9.27
724.886	7.77
725.068	9.67
725.25	11.38
725.432	11.56
725.613	10.68
725.795	10.86
725.977	10.31
726.158	9.84
726.34	9.85
726.522	10.29
726.703	11.95
726.885	12.6
727.066	10.75
727.248	11.64
727.43	11.24
727.611	10.03
727.793	10.47
727.974	9.77
728.156	8.98
728.337	9.02
728.519	8.1
728.7	7.87
728.882	7.99
729.063	8.66
729.244	9.15
729.426	9.45
729.607	8.53
729.788	9.75
729.97	10.18
730.151	10.91
730.332	11.65
730.514	11.26
730.695	11.4
730.876	12.08
731.058	10.7
731.239	10.31
731.42	10.98
731.601	11.3
731.782	11.52
731.964	12.24
732.145	13.15
732.326	12.05
732.507	12.11
732.688	12.25
732.869	12.49
733.05	12.78
733.231	12.8
733.412	12.31
733.593	12.26
733.774	10.89
733.955	10.26
734.136	9.61
734.317	8.95
734.498	7.88
734.679	8.08
734.86	7.8
735.041	7.64
735.222	7.52
735.403	9.25
735.584	8.53
735.765	9.39
735.946	9.73
736.126	8.58
736.307	9.84
736.488	8.78
736.669	5.86
736.849	3.9
737.03	5.4
737.211	6.67
737.392	6.28
737.572	4.58
737.753	4.87
737.934	3.58
738.114	5.37
738.295	4.39
738.476	4.16
738.656	5.68
738.837	6.27
739.017	6.74
739.198	6.02
739.378	6.7
739.559	5.78
739.74	5.65
739.92	6.89
740.1	6.48
740.281	6.07
740.461	7.17
740.642	9.11
740.822	5.74
741.003	5.56
741.183	4.1
741.363	5.72
741.544	4.9
741.724	6.12
741.904	5.13
742.085	5.9
742.265	4.55
742.445	3.9
742.626	4.59
742.806	3.92
742.986	2.75
743.166	3.84
743.347	3.11
743.527	4.52
743.707	4.44
743.887	3.52
744.067	2.7
744.247	2.15
744.427	2.51
744.608	3.7
744.788	6.17
744.968	8.23
745.148	9.68
745.328	9.89
745.508	9
745.688	9.17
745.868	8.96
746.048	10.02
746.228	9.92
746.408	8.19
746.588	8.56
746.767	9.48
746.947	8.91
747.127	9.56
747.307	6.52
747.487	7.62
747.667	7.34
747.847	10.38
748.026	10.34
748.206	9.28
748.386	10.31
748.566	8.25
748.745	6.43
748.925	5.66
749.105	7.31
749.285	7.58
749.464	8.5
749.644	8.61
749.824	8.77
750.003	8.41
750.183	8.18
750.362	8.26
750.542	6.51
750.722	5.25
750.901	4.01
751.081	6.06
751.26	6.08
751.44	5.15
751.619	3.3
751.799	3.66
751.978	1.28
752.158	2.02
752.337	0.99
752.516	2.01
752.696	1.86
752.875	0.65
753.055	1.39
753.234	0.24
753.413	1.52
753.593	2.77
753.772	1.87
753.951	2.68
754.13	4.18
754.31	4.77
754.489	5.21
754.668	7.23
754.847	7.46
755.027	8.01
755.206	9.14
755.385	9.64
755.564	11.2
755.743	13.99
755.922	12.17
756.101	12.59
756.28	12.67
756.46	12.65
756.639	11.91
756.818	12.28
756.997	12.36
757.176	11.73
757.355	11.41
757.534	11.69
757.713	12.96
757.892	10.54
758.07	11.87
758.249	12.83
758.428	12.47
758.607	11.57
758.786	11.85
758.965	10.52
759.144	11.47
759.323	9.5
759.501	8.6
759.68	8.13
759.859	9.76
760.038	9.44
760.216	9.31
760.395	10.09
760.574	9.67
760.753	10.83
760.931	11.36
761.11	11.96
761.289	12.38
761.467	11.75
761.646	11.76
761.824	11.61
762.003	10.15
762.182	9.2
762.36	9.95
762.539	10.33
762.717	11.71
762.896	11.34
763.074	10.96
763.253	10.43
763.431	12.55
763.61	10.56
763.788	10.72
763.966	11.58
764.145	12.14
764.323	11.28
764.502	9.61
764.68	9.23
764.858	7.79
765.037	9.26
765.215	10.35
765.393	10.34
765.571	11.33
765.75	12.14
765.928	11.94
766.106	11.06
766.284	10.54
766.463	10.04
766.641	10.23
766.819	11.99
766.997	12.48
767.175	10.93
767.353	10.73
767.531	11.41
767.71	11.58
767.888	11.58
768.066	11.91
768.244	11.89
768.422	11.82
768.6	13.25
768.778	10.77
768.956	8.68
769.134	10.19
769.312	10.13
769.489	9.57
769.667	10.46
769.845	10.06
770.023	10.34
770.201	11.94
770.379	10.1
770.557	10.08
770.735	10.85
770.912	10.94
771.09	11.89
771.268	12.01
771.446	12.21
771.623	13.04
771.801	13.92
771.979	14.69
772.157	14.6
772.334	12.84
772.512	13.69
772.69	14.55
772.867	13.8
773.045	12.22
773.222	11.02
773.4	11.52
773.577	13.04
773.755	12.18
773.933	9.62
774.11	10.12
774.288	9.97
774.465	10.55
774.643	9.83
774.82	10.07
774.997	8.14
775.175	7.61
775.352	7.78
775.53	8.75
775.707	7.99
775.884	9.14
776.062	10.16
776.239	10.78
776.416	10.53
776.594	11.01
776.771	11.26
776.948	13.9
777.125	13.25
777.303	12.94
777.48	11.44
777.657	12.29
777.834	13.68
778.012	12.97
778.189	11.64
778.366	11.31
778.543	8.81
778.72	9.48
778.897	10.07
779.074	8.63
779.251	8.66
779.428	8.22
779.605	6.01
779.782	5.46
779.959	4.35
780.136	4.07
780.313	3.44
780.49	3.13
780.667	1.89
780.844	1.56
781.021	0.66
781.198	1.88
781.375	3.38
781.552	1.52
781.728	1.72
781.905	2.87
782.082	4.83
782.259	6.36
782.436	6.19
782.612	4.64
782.789	4.13
782.966	2.3
783.143	4.95
783.319	6.35
783.496	8.84
783.673	7.93
783.849	8.8
784.026	8.69
784.203	8.85
784.379	8.57
784.556	8.15
784.732	9.97
784.909	11.71
785.085	10.61
785.262	11.31
785.438	12.68
785.615	11.17
785.791	11.52
785.968	12.62
786.144	14.21
786.321	15.54
786.497	15.17
786.673	13.92
786.85	12.49
787.026	12.09
787.203	9.94
787.379	9.43
787.555	8.27
787.731	8.63
787.908	6.72
788.084	9.19
788.26	10.56
788.437	8.9
788.613	7.03
788.789	7.45
788.965	9.25
789.141	8.08
789.317	7.86
789.494	5.76
789.67	3.9
789.846	2.66
790.022	2.33
790.198	2.61
790.374	4.41
790.55	1.41
790.726	1.96
790.902	0.35
791.078	4.24
791.254	4.34
791.43	4.46
791.606	5.04
791.782	2.44
791.958	1.24
792.134	3.19
792.31	3.86
792.486	1.7
792.661	-0.34
792.837	0.87
793.013	1.03
793.189	2.51
793.365	4.65
793.54	6.24
793.716	6.07
793.892	7.34
794.068	5.81
794.243	8.78
794.419	7.26
794.595	8.26
794.77	7.12
794.946	6.95
795.122	7.13
795.297	9.49
795.473	10.49
795.648	12.73
795.824	9.57
796	8.27
796.175	10.17
796.351	10.75
796.526	9.61
796.702	9.6
796.877	11.4
797.052	10.85
797.228	7.54
797.403	5.28
797.579	6.04
797.754	8.21
797.929	8.19
798.105	9.77
798.28	10.45
798.455	11.7
798.631	12.24
798.806	15.77
798.981	15.62
799.157	15.51
799.332	14.57
799.507	18.42
799.682	21.01
799.858	20.04
800.033	19.66
800.208	20.62
800.383	22.47
800.558	18.44
800.733	18.92
800.908	21.72
801.083	21.91
801.258	21.31
801.434	22.92
801.609	24.85
801.784	23.55
801.959	21.25
802.134	18.78
802.309	16.51
802.484	11.59
802.658	12.25
802.833	11.42
803.008	11.92
803.183	9.04
803.358	7.37
803.533	9.12
803.708	8.61
803.883	8.2
804.057	5.74
804.232	10.9
804.407	11.77
804.582	11.25
804.756	11.9
804.931	9.7
805.106	7.22
805.281	5.94
805.455	5.21
805.63	8.27
805.805	8.08
805.979	12.01
806.154	13.12
806.328	11.44
806.503	11.36
806.678	9.74
806.852	12.1
807.027	13.42
807.201	8.07
807.376	9.73
807.55	9.34
807.725	8.4
807.899	8.6
808.074	10.79
808.248	12.03
808.422	11.22
808.597	12.62
808.771	14.65
808.946	17.51
809.12	20.44
809.294	18.84
809.468	21.46
809.643	21.7
809.817	21.81
809.991	21.45
810.166	22.59
810.34	24.91
810.514	24.64
810.688	21.97
810.862	24.47
811.037	24.92
811.211	23.5
811.385	25.25
811.559	23.26
811.733	20.48
811.907	19.71
812.081	21.93
812.255	20.95
812.429	18.26
812.603	17.1
812.777	18.59
812.951	16.5
813.125	12.65
813.299	9.45
813.473	8.36
813.647	11.45
813.821	10.85
813.995	8.3
814.169	6.82
814.343	6.82
814.516	10.77
814.69	12.3
814.864	11.68
815.038	12.52
815.212	13.41
815.385	13.05
815.559	13
815.733	12.06
815.907	10.92
816.08	11.77
816.254	10.92
816.428	7.28
816.601	7.77
816.775	12.42
816.948	12.68
817.122	14.26
817.296	13.13
817.469	14
817.643	18.02
817.816	18.93
817.99	19.69
818.163	17.99
818.337	15.14
818.51	18.68
818.684	20.5
818.857	19.45
819.031	15.54
819.204	16.39
819.377	15.82
819.551	18.3
819.724	19.53
819.897	19.23
820.071	19.62
820.244	22.61
820.417	19.76
820.591	17.89
820.764	18.4
820.937	19.62
821.11	16.19
821.284	12.26
821.457	14.47
821.63	16.83
821.803	17.08
821.976	19.2
822.149	21.04
822.322	21.61
822.496	22.05
822.669	26.97
822.842	27.25
823.015	28.37
823.188	26.05
823.361	24.53
823.534	22.38
823.707	22.94
823.88	17.17
824.053	16.31
824.226	19
824.399	18.4
824.571	15.52
824.744	18.41
824.917	20.17
825.09	16.24
825.263	17.25
825.436	18.87
825.608	16.05
825.781	12.62
825.954	12.02
826.127	9.77
826.299	8.34
826.472	5.47
826.645	8.44
826.818	11.54
826.99	12.5
827.163	13.71
827.336	14.12
827.508	20.38
827.681	21.59
827.853	19.37
828.026	19.9
828.198	21.35
828.371	23.27
828.544	23.3
828.716	22.95
828.889	19.38
829.061	13.89
829.233	14.13
829.406	14.23
829.578	13.56
829.751	16.78
829.923	13.47
830.096	15.37
830.268	12.46
830.44	12.81
830.613	11.19
830.785	13.46
830.957	11.65
831.129	10.68
831.302	12.59
831.474	14.03
831.646	17.27
831.818	16.42
831.991	13.6
832.163	15.23
832.335	18.58
832.507	18.61
832.679	22.06
832.851	20.94
833.023	21.66
833.195	19.9
833.368	21.28
833.54	23.98
833.712	22.83
833.884	23.19
834.056	22.45
834.228	24.39
834.4	25.96
834.571	24.5
834.743	25.48
834.915	22.12
835.087	22.39
835.259	19.58
835.431	16.73
835.603	13.41
835.775	7.48
835.946	7.05
836.118	7.45
836.29	8.72
836.462	10.1
836.634	12.88
836.805	12.36
836.977	10.62
837.149	8.42
837.32	10.27
837.492	14.13
837.664	11.94
837.835	11.42
838.007	4.79
838.179	8.34
838.35	9.66
838.522	16.18
838.693	17.35
838.865	15.09
839.036	20.05
839.208	25.03
839.379	25.5
839.551	27.05
839.722	29.06
839.894	24.72
840.065	25.09
840.237	23.08
840.408	21.21
840.579	19.77
840.751	20.86
840.922	19.37
841.093	15.69
841.265	16.5
841.436	17.93
841.607	19.26
841.778	18.84
841.95	16.34
842.121	14.3
842.292	15.43
842.463	16.73
842.635	18.35
842.806	16.07
842.977	18.66
843.148	17.52
843.319	18.67
843.49	21.06
843.661	19.74
843.832	18.82
844.003	24.51
844.174	29.46
844.345	29.16
844.516	26.13
844.687	29.4
844.858	33.83
845.029	31.91
845.2	31.69
845.371	31.09
845.542	29.68
845.713	29.09
845.884	28.27
846.055	25.85
846.225	23.95
846.396	25.14
846.567	29.29
846.738	23.39
846.909	21.25
847.079	20.51
847.25	23.83
847.421	24.61
847.591	19.51
847.762	17.69
847.933	19.16
848.103	27.07
848.274	22.65
848.445	20.3
848.615	23
848.786	24.73
848.956	27.44
849.127	30.32
849.297	33.02
849.468	30.63
849.638	34.38
849.809	35.16
849.979	35.52
850.15	31.8
850.32	36.85
850.491	36.61
850.661	41.18
850.831	40.62
851.002	40.37
851.172	43.47
851.342	43.36
851.513	41.62
851.683	38.66
851.853	40.36
852.024	40.3
852.194	36.1
852.364	37.59
852.534	39.59
852.705	36.78
852.875	34.74
853.045	35.8
853.215	33.22
853.385	35.82
853.555	37.27
853.725	35.54
853.895	36.64
854.066	36.54
854.236	30.38
854.406	26.25
854.576	24.12
854.746	19.62
854.916	26.16
855.086	25.4
855.256	27.14
855.425	31.12
855.595	39.69
855.765	40.83
855.935	41.1
856.105	30.96
856.275	37.18
856.445	26.7
856.614	21.71
856.784	29.75
856.954	29.52
857.124	29.39
857.294	33.51
857.463	31.37
857.633	34.7
857.803	32.04
857.972	37.7
858.142	42.17
858.312	49.94
858.481	39.25
858.651	35.57
858.821	32.71
858.99	29.41
859.16	15.25
859.329	22.72
859.499	23.99
859.668	37.13
859.838	32.16
860.007	40.45
860.177	45.26
860.346	40.12
860.516	40.28
860.685	35.8
860.854	34.87
861.024	30.8
861.193	26.84
861.363	29.95
861.532	23.66
861.701	23.83
861.87	19.47
862.04	23.58
862.209	32.11
862.378	32.98
862.547	31.57
862.717	36.23
862.886	32.08
863.055	27.4
863.224	18.85
863.393	22.51
863.563	22.29
863.732	23.15
863.901	23.12
864.07	21.37
864.239	19.21
864.408	19.1
864.577	21.58
864.746	22.17
864.915	21.65
865.084	23.23
865.253	21.62
865.422	23.21
865.591	20.34
865.76	16.37
865.929	13.38
866.097	13.12
866.266	4.26
866.435	6.33
866.604	6.91
866.773	4.01
866.942	-3
867.11	-10.39
867.279	-19
867.448	-13.7
867.617	-14.43
867.785	-9
867.954	-21.18
868.123	-20.98
868.291	-27.65
868.46	-14.8
868.629	-3.12
868.797	-1.2
868.966	0.25
869.134	9.6
869.303	18.9
869.472	24.3
869.64	28.9
869.809	35.95
869.977	33.12
870.146	36.13
870.314	44.25
870.482	47.98
870.651	46.39
870.819	55.91
870.988	49.03
871.156	50.07
871.324	51.54
871.493	56.54
871.661	70.84
871.829	82
871.998	79.1
872.166	78.67
872.334	74.72
872.502	64.28
872.671	57.13
872.839	46.03
873.007	52.6
873.175	41.92
873.343	42.43
873.512	47.26
873.68	45.88
873.848	45.81
874.016	49.52
874.184	54.26
874.352	43.89
874.52	47.86
874.688	46.14
874.856	39.31
875.024	34.35
875.192	24.94
875.36	13.47
875.528	12.11
875.696	17.43
875.864	24.54
876.032	21.4
876.199	25.41
876.367	34.16
876.535	24.14
876.703	35.72
876.871	46.17
877.039	44.3
877.206	49.62
877.374	54.71
877.542	49.63
877.71	56.75
877.877	64.12
878.045	80.19
878.213	75.52
878.38	91.05
878.548	97.72
878.715	94.4
878.883	99.43
879.051	101.27
879.218	84.95
879.386	78.47
879.553	79.13
879.721	84.47
879.888	84.73
880.056	105.55
880.223	117.89
880.391	119.68
880.558	115.11
880.726	109.93
880.893	100.52
881.06	84.14
881.228	86.87
881.395	73.78
881.562	62.14
881.73	60.74
881.897	64.52
882.064	63.12
882.231	53.49
882.399	59.04
882.566	61.9
882.733	94.21
882.9	117.24
883.068	98.83
883.235	81.4
883.402	82.57
883.569	58.58
883.736	56.89
883.903	56.86
884.07	59.8
884.237	55.29
884.404	62.05
884.571	82.83
884.738	65.83
884.905	78.08
885.072	73.46
885.239	85.22
885.406	71.74
