Data from Transmission_09-26-43-803.txt Node
Date: Fri Aug 24 09:26:43 EEST 2018
User: tibor.sos
Spectrometer: USB4F01757
Scans to average: 10
Trigger mode: 4
Integration Time (sec): 1.000000E-2
Electric dark correction enabled: true
Boxcar width: 10
XAxis mode: Wavelengths
Number of Pixels in Spectrum: 3648
>>>>>Begin Spectral Data<<<<<
178.758	84.35
178.974	119.85
179.191	137.76
179.407	81.26
179.624	67.23
179.84	50.58
180.057	29.56
180.273	24.74
180.489	43.59
180.706	-7.41
180.922	3.34
181.138	5.26
181.355	29.05
181.571	27.88
181.787	46.96
182.004	32.89
182.22	31.59
182.436	-21.45
182.653	10.77
182.869	-1.76
183.085	-34.54
183.301	7.42
183.518	46.63
183.734	44.42
183.95	50.39
184.166	48.56
184.383	62.27
184.599	67.71
184.815	54.03
185.031	42.18
185.247	52.03
185.463	68.86
185.68	67.52
185.896	80.85
186.112	110.88
186.328	100.29
186.544	146.4
186.76	135.59
186.976	144.03
187.192	137.67
187.408	184.61
187.624	219.42
187.84	159.15
188.056	126.28
188.272	127.98
188.488	129.07
188.704	131.6
188.92	135.13
189.136	129.82
189.352	174.79
189.568	199.65
189.784	230.76
190	182.46
190.216	183.3
190.432	173.47
190.648	200.32
190.864	493.41
191.08	332.61
191.296	156.04
191.511	161.53
191.727	225.42
191.943	231.55
192.159	133.28
192.375	156.99
192.591	208.93
192.806	274.51
193.022	200.08
193.238	366.09
193.454	365.56
193.669	517.27
193.885	493.76
194.101	762.2
194.317	458.35
194.532	3140.45
194.748	-2439.5
194.964	1114.73
195.18	439.52
195.395	346.1
195.611	319.98
195.827	568.76
196.042	1013.25
196.258	483.63
196.473	366.96
196.689	450.81
196.905	556.94
197.12	2034.65
197.336	628.83
197.551	-722.75
197.767	200300
197.982	529.54
198.198	2815.07
198.414	1877.53
198.629	411.78
198.845	355.91
199.06	471.92
199.276	336.27
199.491	849.19
199.707	239.59
199.922	191.08
200.137	198.59
200.353	185.49
200.568	139.07
200.784	171.28
200.999	163.84
201.215	246.54
201.43	263.12
201.645	212.49
201.861	242.47
202.076	189.86
202.291	206.48
202.507	180.75
202.722	117.4
202.937	187.43
203.153	75.73
203.368	15.39
203.583	-27.83
203.798	-50.04
204.014	-39.19
204.229	-25.93
204.444	-17.44
204.659	-239.35
204.875	-85.05
205.09	431.09
205.305	-1066.04
205.52	443.09
205.735	115.57
205.951	524
206.166	-14.94
206.381	40.87
206.596	-660
206.811	30.99
207.026	-89.67
207.241	-4.63
207.457	230.22
207.672	1076.86
207.887	-1064.49
208.102	-246.97
208.317	-232.08
208.532	600.56
208.747	-360.11
208.962	-129.34
209.177	289.26
209.392	144.24
209.607	117.42
209.822	148.33
210.037	154.67
210.252	205.88
210.467	280.04
210.682	136.76
210.897	158.37
211.112	132.87
211.326	157.87
211.541	184.1
211.756	115.81
211.971	205.25
212.186	128.61
212.401	146.84
212.616	135.28
212.831	146.38
213.045	239.65
213.26	162.53
213.475	167.42
213.69	236.29
213.905	245.29
214.119	598.64
214.334	-3388.89
214.549	-192.31
214.764	34.72
214.978	24.23
215.193	50.2
215.408	-438.46
215.622	129.43
215.837	1162.22
216.052	-909.2
216.266	-126.33
216.481	-112.8
216.696	-30.61
216.91	2445.45
217.125	278.12
217.34	391.19
217.554	308.65
217.769	-234.57
217.983	-99.53
218.198	-320.61
218.412	-592.6
218.627	622.49
218.842	394.35
219.056	309.23
219.271	302.94
219.485	404.94
219.7	365.38
219.914	308.39
220.129	591.62
220.343	322.34
220.558	198.01
220.772	254.38
220.986	195.21
221.201	313.93
221.415	-170.16
221.63	-0.3
221.844	-30.14
222.058	-100
222.273	-71.73
222.487	-37.87
222.702	-15.31
222.916	13.59
223.13	74.16
223.344	82.16
223.559	69.83
223.773	62.68
223.987	62.71
224.202	41.07
224.416	86.35
224.63	95.83
224.844	70.55
225.059	57.41
225.273	-520.2
225.487	677.6
225.701	133.12
225.915	112.11
226.13	134.81
226.344	142.78
226.558	115.06
226.772	91.59
226.986	88.96
227.2	110.42
227.415	104.69
227.629	147.98
227.843	166.58
228.057	135.59
228.271	120.98
228.485	131.21
228.699	166.28
228.913	179.34
229.127	151.94
229.341	169.35
229.555	228.63
229.769	242.34
229.983	273.09
230.197	273.78
230.411	328.63
230.625	344.99
230.839	170.77
231.053	234.22
231.267	854.5
231.481	688.73
231.695	382.88
231.909	340.88
232.122	169.8
232.336	171.12
232.55	244.97
232.764	235.62
232.978	299.26
233.192	304.45
233.405	304.86
233.619	290.78
233.833	81.86
234.047	105.76
234.261	238.17
234.474	126.12
234.688	-326.98
234.902	-157.14
235.116	-44.97
235.329	-29.14
235.543	-146.36
235.757	46.14
235.97	23.02
236.184	43.1
236.398	74.05
236.612	89.83
236.825	117.92
237.039	190.18
237.252	163.87
237.466	570.13
237.68	2225.42
237.893	-111300
238.107	-248.62
238.32	157.39
238.534	-1.2
238.748	83.36
238.961	154.21
239.175	104.57
239.388	139.32
239.602	204.99
239.815	134.56
240.029	166.38
240.242	156.6
240.456	48.87
240.669	83.42
240.882	79.43
241.096	186.91
241.309	187.28
241.523	273.1
241.736	286.27
241.95	-332.4
242.163	390.23
242.376	74.83
242.59	-52
242.803	566.67
243.016	78.85
243.23	511.76
243.443	4673.33
243.656	-782.71
243.87	-66.52
244.083	-7.88
244.296	-46.85
244.509	-34.45
244.723	-72.57
244.936	-39.29
245.149	-93.78
245.362	-106.13
245.576	-68.74
245.789	-92.18
246.002	-27.99
246.215	-37.48
246.428	-19.88
246.641	-5.67
246.855	4.59
247.068	-2
247.281	-40.51
247.494	-5.9
247.707	-23.56
247.92	-19.95
248.133	4.54
248.346	-22.24
248.559	-11.81
248.772	1.14
248.985	19.75
249.198	48.45
249.411	47.91
249.624	48.73
249.837	42.34
250.05	56.3
250.263	48.54
250.476	34.27
250.689	32.5
250.902	29.44
251.115	10.35
251.328	14.88
251.541	16.42
251.754	21.96
251.967	20.31
252.18	25.86
252.393	17.88
252.605	19.65
252.818	20.34
253.031	17.12
253.244	25.05
253.457	10.21
253.67	-7.62
253.882	-6.69
254.095	5.78
254.308	18.04
254.521	19.73
254.733	18.58
254.946	17.44
255.159	20.52
255.372	28.17
255.584	30.86
255.797	29.48
256.01	21.54
256.222	20.31
256.435	11.87
256.648	25.09
256.86	23.49
257.073	30.21
257.285	28.73
257.498	41.81
257.711	31.3
257.923	31.29
258.136	42.68
258.348	47.7
258.561	39.07
258.773	12.61
258.986	-16.04
259.198	-26.89
259.411	-78.32
259.623	-32.85
259.836	-37.49
260.048	-34.21
260.261	2.54
260.473	14.12
260.686	20.05
260.898	26.91
261.111	1
261.323	9.93
261.535	1.35
261.748	9.72
261.96	10.86
262.173	17.06
262.385	16.22
262.597	17.63
262.81	18.75
263.022	20.27
263.234	32.08
263.447	35.63
263.659	43.2
263.871	48
264.083	39.17
264.296	35.72
264.508	35.72
264.72	23.6
264.932	27.32
265.145	14.07
265.357	4.97
265.569	2.56
265.781	-0.02
265.993	-6.91
266.205	-20.17
266.418	-24.82
266.63	-70.55
266.842	-51.78
267.054	-45.46
267.266	-35.38
267.478	-35.33
267.69	-34.84
267.902	-31.53
268.114	-56.3
268.326	-44.22
268.538	-41.27
268.75	-31.09
268.962	-18.09
269.174	-8.59
269.386	9.05
269.598	26.13
269.81	31.68
270.022	33.31
270.234	31.56
270.446	36.19
270.658	36.03
270.87	30.36
271.082	37.72
271.294	40.78
271.506	35.85
271.718	31.95
271.929	30.79
272.141	30.25
272.353	34.58
272.565	39.73
272.777	40.59
272.989	37.1
273.2	44.17
273.412	42.96
273.624	40.69
273.836	38.27
274.047	39.01
274.259	41.74
274.471	42.08
274.683	41.6
274.894	40.77
275.106	40.87
275.318	41.81
275.529	42.62
275.741	30.24
275.953	36.76
276.164	43.94
276.376	48.92
276.588	53.44
276.799	51.12
277.011	47.6
277.222	54.22
277.434	49.87
277.646	37.41
277.857	32.16
278.069	34.5
278.28	20.98
278.492	24.01
278.703	23.93
278.915	31.85
279.126	28.78
279.338	18.78
279.549	15.48
279.761	22.33
279.972	20.38
280.183	27.07
280.395	26.44
280.606	14.49
280.818	5.23
281.029	9.01
281.24	7.77
281.452	1.24
281.663	-2.29
281.875	1.34
282.086	5.57
282.297	-0.53
282.508	5.24
282.72	7.39
282.931	11.51
283.142	7.65
283.354	-6.93
283.565	-5.95
283.776	6.65
283.987	0.53
284.199	-18.59
284.41	-2.36
284.621	-3.24
284.832	-2.43
285.043	4.95
285.254	-4.35
285.466	-10.81
285.677	-6.29
285.888	-0.8
286.099	1.21
286.31	5.69
286.521	-3.22
286.732	1.54
286.943	0.8
287.154	8.19
287.366	-1.27
287.577	-1.68
287.788	10.48
287.999	8.38
288.21	-1.14
288.421	6.67
288.632	17.85
288.843	6.52
289.054	5.79
289.264	2.65
289.475	2.24
289.686	12.21
289.897	10.21
290.108	10.47
290.319	7.96
290.53	11.26
290.741	5.84
290.952	10.93
291.163	15.59
291.373	14.39
291.584	15.36
291.795	16.03
292.006	17.42
292.217	16.07
292.427	18.33
292.638	25.35
292.849	21.45
293.06	24.49
293.27	30.21
293.481	33.65
293.692	29.99
293.903	30.48
294.113	27.28
294.324	32.93
294.535	34.21
294.745	33.67
294.956	34.86
295.167	34.86
295.377	37.93
295.588	30.1
295.798	29.06
296.009	22.1
296.22	21.59
296.43	16.53
296.641	14.68
296.851	16.34
297.062	9.69
297.272	11.33
297.483	8.82
297.693	0.73
297.904	3.51
298.114	12.47
298.325	13.36
298.535	11.95
298.746	2.95
298.956	0.85
299.167	0.62
299.377	-13.49
299.587	-4.64
299.798	-6.15
300.008	-7.24
300.219	-9.44
300.429	-1.81
300.639	3.73
300.85	8.97
301.06	2.33
301.27	6.91
301.481	7.2
301.691	4.83
301.901	3.94
302.111	4.82
302.322	0.25
302.532	-3.34
302.742	-9.45
302.952	-3.95
303.163	-5.75
303.373	-9.04
303.583	3.84
303.793	18.77
304.003	12.36
304.214	11.73
304.424	14.21
304.634	9.8
304.844	8.33
305.054	7.83
305.264	4.83
305.474	5.45
305.684	-4.87
305.894	-2.01
306.104	0.46
306.314	-0.12
306.525	-1.76
306.735	3.9
306.945	-0.41
307.155	4.28
307.365	5.65
307.575	7.81
307.784	8.41
307.994	-0.61
308.204	-8.3
308.414	-4.87
308.624	-8.79
308.834	-7.27
309.044	0.04
309.254	-1.05
309.464	-4.52
309.674	0.95
309.884	0.29
310.093	5.25
310.303	5.3
310.513	13.58
310.723	16.83
310.933	18.97
311.142	19.2
311.352	19.27
311.562	19.46
311.772	17.89
311.981	19.54
312.191	21.42
312.401	19.24
312.611	18.1
312.82	13.05
313.03	17.52
313.24	14.07
313.449	14.72
313.659	13.54
313.869	11.89
314.078	13.36
314.288	18.87
314.497	19.86
314.707	19.58
314.917	11.77
315.126	13.85
315.336	20.48
315.545	15.67
315.755	18.63
315.964	13.17
316.174	17.8
316.383	13.87
316.593	10.39
316.802	15.14
317.012	17.02
317.221	20.42
317.431	14.37
317.64	16.5
317.849	12.69
318.059	12.67
318.268	21.03
318.478	19.88
318.687	19.38
318.896	18.23
319.106	17.04
319.315	14.48
319.524	3.47
319.734	-3.93
319.943	1.13
320.152	-1.66
320.362	3.78
320.571	0.19
320.78	3.43
320.989	14.27
321.199	15.52
321.408	17.71
321.617	16
321.826	21.76
322.035	20.1
322.245	23.49
322.454	19.29
322.663	15.02
322.872	9.34
323.081	7.08
323.29	5.87
323.5	5.72
323.709	8.1
323.918	14.24
324.127	10.88
324.336	1.36
324.545	-1.72
324.754	-1.09
324.963	-4.64
325.172	-3.08
325.381	-13.12
325.59	-11.87
325.799	-12.93
326.008	-12.47
326.217	-20.97
326.426	-8.74
326.635	-10.25
326.844	0.86
327.053	4.58
327.262	14.15
327.47	12.83
327.679	19.49
327.888	18.48
328.097	16.88
328.306	18.49
328.515	24.77
328.724	33.83
328.932	33.02
329.141	30.6
329.35	32.07
329.559	33.27
329.768	35.24
329.976	28.51
330.185	23.34
330.394	25.64
330.602	30.23
330.811	19.11
331.02	17.8
331.229	13.9
331.437	12.32
331.646	3.91
331.855	6.14
332.063	-1.52
332.272	-3.92
332.48	-2.06
332.689	-5.18
332.898	-8.3
333.106	-11.1
333.315	-2.47
333.523	-7.24
333.732	-8.82
333.94	-12.68
334.149	-9.92
334.357	-8.5
334.566	-9.68
334.774	-12.25
334.983	-15.89
335.191	-18.06
335.4	-20.18
335.608	-17.49
335.817	-24.48
336.025	-7.81
336.234	-7.64
336.442	3.84
336.65	11.41
336.859	11.72
337.067	12.32
337.275	11.71
337.484	8.29
337.692	5.73
337.9	18.02
338.109	23.22
338.317	23.68
338.525	22.28
338.734	24.87
338.942	33.88
339.15	25.44
339.358	28.72
339.567	36.23
339.775	37.51
339.983	23.83
340.191	23.9
340.399	11.07
340.608	22.28
340.816	26.23
341.024	23.26
341.232	18.15
341.44	16.79
341.648	23.82
341.856	21.99
342.064	17.38
342.272	3.43
342.481	2.41
342.689	2.58
342.897	0.24
343.105	-1.9
343.313	10.51
343.521	15.09
343.729	7.03
343.937	-5.19
344.145	-10.68
344.353	1.56
344.56	-1.01
344.768	5.7
344.976	-12.74
345.184	-26.42
345.392	-31.9
345.6	-31.01
345.808	-29.23
346.016	-37.09
346.224	-34.23
346.431	-28.49
346.639	-15.16
346.847	-16.2
347.055	-16.93
347.263	-17.32
347.471	-13.12
347.678	-22.01
347.886	-32.69
348.094	-14.08
348.302	2.6
348.509	9.85
348.717	4.6
348.925	6.91
349.132	4.13
349.34	7.59
349.548	16.64
349.755	29.57
349.963	29.38
350.171	24.25
350.378	20.7
350.586	19.57
350.793	19.42
351.001	24.77
351.209	16.15
351.416	24.9
351.624	25.98
351.831	16.58
352.039	12.51
352.246	20.8
352.454	11.93
352.661	6.01
352.869	2.23
353.076	2.82
353.284	11.46
353.491	15.01
353.699	17.78
353.906	17.21
354.113	14.16
354.321	13.53
354.528	13.47
354.736	15.13
354.943	16.52
355.15	21.5
355.358	15.79
355.565	19.97
355.772	14.47
355.98	14.84
356.187	17.19
356.394	14.54
356.601	6.37
356.809	13.78
357.016	16.27
357.223	17.24
357.43	13.5
357.638	11.25
357.845	10.88
358.052	3.93
358.259	4.81
358.466	5.23
358.673	11.52
358.881	16.54
359.088	16.09
359.295	15.52
359.502	7.08
359.709	6.59
359.916	3.42
360.123	2.8
360.33	-8.92
360.537	-12.14
360.744	-10.64
360.951	1.47
361.158	5.76
361.365	12.92
361.572	18.5
361.779	23.07
361.986	16.71
362.193	8.46
362.4	10.17
362.607	-6.42
362.814	-14.15
363.021	-13.3
363.228	-17.76
363.435	-14.08
363.641	-16.13
363.848	-13.97
364.055	-13.87
364.262	-4.9
364.469	-3.13
364.676	1.64
364.882	3.89
365.089	4.42
365.296	-3.26
365.503	-11.92
365.709	-22.81
365.916	-29.02
366.123	-29.84
366.33	-25.07
366.536	-18.35
366.743	-16.02
366.95	-11.13
367.156	-3.23
367.363	0.38
367.57	3.12
367.776	0.04
367.983	7.13
368.19	5.79
368.396	5.15
368.603	-2.58
368.809	2.53
369.016	10.79
369.222	5.72
369.429	8.14
369.635	17.41
369.842	22.73
370.048	31.98
370.255	33.4
370.461	34.42
370.668	35.39
370.874	31.9
371.081	35.41
371.287	45.89
371.494	40.72
371.7	37.23
371.906	32
372.113	30.56
372.319	28.01
372.526	30.23
372.732	24.51
372.938	23.83
373.145	18.15
373.351	12.95
373.557	18.02
373.763	15.96
373.97	15.2
374.176	19.43
374.382	16.97
374.588	17.77
374.795	19.42
375.001	15.86
375.207	13.3
375.413	8.48
375.62	1.59
375.826	4.28
376.032	12.78
376.238	15.89
376.444	13.6
376.65	10.76
376.856	4.9
377.062	15.63
377.269	23.96
377.475	20.24
377.681	29.5
377.887	18.3
378.093	13.03
378.299	9.95
378.505	-2.53
378.711	2.24
378.917	-15.17
379.123	-19.54
379.329	-17
379.535	-12.18
379.741	-11.14
379.947	-13.1
380.152	-8.99
380.358	-14.97
380.564	-18.59
380.77	-26.16
380.976	-25.72
381.182	-18.77
381.388	-20.37
381.594	-25.66
381.799	-13.7
382.005	-13.73
382.211	-5.17
382.417	-0.7
382.623	-5.23
382.828	-1.28
383.034	-4.39
383.24	-1.2
383.445	-5.04
383.651	-8
383.857	-13.89
384.063	-14.93
384.268	-28.17
384.474	-28.02
384.68	-35.46
384.885	-26.83
385.091	-16.26
385.296	-13.14
385.502	-13
385.708	-15.19
385.913	-12.02
386.119	-26.37
386.324	-33.05
386.53	-35.95
386.735	-46.5
386.941	-27.99
387.146	-25.06
387.352	-18.52
387.557	5.14
387.763	10.39
387.968	8.23
388.174	14.95
388.379	8.81
388.585	15.41
388.79	7.05
388.996	5.8
389.201	8
389.406	7.62
389.612	-2.55
389.817	1.51
390.022	3.78
390.228	6.02
390.433	15.57
390.638	24.87
390.844	24.73
391.049	26.9
391.254	19.8
391.459	22.4
391.665	22.4
391.87	5.75
392.075	2.75
392.28	5.82
392.485	5.54
392.691	6.99
392.896	6.05
393.101	14.03
393.306	28
393.511	24.19
393.716	26.83
393.922	31.4
394.127	24.87
394.332	27.79
394.537	30.72
394.742	26.08
394.947	14.44
395.152	13.33
395.357	16.98
395.562	23.2
395.767	16.66
395.972	16.69
396.177	21.54
396.382	25.56
396.587	30.34
396.792	23.67
396.997	34.45
397.202	38.81
397.407	38.49
397.611	34.74
397.816	35.71
398.021	31.17
398.226	24.26
398.431	27.26
398.636	21.04
398.841	15.9
399.045	19.42
399.25	15
399.455	17.79
399.66	12.51
399.864	7.92
400.069	6.29
400.274	9.65
400.479	13.16
400.683	14.24
400.888	10.76
401.093	9.69
401.297	0.48
401.502	-3.11
401.707	-11.25
401.911	-12.73
402.116	-9.17
402.321	11.55
402.525	23.62
402.73	22.48
402.934	25.19
403.139	30.25
403.344	34.38
403.548	41.53
403.753	29.49
403.957	37.24
404.162	30.21
404.366	48.48
404.571	42.68
404.775	44.24
404.98	45.75
405.184	44.7
405.388	39.65
405.593	38.38
405.797	30.69
406.002	36.86
406.206	36.41
406.41	35.33
406.615	29.62
406.819	33.09
407.023	38.36
407.228	41.8
407.432	36.1
407.636	29.03
407.841	23.09
408.045	25
408.249	19.65
408.453	28.84
408.658	24.26
408.862	20.02
409.066	14.63
409.27	10.38
409.474	10.36
409.679	6.99
409.883	6.77
410.087	-5.51
410.291	-7.75
410.495	-22.2
410.699	-32.65
410.903	-32.15
411.108	-36.67
411.312	-53.34
411.516	-66.64
411.72	-50.45
411.924	-40
412.128	-29.95
412.332	-27.18
412.536	-21.05
412.74	-21.89
412.944	-28.55
413.148	-31.07
413.352	-36.23
413.556	-36.61
413.76	-41.98
413.964	-22.68
414.167	-18.27
414.371	-6.84
414.575	-3.21
414.779	-0.08
414.983	9.1
415.187	4.78
415.391	-2.54
415.594	9.29
415.798	12.61
416.002	4.66
416.206	13.51
416.41	13.39
416.613	10.55
416.817	4.33
417.021	6.97
417.225	10.47
417.428	-0.28
417.632	-6.94
417.836	-1.39
418.039	6.05
418.243	5.54
418.447	3.86
418.65	5.28
418.854	4.45
419.057	14.97
419.261	7.36
419.465	-0.72
419.668	5.96
419.872	-0.7
420.075	-5.41
420.279	3.62
420.482	5.65
420.686	4.28
420.889	3.9
421.093	15.46
421.296	11.19
421.5	4.57
421.703	6.11
421.907	16.18
422.11	10.44
422.314	-1.04
422.517	-17.83
422.72	-7.98
422.924	2.41
423.127	-2.14
423.33	-13.07
423.534	-9.5
423.737	-5.57
423.94	-4.79
424.144	2.21
424.347	7.01
424.55	3.32
424.754	-8.1
424.957	-13.59
425.16	-0.83
425.363	-2.13
425.567	7.12
425.77	14.84
425.973	18.81
426.176	10.77
426.379	8.66
426.582	21.71
426.786	33.76
426.989	33
427.192	34.13
427.395	36.79
427.598	31.93
427.801	31.13
428.004	35.98
428.207	35.89
428.41	35.24
428.613	33.68
428.816	37.91
429.019	34.35
429.222	35.4
429.425	32.53
429.628	27.33
429.831	17.63
430.034	16.32
430.237	18.54
430.44	19.69
430.643	21.06
430.846	19.53
431.049	15.85
431.252	14.72
431.454	5.51
431.657	-2.07
431.86	6.59
432.063	3.69
432.266	0.09
432.469	-4.44
432.671	-3.77
432.874	-3.06
433.077	-5.49
433.28	5.9
433.482	2.8
433.685	-3.68
433.888	-0.89
434.09	-0.46
434.293	-10.52
434.496	-18.31
434.698	-16.54
434.901	-10.07
435.104	-10.34
435.306	-7.31
435.509	-11.13
435.712	-5.42
435.914	-11.65
436.117	-15.09
436.319	-5.56
436.522	-4.53
436.724	-0.71
436.927	-0.76
437.129	4.84
437.332	-0.68
437.534	-11.35
437.737	-5.02
437.939	8.62
438.142	-1.2
438.344	4.5
438.547	7.07
438.749	24.2
438.951	14.1
439.154	12.33
439.356	10.38
439.558	14.21
439.761	16.23
439.963	14.05
440.165	12.92
440.368	17.4
440.57	-2.43
440.772	-2.06
440.975	-3.3
441.177	4.96
441.379	-0.2
441.581	4.29
441.784	1.84
441.986	9.75
442.188	1.96
442.39	2.74
442.592	2.02
442.795	9.26
442.997	1.17
443.199	3.29
443.401	5.58
443.603	9.05
443.805	0.04
444.007	-0.3
444.209	5.48
444.411	20.6
444.613	19.17
444.815	30.43
445.017	32.96
445.219	29.22
445.421	24.03
445.623	23.61
445.825	16.53
446.027	19.16
446.229	9.17
446.431	19.96
446.633	22.44
446.835	19.65
447.037	14.24
447.239	19.34
447.441	21.86
447.643	21.38
447.844	6.5
448.046	11.38
448.248	11.8
448.45	4.39
448.652	-12.01
448.853	-5.76
449.055	-6.39
449.257	-19.19
449.459	-24.69
449.66	-15.93
449.862	-27.44
450.064	-9.54
450.266	-19.14
450.467	-10.47
450.669	-21.31
450.871	-27.48
451.072	-21.1
451.274	-24.27
451.475	-23.55
451.677	-13.8
451.879	-26.12
452.08	-28.54
452.282	-10.44
452.483	-24.01
452.685	-14.07
452.886	-0.53
453.088	-13.23
453.289	-33.45
453.491	-37.98
453.692	-46.65
453.894	-34.32
454.095	-16.42
454.297	-24.73
454.498	-12.8
454.7	-22.42
454.901	-9
455.102	0.42
455.304	-3.8
455.505	-0.14
455.706	-3.01
455.908	2.89
456.109	-1.3
456.31	6.26
456.512	-4.69
456.713	5.17
456.914	2.77
457.116	-10.74
457.317	-5.83
457.518	-1.84
457.719	7.03
457.921	8.68
458.122	5.17
458.323	1.78
458.524	5.72
458.725	5.15
458.926	6.66
459.128	6.38
459.329	5.87
459.53	8.67
459.731	8.27
459.932	5.68
460.133	2.41
460.334	11.5
460.535	12.73
460.736	17.89
460.937	12.21
461.138	13.23
461.339	18.38
461.54	20.25
461.741	21.24
461.942	13.71
462.143	21.97
462.344	17.31
462.545	20.79
462.746	16.77
462.947	6.32
463.148	8.81
463.348	3.89
463.549	-2.36
463.75	-5.55
463.951	-3.42
464.152	-4.94
464.353	-5.76
464.553	4.93
464.754	5.03
464.955	2.79
465.156	8.79
465.356	4.27
465.557	1.11
465.758	1.71
465.959	1.21
466.159	7.47
466.36	0.71
466.561	0.34
466.761	-1.08
466.962	1.71
467.163	12.97
467.363	10.89
467.564	15.41
467.764	13.97
467.965	17.21
468.166	9.73
468.366	18.52
468.567	15.64
468.767	11.37
468.968	11.2
469.168	16.64
469.369	13.84
469.569	15.99
469.77	14.54
469.97	7.85
470.17	12.73
470.371	10.93
470.571	8.31
470.772	12.8
470.972	18.25
471.172	19.78
471.373	21.08
471.573	23.36
471.773	22.25
471.974	26.82
472.174	23.27
472.374	33.23
472.575	27.5
472.775	26.76
472.975	21
473.175	20.15
473.376	14.02
473.576	15.64
473.776	17.75
473.976	15.49
474.177	22.33
474.377	11.92
474.577	11.12
474.777	18.42
474.977	12.08
475.177	5.96
475.377	3.04
475.577	2.13
475.777	2.77
475.978	0.78
476.178	1.53
476.378	6.46
476.578	3.74
476.778	0.79
476.978	-1.18
477.178	3.67
477.378	6.63
477.578	12.45
477.778	11.95
477.977	9.48
478.177	13.4
478.377	11.37
478.577	18.06
478.777	20
478.977	16.26
479.177	17.29
479.377	16.14
479.577	14.75
479.776	12.75
479.976	9.5
480.176	10.2
480.376	13.58
480.576	10.38
480.775	8.02
480.975	15.63
481.175	15.49
481.374	10.51
481.574	10.36
481.774	8.16
481.974	10.01
482.173	10.21
482.373	4.15
482.572	3.9
482.772	5.96
482.972	6.08
483.171	7.84
483.371	14.75
483.57	19.13
483.77	25.26
483.97	29.26
484.169	29.32
484.369	28.36
484.568	22.2
484.768	24.73
484.967	23.51
485.167	23.91
485.366	24.79
485.566	28.3
485.765	26.44
485.964	23.75
486.164	18.55
486.363	20.79
486.563	21.64
486.762	22.75
486.961	22.33
487.161	21.39
487.36	19.39
487.559	12.83
487.759	4.8
487.958	-3.47
488.157	-7.3
488.356	-3.62
488.556	-1.9
488.755	-2.49
488.954	-3.02
489.153	0.54
489.353	-0.68
489.552	-2.13
489.751	-9.04
489.95	-7.63
490.149	-9.09
490.348	-6.85
490.548	-7.09
490.747	-7.84
490.946	-6.36
491.145	-10.22
491.344	-12.53
491.543	-13.12
491.742	-6.51
491.941	-4.63
492.14	0.63
492.339	-2.05
492.538	-7.24
492.737	-4.11
492.936	-1.14
493.135	-5.53
493.334	-12.58
493.533	-15.79
493.732	-7.57
493.931	0.35
494.13	-1.8
494.328	2.41
494.527	8.24
494.726	7.17
494.925	4.87
495.124	3.26
495.323	1.56
495.521	3.91
495.72	5.67
495.919	4.72
496.118	7.52
496.316	7.64
496.515	8.89
496.714	9.06
496.913	10.95
497.111	9.3
497.31	6.13
497.509	7.7
497.707	10.24
497.906	9.34
498.105	5.2
498.303	3.95
498.502	6.7
498.7	5.01
498.899	-0.28
499.097	-0.69
499.296	-2.18
499.495	1.65
499.693	-2.07
499.892	-3.56
500.09	-7.72
500.289	2.43
500.487	1.48
500.686	0.06
500.884	-1.58
501.082	-7.04
501.281	-4.47
501.479	1.05
501.678	4.16
501.876	3.11
502.074	2.07
502.273	2.8
502.471	4.86
502.669	-3.19
502.868	-5.95
503.066	0.9
503.264	6.56
503.463	7.63
503.661	4.63
503.859	7.86
504.057	8.88
504.256	8.74
504.454	2.58
504.652	2.13
504.85	6.78
505.048	11.68
505.246	12.38
505.445	12.31
505.643	8.67
505.841	8.04
506.039	8.92
506.237	5.5
506.435	8.7
506.633	5.45
506.831	13.13
507.029	12.12
507.227	9.31
507.425	9.18
507.623	8.55
507.821	7.01
508.019	9.88
508.217	12.52
508.415	13.37
508.613	14.44
508.811	14.46
509.009	12.01
509.207	14.34
509.405	16.4
509.603	16.11
509.8	14.53
509.998	13.82
510.196	14.45
510.394	18.32
510.592	16.13
510.79	19.14
510.987	16.36
511.185	18.47
511.383	18.88
511.581	19.01
511.778	20.12
511.976	24.38
512.174	17.76
512.371	10.6
512.569	11.4
512.767	9.36
512.964	5.24
513.162	4.95
513.36	0.42
513.557	-6.23
513.755	-6.7
513.952	0.14
514.15	-0.34
514.348	-3.34
514.545	-7.15
514.743	-3.2
514.94	-3.4
515.138	-4.21
515.335	-7.7
515.533	-7.01
515.73	-7.65
515.927	-8.61
516.125	-12.3
516.322	-8.34
516.52	-2.26
516.717	-1.38
516.915	-0.56
517.112	2.23
517.309	1.93
517.507	4.87
517.704	4.69
517.901	1.16
518.099	-3.95
518.296	-2.8
518.493	-0.21
518.69	-0.51
518.888	-2.12
519.085	-1.22
519.282	-0.43
519.479	1.83
519.676	-2.59
519.874	-4.56
520.071	-7.14
520.268	-4.87
520.465	-2.76
520.662	-4.18
520.859	-6.39
521.056	-7.05
521.254	-3.75
521.451	-1.68
521.648	-2.84
521.845	2.33
522.042	8.87
522.239	13.28
522.436	9.09
522.633	4.09
522.83	5.62
523.027	0.58
523.224	2.76
523.421	5.73
523.618	0.29
523.815	6.15
524.011	5.7
524.208	13.32
524.405	14.49
524.602	11.81
524.799	8.11
524.996	5
525.193	4.82
525.389	0.42
525.586	-3.05
525.783	-8.91
525.98	-10.48
526.176	-11.32
526.373	-14.55
526.57	-10.04
526.767	-7.23
526.963	-8.7
527.16	-4.68
527.357	-9.03
527.553	-12.63
527.75	-10.06
527.947	-11.24
528.143	-7.37
528.34	-13.41
528.537	-18.16
528.733	-12.24
528.93	-6.31
529.126	-3.06
529.323	-5.61
529.519	-3.59
529.716	-6.24
529.912	-5.99
530.109	-4.67
530.305	-9.84
530.502	-9.04
530.698	-7.7
530.895	-11.42
531.091	-5.69
531.288	-4.8
531.484	-4.12
531.68	-2.92
531.877	-1.14
532.073	-1.75
532.269	-1.65
532.466	-2.43
532.662	-1.18
532.858	-3.06
533.055	-4.3
533.251	-1.73
533.447	-1.64
533.643	1.44
533.84	3.12
534.036	7.12
534.232	7.7
534.428	8.25
534.624	10.44
534.821	10.39
535.017	14.27
535.213	11.79
535.409	13.48
535.605	13.21
535.801	9.5
535.997	8.39
536.193	6.32
536.389	6.06
536.586	7.42
536.782	9.78
536.978	9.22
537.174	9.76
537.37	6.87
537.566	9.88
537.762	6.43
537.958	7.92
538.153	5.94
538.349	6.42
538.545	9.41
538.741	8.1
538.937	6.05
539.133	4.49
539.329	5.08
539.525	2.45
539.721	6.15
539.916	9.79
540.112	6.54
540.308	10.5
540.504	8.21
540.699	12.83
540.895	10.16
541.091	14.9
541.287	16.12
541.482	14.34
541.678	12.4
541.874	15.34
542.069	15.5
542.265	19.31
542.461	17
542.656	15.08
542.852	15.76
543.048	16.98
543.243	19.64
543.439	21.08
543.634	20.04
543.83	17.64
544.025	16.77
544.221	19.79
544.417	21.55
544.612	23.57
544.807	21.28
545.003	19.43
545.198	16.2
545.394	14.17
545.589	18.22
545.785	17.57
545.98	12.55
546.176	10.6
546.371	6.92
546.566	8.65
546.762	7.49
546.957	6.19
547.152	5.64
547.348	1.97
547.543	2.24
547.738	1.4
547.933	1.04
548.129	3.55
548.324	4.74
548.519	-0.12
548.714	-1.33
548.91	-2.31
549.105	-0.73
549.3	0.4
549.495	3.5
549.69	1.35
549.885	3.01
550.08	8.16
550.276	8.52
550.471	9.9
550.666	6.6
550.861	7.95
551.056	7.81
551.251	6.03
551.446	10.14
551.641	7.26
551.836	8.74
552.031	6.97
552.226	4.88
552.421	0.83
552.616	2.78
552.811	5.51
553.006	5.63
553.201	3.25
553.395	3.69
553.59	-0.71
553.785	1.04
553.98	-1.62
554.175	-3.19
554.37	-2.57
554.565	-2.9
554.759	-2.57
554.954	-4.83
555.149	-3.85
555.344	-1.22
555.538	-2.74
555.733	-1.9
555.928	-0.51
556.122	-0.06
556.317	-3.61
556.512	-1.78
556.706	-3.47
556.901	-4.97
557.096	-4.22
557.29	-2.4
557.485	-4.11
557.68	-4.09
557.874	-5.91
558.069	-2.17
558.263	-3.68
558.458	-1.78
558.652	-2.15
558.847	-3.3
559.041	-0.36
559.236	-1.46
559.43	-4.13
559.625	-3.71
559.819	-4.15
560.014	-3.94
560.208	-4.43
560.402	-2.11
560.597	-3.09
560.791	-1.49
560.986	-1.46
561.18	-3
561.374	-0.43
561.569	-3.77
561.763	-2.08
561.957	-3.75
562.151	-7.46
562.346	-4.27
562.54	-3.37
562.734	-4.55
562.928	-2.32
563.123	-0.82
563.317	-1.17
563.511	1.37
563.705	-2.27
563.899	-2.67
564.093	-5.19
564.288	-3.47
564.482	-2.16
564.676	0.29
564.87	-0.17
565.064	-0.09
565.258	2.81
565.452	-0.6
565.646	4.1
565.84	2.22
566.034	2.55
566.228	4.67
566.422	3.9
566.616	2.37
566.81	5.24
567.004	6.49
567.198	5.2
567.392	5
567.586	2.1
567.779	6.15
567.973	7.26
568.167	9.22
568.361	9.38
568.555	8.68
568.749	8.94
568.942	8.03
569.136	9.88
569.33	6.78
569.524	7.83
569.718	8.52
569.911	11.58
570.105	14.09
570.299	13.62
570.492	12.69
570.686	14.99
570.88	14.26
571.073	13.19
571.267	12.94
571.461	14.49
571.654	15.91
571.848	15.05
572.041	15.78
572.235	15.95
572.429	17.09
572.622	15.43
572.816	15.12
573.009	16.05
573.203	13.77
573.396	15.87
573.59	16.63
573.783	14.94
573.976	13.54
574.17	11.64
574.363	10.54
574.557	10.19
574.75	8.78
574.943	9.58
575.137	10.7
575.33	11.82
575.523	10.59
575.717	10.48
575.91	10.01
576.103	8.57
576.297	7.51
576.49	6.91
576.683	8.31
576.876	7.54
577.07	6.2
577.263	6.55
577.456	6.3
577.649	6.04
577.842	7.33
578.036	8.29
578.229	8.71
578.422	8.07
578.615	8.81
578.808	8.24
579.001	8.1
579.194	7.32
579.387	9.01
579.58	8.78
579.773	8.79
579.966	9.44
580.159	9.76
580.352	11.39
580.545	11.75
580.738	10.37
580.931	9.5
581.124	12.08
581.317	9.65
581.51	8.02
581.703	8.16
581.896	5.48
582.088	4.37
582.281	6.16
582.474	6.93
582.667	5.96
582.86	6.43
583.053	4.77
583.245	4.69
583.438	0.21
583.631	2.69
583.824	1.06
584.016	-0.24
584.209	-1.82
584.402	-2.25
584.594	-1.65
584.787	-0.18
584.98	2.59
585.172	4.07
585.365	5.21
585.558	5.15
585.75	5.04
585.943	6.66
586.135	7.61
586.328	6.16
586.52	9.17
586.713	9.99
586.906	9.63
587.098	10.72
587.291	12.07
587.483	12.96
587.675	11.53
587.868	10.44
588.06	10.54
588.253	13.56
588.445	13.65
588.638	11.72
588.83	12.79
589.022	9.87
589.215	7.04
589.407	9.49
589.599	9.99
589.792	10
589.984	10.14
590.176	9.82
590.368	11.37
590.561	8.87
590.753	10.21
590.945	10.04
591.137	9.7
591.33	7.76
591.522	9.53
591.714	8.53
591.906	14.32
592.098	15.11
592.29	12.74
592.482	13.09
592.674	13.85
592.867	12.12
593.059	13.21
593.251	12.76
593.443	11.14
593.635	12.54
593.827	11.3
594.019	10.38
594.211	9.05
594.403	8.31
594.595	9.41
594.787	8.11
594.979	8.53
595.17	8.69
595.362	9.23
595.554	7.25
595.746	7.74
595.938	4.82
596.13	5.45
596.322	6.35
596.513	1.98
596.705	1.56
596.897	0.78
597.089	1.04
597.281	1.77
597.472	2.56
597.664	0.19
597.856	1.32
598.048	2.92
598.239	2.67
598.431	1.71
598.623	1.11
598.814	-0.8
599.006	0.45
599.197	1.6
599.389	0.32
599.581	-1.21
599.772	-0.58
599.964	-0.44
600.155	-1.22
600.347	-2.35
600.538	1.35
600.73	1.94
600.921	2.93
601.113	2.36
601.304	3.23
601.496	2.24
601.687	4.41
601.879	3.95
602.07	4.45
602.262	4.86
602.453	5.39
602.644	4.13
602.836	6.14
603.027	3.81
603.218	2.55
603.41	3.06
603.601	5.2
603.792	6.49
603.983	6.82
604.175	7.48
604.366	6.99
604.557	6.6
604.748	5.82
604.94	6.35
605.131	5.15
605.322	4.04
605.513	4.94
605.704	4.92
605.895	7.08
606.086	5.85
606.278	8.07
606.469	9.06
606.66	10.78
606.851	8.24
607.042	9.59
607.233	9.82
607.424	9.03
607.615	8.99
607.806	8.04
607.997	7.58
608.188	6.42
608.379	6.94
608.57	6.2
608.761	5.42
608.952	6.27
609.142	8.06
609.333	8.66
609.524	8.22
609.715	8.42
609.906	6.93
610.097	7.75
610.287	4.38
610.478	2.72
610.669	3.79
610.86	5.6
611.051	4.74
611.241	4.63
611.432	5.33
611.623	5.86
611.813	5.71
612.004	6.1
612.195	7.02
612.385	7.24
612.576	8.82
612.767	10.79
612.957	9.84
613.148	8.57
613.338	8.66
613.529	8.24
613.72	7.6
613.91	8.33
614.101	6.94
614.291	9.23
614.482	10.37
614.672	8.28
614.863	8.47
615.053	8.8
615.243	9.39
615.434	9.5
615.624	7.26
615.815	7.39
616.005	7.39
616.195	5.88
616.386	5.75
616.576	5.61
616.766	4.84
616.957	4.68
617.147	4.93
617.337	3.51
617.528	3.81
617.718	2.14
617.908	0.51
618.098	1.01
618.289	0.8
618.479	-0.41
618.669	-0.18
618.859	1.05
619.049	1.79
619.239	2.25
619.43	0.87
619.62	1.88
619.81	2.33
620	2.48
620.19	2.29
620.38	1.92
620.57	1.9
620.76	2.01
620.95	2.94
621.14	3.35
621.33	4.74
621.52	5.91
621.71	5.76
621.9	7.09
622.09	7.23
622.28	8.36
622.47	7.74
622.659	6.98
622.849	6.39
623.039	6.75
623.229	5.78
623.419	7.45
623.609	7.31
623.799	6.16
623.988	5.18
624.178	4.76
624.368	3.68
624.558	3.62
624.747	3.89
624.937	3.51
625.127	2.37
625.316	0.27
625.506	0.76
625.696	2.5
625.885	1.02
626.075	2.14
626.265	1.88
626.454	3.81
626.644	6.36
626.833	5.78
627.023	5.56
627.212	4.37
627.402	5.1
627.591	7.03
627.781	6.73
627.97	7.91
628.16	9.14
628.349	10.64
628.539	9.14
628.728	9.14
628.918	9.34
629.107	10.68
629.296	10.64
629.486	8.45
629.675	8.87
629.865	9.35
630.054	9.03
630.243	6.3
630.432	4.69
630.622	4.28
630.811	4.09
631	3.99
631.19	6.22
631.379	5.51
631.568	4.09
631.757	6.38
631.946	6.23
632.136	7.51
632.325	7.75
632.514	9.87
632.703	7.88
632.892	5.64
633.081	5.28
633.27	6.75
633.459	8.39
633.648	6.89
633.837	6.21
634.026	5.1
634.215	7.81
634.404	7.8
634.593	7.99
634.782	8.03
634.971	6.61
635.16	5.2
635.349	5.22
635.538	5.85
635.727	3.48
635.916	1.92
636.105	1.77
636.294	2.13
636.482	1.04
636.671	2.45
636.86	5.38
637.049	6.32
637.238	4.94
637.426	4.49
637.615	4.03
637.804	4.18
637.993	5.56
638.181	3.08
638.37	4.27
638.559	2.85
638.747	1.78
638.936	3.6
639.125	4.89
639.313	5.97
639.502	5.72
639.691	5.92
639.879	6.5
640.068	6.29
640.256	4.18
640.445	4.05
640.633	5.65
640.822	4.8
641.01	5.46
641.199	6.46
641.387	6.89
641.576	8.84
641.764	10.85
641.953	9.94
642.141	10.95
642.329	11.67
642.518	11.17
642.706	12.78
642.894	11.14
643.083	10.64
643.271	7.66
643.459	8.7
643.648	7.81
643.836	7.16
644.024	5.86
644.213	7.14
644.401	6.6
644.589	3.85
644.777	4.47
644.965	4.05
645.154	4.16
645.342	4.43
645.53	3.32
645.718	1.81
645.906	1.58
646.094	2.13
646.282	1.84
646.47	4.54
646.658	4.21
646.846	3.24
647.034	3.86
647.223	5.24
647.411	3.37
647.599	3.45
647.786	3.87
647.974	4.43
648.162	4.08
648.35	6.06
648.538	7.86
648.726	6.83
648.914	6.66
649.102	7.78
649.29	7.88
649.478	8.4
649.665	8.96
649.853	9.15
650.041	9.23
650.229	8.7
650.417	6.75
650.604	6.03
650.792	8.32
650.98	7.73
651.168	7.1
651.355	7.96
651.543	7.74
651.731	7.01
651.918	5.55
652.106	6.21
652.294	4.83
652.481	4.4
652.669	4.94
652.856	5.76
653.044	5.45
653.231	4.23
653.419	4.11
653.606	4.45
653.794	5.08
653.981	4.79
654.169	4.15
654.356	3.33
654.544	3.89
654.731	2.78
654.919	2.22
655.106	2.17
655.294	2.96
655.481	4.46
655.668	5.48
655.856	6.49
656.043	5.86
656.23	6.7
656.418	7.64
656.605	7.48
656.792	6.33
656.979	6.56
657.167	6.77
657.354	7.03
657.541	7.26
657.728	6.06
657.916	6.18
658.103	6.71
658.29	8.65
658.477	10.64
658.664	10.54
658.851	11.21
659.038	12.28
659.225	10.28
659.412	10.45
659.6	9.89
659.787	11.03
659.974	9.75
660.161	10.45
660.348	10.11
660.535	13.08
660.722	12.65
660.909	11.97
661.095	12.96
661.282	13.87
661.469	12.58
661.656	13.46
661.843	14.09
662.03	12.78
662.217	12.01
662.404	10.93
662.59	11.07
662.777	10.54
662.964	10.76
663.151	12.16
663.338	12.71
663.524	12.42
663.711	10.83
663.898	13.07
664.085	11.89
664.271	10.82
664.458	8.61
664.645	8.25
664.831	8.99
665.018	8.82
665.204	8.93
665.391	8.71
665.578	7.12
665.764	5.21
665.951	5.18
666.137	4.47
666.324	5.07
666.51	4.53
666.697	4.72
666.883	3.79
667.07	3.36
667.256	2.62
667.443	2.82
667.629	3.35
667.816	2.84
668.002	2.18
668.188	4.11
668.375	3.32
668.561	3.25
668.747	1.63
668.934	0.97
669.12	-0.28
669.306	0.08
669.493	1.2
669.679	3.29
669.865	2.9
670.051	2.45
670.238	1.46
670.424	1.78
670.61	0.76
670.796	0.86
670.982	1.41
671.169	1.95
671.355	1.57
671.541	1.02
671.727	1.28
671.913	1.29
672.099	-0.21
672.285	-1.4
672.471	-0.64
672.657	-0.82
672.843	0.93
673.029	0.84
673.215	1.96
673.401	3.61
673.587	1.96
673.773	2.41
673.959	3.04
674.145	2.79
674.331	3.82
674.517	4
674.703	4.74
674.888	4.45
675.074	3.19
675.26	4.67
675.446	4.73
675.632	2.8
675.817	3.08
676.003	3.34
676.189	4.44
676.375	4.56
676.56	6.4
676.746	5.82
676.932	4.23
677.117	3.83
677.303	2.68
677.489	3.45
677.674	2.98
677.86	2.51
678.046	3.43
678.231	3.13
678.417	4.02
678.602	2.81
678.788	2.71
678.973	4.57
679.159	5.18
679.344	5.93
679.53	8.04
679.715	7.22
679.901	6.38
680.086	6.57
680.272	4.52
680.457	2.48
680.643	0.85
680.828	1.55
681.013	1.88
681.199	0.96
681.384	1.08
681.569	2.16
681.755	2.87
681.94	2.38
682.125	1.29
682.31	2.51
682.496	2.8
682.681	3.8
682.866	2.27
683.051	0.4
683.237	0.82
683.422	1.23
683.607	2.24
683.792	4.02
683.977	3.77
684.162	5.4
684.347	7.22
684.532	7.78
684.717	7.35
684.903	6.78
685.088	7.76
685.273	6.54
685.458	6.48
685.643	6.92
685.828	4.96
686.013	6.01
686.198	4.5
686.382	6.05
686.567	4.62
686.752	6.44
686.937	7.53
687.122	7.14
687.307	6.16
687.492	4.93
687.677	2.95
687.861	2.95
688.046	2.24
688.231	2.35
688.416	3.21
688.601	3.78
688.785	3.59
688.97	4.17
689.155	6.81
689.339	5.77
689.524	4.98
689.709	6.53
689.893	7.14
690.078	7.76
690.263	6.77
690.447	6.98
690.632	4.76
690.816	6.57
691.001	7.59
691.186	7.05
691.37	8.64
691.555	9.91
691.739	10.54
691.924	11.68
692.108	10.91
692.293	11.24
692.477	11.28
692.661	11.4
692.846	10.34
693.03	9.25
693.215	9.81
693.399	9.48
693.583	9.22
693.768	8.55
693.952	7.89
694.136	7.32
694.321	8.08
694.505	8.8
694.689	6.91
694.873	6.53
695.058	6.49
695.242	6.36
695.426	5.19
695.61	4.29
695.794	3.98
695.979	3.54
696.163	1.44
696.347	3.23
696.531	2.93
696.715	4.24
696.899	4.04
697.083	3.24
697.267	5.06
697.451	5.31
697.635	5.45
697.819	5.05
698.003	5.79
698.187	5.41
698.371	5.78
698.555	6.47
698.739	6.61
698.923	8.12
699.107	8.53
699.291	9
699.475	9.61
699.659	9.28
699.842	9.61
700.026	10.28
700.21	9.03
700.394	9.8
700.578	9.34
700.761	9.8
700.945	11.77
701.129	10.85
701.313	10.16
701.496	11.29
701.68	11.4
701.864	10.82
702.047	11.7
702.231	13.01
702.415	12.42
702.598	10.62
702.782	8.98
702.965	8.57
703.149	9.84
703.333	9.15
703.516	9.64
703.7	9.53
703.883	10.14
704.067	8.49
704.25	7.52
704.434	5.68
704.617	4.87
704.801	3.77
704.984	4.11
705.167	4.55
705.351	2.76
705.534	4.16
705.718	5.35
705.901	3.71
706.084	2.7
706.268	2.01
706.451	3.72
706.634	5.19
706.817	3.06
707.001	1.27
707.184	2.64
707.367	2.28
707.55	2.28
707.734	2.39
707.917	3.54
708.1	3.5
708.283	5.07
708.466	6.05
708.649	5.86
708.832	5.17
709.015	6
709.199	7.37
709.382	6.42
709.565	6.85
709.748	6.65
709.931	6.8
710.114	7.25
710.297	7.2
710.48	6.1
710.663	8.2
710.846	8.02
711.028	6.01
711.211	5.28
711.394	5.03
711.577	4.11
711.76	3.03
711.943	2.65
712.126	3.06
712.309	2.31
712.491	2.51
712.674	1.99
712.857	1.58
713.04	0.28
713.222	-0.1
713.405	-1.37
713.588	-0.15
713.771	-0.39
713.953	-0.63
714.136	-1.27
714.319	-0.14
714.501	-0.94
714.684	-0.84
714.866	1.41
715.049	3.05
715.232	4.06
715.414	4.35
715.597	6.14
715.779	5.46
715.962	4.97
716.144	4.76
716.327	6.67
716.509	6.88
716.692	6.09
716.874	6.45
717.057	6.55
717.239	6.95
717.421	6.7
717.604	5.55
717.786	7.76
717.968	7.33
718.151	6.34
718.333	5.51
718.515	6.01
718.698	3.41
718.88	3.29
719.062	2.64
719.244	3.87
719.427	2.7
719.609	4.67
719.791	3.7
719.973	4.58
720.155	1.62
720.338	2.2
720.52	3.85
720.702	4.27
720.884	5.97
721.066	6.21
721.248	3.67
721.43	4.53
721.612	2.21
721.794	3.42
721.976	3
722.158	4.08
722.34	4.04
722.522	6.54
722.704	5.88
722.886	5.25
723.068	6.46
723.25	6.92
723.432	6.25
723.614	7.58
723.796	7.02
723.977	7.49
724.159	7.95
724.341	6.94
724.523	5.59
724.705	5.17
724.886	4.66
725.068	7.06
725.25	8.42
725.432	9.04
725.613	7.29
725.795	8.27
725.977	9.02
726.158	9.24
726.34	9.1
726.522	9.43
726.703	10.74
726.885	9.67
727.066	9.37
727.248	9.9
727.43	9.69
727.611	9.62
727.793	10.84
727.974	10.11
728.156	10.18
728.337	8.59
728.519	7.86
728.7	7.98
728.882	6.26
729.063	5.05
729.244	4.45
729.426	5.74
729.607	5.37
729.788	3.75
729.97	3.52
730.151	3.04
730.332	3.64
730.514	2.6
730.695	3.12
730.876	3.89
731.058	3.07
731.239	2.88
731.42	2.29
731.601	1.2
731.782	1.23
731.964	0.23
732.145	1.52
732.326	0.18
732.507	1.35
732.688	3.76
732.869	5.08
733.05	6.36
733.231	6.11
733.412	5.46
733.593	6.1
733.774	7.28
733.955	6.37
734.136	5.48
734.317	5.23
734.498	4.1
734.679	3.38
734.86	1.76
735.041	2.22
735.222	2.83
735.403	4.5
735.584	4.79
735.765	6.41
735.946	7
736.126	6.33
736.307	5.17
736.488	3.11
736.669	-0.73
736.849	-2.47
737.03	-1.5
737.211	-0.05
737.392	0.2
737.572	-3.24
737.753	-2.97
737.934	-3.65
738.114	-1.45
738.295	-1.2
738.476	-1.68
738.656	1.01
738.837	2.16
739.017	1.49
739.198	0.74
739.378	1.64
739.559	0.39
739.74	1.05
739.92	0.44
740.1	0.49
740.281	0.55
740.461	3.05
740.642	4.39
740.822	1.87
741.003	1.01
741.183	0.6
741.363	2.15
741.544	2.21
741.724	2.81
741.904	0.59
742.085	0.86
742.265	1.22
742.445	-0.54
742.626	-1.39
742.806	-0.14
742.986	-1.12
743.166	-2.24
743.347	-1.54
743.527	-1.32
743.707	-0.38
743.887	-1.05
744.067	-2.38
744.247	-1.92
744.427	-1.76
744.608	0.95
744.788	1.79
744.968	3.21
745.148	5.52
745.328	4.94
745.508	5.09
745.688	6.46
745.868	5.68
746.048	6.23
746.228	7.82
746.408	7.78
746.588	4.88
746.767	6.75
746.947	6.27
747.127	5.17
747.307	3.72
747.487	4.25
747.667	4.38
747.847	6.86
748.026	4.88
748.206	5.06
748.386	5.29
748.566	4.28
748.745	3.54
748.925	1.75
749.105	3.53
749.285	3.82
749.464	3.67
749.644	2.92
749.824	2.7
750.003	2.37
750.183	0.29
750.362	2.73
750.542	0.86
750.722	0.9
750.901	1.93
751.081	2.8
751.26	3.8
751.44	3.5
751.619	1.7
751.799	1.83
751.978	-0.14
752.158	-0.82
752.337	-0.01
752.516	-0.01
752.696	-0.2
752.875	-1.16
753.055	-1.13
753.234	-0.23
753.413	1.72
753.593	3.32
753.772	2.23
753.951	3.63
754.13	3.96
754.31	3.59
754.489	3.59
754.668	4.57
754.847	5.53
755.027	6.12
755.206	6.56
755.385	7.92
755.564	8.93
755.743	9.46
755.922	9.63
756.101	8.18
756.28	8.74
756.46	9.18
756.639	7.81
756.818	7.9
756.997	7.86
757.176	6.41
757.355	5.95
757.534	6.87
757.713	7.34
757.892	7.06
758.07	8.36
758.249	9.27
758.428	7.45
758.607	6.79
758.786	6.58
758.965	6.3
759.144	6.47
759.323	5.85
759.501	5.72
759.68	5.86
759.859	7.31
760.038	6.66
760.216	5.66
760.395	7.9
760.574	7.24
760.753	6.72
760.931	8.13
761.11	7.49
761.289	6.9
761.467	5.71
761.646	5.91
761.824	6.29
762.003	4.58
762.182	5.41
762.36	4.95
762.539	4.46
762.717	4.83
762.896	4.04
763.074	3.85
763.253	5.01
763.431	5.84
763.61	5.65
763.788	5.76
763.966	6.47
764.145	5.95
764.323	6.57
764.502	4.55
764.68	2.6
764.858	0.87
765.037	2.75
765.215	3.69
765.393	3.25
765.571	3.31
765.75	4.59
765.928	4.23
766.106	4.45
766.284	4.44
766.463	4.56
766.641	5.4
766.819	7.5
766.997	7.22
767.175	5.35
767.353	4.69
767.531	4.73
767.71	4.74
767.888	4.61
768.066	4.17
768.244	5.35
768.422	8.06
768.6	11.07
768.778	9.61
768.956	9.23
769.134	10.36
769.312	9.6
769.489	8.21
769.667	10.18
769.845	10.36
770.023	11.18
770.201	11.32
770.379	11.65
770.557	11.13
770.735	10.96
770.912	10.32
771.09	10.08
771.268	10.56
771.446	10.08
771.623	10.3
771.801	11.26
771.979	12.09
772.157	9.22
772.334	8.57
772.512	8.63
772.69	6.84
772.867	5.93
773.045	5.47
773.222	6.75
773.4	5.16
773.577	5.6
773.755	5.68
773.933	6.47
774.11	5.99
774.288	5.88
774.465	5.33
774.643	5.64
774.82	6.69
774.997	6.54
775.175	6.53
775.352	7.93
775.53	6.74
775.707	6.42
775.884	8.11
776.062	7.62
776.239	7.92
776.416	9.99
776.594	8.13
776.771	8.14
776.948	8.88
777.125	8.27
777.303	6.2
777.48	6.12
777.657	3.81
777.834	3.61
778.012	2.54
778.189	2.67
778.366	2.23
778.543	-0.3
778.72	-0.32
778.897	0.59
779.074	-0.28
779.251	0.8
779.428	1.6
779.605	1.34
779.782	0.83
779.959	0.44
780.136	0.85
780.313	2.7
780.49	1.37
780.667	0.87
780.844	1.9
781.021	1.63
781.198	-1.47
781.375	-0
781.552	-0.7
781.728	-0.75
781.905	-0.99
782.082	0.01
782.259	0.81
782.436	0.45
782.612	-0.49
782.789	-2.94
782.966	-3.44
783.143	-4.48
783.319	-3.31
783.496	-1.19
783.673	-0.14
783.849	1.4
784.026	2.18
784.203	3.48
784.379	2.97
784.556	2.96
784.732	5.12
784.909	7.54
785.085	8.19
785.262	8.48
785.438	9.52
785.615	9.71
785.791	10.46
785.968	10.32
786.144	11.07
786.321	13.65
786.497	13.17
786.673	11.78
786.85	11.69
787.026	10.18
787.203	8.18
787.379	7.05
787.555	3.61
787.731	1.26
787.908	1.17
788.084	1.42
788.26	-0.52
788.437	-0.56
788.613	-1.78
788.789	-2.75
788.965	-2.33
789.141	-2.5
789.317	-3.32
789.494	-6.36
789.67	-4.92
789.846	-4.4
790.022	-8.12
790.198	-5.68
790.374	-6.05
790.55	-7.43
790.726	-8.69
790.902	-7.22
791.078	-7.1
791.254	-6.7
791.43	-4.63
791.606	-3.33
791.782	-4.34
791.958	-5.52
792.134	-4.59
792.31	-3.35
792.486	-5.36
792.661	-7.07
792.837	-6.66
793.013	-5.94
793.189	-3.29
793.365	-2.34
793.54	-1.15
793.716	0.53
793.892	1.78
794.068	3.09
794.243	4.24
794.419	3.63
794.595	2.2
794.77	2.03
794.946	4.8
795.122	2.57
795.297	1.92
795.473	4
795.648	5.51
795.824	2.89
796	3.22
796.175	3.73
796.351	4.3
796.526	3.15
796.702	4.95
796.877	5.64
797.052	4.78
797.228	1.98
797.403	0.54
797.579	0.4
797.754	2.68
797.929	3.36
798.105	7.16
798.28	6.68
798.455	8.96
798.631	5.37
798.806	7.46
798.981	9.49
799.157	7.86
799.332	7.03
799.507	9.17
799.682	8.53
799.858	9.61
800.033	10.75
800.208	11.96
800.383	11.41
800.558	10.97
800.733	11.87
800.908	9.69
801.083	10.66
801.258	10.04
801.434	10.41
801.609	8.98
801.784	6.91
801.959	8.77
802.134	5.42
802.309	5.33
802.484	4.71
802.658	3.1
802.833	2.36
803.008	3.64
803.183	3.02
803.358	2.38
803.533	3.33
803.708	2.37
803.883	2.05
804.057	-2.1
804.232	0.62
804.407	-0.18
804.582	2.42
804.756	1.5
804.931	0.08
805.106	-3.09
805.281	-1.08
805.455	-1.61
805.63	-1.38
805.805	-1.06
805.979	1.81
806.154	4.17
806.328	4.59
806.503	6.1
806.678	4.92
806.852	5.45
807.027	8.59
807.201	6.7
807.376	7.34
807.55	7.76
807.725	10.36
807.899	10.05
808.074	8.86
808.248	10.73
808.422	10.32
808.597	11.33
808.771	12.57
808.946	13.68
809.12	16.96
809.294	15.59
809.468	18.05
809.643	19.01
809.817	16.63
809.991	16.06
810.166	17.14
810.34	18.63
810.514	20.14
810.688	18.13
810.862	17.74
811.037	19.2
811.211	19.42
811.385	19.53
811.559	19.58
811.733	21.67
811.907	18.99
812.081	19.13
812.255	19.55
812.429	16.88
812.603	15.94
812.777	15.57
812.951	15.67
813.125	13.89
813.299	13.46
813.473	13.03
813.647	12.58
813.821	14.36
813.995	13.82
814.169	8.5
814.343	9.71
814.516	11.14
814.69	10.82
814.864	7.69
815.038	8.25
815.212	6.87
815.385	4.93
815.559	5.61
815.733	7.74
815.907	4.86
816.08	8.96
816.254	8.81
816.428	8.86
816.601	8.62
816.775	8.09
816.948	5.61
817.122	7.03
817.296	7.36
817.469	5.36
817.643	8.27
817.816	10.43
817.99	7.02
818.163	7.23
818.337	6.39
818.51	11.29
818.684	12.6
818.857	10.66
819.031	12.01
819.204	9.62
819.377	10.59
819.551	12.77
819.724	6.41
819.897	8.54
820.071	6.67
820.244	3.68
820.417	5.39
820.591	7.52
820.764	7.79
820.937	6.33
821.11	2.62
821.284	2.95
821.457	8.67
821.63	8.05
821.803	8.15
821.976	10.42
822.149	9.58
822.322	9.81
822.496	11.94
822.669	13.21
822.842	15.51
823.015	12.2
823.188	9.59
823.361	13.97
823.534	8.26
823.707	6.99
823.88	10.34
824.053	8.33
824.226	8.55
824.399	7.44
824.571	7.38
824.744	11.02
824.917	9.72
825.09	3.68
825.263	5.28
825.436	8.14
825.608	5.85
825.781	5.6
825.954	2.41
826.127	-1.67
826.299	-1.82
826.472	-1.17
826.645	1.93
826.818	7.01
826.99	3.93
827.163	7.46
827.336	8.11
827.508	4.44
827.681	5.74
827.853	3.49
828.026	3.02
828.198	3.07
828.371	4.48
828.544	4.2
828.716	4.33
828.889	5.04
829.061	1.19
829.233	-1.28
829.406	-1.84
829.578	0.75
829.751	5.92
829.923	6.23
830.096	5.3
830.268	1.56
830.44	-2.15
830.613	1.62
830.785	3.48
830.957	3.33
831.129	7.75
831.302	9.88
831.474	13.59
831.646	14.47
831.818	16.32
831.991	16.11
832.163	14.99
832.335	16.61
832.507	14.76
832.679	14.16
832.851	17.96
833.023	16.55
833.195	15.37
833.368	14.79
833.54	10.95
833.712	8.02
833.884	10.39
834.056	8.88
834.228	6.43
834.4	5.74
834.571	4.86
834.743	2.1
834.915	-0.95
835.087	-3.38
835.259	-3.09
835.431	-4.51
835.603	-8.69
835.775	-8.3
835.946	-6.75
836.118	-4.72
836.29	-5.11
836.462	-7.73
836.634	-7.95
836.805	-6.86
836.977	-8.9
837.149	-2.7
837.32	-1.44
837.492	2.23
837.664	0.96
837.835	0.99
838.007	-3.1
838.179	-2.77
838.35	3.65
838.522	7.15
838.693	6.88
838.865	4.72
839.036	7.44
839.208	13.24
839.379	11.47
839.551	9.79
839.722	11.96
839.894	12.49
840.065	9.33
840.237	10.4
840.408	8.09
840.579	11.33
840.751	9.24
840.922	11.46
841.093	7.79
841.265	11.67
841.436	16.38
841.607	18.55
841.778	18.7
841.95	17.58
842.121	22.46
842.292	25.22
842.463	30.14
842.635	29.19
842.806	25.16
842.977	25.65
843.148	21.64
843.319	22.46
843.49	23.64
843.661	27.2
843.832	26.74
844.003	32.34
844.174	35.53
844.345	34.5
844.516	28.69
844.687	29.75
844.858	35.53
845.029	30.31
845.2	27.48
845.371	28.91
845.542	24.94
845.713	18.29
845.884	14
846.055	6
846.225	11.02
846.396	13.54
846.567	14.47
846.738	14.69
846.909	10.98
847.079	10.56
847.25	15.27
847.421	13.47
847.591	9.69
847.762	8.02
847.933	7.85
848.103	13.91
848.274	11.38
848.445	2.47
848.615	7.04
848.786	11.96
848.956	10.94
849.127	18.13
849.297	21.48
849.468	25.07
849.638	26.6
849.809	20.56
849.979	21.17
850.15	22.41
850.32	26.58
850.491	28.08
850.661	26.1
850.831	22.91
851.002	28.23
851.172	28.76
851.342	23.45
851.513	23.23
851.683	22.23
851.853	21.09
852.024	24.25
852.194	22.18
852.364	20.31
852.534	19.73
852.705	18.13
852.875	14.11
853.045	14.67
853.215	14.91
853.385	15.21
853.555	11.7
853.725	12.75
853.895	16.22
854.066	12.58
854.236	18.68
854.406	16.01
854.576	14.83
854.746	9.36
854.916	19.4
855.086	17.09
855.256	21.53
855.425	28.36
855.595	27.72
855.765	27.86
855.935	27.45
856.105	25.95
856.275	25.28
856.445	27
856.614	27.08
856.784	29.57
856.954	30.61
857.124	31.5
857.294	32.79
857.463	29.54
857.633	39.12
857.803	32.29
857.972	34.84
858.142	34.63
858.312	39.29
858.481	32.39
858.651	29.82
858.821	30.1
858.99	34.25
859.16	31.11
859.329	32.57
859.499	37.19
859.668	42.49
859.838	44.39
860.007	46.85
860.177	43.62
860.346	43.38
860.516	41.51
860.685	37.01
860.854	32.25
861.024	30.15
861.193	22.91
861.363	24.15
861.532	23.41
861.701	24.55
861.87	23.32
862.04	29.79
862.209	28.09
862.378	24.94
862.547	20.81
862.717	21.83
862.886	20.57
863.055	19.99
863.224	21.01
863.393	18.97
863.563	16.39
863.732	19.62
863.901	14.76
864.07	18.3
864.239	22.84
864.408	23.33
864.577	21.99
864.746	26.77
864.915	25.87
865.084	26.02
865.253	24.95
865.422	21.56
865.591	17.04
865.76	21.52
865.929	25.16
866.097	22.15
866.266	17.76
866.435	18.4
866.604	15.89
866.773	14.31
866.942	10.73
867.11	7.37
867.279	3.93
867.448	12.39
867.617	7.76
867.785	13.52
867.954	14.75
868.123	19.1
868.291	10.53
868.46	20.36
868.629	26.71
868.797	26.14
868.966	25.63
869.134	23.48
869.303	23.84
869.472	16.33
869.64	16.18
869.809	22.7
869.977	20.39
870.146	22.57
870.314	19.6
870.482	26.98
870.651	18.66
870.819	15.76
870.988	13.41
871.156	14.61
871.324	6.84
871.493	3.02
871.661	16.96
871.829	23.85
871.998	20.72
872.166	12.56
872.334	4.54
872.502	9.88
872.671	10.1
872.839	13.39
873.007	21.34
873.175	12.56
873.343	18.79
873.512	27.48
873.68	24.16
873.848	23.97
874.016	18.98
874.184	32.88
874.352	35.08
874.52	38.65
874.688	36.35
874.856	37.62
875.024	41.69
875.192	36.87
875.36	34.45
875.528	26.8
875.696	35.61
875.864	38.75
876.032	38.18
876.199	33.31
876.367	25.96
876.535	24.14
876.703	44.27
876.871	46.81
877.039	51.15
877.206	52.37
877.374	51.12
877.542	50.85
877.71	41.37
877.877	38.52
878.045	37.08
878.213	41.64
878.38	44.75
878.548	51.33
878.715	50.76
878.883	46.8
879.051	57.2
879.218	38.39
879.386	39.94
879.553	41.96
879.721	39.53
879.888	43.41
880.056	47.47
880.223	45.83
880.391	31.64
880.558	11.7
880.726	20.5
880.893	12.44
881.06	6.14
881.228	-13.9
881.395	0.32
881.562	-3.87
881.73	-35.4
881.897	-34.57
882.064	-52.45
882.231	-73.24
882.399	-69.13
882.566	-68.6
882.733	-52.25
882.9	-105.2
883.068	-71.29
883.235	-64.54
883.402	-62.85
883.569	-51.97
883.736	-33.91
883.903	-27.39
884.07	-25.87
884.237	-49.39
884.404	-38.74
884.571	-40.1
884.738	-15.67
884.905	-22.96
885.072	-17.14
885.239	9.14
885.406	-8.51
